epoch,loss,val_loss
0,0.08925843221880496,0.03823463212326169
1,0.03650405303761363,0.03621944604814053
2,0.03414708575606346,0.033557103488594295
3,0.03346835685707629,0.03361073516309261
4,0.03216472486592829,0.028056362081319095
5,0.02831885145045817,0.02625996507331729
6,0.027766465293243527,0.027403146516531706
7,0.027498839156702162,0.026650756914168596
8,0.027424656488001346,0.026200118377804758
9,0.027351397866383194,0.028952959585934877
10,0.027391425635665656,0.026386253327131272
11,0.02722681037336588,0.025914510309696197
12,0.027211849810555577,0.025763926904648543
13,0.02710175738669932,0.026181960444897415
14,0.027202658068388702,0.026388462882488965
15,0.026997783634811638,0.02602288493514061
16,0.026974981505423785,0.02640468156337738
17,0.026970831904560327,0.02589193319529295
18,0.027149111941456795,0.027122780192643404
19,0.026953301219269633,0.025873705327510835
20,0.026995082085952162,0.02584074045345187
21,0.026924467181786895,0.026473504308611156
22,0.02693632341735065,0.025959806695580484
23,0.026875951427966355,0.027636230047792195
24,0.026772938694804908,0.02644582810625434
25,0.0268278114721179,0.02612156866490841
26,0.026867271384224296,0.02578976672142744
27,0.026805346358567475,0.025913150306791068
28,0.026644164895638825,0.026675036031752825
29,0.02682287460938096,0.026001347552984954
30,0.026745901476591824,0.026300604932010172
31,0.026709405744448304,0.026342279344797135
32,0.026628667501732706,0.025697073373943568
33,0.02672763527184725,0.025585925836116075
34,0.02668864449299872,0.026132198415696622
35,0.026720673505216837,0.02634448405727744
36,0.026552909452468156,0.029130949947983025
37,0.026572488682344554,0.02555512472614646
38,0.026589005267247556,0.02673529142513871
39,0.026653134070336818,0.02597353819012642
40,0.026678547205403448,0.025690437685698272
41,0.026581083439290523,0.025487955544143914
42,0.026573520874604583,0.025478579703718425
43,0.026517268560826777,0.02580537039041519
44,0.026639296121895313,0.028388229995965956
45,0.026466062102466822,0.025529438063502313
46,0.02662770644389093,0.02571532991528511
47,0.026533650094643237,0.025490672674030067
48,0.02652891144901514,0.025526454284787177
49,0.026693906923756002,0.026323869917541744
50,0.026451913027092815,0.02577364507690072
51,0.02649631442129612,0.026059516452252865
52,0.026598830580711365,0.02564007489383221
53,0.026487072007730605,0.025868869435042144
54,0.026564056744799017,0.025993305556476116
55,0.02646294041350484,0.025920548152178525
56,0.026464392548426984,0.025510218270123005
57,0.02643515186943114,0.0258205557949841
58,0.0265940254945308,0.026087454218417405
59,0.026446832159534098,0.025622680570930242
60,0.026396858179941772,0.025751355592161417
61,0.026674780605360864,0.025375453796237707
62,0.026651761010289193,0.028746851772069933
63,0.02645280989445746,0.026790035016834735
64,0.026441511515527965,0.025838930185884238
65,0.02659093584306538,0.02627304207906127
66,0.026494760969653725,0.026604352161288262
67,0.026415196038782597,0.02565943393856287
68,0.026348788803443313,0.02582900292426348
69,0.02645576606877148,0.02559772702679038
70,0.026421855786815284,0.02571548718214035
71,0.02641629296913743,0.025503387559205292
72,0.026384066397324206,0.025608895547688006
73,0.026526497453451158,0.025450700629502533
74,0.0263636758569628,0.02558957268297672
75,0.02652724988758564,0.0253719761967659
76,0.02643461227975786,0.025592515572905542
77,0.02638093322329223,0.025392319288104773
78,0.02638106920197606,0.025698330353945493
79,0.026420748302713036,0.025668644912540912
80,0.026381750732660292,0.02542808898538351
81,0.026565526019781828,0.026313384346663953
82,0.026271089565008877,0.02660635767504573
83,0.0264665533490479,0.025845961235463618
84,0.026309456003829838,0.031399040844291445
85,0.02648543693870306,0.02565193811431527
86,0.026353137876838444,0.02579792346805334
87,0.026478348895907403,0.025471151534467936
88,0.02656432126648724,0.02568237756192684
89,0.026431162169203163,0.025521407682448625
90,0.02634509191289544,0.026084300950169562
91,0.02647655662894249,0.025504777003079654
92,0.02625487084314227,0.02573491710424423
93,0.026508838893845678,0.02547277147695422
94,0.026362817227840424,0.02551945983618498
95,0.026463745644316077,0.02563597931340337
96,0.026341616164892914,0.02560944002121687
97,0.026345171198248862,0.025474820017814637
98,0.02637718459032476,0.025416172415018083
99,0.02628346337005496,0.025860433496534826
100,0.026381114035844803,0.025294276278465987
101,0.026346071891486644,0.025626237478107213
102,0.02638475160486996,0.025971327744424344
103,0.02637029832229018,0.025505978144705295
104,0.026330262646079062,0.025787782285362482
105,0.026361970765516163,0.025415603898465634
106,0.026316492091864346,0.025830065649002792
107,0.026476263461634515,0.025713061660528183
108,0.026238300446420906,0.025385321225970984
109,0.026309943914413454,0.02784374849125743
110,0.02629781093634665,0.025747369263321163
111,0.026368707371875643,0.025301895938813688
112,0.02624667876213789,0.025829488895833492
113,0.026329883363097908,0.025432384558022023
114,0.026253449341282247,0.025456735368818043
115,0.02626587900519371,0.02648875166475773
116,0.026329691400751472,0.02540798617526889
117,0.02639264162071049,0.025428652588278054
118,0.026292007794603705,0.025777779288589955
119,0.026378825752064586,0.026340006411075593
120,0.026233896311372518,0.02622627444937825
121,0.026303937306627632,0.02548875968530774
122,0.026247830929234623,0.025858296524733305
123,0.02639348899386823,0.025831922397017478
124,0.026175995087251068,0.02546240460500121
125,0.026280224187299608,0.026848259288817643
126,0.02639178268611431,0.02571144051477313
127,0.026290575105696917,0.025416361797600984
128,0.026266620993614195,0.026007500410079955
129,0.026217728976160287,0.025491960432380438
130,0.026279156876727938,0.02562580892816186
131,0.026249323481693863,0.026525609582662583
132,0.026456617616117,0.025419145345687868
133,0.02636604988016188,0.02569641115516424
134,0.02629153084382415,0.025280853267759085
135,0.02623364886827767,0.02557974252849817
136,0.026190137177705766,0.02528528854250908
137,0.02628143846616149,0.025416535187512638
138,0.026334409235045313,0.027269081097096203
139,0.026513609802350402,0.025717315286397934
140,0.026211602441966533,0.025625776883214713
141,0.02618591551668942,0.025549050107598305
142,0.02624789396673441,0.025435505248606206
143,0.026238988729193807,0.02538006442040205
144,0.02630329890549183,0.025427301436662674
145,0.026352870414033534,0.025623376056551933
146,0.026208377838134764,0.02534911172837019
147,0.026370445722714065,0.025497115626931192
148,0.026294267423450948,0.025415295872837303
149,0.026198694108054043,0.025655494466423987
150,0.026282364571467043,0.025704958006739616
151,0.02635744852386415,0.025367835849523544
152,0.026272885901853442,0.025630630996078253
153,0.026257373446598647,0.025375583302229644
154,0.026231374010443686,0.02540187194943428
155,0.02627481780387461,0.02534572209045291
156,0.026215742552652955,0.025325842898339033
157,0.026411441270262005,0.025365041118115186
158,0.02630764577537775,0.025847542986273765
159,0.02627307570166886,0.025302499402314424
160,0.02623684609308839,0.025419186525046825
161,0.026247204480692746,0.025662342939525844
162,0.026197687581181527,0.026210055593401192
163,0.026250853281468152,0.025320128481835128
164,0.026254851818084717,0.025642307102680208
165,0.026264276579022406,0.02534457781910896
166,0.02627237045764923,0.025382443081587554
167,0.02619893821887672,0.025610663618892433
168,0.02623934384249151,0.02586596731469035
169,0.026171910075470806,0.0254915900118649
