epoch,loss,val_loss
0,0.6079740696966477,0.601653072526378
1,0.6012630100732124,0.6011058160448193
2,0.6010052633630083,0.6009516184146587
3,0.5943687713667941,0.5510767971315692
4,0.5508890750201153,0.5507280651748032
5,0.5456021256837845,0.5059043910899765
6,0.5008790119280467,0.5007037431371419
7,0.5007657578635769,0.5006710649128292
8,0.5007482991889576,0.5009052392270962
9,0.500728369659997,0.5009536524860202
10,0.5006996821458545,0.5006079470845073
11,0.50069083799855,0.5005991245617641
12,0.5006754963146911,0.5005605116671428
13,0.5006294295569811,0.5007061760123847
14,0.5006172090295122,0.5006307756930368
15,0.5006070257359662,0.5005693715204376
16,0.5006066442681328,0.5007191429362995
17,0.5005990211597732,0.5005656964429851
18,0.5005956257136323,0.5007355940844818
19,0.5005910968436904,0.5005352747647401
20,0.5005550179086966,0.5005112838804278
21,0.500582152153926,0.5006904765926579
22,0.5005417462677014,0.5017168069891539
23,0.5005659968364145,0.5006503445634771
24,0.500539802863311,0.5008084713968982
25,0.5005420121201464,0.5005502356193202
26,0.5005255687714973,0.500555199991089
27,0.5005479557589192,0.5004901205635545
28,0.5005121617005391,0.5006882704812895
29,0.5005253252097587,0.500488925068905
30,0.5005181061865135,0.5004606391596735
31,0.5005116658194915,0.5006865725032154
32,0.5005102990958173,0.5006584285506539
33,0.5005018857820014,0.500481430383829
34,0.5005101167455664,0.5004706558755254
35,0.5004951781994394,0.5004601246961589
36,0.5005098835300978,0.5004750793388405
37,0.5004880640982281,0.5006374186380921
38,0.500474547111165,0.5004928626138578
39,0.5004824567692429,0.500500249744349
40,0.5004682103567222,0.5006807896398728
41,0.5004692233304068,0.5006593147815014
42,0.5004759776739135,0.5005169416183869
43,0.500455981783206,0.500620216619288
44,0.5004646938420236,0.5009047423639605
45,0.5004559955695559,0.5005258510485476
46,0.5004445600554764,0.5004179519400112
47,0.5004572491650168,0.500422432109085
48,0.5004348382066847,0.5005211579296784
49,0.5004462349474934,0.5003936702796898
50,0.5004516046033421,0.5003914097402586
51,0.5004484980497391,0.5004084991166373
52,0.5004393541911185,0.500469104557416
53,0.5004341798365014,0.5004429718400941
54,0.5004395374824414,0.500676769387929
55,0.5004311291934609,0.5004018508175171
56,0.5004355230507298,0.5004218406180294
57,0.5004361868803927,0.5005976480822409
58,0.5004487791541766,0.5003871075568661
59,0.5004277798448601,0.5004671218969095
60,0.5004262855432186,0.5007017886372417
61,0.5004275520115661,0.5005015127712089
62,0.500444770414649,0.5003898657285251
63,0.5004347794618625,0.5003843768654627
64,0.5004172725156927,0.5003663680393702
65,0.5004217958819804,0.5004116851697784
66,0.5004325252181571,0.5003856063184904
67,0.5004376485182378,0.5003982742726063
68,0.5004111479236836,0.5003995850423429
69,0.5004209609996635,0.50040597448278
70,0.5004423871738741,0.5004213524219712
71,0.5004199953335814,0.5003946496298532
72,0.5004261051847586,0.5004416924256545
73,0.5004258434570962,0.500538376631867
74,0.5004227462211314,0.5003959656353328
75,0.5004271504743666,0.5004363939720703
76,0.5004201297719875,0.5004175461255587
77,0.5004196536321533,0.5003871166084896
78,0.5004160922410207,0.5003895666404042
79,0.5004217177375073,0.5008273359859552
80,0.5004200264449641,0.5003666754691831
81,0.5004152684291182,0.5005019946074664
82,0.5004187552838777,0.5010393552389689
83,0.5004090097410544,0.5006953796145343
84,0.500419195984029,0.5003580695050526
85,0.50041082703312,0.5004558625943016
86,0.5004118574714602,0.5004193536105286
87,0.5004159928841695,0.5003853669829167
88,0.5004148707524437,0.5005246507322818
89,0.5004114013055441,0.5003730079376372
90,0.5004091971445386,0.5003574056897506
91,0.5004065300258065,0.500421098355324
92,0.5004159460025341,0.5007788190770681
93,0.5004142866180901,0.5003778999555791
94,0.5004053039754363,0.5005933598312492
95,0.5004058136026035,0.5003543269249701
96,0.5004089598311078,0.5003928433576825
97,0.5004182150982963,0.5003697079701104
98,0.5004025246600968,0.5010712942473646
99,0.5004111457654496,0.5004352253956476
100,0.5003998729424458,0.5004258380930122
101,0.5003934743572851,0.5003501630302695
102,0.5003961938542072,0.5004141299363697
103,0.500408266690168,0.500395131111145
104,0.5004054517119074,0.5003697643504841
105,0.5004044422335203,0.500363371123747
106,0.5004078580156512,0.5003690983758079
107,0.5004062967109455,0.5003690130953161
108,0.5004012636346635,0.5003879054604334
109,0.500403234678804,0.5004004762427091
110,0.5003979686710316,0.5003608710712594
111,0.500400423558702,0.5007692353305391
112,0.5004156068545429,0.5003775039322619
113,0.5003967857648289,0.5007373263463193
114,0.5004057274254932,0.5004373623478797
115,0.5003984015176097,0.5005577847620394
116,0.5004086022395252,0.5004471788039574
117,0.500397627857824,0.500391605651704
118,0.5004071489798241,0.5003465551300617
119,0.5004001506423008,0.5003549563381867
120,0.5003966074431233,0.5004505563610541
121,0.5004147656671224,0.500468661737797
122,0.5003940301143344,0.5003541570739178
123,0.5004017586827088,0.5004163105789544
124,0.5003934063279555,0.5004056282138114
125,0.5003991909981329,0.500754531116107
126,0.5004144457034321,0.5006289574703566
127,0.5003950218567091,0.5003512507041098
128,0.500393567270199,0.5003670697176723
129,0.5004017600544809,0.5003861004898034
130,0.5003913488732117,0.5005341626574324
131,0.5003977469519447,0.5004469475142713
132,0.5004021934966242,0.5003618728434182
133,0.5003838642452136,0.5003643933360098
134,0.5003997810423871,0.5003336022864501
135,0.500398015805092,0.5004387912028481
136,0.5003979805989023,0.5003281599830457
137,0.500398211114212,0.5003812006921982
138,0.5003835052558275,0.5004466198809981
139,0.5003930617559817,0.500349264996815
140,0.5003950145237626,0.5003732873251657
141,0.5003966568726737,0.501551223718203
142,0.5004069907148634,0.5003566687515296
143,0.5003933486496291,0.5005082916089382
144,0.500397384981577,0.500424720779542
145,0.5003928909865171,0.5004469232878673
146,0.5003956417210343,0.5005341762052872
147,0.5003914535010127,0.5005416475809538
148,0.500395000855737,0.5005777817210252
149,0.5003811169176451,0.5004292044391111
150,0.5003924426473538,0.5003363129222955
151,0.5003910395508132,0.5003626505435252
152,0.5003973858532321,0.5003846140712426
153,0.5004007652277881,0.5009142478405689
154,0.5003880661624476,0.500394772004253
155,0.5003966933993617,0.5007270736079062
156,0.5003974524240185,0.5005289094028047
