epoch,loss,val_loss
0,0.5550975229001137,0.5520140375452065
1,0.5515259949469746,0.5509316046539666
2,0.5511899208052579,0.5510749825472867
3,0.5510013764247018,0.551396025913229
4,0.5508762515770831,0.5515042286061176
5,0.5508549105939475,0.5506508303930978
6,0.5507710472200318,0.5506308085865181
7,0.5507262787133449,0.5506957244636403
8,0.5507304917601553,0.5509902453304224
9,0.5506184961653156,0.5508632128351084
10,0.5459137905895252,0.5006353407284758
11,0.5006552772826397,0.5005264477457657
12,0.5006353924944349,0.5006873093526949
13,0.5006262088402222,0.5005886559746697
14,0.5006093681675049,0.5005704919102766
15,0.5006102903052603,0.5006434771322434
16,0.5005878904354856,0.5005988160078934
17,0.5006473173651643,0.5008904084378377
18,0.5005633205578096,0.5004922359516248
19,0.5005733753062849,0.5004991982770025
20,0.5005348602545756,0.5006647784420042
21,0.5005447065331218,0.5005857109136085
22,0.5005197670216126,0.5005019529581661
23,0.5005321666343726,0.5006468279485963
24,0.5005220245326443,0.5005217081263994
25,0.5005201964225893,0.5005066544778886
26,0.5005094963890123,0.5005205440462079
27,0.5006708224360459,0.5004070875958236
28,0.5004519316096904,0.5005778749882436
29,0.5004929721405135,0.5006209017029472
30,0.5004965222056513,0.5004456465948308
31,0.5004924631578188,0.5004581013033467
32,0.5004859164007537,0.5005297658757004
33,0.5004758266046433,0.5004508544730194
34,0.5004774624173243,0.5006308017830103
35,0.5004647865640413,0.5007103202064931
36,0.5004586157585341,0.500706750642573
37,0.50047329300691,0.5004719001483681
38,0.5004768870736716,0.5005194866331872
39,0.5004587673302879,0.5005597422199864
40,0.5004437284909707,0.5005428956400964
41,0.5004440187789456,0.5004355017659682
42,0.5004518223617229,0.5004999397410352
43,0.500447626444316,0.5004045721910727
44,0.5004324980446045,0.5004933553653083
45,0.500445605461831,0.5007000335688626
46,0.5004340536973565,0.5004615998741415
47,0.5004278047174009,0.5003944476248313
48,0.5004284196042205,0.5003669077646052
49,0.500432095079626,0.500435738528041
50,0.5004157499676922,0.500364485331268
51,0.5004397797583903,0.5006375169931511
52,0.5004245515103877,0.5004757376521752
53,0.5004134583027675,0.500482424790451
54,0.5004283992666528,0.5004818856272449
55,0.5004237319897104,0.5003645598740495
56,0.5004236671953651,0.5005207631191604
57,0.5004182199566889,0.500726487500496
58,0.5004113801168307,0.5004368697739121
59,0.5004201571214486,0.5004356139646866
60,0.5004357666250898,0.5003901820916395
61,0.5004108272745015,0.5003661350340168
62,0.500413916923517,0.500403280530319
63,0.5004302320694466,0.5005576041436964
64,0.5004104407684227,0.50037203275832
65,0.5004164160628696,0.5004048356643089
66,0.5004199142767547,0.5007554174356957
67,0.5004053525128218,0.5007006430152628
68,0.5004116697279911,0.5005573536858665
69,0.5004207982446929,0.500447077520432
70,0.5004075414825746,0.5003892984638735
