epoch,loss,val_loss
0,0.4097368003043803,0.4046198542005667
1,0.368946703001558,0.35152410622270175
2,0.3517016605538825,0.352518161783739
3,0.35145034278097476,0.35211955193550354
4,0.3513926230777738,0.35126196512809166
5,0.3512278480357884,0.3513898511086741
6,0.35115743303902874,0.35117606389019684
7,0.3510972684189454,0.35106448995564177
8,0.3510013091886967,0.3512846514249854
9,0.3509522606952414,0.3510244088196577
10,0.3509187129189241,0.35094673391015596
11,0.35090303137949524,0.35254441350328714
12,0.3508781425135149,0.35116291265038047
13,0.35085664646017267,0.3508520916141292
14,0.3507708553716587,0.3506977508292896
15,0.3507801195900748,0.35069540287957296
16,0.35077577121624337,0.3506525167756282
17,0.35081382315561555,0.350896797257085
18,0.35073104243809794,0.35067702162058717
19,0.3507142444887083,0.35079496973205737
20,0.3507266753717999,0.35059480674509375
21,0.35068326781850906,0.35110258010421735
22,0.3506860520794065,0.3507460071934068
23,0.3507008092242428,0.3507428195429203
24,0.3506661251827656,0.35054361259671063
25,0.35064092780885187,0.350562098363493
26,0.3506285745547341,0.35053105003780527
27,0.3506383527940904,0.350967547437985
28,0.35060540872374235,0.3504928921055853
29,0.3506119245358674,0.35051284317047365
30,0.35060773577194865,0.3506220968278407
31,0.3505963722932626,0.3506963908228626
32,0.35058203336263644,0.35050841436788405
33,0.35063815611004284,0.35057251670816103
34,0.3505832847347851,0.35056652605681504
35,0.35056715423617407,0.3506464230955091
36,0.3505776754353071,0.3506396911428229
37,0.35056478275051645,0.35165943204617084
38,0.35057051039196746,0.35056643431299084
39,0.35056065351551496,0.3506271217804097
40,0.35055764232610936,0.35145914093140634
41,0.3505662024037714,0.3504818968826133
42,0.3505655905685336,0.3505477465263963
43,0.3505731825473674,0.3507845155802317
44,0.35053707670031764,0.3505665852917039
45,0.35055133047931014,0.3505493199706965
46,0.35053661516839785,0.350604636675075
47,0.35054238933493387,0.350471611827538
48,0.3505364696832422,0.35048584380457476
49,0.3505288883934244,0.35067454569097195
50,0.3505369423687978,0.3506699366102148
51,0.35053101765953437,0.3507058833136452
52,0.35056579482533146,0.3504902445944604
53,0.35052994348856087,0.35051826864259117
54,0.3505885869355712,0.3506830141798734
55,0.3505171605747308,0.35077290943183614
56,0.35052671659685514,0.35048526636424193
57,0.3505577750022733,0.35112089581288414
58,0.35055066025264525,0.35050466462932806
59,0.35051476563957845,0.35055805027632797
60,0.35050623839491657,0.35125789101011407
61,0.3505047386405003,0.3504450700567023
62,0.3505158879602286,0.35046802975107955
63,0.3505171924946624,0.3507047679081152
64,0.3505075713788325,0.35049511572859127
65,0.35050233397002517,0.3508507679473082
66,0.35051245798076835,0.35049542401623784
67,0.35051459247168165,0.350438212106009
68,0.3504988708514994,0.3504562433540969
69,0.35050181669516883,0.35075746450767326
70,0.3505022310788294,0.35049917882784426
71,0.3504959194402808,0.3505308903772245
72,0.3504960794016165,0.3504471961381122
73,0.3504968732404153,0.35054407245467967
74,0.35049747424701455,0.35048789720677265
75,0.3504964653783916,0.35043355609583793
76,0.3505025822860312,0.3504928512253773
77,0.3504926755860087,0.3504689743885627
78,0.35050365543547224,0.35048387232548545
79,0.3504980361080162,0.35055824213524905
80,0.35049726539174286,0.3505261375205984
81,0.35048824322761485,0.3505139093245229
82,0.3505118134300657,0.3505604162701306
83,0.3504749781626857,0.3504564806781987
84,0.3504914657456628,0.35065433764576026
85,0.350492136019263,0.3504672570500717
86,0.35049658813583023,0.3504119866982879
87,0.3505064905781527,0.35042694750849723
88,0.35049554778823067,0.3505155632720692
89,0.35047676385113985,0.35046011678338346
90,0.3505003241151447,0.35054846842294884
91,0.3504975244168801,0.35042821302011645
92,0.3504881277447496,0.3504185139689197
93,0.3504879186193043,0.35049271650113184
94,0.3504850087174068,0.35055146047258495
95,0.3504844329576473,0.3504496477230015
96,0.35047952169733754,0.35043895818459486
97,0.35048554346914546,0.35052263659815636
98,0.3504723575157927,0.3505262817253842
99,0.35049328499757204,0.35045393952364956
100,0.35049449795102827,0.35055117366035876
101,0.3504721912915558,0.35040409698084035
102,0.3504705436839218,0.35047753309789426
103,0.3504777969474366,0.3508241918483384
104,0.35049304569077244,0.3505795996479006
105,0.35048110554083595,0.35044250266427734
106,0.35047817209123455,0.3504805071921857
107,0.3504796406601183,0.3504939155454375
108,0.3504884001073933,0.3505841556908771
109,0.3504822456113029,0.3504840613594718
110,0.3504791518209396,0.350473877721034
111,0.35047953997645814,0.35106865407219595
112,0.3504635967042393,0.3505376309821978
113,0.35048457171528197,0.3505156867853169
114,0.35048931962742236,0.3508879365311663
115,0.35047611930004285,0.35045612010707333
116,0.35046575647867295,0.3504211530939817
117,0.3504820733675184,0.35050748114846186
118,0.35047774787325336,0.3504495402127874
119,0.3504847758624327,0.35043200477772846
120,0.3504744759564194,0.3508870037406609
121,0.3504711678860131,0.35066120430790165
