epoch,loss,val_loss
0,0.4582660290670219,0.45164511369416493
1,0.41019163474136283,0.40146797220996827
2,0.37499651718206856,0.351874954514113
3,0.3515319428223068,0.35191417533174046
4,0.3513206848321399,0.3511636232324037
5,0.3512103304826406,0.3510831268934103
6,0.3511533584071071,0.351279302551492
7,0.3510727139896802,0.35129371541309595
8,0.3510321691860834,0.3515750569534065
9,0.3509309749245554,0.3511037863661574
10,0.3509077279657424,0.35093691792736575
11,0.35087495825481607,0.35132227655380005
12,0.35081661899572164,0.3507759149553758
13,0.3508100418387969,0.35098387152326316
14,0.35078143854625954,0.35067404777772965
15,0.3507589609993925,0.35296100380994544
16,0.3507343959497394,0.35065089271914573
17,0.3507456797275944,0.3507148937611071
18,0.3507236917795476,0.35087142255406817
19,0.3507164500179362,0.3507562413404952
20,0.35070746661761293,0.3508028344392185
21,0.35068138626416273,0.3506440558889072
22,0.3506753124663766,0.35084181676431564
23,0.35066986403341455,0.3506032945500414
24,0.35064765313255364,0.35104305559293214
25,0.3506538537837686,0.3507237897765252
26,0.3506361664941266,0.3508754996744634
27,0.3506331509772097,0.35101104991015963
28,0.3506314719217577,0.35062311976482496
29,0.35061281446221915,0.35082411206981384
30,0.3506173894975404,0.3508187361597719
31,0.35058561534455057,0.3508040839330138
32,0.35059604793816584,0.35059608083504895
33,0.35058502586509727,0.35052860178071865
34,0.35057273809081646,0.3508712748144164
35,0.3505839368290514,0.3507778514259802
36,0.3505599995493594,0.35050215580623145
37,0.35057417608669267,0.350583686307997
38,0.350565965483177,0.35063639346778247
39,0.3505585335891304,0.35076971614627034
40,0.3505599515191902,0.35062165403780216
41,0.3505477896458283,0.3507046925222903
42,0.35053707656897776,0.35051604388073715
43,0.3505443053523938,0.3505755097339526
44,0.3505441260048172,0.35056253664251
45,0.3505458216094896,0.3506139690763601
46,0.3505298361333865,0.3506432119285498
47,0.3505461044465881,0.35070486941349416
48,0.3505476676121395,0.3504754481629166
49,0.3505229745648622,0.3506703235523281
50,0.35052879476622656,0.3508440452089381
51,0.3505177230186765,0.3506391076237037
52,0.3505301734915267,0.35048415206797956
53,0.3505288511078836,0.3514438382153476
54,0.3505139017508667,0.3506633120346306
55,0.3505211341490878,0.35153575734820025
56,0.35052260743595276,0.3505081718080393
57,0.3505136921852553,0.35049849832915786
58,0.3505163165672497,0.3504786197659987
59,0.35051494420424306,0.35076300776921787
60,0.3505181886047786,0.35058994973563673
61,0.3505058172257562,0.3504679952010919
62,0.35051632701685637,0.3505488381936
63,0.3505099159642665,0.35053878754895024
64,0.35050509631175447,0.350662913023686
65,0.3505052635054612,0.3506057213612881
66,0.3505232264672755,0.3504946245892764
67,0.3505004372275814,0.35050488658637624
68,0.35049485356738513,0.35049013356417047
69,0.3505062875251066,0.3504574997993024
70,0.35049911674659184,0.3510416547950385
71,0.3505062660165235,0.3507076199681824
72,0.35050853866122356,0.3505950834260093
73,0.3504899397343123,0.3505380734764317
74,0.3505025654548047,0.35046891840752536
75,0.3504967253355293,0.35052643975903913
76,0.3505006910898383,0.35152451765744325
77,0.35050120698661175,0.35050543682746793
78,0.3504941334398451,0.35063380906658786
79,0.3504766058133617,0.3504654113767165
80,0.350499058092485,0.3504183897161602
81,0.3504972952847805,0.3504996966635323
82,0.35049471704489504,0.35048609062400704
83,0.35049495632802985,0.350667203182618
84,0.350493800006125,0.35083123222178325
85,0.350502450375425,0.35044474289671657
86,0.3504917527951037,0.3504371125408201
87,0.3504875475494093,0.35049335251079305
88,0.35049199638011286,0.3505871536566069
89,0.3504846553152906,0.35042516198702545
90,0.3504800274182277,0.3504283169215134
91,0.3505038339847547,0.3505620171946864
92,0.35048389250583634,0.35061823823315924
93,0.35048613886875407,0.35048202577950643
94,0.35049636757671515,0.35050406938155293
95,0.3504947274124636,0.35048261178338497
96,0.35051012211543525,0.35041802152806417
97,0.35047062127463746,0.3506019869897857
98,0.35049224576340343,0.3504635340966303
99,0.3504749913948837,0.35056548992694164
100,0.3504810141121022,0.35062620413510437
101,0.3504866366461447,0.35058826765706463
102,0.3504630652714952,0.3504617584106644
103,0.35049040805725373,0.35043682815419236
104,0.3504747954653503,0.35046991454460485
105,0.3505362964723543,0.3505755726664001
106,0.35048176134298903,0.3504556097256634
107,0.3504733299788127,0.35045340004984854
108,0.3504859420734818,0.3505360068517642
109,0.35048484218237164,0.3504362997139062
110,0.35048800148333625,0.35093907639938904
111,0.35047916272648894,0.3504351782739606
112,0.3504748444306753,0.35045424109652973
113,0.3504790613206566,0.35048121011286754
114,0.3504788360112183,0.35054934249622355
115,0.35049234513879207,0.3504241466965924
116,0.350474227318177,0.35046235178007973
