epoch,loss,val_loss
0,0.5583081359865553,0.553339365161678
1,0.5513271504348003,0.55117596062478
2,0.5511746396000655,0.5516573070592383
3,0.5510428931016695,0.5508271500135474
4,0.5509621469250152,0.5508043404548398
5,0.5509074189263755,0.5509000289528897
6,0.5508437621557347,0.5507076193913633
7,0.5507807141663835,0.5507560128017928
8,0.5507859349498485,0.5508242111052236
9,0.5507229832377635,0.5507378024439658
10,0.5507092576829565,0.5507055195034586
11,0.5506714849011938,0.5505465000202283
12,0.5506794513146691,0.5505993619746073
13,0.5506413601153193,0.5505704040267035
14,0.5506333418679454,0.5505664807395367
15,0.5506154668395672,0.5505318992782763
16,0.550620575004402,0.5508319377011756
17,0.5505798428549055,0.5505678922011894
18,0.5506115391915747,0.5506361757259511
19,0.5505532476924758,0.5504985341363154
20,0.550577044989483,0.551331376970258
21,0.5506042173950636,0.5504687796455459
22,0.5505343278296434,0.5505262725110681
23,0.5505889609314665,0.5507620924755599
24,0.5505733999683663,0.5506093733659749
25,0.5505544963404064,0.5504930851773057
26,0.5505448762504476,0.5504598333285405
27,0.5505349389269325,0.5505576859928538
28,0.5505338249966532,0.5506452774883204
29,0.5505220899684646,0.5508317985250696
30,0.5505308254862429,0.5505064909866371
31,0.5505295675845692,0.5506546888398769
32,0.5505210343057663,0.5507047476307039
33,0.5505349546206688,0.5507319790258005
34,0.5505152004766066,0.5504438152975835
35,0.5505199922140677,0.5506144602304652
36,0.5505174427593107,0.5504731309916778
37,0.5505185898677025,0.5504620566261613
38,0.5505067498662063,0.5505444842591771
39,0.5505031718568308,0.5505267077285066
40,0.5505074173158017,0.5507066478504437
41,0.5504942177957878,0.5504838694413897
42,0.550496375666779,0.5504740980659466
43,0.5505043447961897,0.5504538268960143
44,0.5504943611495298,0.5507197362021832
45,0.5505002625631198,0.5504313612694184
46,0.5504950860597349,0.5505519993843571
47,0.5504829813077866,0.5514510079885535
48,0.5505121477810352,0.5504379371851313
49,0.5504751261577348,0.5504595968622723
50,0.5504906401808264,0.5512214686675344
51,0.5504795119224156,0.5504463554316064
52,0.5504740496455193,0.5504445466155153
53,0.5504997037398954,0.5504889116985331
54,0.5504786689435663,0.5511779358310084
55,0.5504842135402032,0.5508450697136872
56,0.5504843725458736,0.5507064431831795
57,0.5504748817117197,0.5504975488996388
58,0.5504799447366517,0.5504413644078352
59,0.5504767301561871,0.5504784418394785
60,0.5504789973808489,0.5504800399538897
61,0.5504777444046182,0.5504516346874663
62,0.5504748121433864,0.5505061089844621
63,0.5504870489609456,0.5504954539516723
64,0.550481121924639,0.5504184692432508
65,0.550456030456428,0.550427140609798
66,0.5504676377189078,0.5504157125801957
67,0.5504724517691623,0.55042661898781
68,0.5504650825554015,0.5505558890089504
69,0.5504661584712629,0.5506334521042798
70,0.5504715834499972,0.5504514143129732
71,0.5504737847136368,0.5504385144775618
72,0.5504769652041035,0.5509426021398445
73,0.5504583698509783,0.5506619431540629
74,0.5504785183184064,0.5504381716103471
75,0.5504548712000824,0.5504937192050754
76,0.5504646420982093,0.5506288989601893
77,0.5504484411974736,0.5504181156383259
78,0.5504552363715147,0.5504935071426941
79,0.5504696201750253,0.5504530163024258
80,0.5504532466502899,0.550499648255095
81,0.5504576998842322,0.5504989874570009
82,0.5504596177660875,0.5509618988403907
83,0.5504558272527157,0.5504299322369672
84,0.5504677667838165,0.5506055999334634
85,0.5504484839148851,0.5504427475018182
86,0.5504524746044467,0.5505344884271361
