epoch,loss,val_loss
0,0.5557200560834998,0.5544399029267929
1,0.551677507156809,0.5511155760022014
2,0.55128109376778,0.551181252186115
3,0.5510397923853949,0.5508480457454994
4,0.5509811104715736,0.5507913764593915
5,0.5508966954235831,0.550949939131441
6,0.5507956132458599,0.5511311144154362
7,0.5507593973277004,0.5506657396297597
8,0.5507073014104122,0.5506217130064669
9,0.5506614206426063,0.5506994983102784
10,0.5506813061407564,0.5505363668164899
11,0.550630840777032,0.5510306909125733
12,0.5505866886906464,0.5507092112051346
13,0.5505948186250446,0.5505170340869326
14,0.5505603409638906,0.5504992584732566
15,0.5505474763795256,0.5505216488175594
16,0.5505196564438385,0.550677031204659
17,0.5505154820393532,0.5505807232915911
18,0.5504992015221911,0.5509807538749563
19,0.5505121932672336,0.55058777716852
20,0.5505182476653686,0.55040369572178
21,0.5504836554876639,0.5504965993370076
22,0.5505096460866681,0.5504140853290227
23,0.5504719704128076,0.5504572240649619
24,0.5504853569584569,0.5504708528518677
25,0.5504694762257182,0.5510797760918478
26,0.5504596009695695,0.5504032093597109
27,0.5504612270836081,0.5504315102070791
28,0.5504532619756435,0.5506428124295275
29,0.5504601058385252,0.5504794775995959
30,0.5504350231696923,0.5504020953888337
31,0.5504361781821423,0.5504753964118863
32,0.5504385978801883,0.5504598781429508
33,0.5504362834244404,0.5504153700679467
34,0.550430629346343,0.5504718275874779
35,0.5504284613941278,0.5504462673113897
36,0.5504276184996832,0.5506392985064693
37,0.5504274677451555,0.5509690655963888
38,0.5504208868444522,0.5503934429242061
39,0.5504282607493741,0.550474598005451
40,0.5504300056143931,0.5504395792856998
41,0.5504186476334451,0.5506335117089246
42,0.5504149913273526,0.55040041699303
43,0.5504208545111746,0.5503701150269426
44,0.5504267250918384,0.5509436016638877
45,0.5504062608241549,0.5505558215359009
46,0.5504084336828812,0.5503740489039173
47,0.5504119884163041,0.5504532674406066
48,0.5504145631498484,0.5505699198831695
49,0.5504112958638302,0.5505897749150657
50,0.5504139606302767,0.550383391185079
51,0.5504127315650053,0.5503621631461396
52,0.5504017508198273,0.5503910260224165
53,0.550406688372963,0.5504305277213861
54,0.550409401122249,0.5504223726523425
55,0.5504050788629683,0.5504463540117439
56,0.5503961897761234,0.5503725811506324
57,0.5504014530671716,0.5503618838177721
58,0.5504064214532336,0.5507747823192227
59,0.5504086732949574,0.5507165451203623
60,0.5503975625721966,0.550381360929598
61,0.5503957242113195,0.5503563864946956
62,0.550395071700552,0.5504921599298198
63,0.550406571984523,0.5503442998855345
64,0.5503866003786795,0.5504072297003961
65,0.5503980099765985,0.5507268127081708
66,0.5503780401897926,0.5503357893479965
67,0.5504087280609301,0.5503836876996989
68,0.5503696220696467,0.5508031028080224
69,0.5504005420298062,0.5503546861797645
70,0.5503718035478984,0.5503620082332242
71,0.550370673596519,0.5503601197273501
72,0.5503810591195746,0.5503573337500504
73,0.5503729591756344,0.5503434022070456
74,0.5503695474772669,0.5504809146483542
75,0.5503711592835403,0.5503392730989763
76,0.5503624405930444,0.5506612730381211
77,0.5503689067160947,0.5504546596749544
78,0.5503730211862051,0.5505439524319272
79,0.5503649308809562,0.5503777869877685
80,0.5503646379748607,0.5503112732032984
81,0.5503647885321814,0.550311413799267
82,0.5503610163306665,0.5504092840047983
83,0.5503620649625395,0.5503306817475975
84,0.550356707754399,0.5502980819411076
85,0.5503584072373451,0.5503107174158688
86,0.550361184814896,0.5503068535854444
87,0.5503446248064501,0.5504293011968249
88,0.5503578110575854,0.5503532851895978
89,0.5503504945840867,0.5504335123906952
90,0.5503645567484359,0.5503406183299593
91,0.5503482016191732,0.5503445222123385
92,0.5503513771968181,0.5503236430158686
93,0.5503489383665339,0.5503522489561928
94,0.5503554338268923,0.5503443523612862
95,0.5503443190471884,0.550306305193132
96,0.5503489108829718,0.5504392610590156
97,0.5503386352279027,0.5503263612538946
98,0.5503483657372389,0.5503133778536586
99,0.5503433556466207,0.5504137923344785
100,0.5503434775671127,0.550567382293067
101,0.5503584977664203,0.5503002546265463
102,0.550338479074635,0.5503189538312018
103,0.5503344985790997,0.5507548615595247
104,0.550358250865572,0.5503291473495161
