epoch,loss,val_loss
0,0.5073678225984461,0.5018206943057607
1,0.5016017733976582,0.502138540082179
2,0.5012546030823274,0.5024586784632566
3,0.5011479156762683,0.5008593487680402
4,0.5009609484471869,0.5010100998890311
5,0.5009249854399574,0.5008230878756597
6,0.5011206798678354,0.5008844032181108
7,0.46266136910529765,0.4508482505015049
8,0.4508409922945798,0.4508757324283827
9,0.450819783210218,0.45085004977789467
10,0.45078135407057274,0.45083125924354156
11,0.4507711497650109,0.4506861057382068
12,0.4507321440535076,0.45084150446851556
13,0.4507332839666034,0.4512277413242804
14,0.45067924357921796,0.4506947272320835
15,0.4506735371473842,0.4506192973618472
16,0.45065799477617496,0.45077166163891774
17,0.45064662629710717,0.4505704788948703
18,0.45062928607884095,0.4507831755258309
19,0.4506149057722056,0.4505786867502605
20,0.45062412810029656,0.45072871921376023
21,0.4506106466807064,0.45058649084704094
22,0.4505772662842593,0.4530459789129404
23,0.4506054572184524,0.45052231989486635
24,0.4505815259567304,0.45052451500230034
25,0.4505599874597001,0.4504988867946653
26,0.4505716016390197,0.45054450477323227
27,0.45058977618269025,0.45079654753947673
28,0.45054862766208065,0.45059218774954085
29,0.450570175011735,0.45069296604054737
30,0.45054301173881256,0.4504702927161091
31,0.45052942132525753,0.450478718076687
32,0.4505356542285008,0.4515024252476231
33,0.4505375179644021,0.45148310186549395
34,0.4505500400750763,0.45046404641556087
35,0.45052877803589114,0.4506060603830418
36,0.45052674919904423,0.45056937683013176
37,0.4505353521783091,0.4505129217509892
38,0.4505176271842586,0.4504782087158033
39,0.45052043304721534,0.4504619880142638
40,0.4505177092768166,0.45060007628376963
41,0.4505006641729704,0.4504411530110144
42,0.45050169231266535,0.45056129491358776
43,0.4504912845533327,0.450445602505142
44,0.4505113950209362,0.4504453230288721
45,0.4505037642076975,0.4505228868341328
46,0.45050889728451443,0.4506420630822998
47,0.45048178453879667,0.4506000248137538
48,0.4505031645641933,0.4504634449410971
49,0.45048889007925036,0.4505621093378469
50,0.4504698317463112,0.4504558694717606
51,0.4504913915188259,0.45042276997720043
52,0.45047721937289903,0.45045706038143735
53,0.45048308072703414,0.4507699785546097
54,0.4504876273377214,0.4504852684940357
55,0.4504769241780185,0.4504165324028905
56,0.45049847991409947,0.45054723302424693
57,0.4505068960767683,0.45096168645262424
58,0.4504900418713095,0.4504973364083406
59,0.4504638904917715,0.45040744698373025
60,0.45048125015583523,0.4505032703539278
61,0.45046737846587825,0.45043599318629757
62,0.4504731970943192,0.45044193414245587
63,0.4504598657145785,0.45043442792099697
64,0.4504748569800636,0.45054261091329323
65,0.45046274812108156,0.45040590825211024
66,0.4504692401125682,0.4504340275493508
67,0.4504650340476758,0.4506039163314971
68,0.45046473024313033,0.450401977303602
69,0.4504622461747341,0.45050348040483723
70,0.4504493543205796,0.4507286268043755
71,0.4504525978439382,0.4505062576263182
72,0.4504558710453788,0.45054671072190805
73,0.45045004591226084,0.45051855310317007
74,0.4504445908200114,0.45040433038552996
75,0.45046256130172463,0.45040890074545337
76,0.45045376081448124,0.45048888257656144
77,0.4504539313169276,0.4504494180158705
78,0.45045031965456506,0.4505251565730897
79,0.4504502809033816,0.45045636458964855
80,0.45043617815461223,0.4506109300085688
81,0.4504521966443572,0.45047040432321817
82,0.4504379190660246,0.450536847809704
83,0.4504369480789021,0.4504784290755061
84,0.4504379450200488,0.4503883735269826
85,0.45044640799375285,0.45039006362186174
86,0.4504293118089446,0.4504675378574627
87,0.45044396981819596,0.4503902378804039
88,0.45043456152031597,0.4504050487472165
89,0.4504433515895058,0.45039461842245854
90,0.450436494499159,0.45043032528744736
91,0.4504365121397232,0.45057093122461
92,0.450439188055467,0.4504974554993083
93,0.45043328899021834,0.45041063253400343
94,0.450436925158711,0.4504054559075803
95,0.4504362137911077,0.4504673090673262
96,0.45045669249868514,0.4504148634284661
97,0.45045660247524877,0.45039490430289997
98,0.45043044926089654,0.4504705012732049
99,0.4504392651074131,0.45039405024081247
100,0.450426550065147,0.45041478702211496
101,0.45043849673750913,0.4506106074927167
102,0.4504401795335843,0.45078679508074343
103,0.4504320381635443,0.4505309369220923
104,0.4504186046759142,0.4505018655330904
