epoch,loss,val_loss
0,0.1377695550938114,0.05829352163948595
1,0.027512442645543127,0.020557745628135355
2,0.01649959467583709,0.01320743815636743
3,0.014208492457600152,0.011924216245178313
4,0.012050896745657534,0.008583366821263495
5,0.011159883057743274,0.012613001868316952
6,0.010792763547139535,0.015299377297716481
7,0.01037999109006215,0.009782863813933888
8,0.0105026907789678,0.006212314778252342
9,0.009948003461672295,0.008955703835108192
10,0.00914037125518279,0.01311576676987929
11,0.00997721994717082,0.011598346067626315
12,0.009962935231441407,0.009023022830586267
13,0.009695329632945835,0.009344117365330576
14,0.00939766262050459,0.011688831793739744
15,0.009309426435067667,0.007542096593673764
16,0.008955632323967955,0.006202816041429022
17,0.008220399022854263,0.008853882240262338
18,0.008992470036127525,0.00993135250772584
19,0.00952126250051775,0.00759608682940384
20,0.009497179764045252,0.013206932477611863
21,0.009461552043520598,0.009491945691877167
22,0.008372971979840892,0.010064693348630733
23,0.0088980626726194,0.007175991756013861
24,0.008707981254588321,0.008633403972690983
25,0.008575454022535097,0.0064038904435232856
26,0.007703363258900831,0.00971247453166094
27,0.009017922375224632,0.006329324232427596
28,0.007943402722773465,0.0056002861081424805
29,0.009784575408067014,0.009461200371937387
30,0.007975868183466569,0.00784203597846505
31,0.007910944986995384,0.00974432967056321
32,0.008530497131645859,0.007345999801280043
33,0.008011577077017133,0.009706308750616535
34,0.007546141136271639,0.008597834819329471
35,0.008691685560675297,0.011794122911389879
36,0.008519375866794918,0.008271337512898205
37,0.006232312465418609,0.006475603573638784
38,0.007723110314323861,0.004798228580478194
39,0.007834549811441632,0.010354591002827474
40,0.008882695475859726,0.008398800156643025
41,0.00845885101231567,0.00655446264778147
42,0.007755683119900876,0.006878022525691807
43,0.007757579656984124,0.008466688259677476
44,0.008219877007059295,0.007519620315237199
45,0.008347087461005548,0.010667372985956889
46,0.007371233232102717,0.007164246814682692
47,0.0070972821534165354,0.0065370530522948144
48,0.0072873974225292504,0.00709782644846104
49,0.008280196343548596,0.0054083984950153065
50,0.007429001566810276,0.0069884098827362575
51,0.006765814945581916,0.006185482750443158
52,0.0069565068234128955,0.006626291380976139
53,0.008039472165884529,0.006916010373763758
54,0.007825675341457004,0.009043168209657814
55,0.007456615136628844,0.007538518106495784
56,0.00733889581895784,0.006314112822839074
57,0.006786534933635383,0.0047195526924140125
58,0.006956323939316022,0.00791070316554339
59,0.00808247438545222,0.008070855532297255
60,0.007590142287240236,0.010284484559618636
61,0.007238890599480999,0.006295058909353771
62,0.007445795067342565,0.007219889824555771
63,0.007873270091683352,0.006957641460924705
64,0.0071442767525081345,0.007451024538254469
65,0.005597792783857053,0.005888491423158144
66,0.006330605254409542,0.004825586768788974
67,0.007428845867133446,0.004994222140138132
68,0.0076681632210026315,0.008056275125360668
69,0.007122893866205917,0.004274962194471222
70,0.007850066396139032,0.006887617788550274
71,0.00757757152330583,0.0063799146534147325
72,0.0067050941005575475,0.010685382800466353
73,0.007383027913433751,0.007063172917133866
74,0.006844685260979958,0.009231357946962518
75,0.007260768052501728,0.006554411838144276
76,0.006924150684803016,0.007236995196209569
77,0.007627897757216454,0.00432103888911578
78,0.007318836277358972,0.006931258281347384
79,0.006619239310852344,0.006066150994178999
80,0.0071651612999004055,0.006296780280880601
81,0.005907693572121291,0.005768707338147212
82,0.006298872584337108,0.008225610737351447
83,0.007028765848567553,0.007556324782792329
84,0.007491628267354876,0.005814386661816462
85,0.006725305209321965,0.011222069879410157
86,0.007109893119535137,0.0052810151044693915
87,0.008173996325694679,0.010124086330320624
88,0.006753655924494538,0.00885876580108407
89,0.0074417888254618095,0.00755062433262521
90,0.006436358856913491,0.005493335261200014
91,0.006967623863811437,0.0054054435470450935
92,0.00719785885970971,0.007513611113260064
93,0.005876686284337178,0.0053597008217723
94,0.006387754571162534,0.008025779634355417
95,0.00756175757283799,0.007171979103819559
96,0.006867178513457794,0.004662837043342834
97,0.006052582412303018,0.008443860580443443
98,0.0067279840450842595,0.00589758503649916
99,0.007668474084715531,0.011059414168294951
100,0.0067138970638964054,0.005257449841645753
101,0.0064239858241705635,0.010174041159668586
102,0.006141100855481674,0.005124779034408887
103,0.005760764189010157,0.007302948406764439
104,0.0070245586455517485,0.0040287730387311305
105,0.007103371999798258,0.009243468182850937
106,0.00653297617574774,0.006435870941604863
107,0.0071257786729635834,0.005880193642231076
108,0.006968776896993498,0.008273119619226447
109,0.007182101976758481,0.003808229438550388
110,0.005712930854840977,0.005264896377200744
111,0.007102419678635484,0.008305202601381945
112,0.007007965322793852,0.005299996912123631
113,0.007161561010902723,0.0060746602930169735
114,0.0073033119827288565,0.009537752184078933
115,0.006230090810678345,0.008454900872970813
116,0.0064023806379257826,0.007580208227526464
117,0.006123138105978431,0.005427455156159476
118,0.006501211117648577,0.007733780196437872
119,0.005945885514778693,0.007775841586603456
120,0.00635562600645361,0.007379772694341856
121,0.006335334755650772,0.007351249342471149
122,0.006492900022630878,0.007429074536091644
123,0.006250947470133521,0.01056121905490862
124,0.006499767847668877,0.00821517162016154
125,0.006026982608493968,0.006138796466399034
126,0.006262735496249071,0.0070502819267749175
127,0.005677706685563405,0.004366564951416608
128,0.006024366755002766,0.004381625199706632
129,0.007061918196696446,0.005450217023524202
130,0.005589375443619599,0.005162202068049558
131,0.006126640415151151,0.006084180385574122
132,0.0068197419445739866,0.005260143866402339
133,0.00667675625379134,0.006135985748099947
134,0.006147517467295077,0.006944311627252255
135,0.006527341919006418,0.009146723952129683
136,0.006353686731919158,0.0038984992656042328
137,0.005718110923764767,0.0050891909223482095
138,0.006124566902490638,0.004715342291475706
139,0.005681129264292403,0.005556209774021921
140,0.006532149051214091,0.005864956635972978
141,0.006282481902779983,0.0060341774494090976
142,0.0059467646586288106,0.00479395978333577
143,0.005622556598445357,0.005811575285270046
144,0.005945092529992012,0.007213816944224541
145,0.005969254457545157,0.003970875521098582
146,0.006090879925976334,0.005975003791245284
147,0.0059372218078944826,0.006507640819917209
148,0.005953061185199484,0.0032783215633948536
149,0.005664003336039796,0.005745662343941906
150,0.0063540823799524485,0.006928801378889425
151,0.0061028760561584044,0.00604524196293896
152,0.006087561343725083,0.009227970243088354
153,0.005844413523758046,0.0073726148978199135
154,0.006604807821644409,0.008040473243661207
155,0.00645843288674355,0.007685514018836342
156,0.0057049136850603225,0.00669354288938037
157,0.006359184840708959,0.005490431459157507
158,0.0063487526220489116,0.00774941365429345
159,0.005861432835024943,0.0038411240279012976
160,0.006547638393051142,0.004530500609210113
161,0.00609614559487223,0.0062082212696906
162,0.0058885452711283206,0.005997157931304298
163,0.0064625104081159615,0.004334930024729437
164,0.006390663195415575,0.005779137063827351
165,0.0057892628569828925,0.004665100729076784
166,0.00664432303213941,0.004963934528123185
167,0.006374683794766503,0.0046066660257592955
168,0.0067684645993451925,0.0044237720866811825
169,0.005833966030681924,0.005485545282620399
170,0.005289656358665312,0.0035828662585634693
171,0.005640618324329664,0.0051658725110195055
172,0.006642429983142099,0.005386561841131339
173,0.0061702874175896,0.005069506212395646
174,0.005979294655937627,0.00781445461931773
175,0.006880069078470347,0.005719071546688547
176,0.006321114524331638,0.004116749482658628
177,0.006204572245407906,0.005994399690128798
178,0.006896180066214555,0.00901682619681698
179,0.006276229842674645,0.008268843235149568
180,0.005544718526073729,0.006066195053381415
181,0.0064936513758653835,0.0061815935620727885
182,0.006474014975485666,0.005769198167563402
183,0.0053569187326796,0.005903447780467058
184,0.0059131835283954244,0.0035481474855907362
185,0.006146297552347403,0.00881080740831951
186,0.006174456369099047,0.01211412893880185
187,0.005548618954988264,0.0042672596615316504
188,0.0067453239109184,0.005079130077956578
189,0.0059741810420163265,0.007151513159769016
190,0.0057735133782694705,0.003645998739836636
191,0.0057630943308259065,0.005301036711726353
192,0.005828585029657123,0.00398007326027277
193,0.006392803165684197,0.008053753990312449
194,0.006886698550069712,0.003132923696948702
195,0.006252469837112422,0.0050916110577786545
196,0.0056324385091302085,0.0042190201593020485
197,0.006042372585433594,0.005328943398681888
198,0.005876927581008265,0.007720358528626087
199,0.006295440757057543,0.00493592348967068
200,0.006552894305300822,0.008392768855417631
201,0.006537517167454352,0.008512816129468423
202,0.005897520956278836,0.0030042578097970916
203,0.006095334653650298,0.008526062536264322
204,0.006013092906888035,0.005188080443961703
205,0.006221224820121473,0.003963325091806
206,0.006009414782010608,0.0050905922092585555
207,0.0048845699158416005,0.0034709146649495133
208,0.005884761409685134,0.006679741578616184
209,0.006801883520414795,0.006479052137642299
210,0.0065136591437273475,0.008216024140129785
211,0.005879274463738135,0.005077023507149533
212,0.005548299656794529,0.0072240878312591975
213,0.0060728553371380365,0.006368278232847812
214,0.006236880860882524,0.008998824997960156
215,0.005899987539736558,0.003796374331755474
216,0.005567076059596555,0.005716021541703049
217,0.005745138972532376,0.004657257740821721
218,0.0062973286749402006,0.008535981628141162
219,0.006035302721744152,0.005282746259661152
220,0.005315258849053372,0.004125453870421556
221,0.005204806631661022,0.005562496380387984
222,0.006201155050631633,0.005387125412574084
223,0.006222369002109821,0.008559912138845664
224,0.005992178556428914,0.0047619781220198006
225,0.006129748851833619,0.006565546128831233
226,0.005658549724796639,0.0038561972437739585
227,0.005843791646695287,0.004517816327991525
228,0.006008349831583057,0.004280119353351084
229,0.006379404584121564,0.004743195331090181
230,0.005525112034195362,0.004655618303262091
231,0.005945289957349737,0.008095439124320234
232,0.006030026225851094,0.00873764063472012
233,0.00587397923530768,0.006668346506582416
234,0.0060613245548245655,0.004551447390254525
235,0.0052751941277163865,0.0058500506174945415
236,0.00604016951173261,0.005105563684571725
237,0.005631686844524267,0.007831376816654002
238,0.006345956850678568,0.006476210386160799
239,0.006203437551035643,0.006388915482917308
240,0.006564239925648317,0.005886548346506862
241,0.005450557758041518,0.007303966747724761
242,0.005631441425578259,0.005163349310449239
243,0.005513043393645969,0.008047389182987629
244,0.005401628166098418,0.005944980714534833
245,0.005904913212055062,0.006994289970473807
246,0.005710157284551828,0.005848913547607182
247,0.005478836188232787,0.005247366377214983
248,0.006166602654154037,0.005676855609164924
249,0.005485092762665604,0.007466304268843796
250,0.0054904963405390415,0.005530359718181199
251,0.005689712201835488,0.007464660781464336
252,0.005878249548921298,0.006292895337121286
253,0.006263391989700907,0.00433932062372236
254,0.005217165317588138,0.006102636095942031
255,0.005851743824249186,0.004965078925100856
256,0.005434754666489669,0.003773902239676362
257,0.005834505272408326,0.006086915496945522
258,0.005591052692855517,0.011098985646975586
259,0.006047015317524378,0.006632112333773038
260,0.0062018634314439615,0.00472624076790549
261,0.005833854871916679,0.007914501895809042
262,0.005701427354937423,0.004685765708596008
263,0.0062840738888200135,0.007101488678959428
264,0.006051879930797574,0.0061852332820561615
265,0.0058145406001770825,0.005624762378653604
266,0.005996778905711812,0.004948295072535525
267,0.005154210406237935,0.004387961206229987
268,0.005190233624507513,0.008350498972118089
269,0.006070456219197576,0.009349675269851839
270,0.005926470649871621,0.004979135710437324
271,0.005976859483027386,0.006678816120360038
272,0.005365793789021498,0.004024468736845086
273,0.005491799582521782,0.006395038708327036
274,0.006120460903380724,0.0043812805478738205
275,0.0057597928696299355,0.010073691008181767
276,0.0053959092821182905,0.0047130740549777
277,0.006312901057380376,0.009125970523795605
278,0.005372969041612717,0.004985848044786946
279,0.005818874351114487,0.008333560558596086
280,0.005990795591167903,0.0036561878217235737
281,0.005792399817001191,0.006411549301513698
282,0.005707359591072394,0.003714655987417065
283,0.0058950020334788324,0.009857813402828073
284,0.005216918290044806,0.005632118374512082
285,0.00512034632935584,0.006641468487829911
286,0.00588527511634814,0.005224019534159643
287,0.0056677028419729845,0.004305691558620713
288,0.005304847379679606,0.005647613313019675
289,0.005340102951780861,0.004191752397488353
290,0.0047256340394444245,0.005007147392068402
291,0.005380331886746883,0.0041737558899760455
292,0.0062171993918603745,0.005054142329791868
293,0.0053261837400540675,0.005019967738633068
294,0.0056716856514315885,0.005622923769271435
295,0.005788630300605719,0.005551116342561491
296,0.0062267455580584,0.004310535509933166
297,0.005099780822945513,0.003642572421174799
298,0.005405779551364017,0.002873914835433569
299,0.004924674914925725,0.003912901465032006
300,0.005482706843672855,0.005555857210725122
301,0.005216831453892735,0.008335390020141286
302,0.005876776272171198,0.0068332419077253475
303,0.005118300986690648,0.0040767921659295705
304,0.005525763112427049,0.0059749095380194515
305,0.006325407216673811,0.004536704492153219
306,0.005238490735387636,0.004181673209643802
307,0.0054068024277495,0.00451190359434723
308,0.005938093745254641,0.003677699629815726
309,0.005507853730647958,0.0054380091226232646
310,0.005489855610522077,0.005559795147253475
311,0.005786902089283126,0.004150073176496842
312,0.0053621064393232455,0.003852673464079094
313,0.005623110736028658,0.006778103577659628
314,0.005466707747710272,0.004818281628876548
315,0.0052992396388310105,0.003948642879073238
316,0.00577008275692608,0.00569096069610968
317,0.005334874844460709,0.00612065143039378
318,0.005661412255747689,0.005474523476515356
319,0.005991919021915755,0.00693962203107933
320,0.004904913448290877,0.005036146342886675
321,0.005199643971434207,0.004199448614965628
322,0.005304175472038862,0.006061454161328294
323,0.005275279616949697,0.003654004314446847
324,0.00581554046643676,0.005917225181159652
325,0.005367811690985436,0.007294101498715268
326,0.005477462392237088,0.0043591849480909255
327,0.005713856399921383,0.006161932879066552
328,0.005821811967900843,0.006435525190855516
329,0.00576985033852853,0.005332710106005185
330,0.005414916017985375,0.005960905868207246
331,0.004576499469010242,0.004737892972442139
332,0.004871302267829095,0.0051441299927515735
333,0.005720772638192607,0.005279150250461173
334,0.005567166561202751,0.006439922822914259
335,0.0051958007988505825,0.006289153201057155
336,0.005310981483379234,0.004875979419715332
337,0.005163880030465998,0.004368009901331369
338,0.005520351468302536,0.006020622953460879
339,0.005652573132283723,0.0039323810247253056
340,0.00536657663376378,0.006100999407511389
341,0.004907660667306567,0.005507233463692308
342,0.005080729651415228,0.006298612235753481
343,0.005658938559323108,0.005951600625961078
344,0.0052540782894150055,0.004964519157967491
345,0.0055845723363483766,0.005639564707190175
346,0.0054269596816321234,0.003248684590273693
347,0.005030228877343315,0.005413370744281852
348,0.0051284645405634465,0.003079119758443773
349,0.005193734520504313,0.003839352678826583
350,0.004993219030752992,0.00953768360139633
351,0.005136024430959964,0.0052418412821515865
352,0.005503721055027535,0.004883326448194371
353,0.005213642600186015,0.005432195875840739
354,0.004789329111873121,0.00261839168258717
355,0.005058924625940371,0.00530704181830986
356,0.005548884593721607,0.006462236237142532
357,0.005239119075780673,0.006680199121887301
358,0.004594415984787255,0.00717835047707879
359,0.005105582512092503,0.004540330116970034
360,0.005069498108498168,0.0074675737324464055
361,0.005701568642937147,0.0066393543797050435
362,0.005235262831645481,0.0052456285822151585
363,0.004784035598405068,0.004555306564237343
364,0.004806490866917756,0.006194774290780524
365,0.0048481936124134825,0.0040536985106710355
366,0.005123261648560052,0.0037529295956864423
367,0.0050133636450584084,0.006327139192731976
368,0.005612062436039392,0.004994225588677879
369,0.004886078374493096,0.003986373435685318
370,0.005031633222543394,0.0064721153567573785
371,0.0053913563709158145,0.005828645337231887
372,0.005133720693832857,0.0031404593662118455
373,0.005323313261779825,0.004060441364027742
374,0.005163177259829934,0.0033920999925477753
375,0.004553827470902511,0.006511133579844528
376,0.005105090110736201,0.002821420261124774
377,0.004972779379821093,0.006219548302619544
378,0.005514059338155095,0.008243900609453339
379,0.0057099864866173595,0.006781521133840343
380,0.005277922734239255,0.004996984001490175
381,0.0050936975468174935,0.0064796710893329475
382,0.005168961435496854,0.005392830360948381
383,0.0049957642731867985,0.0036209284036840005
384,0.005581848881040647,0.00943407974108148
385,0.005455491599346921,0.004798032732602524
386,0.005026031526637157,0.006443849236990348
387,0.005357105422561778,0.004057029590022404
388,0.005689714274046828,0.004205573463941841
389,0.005210929877235652,0.0041795646242176986
390,0.005480333995859441,0.00850703439586329
391,0.004648571056656265,0.0058153704986352575
392,0.004660012138032948,0.006088594808636473
393,0.004863721789229366,0.005936982916872405
394,0.0049547979582680295,0.005475202657652823
395,0.004409863158120967,0.002946786134817653
396,0.0046170526891381,0.0042964026531103145
397,0.004802173162683201,0.0031175068882826917
398,0.005095009694898056,0.004291015492653696
399,0.005555591504123035,0.006107615569022785
400,0.005087216851859094,0.008043829384373815
401,0.005819145811637558,0.003968730692927385
402,0.0052360804770313065,0.005737463763937789
403,0.0051319495718784745,0.004051718275388372
404,0.0055601348198554236,0.0063866829325392805
405,0.005615262975573814,0.006139042456843835
406,0.005200377565143789,0.00483862532011653
407,0.0049426690629719916,0.004532043610044535
408,0.004705241788067013,0.006400950786296716
409,0.004734775488660168,0.005486857795818829
410,0.005093732398735891,0.00573362157905758
411,0.0043902266751059136,0.004936201036293956
412,0.004494011747188491,0.0041347756265532505
413,0.005060457951127947,0.0054987476636591676
414,0.004950080326271446,0.006075848613210734
415,0.005409153542655567,0.004493038920169636
416,0.005006231110190137,0.005152010103436253
417,0.004504571420711567,0.0053903331580235905
418,0.004819170750627707,0.0044278747574135885
419,0.004501729463818941,0.005478988747438085
420,0.00557655592387219,0.007827489050994639
421,0.0047833669831496865,0.0030034548820208847
422,0.004662501659496672,0.004052089629790377
423,0.005141727887443918,0.0059204375133912164
424,0.004647960904040199,0.004452431288892557
425,0.004525248284658624,0.005230725388577018
426,0.005068319422627638,0.007178943585119289
427,0.0051073514741750885,0.0034903411039731214
428,0.005213836629816936,0.008063064309258981
429,0.004288343553837809,0.0033687491066556868
430,0.004697666108365551,0.0061664063863503295
431,0.0050040285808773495,0.004747435736492711
432,0.004780627499099264,0.00517137026364291
433,0.004545394267006922,0.003482519216569407
434,0.004874322476028521,0.003989133761494458
435,0.004406149174346567,0.006093544551798369
436,0.004629544232492532,0.008389536917633021
437,0.005401195237803147,0.007387793252440118
438,0.005137676656205984,0.004753981890772846
439,0.004435206391959549,0.0061992837749009965
440,0.004698639379075016,0.005432340478922969
441,0.005337746059008354,0.005212969349178279
442,0.004846079974062294,0.003336367917694769
443,0.004477245036231951,0.00405373142009723
444,0.004329680768623323,0.006690683227397014
445,0.004760567962339403,0.005100666472192886
446,0.005049537021319102,0.0076930153995146645
447,0.0050918702011016745,0.00473690403540102
448,0.004966007564946425,0.004326374737888387
449,0.005190974605053092,0.0071072271152531055
450,0.005204287507172248,0.005724576453662873
451,0.004736340772877965,0.0044988382562859705
452,0.00500462082954277,0.003664085990841182
453,0.004978248520551784,0.006039701126171857
454,0.00462367631717221,0.003154531041867355
455,0.005591034580827605,0.005154447631517921
456,0.00490564168624425,0.007233201153429362
457,0.004931592220476986,0.005122701284249961
458,0.005174576770700366,0.003925660054876389
459,0.004988726090843068,0.0034944039059034014
460,0.004842168124627879,0.005280839371176667
461,0.004455582204860725,0.003834768399653549
462,0.005203622394705937,0.005944000248706826
463,0.005072739397396715,0.00459787571558695
464,0.004489631275367215,0.005632885783946035
465,0.004691106626383519,0.005392690168968575
466,0.0052333133922201945,0.0059706922050862445
467,0.00520491350604464,0.004147063063100368
468,0.004844536313688089,0.005117729299605457
469,0.005187931568935055,0.002985510528205226
470,0.004969191330065913,0.006200618149555378
471,0.004919482129000627,0.006850493438585993
472,0.004665380144651106,0.005663667665463714
473,0.004787798527889489,0.008594263985976519
474,0.005084441893798806,0.004367546453313415
475,0.0050286767958886,0.0064154274000153355
476,0.005315339543296845,0.00582256067497178
477,0.0052440853095795815,0.006958384047708553
478,0.004865151854305656,0.003317146776493965
479,0.004729838186627824,0.0039633894936441086
480,0.004552058897801577,0.008602342683007469
481,0.0042659168188042525,0.005149846812364687
482,0.004404345257144472,0.005219165040966603
483,0.0055873701739743604,0.005627464079654584
484,0.005453549180109855,0.005767563169773583
485,0.004735691766113156,0.004965813987062922
486,0.004523703393687924,0.008843418311448246
487,0.004799958646686809,0.00484547662514173
488,0.004782189921324077,0.0052454245799377665
489,0.004454442014121901,0.0036858900374091203
490,0.004701674757093537,0.003802960404270603
491,0.0048149283912083465,0.0057663706501750326
492,0.00492753095602502,0.005451157068335337
493,0.005291153402101222,0.006994185820383614
494,0.005175136764039494,0.005556272888584055
495,0.0050865026203160595,0.0038036695435634377
496,0.0053013806725643,0.005256551716641332
497,0.004373157572512665,0.004106707501224438
498,0.004654735869759296,0.005433911154077527
499,0.004449261906299945,0.0035467106974283093
500,0.004714507751891183,0.004346813231077407
