epoch,loss,val_loss
0,0.1400516095320336,0.07242103295596265
1,0.06317905569337398,0.06148780561871856
2,0.06073060447125317,0.06081797581551201
3,0.0604998138290253,0.060171147016036576
4,0.060542718272843805,0.060784923269956624
5,0.06041369329003407,0.05996451209921863
6,0.06036998570668135,0.059537339029391165
7,0.060227605967606,0.05999819185487756
8,0.06025857263528329,0.0606761763420694
9,0.06027376172032288,0.060867444039473126
10,0.060194293130859194,0.06058657044675657
11,0.060195443725926605,0.061380328891332825
12,0.06015913886316627,0.059842316200037875
13,0.06015752215864514,0.06086071594173549
14,0.060152992012081956,0.0598571435199211
15,0.06007088411995452,0.05986883638583965
16,0.06005653884592388,0.060287749951950846
17,0.05997196375745997,0.06013792941101254
18,0.060034391253614885,0.06005586319159784
19,0.05994990458347195,0.060788141085744936
20,0.060019981918587005,0.059696319497586615
21,0.059937837480795945,0.06044209689407623
22,0.059904790956148805,0.06014163700985739
23,0.059805356204319156,0.062422026051671464
24,0.05991401508611312,0.05921484327389202
25,0.059861407139532856,0.05934306004194171
26,0.05977094276465005,0.06022318824243621
27,0.0597665912831287,0.06022420639632345
28,0.059749353751480626,0.060894578665894795
29,0.05977315845029007,0.0597220567432133
30,0.05974966368163757,0.059745892235493224
31,0.05976016233436209,0.05987250703168649
32,0.05966183204921506,0.060410391183565615
33,0.059688591483911924,0.05985949423690433
34,0.059688917521259294,0.059348060392966494
35,0.059624107709403136,0.059630197288369984
36,0.05963843461009953,0.05966716186505843
37,0.05965936241253055,0.05967966397752325
38,0.05963722181965788,0.05951164073612902
39,0.059598759701140494,0.0595199911492776
40,0.05969647743957315,0.059925841745327287
41,0.05958603044970335,0.06122409552629764
42,0.059550388597791715,0.05957778468257626
43,0.05949206214002092,0.05924526153936476
44,0.059572293974762915,0.05902063199146206
45,0.059522053334031176,0.05970889335790768
46,0.05952416780404002,0.05985768910588574
47,0.05946242173822473,0.05951222629472319
48,0.05952547015629703,0.05890445684354044
49,0.059473162165565266,0.05903938175976606
50,0.05943041813554619,0.059026691551013734
51,0.0595091706488749,0.05907759659033454
52,0.05939412275128227,0.05939270502460595
53,0.05941413477700439,0.059299649213512017
54,0.059434387134574204,0.059600712979931296
55,0.05935021659596075,0.060532364032827406
56,0.05945982810684579,0.05918981083437224
57,0.05938007860637302,0.059081822871903125
58,0.05945488260381466,0.05886822796611214
59,0.05934855424248867,0.06220425236102814
60,0.0594378697464792,0.05967735853149087
61,0.05932075141383399,0.05875392590708966
62,0.059442989624959294,0.05930319297897035
63,0.059278552784479493,0.059103170952273805
64,0.059411978783855714,0.05930712680907915
65,0.05929635197734185,0.05943417713492991
66,0.0593700222135019,0.05941911082606007
67,0.059290057459144854,0.05888138756732256
68,0.05934330091017375,0.06053528314913552
69,0.059264919380370755,0.059154130065638716
70,0.05935731724792009,0.05911160296897956
71,0.059267492134043635,0.05958508707777007
72,0.05931563037845919,0.059138334970024506
73,0.05930698889759566,0.05917257022027341
74,0.05929211578477058,0.05896299852803644
75,0.05923186646674653,0.059235329442049636
76,0.05929226925571283,0.05978204996487524
77,0.05936298410532524,0.05898127866278225
78,0.059288532996504044,0.059632682830283466
79,0.05921220232090123,0.05889224479799677
80,0.05932161307109774,0.05978206397808247
81,0.059410409440549254,0.06015429008625677
82,0.059225507963487474,0.059879117137395965
83,0.059282600245387146,0.059697192606252295
84,0.05918510819522502,0.05929273567452803
85,0.0592128366595216,0.0594411306906471
86,0.05928955566909292,0.05925449253822182
87,0.05922495363820657,0.059130709641851964
88,0.059223482531192397,0.05907028680042479
89,0.059239555032645386,0.05988205787920538
90,0.05925684190875621,0.059391529505870996
91,0.05921327924396066,0.059204212465597685
92,0.05927203175314753,0.05928071382166649
93,0.05924776986056714,0.058688014401703625
94,0.05922579666901883,0.059116933947604006
95,0.059189429551327256,0.05910403204121831
96,0.05922587941155778,0.05924089030372221
97,0.059190554891249164,0.05909340294708675
98,0.05921154031358796,0.060021437051828774
99,0.05925913656251036,0.05886041659394304
100,0.05917490833549858,0.058949936384183735
101,0.05919475626530979,0.058904896398393206
102,0.059205763798347,0.059069762634144304
103,0.05918768363194071,0.05913151265507904
104,0.05924515188079801,0.05941849643542434
105,0.05916269788359233,0.05909431854817184
106,0.05915085627711553,0.05899419944554026
107,0.05918640216930116,0.059847306383695766
108,0.05917863906781784,0.05958590459816552
109,0.05922226039923543,0.0595069530860307
110,0.059135043645183814,0.05905695403055027
111,0.05913570912169228,0.05889547042895606
112,0.0591720444299906,0.05940365458779102
113,0.05925206320850159,0.05913974505561774
114,0.05909115614460336,0.059084969327947524
115,0.05915347727493559,0.05889807086093932
116,0.05918642576131746,0.05990557207328274
117,0.05910964246889908,0.06025920665713399
118,0.05922646855386041,0.05946224795003152
119,0.059091782647011565,0.05893904090386352
120,0.05917353602163464,0.059339155273213574
121,0.059134038809916196,0.05909816049268703
122,0.059085490774634264,0.059227174999164425
123,0.05915784093586327,0.05946242619649858
124,0.059174973866064774,0.05899749365771203
125,0.059139839868596514,0.05933698219112646
126,0.059156316541713015,0.05885439237319492
127,0.05917473492040623,0.059109435702696875
128,0.05904911786502452,0.0589278075923436
129,0.059106092371469396,0.05900002422653603
130,0.05922484716369237,0.05962227684781602
131,0.05908532496943748,0.05876226140143557
132,0.0590952805501761,0.059074886222594165
133,0.059131062145141675,0.05950698044500957
134,0.05910191664711939,0.061710556938174024
135,0.05914734731868303,0.05884742280784421
136,0.059095049893362915,0.05881435414092599
137,0.059203685885913175,0.058900828401969
138,0.059061471673605634,0.05928835863190179
139,0.059104981813594686,0.05936231500900629
140,0.05910178276149632,0.05877437694814135
141,0.0591334818149928,0.06045998507065385
142,0.05906234844345793,0.05928993746109054
143,0.059218086165299326,0.05912457868139294
144,0.059063154397060356,0.05902101143594793
145,0.059118402888067814,0.059810673754776944
146,0.05906413094126445,0.05908070564352346
147,0.059145599885059776,0.05932764580507117
148,0.0590936812407655,0.05924687832417503
149,0.05912316664398241,0.05892533971542153
150,0.059105099930013304,0.059190549709096894
151,0.059110582923050596,0.060045338020422556
152,0.059051820615248427,0.059944888234326664
153,0.05914624241127861,0.0590762404405939
154,0.05911270041706608,0.0590100965294296
155,0.059075051343900786,0.0588383903313831
156,0.05910439350657898,0.059259688880091685
157,0.059100117693714004,0.0592673620342879
158,0.059142162304201856,0.05908584288941092
159,0.05903285336222866,0.059493560070538014
160,0.05910409084237594,0.05941334723156084
161,0.059060701673074686,0.060460538380641866
162,0.05908715936521308,0.058989008378469765
163,0.05909336256317431,0.0588739014656269
164,0.059105236521013065,0.05872402232266733
165,0.05907933934659457,0.059211563739422844
166,0.059110793151813064,0.05984498810937486
167,0.059046997291912186,0.059433682515170505
168,0.059082110792839176,0.05883605455966474
169,0.059045222992126604,0.05940655014391668
170,0.05912275746208634,0.05924956985964677
171,0.05913682930100021,0.05940373556801627
172,0.059042775337930495,0.05935034643338248
173,0.05904591434615122,0.05906714449012571
174,0.05906412612905891,0.059105332149891
175,0.05915841809529766,0.05940675674904588
176,0.05908646175770355,0.05947779736466171
177,0.059063714820977976,0.059213651342709984
178,0.059032594738937585,0.059684428712022335
179,0.059095091988249936,0.05952379481768458
180,0.05905150991829513,0.05918872840085082
181,0.0591745851583761,0.05977350061475619
182,0.059012068399815536,0.0596401135407053
183,0.05905521040310343,0.05883074225747595
184,0.0590941728480595,0.05944908755789522
185,0.05909242330016278,0.06011825358023207
186,0.059059211546532826,0.05945388679322805
187,0.05913340058073485,0.05888314496640531
188,0.05910138747424817,0.0592945327316341
189,0.05903234325206394,0.0590681661105617
190,0.0590918132920655,0.05881632106186088
191,0.0591540836843012,0.05883758727993284
192,0.05912055075615287,0.05900912197349386
193,0.05902831014885986,0.058946507705791594
194,0.0590636514195745,0.05932906618446182
195,0.059051718180187694,0.05922191476577271
196,0.059030990712612655,0.05956098927742116
197,0.059093516306589836,0.059597107504612834
198,0.05904913006974258,0.05876887164239631
199,0.05911429838495527,0.05876878704272957
200,0.059038719205523754,0.059010952602316286
201,0.05904239478210608,0.059100261468208015
202,0.05908835399374783,0.05882665998028222
203,0.0590954905541109,0.05883577100244581
204,0.05908549977518576,0.05983303076254635
205,0.059025739638996925,0.05901567099561537
206,0.0590670775669775,0.058820583196775876
207,0.05905821749257098,0.05899786858892196
208,0.0591230637696888,0.05951806583868865
209,0.059005477188004675,0.05902312376669475
210,0.059033596085653985,0.058909349472812525
211,0.059050873058924765,0.0590195657792718
212,0.05903751047835838,0.059308666236045894
213,0.05909735424001869,0.05975657221938365
214,0.05911996362389897,0.05884327197001972
215,0.059063271390829536,0.05887790357116272
216,0.059093230596775535,0.05930427661799218
217,0.05906391052527727,0.05960645671895666
218,0.05910237547424105,0.0587842905571965
219,0.058964699107727746,0.058930008221585256
220,0.05904650746835031,0.05890378711161504
221,0.05911618511495497,0.05877224963978697
222,0.05902247362249761,0.05881205250545101
223,0.05905096762948375,0.05888380198177147
224,0.05906278943921403,0.05882485960952014
225,0.05903852344762316,0.05925267410847552
226,0.05908745808525385,0.05885180371395226
227,0.059062577158712944,0.05892304526002461
228,0.05903754167878132,0.05924323537837546
229,0.059062190836282086,0.058881358726460255
230,0.05902873560470595,0.06044394198008288
231,0.05910722799986291,0.058908145898260655
232,0.05900140761060538,0.058838113069228516
233,0.059052958554453513,0.05869074984091233
234,0.059081262325961816,0.05877676530613989
235,0.0590368439521578,0.05895245593002958
236,0.05903454965872349,0.05946533599811082
237,0.059054883686806274,0.05949148857097223
238,0.05909302526062055,0.058857274918736865
239,0.0591658371270632,0.05884777362316541
240,0.05904981884048235,0.059073879709136516
241,0.058970094401594834,0.05912822843973996
242,0.059027902038989784,0.05885095515045107
243,0.05905623135449503,0.05987043506168153
244,0.059072402324512614,0.05884670077484239
245,0.05905016143467548,0.05884648575179202
246,0.059032348372476943,0.059004580097797826
247,0.05904801419342784,0.05918267748561918
248,0.059139857155015525,0.06067153736772552
249,0.059090311408971995,0.05894957013845726
250,0.05895619946334669,0.059073320886189294
251,0.05914321335421192,0.05932679947615611
252,0.059043553357811376,0.06006311971897108
253,0.05906809836798768,0.059525214738397024
254,0.05905225215186413,0.05905612868616312
255,0.05911937090222069,0.059098493769447355
256,0.059021871712663286,0.05903256197049096
257,0.05902384440723559,0.05948010778852871
258,0.059082860064556555,0.05894611979046015
259,0.059076146171283095,0.059439783391043624
260,0.058980256235666224,0.05915486648231862
261,0.05907427510924095,0.05953057362876638
262,0.05916534605131542,0.05942292161279997
263,0.05896260465035955,0.05907682324123834
264,0.059001084869737916,0.059079011056892686
265,0.05913101832012383,0.059140482824810305
266,0.059073391412909654,0.05958801102784081
267,0.05908464552085701,0.06107519672567579
268,0.05904180492065269,0.05877484978362624
269,0.05907170525301608,0.059315542401576854
270,0.05904300139247656,0.059229985723344
271,0.059015328110717566,0.05975101264847858
272,0.05901632275131585,0.059050660007048894
273,0.05899150875790847,0.05924646735144301
274,0.05909530648129354,0.05900598848686975
275,0.05906224324346351,0.05921174023056369
276,0.0590242743462348,0.05890602607871005
277,0.059059766535874275,0.059074806250872906
278,0.058998081569584436,0.059064391665248864
279,0.059045371001692035,0.05918000609670555
280,0.05906358686425417,0.05908175438477848
281,0.05901716992878418,0.059078047203448406
282,0.05904466799087376,0.05914745602724396
283,0.05907650169530075,0.05950707524732614
284,0.05905323776213242,0.05929619926538821
285,0.05904439571562955,0.05991929284669606
286,0.059057465511010133,0.05937037136238112
287,0.059011276757760016,0.059675617947668756
288,0.05899284679523046,0.06030637675921279
289,0.05907197939686114,0.058909780956693025
290,0.05898581730495159,0.05886622284257515
291,0.05902817419511999,0.0597730196994783
292,0.059060007911458386,0.05879661699590856
293,0.05903211158278177,0.05949922562257079
294,0.059044819666172484,0.05947835292099683
295,0.0590132781751841,0.05877720549314532
296,0.059076349653726476,0.05876929243554632
297,0.05908550937130726,0.059052224931819476
298,0.05906791668489492,0.05974311455966642
299,0.05901683763944083,0.05921379702302444
300,0.059015991118588414,0.05902404345472027
301,0.0590452465067188,0.05983266254685578
302,0.05903370228769492,0.060783567714145455
303,0.0590351346513922,0.05904243234618498
304,0.05898738445953833,0.05959353571862053
305,0.05900739329896099,0.05898402637751345
306,0.059053555806930495,0.058817472582316906
307,0.05906374772622002,0.05889338482503545
308,0.05906085047028143,0.05909328943893208
309,0.05895194978558188,0.05918262718096905
310,0.058985192001127985,0.05926328981861225
311,0.05904335826397133,0.058808239410618864
312,0.05910015830563174,0.058852333963599464
313,0.058939867250198466,0.058829277574475015
314,0.059036123118907526,0.05916541840090184
315,0.05901697113645448,0.05942822943405552
316,0.059100113597681386,0.058807555933048525
317,0.05898618967913324,0.0587752657283124
318,0.0590380295235619,0.059280879425080445
319,0.059001342120240156,0.05941938913200159
320,0.059026147952849724,0.05886272131961542
321,0.05899607797386311,0.05911886811715087
322,0.05896865266660373,0.05880983591067951
323,0.0590207988871254,0.058719464052165694
324,0.05904064992283412,0.05892993920521653
325,0.059015988943269024,0.05939483624642631
326,0.05896867559307056,0.0593148292245927
327,0.059054693338170136,0.059999870758241994
328,0.0590733607723225,0.05872629926008508
329,0.058960937993894284,0.058702125263289384
330,0.05902508400130472,0.05905513051712052
331,0.05902151992286948,0.05868473898945781
332,0.058995382310889605,0.06043241155681501
333,0.05902829160281032,0.058756123484357096
334,0.05903053929289277,0.0590049049125333
335,0.059057335048425585,0.05966824005580645
336,0.05895789015701682,0.05896066402650388
337,0.0589746812925779,0.05885913879878896
338,0.05894353452602403,0.05902580410277364
339,0.05910893810315908,0.05928252236042892
340,0.05899352168323373,0.05879084761500735
341,0.05896212274638964,0.05893292545025614
342,0.059042865246665376,0.05904674280402504
343,0.058990744160686275,0.05918047129049391
344,0.059057928603901855,0.05969529369024188
345,0.058969853669226316,0.05986931117364715
346,0.059008540960846186,0.05892614421641253
347,0.05899020183465178,0.05868383883347922
348,0.059007237960906816,0.058634128121640046
349,0.05904913315628406,0.059714421247673864
350,0.059005409421073164,0.05943839985586191
351,0.05901203240058738,0.058776091866565676
352,0.058980872385579045,0.05906621852467732
353,0.05901421695429501,0.0590808246028922
354,0.05899469095537607,0.059463308331716126
355,0.05901940764604713,0.05893689729185112
356,0.058973341435789584,0.05894780363931652
357,0.05900863410650398,0.05915097874348899
358,0.058966936351512546,0.05871430440161204
359,0.058981330457815735,0.05885058030156799
360,0.05900886096804739,0.059050609775904886
361,0.05903443713024032,0.05913613135055378
362,0.0589538386983456,0.059601457482284695
363,0.05914085826052607,0.05928541592306854
364,0.05894831596887845,0.05942220437239735
365,0.05903427798351605,0.05916655456151845
366,0.05896712547625236,0.05929117685076564
367,0.059039913330801864,0.05942542359068249
368,0.058941771963434066,0.05914145842159274
369,0.05898951825132664,0.05960460746662299
370,0.059047860796931834,0.05875899745908514
371,0.059067682027340314,0.0591805808381387
372,0.05895418876694213,0.05922119616697694
373,0.05904235668647156,0.05878889055859412
374,0.058972232672069476,0.05882257979654287
375,0.05903895620515735,0.05896290608673653
376,0.058970007341173435,0.05986692485323833
377,0.0590502451345932,0.05970229775936658
378,0.05902698759040196,0.05871469244337402
379,0.05898810202162043,0.05890812513131087
380,0.05898277163743782,0.05965816380710421
381,0.05895843889585121,0.05945247662236772
382,0.05901601516770468,0.05920418798805883
383,0.05899220365557453,0.0588556648582667
384,0.05902338971039184,0.0590814989186594
385,0.059002203378472014,0.05993560967700822
386,0.05895236302479851,0.058921375659595064
387,0.058991389420571375,0.05926968249027054
388,0.05901779993165502,0.05886448228815548
389,0.05902695142143636,0.05876792530987144
390,0.05898212006004404,0.059783263986117274
391,0.05901744725743977,0.05883363401186494
392,0.058933568278626856,0.059396248207895797
393,0.05907046238033415,0.058781950792625555
394,0.058940700699778484,0.059160004319195304
395,0.05906742719038547,0.05896332804128328
396,0.05902864019886005,0.05886176637805345
397,0.05904987022775016,0.05892720870561927
398,0.05894757711665807,0.05986594862724348
399,0.058964515043843944,0.058772583269376684
400,0.05907135714682267,0.05902139923072934
401,0.05892683903900363,0.05907145751479957
402,0.05897784942417122,0.0596403469696888
403,0.05896540306550231,0.059494613989564314
404,0.05903313450848789,0.05886067728781757
405,0.05898087684193151,0.05967965769421989
406,0.05900013304317741,0.05945537244311542
407,0.05899179473721819,0.05922231953752822
408,0.05898802262320697,0.05886166304608641
409,0.05897159796717356,0.05942791265794962
410,0.059121077287671187,0.05939430235087542
411,0.05897315853922296,0.05885240409138077
412,0.05892929085176721,0.059243536650569965
413,0.05905509623382494,0.05976265888505313
414,0.05902536239454167,0.05901022219255672
415,0.058953506292866095,0.05905298431475236
416,0.05904428776261284,0.05942050373474255
417,0.05896780615468487,0.05893833497458306
418,0.05899345689415217,0.05904293971778656
419,0.058973342107294754,0.059037526691627956
420,0.05892970649410876,0.05899524215929322
421,0.05907260541090195,0.058907182327079886
422,0.05897553548437181,0.05922530623536554
423,0.058948606565344536,0.05895564694254532
424,0.05900071238537582,0.05918167853741168
425,0.0590487196833062,0.058975108552962285
426,0.059019906074106454,0.059251740421944
427,0.05893240760651519,0.05902373790152918
428,0.059004437282598084,0.058681086314387836
429,0.05905690822276852,0.05883613357286615
430,0.05893478730617524,0.05870119611355575
431,0.05897238482829097,0.05923038759601803
432,0.059027118483285825,0.05894056183963003
433,0.05902775928681846,0.0591607479041923
434,0.058941760497222793,0.05928747814910188
435,0.05907530773529332,0.058863717248191394
436,0.05889721212686776,0.058955328334666844
437,0.05898705829712127,0.06080442101892375
438,0.05909493759864097,0.05973740114632703
439,0.05897508364030831,0.05955979310052547
440,0.058939263057842146,0.058923442569438544
441,0.0590129238050833,0.05929018737602723
442,0.05899783539966189,0.058781312033240024
443,0.058979875429702414,0.05891860808939001
444,0.05898659949828919,0.05897624443719588
445,0.05893950632138313,0.05917039725579609
446,0.05898179127563009,0.05903507166945662
447,0.05899068960349718,0.05912552485220434
448,0.05895906202435541,0.059383417105547724
449,0.05900088645112839,0.058988332201527535
450,0.05898132107312159,0.05907696284406658
451,0.05903992586755019,0.0587564175088479
452,0.05898671906789858,0.05887389146879421
453,0.05898064758917458,0.058664258416586255
454,0.059037247248333424,0.05889305951633882
455,0.059001687803952624,0.05920452208220724
456,0.05889954630711334,0.05888134717423801
457,0.05899566937115886,0.058886376292618975
458,0.058994664992991205,0.05916216680463977
459,0.05906038044048823,0.05961723198736382
460,0.05896452071218134,0.05965352592653144
461,0.05895854043755695,0.058928152965271485
462,0.05898262439317983,0.0590019458647591
463,0.05898632189716033,0.05882800787381516
464,0.058980216213362774,0.05910468982104815
465,0.05900207186023966,0.0589770553361598
466,0.058987765919140206,0.05930939640764562
467,0.058988658353972205,0.05965597176337769
468,0.058975715394154915,0.0590553131974769
469,0.05895858988028874,0.05995741483609133
470,0.0589632228877452,0.058697666105503345
471,0.05903849351427538,0.05889446767019115
472,0.059012510789205413,0.05882017762527376
473,0.058973859825866115,0.05886230522497677
474,0.05893215162011026,0.05885603344442812
475,0.058988335221517474,0.05878657595957935
476,0.05899135862662495,0.05893537378043007
477,0.05894498212886848,0.059109923527550304
478,0.059062062048738144,0.05930967492234453
479,0.058978747929350366,0.05884566491480032
480,0.058953427635937285,0.05917649775825811
481,0.059018982948063854,0.059267780936860436
482,0.05891387949107314,0.05940920758430847
483,0.0589719270672396,0.05913245193395637
484,0.05899469866056284,0.058937898812772914
485,0.05899245127273216,0.05891439535646996
486,0.05894449331330882,0.058890563654165715
487,0.05901520461779085,0.05871106892377256
488,0.058984763574876566,0.05870160505457854
489,0.05906942595901202,0.059143562463789164
490,0.05897041526492789,0.05882447063864077
491,0.058964048194394506,0.05917888504012702
492,0.05894845609309719,0.0587817379571174
493,0.05902759246617484,0.059823736254399275
494,0.05899762507560823,0.0592300656980055
495,0.059008503529272206,0.059284203895312554
496,0.058929658590925395,0.05888894220318677
497,0.05901435244051244,0.05938733654021747
498,0.05898811663393017,0.058932500364348564
499,0.058961037710178,0.0589554335072272
500,0.059061326306882045,0.05908538983589378
