epoch,loss,val_loss
0,0.11093600051477552,0.048322290547192094
1,0.04879794793576002,0.04827888338267803
2,0.04867004531621933,0.04843192620575428
3,0.048697713572531935,0.04828457435965538
4,0.048631542220711706,0.04841288463026285
5,0.04858420517295599,0.048626158975064754
6,0.04860669117793441,0.04844704665243626
7,0.04858002741262317,0.048606906339526176
8,0.04852953718230128,0.048228488698601725
9,0.04849729064106941,0.04827947661280632
10,0.04848099663481116,0.048193858057260515
11,0.04849077917262912,0.04889888583868742
12,0.04846520232409239,0.04844416100531816
13,0.04843412534892559,0.04847590912133455
14,0.04843887607380748,0.04822629234194756
15,0.048373111478984356,0.04807435622066259
16,0.04838416216894984,0.04859572122991085
17,0.04839586693421006,0.04831121735274792
18,0.0483800492323935,0.04850263354182243
19,0.04837496298551559,0.048529549427330496
20,0.04833721567690372,0.048354784220457074
21,0.04833795031905174,0.0481461626291275
22,0.04828690748661756,0.04866236906498671
23,0.04828598643094301,0.04827157551050186
24,0.04831791771948338,0.048021652720868585
25,0.048293362971395255,0.04815194795280695
26,0.04828390312939882,0.04794585091620684
27,0.048260417975485324,0.048418543562293054
28,0.048233978882431985,0.04799374256283045
29,0.048239909060299395,0.04791043998301029
30,0.048230023272335526,0.04813824065029621
31,0.048228276960551736,0.047981922045350074
32,0.04824306778237224,0.048164131686091426
33,0.048201796140521766,0.048282578401267526
34,0.048215818569064144,0.04873333190381527
35,0.04820273836329579,0.048210164099931715
36,0.048191682524979115,0.047980741649866106
37,0.048210864420980215,0.04812987829744816
38,0.04820765637978911,0.04806601092964411
39,0.048159776404500004,0.0484055657684803
40,0.04816630952805281,0.04852308839559555
41,0.04821230351552367,0.047887002348899844
42,0.04814146456867457,0.04822595369815826
43,0.04814518573880196,0.04865488788485527
44,0.0481860780492425,0.04801465706527233
45,0.04812494631484151,0.04791653784364462
46,0.04817566723003983,0.048055171683430674
47,0.04813663648813963,0.04803449150919914
48,0.04814867950603366,0.048261584728956225
49,0.04814507879689336,0.047796502083539964
50,0.04812396591901779,0.048013534270226955
51,0.04813056895881891,0.04806637319177389
52,0.04816205026581884,0.04801895691454411
53,0.048122842751443386,0.04845735635608435
54,0.048149813551455735,0.048087798446416856
55,0.048101807408034804,0.04785422486066818
56,0.048117253337055445,0.048261099427938464
57,0.04815552420169115,0.04811305896192789
58,0.048109019719064235,0.04833841222524643
59,0.04812975761294365,0.04879577195644379
60,0.04808503821119666,0.047882384732365606
61,0.048115848932415245,0.04797235941886902
62,0.048126005321741105,0.04785182312875986
63,0.04810396557301283,0.048260245598852634
64,0.04811995446309447,0.04775809180736542
65,0.04811755698546767,0.04779203774034977
66,0.048096071131527425,0.047837830781936645
67,0.048078365579247474,0.047962402477860454
68,0.04810297766700387,0.0479625668078661
69,0.04809182762354612,0.047763287633657454
70,0.0481033394485712,0.047905312940478326
71,0.04806558041274547,0.04807740119844675
72,0.04809340428188443,0.04812722571194172
73,0.04807959300279617,0.04784511395543814
74,0.048071947477757934,0.04794367264956236
75,0.04807686282321811,0.04773830123990774
76,0.048081626176834105,0.047821249209344385
77,0.04807269548252225,0.04789324688911438
78,0.04809450412169099,0.04775248157978058
79,0.04805385766923428,0.04798972496390343
80,0.04806531772390008,0.048138343520462513
81,0.048072922181338074,0.04784187100827694
82,0.04807171792164445,0.048257670283317566
83,0.048050339613109824,0.048000330731272696
84,0.048088596064597366,0.04890705449134111
85,0.04807798379659653,0.04786647233366966
86,0.04805802856013179,0.04790430333465338
87,0.048062277432531116,0.04779385276883841
88,0.048071187507361175,0.047861313581466676
89,0.04808196421340108,0.047726334534585475
90,0.04806640548631549,0.04778944335877895
91,0.048032227266579866,0.04786388214677572
92,0.04807225476577878,0.048096276096999645
93,0.04804327291995287,0.04810878413170576
94,0.048059644009917975,0.047874192900955674
95,0.048050784204155206,0.04832064740359783
96,0.04806276058778167,0.0479512193351984
97,0.04804331087321043,0.047791863046586516
98,0.04807243436202407,0.04792998171597719
99,0.04801998264715075,0.04810425378382206
100,0.04805411280319095,0.047794561490416526
101,0.048044994026422504,0.04796492128819227
102,0.04803429298847914,0.04782031314074993
103,0.04803517073020339,0.04812015341222286
104,0.048071066588163375,0.04773546742647886
105,0.04805033644288778,0.04780867324769497
106,0.0480340543910861,0.047997993983328345
107,0.04804192464053631,0.04832625766098499
108,0.048048378191888334,0.04791783940047026
109,0.04803904267773032,0.0478856972232461
110,0.04802271182090044,0.04838359849154949
111,0.04804293693602085,0.047978641286492346
112,0.048031129520386455,0.048014216229319576
113,0.04805066861584783,0.0480346245020628
114,0.048072001844644545,0.05036855479329824
115,0.04802278709411621,0.047829189725220204
116,0.048034665204584596,0.04785578105598688
117,0.04803030200302601,0.048250381715595723
118,0.048068675115704534,0.04800030554831028
119,0.048012243289500475,0.04795339284092188
120,0.048057602863758805,0.04808087035268545
121,0.04804440743103623,0.04799506529420614
122,0.04802896329388023,0.04835462568700313
123,0.048021284352988004,0.049049815587699414
124,0.048024459980428216,0.048027932658791544
125,0.04801932104304433,0.04835675167292357
126,0.04804167421162128,0.04787071483582258
127,0.0480379630215466,0.04789144885540009
128,0.04801713334396482,0.04788257782161236
129,0.04802798377722502,0.048038570925593375
130,0.04808601325377822,0.050714496061205865
131,0.0480252197124064,0.047803279511630534
132,0.04803571854159236,0.048094986476004124
133,0.048061356723308565,0.047890900038182735
134,0.04802711814641952,0.04785812778025866
135,0.048042864870280026,0.04781612226366997
136,0.04805102410912514,0.04777751653641462
137,0.0480442457087338,0.048418069899082185
138,0.04801443912088871,0.047836326710879805
139,0.048028350908309224,0.04841598054021597
140,0.0480294734723866,0.04789430751651526
141,0.048023097679018974,0.047886398307979104
142,0.048043314892798665,0.04812299270927906
143,0.048004525288939476,0.047697284549474715
144,0.04801487185806036,0.049232784755527975
145,0.04800960879772902,0.04798755709826946
146,0.04806527257710695,0.04803323230147362
147,0.04801487907767296,0.04778047198802233
148,0.04802014272660017,0.04849132192134857
149,0.048033430140465495,0.047916864365339276
150,0.04801575990766287,0.047806128844618795
151,0.04804184391722083,0.04766674289107323
152,0.048031575910747054,0.04779402515292168
153,0.0480276135802269,0.04853743118792772
154,0.04801725662499666,0.0483638808131218
155,0.047994525890797377,0.04763953010737896
156,0.04802470364794135,0.047856423854827884
157,0.04801889181137085,0.04838201454281807
158,0.04798979813978076,0.04772582425177097
159,0.04803728982061148,0.04805782007426024
160,0.048042594972997905,0.048235413908958434
161,0.048026323415338995,0.047724363155663016
162,0.048008521419018506,0.04779317090660334
163,0.04800991708412766,0.04806339390575886
164,0.047993691753596066,0.047768365196883676
165,0.04802870842441916,0.04776248785108328
166,0.04798843961954117,0.04839766619354487
167,0.0480378346145153,0.04788606707751751
168,0.04800046457722783,0.047878818579018115
169,0.04802882646769285,0.04786473442614079
170,0.04801720717176795,0.04832446603477001
171,0.04800456184148789,0.04793416678905487
172,0.04800119146332145,0.04773549179732799
173,0.04800657930597663,0.0479013292118907
174,0.04802149037271738,0.04780967652052641
175,0.04801694446057081,0.04786844252049923
176,0.04798768651485443,0.04776062123477459
177,0.048024264965206384,0.048214961171150206
178,0.048020749904215336,0.048072958663105965
179,0.04802035606652498,0.047803142830729485
180,0.04806774448603392,0.048040049843490126
181,0.04798269910737872,0.04807587828487158
182,0.04801869198679924,0.04820425631850958
183,0.048024643164128064,0.04791874623298645
184,0.04799878380447626,0.048448816061019896
185,0.04800881401821971,0.04802401939034462
186,0.04803728104382753,0.04791798062622547
187,0.0480133723653853,0.04894648031145334
188,0.04798471872881055,0.047928086400032044
189,0.04802298593148589,0.0478706868365407
190,0.04799786142632365,0.04832367379963398
191,0.04802573498338461,0.047792092189192774
192,0.04799067974090576,0.04837550649046898
193,0.04802645917236805,0.047900262750685214
194,0.047987157478928566,0.047928305067121986
195,0.048029748041182756,0.04797291397303343
196,0.048017875093966725,0.04783763060718775
197,0.048000132746994495,0.04782794061303139
198,0.04801041707396507,0.04797769851982594
199,0.04800822479277849,0.047829950638115404
200,0.048003404282033445,0.04784598910808563
201,0.048020826946944,0.048413725219666956
202,0.04804143633320928,0.04815208157151937
203,0.04801504742354155,0.04886294662207365
204,0.04798599131032825,0.04846019371598959
205,0.048027184035629035,0.047782003551721575
206,0.04802053549513221,0.047933024369180205
207,0.04798555399104953,0.0477952927723527
208,0.048008244186639785,0.047874641068279745
209,0.047990863129496575,0.04823192947357893
210,0.04800942352041602,0.04811890906840563
211,0.048024257473647594,0.047683320194482806
212,0.04799524766206741,0.04804325848072767
213,0.048043337747454645,0.04817007039487362
214,0.048004237711429594,0.048024005696177485
215,0.04800821792334318,0.047892967969179155
216,0.048011554922908546,0.04797009902447462
217,0.04799579522758722,0.04787758944928646
218,0.0480154365748167,0.04810430742055178
219,0.04801343446224928,0.04899732130765915
220,0.04801782693341374,0.0479380888491869
221,0.047992570742964744,0.048422618098556997
222,0.04801485915482044,0.047856288991868494
223,0.04800126875191927,0.048195948742330075
224,0.04800589069351554,0.048049052596092226
225,0.04798942503333092,0.04789061366021633
226,0.04804188736155629,0.04776160428673029
227,0.048001333881169554,0.0479200219810009
228,0.04800899333506822,0.04815950959175825
229,0.04800003104284406,0.04926197318732738
230,0.04799460035562515,0.04804248640686273
231,0.04801986116543412,0.047769560515880584
232,0.04797939566895366,0.04803921362757683
233,0.048030524156987664,0.048057003661990165
234,0.047999245416373015,0.04789235607534647
235,0.048031345400959255,0.04782168401777744
236,0.04798666308447719,0.0478036395162344
237,0.04798729047179222,0.04779601683467626
238,0.048040702261030674,0.04784096808731556
239,0.047995227314531805,0.04810115920752287
240,0.04802172723785043,0.047861825555562974
241,0.047990183539688584,0.04787776587903499
242,0.04800487310066819,0.04810392820835113
243,0.048022438779473306,0.047808521524071695
244,0.0479866329729557,0.047732289597392084
245,0.04804759813472628,0.0481580505296588
246,0.04797783321514726,0.047805183827877046
247,0.04800333308428526,0.047903220608830455
248,0.04802128613367677,0.047810516968369486
249,0.04799597825855017,0.04801335390657187
250,0.04801153074204922,0.04787309572845697
251,0.048045568972826004,0.04818247782438993
252,0.047985088735818866,0.047969814792275425
253,0.04799361631274223,0.04775397020578384
254,0.04800298025086522,0.04853556229174137
255,0.04798144731670618,0.04813447628170252
256,0.047995695643126966,0.04845916244387627
257,0.0480291792601347,0.047763686448335646
258,0.04794673525169492,0.04818506821244955
259,0.048019427977502346,0.04778651427477598
260,0.047990304108709095,0.04771633892506361
261,0.04799575447291136,0.04824423171579838
262,0.047974475465714934,0.04785202969610691
263,0.04804019270464778,0.04780458950251341
264,0.04799851943552494,0.04772394905984402
265,0.04800698863342404,0.04787364841997623
266,0.04799357334896922,0.04778801516443491
267,0.04799345900118351,0.047865694895386696
268,0.04799962675198913,0.048072720788419246
269,0.04801181673258543,0.047801397934556004
270,0.047970993965864184,0.047717207424342635
271,0.04799629769101739,0.048780451461672786
272,0.047974824741482736,0.04772821037471294
273,0.04800040623545647,0.0478007520660758
274,0.04800654123350978,0.047785957001149654
275,0.048003003660589454,0.04867751244455576
276,0.04798406952247024,0.04769395572692156
277,0.047992163088172675,0.04776543192565441
278,0.048025789584964514,0.04787124164402485
279,0.047977887857705355,0.04890342379361391
280,0.047999651964753864,0.0476989499181509
281,0.04800792273506522,0.04805894871801138
282,0.04797751908004284,0.04790474338084459
283,0.048018854219466445,0.048472644619643686
284,0.0479947205632925,0.048633982747793195
285,0.048033629041165114,0.047964351065456864
286,0.04797855541110039,0.04807600908726454
287,0.04797127030789852,0.04768617829680443
288,0.048028297327458856,0.04789481075108051
289,0.04797814625501633,0.048073984019458296
290,0.047977318570017816,0.048310616664588454
291,0.048014972746372224,0.04769403720647097
292,0.04798631750419736,0.04803678934276104
293,0.048004641968756916,0.047701431713998314
294,0.04799661782383919,0.047730499655008314
295,0.047988485913723705,0.048028619669377805
296,0.04799996946379542,0.0482254443615675
297,0.048002615198493005,0.04783148324489594
298,0.04801196780800819,0.04773206364363432
299,0.04798155389726162,0.04783086391538382
300,0.04800665043666959,0.047720710039138796
301,0.04800777132809162,0.04785396976768971
302,0.04799893686547876,0.0484470586553216
303,0.04799497604742646,0.04778195415437222
304,0.0479670089147985,0.0478440937846899
305,0.04799322562292218,0.047739739529788494
306,0.04798059783130884,0.04814544305950403
307,0.04800397614017129,0.047789924681186674
308,0.04800478905811906,0.0477644774094224
309,0.048007897723466156,0.04774379626661539
310,0.04798946288973093,0.04771120399981737
311,0.047992595814168454,0.04936590957641602
312,0.04798675529286266,0.047774916417896746
313,0.04800344501063228,0.04771115513145924
314,0.04799050748720765,0.0480215532630682
315,0.048000557892024516,0.047850659906864164
316,0.04797351793199778,0.04782778906822205
317,0.048015912715345624,0.04775130593031645
318,0.047977478425949814,0.049234209194779395
319,0.047985197477042676,0.047895834296941754
320,0.048012696977704765,0.047864129528403285
321,0.04800885801017284,0.0479157550111413
322,0.047978082608431574,0.04778664422035217
323,0.04797000334039331,0.04776020673662424
324,0.04800536383315921,0.048068108573555944
325,0.04798776338994503,0.0477231375426054
326,0.04800863918662071,0.047996990755200385
327,0.0479682412147522,0.048370794609189034
328,0.04800698727369308,0.04795894879102707
329,0.04800742496922612,0.04804808125644922
330,0.04797443132475018,0.04825418962538242
331,0.04798212119191885,0.048499276772141456
332,0.048056978184729815,0.04777315302938223
333,0.04798404778167605,0.047763040497899055
334,0.04796016364917159,0.04798507407307625
335,0.048027715865522624,0.04772494994103908
336,0.047953412879258396,0.04777012235671282
337,0.04798030260577798,0.04785536143183708
338,0.04798439944535494,0.0479998068138957
339,0.04801000365614891,0.04775241930782795
340,0.04799547999352217,0.047828244008123875
341,0.04801828908920288,0.04775257508456707
342,0.04798415453359485,0.04769013786315918
343,0.04801644525676966,0.04777693469077349
344,0.04797113092243671,0.047654790461063384
345,0.04796984370797872,0.04773696494102478
346,0.047991427171975375,0.0477945327013731
347,0.04796601132303476,0.047797293290495875
348,0.048022545877844096,0.047678538642823697
349,0.04796429042890668,0.04787941771745682
350,0.04800262153148651,0.04781817744672298
351,0.04799578922241926,0.04778781988471746
352,0.0480125443674624,0.04768043973296881
353,0.04800560757890344,0.04782942832261324
354,0.047976786993443966,0.047844595544040205
355,0.048017065457999705,0.04770569144189358
356,0.04797045343369245,0.04785011112689972
357,0.04800614302232861,0.04822379717975855
358,0.047981195047497746,0.047734523132443425
359,0.04800132470577955,0.04793417589366436
360,0.047980635203421114,0.047770256385207176
361,0.04797410059347749,0.048402279652655124
362,0.04797272239997983,0.04800813353061676
363,0.047990414589643475,0.04827305743843317
364,0.0480141027867794,0.04827765914052725
365,0.04798411786928773,0.04773329508304596
366,0.04799533262103796,0.047794731020927426
367,0.04800956282019615,0.04772685893625021
368,0.04798467652127147,0.04780783385038376
369,0.047971472721546886,0.04785063979029656
370,0.047979618806391955,0.04807681565731764
371,0.04801839471235871,0.047763120852410794
372,0.04795428495109081,0.04779964538663626
373,0.04799796455726028,0.04815016991645098
374,0.048013768825680016,0.047733156822621824
375,0.047984085347503425,0.04798431535065174
376,0.04797233567386865,0.047832857474684715
377,0.048011057190597055,0.047850639551877974
378,0.047971922621130945,0.047782656840980056
379,0.047990072406828406,0.0478148522824049
380,0.048032859493046996,0.04774592850357294
381,0.04795542022585869,0.04812695803493262
382,0.04803018720448017,0.04831293750554323
383,0.04799959795549512,0.04817940180748701
384,0.04798526570945978,0.048643536120653155
385,0.0479988342858851,0.04778982715308666
386,0.04800716360658407,0.04805123800784349
387,0.04797056685760617,0.047679733999073506
388,0.047975110441446304,0.04806757781654596
389,0.048009993590414524,0.048640633709728716
390,0.04804826790466905,0.047751440048217776
391,0.04798076462000608,0.04769526899605989
392,0.04797263821586967,0.04855559229850769
393,0.047981882564723494,0.04791055176407099
394,0.04798769872263074,0.04789703921973705
395,0.047989919424057004,0.047848443947732446
396,0.04800404866039753,0.04809563347697258
397,0.04798654328659177,0.047729825258255004
398,0.047954735711216924,0.04776405194401741
399,0.0479912870824337,0.047768434174358845
400,0.04802219209074974,0.04790232431143522
401,0.047975517440587284,0.04777569955587387
402,0.04798066077008843,0.04780850484222174
403,0.048007897660136224,0.04781518816202879
404,0.04799192349240184,0.0479462019354105
405,0.04797846149653196,0.04814901477098465
406,0.04796284678578377,0.047906202286481854
407,0.04798666024580598,0.047958867341279986
408,0.047996712040156125,0.04793933144956827
409,0.04798729169368744,0.048028129436075685
410,0.04800270773097873,0.04784892797470093
411,0.04797872949391604,0.04780679860711098
412,0.04802032546699047,0.04789950430393219
413,0.04794076531752944,0.04780475613474846
414,0.047988152232021096,0.04774529115855694
415,0.04799677413702011,0.04797433091700077
416,0.047979909908026454,0.04813859111815691
417,0.0479769142344594,0.047762918643653396
418,0.04799624787271023,0.047886773221194744
419,0.04797722330316901,0.048184015065431594
420,0.04798617823421955,0.047864435903728006
421,0.04799378859251738,0.04893343864381313
422,0.04800289864838123,0.04813841722160578
423,0.04799741949141025,0.047743854083120825
424,0.04800254900753498,0.048420183822512626
425,0.04796765593439341,0.04889545600861311
426,0.04797051814571023,0.04833439530432224
427,0.04799021001160145,0.047937974564731124
428,0.0479584416821599,0.04777322086691856
429,0.04800042634829879,0.04778706632554531
430,0.04800582753121853,0.04777089197933674
431,0.04796656584367156,0.04776903354376554
432,0.04795779423415661,0.047706663861870766
433,0.04800382039695978,0.047823291286826136
434,0.04798219135403633,0.04777631305903196
435,0.047992391638457775,0.04817288585752249
436,0.047972113210707906,0.0482409265935421
437,0.04796975639835,0.04772525301575661
438,0.04801306293532252,0.047721425019204615
439,0.047973863173276184,0.048199600718915464
440,0.04797194181010127,0.047792134992778304
441,0.04796676474809647,0.04781198889017105
442,0.04801887618750334,0.04817449197173119
443,0.04797507194802165,0.0478270285949111
444,0.047979482531547546,0.04779115199297666
445,0.048012999210506675,0.04804704792797566
446,0.047963165450841186,0.04784108956158161
447,0.04796896767988801,0.04772856819629669
448,0.04802334053441882,0.04769363594055176
449,0.04794270781427622,0.04786134086549282
450,0.04795640800148249,0.04772136029601097
451,0.04798801160603762,0.04767704807966948
452,0.047971550073474645,0.047854835353791716
453,0.04799199438840151,0.04782325215637684
454,0.04796238807588816,0.04789476524293423
455,0.047958469826728106,0.04785786566138268
456,0.0479931750819087,0.04823440387845039
457,0.04795862036943436,0.047980068132281305
458,0.04799512996152043,0.047799364000558855
459,0.04800675899162889,0.04773842299729586
460,0.04796828093007207,0.04775987395644188
461,0.047976461805403235,0.04784830567240715
462,0.04799807054921985,0.04795878734439611
463,0.047951574984937906,0.047917470142245296
464,0.04798907889798284,0.04813798310607672
465,0.04795534225925803,0.04768616460263729
466,0.0479851582609117,0.04774951340258121
467,0.04797352295741439,0.047911483339965345
468,0.047975387196987865,0.04815170225501061
469,0.047982927076518536,0.048198555521667005
470,0.047962064109742644,0.04811459509283304
471,0.04798640802502632,0.04785155677050352
472,0.0479995154440403,0.048004577420651916
473,0.04795425822213292,0.04772752609103918
474,0.04798748100921511,0.047865679554641244
475,0.048010876566171645,0.04777173382043839
476,0.04794558481127024,0.047764431022107603
477,0.04801088158041239,0.04780993425101042
478,0.047985809028148654,0.04767727018892765
479,0.04795787538960576,0.04805172996222973
480,0.04798686034232378,0.04775388096272946
481,0.04796435330063105,0.04790157253295183
482,0.04798861819133163,0.04831584699451923
483,0.047964910976588726,0.048889903135597705
484,0.04798307562246919,0.04767824437469244
485,0.047977544490247964,0.04808162828534841
486,0.04795745371282101,0.04777264925092459
487,0.047962561544030904,0.04881248542666435
488,0.04800441696867347,0.047770275600254535
489,0.04794703028351068,0.04795615917444229
490,0.04799654944613576,0.047913045831024646
491,0.047959954135119914,0.04860356362909079
492,0.04798899721726775,0.047745450079441074
493,0.04797541606426239,0.04784988014400005
494,0.04795683255419135,0.04775634598731995
495,0.04799780489504337,0.0477735211700201
496,0.047980188351124525,0.04775654771178961
497,0.04799888271093369,0.04875594234466553
498,0.047964804790914056,0.04780589696764946
499,0.04799247691035271,0.04781880794465542
500,0.04798386349529028,0.04799212111532688
