epoch,loss,val_loss
0,0.1577526432701009,0.08164990715676626
1,0.0757841815551122,0.07240226791308636
2,0.0728799016843978,0.07267603819753207
3,0.07271969386284871,0.07330755066735216
4,0.07267489514464764,0.07232391235037121
5,0.07250814149967677,0.07301898652889076
6,0.07252685868327947,0.07291481171123795
7,0.07243738873161192,0.07248756631138575
8,0.07241786674236794,0.07248613197171228
9,0.07236101055185762,0.071744973206012
10,0.0723623344265252,0.07241615790641487
11,0.07228056918219221,0.0724835708949071
12,0.07224244879280253,0.0721539528753782
13,0.07231740220535478,0.07222232878819732
14,0.0722212112761087,0.07289681916478684
15,0.07217671181693923,0.07214771399322982
16,0.07218162007897878,0.07454248725921034
17,0.07222115497985522,0.07308966719972494
18,0.07213241382123088,0.0717730442827954
19,0.07205648504965882,0.07178489688633932
20,0.07203836714347109,0.07253808555235144
21,0.07209359013812719,0.07238611869437542
22,0.07203086911381291,0.0724487537437287
23,0.07202307518116004,0.07206956044886181
24,0.07201441422664671,0.07391408353385345
25,0.07200088509493213,0.0722761595152736
26,0.07198115240195863,0.07226540262339712
27,0.07194590147474496,0.07171910133833197
28,0.07198326558255845,0.07153693641276461
29,0.07190021710972086,0.07198811238359633
30,0.07186959841423374,0.07206053283850603
31,0.07187577834029754,0.07229406237249404
32,0.07188669140997836,0.07156764936428325
33,0.07183480831823474,0.07246790446441007
34,0.07184927435301476,0.07317982922178042
35,0.07187329152886339,0.0715561311841952
36,0.07182929448360544,0.07227047632177137
37,0.07177573828686246,0.07147884535902395
38,0.07180763859090378,0.07180951758572315
39,0.07183563033584878,0.071359854435582
40,0.0718034014022417,0.07295003147015161
41,0.07174154084554012,0.07170242689191213
42,0.0717748018468527,0.07174261071922841
43,0.07172681188447584,0.07165277472328933
44,0.07173930316698923,0.07192625579348491
45,0.07176134978636182,0.07206344600963893
46,0.07171726993603005,0.07222102661253245
47,0.07171825762334869,0.0715260346020971
48,0.0717245737979595,0.07186244716301807
49,0.07168467035241645,0.07153744641000488
50,0.0717794576333724,0.07165917498371972
51,0.07165988188365,0.07127022866127335
52,0.07166627306136772,0.07151643163285673
53,0.07166138588250588,0.07145943988376277
54,0.07173914001356783,0.07202309784615425
55,0.07169392576618351,0.07404084386040868
56,0.07172577525321529,0.07149728104154614
57,0.0716409365222942,0.07238362777769425
58,0.07166704363662371,0.07213407228006184
59,0.07162253242388046,0.07175714794278804
60,0.07169235371750035,0.07188790969568251
61,0.07159004525112496,0.07193247567577069
62,0.07166750688585255,0.07214772502502872
63,0.0716361663580465,0.07184433232590073
64,0.07159924065228179,0.07141972915361317
65,0.0716008086451333,0.0721891524583313
66,0.07163314162481793,0.07195917973860852
67,0.07166537981209375,0.071404564011351
68,0.07162919975846982,0.07153482607550384
69,0.07161436549169745,0.0721726929673362
70,0.07159614388486274,0.0724363334612199
71,0.07160339123315568,0.07163480844498621
72,0.07158558060237162,0.07153277136767673
73,0.07158596918796845,0.0720149240593978
74,0.0715792903082548,0.07205361283686373
75,0.07153407254402967,0.07222382679593403
76,0.07159631897052891,0.07181778611305105
77,0.07154934435523004,0.07136434911740701
78,0.07156158898838705,0.07148620942585471
79,0.07157124098923376,0.07245731248498997
80,0.07154945726041123,0.07198328455438177
81,0.071502736295394,0.0730104930728274
82,0.07162421552552213,0.07179480113659492
83,0.0715720590314181,0.07281348457958346
84,0.07153420931072257,0.07131608847849183
85,0.07158582533697048,0.07199090716282777
86,0.07152662972966545,0.07194486361558548
87,0.07156991147451836,0.0722918548366171
88,0.07155882726482254,0.07143238307974333
89,0.07152169177846181,0.07137987895000611
90,0.07153133115620255,0.07211405393427155
91,0.07157351282074582,0.07142668048062471
92,0.07157848511847088,0.07161722875008361
93,0.07149274216936552,0.07151245623944591
94,0.07150136451605413,0.071592599829775
95,0.07155668835708802,0.07201055405571787
96,0.07152336259349454,0.07155286706543007
97,0.07154906545278075,0.07169313857592084
98,0.07147494890540243,0.07170428390355212
99,0.07149000277074216,0.07122846991529405
100,0.07151367940115842,0.07152803726170885
101,0.07148777063992574,0.0718726920818097
102,0.0715348763401798,0.0745246498106781
103,0.07152558695510042,0.07137830879453984
104,0.07152759018752405,0.07128784099289444
105,0.07145863576389426,0.07155550806397233
106,0.07149498787322205,0.0712065546940233
107,0.07151309931449754,0.07121326339790551
108,0.07150671027189821,0.07119656450628951
109,0.07145485209880306,0.07186236206644994
110,0.07150316851840412,0.07160625344505438
111,0.07147826410109381,0.07175116139833816
112,0.07149219113609774,0.07126927959726095
113,0.07148133333829,0.0714613017174044
114,0.07147972851241235,0.07133741844989412
115,0.07146969965869765,0.07143872733438872
116,0.07151438267849428,0.0715363286170982
117,0.07148529858076029,0.07117766879304903
118,0.07143997393852229,0.07149948974764056
119,0.0715124650324563,0.07164270714830957
120,0.07149311275981504,0.07151342714359747
121,0.07146222275688494,0.07133390127013026
122,0.07145538642037687,0.0713934287334768
123,0.07148957449338324,0.07377292851505077
124,0.07147359711041362,0.07142767179595644
125,0.07141103604428774,0.07139996966698457
126,0.0714989073535831,0.07178670502228819
127,0.07145275603488481,0.07132426471741254
128,0.07143819979805169,0.07125870103417839
129,0.07146065824811788,0.07231495425916602
130,0.07145775555909203,0.07160712109368526
131,0.07147023471282254,0.07192890767681383
132,0.07142996833883791,0.07170901884454954
133,0.07144121127091438,0.07203354031412076
134,0.07145570940691695,0.07115518120606301
135,0.07144782923572927,0.07133246803598886
136,0.07142668131956284,0.07161457890728466
137,0.07143404469382372,0.07133533717989451
138,0.07146059472164472,0.07153137072320989
139,0.07145172220578105,0.07217289953718245
140,0.07142697757394384,0.07148234387999364
141,0.07144540050130287,0.07167919723415525
142,0.07142451556502201,0.07191219865899436
143,0.07144696172252357,0.07162675192107718
144,0.0714178729465873,0.07597402309750419
145,0.07141532932670949,0.07150232838356504
146,0.07146359205567579,0.07206502885520223
147,0.07142022704716018,0.07170141423040238
148,0.07147508956712308,0.07110661260001568
149,0.07140846481676297,0.0715811995887907
150,0.07138344924524724,0.07117606085543568
151,0.0714021513579513,0.07140373944906898
152,0.07140890616390536,0.07219745606866143
153,0.0714326507801251,0.0716130209949982
154,0.07140397731003334,0.07179911548143875
155,0.0714314548249582,0.0717465807025886
156,0.07139146579302949,0.07158365210587336
157,0.07144367229416788,0.07142205034759727
158,0.07139082569822514,0.07154509866788054
159,0.07140832018854616,0.0711070707136943
160,0.07141074336630454,0.07103777624484396
161,0.07138511816338955,0.07133257925369274
162,0.07139431693249469,0.07151509486815077
163,0.07138793682344526,0.07132782253724153
164,0.07142237443283356,0.0718608293167794
165,0.07138543160889836,0.07136790544359159
166,0.07139316930783261,0.07201606974346768
167,0.07141255179969527,0.07137527734911527
168,0.07140749203060552,0.07129215158598576
169,0.07133267475344199,0.07152146903096736
170,0.07143321838215005,0.07231924609937532
171,0.0714032395030383,0.07191170340414205
172,0.07136032749101412,0.07137588670311147
173,0.07138551147185641,0.07162406712464676
174,0.0713564406285326,0.07113842103386264
175,0.07145571033005044,0.07253544552409
176,0.07134585285322557,0.07118481807498925
177,0.07135886570615925,0.07131070690119276
178,0.07140279702729077,0.07147201970984075
179,0.07136868105100976,0.0716119807598717
180,0.07139635597654194,0.07215987752767275
181,0.07142076467414744,0.07136405508703572
182,0.07138968910351931,0.07177818204910622
183,0.07132564797151765,0.07115881495477651
184,0.07136307501321217,0.0714022414236908
185,0.0713803077028762,0.0712912433796166
186,0.07138238532496965,0.07147120922839162
187,0.0714065477737396,0.07115689246976291
188,0.07133798891727587,0.07201085618352362
189,0.07140460141080555,0.07171106190312633
190,0.07134363407211051,0.07154424349764904
191,0.07137686212202438,0.07155297289072479
192,0.07138418900571186,0.0724002997249059
193,0.07137390528973057,0.07134187918365142
194,0.07137383332403062,0.071243319334058
195,0.07140261412476845,0.0720938819606848
196,0.07137896094640954,0.07189348415304754
197,0.07137143427876831,0.07177732980735865
198,0.07133604130960054,0.07119369612096706
199,0.07142676477083008,0.07180748198360745
200,0.07139051753542215,0.0716543620262639
201,0.07135023593271284,0.07183679221484636
202,0.07137216943249905,0.07150236806511032
203,0.0713663291808465,0.0712990367986503
204,0.07134626788510788,0.0718869802725061
205,0.07139900168307203,0.0722269256258914
206,0.07136551316657798,0.07103010558691567
207,0.07136754311031575,0.07177012763041253
208,0.07138098984492197,0.07180038096872765
209,0.07136001702633311,0.07143236500311763
210,0.07133573228470999,0.07144737036071053
211,0.07140396632474484,0.0712324492192306
212,0.07135669971339041,0.0714468062335615
213,0.07131739864222628,0.07177693286841558
214,0.07134599117137831,0.07129850584334431
215,0.07141540472587045,0.07264596557254949
216,0.07135898277139682,0.0710494450889616
217,0.07138579203594599,0.07182828433394149
218,0.0713598918702772,0.071503833465531
219,0.07135787290587223,0.07134245120241779
220,0.07136541261351842,0.0713536317953465
221,0.07134503759235311,0.07320240384589619
222,0.07131568225417778,0.07116256123254312
223,0.07137704573327498,0.07183103645021932
224,0.07140805377817745,0.07125604484927119
225,0.07134250298791604,0.07132201067274165
226,0.07133969430514663,0.07236357093233713
227,0.07138681211631646,0.0725322915645406
228,0.07138959111438857,0.07127917048116321
229,0.07135912742343643,0.07146426861857276
230,0.07137093074220738,0.07151577180661643
231,0.07136285029274288,0.07122976746301342
232,0.07131201988287109,0.07117662778757836
233,0.07135078613218263,0.07155630916898045
234,0.07139982471613289,0.07243157151701324
235,0.0713494835402087,0.07119122839693771
236,0.07135897889125833,0.07118852537098887
237,0.07132601469969578,0.0712340294068125
238,0.07136560479799907,0.07198220142696256
239,0.07134720077403157,0.07153828732004858
240,0.07135135424044206,0.07134356252972593
241,0.07133296400987559,0.07135297122816449
242,0.07133932248186722,0.07138509181605236
243,0.07136238717156158,0.07146117505753426
244,0.07141062532731002,0.07151028307503193
245,0.07134659575829974,0.07161755719896179
246,0.07134679266267258,0.0711574515396907
247,0.07136664536895512,0.0710646060031516
248,0.07134600750786319,0.07132179007792717
249,0.0713149248469743,0.07199998828564089
250,0.07138996397395976,0.07121351599434557
251,0.07132253044550653,0.0712495475725198
252,0.07132940987448136,0.07192055720486035
253,0.07134672489276321,0.07164028761489427
254,0.0713341955503495,0.07169032281216149
255,0.07136062031193412,0.07119107953233801
256,0.07138574864271638,0.07116473453220835
257,0.07136026375013575,0.07166630635368795
258,0.07129167797837517,0.07194993714930603
259,0.07141773340453823,0.07136308907545168
260,0.07134035327951971,0.07153792689306677
261,0.07137556107406565,0.07122181097505689
262,0.07128887246552702,0.07177623661254086
263,0.07135872142039519,0.07246188440116824
264,0.07133765879431836,0.07131940443965518
265,0.07137213115521568,0.07119870689221978
266,0.07134084258493568,0.07177589672022949
267,0.0713467757603962,0.0712386932820905
268,0.07136684056999777,0.07201192174003927
269,0.07133942566139044,0.07164007334748684
270,0.07135446897025208,0.07196077106971861
271,0.0713343960058084,0.07139703272103134
272,0.07133660491088406,0.07185743425714754
273,0.07131447245200856,0.07191423519610794
274,0.07137981577695227,0.07132734076047188
275,0.07135008894306102,0.07161724051694374
276,0.07133801716813842,0.07160584560074294
277,0.07130956670923008,0.0716261774530868
278,0.07135197089658939,0.0721573542094927
279,0.07133697771685396,0.07123087520616302
280,0.0712832256550078,0.0712401330318146
281,0.07136490190331694,0.0711343952387736
282,0.0713215175387766,0.07122257300715044
283,0.07132477624167641,0.07143911454700162
284,0.07138524071084891,0.07205797638376585
285,0.0712829872483401,0.07123749472653668
286,0.07133975996673822,0.07208193695700442
287,0.07132915895191028,0.07141041152926063
288,0.07132806994622465,0.07123249154699629
289,0.07133087682590591,0.07245158453507977
290,0.07134631630941499,0.07139771534593066
291,0.07136547699761238,0.07174197650252126
292,0.07137844896168827,0.0716751191909142
293,0.07131158848174757,0.07122365773406289
294,0.07135920953764904,0.07114212615996152
295,0.07134475753152018,0.07132023851068921
296,0.07134905502164393,0.07172153977164153
297,0.07132218066129467,0.07122681487495727
298,0.07130167741391012,0.0717129978662226
299,0.07130149685793358,0.07142733463219234
300,0.07135030068308235,0.07187438122310691
301,0.07136756475928495,0.0718082460062468
302,0.07136339796997375,0.07137122149002204
303,0.07130824353435723,0.07138742767597807
304,0.07132407421057077,0.07182461157405856
305,0.07136577138339253,0.07160982964729454
306,0.07128578613547208,0.07138113141789056
307,0.07133222872809732,0.0713433247903434
308,0.07136001604364263,0.07200860040998873
309,0.07135284001187836,0.07111447330949433
310,0.07130229270024646,0.07166159667527477
311,0.07135466680669193,0.0712477113013674
312,0.07136458309470035,0.07180107972969102
313,0.0713655623130137,0.07145032284879835
314,0.07130616193683409,0.0711537394922553
315,0.0713544929508778,0.07114965982011857
316,0.07131831322035058,0.07180605214838917
317,0.07133193185134566,0.07181425266785234
318,0.07132659577053609,0.07271656219354274
319,0.07132840384956268,0.07157558821959108
320,0.07134869588996104,0.07154343945239601
321,0.07134411943187531,0.07108022691277698
322,0.07135381015668289,0.07113572110693193
323,0.07129254629262251,0.07122037067550699
324,0.07134951115976707,0.07220848086389295
325,0.07131309340969263,0.07174869764363945
326,0.0713520707200757,0.07148779848709573
327,0.07132791489553299,0.07114231568226781
328,0.07132377443041542,0.07159742789420916
329,0.071376206884853,0.07174532427713451
330,0.07133220992595267,0.07141328069080775
331,0.07130996969570931,0.07114529980151034
332,0.07132330859939066,0.07146401821555542
333,0.07132933960317803,0.07115045452127329
334,0.07129726846881812,0.07182492678301393
335,0.07141907075993258,0.07113534957170486
336,0.0713379614644771,0.07131792148597238
337,0.07129943082563216,0.07153593906993083
338,0.07131354763305826,0.07163403047970551
339,0.07130637286092452,0.07157555967569351
340,0.07140272334634924,0.07155148458579627
341,0.07127181682393229,0.07135016532892681
342,0.07130987981228615,0.07115250914677354
343,0.0713344667818573,0.07113336274531194
344,0.07130022362160454,0.07140649299430583
345,0.07133998198331974,0.07143173399127743
346,0.07132975704414095,0.07230242796318684
347,0.07129920977089617,0.07203565961324801
348,0.07133394798977102,0.0710922382366215
349,0.07130455320699514,0.07142919990592052
350,0.07135817374316432,0.07110997821015454
351,0.07128726751755754,0.07160567691595232
352,0.07135804148493625,0.07133777995888606
353,0.07137986150779407,0.07124173721767545
354,0.07129081463118156,0.07175000684648963
355,0.0713403363921326,0.07222405919877205
356,0.07131062316701567,0.07200317338238388
357,0.07134642244743214,0.07129728608274422
358,0.07135339977918007,0.07126250517890505
359,0.07129173799694108,0.07152589524036895
360,0.0713218494797115,0.07150828113872043
361,0.07130393723873116,0.0720069237470909
362,0.07131745062655301,0.07137913689687672
363,0.07133272590694859,0.0714940673950251
364,0.07129491491914748,0.07129383099507232
365,0.07134547803422911,0.07140876427469238
366,0.07133086368763189,0.07125162743708235
367,0.07130554669218765,0.07123615024074759
368,0.07132570865116626,0.07112293783354778
369,0.07133773466249069,0.07118804861615752
370,0.07129529552410642,0.07271187082697485
371,0.0713465280970819,0.07130111242337968
372,0.07129952784398381,0.07128490327071654
373,0.07129907042240734,0.07122761189302498
374,0.07134348066221419,0.07131765641113295
375,0.07131261703112333,0.07213491214925884
376,0.07132688015520716,0.07144467080425068
377,0.071355297777364,0.07133061137129777
378,0.07127760705663908,0.0711237836302785
379,0.0713515609210963,0.07195175089230195
380,0.07129924451347164,0.07115440583995881
381,0.07134633165427583,0.07112719278250422
382,0.07127685829711189,0.07364653172625645
383,0.07131008386349888,0.07129742738503402
384,0.07131600364459027,0.07231296540106387
385,0.07133250166889099,0.0711596991687472
386,0.07134663141656408,0.07274265543226191
387,0.0713396342984921,0.07130378931643178
388,0.07128552566293618,0.07195208648597526
389,0.07132749300268437,0.07135231343657367
390,0.07131177387375244,0.07124693498262384
391,0.07135549530708532,0.07292583322515615
392,0.07132026280978505,0.07120841311110035
393,0.07130229762709922,0.07196079652047853
394,0.07132148156337124,0.07169103674478858
395,0.07127014023782634,0.07129458634986968
396,0.0713646986203895,0.07149703102664112
397,0.07129182450199346,0.07126300858411623
398,0.07133467302774545,0.07201618699455412
399,0.0713208853263411,0.07201122520778154
400,0.07132224542953128,0.07114095052655701
401,0.07131769601032316,0.07137375500791168
402,0.07126542542287581,0.0712165713674832
403,0.07136667549586315,0.07111539616416361
404,0.07127584859752636,0.07204739948780214
405,0.07130492377213293,0.07130119314486338
406,0.07131831679972622,0.07174441591787263
407,0.07131621873171495,0.0714003090065299
408,0.07139129891729565,0.07112671977648513
409,0.07125197780980386,0.07127990079095445
410,0.07132564630689953,0.07113173419364155
411,0.07126822269303526,0.07159974564222624
412,0.07135645749805261,0.0711387526699663
413,0.07132223414050208,0.07304721240956857
414,0.07132464152374428,0.0713070872774158
415,0.0712911727116834,0.07125920072586027
416,0.07129698252673153,0.07097679506560997
417,0.07130287048651827,0.07107671835381117
418,0.07130497313148493,0.0715979279240192
419,0.07130572941008327,0.07110468802742818
420,0.07133651895524501,0.0711383198953183
421,0.07131828148540356,0.0711601458154707
422,0.07131634003145518,0.0722062461366311
423,0.07130390215519188,0.07160752483047457
424,0.07129421699151908,0.07111823430024646
425,0.07132082262473236,0.07113539374594437
426,0.07129950083488469,0.07141193468197181
427,0.07132430220071932,0.07254048715615329
428,0.07128918880848385,0.07159394689121863
429,0.07131639065490447,0.07154200237241427
430,0.0712907540140678,0.07139989752807575
431,0.07132507542328392,0.07151347805099781
432,0.07128887898106274,0.07137904427622187
433,0.07137392237961149,0.07143479737658245
434,0.07125646419388404,0.07140733820298759
435,0.07131428048193311,0.07148111835651352
436,0.07133129390952685,0.07171805863339975
437,0.07133054350324862,0.0714988483214529
438,0.07130804463184709,0.07121171600581533
439,0.07125888713043657,0.07108851712147081
440,0.0713337724782723,0.07131900804759765
441,0.07127568259430256,0.07232813614155235
442,0.0713067598533716,0.07127260729000148
443,0.07128623114239208,0.07193977844437559
444,0.07129637354152571,0.0710839150971847
445,0.07132104983170637,0.07109922548166485
446,0.07128298850797063,0.0712778816718517
447,0.07131335552004602,0.07178558868480274
448,0.07133761057846076,0.07143809669889986
449,0.07127318648602084,0.07129813561946648
450,0.07131767391765433,0.07105994014614854
451,0.07133805651744779,0.07126863157316372
452,0.07126441998459357,0.07125615846621491
453,0.07131888769823108,0.07143982370467099
454,0.07130478597659287,0.07129519014092252
455,0.07127873782071469,0.07123089117169286
456,0.07131895170413809,0.07202818596348955
457,0.07128099287799794,0.07144933065727364
458,0.07131808757972564,0.07128233410823788
459,0.07131473151899928,0.07143608652402213
460,0.07127057384553669,0.07161910030417491
461,0.07129910769615527,0.07163738087113673
462,0.07129606716989947,0.07155285314043018
463,0.0713340437931599,0.07156554414892911
464,0.07126048583683255,0.0716792533340281
465,0.07128786331684374,0.07119697351199769
466,0.07126847837421058,0.07131925482823327
467,0.07132803586770972,0.07201045231736355
468,0.07132049949823333,0.07139250709018843
469,0.0712792466608264,0.07097890313300168
470,0.07131556678506777,0.07163364750692575
471,0.07126767556075093,0.07285748782619869
472,0.07128593281840535,0.07116940555228149
473,0.07130757543585188,0.07287448308862093
474,0.07133234615663259,0.07106876252152926
475,0.07126903074751083,0.07132349950691425
476,0.07131409487552304,0.07123462795246842
477,0.07128883716311576,0.07137818191121108
478,0.0712729872142573,0.0712352922890444
479,0.07131590592346602,0.07136363959220704
480,0.07127846680510101,0.07139227332307677
481,0.07127933948934316,0.0711526868434148
482,0.07131138037470319,0.0726102407030826
483,0.07128891327993857,0.07156033914509775
484,0.07127985138770679,0.07139456513225327
485,0.07129593034216064,0.0711805385014817
486,0.07127399073480416,0.07130492612096204
487,0.07131368916133325,0.0714218715042605
488,0.07125056627318918,0.07111975788223339
489,0.07134132818292847,0.07103569398104156
490,0.07131149546562625,0.07229583324083871
491,0.07129543129917529,0.07116583949976675
492,0.07133113683091936,0.0713285428913635
493,0.07130019143998004,0.07129269268513666
494,0.07129191433032639,0.07111897238992572
495,0.07129362797279724,0.07127951166130185
496,0.071286305192587,0.07133660525459894
497,0.0712987672564366,0.07139305055917673
498,0.07126755481786864,0.07132882182063695
499,0.07132776197847084,0.07190131474265736
500,0.07128830731725044,0.07128564121926405
501,0.07131404093474888,0.07111415183487706
502,0.0712647257651166,0.07108894538578313
503,0.07131009867830242,0.07231828887324307
504,0.07129314771706728,0.07113155517977057
505,0.07132456991240847,0.07135118467655348
506,0.071257887990307,0.07124265185730046
507,0.07131343477850052,0.07129163855441273
508,0.07127091434183452,0.07112369940990336
509,0.07132939264761935,0.07128866807790657
510,0.0712605722987061,0.07122368792743784
511,0.07128237686056695,0.07120087976848975
512,0.07132440946883054,0.07163311700441749
513,0.0712357679907557,0.0712491803300503
514,0.07128047698335968,0.07111989580912202
515,0.07133337286271924,0.07192638327074315
516,0.0712672541741368,0.0711409020889624
