epoch,loss,val_loss
0,0.11832846147567033,0.04883626301586628
1,0.04891465524584055,0.04829609739780426
2,0.04867815125361085,0.04899600509554148
3,0.04875546459853649,0.04819314873963594
4,0.048645198211073874,0.04851840751618147
5,0.04863873854652047,0.048351219944655896
6,0.04861559483036399,0.0481740515306592
7,0.04855480511114001,0.04796913436800242
8,0.04854125408828259,0.048207576230168345
9,0.04851312861591577,0.048408839732408525
10,0.048516054775565864,0.048275237463414666
11,0.04848815150558949,0.04831855858117342
12,0.04846950704976916,0.04804998341202736
13,0.04844620392844081,0.04879241577535868
14,0.0484376437664032,0.048067315094172954
15,0.04838379810005426,0.04793636795133352
16,0.04843020040914416,0.04837064541131258
17,0.04839633927121759,0.04799411460757255
18,0.04837649806961417,0.0488486687168479
19,0.04830468849092722,0.04825942842662335
20,0.04833826426044106,0.04797415030002594
21,0.04831014466285705,0.04828616480529308
22,0.04835143981128931,0.04810610393434763
23,0.04825934736803174,0.04832793279737234
24,0.04833606845140457,0.0484429065361619
25,0.048254715263843534,0.04882969134300947
26,0.04826297087222338,0.048755087964236735
27,0.04825298904627562,0.04798227808624506
28,0.048260555393993855,0.05010236859321594
29,0.048225637786090375,0.04807835977524519
30,0.0482309030033648,0.04804069925099611
31,0.048229828011244535,0.04812897106260061
32,0.04824686827510595,0.048315532907843586
33,0.04819538452476263,0.04799488605558872
34,0.048175825774669646,0.04794291683286429
35,0.04820455026254058,0.04832258484512567
36,0.04820887715741992,0.048870242960751056
37,0.04818403682857752,0.04827248514443636
38,0.04818303881585598,0.04887918407469988
39,0.0481493772007525,0.04787762179225683
40,0.04819131331145764,0.048084544956684114
41,0.04815108922123909,0.04780943116545677
42,0.048163465179502964,0.04789289551973343
43,0.04816040773689747,0.04800186263024807
44,0.048138564962893725,0.04817584203928709
45,0.04815320355817675,0.0480201406031847
46,0.0481358354575932,0.04877539449185133
47,0.04815611282363534,0.047877917498350145
48,0.04813538186252117,0.04804117329418659
49,0.048129078559577466,0.04849955954402685
50,0.04814471321925521,0.04804674518853426
51,0.048137850921601055,0.0483398664444685
52,0.04813820242509246,0.04790372984856367
53,0.04811041445657611,0.04797430285811424
54,0.04816729917004704,0.047992778562009335
55,0.04810740267857909,0.04778890035301447
56,0.048099911633878945,0.04776510082185268
57,0.048135379262268546,0.04783239410817623
58,0.04813011226803064,0.048261287294328215
59,0.048105899166315795,0.04813979221880436
60,0.04808869157731533,0.047859285145998
61,0.048135411627590656,0.04807468794286251
62,0.04810248668864369,0.04787325608730316
63,0.04811533169820905,0.048101074881851676
64,0.04810644410178065,0.047829157948493954
65,0.0480839352607727,0.04772842742502689
66,0.048114197101444,0.04791537289321422
67,0.04811442084610462,0.04776781941950321
68,0.048086380854249,0.047789273805916306
69,0.048068434968590736,0.047731459327042106
70,0.04809277530014515,0.04836816343665123
71,0.048077124956995246,0.047760510854423045
72,0.04808930493146181,0.04775445453077555
73,0.048084355447441336,0.04863184414803982
74,0.048091360930353405,0.04794148468971252
75,0.0480693097487092,0.04883338921517134
76,0.04807270936667919,0.04794346847385168
77,0.0480941525772214,0.048399628914892676
78,0.04807877020537853,0.04829539687186479
79,0.04805125042051077,0.048491343334317205
80,0.04810320389270782,0.04799656510353088
81,0.04807183846458793,0.048078777231276036
82,0.04807386257126928,0.0480187371596694
83,0.048046345259994266,0.04812685438990593
84,0.04808279069140554,0.04783506324142218
85,0.04807758110016584,0.04837224635481834
86,0.048038407113403084,0.0487384562343359
87,0.04806553773581981,0.048259112641215324
88,0.048081267170608046,0.047854919113218784
89,0.04803433245792985,0.04786766155064106
90,0.048064642701298,0.047907929040491584
91,0.048037446819245815,0.04795856097340584
92,0.048058253429830076,0.047862021446228024
93,0.04803476191684604,0.04790626154839993
94,0.04806555951759219,0.04788998989015818
95,0.048049696959555147,0.048026261545717715
96,0.048067099284380674,0.04793265967816114
97,0.04806089230254292,0.04863888160139322
98,0.04802715080231428,0.04787023001164198
99,0.04802172266319394,0.04875754925608635
100,0.04806991311535239,0.04929131507128477
101,0.04807555037364364,0.047881956905126574
102,0.04803000028431416,0.04817555847018957
103,0.048058998197317127,0.04797623927146196
104,0.048053885769099,0.04794388105720281
105,0.048035948112607,0.04894493120908737
106,0.04804845634847879,0.04793916963785887
107,0.04804580924659967,0.04775538682937622
108,0.048055237025022506,0.04775402376055717
109,0.04801372043415904,0.0481574407890439
110,0.04802710074186325,0.047749334335327145
111,0.04802560969814658,0.0478226447403431
112,0.04802398187667131,0.047968709401786325
113,0.04805104359984398,0.04774166443943977
114,0.048041025299578904,0.047964754812419415
115,0.04806143234670162,0.04810886307805776
116,0.04803066589683294,0.04800447108596563
117,0.04802271756157279,0.048163996443152425
118,0.04801340243965387,0.047761560514569285
119,0.04805201725289226,0.04824076151847839
120,0.0480454178340733,0.04777318055927753
121,0.04805480621382594,0.04803698055446148
122,0.04806108709797263,0.049136048302054404
123,0.048004409682005644,0.04786431592702865
124,0.048019289448857305,0.04794107693433761
125,0.048031125254929065,0.04781537992507219
126,0.04800874827802181,0.04842125454545021
127,0.048047382842749356,0.047756561130285265
128,0.0480405600219965,0.047758730210363864
129,0.048014097586274146,0.04785292908549309
130,0.048056883003562686,0.04782092645019293
131,0.04802601321414113,0.04789712106436491
132,0.04804318818822503,0.04825815881043673
133,0.04802516310662031,0.04785835091024637
134,0.04804191103205085,0.047751101799309255
135,0.0480371261164546,0.04780770756304264
136,0.04801963325217366,0.048079960092902184
137,0.04801224464178085,0.04776613669842482
138,0.048043388575315475,0.04785428082942963
139,0.04804025580361485,0.04805973642319441
140,0.04799579806253314,0.048211582735180857
141,0.048026195760816334,0.04779133033752441
142,0.048029716171324253,0.04815564779192209
143,0.04802179176360369,0.04787677956372499
144,0.04800043696537614,0.047682299576699734
145,0.048013457644730806,0.04796414535492659
146,0.04802390316128731,0.04769130488485098
147,0.048018281329423186,0.04778478234261274
148,0.04802350118383765,0.04794165503233671
149,0.048006886597722766,0.04781642869114876
150,0.04800994163379073,0.047884036555886265
151,0.04802008143812418,0.04784300752729177
152,0.04803591080382466,0.04777255609631539
153,0.04802885638549924,0.047886220432817934
154,0.048014235723763704,0.04789730602502823
155,0.0480029437430203,0.04833477587252855
156,0.04803853695467115,0.04781828386336565
157,0.048048096973448993,0.0480952505543828
158,0.04801628755405545,0.047954415298998354
159,0.04803712512180209,0.04811215749382973
160,0.04801958232372999,0.04791644065827131
161,0.04800913216546178,0.048202364549040796
162,0.04800111781060696,0.04769388576596975
163,0.048024566795676946,0.047812774904072285
164,0.04801063922420144,0.047745834060013294
165,0.048029743455350396,0.048442882843315604
166,0.04806541739031672,0.04782806446403265
167,0.04802458944171667,0.04775330765545368
168,0.04801227067783475,0.04776521773636341
169,0.048025676015764476,0.04781567843258381
170,0.048022800121456384,0.047900913447141646
171,0.04799454749003053,0.04777907171100378
172,0.04800775458663702,0.04828755316883326
173,0.048007443152368066,0.04814437656104565
174,0.04802475091069937,0.047742623157799244
175,0.04800023926049471,0.04801293057948351
176,0.04803213462978601,0.04780420483648777
177,0.047998843349516394,0.047856011860072614
178,0.04799988305568695,0.04813374833017588
179,0.04800846741721034,0.04796906829625368
180,0.04800855066254735,0.047742750011384484
181,0.04802387511357665,0.04801212048530579
182,0.04801354724913835,0.04771907064318657
183,0.047984564639627934,0.04817458797991276
184,0.04804497971758247,0.04821771084517241
185,0.04799012058600784,0.04772395884245634
186,0.04801755340024829,0.04775024256110191
187,0.04799142317846417,0.04813779801130295
188,0.048032009463757276,0.047778027199208734
189,0.04801960893347859,0.04784194198995829
190,0.04798494674637914,0.04778651949763298
191,0.048019390866160395,0.04805260636657476
192,0.04801811899617314,0.04803877154737711
193,0.04799042836204171,0.04783991378545761
194,0.04800681718811393,0.04843169366568327
195,0.04801696312054992,0.04802646929770708
196,0.047990139797329905,0.04806150259077549
197,0.048026108395308256,0.047844498336315155
198,0.047996564920991656,0.04804637511074543
199,0.047991811729967596,0.04780830054730177
200,0.04800700875371695,0.047833891674876214
201,0.04802587021142244,0.0477633848041296
202,0.04802349853515625,0.047745696365833284
203,0.04798455293104052,0.04773491676896811
204,0.04800778072327375,0.047823608219623566
205,0.04798681678250432,0.04879278380423784
206,0.0480250411182642,0.04771307498216629
207,0.04798979115486145,0.04791949953883887
208,0.04799645660072565,0.04770526707917452
209,0.047993498984724284,0.047717501051723954
210,0.04803615529835224,0.0478072863444686
211,0.047997728314250705,0.04773045814037323
212,0.04798579940572381,0.047685312807559964
213,0.04802064798027277,0.04821708349138498
214,0.048003874689340593,0.04784742061048746
215,0.0480001434199512,0.04795011141896248
216,0.048008692532777786,0.04783400455117225
217,0.04798339844867587,0.04791358526051044
218,0.048015621442347764,0.04781483959406614
219,0.047971884995698925,0.04813804639130831
220,0.0480092579908669,0.04779115254431963
221,0.04802357696741819,0.047758838795125484
222,0.04799556578695774,0.0479941908121109
223,0.04801541513204575,0.047994378007948396
224,0.04798175385966897,0.04789840793609619
225,0.04802019570022822,0.04791210460662842
226,0.04801709059625864,0.04797002904117107
227,0.04798459815233946,0.0478542000874877
228,0.04800195506960154,0.04820209913700819
229,0.04798893240094185,0.0477215571179986
230,0.04804895887151361,0.04775503446906805
231,0.04797670722007751,0.04774025253206492
232,0.04799046875908971,0.04829851621389389
233,0.04797619489207864,0.0477907397672534
234,0.048014554560184476,0.04787838444858789
235,0.04801731203868985,0.0478922708928585
236,0.048003067899495364,0.04774594045430422
237,0.047990011900663376,0.04823390032351017
238,0.0479992880821228,0.047896953605115415
239,0.047983739010989665,0.04792815561592579
240,0.048009453639388085,0.04889829957485199
241,0.04799301179125905,0.04775732458382845
242,0.047994213692843915,0.04979410821944475
243,0.04796343091502785,0.04784107603877783
244,0.048023225642740724,0.04798798517137766
245,0.0479921685680747,0.047813070602715016
246,0.04798264201357961,0.04775847715139389
247,0.04799480416998267,0.047771836675703526
248,0.047986354414373635,0.04800014881789684
249,0.04801917603239417,0.04770668704807758
250,0.04799487954750657,0.04784332376718521
251,0.047977240990847346,0.04783936696499586
252,0.047985918335616586,0.04771829025447369
253,0.04800803401693702,0.047947550721466545
254,0.04798609013110399,0.04794882752746343
255,0.04802973319217563,0.04782433737814427
256,0.047977618526667355,0.047886190533638004
257,0.04800897901505232,0.04773360496759415
258,0.04803385325148702,0.04788314338028431
259,0.047954175371676684,0.04778535638004541
260,0.048001803390681747,0.04779245670884848
261,0.04796156950294971,0.04794998395442963
262,0.047990407958626746,0.04773853585124016
263,0.04800149503722787,0.04805699487030506
264,0.048000697869807485,0.04801164297014475
265,0.048014112628996373,0.04841296658664942
266,0.04799116022512317,0.047961633309721946
267,0.04799414606392383,0.04814580903947353
268,0.04800290152058005,0.04887952192127704
269,0.04798473400250077,0.04778863347321749
270,0.04799082585051656,0.04788005918264389
271,0.04797602452337742,0.04797673653066158
272,0.04802056947723031,0.04834622929245234
273,0.04797238177061081,0.04777275829017162
274,0.04800450204312801,0.04788044390827417
275,0.048005376618355515,0.048119763478636744
276,0.0480013539865613,0.049230790950357914
277,0.04799368332698941,0.047712564140558245
278,0.0479878588616848,0.04793239810317755
279,0.04802280845493078,0.04769467221945524
280,0.047996236067265274,0.04829420398175716
281,0.04799241939559579,0.04777918094396591
282,0.04796905181929469,0.047799445554614066
283,0.04799470778927207,0.04790148062258959
284,0.04798793437704444,0.04778317141532898
285,0.04798621441423893,0.04775184278190136
286,0.048010304898023604,0.04790944270044565
287,0.047978093050420285,0.04783548984676599
288,0.04797612565755844,0.04786070204526186
289,0.04799170691892505,0.04778461867570877
290,0.047973560370504854,0.047786577887833116
291,0.047998293966054914,0.04776338738203049
292,0.047977761417627336,0.047694198697805404
293,0.04800259106233716,0.04849910038709641
294,0.04795924547687173,0.04842877860367298
295,0.04797535882517696,0.047701801605522634
296,0.04795732736960053,0.04773946186155081
297,0.04798270843178034,0.04775079563260078
298,0.04799220094457269,0.04778225700557232
299,0.047990700997412206,0.04774949133396149
300,0.04796866355836391,0.047735603898763655
301,0.047983444806188345,0.04902009741216898
302,0.04799389399960637,0.048011315621435645
303,0.047958367750048636,0.04792343740910292
304,0.04799741250649094,0.048309194155037406
305,0.04797082404792309,0.047859619960188865
306,0.04798579649627209,0.04784420373290777
307,0.04798125638440252,0.04819718962907791
308,0.047968610905110835,0.04776677980273962
309,0.04799432599917054,0.04769471773505211
310,0.04797930125519633,0.04773703655600548
311,0.04796427442878485,0.04802166658639908
312,0.04800400683656335,0.04792024266719818
313,0.0479605022072792,0.047932392984628674
314,0.04799200460314751,0.0480160198956728
315,0.04798375131934881,0.04767926166951656
316,0.04794093655794859,0.04788583941012621
317,0.04798972298204899,0.047708415038883685
318,0.04799746719747782,0.04786632714420557
319,0.047958336167037485,0.04775812689214945
320,0.047979594182223084,0.04812526768445969
321,0.04797217431291938,0.047723341971635816
322,0.047977238785475496,0.04799160671234131
323,0.04798493043705821,0.04781860505789518
324,0.04794490017741919,0.04795317343622446
325,0.04796495435759425,0.04791723398864269
326,0.04801260484009981,0.04785953602939844
327,0.0479638176523149,0.04782073790580034
328,0.04799603804200887,0.04781951030343771
329,0.0479516140781343,0.04783591243624687
330,0.04796480739861727,0.047868663020431995
331,0.04797647604718804,0.04808178040385246
332,0.04797228552773595,0.04818873143941164
333,0.04798588020727038,0.048123646184802055
334,0.04798094118386507,0.047870105765759945
335,0.047975056540220974,0.04783855739235878
336,0.0479648803062737,0.04779492493718863
337,0.047983366761356595,0.04781510250270367
338,0.047966052081435916,0.04774419052898884
339,0.04798001406341791,0.047722037971019746
340,0.04797490905970335,0.047693901516497134
341,0.04797310600802302,0.04789135704934597
342,0.04796654656156898,0.04859846268594265
343,0.04796660535410047,0.048593314699828624
344,0.047978851214051245,0.04904524271935225
345,0.047967766597867015,0.04792543216794729
346,0.04797634725645185,0.04790825060009957
347,0.04796316209807992,0.04804083163291216
348,0.04796761327236891,0.0477584912404418
349,0.04799584573507309,0.04781978985667229
350,0.047965813234448436,0.04774703332781792
351,0.04797349495068193,0.047685211092233656
352,0.04795627333968878,0.048066895738244055
353,0.04800061459839344,0.047675025023519994
354,0.04796583539620042,0.04767446307092905
355,0.047971607580780985,0.047726034283638
356,0.04796955651044846,0.047697075061500074
357,0.047972347728908064,0.04771929850429296
358,0.04798130273446441,0.0480765428096056
359,0.047972109530121085,0.04765977376699448
360,0.048011179059743885,0.048697937101125716
361,0.047954466700553894,0.0477627516835928
362,0.047973854780197146,0.04777103100717068
363,0.047994864508509635,0.04803917933255434
364,0.04798128522932529,0.05174482037872076
365,0.047966141324490306,0.04789262919872999
366,0.047973580677062276,0.04790393251925707
367,0.04797932954505086,0.04775039143115282
368,0.047964447326958176,0.048700587719678876
369,0.04800987611711025,0.047736387766897675
370,0.047961458146572114,0.04799877343326807
371,0.0479725491143763,0.04768292946368456
372,0.0479650678448379,0.048023438297212125
373,0.047987522806972265,0.05009647893160581
374,0.047975271753966806,0.04799777354300022
375,0.04797407149150967,0.04767237723618746
376,0.047974725671112536,0.047928058966994286
377,0.047989672798663376,0.04768350156396627
378,0.04797129188477993,0.047954433858394624
379,0.04796729613095522,0.04804207272827625
380,0.04797376335784793,0.04804387315362692
381,0.047999233935028314,0.04770742692798376
382,0.04796529411524534,0.047813582099974154
383,0.047974513057619336,0.047714377522468564
384,0.04796971390023828,0.047741151958703994
385,0.047955528751015664,0.04787100107967854
386,0.0479973265118897,0.04802284789830446
387,0.04798882686719298,0.04794486866146326
388,0.04796168120950461,0.04820043556392193
389,0.04796598194539547,0.047972222134470936
390,0.047985996387898924,0.047937084794044495
391,0.0479661452062428,0.04772793187946081
392,0.0479667328260839,0.04825605624914169
393,0.047974093031138185,0.047852404512465
394,0.04797604439035058,0.0491864003688097
395,0.0479821809977293,0.049916469343006614
396,0.04797275035083294,0.04776031529903412
397,0.047982002694159746,0.0478587599620223
398,0.04799010169878602,0.04776468627899885
399,0.047950148705393075,0.049609114356338975
400,0.047974382881075146,0.04782547989487648
401,0.04796357619017363,0.04786414147913456
402,0.047975848570466044,0.0477466986477375
403,0.04797766128927469,0.0485494202375412
404,0.04796935941651464,0.04771853850781917
405,0.047957702361047266,0.04779206223040819
406,0.04797031480818987,0.04775506949424744
407,0.047979744523763655,0.04790868432074785
408,0.04797319399192929,0.047897685408592225
409,0.047975420489907265,0.047954872786998747
410,0.04796773788705468,0.04775710625201464
411,0.04797378022968769,0.04778920904546976
412,0.047987299885600805,0.047734388634562495
413,0.047957934729754924,0.048249700970947745
414,0.04797226747870445,0.047665710769593715
415,0.047976706340909,0.047965401917696
416,0.04796806862950325,0.04787388341873884
417,0.047983328323811296,0.04785045050084591
418,0.047968275856226684,0.04771736791729927
419,0.047961682721972466,0.04784633170813322
420,0.048004996076226235,0.04802699918299914
421,0.047960019670426846,0.04788152152299881
422,0.04796944688633084,0.04785599701851606
423,0.04798038200289011,0.04792700928449631
424,0.047986159190535546,0.048027490004897117
425,0.04796143568307161,0.04801037016510963
426,0.04800537035241723,0.047892285987734796
427,0.04794652821868658,0.04804158041626215
428,0.047962126944214103,0.047821371354162694
429,0.04796652578935027,0.04782947854697704
430,0.047954987280070784,0.04774787326902151
431,0.047982160050421954,0.047721630439162256
432,0.04798590270057321,0.04788764058798552
433,0.04796257409825921,0.04769282214343548
434,0.04796219477802515,0.047923942901194096
435,0.04797485913708806,0.04793680232763291
436,0.04795552628114819,0.04793467438220978
437,0.047968196228146555,0.04781228813529015
438,0.048018513698130844,0.04806948395818472
439,0.04795617930963635,0.04768215326964855
440,0.047962694972753524,0.047735990792512895
441,0.047953653249889615,0.04782041952013969
442,0.0479650315605104,0.04786115869134665
443,0.047951839324086906,0.047709494471549985
444,0.04797255815565586,0.047751108057796955
445,0.0479574779048562,0.04769925677776337
446,0.04799344119057059,0.04808326259255409
447,0.04796194054931402,0.047731396570801735
448,0.047979969412088395,0.04790006968379021
449,0.04795329153165221,0.04780006252974272
450,0.04800695715099573,0.04965672652423382
451,0.047956370182335374,0.04850394596904516
452,0.04798289420455694,0.04788526418060064
453,0.0479520645737648,0.04772041205316782
454,0.047988870501518247,0.04800405611842871
455,0.04796731596067548,0.04776120460778475
456,0.04796095544472337,0.04785366337001324
457,0.04795249240100384,0.047742967315018175
458,0.04797353291884065,0.0477869878783822
459,0.04796244951710105,0.04778191732615233
460,0.04799816899001599,0.04792302220314741
461,0.047956518702208996,0.04783131758123636
462,0.048006749473512175,0.04777485617995262
463,0.047948540188372135,0.047895520724356176
464,0.04797287597507238,0.047697322078049186
465,0.04795449051633477,0.0479844316393137
466,0.047992148138582706,0.04773986799269914
467,0.047955008655786516,0.04771933434158564
468,0.047984761256724594,0.047806946575641635
469,0.0479613293223083,0.05012525549530983
470,0.04797242322564125,0.04800304140150547
471,0.047949933178722856,0.048002170138061045
472,0.047951789554208514,0.04779714708775282
473,0.047987886272370814,0.04783298990875483
474,0.0479584570042789,0.048028908379375936
475,0.04798077982291579,0.04776952231675386
476,0.047953203637152914,0.04770374909043312
477,0.04799479328095913,0.047838515639305114
478,0.04793892187997699,0.04793671672046185
479,0.04797073808312416,0.0478321979790926
480,0.04795915435999632,0.047984154857695104
481,0.04797663713619113,0.04772577800601721
482,0.04794291878119111,0.04780591769516468
483,0.04799920731037855,0.04797909650206566
484,0.04796056238561869,0.047985283643007276
485,0.047965861469507216,0.047780203878879546
486,0.04795772257074714,0.04770965855568647
487,0.047981033235788347,0.0478203272074461
488,0.047961247932165864,0.04777085768431425
489,0.04795556247606873,0.04782953475415706
490,0.047961282670497894,0.04813183059543371
491,0.047974710337817666,0.04838790594041348
492,0.04794372344017029,0.04791762558370829
493,0.04799807536974549,0.04791029682010412
494,0.047946240138262514,0.04791168557107449
495,0.04796414229646325,0.04810580725222826
496,0.04794849747046828,0.047793110810220245
497,0.04796704034134745,0.0478080310150981
498,0.047993832837790254,0.04775453740358353
499,0.04795827657356858,0.04783618184179068
500,0.047946550779044625,0.048049686029553416
