epoch,loss,val_loss
0,0.14619852234568478,0.06119665810757485
1,0.04976759691663878,0.028299752555217154
2,0.025550939267029244,0.027243731386118644
3,0.024302487357629004,0.024343368927371153
4,0.024015581699089704,0.023441505477996727
5,0.024164193804166633,0.023837509620184962
6,0.024115289411813522,0.023678055297709773
7,0.023891168741805614,0.026189125173129053
8,0.024053922441187238,0.0235080064554429
9,0.023900267905551942,0.024091331107393435
10,0.023736785282846166,0.023105746886348196
11,0.024042328157805378,0.02450833214710054
12,0.023866499239633934,0.023542538957101393
13,0.023803479209405294,0.023060763301805613
14,0.023850555166149503,0.02365358664721086
15,0.023879625774967633,0.02361273417144943
16,0.02384775208248247,0.024098079167923874
17,0.023779433328571985,0.03102931763973872
18,0.023880774517067903,0.02351573547576249
19,0.023814588413684726,0.023400498676130692
20,0.023716273929009574,0.02362103637193213
21,0.023663648183075644,0.024129372847214305
22,0.023906945373764713,0.024391718069128192
23,0.0235591898556891,0.02355876283745128
24,0.02374467394686193,0.023710551663598114
25,0.023652864843428278,0.023436863861842804
26,0.02374624224494306,0.025293326528703215
27,0.023677960740213246,0.023437057506372445
28,0.023630420089238505,0.023010987451780755
29,0.02366313737162726,0.022943601069564695
30,0.023682244795022442,0.02352899013803103
31,0.023582156989529885,0.023865242260078228
32,0.023624791990783958,0.024254989824254117
33,0.023599607623565635,0.024724699837620934
34,0.023603234581536146,0.023841270316912605
35,0.023674366843077443,0.023919576952482362
36,0.023493861512308544,0.023120168108425463
37,0.023644674152469368,0.023929543097833527
38,0.02357258877421407,0.024415280586130617
39,0.02354135291262282,0.023767729024472627
40,0.023519779468397443,0.02314203147406689
41,0.02344689924540899,0.023203009673362654
42,0.02353110390348281,0.02368232005973359
43,0.023570583081341905,0.024235869663008197
44,0.023543675047465316,0.022938090906535064
45,0.02349962751797254,0.024195156826828067
46,0.023444151053939172,0.024401802080076983
47,0.023490733868307728,0.02386657659761202
48,0.023495034193344633,0.023513495339920133
49,0.02345596008497081,0.02406938226148192
50,0.02351393516761341,0.023987270109561268
51,0.023427391205158687,0.023399621221783035
52,0.02349318178008786,0.02316267224177189
53,0.023379398290988066,0.023357643215860452
54,0.02348123716233636,0.02328690090132164
55,0.023412448421811505,0.024818948789807692
56,0.0234392357090835,0.023678969040560084
57,0.023459235450430074,0.022858448654424983
58,0.023350333040066475,0.023029377864822217
59,0.023492510044883244,0.022999869153820914
60,0.023364397694172857,0.023436542491604234
61,0.023398834605255336,0.023877033455137107
62,0.023418851117108414,0.023020657276309843
63,0.02345367135564915,0.022945338638165662
64,0.023384070357413505,0.0229770916410455
65,0.023297805431411325,0.02347148177320551
66,0.023496353560291845,0.02316218522842606
67,0.023298914365613346,0.025033465679955465
68,0.023428639557829006,0.02300845137293779
69,0.02331324708205071,0.022993022055551114
70,0.02344427087517689,0.02298046616306668
71,0.023350825644195747,0.02287278551499535
72,0.023383259471747086,0.023292188298165938
73,0.02333562612774775,0.022894433287178897
74,0.023337134600078746,0.02304536786780126
75,0.023475591722372575,0.023056452614626455
76,0.023340856872326274,0.022945752754019486
77,0.02334030437470078,0.023419984180447898
78,0.023399821498976955,0.023800008414987982
79,0.023315005611887367,0.02336356746681158
80,0.023360022320616826,0.024414495376086462
81,0.023320206430562727,0.024415711933289726
82,0.023277200564152473,0.023417962717969962
83,0.023386533404116054,0.02280089700625417
84,0.023263845230183964,0.023119072296789715
85,0.023398046799415022,0.0228583319766863
86,0.023261637487214246,0.023115675639134744
87,0.02336997514535531,0.022871854742246532
88,0.023281633094560612,0.023071850247934
89,0.023280865832162705,0.023354210903325606
90,0.023402378326363795,0.02297465073793021
91,0.023224333251307575,0.02293144069588504
92,0.023306479199613025,0.02314078761521953
93,0.023266187013624956,0.022737575953660185
94,0.02329937606114897,0.02281738665534129
95,0.02332778429042259,0.022755372199070388
96,0.023257358405414482,0.02386816627189411
97,0.02333000150369964,0.022954266446318417
98,0.0232328306972909,0.0232845397405885
99,0.02336530530412825,0.022930600490030005
100,0.02326893353005417,0.02275506543890877
101,0.023363927869106845,0.023287962520849356
102,0.02326881584021256,0.023818827601004136
103,0.02320123512705834,0.02323961057703892
104,0.023266380177073772,0.02277119757626691
105,0.023279025506743378,0.02342530548125623
106,0.023301271636851972,0.022975200272643763
107,0.023244931399792456,0.02286988268323366
108,0.023364300270833607,0.02339329306938889
109,0.023233191349910653,0.022799538357305357
110,0.02324352333981761,0.023665108762816734
111,0.023331834032363313,0.024320894603829923
112,0.023276768165449206,0.022917406505595633
113,0.023217051750797923,0.02287973763146265
114,0.023307987879649054,0.02357280397700953
115,0.02320390447101695,0.02296420818616672
116,0.023209933906221846,0.02296190085249711
117,0.023331611287697472,0.024143842139355574
118,0.023183017439074177,0.02329226395360767
119,0.023258591937325556,0.024658618161150482
120,0.0232377550977883,0.023406810564560128
121,0.023197535942081543,0.02280414271614593
122,0.023247929102332473,0.02354117378374913
123,0.023228233735219275,0.02314995713061532
124,0.023264364952103888,0.02271196845222056
125,0.023246871022363124,0.023053668830440847
126,0.023223446340387244,0.023088681241813475
127,0.023216930687796775,0.02291439597707333
128,0.023205323325697896,0.02291718121962041
129,0.02325827571348273,0.02297945523777155
130,0.023200647447624508,0.022872884088176015
131,0.023231804068628355,0.022963054131219587
132,0.02326254545897841,0.023071153201133413
133,0.02321989874658491,0.023768108113188864
134,0.02324960323469006,0.02341752845261778
135,0.02312413667984527,0.022971483629605577
136,0.02326385323017788,0.023325137513224403
137,0.02324520552130364,0.022923281358962183
138,0.023170827064576814,0.02338034279303421
139,0.023251835637235287,0.022736271871246497
140,0.023193418413108822,0.022975500942088056
141,0.023104116807488514,0.022923866176614634
142,0.02331525023556132,0.023972480635040372
143,0.023217456942375043,0.023101698100014098
144,0.023172352654333834,0.022912379909944797
145,0.02316942992884454,0.02333197035277652
146,0.023268665726051675,0.02393108425954476
147,0.02317860915357594,0.02309328823217324
148,0.023214524637142436,0.023046501214603506
149,0.02318224666728009,0.022845162712360992
150,0.023149973631715125,0.02286689733496875
151,0.023213726572609013,0.02336275744698089
152,0.023166039065985706,0.024369051166896097
153,0.02325273507075916,0.02310788912232598
154,0.02322678649195021,0.02378624025805785
155,0.02313699364754484,0.023296422159685897
156,0.023209046252327954,0.023814201060955976
157,0.023055743622622617,0.023223711670197742
158,0.023266906412296014,0.023889318892133922
159,0.023107474895386244,0.024270858717075273
160,0.023169980954667695,0.02271054050610963
161,0.02319589847971281,0.02287139360746626
162,0.023224092942538212,0.023121742152365624
163,0.023170449803743384,0.023436678338269595
164,0.023111021708247425,0.02277028737053122
165,0.023227129459119054,0.02299028432883187
166,0.023174068673873404,0.023116713604392172
167,0.02317153927322915,0.023063611993367688
168,0.02314741642614134,0.024371405734130033
169,0.023217488983296137,0.023595388508280527
170,0.023120840561749647,0.022800667874438612
171,0.023178575560450554,0.02272436279735889
172,0.023104862331581724,0.025751321422907904
173,0.023261715469660042,0.022748080959165765
174,0.023168529078608557,0.023229757892798512
175,0.023104004499366244,0.023738653271884645
176,0.02313561197429848,0.023445403032833982
177,0.02321747852955386,0.022827669462128802
178,0.02307379828969971,0.0229407332781717
179,0.023221143260806633,0.02331513748449092
180,0.02313313074484408,0.022745379814973665
181,0.02311188688235198,0.022709351190275437
182,0.023138776182574476,0.022789181909143877
183,0.02314920260829272,0.02331916258568216
184,0.023166184681359763,0.025308969884158216
185,0.0232194822362001,0.02333055195511093
186,0.023110148543826967,0.024184871792805034
187,0.02313584907741236,0.023973550215281175
188,0.02318134800799721,0.023149602066640226
189,0.023106272761925138,0.02297937427371764
190,0.023141307649846603,0.022791932289207086
191,0.023138567957905032,0.022719945785043365
192,0.023257410909376032,0.023221831821675552
193,0.023046707981627147,0.023214982031611542
194,0.02314500727033396,0.023707708346803733
195,0.023207217283683905,0.022930578217674826
196,0.023098870320506185,0.02291024234601618
197,0.02317846031542376,0.02398421834557425
198,0.02307725360588752,0.023380403229768292
199,0.02312009284372548,0.02294091549249926
200,0.023142180244008794,0.02301053819411979
201,0.023115502563204698,0.023218114450926752
202,0.02313695374137754,0.023450330533410682
203,0.023111304475201502,0.022643764093871088
204,0.02315098789485572,0.024103508910844902
205,0.0230575091876298,0.024705822447986706
206,0.023142415868620172,0.022896953626890867
207,0.023107776143621625,0.022820290197172122
208,0.0231405726345859,0.022805897370510055
209,0.023096755051689087,0.024054706321577905
210,0.023148251727944037,0.02687097577070898
211,0.023040713835433185,0.023332460964982118
212,0.023145158357507318,0.02310160727731901
213,0.02309754465466185,0.023288790998067455
214,0.023182756513905087,0.023514074610800562
215,0.02311275620236814,0.0228291831884148
216,0.023138934231216577,0.02272481172277218
217,0.02311536077064552,0.022680674503897717
218,0.02307956206420962,0.023342430010884884
219,0.023196463270647397,0.023512234140978427
220,0.02321126354228464,0.02293495380487984
221,0.022960683981553733,0.022728265038946528
222,0.023099136211984544,0.022695738159196528
223,0.02311880268501959,0.023184361809536803
224,0.023216152331418844,0.023046982328347926
225,0.023071476461575757,0.02390029108638404
226,0.02318880690945138,0.02304727848745653
227,0.02310897438949961,0.02298900118243205
228,0.023123627626072826,0.0226675910344487
229,0.023146004307357002,0.023012343564768334
230,0.023084894439084923,0.022888407549264397
231,0.02309297690902063,0.023122895445789327
232,0.023079216186192443,0.025121514672955942
233,0.023121493931064645,0.023542280214079364
234,0.023120322722575363,0.023145659070317917
235,0.02320336724603943,0.023158023961552882
236,0.023067997266009128,0.02273787645698064
237,0.023067564530808816,0.022612196224982003
238,0.023105236076318817,0.022799923305929694
239,0.023123785033732726,0.023114947078789232
240,0.02311969229610537,0.022937779719834735
241,0.023131484596087017,0.022773476674764665
242,0.023066358392883977,0.023924190911222557
243,0.02320229250723295,0.023188896710971914
244,0.023037664426250947,0.02342911259121987
245,0.023115563152028885,0.024798701038759058
246,0.023084919265420032,0.023061049468491898
247,0.023144007529423152,0.024174268043584586
248,0.023125461032457776,0.02378523002960076
249,0.02313850635363401,0.022813795034456838
250,0.023020239773956088,0.023047755967058246
251,0.023276140152526607,0.023054530610342898
252,0.023008954202790532,0.023148168835439076
253,0.023152059316337348,0.023448373700456066
254,0.02306507625352803,0.02286000925703555
255,0.023075747832977514,0.02684954211009988
256,0.023116069238373844,0.022869855637390874
257,0.023061247124857038,0.023488845920224027
258,0.02315694104871161,0.02286216694547044
259,0.023067902494445264,0.022722028372272697
260,0.023040067860864096,0.02306044218589823
261,0.02333083807778873,0.022956127472862825
262,0.02297174785030093,0.022846804112901627
263,0.02307073761605554,0.022876875232478815
264,0.023164837849702385,0.022821035349319653
265,0.02315114867046392,0.024087158219202258
266,0.023070578799872614,0.0236172808029916
267,0.02304646293807635,0.02328910591299833
268,0.023164290427822146,0.02374654027597351
269,0.023014485593334282,0.02280534818715577
270,0.02304455205101332,0.023006922236828233
271,0.023139291905241905,0.02317007989626328
272,0.023135582023083592,0.02423383017388873
273,0.023036893412506552,0.0232320177900269
274,0.02306734032029633,0.023641362517260622
275,0.02305608122817261,0.02306988488532891
276,0.023038069297709195,0.023609713109499747
277,0.02315826534325604,0.02288417406262567
278,0.02316081174444571,0.022776804940852952
279,0.023027927712273064,0.022890154060620255
280,0.023106745124119317,0.022981570214738786
281,0.023086250114956682,0.02275999653099462
282,0.02308299215503043,0.02277805977416443
283,0.023067277187643814,0.02362713476770867
284,0.023084181544038174,0.023278000413924572
285,0.023105662159746784,0.023249709791994134
286,0.023075665216997183,0.023834107086450545
287,0.023112491047163185,0.023123949576513262
288,0.022997181135252846,0.023538184580823147
289,0.02309209522422698,0.02355373795302298
290,0.02308940016727844,0.023136719061618915
291,0.023156872874559115,0.022986611036764606
292,0.023054750718855314,0.02268495922283385
293,0.02315501079296799,0.0230816978440806
294,0.023040398441666037,0.02433566376566887
295,0.023061246707958043,0.02311098056197778
296,0.023059215257428198,0.023042145669577907
297,0.023136355667013962,0.022950322113654796
298,0.0230805230804151,0.022908715053440176
299,0.02320479986880966,0.023324268091625838
300,0.023090136555327975,0.023041407872453016
301,0.02306046885632568,0.023316691268673542
302,0.02305488622591769,0.022838207551270088
303,0.023092655303458467,0.023877605260735717
304,0.023097469999963382,0.022711535520269444
305,0.02304020101170269,0.022843346133498855
306,0.023081187105221713,0.022823288381076178
307,0.023075277254515462,0.023333351080024347
308,0.023121893786334637,0.022731207688974884
309,0.023080212714747608,0.02278880108862339
310,0.023034140682048936,0.02278726021505616
311,0.023060416056812524,0.02262967865511293
312,0.023164609434465758,0.023018412659534245
313,0.02320458243216137,0.02275852729502445
314,0.02296631112635183,0.02280949510857404
315,0.023005015431172986,0.023811831289715625
316,0.02314082092622654,0.022740214564723582
317,0.02302840502067602,0.023291244751523117
318,0.023010488412678717,0.022795087235208657
319,0.02326448539943456,0.023007430584591114
320,0.02299017620330258,0.022941179404471837
321,0.023175685410406426,0.02310979010385844
322,0.023050589497379072,0.02284201999336787
323,0.023019382026609327,0.023818141108212645
324,0.023019800451751664,0.022709854874809896
325,0.023093581782560126,0.02292326275015216
326,0.023124188712562065,0.02306012953201569
327,0.02298641426311575,0.0227026819915238
328,0.02310599144741738,0.023099538922345158
329,0.02307405999506549,0.023108537337539134
330,0.023083720241578745,0.02268335739504943
331,0.023021160855704693,0.023051606992519832
332,0.023091008428850476,0.02285328309838943
333,0.023080188292655634,0.02264862369831237
334,0.023061237085780367,0.025344325026648667
335,0.023051622970629747,0.022928527404202093
336,0.02309631672036424,0.022888396073488523
337,0.023070864792582656,0.02312299221512974
338,0.023174277164315957,0.022926357941556466
339,0.023001452802950673,0.022887095753118196
340,0.02304417327073195,0.023131528556135195
341,0.02303794724680632,0.022665733170137693
342,0.02308300601989984,0.022886710361987
343,0.023025808489615683,0.022809998760765806
344,0.02308794280453075,0.02424789314182518
345,0.023108644197307092,0.02289431381620755
346,0.023023418878926505,0.024084476433582632
347,0.02297331354127442,0.023063253308480993
348,0.023125338103833624,0.02262919381754833
349,0.02303986445584481,0.022820744478241516
350,0.02314913725341967,0.022710170912914326
351,0.02300817421380636,0.024004241655968078
352,0.023039717967960713,0.023069151836699543
353,0.023028642809439857,0.023192909349935113
354,0.023128448739844404,0.023977213551679182
355,0.02302525548054446,0.023980247200817317
356,0.02293871929548937,0.02285190660362415
357,0.02312226339334921,0.023091171633660933
358,0.02304575384425507,0.02266541865213988
359,0.023007289457360476,0.023689001969163966
360,0.02308832314148319,0.02325229897901075
361,0.023124758130331022,0.022986409484446284
362,0.02306321463871488,0.025908172290828063
363,0.023005078015901105,0.02428045601458322
364,0.023153257419278536,0.022961663930502668
365,0.023021581897632683,0.0236975676273514
366,0.02311396866971307,0.024416898283886927
367,0.023040832159556837,0.022921246705075466
368,0.023020572284404798,0.02470330323291841
369,0.023109713882702193,0.02285477930522614
370,0.022987811561140846,0.02371671003449029
371,0.023127821338125507,0.022823401093894604
372,0.023100950033050315,0.02303869689461182
373,0.022966109059876103,0.022734886568977593
374,0.02307445982874607,0.023413997912381048
375,0.02302249843443779,0.02380014289296934
376,0.023027106558979986,0.02271811512681849
377,0.02309144553032329,0.02372163425963416
378,0.022910282424510382,0.022697155907067994
379,0.023126461281091998,0.02288452593202467
380,0.02314062614952751,0.023218598065349465
381,0.022974533364653205,0.02269627371451567
382,0.023071214500859343,0.024932057732729433
383,0.023022633980212214,0.022711959865235304
384,0.023033759241803085,0.023332143368547886
385,0.023027406678610234,0.022633866772302606
386,0.02305878537351922,0.022652846782364615
387,0.0231191311269808,0.02298231475972574
388,0.02306385623882238,0.023012769178449872
389,0.02303816770820571,0.02273771800130206
390,0.023010178620991806,0.02371390315027056
391,0.023055014458837078,0.023247046332921018
392,0.023014645553756055,0.02274685930504795
393,0.023058766210310274,0.023066032155995397
394,0.02311881094408645,0.023366228494302154
395,0.023004120924501874,0.02277690827723037
396,0.02315289734138383,0.024102431143492153
397,0.023046119916561743,0.022949234096608297
398,0.022996940208579616,0.022734184129767843
399,0.02313005355902189,0.023046072297556813
400,0.023074912539363907,0.0234464082937473
401,0.02300011413730234,0.0235267943616636
402,0.02297825885893439,0.02285776253651472
403,0.02306006104796291,0.022790296207569487
404,0.023047868256195845,0.023280821852356595
405,0.023017679400694407,0.02299445366667732
406,0.023105841988383485,0.02316917534461855
407,0.023085905882946067,0.022777327137169352
408,0.023042205576714186,0.02282566012816111
409,0.023027287221414675,0.024347985511750055
410,0.023124095326442894,0.022695838321579564
411,0.022955275939510977,0.02345242395250225
412,0.02308067927757899,0.02319824312620259
413,0.023132454337392874,0.023786749728994288
414,0.022985117235254468,0.02342065224378431
415,0.023030168494488076,0.02409209920668235
416,0.02307414489803459,0.023089891206987654
417,0.02300683006221394,0.02314903681778776
418,0.02302277284628934,0.02303313379835311
419,0.02306396086706961,0.02319866079828263
420,0.023143214280817576,0.023004196926763233
421,0.023009113688245236,0.02284781340930108
422,0.02297856472358167,0.02290802186130066
423,0.023082866292479607,0.02273692578612441
424,0.02294993163313535,0.02275034509622731
425,0.02311587703230379,0.02282306698357485
426,0.023035575505450285,0.022716909031006607
427,0.023092932870342052,0.023211475219151217
428,0.02298613304985489,0.023097450623690095
429,0.02304878353039257,0.023613184731638894
430,0.023086257511191515,0.02272633768341724
431,0.02296521194163058,0.022668453058391082
432,0.023019888166555588,0.022896682943534266
433,0.023048114974787242,0.023842533400551296
434,0.02307313075773031,0.022890911826418437
435,0.02302117090148153,0.02275151388915204
436,0.022993390743943045,0.022716342209123115
437,0.023188727683753227,0.02449030440885812
438,0.022989113886597204,0.024042532218424655
439,0.022988399180273216,0.02367508303794507
440,0.023063130148922462,0.02280047301558782
441,0.023075855521710036,0.023885190197293835
442,0.02291732916026283,0.022874698225164754
443,0.02307036496940062,0.022885786119522123
444,0.023121781133526236,0.02369921918496807
445,0.023042968115497598,0.02273671635100949
446,0.023018830788614365,0.022800639261445287
447,0.02304584036717455,0.02285019461956425
448,0.023001334956027478,0.022877396429111945
449,0.023064305480245014,0.022814006551265153
450,0.023043480626553845,0.02336921211223294
451,0.023069134123510214,0.022901684338345996
452,0.023040383953681524,0.022861517317469607
453,0.023096456467884954,0.02369596966451891
454,0.022955510350648495,0.023103924193246778
455,0.023072860914645055,0.022834493497117542
456,0.022995228839697218,0.022773879332484086
457,0.023135096656618646,0.023056904858106124
458,0.0230184344695412,0.022624907209504847
459,0.022976175765041636,0.022749337766851698
460,0.023004786396543565,0.02294149486481814
461,0.0231045461672959,0.02277095652469849
462,0.02308470748668666,0.022945931695854467
463,0.022968032633324417,0.022767818549790528
464,0.023091051121540872,0.02292104584077445
465,0.023074980860175513,0.022713159460165694
466,0.02303810614115781,0.02268182943356771
467,0.023033997540523727,0.022858846820920306
468,0.022988128429688184,0.023798185282319948
469,0.023032996475958613,0.02272163507335282
470,0.023026099036947238,0.022793147585045286
471,0.023064537731696852,0.022740055060847687
472,0.023027066743637113,0.022871282382411758
473,0.023030350033899576,0.02309819305464096
474,0.023119644585737793,0.022985520629298997
475,0.023118930692366844,0.02405291251197234
476,0.023014194504778495,0.022984848071798247
477,0.023005322142274118,0.022677398934348794
478,0.02310442834568443,0.023639396037362464
479,0.022998722461457972,0.022823961491342974
480,0.022974769375640615,0.022754240856045046
481,0.02301330939769078,0.025217857880733947
482,0.02302322260288002,0.02366673261450564
483,0.0231704414776749,0.02448563320795993
484,0.023096583208901515,0.022731186422183462
485,0.02300767002956306,0.022768347910013646
486,0.02304158093844005,0.02293014395526289
487,0.022966424269761018,0.023419961231836393
488,0.023055399986926458,0.023006197256230893
489,0.023013205574207503,0.022778576037066605
490,0.023044777850953223,0.023704999506520587
491,0.023118182309537674,0.02314280570376644
492,0.02300089792825645,0.023153192439390714
493,0.02295248601198506,0.0232862071181929
494,0.023086503567955764,0.022783587538970203
495,0.023013327316902907,0.02289435513987961
496,0.023012520975435522,0.023051809178460933
497,0.023047087195930148,0.023364366109364598
498,0.022992808426872527,0.0233470118239275
499,0.02307897461258131,0.023062131896132827
500,0.023037275831720574,0.02289172602433714
