epoch,loss,val_loss
0,0.1961587020616642,0.1107003591725369
1,0.09711603098195329,0.09519263191682294
2,0.09531977507088492,0.09486576453756891
3,0.09513448104619694,0.09445515027432905
4,0.0950622557819509,0.09476402795916951
5,0.09501883298230114,0.09467033987781055
6,0.09504950659083043,0.09473902404590583
7,0.09496029822541464,0.09497335424386523
8,0.09487549738763429,0.09476521320717488
9,0.09491386251460067,0.0944476784534029
10,0.09491127860441292,0.09599243954188634
11,0.09488895383003138,0.09456753316787443
12,0.09493666966196349,0.09452572796014509
13,0.09481817950233282,0.09502743011680097
14,0.09491875786170495,0.09467409782834944
15,0.09484234297994992,0.09466979859636446
16,0.09474745413048757,0.09466457612747833
17,0.09480893656873493,0.09473810159699034
18,0.09476737445480914,0.09467220950310119
19,0.09480552752312425,0.09484430189055539
20,0.09473069925471651,0.09470751366468519
21,0.09472114667832422,0.09451092797865901
22,0.09477136854966767,0.09441606125896525
23,0.09470765745873265,0.09457778702501057
24,0.09470002014609835,0.09489879371405777
25,0.09477195891735556,0.09484759227158802
26,0.09466907365931024,0.09437189728680237
27,0.09467124503900964,0.094807241138456
28,0.0946991895790771,0.09455083641675673
29,0.09465792063447974,0.09465897731312449
30,0.09466330958701533,0.09457053386421775
31,0.09464771495305663,0.0946932586046684
32,0.09463771217935187,0.09444055976177071
33,0.09467874366423781,0.09466302380165718
34,0.09462354158302196,0.09432522981959059
35,0.09459782509709434,0.09449545251706876
36,0.09464208746282793,0.09431503122729773
37,0.09461081514267518,0.09420634950816208
38,0.09459668738271693,0.09435938727389948
39,0.09464606152866765,0.09462694691430892
40,0.09462254516464724,0.09458698643387634
41,0.0946058575972188,0.09444245641379255
42,0.09458378328086375,0.09494287443612633
43,0.09457837083011413,0.09452366560180073
44,0.09455891155141244,0.09428918392830414
45,0.09461351355417169,0.09475182760109935
46,0.09458067780025571,0.09429730448486678
47,0.09458356373291983,0.09451040834329594
48,0.09455553749851663,0.0943414955778487
49,0.09456988542283372,0.0945368210102219
50,0.09457438835184828,0.09441968623398794
51,0.09454458685730287,0.09438899784527525
52,0.09457501028176787,0.09440270091547398
53,0.09455672484471929,0.09435966881999089
54,0.09454576200027641,0.09473278884494409
55,0.09454785683434264,0.094346355314601
56,0.09456362097943238,0.0943825007272971
57,0.09453464038878512,0.09443287018630668
58,0.09452507459073901,0.09434612611074944
59,0.09453899131047068,0.09440373493492274
60,0.09455057042394038,0.09444351696601136
61,0.09451775013399924,0.09426238433102876
62,0.09451408120248911,0.09432316840800509
63,0.09453959142763933,0.09432145485091416
64,0.09449422339514958,0.09423549057535045
65,0.09448105173645545,0.09439679577464463
66,0.0945366742662627,0.0942832385414025
67,0.09451472273857282,0.09421160625442333
68,0.09452089852244734,0.09425014119239519
69,0.0945299003186891,0.09430026017194107
70,0.09452302455842543,0.09449969457893176
71,0.09452799701695438,0.09426274299974412
72,0.09448473928250568,0.09430705438990619
73,0.09449682340954992,0.09444438848400455
74,0.09450376225258711,0.09440040658944784
75,0.09448786027473416,0.09464595683842263
76,0.09451420519122784,0.09422744898200505
77,0.09449197021093395,0.09426789208011732
78,0.09447755203615847,0.0943502773072838
79,0.094481547798613,0.09468673372489783
80,0.09449404268134698,0.09456178884668057
81,0.0944961444776264,0.09420709715363729
82,0.09449388085902452,0.09449364457811628
83,0.09447894962154609,0.09426414237990564
84,0.09446905336553435,0.09432586072558198
85,0.09448384482869142,0.09440748950418
86,0.09446662040553885,0.09428911256267973
87,0.09447356249741036,0.09435794999398109
88,0.09446340723098706,0.09456680426940076
89,0.0944693282836204,0.09425425638269042
90,0.09446563137223205,0.09427150474727483
91,0.09448710103615296,0.09431210627166324
92,0.09447168287553852,0.0943320907928761
93,0.09446186766469127,0.09423243424957346
94,0.094437450507014,0.09442794902783826
95,0.09445932094487164,0.09474934953916891
96,0.09448112071239405,0.09427179772503845
97,0.0944752940040031,0.0942939306302812
98,0.09445539121623996,0.09507837624016388
99,0.09445033064015287,0.09451596544733552
100,0.09445866198538781,0.0942206610738055
101,0.0944354748613924,0.09423310828895765
102,0.09447298836793831,0.0942395350762776
103,0.09444132843594566,0.09435696601750065
104,0.09445553641024824,0.094259594362038
105,0.09446223593241782,0.0942463366977794
106,0.09444903865230264,0.09422791353482003
107,0.09446862488865948,0.09478178715602376
108,0.09449570472958943,0.09414050312920076
109,0.09442499279975891,0.094378462841921
110,0.09443029107974112,0.09422278764121816
111,0.09444009578771156,0.0943922251698156
112,0.09445942912420495,0.09416206585627046
113,0.09445546519496649,0.09440024727521774
114,0.09444236453714892,0.09419965043064168
115,0.09444656169755186,0.0942754779825459
116,0.09445972969944624,0.09435114767858148
117,0.09442827945573629,0.09760114228339674
118,0.09448004202495852,0.09421694291654119
119,0.09440317390848407,0.09448610520800363
120,0.09446487663318213,0.09431120966750049
121,0.0944484678669561,0.09428577180349083
122,0.09447166396023558,0.0941987124513526
123,0.09444265418665872,0.09430695914949314
124,0.0944793752218179,0.09419268216781948
125,0.09444616411289246,0.09417960529922027
126,0.09444368287599345,0.09427553868096178
127,0.0944225142518584,0.09417939915864977
128,0.0944514814153802,0.09415897899899035
129,0.09445149498544246,0.09427794857037378
130,0.09443350533823029,0.0941625526667394
131,0.09446030029123255,0.0942723192833217
132,0.09443354646829392,0.09435755781823477
133,0.09444197517433327,0.09439195271496144
134,0.09445795915026269,0.09425222118044803
135,0.09445086987815696,0.0942508110566316
136,0.09444952449150128,0.09416401817888939
137,0.09441475699440562,0.09427132122894866
138,0.09446687160802783,0.09423632058296602
139,0.09441852277155212,0.09447410369281611
140,0.09441172860139947,0.09427011282945488
141,0.09443988583440022,0.09426484209350836
142,0.09446050273738414,0.09443288074178591
143,0.09444458358329264,0.09421200426949604
144,0.09444539759049027,0.09436027969115347
145,0.09445485044464313,0.09417884561638241
146,0.09444161893116484,0.09427821915523217
147,0.09443799854158688,0.09439331127864316
148,0.09440450287825293,0.0941924336877223
149,0.09446703082770944,0.09425824657729412
150,0.0944383838604823,0.09420521329756129
151,0.0944389036918382,0.0941891731854584
152,0.0944277981786038,0.09439242702350903
153,0.09442165948385052,0.09432897482717141
154,0.09447213889752551,0.09420022187312005
155,0.09441741998139903,0.09423860562957924
156,0.0944350804779217,0.0941471809252285
157,0.09442429478875072,0.09421658681171939
158,0.09442880059436833,0.09422468130595117
159,0.09442734971142215,0.0942571341121112
160,0.09441214457130451,0.09426128977781784
161,0.09446202310548125,0.09480799970400079
162,0.09441518446774505,0.09418947882979709
163,0.09442164859980892,0.09413944874561576
164,0.09442050333360402,0.0943242611794276
165,0.0944169087679409,0.0944046434823603
166,0.0944488976689742,0.09426567134842123
167,0.0944407913687942,0.09426066110053209
168,0.0944495189497225,0.09426723971033811
169,0.09443102162078225,0.09426999232645758
170,0.0944319070070434,0.09432037027689445
171,0.09444712773620559,0.09423421436792861
172,0.09440863292685134,0.09502424179754958
173,0.09444650346271807,0.09418135094026364
174,0.09440480089552111,0.09438232681769128
175,0.09445055700439534,0.09427046251866228
176,0.09442679028359534,0.09420294968533346
177,0.09443666513779943,0.09423421403862119
178,0.09444324076056576,0.0942479894682471
179,0.09444430209309172,0.09429196112487104
180,0.0944160345247943,0.09458108265144013
181,0.09443813632074878,0.09417673199192783
182,0.09442001166377517,0.09422981939568892
183,0.09442510747973867,0.09415714692062718
184,0.09444280948748977,0.09408331249606074
185,0.09445612806138946,0.09424078939063585
186,0.09440370365905819,0.09420237054529393
187,0.09442878658060642,0.09410525963074971
188,0.09443036417106836,0.09431718924945043
189,0.09441724978238464,0.09424764176076476
190,0.09443872598864192,0.09416708563055311
191,0.0944054949191882,0.09426769038519713
192,0.09443030400658778,0.09427001567200215
193,0.09444090907426951,0.09416879730588729
194,0.09438344656670694,0.09431410053981602
195,0.09442976628133147,0.09449962551257887
196,0.09443018187007172,0.09462536273975493
197,0.09441157091531059,0.09424617879486687
198,0.0944230062462729,0.09413710143049589
199,0.09440612270951652,0.09422391404316194
200,0.09443497558613476,0.09431494103234493
201,0.09441054677613062,0.09431564295701182
202,0.09443237226929882,0.09417742276718603
203,0.09439761102568808,0.09427504406708286
204,0.09444209385654337,0.09435697649653352
205,0.09442419965537809,0.09420838518084365
206,0.09442760090795543,0.09416491571805001
207,0.0944270400060929,0.09422069636262488
208,0.09439781915655525,0.09436265503856829
209,0.09444295723947117,0.09435212648023088
210,0.09443212721607001,0.09433471897195057
211,0.09443989031904226,0.09426724637881356
212,0.09441956577838945,0.09424057651102402
213,0.09442015115222295,0.09498023862150022
214,0.09444475143278341,0.09443331685067163
215,0.09440026457587497,0.09423628962218715
216,0.09440675168502911,0.09422485338672466
217,0.09440335032822703,0.09422768664200097
218,0.09443320162433515,0.09419053755318356
219,0.09438681578357443,0.09424447004213611
220,0.0944091310824374,0.09434147921244554
221,0.0944496173944643,0.09424026922014819
222,0.09440673625381063,0.09419295981514614
223,0.09441371045583825,0.09413699410567626
224,0.09443827573177245,0.09436290440661943
225,0.09440404932192571,0.09420851012949127
226,0.09441120853777127,0.09423453263179844
227,0.09442305712581729,0.09420901839198705
228,0.09440433326289713,0.09447256672095387
229,0.09441854436989787,0.09420700769374572
230,0.09441083499925028,0.09417881059218507
231,0.09440739163987452,0.09424153801815285
232,0.09441919760893193,0.09420007677203383
233,0.09441966847252312,0.09417863831147492
234,0.09441269275476988,0.09431661036815245
235,0.0944092644930934,0.09415722600145422
236,0.09440082864914771,0.09415576191826326
237,0.09442265811476776,0.09432336238772265
238,0.09443031452435384,0.09418754289022278
239,0.09441160984176526,0.0941915995343614
240,0.09440843098991208,0.09425000698785661
241,0.09442470885580964,0.09415314763478623
242,0.09442541169986832,0.09424559905501737
243,0.09440711468196125,0.09422982728142576
244,0.09442440509129105,0.09438528539208606
245,0.09441825377045394,0.09416798823281547
246,0.09441513885899509,0.09447038121927227
247,0.09440566446009777,0.09421541170755897
248,0.09439687225982535,0.09413592026943095
249,0.09442089191920085,0.09414365130822867
250,0.09439880553659775,0.09423287044666655
251,0.09440262354821038,0.0943172930871396
252,0.09442718205251377,0.09416811078810372
253,0.09440496275357776,0.09428102303158135
254,0.09442694070075246,0.09419011372864106
255,0.09439402792176944,0.09440475010152115
256,0.0944024052122514,0.09412373322478974
257,0.09440682452026126,0.09419319659894908
258,0.09442207872939053,0.09436561444211213
259,0.09441536746853642,0.09422768083795752
260,0.09439908137186159,0.09419548408596555
261,0.09443099095190553,0.09424089049977774
262,0.09437499124464467,0.09430457361118946
263,0.09442114004854867,0.09419593223221394
264,0.09442758119756656,0.09445932020610397
265,0.09437859978833549,0.09446259443931158
266,0.0944140746528439,0.09438309086973308
267,0.09440622237815464,0.09412022010256384
268,0.09438170536125688,0.09412406177363625
269,0.09440454792418926,0.09417131423785542
270,0.09444209139088361,0.09417466849864893
271,0.09438059506096619,0.0942399563134046
272,0.0944039812155193,0.09429413508903162
273,0.09438656252339113,0.09422577807022628
274,0.09442072722325318,0.09422742762994653
275,0.0944297758253406,0.09411880616819002
276,0.094407389129547,0.0942641597214701
277,0.09439309281732539,0.09425699025768884
278,0.09440722205429722,0.09413789576117976
279,0.09438777392466577,0.09453063164179779
280,0.09439528296343523,0.09423606436414425
281,0.0944160669327354,0.09419461579636128
282,0.09440624186818262,0.09426148326357425
283,0.09438461798736804,0.09427237866450786
284,0.09442492702203117,0.09428195403660952
285,0.0944140536947359,0.09413379417833796
286,0.09441502842840721,0.09418689624216016
287,0.09439719833737369,0.09498108252471323
288,0.09443246208423142,0.09412785995260599
289,0.09437833853262506,0.09419537625542379
290,0.09440700747638488,0.09438094940703971
291,0.09442169309484301,0.09415296870324211
292,0.0943954774259711,0.09444881509327945
293,0.09443603783286066,0.09417992250460193
294,0.0943789575740302,0.0944797135683713
295,0.09438481388820542,0.09423130160842999
296,0.09443653811165374,0.09424568069973797
297,0.09442977232636689,0.09417150850571698
298,0.09439522564577923,0.09431652544799901
299,0.09439883433538471,0.09421638772185618
300,0.09441836134230586,0.09413957231234826
301,0.09441229753452335,0.09420503939971646
302,0.09439471692478152,0.0943851957498993
303,0.0944376462113133,0.09433479651796978
304,0.09440831548804574,0.09411919405117877
305,0.09440220952581921,0.09411907716468271
306,0.09440599836045795,0.09415420929841761
307,0.09440007342173042,0.09416386993174113
308,0.0944332342794378,0.09420665984513163
309,0.09440804159434008,0.09424460733981234
310,0.09439546160763211,0.09429576056814608
311,0.09439351787562851,0.09413049216569647
312,0.0944127374254971,0.09446504316347833
313,0.09439320178578893,0.09425770070318547
314,0.09441843298342016,0.09424267192360164
315,0.09438425091673716,0.09485030866389023
316,0.09440126265291211,0.09415241641939956
317,0.09440160610323711,0.09421533166233159
318,0.09441160982985386,0.09418588309256976
319,0.09441262123872526,0.09438257921419467
320,0.09441863507222976,0.09417268747335922
321,0.09439073866612906,0.0941742584344526
322,0.09442499434526304,0.09426951674772419
323,0.09438635824288395,0.09468642929782055
324,0.09441248245602794,0.09508355427018846
325,0.09441758199132604,0.09479861037295544
326,0.09437927328270497,0.09412556260400808
327,0.09440138142445771,0.09419616950997801
328,0.09438678230956304,0.09414800683414268
329,0.09438776709943367,0.09414064285551928
330,0.09440045048304789,0.09432450385548133
331,0.09439583757607867,0.09425420873896193
332,0.09441576876955257,0.09456181456206253
333,0.09440460553963026,0.09429435193209358
334,0.09441192113131071,0.09426583360877673
335,0.09437810694523376,0.09424789002916431
336,0.0944045886849995,0.09418680594723904
337,0.09437039375996037,0.09429677137142105
338,0.09441507571368671,0.09417485108785772
339,0.09441375121367064,0.09418887456242457
340,0.0944148888595575,0.09424430771709523
341,0.09438990656551506,0.09410430302794938
342,0.09439861296797447,0.09430064682002696
343,0.0943796901638321,0.09426810276630646
344,0.09442597528477367,0.09457815373235551
345,0.09437906585758825,0.09421373797902556
346,0.09443068424229333,0.0943055354593867
347,0.0944183294495328,0.09415086232355098
348,0.09438393187584827,0.09425952663643679
349,0.09441719868545718,0.09424891247580912
350,0.09437822205104607,0.0943334633991675
351,0.09438219854681136,0.094192245329753
352,0.09442137169847481,0.09418275337239937
353,0.09438406751989174,0.09439519049501269
354,0.09438898018617138,0.09417925549240308
355,0.09439347641800137,0.09448895284695802
356,0.09438924982452945,0.094117296787586
357,0.09438814066177745,0.09422146983521137
358,0.09441171829506076,0.09452055773941098
359,0.09437742639038203,0.09417593836690275
360,0.09440949853125521,0.09430486983498346
361,0.09438060898539259,0.09410391833218609
362,0.09440682868031766,0.09435878770503832
363,0.09441030214277865,0.09414466927394025
364,0.09438121307501308,0.09411066485937881
365,0.0943925495741131,0.09414717392156513
366,0.0944042628843912,0.0942843631909603
367,0.09438558580349389,0.09416453873160889
368,0.094397501393164,0.09413319971962246
369,0.09439763080754536,0.09436922975549006
370,0.09439962586577086,0.09471197109360721
371,0.09440039793590753,0.094157752164161
372,0.09439118519175253,0.09424163267639743
373,0.09440993552478097,0.09422010499116654
374,0.09440751360963098,0.0942237986326688
375,0.09439172307483489,0.0941735737807843
376,0.09439680635702791,0.09445610721819779
377,0.09440808132779208,0.09470675810407068
378,0.09442910052639403,0.0943075212949171
379,0.0943649889295288,0.09422511982583774
380,0.09440930011115677,0.09420467151039308
381,0.09440526990093392,0.0941538629140455
382,0.09439288698833623,0.09436276711482369
383,0.09438691298357493,0.09416832076863407
384,0.09440219705458358,0.09436918778643423
385,0.09440881730638724,0.09419914692546216
386,0.09437715593609307,0.09413809031130482
387,0.09439778862465963,0.09411644936784008
388,0.09441196707655772,0.09421781895663105
389,0.09440631789269208,0.09420865362520375
390,0.09438003469511665,0.09454651266312919
391,0.09438126770367058,0.09417834977348112
392,0.09440193099560117,0.09447286894872796
393,0.09442142187226876,0.09411618822704833
394,0.0943888633234276,0.0942288271571203
395,0.09436391958063074,0.09424683596900625
396,0.09440119063658871,0.09419356586430706
397,0.09440451816951247,0.09413215182221774
398,0.09441393205552079,0.09424480177820811
399,0.0943980001889878,0.09423550444154544
400,0.09438356523700565,0.0940982466174
401,0.09439735827769498,0.09417735004904897
402,0.09443821601992507,0.09420625453237107
403,0.09439873240060276,0.09412965740664511
404,0.09437977996685332,0.09415437663363582
405,0.09438640254733564,0.09422820287256045
406,0.09440478094094854,0.0941331625137634
407,0.09439369346455133,0.0942037653974783
408,0.09441882850442954,0.0941960247617212
409,0.09439608812939634,0.0941877286431351
410,0.09439081012559451,0.09409506624857082
411,0.09441740320121451,0.0941921331358878
412,0.09440485313594293,0.09447831337670219
413,0.09436864787630803,0.0941364371586053
414,0.09438674992246689,0.0942232762922804
415,0.09439370967298866,0.09443006863275097
416,0.09438556511041453,0.0945616939590969
417,0.094406489827793,0.09431634703393799
418,0.09439123868287133,0.09420801608601986
419,0.09442666648246116,0.09425342246454912
420,0.09439882840648543,0.09420586475586458
421,0.09437669079890736,0.09433668028583843
422,0.09440624261860081,0.09465571477033062
423,0.0943847795178612,0.09444132113230916
424,0.09439745448904929,0.09425428339766063
425,0.09438999911411394,0.09430081649568012
426,0.09441691004543853,0.09421733431018237
427,0.0944353517451637,0.09424345118847059
428,0.09435226153627002,0.0942216967515524
429,0.09439848233267463,0.09415469113399216
430,0.09440182899530652,0.09434252119407752
431,0.09439679484465997,0.0941701028040289
432,0.09439708677818068,0.09418598155549124
433,0.09440455050002948,0.09416874501657185
434,0.09439056841053552,0.09414826988609362
435,0.09438367804689564,0.09422124391267313
436,0.09438416278726763,0.09419169045849493
437,0.09440712082824357,0.09423732893407674
438,0.09438657330618583,0.0942484761258233
439,0.09441642594530428,0.09413242965772008
440,0.09440891608762608,0.0942224463611112
441,0.09435948632734951,0.09444151320674801
442,0.0944166270812019,0.09414757394776536
443,0.09437443479466781,0.09429124218206661
444,0.09440889731823779,0.09416195732595042
445,0.09438316948670182,0.09417559559315138
446,0.0944011406265765,0.09424643897713877
447,0.09440410854838353,0.09418057555063747
448,0.09437998413718005,0.0941997357153855
449,0.09438252309076696,0.0941557431889032
450,0.09440190418006228,0.09413166539398064
451,0.0943808688087572,0.09433326296267212
452,0.0944089359677524,0.09430856694009422
453,0.09439784263988002,0.09430789432966907
454,0.09440416003540933,0.0941605409688148
455,0.09438190597007505,0.0941541348220141
456,0.09441207664654695,0.09424253143869993
457,0.09437135249959956,0.09429562905099134
458,0.09441757524649588,0.09423951777587655
459,0.09437403275812273,0.09414705191904292
460,0.09438888218512924,0.0941797819256124
461,0.0943963083116223,0.09420954194375634
462,0.0944058854820774,0.09427224340148112
463,0.09437478193157106,0.09417694809404809
464,0.09440836537298825,0.09467541960956737
465,0.09439824775552197,0.09432785284147549
466,0.09436264013250668,0.09414729896430059
467,0.09438925572662807,0.09421899826534169
468,0.09438943352511556,0.09422377716888099
469,0.09439128873457345,0.09421315234692527
470,0.09438787567184316,0.0943213396344772
471,0.09439766549949738,0.09416171801941735
472,0.0944079783894747,0.09415670637197163
473,0.09436819244691318,0.09411077101398098
474,0.09443454916397635,0.09420611372404242
475,0.09435521225206,0.09407740432089863
476,0.09439783848875719,0.09419608915308468
477,0.09439931590136864,0.09431234624857214
478,0.09437877397766883,0.09409961148496679
479,0.0944021771119224,0.09417947418781934
480,0.09438858390283242,0.09427561625638343
481,0.09440367928535627,0.09410094182229738
482,0.09438988463960582,0.09414094816467003
483,0.09439341612547326,0.09422630745544147
484,0.09438438260917374,0.09417994800240577
485,0.09438861553355468,0.09409653520080737
486,0.0943747826015873,0.0945190052665776
487,0.094412968703192,0.09412770600726308
488,0.09438919331089293,0.0944327170995153
489,0.09437855749095468,0.09454353097840944
490,0.0943954263737114,0.09418674581335018
491,0.0944000678293282,0.09422971833359094
492,0.09438377300457512,0.09416911940383647
493,0.09439958095681562,0.09409718809395017
494,0.0944021700305952,0.09411226187692256
495,0.0943696543657713,0.0941639615791749
496,0.09440703204662489,0.0941142535223769
497,0.09438605367434587,0.09431575516851849
498,0.09439790016598552,0.09431830763628658
499,0.09440022099206297,0.0941703442216578
500,0.09438026087175456,0.0941295919920764
501,0.0944206857090469,0.09412000472962433
502,0.09438337636091632,0.09412842283897166
503,0.09438374709430263,0.09410518829452776
504,0.09439494312524224,0.09415623259266813
505,0.09440273634321113,0.09416873657806896
506,0.09436901245745632,0.09410220819165976
507,0.09439030613937824,0.09442021377272933
508,0.09437996472457616,0.09414695381483132
509,0.09439351583580129,0.09415615332954591
510,0.09440870044959916,0.09412390946895002
511,0.09439028309081955,0.09414498071644188
512,0.09438390933054623,0.09435028553408907
513,0.09439543642097717,0.09438829787293097
514,0.09440077315989158,0.09416324154259938
515,0.09438238584761806,0.09416975135655505
516,0.09438613126222654,0.0944171861672646
517,0.09439748885343782,0.09428917932976111
518,0.09440142244731875,0.0941943788067412
519,0.09439138728949568,0.09451124894755415
520,0.094387117007987,0.09428808829308309
521,0.09441492020142832,0.09424225176260428
522,0.09439205181755894,0.0941575329747836
523,0.09443438369974338,0.09411162160331091
524,0.09436814861593963,0.09414820000235265
525,0.09438588288273933,0.09482396562784416
526,0.09445309555299466,0.09426192474134719
527,0.09438222792032334,0.09459188716352315
528,0.09439128698359767,0.09416334347500986
529,0.09436340216431115,0.0943203282137508
530,0.09439370585538501,0.09428789838266448
531,0.09439465903240046,0.09417176979352097
532,0.0944066303197762,0.09424932169321493
533,0.09437224395174107,0.09440880677506222
534,0.09439330367888096,0.09451740312124672
535,0.09443583437424007,0.09413746635017192
536,0.09439665934653114,0.09416290937137115
537,0.094367131197767,0.09418259691608732
538,0.09439101543643777,0.09452640505150349
539,0.09439557669557733,0.09429192570668088
540,0.09438500399116895,0.09411699425402643
541,0.09439402740362356,0.09414197182857623
542,0.09438039109908895,0.09416166961122518
543,0.09438651258484732,0.09422771752045299
544,0.09440057528771752,0.09423579322063932
545,0.09438685690768235,0.09416777574131596
546,0.09437972061234794,0.09412179231620155
547,0.09441504205207078,0.09428783699623129
548,0.0943961637310511,0.09428638879036283
549,0.094376966360209,0.09421410829699124
550,0.09441865710236376,0.09415036018852559
551,0.09437073609061378,0.09422488814629996
552,0.09441887265105518,0.09423238055482096
553,0.09438891948567782,0.09418637377828148
554,0.09438425307270053,0.09425462450723339
555,0.09441579216949755,0.09430182899841665
556,0.09436168028808517,0.09423311112923423
557,0.09441318374267109,0.0943071117246819
558,0.09436047322553792,0.09412140118130193
559,0.0943987876814094,0.09441950106912461
560,0.0943884224527412,0.09431123872888117
561,0.09439375634185321,0.09429365534103096
562,0.09437948068102106,0.09410640800808392
563,0.0943888094392326,0.09421702344396873
564,0.09436722391908117,0.09426266697089128
565,0.09439036473453188,0.09419005500018926
566,0.09441797209562634,0.09444115957761244
567,0.09437438022556732,0.09441865730704335
568,0.09439396157527237,0.09421361876973601
569,0.09440287071273482,0.09442393846321784
570,0.09437135258297935,0.09422310476427297
571,0.09437490743603542,0.09412422216399599
572,0.09440523689742283,0.09434495380570217
573,0.09440663594195692,0.09412034852658094
574,0.09437420923742268,0.09432718531767402
575,0.09440197485337536,0.09421056853026599
