epoch,loss,val_loss
0,0.40187280479190257,0.34878902949963203
1,0.3534444033009686,0.3372419124267754
2,0.32022966119311125,0.3161042661192197
3,0.3174456620989419,0.31146993332828415
4,0.32161454120568994,0.3147641329687227
5,0.33941128603715026,0.34699389850095963
6,0.3347048556847538,0.3192441684459266
7,0.3128123772795871,0.30302982530376527
8,0.3102885574775396,0.29713438723556806
9,0.30854546492226975,0.3089203356802699
10,0.3091046398283719,0.2986369290945562
11,0.3084889821452107,0.3048757612881645
12,0.30758051015883325,0.2953920780012903
13,0.3062377733459099,0.30144506148352995
14,0.30552864685166276,0.3178315131256876
15,0.30524398501423433,0.2989101136410528
16,0.30456830843163435,0.29953909777075455
17,0.3036779263298765,0.30275348396920365
18,0.30396189738353857,0.3043614281863327
19,0.30426209349092914,0.3013325101903977
20,0.30403919899456505,0.2993232602490246
21,0.30192203743816565,0.2877484479156082
22,0.301259923553605,0.29610267860760536
23,0.3026128834088167,0.2957730289098778
24,0.3018861199103052,0.2953031956208627
25,0.3005940541178345,0.2919339282818921
26,0.3008907988971229,0.28544365941019817
27,0.3000758458569134,0.2870655729661048
28,0.30046092004751224,0.2853007682649846
29,0.29988122578087945,0.30234141463168324
30,0.29920967087018596,0.29180973662973486
31,0.29847782974441844,0.30129964870783693
32,0.298608595322219,0.2920748366964738
33,0.2999175455567124,0.28883530238927024
34,0.2997339563064581,0.2883142329217321
35,0.2995794766741119,0.29775271658221847
36,0.29667630754738783,0.2895699361223072
37,0.2979302542607228,0.2944811204155788
38,0.29657368372372395,0.28703733219014627
39,0.29341966275283565,0.28283987837625285
40,0.29446262597656553,0.29270912979118635
41,0.29443369560140215,0.2911194158981142
42,0.2971108853697872,0.28846453633027086
43,0.2999839236160262,0.29238298448315736
44,0.3003164015942626,0.2941545247031933
45,0.29980379160490633,0.2992704127633675
46,0.2977007164371957,0.2922910226195839
47,0.3113999459103381,0.2961302662963649
48,0.3030586660438352,0.2943319524355356
49,0.303928214199037,0.2844024794654011
50,0.3235518875554931,0.28787061008723963
51,0.31619127690017845,0.321550988454751
52,0.31430081583017544,0.3067161517295672
53,0.32230402226987886,0.29923092894955894
54,0.2959965830214685,0.27428819733688753
55,0.3035376538916362,0.3018036678539267
56,0.31027337883433087,0.29718128531794896
57,0.30953485745308307,0.3062069460737865
58,0.31591611740579134,0.3097407843420707
59,0.3151523830781547,0.3093501750347458
60,0.3148848276814635,0.32348898375420093
61,0.3178407582018873,0.33711474094225274
