epoch,loss,val_loss
0,0.022749860678858445,0.0117248936946882
1,0.013654520043987619,0.01036155522348114
2,0.013252508891839517,0.01003079672054294
3,0.012195204992957738,0.010069483589118902
4,0.012121000850891328,0.037237049994301906
5,0.01212785294171378,0.00977655003989541
6,0.011685806558383496,0.009629809689998381
7,0.011581513594025232,0.009295310212879881
8,0.011259598688218209,0.009170862495185141
9,0.011169906468040582,0.009534398113749063
10,0.010996533370056233,0.009185788622908371
11,0.01094661447262485,0.009574080511841231
12,0.01064305878829194,0.00907331208140279
13,0.010912243563582526,0.008895238618886582
14,0.010624060842539435,0.009234031432028578
15,0.010742187240625858,0.008984486705332057
16,0.010804195745585787,0.009290490266888428
17,0.010597815281120552,0.008774033353609406
18,0.010620178864814638,0.009442031302724353
19,0.010485451975834822,0.008802383148845131
20,0.010707787773722737,0.008842774631386916
21,0.010445233319501618,0.02041999347864687
22,0.010634942880114902,0.00853778921131755
23,0.010510032564592221,0.00877324900999121
24,0.010360762876326077,0.009524351920978676
25,0.010492906880462869,0.00874994280949952
26,0.010275347071211794,0.008946751718272848
27,0.010265465184090241,0.008620333786029177
28,0.010334288933751164,0.008878421530302638
29,0.010269477014512526,0.008984873091612099
30,0.010230439287830927,0.00848883273996524
31,0.010190838668508359,0.009067468628170771
32,0.01023300003957823,0.008626077185237474
33,0.010097070091714988,0.008510995644419955
34,0.010080252140078601,0.008800872347440541
35,0.01000689435749938,0.008511427656521263
36,0.010110689924262431,0.009063749807510079
37,0.010282026862535773,0.008408786698104156
38,0.0100158454605393,0.00865078277132958
39,0.009937700786491865,0.008753817143319218
40,0.010080172809299818,0.008434545292340223
41,0.009950839402861853,0.010250209162787623
42,0.009893985037804622,0.008776003979007456
43,0.009864030477968135,0.00826610264248409
44,0.009919415306810378,0.00827633391306152
45,0.009954620702063205,0.008263428096248469
46,0.009938358165017779,0.008310453256860443
47,0.009883641389156135,0.008316538427456947
48,0.009852148368150328,0.008491948671759947
49,0.00982356472287147,0.00953160243275847
50,0.009807870538801399,0.009431681789638827
51,0.009815066028267419,0.008986311310420677
52,0.009841127750814757,0.008155881903464546
53,0.009794311097633271,0.008255445794427933
54,0.009767167730289343,0.008316376166350456
55,0.009762053186475462,0.008472209279733812
56,0.009841219116047751,0.008330339573157193
57,0.009730010471144933,0.008562776058047361
58,0.009680921980230532,0.008247988032797086
59,0.009842227173838715,0.008453431095613223
60,0.009682739867949517,0.008263864510316844
61,0.009741003226275335,0.008362662251101036
62,0.00975129151914904,0.008243390182170728
63,0.00978232943821259,0.00822812941602591
64,0.009785519362187307,0.00803731879999878
65,0.00965784256796862,0.008237666392834063
66,0.00981475623414474,0.008231999767247315
67,0.009668160137668474,0.008153388275328136
68,0.009702960774197104,0.00814575963219983
69,0.009700866279596956,0.00829414838167907
70,0.009713818561753962,0.008138946933025215
71,0.00966673394065768,0.008206069029783937
72,0.009635784366892258,0.008178031327590709
73,0.00972088952053613,0.008204071593329035
74,0.009650875884255991,0.008143700822592977
75,0.00969880691257431,0.008812982297089966
76,0.009627600768750686,0.008199008482740416
77,0.009683019351483966,0.008222221287159074
78,0.009638597213240837,0.00822758303660286
79,0.009669222313911907,0.008154834633669731
80,0.009601321625812507,0.0082750448196365
81,0.009647942668188343,0.008312367868944128
82,0.009724851725710458,0.00823080323237795
83,0.009619997919935527,0.008871427077692956
84,0.009560419248486324,0.008268163898236232
