epoch,loss,val_loss
0,0.6717100486040906,0.6667903877874016
1,0.6673377383969009,0.6667736411823514
2,0.6674676775538699,0.6668602984084465
3,0.6674232044533409,0.667311366269451
4,0.6672972513411659,0.6667730746116641
5,0.6673907485657077,0.6669532703382166
6,0.6672926310107721,0.6675768814967968
7,0.667323067206216,0.666774971344669
8,0.6672308871667452,0.6668013678300148
9,0.6672227643181514,0.6667744509469938
10,0.6672112477003431,0.6668607977405131
11,0.6672110285608752,0.6743061416808321
12,0.6671560386964824,0.6763370991065537
13,0.6672969050692862,0.6667960271658132
14,0.6671514507199884,0.6667721437872147
15,0.6671762202260852,0.6667791684790416
16,0.6671574510126598,0.6667749269133203
17,0.6671800469951777,0.6667753822636525
18,0.6671566775153277,0.6667773785459743
19,0.6670658240449113,0.6667734776411015
20,0.6671149233113919,0.666773939882363
21,0.6671023494929403,0.6667828778577302
22,0.667072223191008,0.6679379392828811
23,0.6671263581446245,0.6667710782772817
24,0.6671463256469857,0.6669035224435972
25,0.6670967667285832,0.6667717900165626
26,0.6671339432723727,0.6667796493059343
27,0.6670750295673279,0.6667933979213512
28,0.6670971418508984,0.666771675696236
29,0.6671139947888182,0.6667731628449016
30,0.6670858748554194,0.6667733624215465
31,0.6670998152462334,0.6667739307480954
32,0.6670898097298347,0.6667788259392791
33,0.6670739027454368,0.6667718418310498
34,0.667088818275449,0.6667716575886156
35,0.6671053716756449,0.6669809545848944
36,0.667082202480527,0.666771172284512
37,0.6670823882702324,0.6667715094714992
38,0.6671092453299488,0.6670020745872827
39,0.6670809509304927,0.6667710374665106
40,0.6671031254564621,0.6667717591730284
41,0.6670863008432413,0.6667732970713055
42,0.6670950716327818,0.6667726496694504
43,0.6670637315502356,0.6668300001663273
44,0.6670639454753274,0.6667756114485757
45,0.6671028373441418,0.6669432284605963
46,0.6670876470211264,0.666854473722725
47,0.6670696672329187,0.6667712370100259
48,0.6670891223365583,0.6667739247421963
49,0.667089185619387,0.6667728675856218
50,0.6670893072786959,0.6668390067622872
51,0.6670549720788216,0.6667748821980048
52,0.6670725967850193,0.6667726486850318
53,0.6670711919553622,0.6667727512396648
54,0.6670930800109028,0.6667734481700739
55,0.6670735745225315,0.6667707724922969
56,0.6670779572779699,0.6668239924071686
57,0.667069785662083,0.6667707051164256
58,0.6670735125928926,0.6667737536900229
59,0.6670480285713491,0.6677190773029337
60,0.6670627397815123,0.66677546266887
61,0.667072011334944,0.6667845087835519
62,0.6670463500037118,0.6667758632845892
63,0.667057677307447,0.6668874906352045
64,0.6670506248482672,0.6667703242600674
65,0.6670594730981704,0.666777929176655
66,0.6670453099957983,0.6667725069003766
67,0.6670622058465223,0.6667710937440102
68,0.6670696363173995,0.6668474042966515
69,0.6670435928628392,0.6667702175973804
70,0.6670478908204783,0.6722451489189797
71,0.6671037480756794,0.6668606419515587
72,0.6670499276123186,0.6668658884712793
73,0.6670548109904528,0.6667783861787278
74,0.667047982836211,0.6672082380376128
75,0.6670551781202311,0.6667743922889052
76,0.6670609007896776,0.6667751149419794
77,0.6670343365999412,0.6667723009250117
78,0.667055260704652,0.6667704428162332
79,0.6670516551858618,0.6667715531314046
80,0.6670494171575997,0.666771857846781
81,0.6670506979082975,0.6672648351088731
82,0.6670254481014126,0.6671158100795004
83,0.667056074968458,0.6667721850665312
84,0.6670423650123629,0.666771246584442
85,0.667040618520191,0.6671761607099606
86,0.6670156551048548,0.6667590192599734
87,0.6670331778473425,0.6667582823517627
88,0.6670611045348843,0.6667623387000968
89,0.6670340014927658,0.6667588778113456
90,0.6670576855748815,0.6667666715848288
91,0.6669870676401902,0.6667623540343075
92,0.6670661679929801,0.6667701104424842
93,0.6670300361236571,0.6667620401278703
94,0.6670612131343917,0.6667672547628449
95,0.6670350267836048,0.6667592541053028
96,0.6670278432641732,0.666758147817728
97,0.6670387562082121,0.6667602531243946
98,0.6670383637705084,0.6678241226140026
99,0.6670517990215518,0.6667645070142778
100,0.6670121409269771,0.6667594101545601
101,0.6670436430649634,0.6667626171248743
102,0.6670500408752238,0.6667679013837912
103,0.6669693799418372,0.6667598909483233
104,0.66705018600731,0.6667585514576942
105,0.6670307804917122,0.6667577048909462
106,0.6670375898641824,0.6667941179193352
107,0.6670368620049657,0.6667584788331687
108,0.6670357482732449,0.66676191901127
109,0.6670493254991942,0.6667589345857873
110,0.6670474659121319,0.6667617222506299
111,0.6670222376146961,0.6667581822960381
112,0.6670532255330112,0.6675376461927373
113,0.6670282053495623,0.6667591756689221
114,0.6670468256967126,0.6668207281749362
115,0.6670405720017726,0.6667666258235687
116,0.6670284797603908,0.6667600612290534
117,0.6670067022416555,0.666759384692198
118,0.6670455394902652,0.6667601791888887
119,0.667057990297007,0.6667598253377793
120,0.6670447645908375,0.6667619788951489
121,0.6670330713105525,0.6667608194347788
122,0.667046018666616,0.6670199024718925
123,0.6669855013277634,0.66676516463894
124,0.6670399036769973,0.6667581076979429
125,0.6670478170292283,0.667535665050582
