epoch,loss,val_loss
0,0.024229258948575652,0.011904191743267166
1,0.014474231826280663,0.010241220664021177
2,0.012856247194729916,0.010268956504298361
3,0.012022768114714692,0.009730733230539058
4,0.012073507765013763,0.010506212572937356
5,0.011698845710449077,0.009535345399180776
6,0.01160774852915257,0.010328930127741325
7,0.011509832162343097,0.009260545128099212
8,0.011485580362684497,0.008947560163615611
9,0.01128682742191846,0.00977235517729466
10,0.011277973326036783,0.00927325293836751
11,0.010813813273528093,0.01035990593428399
12,0.010967453809677096,0.008756923587514776
13,0.010873495854748286,0.009523673179423786
14,0.010610420809914275,0.012838708104147776
15,0.010737200014875823,0.009076473523176554
16,0.010470603452311688,0.008769692380221765
17,0.010624039564693112,0.009271051160059721
18,0.010343887081168773,0.008821104435878439
19,0.010421608086290545,0.008948168501687396
20,0.010382577399075768,0.008956057553263716
21,0.010197041635707855,0.008840934226500296
22,0.010495061246991523,0.008557961808882296
23,0.010222751387200432,0.008598106083183137
24,0.010219779391651305,0.00876974110379614
25,0.010219173331164146,0.00860960512785562
26,0.0101757185388041,0.008924839050521311
27,0.010185305578465104,0.008587369804640461
28,0.010137433598846331,0.008356225521207431
29,0.010184401403465637,0.009143909050506072
30,0.009997546759823447,0.008422560223331061
31,0.010081080070931064,0.008588761077070932
32,0.010113533225149456,0.00874527538029901
33,0.010124296372749225,0.008676352118696128
34,0.00999037154784251,0.00872667709787592
35,0.009981295076521872,0.008613368587922474
36,0.010119424758100338,0.008707509158104918
37,0.0099926759012475,0.00903273584040576
38,0.01001410778749495,0.008538105376955131
39,0.009981986566561954,0.008554729594394555
40,0.010021951080717788,0.008481990535746048
41,0.009974999476139362,0.00848529656923188
42,0.00999103171047304,0.008415895314045322
43,0.009969421731737026,0.008420855792686557
44,0.009899550052839698,0.00824044068113658
45,0.009964815524455915,0.008451845658325133
46,0.009710846794966676,0.008300869743170668
47,0.009874073772784608,0.008544890044200252
48,0.009956791639486798,0.009657210397130455
49,0.009803688563912533,0.015355695330469673
50,0.00984237568213023,0.008258034135607658
51,0.009780769462513189,0.00846243798618875
52,0.009850996154837866,0.00890372340839249
53,0.009815617587024417,0.008657264363735604
54,0.009783537640427498,0.008281155905278264
55,0.009776677790297799,0.008498558457383235
56,0.009743844082051591,0.008610402884508137
57,0.009726035207734508,0.00843361810033726
58,0.009770941481924419,0.0084854325986035
59,0.009803691141726923,0.008525940461008226
60,0.009768152385731196,0.008483570058167049
61,0.009689530793454576,0.008323932730960909
62,0.009782670380178347,0.008411410327860872
63,0.009737084280358877,0.008803165883243815
64,0.009789020409520944,0.008436569053299899
