epoch,loss,val_loss
0,0.023368122361935296,0.009996355591964214
1,0.013109961614313497,0.01090391400211448
2,0.012236037295662904,0.010280492503486772
3,0.012271429280133628,0.01125990452551917
4,0.012003445326163086,0.010365261241747192
5,0.011552597645528215,0.00976595729547311
6,0.01127103814245363,0.009626531328233035
7,0.01152236159280727,0.009948486444968195
8,0.011306134695343554,0.009550025907509432
9,0.011227343178324864,0.009121372283079772
10,0.011072085505238515,0.010408184360724599
11,0.011061821735093244,0.009630161136965883
12,0.01097348746146563,0.009138501253690732
13,0.010859647069110936,0.00940607733897627
14,0.010693938188985758,0.009938111584105588
15,0.010847546102318098,0.00929156713623554
16,0.010718322007404633,0.008885564133786676
17,0.010633930955545353,0.008895085602935136
18,0.010591376280676315,0.009097237730058902
19,0.010598361981392974,0.009386332163454695
20,0.01041654056485652,0.009607914514014075
21,0.010553091766227958,0.008845616418797903
22,0.01047048857751413,0.00893844547174955
23,0.010594950217545085,0.008928758489778208
24,0.010366629916264176,0.009650743903959907
25,0.01037866487647928,0.008812132765735253
26,0.010414709053983586,0.008567422546466438
27,0.010423376829397774,0.009187036461087542
28,0.01028999905759218,0.008873047618203105
29,0.010201579412166744,0.008623807748570524
30,0.010241135754470335,0.00872103582180407
31,0.010376089897186178,0.008650711989260965
32,0.010295185085896762,0.009345676778526248
33,0.010192035427562477,0.008887945851728163
34,0.010191116601171673,0.008701742459378447
35,0.01022065840088843,0.009015835007775102
36,0.010145668187002084,0.009107980010840242
37,0.01016390545081538,0.008568761815985924
38,0.010212171550464744,0.0085994818509119
39,0.010069966897083426,0.008679572262410628
40,0.010198404551790984,0.008599371629580323
41,0.010219257288778524,0.00864400312401223
42,0.0101473785666754,0.008698233514153058
43,0.010011502581728882,0.008629372557394452
44,0.01006949365089116,0.00913450992892471
45,0.010144134614649244,0.009301679907958231
46,0.010090276991421012,0.008679375892003079
