epoch,loss,val_loss
0,0.23091553389983496,0.2225391393640088
1,0.22393577964542896,0.22253251322440842
2,0.22406418007733744,0.2224989511227634
3,0.22372632597642794,0.22246054284379882
4,0.22376843341381605,0.22247409830022202
5,0.22360598488448982,0.22247855551392953
6,0.22406010228372153,0.2224693130030317
7,0.22355763531590128,0.22251726035842143
8,0.223487788417381,0.22248784986771117
9,0.22333470310225834,0.222459732174012
10,0.22337934274897625,0.22266177879934823
11,0.22324606608528308,0.22243898841115395
12,0.22353152315697714,0.22247582613328573
13,0.2234256013969436,0.22243832646901218
14,0.22333023071691746,0.22246790911700018
15,0.22332534630604417,0.22244918990654852
16,0.22327287596418446,0.2224407063740027
17,0.22338304899157826,0.22314200404548107
18,0.22338201139552563,0.2231441277591164
19,0.22329339924800046,0.22370827483415262
20,0.2232239093053881,0.22444958307945825
21,0.22319602396211763,0.22243731745428674
22,0.22337194333777202,0.22248095209960694
23,0.223198753588884,0.22257097889780902
24,0.22326570743100602,0.2224483502543936
25,0.22334430964513666,0.22318685044485254
26,0.22325803067699604,0.22244467859123743
27,0.22329374344819017,0.22244822893073413
28,0.223236039423073,0.22245821801654797
29,0.22321450574464916,0.22244123529423337
30,0.2232429245097939,0.22247058140728915
31,0.22313798757130668,0.23586075243962953
32,0.22311675682610377,0.22243505660122076
33,0.22325247824888164,0.222445750424166
34,0.22318461292724046,0.22242987550983206
35,0.2232298110165355,0.22244010032955494
36,0.2231353035308906,0.22244685023847943
37,0.2231292276688123,0.22243616462217658
38,0.22321876794539763,0.2224756234685012
39,0.22311174523016608,0.22251468325145893
40,0.22317600708843802,0.22244513635410473
41,0.22315479987251047,0.22245864260616957
42,0.2232266622943024,0.22245654635686277
43,0.22305391412528952,0.22244501712825046
44,0.2231367641907745,0.22244501120754134
45,0.2231195965592853,0.22246194134747507
46,0.22318740559299718,0.22246875391132173
47,0.22310773857919994,0.22245336061070528
48,0.22313468191276173,0.2225404169569607
49,0.22308026135994824,0.22244806331889258
50,0.2230877167614076,0.22245002597362176
51,0.22313758552924762,0.22245049071615794
52,0.22313259913691624,0.2224488852739959
53,0.22314420159226375,0.22245259034348724
54,0.22312481580549298,0.22244795020424185
