epoch,loss,val_loss
0,0.021659549736704344,0.01161971037993845
1,0.013346991969893343,0.009647738565685638
2,0.012887565249849018,0.011288437286854188
3,0.012128448128416583,0.010436576668905769
4,0.011816923661311046,0.009368874597370125
5,0.011719687366061743,0.009555602492749803
6,0.01140941048572232,0.009352723533284391
7,0.011196252293775555,0.011535331045069026
8,0.011155393875704368,0.009765571761685259
9,0.01120395346152371,0.009277408278142132
10,0.010867280210559835,0.009908798146614004
11,0.010947855308995447,0.009171689641594647
12,0.010732687414144064,0.009010969448496855
13,0.01072465656441631,0.008930593924320334
14,0.010752351560156753,0.008904824300301012
15,0.01049220023708835,0.009027078588905365
16,0.010522679849467476,0.009026883123013623
17,0.010565772042284278,0.008743363987172
18,0.010360022109503677,0.008783017666009148
19,0.010309496832422261,0.008653864426696896
20,0.010249407247420862,0.008577419068551613
21,0.010166514938356198,0.009559922720176505
22,0.010202511151943702,0.008591306819190781
23,0.010239398318350081,0.009057351843641332
24,0.010156461844874095,0.008413068769738961
25,0.010079342942147813,0.008412168640073946
26,0.010101960563925129,0.008701848980414727
27,0.010080506256379568,0.008830102239514316
28,0.009980724446093159,0.008787895642847772
29,0.009969970358664653,0.008685990377980492
30,0.009998690480566274,0.008367342233929381
31,0.00990714540681199,0.008786917303420978
32,0.010067247005471788,0.009251475037924966
33,0.009905950220965043,0.0091671642363876
34,0.00983509589181001,0.008409631106260338
35,0.009853560971765962,0.008416997123928497
36,0.009840292281929432,0.008247947253824306
37,0.009851701629904088,0.008347451246525616
38,0.009859371157562784,0.008313750250586536
39,0.0097714648238481,0.00842742418677469
40,0.00976482417179486,0.008626433332928847
41,0.009766068131491938,0.008188611312915922
42,0.009867840699632473,0.008177748018620147
43,0.009672819080009623,0.00832680780919763
44,0.009612483425936503,0.00839144368162735
45,0.009770780072996995,0.008693527100850012
46,0.00971420908644015,0.008309266437059518
47,0.009684594153134133,0.00819088342090501
48,0.009725203679035661,0.008646994304874454
49,0.009644262149466185,0.008149083573937626
50,0.00976586627792804,0.0081202879217
51,0.009711102758256922,0.008277586580932849
52,0.0097077882231806,0.008411557327375307
53,0.00972077281918728,0.009620272922985538
54,0.009746457035336015,0.008537318186680047
55,0.00973846653123159,0.008572721371552301
56,0.009640931558434773,0.008545658491885834
57,0.009695773707229832,0.009814489790912418
58,0.009632753706777865,0.00812490734323322
59,0.00973350583276556,0.009029306672749829
60,0.00973346795674592,0.008406806450962194
61,0.009638267359095945,0.00831005517905822
62,0.009608966212785518,0.008329276682263837
63,0.009737137764346418,0.01082506407105818
64,0.009727869353326504,0.008170093965116336
65,0.009670346231402997,0.008070645625150632
66,0.009621736746775446,0.008317370950749444
67,0.009665150493354813,0.008169936196602277
68,0.009696096302907487,0.008157014404656476
69,0.009721182362464347,0.008163974054760572
70,0.00964866421587002,0.008297374281897366
71,0.009669904232393566,0.008148013245700672
72,0.009608604692197167,0.008254482686865412
73,0.0096019048398773,0.008470900568265716
74,0.00968747427737828,0.008303503031646148
75,0.009554756107836382,0.008357779661205914
76,0.009615484276857303,0.008180331292618241
77,0.009577296377064216,0.008150731516954363
78,0.00967083630863466,0.008223713957427293
79,0.009594038658989456,0.00805969732234215
80,0.009637116319699667,0.008207559023553537
81,0.009539495619595635,0.008682947949381663
82,0.009690447290254058,0.008107639341040552
83,0.009630270606797931,0.008652080982938001
84,0.009581230461971853,0.008318121588979864
85,0.00967020091581865,0.008532043399795955
86,0.009606074045626026,0.008196745068056703
87,0.00960913133764546,0.00832524804110901
88,0.009621741143983367,0.011021327364678651
89,0.009593713845912169,0.00809525647431367
90,0.0095462517435357,0.008164141646975187
91,0.009609398265444623,0.008291300657992553
92,0.009630250442354965,0.008845216163953363
93,0.009587259229907812,0.008169977125582031
94,0.009706695022911365,0.008238970811669731
95,0.009655931893647704,0.00804397977382916
96,0.009631772705892949,0.008247901967395206
97,0.009572552010337415,0.00821617756367093
98,0.00962070598337561,0.008105607998054678
99,0.009627418396943139,0.008139618451579725
100,0.009588285937047095,0.008134227255548604
101,0.009628289525440635,0.008188135953531633
102,0.009600208518955386,0.008024776898591005
103,0.009684469033529429,0.008191108828107608
104,0.00957237785986868,0.008231173841414651
105,0.009537900013971983,0.008185149507964767
106,0.009585828605135344,0.015605545475249567
107,0.009626709564901718,0.008293883977765511
108,0.00973238115673652,0.008338712267446018
109,0.009504289605737114,0.008103553173116711
110,0.009638532314230558,0.008076902537723349
111,0.009418861416883369,0.008134542721474083
112,0.009629031063378679,0.00826112722548496
113,0.00958860433686934,0.008098706973168501
114,0.009633105761987946,0.008092175981731503
115,0.009520714574696887,0.008124980774697888
116,0.009608432771807443,0.008174874222486424
117,0.009593155223873304,0.008310418734735162
118,0.00963684855163527,0.008106996520036826
119,0.009448526997543021,0.008100080796685593
120,0.009603723669878892,0.008030722285722179
121,0.009493938120210706,0.00806373219775284
122,0.009640974644424259,0.008025440036055787
