epoch,loss,val_loss
0,0.5602990157246401,0.5557314596735373
1,0.5566309621636708,0.5557063042322415
2,0.5196255198537972,0.4446141115418309
3,0.4455952550451119,0.444632788085078
4,0.44549220576912435,0.44462105732873186
5,0.44538647778009266,0.44464540356385324
6,0.4452533762781803,0.4446130186906216
7,0.44536765371080805,0.44462367383018075
8,0.4453292718246147,0.4446237002982589
9,0.44522101652796786,0.44460117191961307
10,0.4453151894817699,0.4446270192864018
11,0.445314395414452,0.4446403016755557
12,0.44524625072978435,0.4446208906709457
13,0.44519178616930927,0.44665987055339906
14,0.4453036621788489,0.4446253070726988
15,0.4451659428503976,0.44462162548726714
16,0.44528390630143266,0.44462143770944546
17,0.44516883762953957,0.44479959486627724
18,0.44515875724596493,0.44462352275980904
19,0.44521834471437816,0.444619287933568
20,0.44523689640104164,0.44741352172963333
21,0.44521353734954927,0.4446289520879312
22,0.44520337279468114,0.4461295633859742
23,0.44519709708309224,0.44461746551705783
24,0.44520544427586706,0.44461892442048606
25,0.4452041840795761,0.44467106698164016
26,0.44513232786723406,0.44461827088021394
27,0.44518362270983286,0.4446332185078523
28,0.4451430157283788,0.4446275356328164
29,0.44514029286785795,0.44467463009372976
