epoch,loss,val_loss
0,0.02531586972719415,0.0125593001152199
1,0.013300885146144187,0.009490011242794088
2,0.012856230596257718,0.011675294476170942
3,0.012287269751435044,0.00993387990294544
4,0.01209095491260633,0.010224964530088157
5,0.011608760953046152,0.009845065766194448
6,0.011518428579126732,0.00941510637168315
7,0.01139272392601972,0.009242785879907301
8,0.011352492865234834,0.0092431591082795
9,0.011045499840988288,0.009588871827183123
10,0.010995850412897886,0.011441817928735052
11,0.011090397958570456,0.009251944159429856
12,0.010956331761143768,0.010552266278063526
13,0.010853054629481043,0.01073378894239373
14,0.01069121891428512,0.009177262585662508
15,0.010718896324691113,0.008930585638514803
16,0.010613370401901015,0.008681429467228021
17,0.01064686808244522,0.009052032142332125
18,0.010475285855906355,0.009551643120208944
19,0.010580344062616744,0.010063054760640266
20,0.010570467988852398,0.008945254610578681
21,0.010595072445731116,0.009598537924131107
22,0.010480688974167663,0.008807379758387463
23,0.010310523392517746,0.03162065710933346
24,0.010608798186963336,0.008967497023869626
25,0.010315304471405232,0.008934337206544851
26,0.010489286633727437,0.008968510364504863
27,0.01032522799588128,0.009402282763942805
28,0.010296675719504196,0.008519722489055618
29,0.010285155897449452,0.008650233128136333
30,0.010278793549930403,0.008713416661283307
31,0.010242694781958788,0.0312637004788923
32,0.010408337850207849,0.008863188593502101
33,0.010221700488466275,0.008756724364238565
34,0.010101460516444902,0.008978751490840046
35,0.01029806220462325,0.009871207865223356
36,0.01006792366847034,0.00967388783040391
37,0.01027795542089639,0.008684833490431584
38,0.010240702429488909,0.008806632464014766
39,0.010120891823118625,0.008651221944683266
40,0.01014523892738941,0.009226531855167745
41,0.010327345968675704,0.009856151727819305
42,0.010122173422484363,0.008623346012459565
43,0.010164283753654486,0.008897312432259843
44,0.010018449585181272,0.008741918426636788
45,0.010127574445582625,0.008668969078397662
46,0.010093796773823568,0.00870049288674594
47,0.009996943446829398,0.00861995839370376
48,0.010079737212328108,0.00846090486369452
49,0.010011296639575873,0.008345268421563988
50,0.010002941815319806,0.026026292168502014
51,0.009936900154510483,0.008786826901608445
52,0.010043330169753145,0.008619324157151444
53,0.01001541404891437,0.008464964451691308
54,0.010035447720103124,0.009506361809279194
55,0.009827026920933131,0.009282277419285223
56,0.009983582864932531,0.008574710124611088
57,0.010007818939732625,0.008890871539700416
58,0.009900368670629722,0.008597905859589276
59,0.009876563759317768,0.008597390145000987
60,0.009921785124938465,0.008684402388872983
61,0.009949923627637547,0.008553825970347192
62,0.009884526207683207,0.008619632225888013
63,0.010005754056456921,0.008489520296916468
64,0.00986323992471409,0.00844511200191874
65,0.009891669254377329,0.008477546670958482
66,0.009877419460307407,0.008471084163122368
67,0.009889618745453965,0.00883149200307502
68,0.009903358235604764,0.008461686577291487
69,0.010012287440063118,0.008586399616393764
