epoch,loss,val_loss
0,0.022561772313920387,0.011537022526306881
1,0.013468037112675501,0.010046668376948708
2,0.013027588262138644,0.009977193422747454
3,0.012211793702556161,0.01038487123262462
4,0.011996261694656816,0.009291828216960316
5,0.011755062861873226,0.009383870306514571
6,0.011558509776368799,0.013860240761233248
7,0.011398505265509931,0.009316761468974786
8,0.011247130311874985,0.009366156953025052
9,0.011080106055078552,0.00954612068585964
10,0.010596436532843293,0.009210284722466669
11,0.010963002380847377,0.009074640406476982
12,0.010782668601934107,0.009250661469864346
13,0.01069916758749815,0.00882682536968425
14,0.010680499866519663,0.008856451472256268
15,0.010840603900072777,0.008445557791404563
16,0.010639936297998118,0.00882264921824438
17,0.010536396631713865,0.009026890427876327
18,0.01033840090562745,0.008628162205725381
19,0.010633021157360844,0.010278779331987231
20,0.010258594835005068,0.008449014290131668
21,0.010379114251530595,0.008686644539023456
22,0.010356141331633092,0.008971151667501382
23,0.010296296170650547,0.008452329645125612
24,0.01021600990671438,0.008308356036704961
25,0.010128262605765664,0.019593112513970785
26,0.010133710523023389,0.008383219325194709
27,0.010069227544999098,0.008691378654588215
28,0.009959573191124135,0.008628555006772511
29,0.01001500355899471,0.008881953001495321
30,0.010046334674155525,0.009859661742246492
31,0.00996189206410732,0.008350810678907973
32,0.010047371165373763,0.00845487704375581
33,0.00995726529387181,0.011824688514493724
34,0.010011810539449486,0.00841400241984354
35,0.00991310263755849,0.0085782303637311
36,0.009819309047448021,0.008173612454290548
37,0.009796898028343761,0.008535389634781326
38,0.009942680945370371,0.00868430130724417
39,0.009838717685531108,0.008117124419724451
40,0.00979813953351683,0.008471632112867389
41,0.009846876635222752,0.008403953019763558
42,0.009767102580384544,0.012113735725789936
43,0.009734000301316856,0.00794138351131579
44,0.009640146116137427,0.00838704470652872
45,0.009624807422710711,0.007978486459903693
46,0.009496521147053506,0.008064420888316059
47,0.009567558508573111,0.008557164435178321
48,0.009544668043064346,0.008013622091307512
49,0.009514744657991887,0.007929476077996853
50,0.009475931762746104,0.0081839943479549
51,0.009482396501438107,0.008137298625843161
52,0.009644267923352476,0.007815792942502472
53,0.009380172071923666,0.008609248354364874
54,0.009381945096703962,0.007843164230075828
55,0.009410336083074776,0.007779387139295368
56,0.009345829635958246,0.007915082230002377
57,0.009354084629502102,0.008098651181592323
58,0.009322326583968669,0.007911969328814446
59,0.009319695209302802,0.007785748057653076
60,0.009393347999392359,0.00802630938186399
61,0.009303202316588039,0.00784591874474509
62,0.00933591179502292,0.007946489563721165
63,0.009328635782701,0.0076555850409351115
64,0.009325853605614495,0.008084504215646644
65,0.00926840323045603,0.007837698182080173
66,0.009155569407379667,0.007757023175430261
67,0.009304755444419409,0.007942731511337354
68,0.009361736455989533,0.008460601427278346
69,0.009191468464894804,0.007757361737881977
70,0.009285712052097885,0.007828070969069848
71,0.009251715781517759,0.007737823873959459
72,0.009340244340418455,0.00785465851878401
73,0.009283736555560885,0.007850892785946946
74,0.009160127969068748,0.008005852383202481
75,0.009240736749867069,0.0076713051326154046
76,0.009284615562499392,0.008283282154094329
77,0.009341305159792923,0.007678517828919839
78,0.009300605205095864,0.008421400793095524
79,0.009258448398860513,0.007669286846743927
80,0.00921275305724233,0.007781255850612783
81,0.009220990751897813,0.007657131708205061
82,0.009291106941083057,0.007624303434100028
83,0.009298385723126282,0.007682887343750438
84,0.009189526575922974,0.007530918061295168
85,0.009310016159886646,0.007650908126760667
86,0.009209287301230414,0.008118132891585113
87,0.009215547892136959,0.007773676739772819
88,0.009120949913233537,0.007728407708006576
89,0.009250416736734421,0.007801190083470785
90,0.009182509351791771,0.00771918995136551
91,0.009203207703946312,0.007668390138472901
92,0.00918946670639785,0.007888949589732231
93,0.009160473131193335,0.007900410053402017
94,0.009185426787581408,0.0076857503829383415
95,0.009097666605812352,0.008025267899816725
96,0.009175515839217005,0.007767651896161802
97,0.00917607421604011,0.007640896766482471
98,0.00917757368998029,0.007640072434450807
99,0.009174336319296424,0.0077420757802158045
100,0.009201232089218414,0.007561092962591785
101,0.0091709664156088,0.007930661132174641
102,0.009088953913959594,0.007521092750227331
103,0.009209709874599367,0.0076563683420473524
104,0.009068776174119247,0.008003485431574902
105,0.00917896018547394,0.007677116565588535
106,0.009138107874924585,0.007589572558674369
107,0.009119767828898959,0.0076067745688165635
108,0.009085767579801503,0.007551105971588184
109,0.009202332634544402,0.007501563490611721
110,0.009150937687284873,0.007913934640556501
111,0.00908522792925649,0.00781662262790112
112,0.009184695145029684,0.007624000991235106
113,0.009106663533528634,0.014912987145130405
114,0.009100193806606439,0.007565685952762909
115,0.009147526376104604,0.007676050011670533
116,0.009179956933004937,0.007595658962456138
117,0.009169934146777144,0.007458843051134825
118,0.009135317945691676,0.007558690148537509
119,0.00909433559168107,0.007678307069748597
120,0.00907995051358932,0.007893877650339116
121,0.009169651429807458,0.00811887893188175
122,0.009115351109899018,0.007968599958487574
123,0.00910147746336208,0.007566496299056767
124,0.009122633481389116,0.007746002943334429
125,0.009152975879184174,0.007520045518405689
126,0.009061100681280515,0.007471874982512906
127,0.008918043370693364,0.007543470387836442
128,0.009182943562200434,0.007605435681654022
129,0.009127259554428365,0.008456274259191232
130,0.009057967677013168,0.00752128623944348
131,0.009171668342418407,0.007685327898923645
132,0.009083456885669665,0.0076540680853991626
133,0.009145013972131069,0.007621808124495245
134,0.009090377571403655,0.00765197765500972
135,0.009109327417725629,0.007540793916985821
136,0.009129455429967872,0.0077412442627132335
137,0.009189579460433271,0.0076260240689364905
