epoch,loss,val_loss
0,0.02527299149406552,0.010524671177938994
1,0.013113435225647747,0.01329694791812771
2,0.012958457645383815,0.011511512543877141
3,0.012484538392316797,0.011370647594075942
4,0.011739019370058452,0.00993525588993508
5,0.011475896585882054,0.009566241836393326
6,0.011400452900599755,0.009696276624102369
7,0.011147202512441215,0.009097784183468632
8,0.011160729252205194,0.0090136998496096
9,0.01098216038034379,0.011186491910336258
10,0.010789476393287534,0.009253932239472386
11,0.010701527045518413,0.00881218785767328
12,0.010695872289470824,0.00891904029467202
13,0.010603537189835218,0.008556538654737706
14,0.010425468002115173,0.008697236296069305
15,0.010388458492406962,0.010143833162953135
16,0.010384021551815961,0.0086917598239015
17,0.010377824497097742,0.008549464270928057
18,0.010396407732355787,0.009115377324651787
19,0.010252078199879036,0.00871409673108581
20,0.010188550852489625,0.008515044970823015
21,0.010200966724229349,0.00897259079570645
22,0.010164126313094726,0.008902631806896233
23,0.010017424025909218,0.009006572296702132
24,0.010133939234160588,0.008504476503386078
25,0.010010230866968142,0.008392559072336726
26,0.010008623160932869,0.008375928780409776
27,0.010028660862194564,0.008617806062937949
28,0.00995541975063537,0.00825468905712171
29,0.010022579181946118,0.008376935635471079
30,0.009994412391760467,0.008555913510301522
31,0.009956271663409259,0.008794180926002653
32,0.01002852925542006,0.008341713013036932
33,0.009832839101619617,0.00919579480493248
34,0.009932784232979011,0.008244596343997459
35,0.00993592765833536,0.008473706008361797
36,0.0098660043587766,0.00841282371458063
37,0.009832191949213021,0.008420093412204455
38,0.009786208206736249,0.008382271063183204
39,0.009881002481455205,0.008193787324440626
40,0.00987875567388771,0.008303563966683077
41,0.009798477469154557,0.008277080994569995
42,0.009660777942053897,0.009428572161242954
43,0.009943030720199905,0.008326696006044904
44,0.009607013719241933,0.008120109343147582
45,0.009822256763182775,0.008144197188315114
46,0.009839287674155334,0.00972509744497392
47,0.009731923325418952,0.011062552246040453
48,0.009705368135864761,0.008762174244240643
49,0.009886167823237698,0.00820993405022999
50,0.009729528541092365,0.008383088743993596
51,0.00973988935618751,0.008217356592204971
52,0.00976836755371623,0.008096485826730662
53,0.00972920077491578,0.008153979175283202
54,0.009673812102425954,0.008306021370889661
55,0.009675615288005281,0.00808543127217375
56,0.009718074316254816,0.008336875285247507
57,0.009692112631618885,0.008371595633415127
58,0.009602790742313927,0.008477979763206144
59,0.009689826292554986,0.008206147986511678
60,0.009532092772933492,0.008137020665950505
61,0.009695786166410817,0.00813178011426684
62,0.009677558511796592,0.008067486486466456
63,0.009768805216052138,0.008128055903264311
64,0.009666480533039905,0.008226487211395296
65,0.009595118057564325,0.015479223116136684
66,0.0096649273962544,0.008228673645139465
67,0.009599330315005055,0.008216638778547398
68,0.009646213928681714,0.008230858508487714
69,0.009561150620497427,0.008113854856827684
70,0.009601151679507793,0.00835458956273858
71,0.009632249939005138,0.008036477074072318
72,0.009630643365732766,0.008076524815020903
73,0.009613155321532467,0.008491459448950663
74,0.009534418251976819,0.008135685520458121
75,0.009589926747625996,0.008298977876019353
76,0.009525352466761106,0.008299876490417956
77,0.009440550640354034,0.026752831835263644
78,0.00956478800356022,0.008036359134979862
79,0.009599803321379927,0.008427888489642908
80,0.009471769352484023,0.009566025137544868
81,0.009549985744476757,0.007991351993022108
82,0.009505684478444262,0.009911615750622977
83,0.009487243885357063,0.00808540672959802
84,0.009608625669993664,0.008045696147202993
85,0.009517266259576204,0.008054510622386025
86,0.009487205419714042,0.007935040993899951
87,0.009536783985814149,0.01005099877848664
88,0.009459887869215393,0.012082947179827734
89,0.00932322066635357,0.017023702282446714
90,0.009594379648043,0.007912553260119137
91,0.009485701677969539,0.008278739102306346
92,0.009551765878150782,0.008302250543213778
93,0.009505149586313807,0.007966434958806341
94,0.009586094498756454,0.00803518650268851
95,0.00946882534936019,0.007928956861372422
96,0.009518990565442116,0.021773753444888543
97,0.009578254770154795,0.008006141378091847
98,0.009464733555009892,0.007962394895195329
99,0.009530507157632801,0.007935591853824656
100,0.00946445066089868,0.007949081023285964
101,0.009413560490520813,0.008050035463673564
102,0.009572648528577036,0.008002249402645841
103,0.009453195420554722,0.007818538454091048
104,0.009653411925539968,0.007925706554054255
105,0.0095331938784969,0.007967372843788631
106,0.009414193129018728,0.007981161346973499
107,0.009499498792539156,0.007992234587918139
108,0.00946933396339106,0.008022117174834094
109,0.009529165244621727,0.008285106466157247
110,0.009434617255704022,0.007827987325114057
111,0.009555448632307176,0.00841284386202964
112,0.009455643595793288,0.007959722588785325
113,0.009525260938295385,0.008079541531788257
114,0.009456743696755643,0.01579255760888876
115,0.00954064720672867,0.008142437786418499
116,0.009626539402579244,0.009270728898526176
117,0.009412874514154776,0.013568865821269536
118,0.00949720459684031,0.008081418228897252
119,0.009544531072294067,0.00834974176684483
120,0.009506115562999814,0.008638262510156517
121,0.00948455982655203,0.007903525739683706
122,0.009482171005716947,0.00880842959261012
123,0.00941964344298682,0.007906703352926682
