epoch,loss,val_loss
0,0.6741247969455977,0.6667727951030797
1,0.6676830202980996,0.66747124236842
2,0.6673528570154422,0.6667758143854952
3,0.6673252590485398,0.6667803736249474
4,0.6673109692972915,0.6667738977132837
5,0.6673563012786377,0.6668255399697846
6,0.667281769429185,0.6667753203352123
7,0.6672169087907732,0.6667701819784702
8,0.6672253957685422,0.6667892547974762
9,0.6671736570244267,0.6667735972290136
10,0.6671612354538446,0.6667941916513315
11,0.6672336167283367,0.6667986144494382
12,0.6671282171176044,0.6667703222060404
13,0.6671976600799546,0.6687495376602968
14,0.6671561420800362,0.6667729182074481
15,0.6671399647972293,0.6667715610256835
16,0.6671415941164042,0.6667703083437246
17,0.6671435216220849,0.6667712368633097
18,0.6671293723044233,0.666783269031551
19,0.6671540714734345,0.6667770251728758
20,0.6671491408764255,0.6667754281526977
21,0.6670889038790098,0.6667725586959327
22,0.6671191477546505,0.6667705213330711
23,0.667125312355975,0.6667715104890471
24,0.6671304099885259,0.6667745501555506
25,0.66707260257246,0.6667724850680575
26,0.6671120138768992,0.6667968959056405
27,0.6670800014928321,0.6667713907544189
