epoch,loss,val_loss
0,0.6697795563621384,0.6667865365341351
1,0.6676291765039457,0.6667704356744666
2,0.6216469601750065,0.5557079968451317
3,0.5563313809370024,0.5569140635228487
4,0.5564007627798134,0.5559882492901352
5,0.5562991237375658,0.5557075669382306
6,0.5563619279753069,0.5559773875481178
7,0.5563341496768149,0.5556992347730385
8,0.5562335655528119,0.5556938860489108
9,0.556278032880493,0.5557095391638264
10,0.5562829993790391,0.5557427438541275
11,0.5562399292805127,0.5557087832960947
12,0.5562372909324422,0.555711733143879
13,0.5561877800441972,0.5556973380353009
14,0.5561964849514117,0.555699397566509
15,0.5561424436108522,0.5556946752212228
16,0.5561228932420097,0.5557182485695319
17,0.5563323156173595,0.5556992412569486
18,0.5561533652068665,0.5574702900734254
19,0.5561127577708653,0.5556954516765521
20,0.5561496149251495,0.5557341878709858
21,0.5561656986134362,0.5557013114842418
22,0.5561335593541068,0.5556963504553409
23,0.5560957381275173,0.5556944454115725
24,0.5561428191788406,0.5557079459677353
25,0.5561412327263251,0.5556970969568988
26,0.5561046606683765,0.5557056202270577
27,0.5561113552460879,0.5556958528980672
28,0.5560656739831877,0.55569698348374
