epoch,loss,val_loss
0,0.20651191784936984,0.033818365190098766
1,0.048106249472458396,0.02665865281045484
2,0.04163182773616174,0.08199239837412958
3,0.036115525169022604,0.020525851664034138
4,0.030717482015737693,0.040417524267814246
5,0.030084206637435797,0.023242003345404823
6,0.0269503626752076,0.02015178980366066
7,0.027151561241491224,0.023179934106490795
8,0.026393679546476673,0.049458725782200966
9,0.025349682836468032,0.0349771905287618
10,0.02495162926452736,0.02354436373189621
11,0.024359128360698323,0.025295190470500453
12,0.02302282259778695,0.04052329131335185
13,0.021213597470825966,0.02319137112993891
14,0.02173424889925394,0.03731583621008902
15,0.02038593802152188,0.00825023540937369
16,0.020680486206910747,0.010650216605464304
17,0.021239946510897372,0.020004672629739605
18,0.019512011339407054,0.016008133717739827
19,0.02002796723018233,0.014307883783481022
20,0.018270955362962447,0.009750448304045454
21,0.018820831369010093,0.020863000406415422
22,0.018233784131421377,0.016715580751147673
23,0.017975525787587075,0.009960290149659884
24,0.01676133164591033,0.011753795363432372
25,0.017205287490209803,0.03830676759580693
26,0.017600640398654922,0.012718204062670211
27,0.01769315220637442,0.022701042034643414
28,0.016716487120001688,0.023536687787407574
29,0.015568880801484417,0.0068376203730625956
30,0.016242686667845105,0.014615153680660636
31,0.01622580283311762,0.024756422542747118
32,0.015649848821689096,0.01295613790270538
33,0.015330701244348804,0.014263426199196688
34,0.01608056992982521,0.024598157444958527
35,0.017730784739816575,0.01798820133367296
36,0.01602231020436918,0.020382223297983715
37,0.016713331157578337,0.013730413549459865
38,0.015598587577881145,0.010162673392954217
39,0.01484331903051582,0.017410137691338794
40,0.015160082892658447,0.012602075871194829
41,0.015731282659890437,0.013747880865996901
42,0.016757248470717544,0.026020726985823667
43,0.015607919377315012,0.010469719383133473
44,0.014269363103645872,0.011013617369345585
45,0.01542260957123201,0.019602621232924635
46,0.014917451258879794,0.011675457575967815
47,0.014413662443531575,0.017291085275614834
48,0.014258257142245044,0.016993555733559165
49,0.014711085203692591,0.00663345582575935
50,0.01351215702676617,0.017966639276979095
51,0.015184659794491115,0.010290441201042734
52,0.014259293753498173,0.010556405398409576
53,0.012887377354173477,0.01484982772850106
54,0.015147573239974779,0.010449383179962211
55,0.01336057034289862,0.009879240532418171
56,0.013040794286509153,0.015031454056330855
57,0.013462096633152109,0.014841304998624344
58,0.013015264167832278,0.015356055510119369
59,0.013973662325424506,0.009974280589840125
60,0.013274068480542155,0.0068170605043585885
61,0.013068493008226465,0.011316886575247183
62,0.012889250546774204,0.019968423042696297
63,0.012971032262432854,0.015578023945264394
64,0.013037668957042215,0.010343295902795884
65,0.012557516648187685,0.009925628638875559
66,0.012600128472091066,0.013492436334196752
67,0.012667360667178005,0.00946150942107967
68,0.01294221321391098,0.008917985673649818
69,0.012946014800726872,0.01637952895166136
70,0.012638634976671843,0.02221243311051976
71,0.014572376403570484,0.010230287364827383
72,0.012084503846371816,0.015935103902218375
73,0.012703206900750651,0.015693870642102647
74,0.012037929139478947,0.0137297162784656
75,0.011698014684859738,0.013662117490017141
76,0.012745052203647703,0.012117409177459688
77,0.011805803939546767,0.01318683068987626
78,0.011781401385059603,0.015474037320192112
79,0.011191965563116307,0.0122858054381696
80,0.01246117744946571,0.007471255862889862
81,0.010578669634812193,0.01098992457891202
82,0.012208913005687458,0.00996495812731459
83,0.0124892641933148,0.01812119457955989
84,0.01124259011059118,0.009322326798682948
85,0.012497634449556804,0.0059805348950666805
86,0.012055051814337416,0.004898978492808135
87,0.011605985055444575,0.01305762918088247
88,0.011493193917348684,0.008140851700150694
89,0.01063560677984868,0.014652077849563313
90,0.01120174012379907,0.011009277107713019
91,0.011059728637002676,0.021934245406534603
92,0.011712881435229213,0.004589133779058893
93,0.01136710474498013,0.015484115679255131
94,0.011049465610285391,0.008554957173441279
95,0.010355001525040701,0.007449886906412801
96,0.010620870470474336,0.009810977649963928
97,0.011694461741629128,0.011119764298935669
98,0.010676731220461417,0.008536364846431372
99,0.010218272442563915,0.010597727901721999
100,0.010731891694878468,0.017786926984634095
101,0.011395852597948494,0.013847156367525634
102,0.010556443363240511,0.007470920666149614
103,0.010493035159847267,0.014801958474406315
104,0.010846077972244348,0.009222404768171514
105,0.010532954667447705,0.015194785010860535
106,0.011096367843264489,0.013623041990959183
107,0.009925180483128515,0.00646079603756095
108,0.010224071999384219,0.01355347295174847
109,0.010692325807518983,0.011418902022645007
110,0.010593665692639604,0.01432000861180492
111,0.009538757029736934,0.009131538722481822
112,0.010152702215782773,0.012116295806681348
113,0.010321717166217517,0.013717513615243437
114,0.009836617113034473,0.01777059305532767
115,0.009937194119625204,0.0064600874521367506
116,0.010842282261191714,0.005623658065667233
117,0.00981895142360676,0.006891235255290061
118,0.00919121944253965,0.009635529726384989
119,0.00965197973338951,0.008486426873139937
120,0.009865962146173904,0.010679737490549648
121,0.010317670504397285,0.009404371132384678
122,0.010351585498791364,0.007780253249510899
123,0.009578544909482916,0.011683413017197162
124,0.010233390843216552,0.01005103184467427
125,0.010457771315371884,0.009796698850409761
126,0.009774265645762725,0.007340047664311145
127,0.010433400705770153,0.008757185448555022
128,0.010034564558303446,0.00577152966085789
129,0.01011623923877458,0.008358305066547576
130,0.010198620884741792,0.009716947332918408
131,0.010437409123807823,0.009180108905603026
132,0.010046931346681127,0.012523128004228636
133,0.01019049939836452,0.009002739981099104
134,0.01016597606423724,0.016245243303483644
135,0.00971169656903433,0.008939410795052642
136,0.009475402610036258,0.00643435110659254
137,0.009764810215490465,0.006257125152599863
138,0.009112760786050491,0.005830690953821743
139,0.009601579783826792,0.006973665210564681
140,0.009567056873647256,0.013520071054378784
141,0.009801067022638742,0.006522823961991184
142,0.010017279116120442,0.007102985272438345
143,0.009524675083721129,0.009475880531092846
144,0.009490430092090647,0.010135026988973981
145,0.009648717775048285,0.006525555646139614
146,0.010642918036337927,0.008386753536628495
147,0.009065108412938516,0.014611101165360933
148,0.00915511227840056,0.009072123186540774
149,0.009624087347851532,0.006780703380798014
150,0.00973422747074837,0.007261910897348114
151,0.008870715769078526,0.009439479178898242
152,0.009175573862965504,0.008598414478689762
153,0.010369170549251943,0.0082845911901847
154,0.008527840774742326,0.005021649084973495
155,0.009441766379249218,0.009333276856931746
156,0.00985467834357205,0.015460953748569586
157,0.009611628283348253,0.007488336758842455
158,0.009739885564713325,0.004434280574539325
159,0.009289902881242715,0.010252763087190128
160,0.009518377949110717,0.010449323387876823
161,0.009036497827221027,0.004608423391764288
162,0.009130506340204347,0.005779892034187689
163,0.009172379764055254,0.010877068932208614
164,0.009579689492271256,0.005018685936292702
165,0.008468465980806415,0.01735939980420595
166,0.008785656125892957,0.009959644398371959
167,0.010189986695981415,0.012614491367719968
168,0.009461169505285636,0.00391458889345279
169,0.00903205671492848,0.011443820740107297
170,0.008985709725524768,0.006790184188742946
171,0.009790338761769503,0.008234462015707144
172,0.009129041539997215,0.008011637929233045
173,0.009602132605200412,0.00713093803339912
174,0.00899942775566256,0.0068465430008713525
175,0.008883196990739712,0.012394447649234424
176,0.009308429237612955,0.006201071126993684
177,0.009154279176298406,0.005841650708630716
178,0.008991297997283392,0.010305691754479247
179,0.008658455280631,0.0089261388544349
180,0.009200797471173888,0.012436728579769147
181,0.008913901909965454,0.0033772468534551837
182,0.009485164177336013,0.007435227364622168
183,0.008750106171919979,0.009244454564451702
184,0.009646022660683075,0.007359732515027933
185,0.008902178414509916,0.008596431154863587
186,0.008802260011084658,0.00772742851363126
187,0.00913910501289273,0.0050998312243258235
188,0.008761287318076566,0.015892048612613327
189,0.00912007920222162,0.008173634978812468
190,0.00805720603988721,0.00877163141867368
191,0.008691169648542166,0.011432621672884771
192,0.008557012514415964,0.005311189252800869
193,0.009034223128597793,0.008436668928103975
194,0.009351889605073334,0.010225349801997548
195,0.008938968779413487,0.0072533406295917265
196,0.009158278779434911,0.0150044146901689
197,0.008234597687002012,0.01385482181754513
198,0.00976611239773085,0.006531389145329065
199,0.00842204096512668,0.004866652999252622
200,0.00855092437043384,0.007623584612824711
201,0.009030680135387532,0.008570523718673362
202,0.00888769753142554,0.006059492586861235
203,0.008521637324129137,0.008166144350242243
204,0.008931682748477355,0.010988283947245428
205,0.008687850355980643,0.022887054764634054
206,0.00925837750079484,0.013206567632912085
207,0.008861566328057955,0.014729441213403147
208,0.0089321362359418,0.009427712176174467
209,0.009131773445605606,0.013379817545537461
210,0.00880810857242752,0.00901117703775216
211,0.009549964607196698,0.0062165384389601215
212,0.008577729114606756,0.01133080519627024
213,0.008464041195041556,0.002943066710675313
214,0.009438825495854515,0.006269586658812383
215,0.008459431855908806,0.015613341841467412
216,0.008989715145518936,0.016127077792789535
217,0.008688711581642269,0.010866624161295281
218,0.008520250689040283,0.009374303194887542
219,0.008150694562478824,0.006699408458188564
220,0.00783766610211031,0.007876467992108383
221,0.009419324949828924,0.005882764399057547
222,0.00902326835152268,0.007879796587504099
223,0.008419623721199636,0.009563286482976146
224,0.008697146467930026,0.0105893870590706
225,0.008219621503810517,0.011348111289623175
226,0.008873088060871517,0.01490331474241772
227,0.007593765455570971,0.009607208233353136
228,0.007880291987142022,0.006411869354522548
229,0.008808722369094416,0.0062575140297589284
230,0.008242548227110664,0.006828165846129243
231,0.008776342974593052,0.004913984040046829
232,0.008370690298624795,0.005398294898360121
233,0.008455917211271804,0.008376699332044928
234,0.007725571956597924,0.009216246867718523
235,0.008350469825918125,0.007418073283401101
236,0.008324944644144251,0.01115848170042085
237,0.008499259912992546,0.014440014584235489
238,0.009012257876928054,0.005974748419214043
239,0.008307217523067754,0.010345484891607946
240,0.008557273160318563,0.014826526147208302
241,0.008813193165712047,0.005374447900166804
242,0.008132528044844715,0.0052680607863805524
243,0.00869963815382538,0.012622449702150302
244,0.008254932685538183,0.008760908802334681
245,0.008114187476626462,0.008401080199694459
246,0.008235154096405658,0.006176839921852808
247,0.009024146940562127,0.008758139942832227
248,0.007634201084731145,0.00691749931415271
249,0.008320997538920537,0.008458581647593836
250,0.0080418023943371,0.008984242662957971
251,0.00811116413870673,0.007249991283785102
252,0.008480456693255775,0.006215778547732399
253,0.007588511020195284,0.005394001908515063
254,0.008517127072116245,0.0058978345500924215
255,0.007881958556970466,0.01186933061923911
256,0.008432536484501648,0.00864445864669126
257,0.0080746306263902,0.0067841110474649805
258,0.008188908788201353,0.006416158712062552
259,0.007592769858477969,0.004413074854027771
260,0.008271356469387267,0.006104373059587607
261,0.008190138038801704,0.015637006479055984
262,0.0077736280325481555,0.007520850820962308
263,0.008182673064673946,0.006830136251989414
264,0.008624851693500498,0.011408649270305882
265,0.00855627226325751,0.008631973178952862
266,0.007995028108729497,0.011609941803289382
267,0.00750683887024521,0.005582789687958753
268,0.00846228948885502,0.006601474465083422
269,0.008855564145112245,0.0069655774311172085
270,0.008480212897331052,0.00605471185448961
271,0.0075901479508316844,0.005139971182453016
272,0.008487645022051451,0.009161992202900298
273,0.008542617252520878,0.004702290425249085
274,0.007776631510721223,0.010260382976644652
275,0.007553989149936788,0.006259540685444435
276,0.007654265914060962,0.008313008006324002
277,0.00797655808811577,0.006885416534874109
278,0.007883896336065893,0.007344741127641185
279,0.008695286708503521,0.009186795814184806
280,0.007815080185362743,0.007210446294873435
281,0.008208760995135683,0.007499221366872069
282,0.007918460874633639,0.00476569924709382
283,0.007708611101549354,0.009856072655822362
284,0.007668876402016035,0.009386269557242
285,0.00840589232181834,0.01790590863160336
286,0.00822382212075279,0.005858577310821393
287,0.007976400692181158,0.011962889955359221
288,0.00844472900695941,0.006762572575578114
289,0.008172577699191488,0.011495062985090685
290,0.007898509331649805,0.0090195572109571
291,0.007965548071691277,0.00406529240188172
292,0.008296504662987097,0.011607155108996377
293,0.007806959886310085,0.009520371856892683
294,0.007814186566742324,0.007097353069398378
295,0.007445054843170876,0.004277383433044803
296,0.007782022319760153,0.005472211193678505
297,0.009149411377656333,0.0058995023426388835
298,0.007500010922805761,0.007057545414442915
299,0.007671099164051195,0.008279517050406174
300,0.007679733311028616,0.010903573958107638
301,0.007692246959707756,0.008293955359716724
302,0.007197657006987773,0.00498955907820538
303,0.007856077754864101,0.004015446192163742
304,0.007711028557834323,0.00456793635904248
305,0.007722911696291442,0.007213011792336826
306,0.007829749583286031,0.010359895595694115
307,0.008001061945429279,0.012619371571517076
308,0.008500040716418682,0.007903319920965227
309,0.007555560858772813,0.006138297819974226
310,0.007319927916952895,0.01268034372566931
311,0.007659910434241341,0.002908147091961862
312,0.00789184053344719,0.00401670783728761
313,0.00823986320830822,0.012178961102333987
314,0.007870308152562995,0.006291121395118094
315,0.007736210728423011,0.006230242350803954
316,0.007481660294014481,0.005094988456829477
317,0.007611276759577321,0.0034444084903335562
318,0.008612147945580151,0.006121797282792681
319,0.007707177288569718,0.008703538666875487
320,0.008102912120789075,0.009145952056984593
321,0.007998817194019445,0.006225670898816862
322,0.00780089252827902,0.01281337977711173
323,0.007512731949328263,0.008343679635273183
324,0.007753132131519459,0.009380299926550961
325,0.007575022620815251,0.004941057324138983
326,0.00760292326039497,0.004436673733038974
327,0.007629720039563708,0.007147863412447914
328,0.007605597846951488,0.00839938842283522
329,0.007191733627257754,0.0050424191977273035
330,0.008070452416372999,0.008001222103193179
331,0.007277421763544228,0.004897495072728997
332,0.007355343966132892,0.006083868794590117
333,0.008156371950864239,0.004607453726742185
334,0.007126843704444488,0.00658707199662324
335,0.008364570933002547,0.009706893789522414
336,0.0075471708565938486,0.006013699057831737
337,0.007885686068558882,0.0040404445713352125
338,0.008387419090942769,0.010562171428166654
339,0.00783670073610356,0.004164664270304843
340,0.006898204264097768,0.008593342585993405
341,0.007522128523698897,0.008106622466745463
342,0.008174752922271558,0.0053973667799173935
343,0.007320636929162472,0.00836332971612381
344,0.007795635332576007,0.004687467912666282
345,0.007090055119085441,0.007032666465630659
346,0.007635515796368291,0.0065518276624075755
347,0.007280411144575591,0.006839563963889205
348,0.007372305280142586,0.007990097400277335
349,0.007665779873476379,0.006504348707080311
350,0.008401551429996733,0.0176360919856964
351,0.007515834999545444,0.011382859601582612
352,0.007214604305979281,0.006901331628131039
353,0.008076529116291616,0.006665260447211264
354,0.0072703870600271826,0.009869174341558705
355,0.00728235262067174,0.008394037316029196
356,0.006869362760260761,0.0057974754558507155
357,0.008874303178037618,0.004025845437978807
358,0.007213381954452408,0.004944166370712356
359,0.00716051842375613,0.003400515775242563
360,0.006991523614288758,0.004105646655348665
361,0.007185894790363106,0.008617908959942204
362,0.007572291405416644,0.004399003062783883
363,0.006917280005728476,0.004686925945040529
364,0.00808641819880239,0.0041940722040443934
365,0.00730542062908682,0.004896947677778676
366,0.007610242540142585,0.008883098863291642
367,0.007544860699780577,0.005303127412561506
368,0.007282743905131206,0.01226473085938026
369,0.007255155550908568,0.007052409041073135
370,0.007928818789423166,0.01011368978383415
371,0.0072990621476963485,0.004287869248490696
372,0.008366688107550561,0.007895735216686456
373,0.006700838716301641,0.010959768211344093
374,0.007418148056362018,0.004955903474453193
375,0.007062332026551006,0.004312476489822297
376,0.007774209435604852,0.0038577217330102056
377,0.007487719730918127,0.01101892413799346
378,0.007098111925444913,0.005678288397491684
379,0.008283810977966224,0.011807384000298727
380,0.007799435126540109,0.0035068543601028427
381,0.0074721580317007935,0.009080129126476414
382,0.007579624099354688,0.005724223863903871
383,0.007952276645112876,0.007582174319312294
384,0.0069436437238084465,0.010203797234944124
385,0.007380878859792175,0.0035241795464873832
386,0.00801473474481793,0.009050823605509847
387,0.00720362556442398,0.004180374555289745
388,0.007057045538947701,0.005388821764086868
389,0.006813138898415156,0.010322936177665358
390,0.007578804629989233,0.0033502234763450383
391,0.0070897415117956225,0.0052328171236433185
392,0.007297140865145232,0.0075942039436086625
393,0.007154873520270627,0.004508315861201606
394,0.007593259153750648,0.010955334979167536
395,0.007711934400947584,0.0072402610533945
396,0.007369667992831843,0.007009191615337943
397,0.007563505253995018,0.010853774028947105
398,0.0069607952798565595,0.007899560943913324
399,0.0071672505183930065,0.004991645020621681
400,0.006557737515975374,0.006052973649325621
401,0.00802535229815925,0.005085629816428004
402,0.007076228008442502,0.004647459422444723
403,0.006850781374153861,0.013950409991747532
404,0.006996443393349135,0.012787323672950691
405,0.007312694236432923,0.0069964396268946735
406,0.0072563828725135514,0.007325100297903629
407,0.007216721615786824,0.007249108780301878
408,0.007372615964440026,0.00884423138251809
409,0.0071444115949516225,0.008515017509207589
410,0.0073407551769329475,0.00707384718041029
411,0.007362605712144262,0.006747800050834054
412,0.006768072694097069,0.00767631602533097
413,0.007012855172321814,0.00407279737627438
414,0.007292965280847232,0.004597444055291759
415,0.007523951606622501,0.008191111554915781
416,0.007023054821365368,0.004298003905709324
417,0.00775999086359955,0.010563304633102082
418,0.0071526784562415706,0.005975419253363747
419,0.007323714865775084,0.004240586842287511
420,0.007441175948019973,0.004957401696827789
421,0.006585846885388865,0.007077820767408153
422,0.007026129811255858,0.008123240676571063
423,0.007182631549871356,0.007645224119244759
424,0.006928624730441067,0.009295119945145114
425,0.007443206218297599,0.00415858354889174
426,0.007512573875467494,0.0036579311032203963
427,0.007492759074702365,0.003015147788919091
428,0.007033699055683972,0.010071297154865495
429,0.0067146893525176,0.00564868835145762
430,0.0077556157639126575,0.009535645885244541
431,0.00728763667239378,0.003424109989738984
432,0.006757325132293321,0.00611541235279924
433,0.0072234740714727935,0.007867911773944757
434,0.007031044798350776,0.0037400197008390923
435,0.007253207012748184,0.004801154099169592
436,0.007685710209701732,0.007064083766048126
437,0.006698966590841364,0.012290241564282208
438,0.006360223849550066,0.01003562243715599
439,0.006802679070153927,0.011724184844245944
440,0.0078114283736516014,0.006801047469338589
441,0.00701423761143396,0.006958513124460015
442,0.007464052354403251,0.006275921399192775
443,0.0065662098120615854,0.0073507465848488985
444,0.007361534387070528,0.00639788118678409
445,0.00783462843114732,0.012668399024834149
446,0.007460497940021704,0.010194009198603568
447,0.007221131434272915,0.004508981406218251
448,0.007313137498891188,0.0047190657856520605
449,0.006204778854314574,0.004711813923344898
450,0.007716285108367531,0.004840327660908192
451,0.007339876128560145,0.008976768969830887
452,0.007397571441175478,0.012059012026582633
453,0.0073217556775204366,0.007513336065109898
454,0.00679651753231362,0.0068622962670913815
455,0.006794147915095181,0.008066504360885957
456,0.006418147658688023,0.011936368386907283
457,0.007271832434741928,0.010104673937398237
458,0.006876595162910869,0.003818089046332494
459,0.006619967391072727,0.0071790115327089905
460,0.006902002450953469,0.002504009048541936
461,0.007776243085463008,0.00404928403064144
462,0.007149978314614226,0.009863653934715813
463,0.007334235266110094,0.026015382476192152
464,0.007361895147451221,0.011931727924064425
465,0.007460897751182294,0.008423634441665006
466,0.007415535833986609,0.009260681170408614
467,0.0074807971247008815,0.011530999573507738
468,0.006649505924390663,0.011073253573974758
469,0.006820984411430802,0.0069415014455478635
470,0.0072341691411333345,0.006856214438492304
471,0.006914755434040159,0.0030591390867465438
472,0.007005722721950036,0.007770019870445473
473,0.007182760720441251,0.009303862415695153
474,0.007084659357509799,0.009108247287606713
475,0.008200993754999261,0.0025848210127708145
476,0.006406162172644514,0.006370005638859783
477,0.006965636768356728,0.008987066442560001
478,0.00631307333544586,0.0052065834735285695
479,0.006793565719744279,0.0072308802961032976
480,0.007228180738467482,0.009031511363944578
481,0.007920951349335051,0.005741157276069286
482,0.007163529128984933,0.00866608528035157
483,0.0072915240533003725,0.004914115104403849
484,0.006706991887872489,0.008423167828105878
485,0.00686215876290265,0.009330136458159386
486,0.006926541635989964,0.007021141166474608
487,0.007653437077728875,0.009658006395506595
488,0.007563622538290685,0.00460640390310951
489,0.007254566755385878,0.005801020598078724
490,0.0069151306560234745,0.003641603324355024
491,0.007485698331050652,0.005321163470594428
492,0.006651045836442762,0.010975112306467171
493,0.006868693538547623,0.004106491932023578
494,0.00735993600488796,0.008111391607936598
495,0.006970751736920586,0.00680847412700035
496,0.0075932438905015115,0.005196003850855245
497,0.007776024707395369,0.00714586827508523
498,0.0063065595238180686,0.0091484000027215
499,0.006666655418556854,0.00889396782664563
500,0.007316622978279577,0.006675822624676488
501,0.006619316017196375,0.0036204490015296457
502,0.00712852879296348,0.010486471946715085
503,0.006838204158428345,0.00799684008567255
504,0.006704121259030708,0.011428253103309291
505,0.007483856841245462,0.009184627088805589
506,0.00711702607055794,0.01006279947146503
507,0.006699052086542193,0.003316125340190817
508,0.007019366504889515,0.004147895400676268
509,0.007031107338922966,0.006968382350518276
510,0.007276624540439535,0.004961522001311501
511,0.00684833616537744,0.005372212600292257
512,0.006665513393322868,0.009245760794714293
513,0.006736602940723944,0.003058537892665017
514,0.006615191999488591,0.00588769619239181
515,0.006567856574302269,0.008338393435108563
516,0.007220410461668565,0.007450663204574642
517,0.007587444105456925,0.0025482235127955604
518,0.007230689616700401,0.004868593257311629
519,0.007389465960369503,0.004253419307806627
520,0.00668666210085292,0.0038085036983473877
521,0.006854291590541857,0.0029280883109016197
522,0.0068016560001151385,0.0057331236941562036
523,0.007170662855784178,0.007493209453254068
524,0.006543883203557111,0.007364753420569808
525,0.006835683525504945,0.005817275711915205
526,0.007625966097090876,0.01458402266968468
527,0.006654151767357547,0.0067439001772461584
528,0.006878742680586741,0.004015264215077191
529,0.006475935579133522,0.010837247070357285
530,0.006758234211678083,0.005482976560443405
531,0.007479947816767022,0.003108571577543759
532,0.006945367486548903,0.004132237343812963
533,0.007037783073329126,0.0063305340943256745
534,0.007044751555093085,0.007161125487441399
535,0.007199049949535071,0.006209228265715944
536,0.007054156319853916,0.005702202885699089
537,0.006823579121908124,0.0035547888053076866
538,0.0063651193401960135,0.011158936103510405
539,0.007942625596433682,0.004958474995008278
540,0.006684522936511472,0.006255889834796432
541,0.007292931610065103,0.019693627171424213
542,0.007182123785414885,0.008976835650910096
543,0.006925736262044646,0.009276382845621364
544,0.007666993496878494,0.011082209096140954
545,0.006865747676327375,0.004933633934559437
546,0.00707608842228403,0.0071824184562290574
547,0.007403347555011567,0.009970999803561673
548,0.006966441818553922,0.00670931868081664
549,0.006584245948117974,0.010770010974349332
550,0.007429488937926593,0.006385998636845796
551,0.00683838506969962,0.005741966213154788
552,0.007115379553664175,0.006023577379905152
553,0.007016097396032603,0.00785493516549174
554,0.0064407727879034335,0.007073541995484879
555,0.006852551784262517,0.00714106394210279
556,0.006520237018864938,0.008404232009557306
557,0.0065177658868809905,0.005906337399503191
558,0.007275574618848495,0.012001488655482161
559,0.0072876797383390575,0.014760516722111035
560,0.006639652869351086,0.0072969659584432535
