epoch,loss,val_loss
0,0.5612725165201914,0.5532619880176034
1,0.5524453589566269,0.5518856808526641
2,0.5521901744263309,0.5516520313787255
3,0.5520363227801428,0.5520762946940007
4,0.5519005885937588,0.5516383964825722
5,0.5517806790798828,0.5516335758184922
6,0.5516586048387542,0.5521947245181733
7,0.5524382432319719,0.5530015709278261
8,0.5522909599910555,0.5519145529138033
9,0.5515506059986176,0.551352495647942
10,0.5514649434926012,0.5512883614145878
11,0.5515243673593251,0.5515243163445043
12,0.5514203547032062,0.5512828425564462
13,0.5515130244463802,0.5514466375401234
14,0.5515754153001731,0.551368512188383
15,0.5514609841006402,0.5515709704059408
16,0.5513204511308049,0.5515937257498356
17,0.5513594821423312,0.5512627025331716
18,0.5512803169997061,0.5513786243809317
19,0.551539187454542,0.551695922215401
20,0.5512345441967207,0.5511453765118635
21,0.5512465367591577,0.5512100381947367
22,0.5512039109336738,0.5511520871079421
23,0.5512713574028979,0.5513214673554119
24,0.5512328615919945,0.5513955977145918
25,0.5511916066141802,0.5512675024724033
26,0.5512158128540767,0.5512163454016864
27,0.5511649227856515,0.5511276966071194
28,0.5512658316965381,0.5516032691141604
29,0.5511984767867247,0.5514107349658365
30,0.5511340515469378,0.5510751636506869
31,0.5511492573288961,0.5510480976613984
32,0.5511346793974905,0.5513411982818238
33,0.5522506246223517,0.5520898444474226
34,0.556643642442793,0.5516040121797192
35,0.5514071317432511,0.5513596866733596
36,0.5513005785355304,0.5511319779424
37,0.5511966939122409,0.5512419968195069
38,0.556534393302479,0.6039538094263636
39,0.6022099933741515,0.6012199449647092
40,0.6011678510687273,0.6011833903741056
41,0.601140415660915,0.6010576196752012
42,0.6010927018010238,0.6011115326159375
43,0.6010593040064234,0.6011559444466186
44,0.6010628326024196,0.6010650319439353
45,0.6010321785181534,0.6011073279801069
46,0.6010501440566518,0.6010242311636834
47,0.601010910097003,0.6013712709775818
48,0.6010217657144575,0.6011267568415
49,0.6009945984291437,0.6009620371575921
50,0.6010024106711487,0.6012517696423096
51,0.6010287250669915,0.6011915969596849
