epoch,loss,val_loss
0,0.4070906407840104,0.403319188081141
1,0.4031665724935597,0.4028294054817657
2,0.40296445505715456,0.4028308379407798
3,0.40306597986607323,0.4024196514510457
4,0.40232829300745965,0.40265408181492934
5,0.4026133832561207,0.40204054285926405
6,0.4022045822860166,0.40236433330738147
7,0.9275065547188932,1.0
8,1.0,1.0
9,1.0,1.0
10,1.0,1.0
11,1.0,1.0
12,1.0,1.0
13,1.0,1.0
14,1.0,1.0
15,1.0,1.0
16,1.0,1.0
17,1.0,1.0
18,1.0,1.0
19,1.0,1.0
20,1.0,1.0
21,1.0,1.0
22,1.0,1.0
23,1.0,1.0
24,1.0,1.0
25,1.0,1.0
