epoch,loss,val_loss
0,0.5406701118800131,0.5039114292527033
1,0.5029964547199347,0.5023482480285015
2,0.502448182303471,0.5023124056173276
3,0.5023633301657615,0.5020790499449723
4,0.5022010725967382,0.5021132548990866
5,0.5019725970234439,0.5017939927900937
6,0.5041502330673093,0.5088626214610559
7,0.5134039951224904,0.5521710057835627
8,0.5523791217667177,0.5516796296922976
9,0.5520316123137315,0.5516147986279227
10,0.551571766296697,0.5517040238136978
11,0.5518127726955753,0.5515795402608638
12,0.5515347749234032,0.5515812100475509
13,0.5515327029864868,0.5515211481687965
14,0.5514101221707566,0.5512929108335193
15,0.5513977030549266,0.5519735871117437
16,0.5513917165142304,0.5516916513395665
17,0.5514842940239623,0.5512530841022063
18,0.5520300952734313,0.552408028495147
19,0.5518683054261695,0.551900680285324
20,0.5514243366825143,0.5514256135942597
21,0.5514618482210749,0.5512319514443614
22,0.5512637591861627,0.5516850140400684
23,0.5353991938012641,0.5018773524604451
24,0.5016213912329418,0.501440231456858
25,0.5013895215674185,0.5014494820892081
26,0.5013887408091633,0.501550862826827
27,0.5014807789616798,0.501392312384568
28,0.501581942622109,0.5032416209448363
29,0.5017208437722669,0.5013843845030004
30,0.5014214877706743,0.5016335252544057
31,0.5013850016053825,0.5020540670419432
32,0.5013546006611083,0.501434530348783
33,0.5013572757933854,0.5015427291497401
34,0.5013236493341379,0.5014085030440245
35,0.5013068496273422,0.5012636187626707
36,0.5013198533468628,0.5014217766728006
37,0.5029422136629749,0.5013275923559699
38,0.5013915700335293,0.5014769973093429
39,0.5013043207176701,0.5011686354719382
40,0.5012834442767183,0.5012597693409904
41,0.5012728669194463,0.5016110823403205
42,0.5012673784536151,0.5013362142430878
43,0.5013120686679684,0.5012394423728636
44,0.5013106697184363,0.5011596796255898
45,0.5012359168947623,0.5014991709092543
46,0.501251117585792,0.5012702216927127
47,0.5012541549785723,0.5011718316941066
48,0.5017107074409338,0.5022669985206502
49,0.5018140766861963,0.5013826240172968
50,0.5012573728543922,0.5012872124619383
51,0.5012600171867095,0.5012465788766431
52,0.5012271573626105,0.5015618653927452
53,0.5012467198048574,0.501183424418893
54,0.5012386770725228,0.5012381867613133
55,0.5012202760935929,0.501448230585712
56,0.5012428537045164,0.5013759747343971
57,0.501224193886894,0.5012104177694576
58,0.5012002632690316,0.5020754852237371
59,0.501199070179879,0.5014781272844869
60,0.5012231808690263,0.5011530312797806
61,0.501190865818452,0.5023534562931528
62,0.5012371346383178,0.5014131677582356
63,0.5011881378206604,0.5014547617525946
64,0.5011940799687596,0.5011726515869006
65,0.5011758544071824,0.5011891926046741
66,0.501605048925644,0.5014508400140195
67,0.5011522133979979,0.5011588941211831
68,0.5011712339501858,0.5015245086336129
69,0.5011748136226932,0.5011610597376788
70,0.5011701894883015,0.5016533670320158
71,0.5011646868267939,0.5013789017133833
72,0.50114987902979,0.5011382870907365
73,0.5011769680525294,0.5013518733402387
74,0.5011876605796356,0.5014935513327987
75,0.5011740225966017,0.5011253798549395
76,0.5030657236895087,0.5014983483187752
77,0.5013126771597407,0.5012508754088838
78,0.5012408132940466,0.5012291428284436
79,0.5055245913510583,0.5013357647140764
80,0.5013231678371314,0.5012343970294678
81,0.5012435062595608,0.5011785623003836
82,0.5012585201385976,0.5013195581666738
83,0.5012088508166973,0.5013417016518993
84,0.5011831386475665,0.5011269281558693
85,0.5011874742298807,0.5011373248500863
86,0.5011640727317661,0.5012977635489393
87,0.5012191470421528,0.5011811440513875
88,0.5012334438082179,0.5011223752157488
89,0.5011532696059338,0.5011499664301491
90,0.5011451669522504,0.5011129571423373
91,0.5011893415156511,0.5013932948531244
92,0.501146257780709,0.5015156752290434
93,0.5011592004994051,0.5011181704048052
94,0.5011565019570603,0.5011008005634799
95,0.5011542118540578,0.5011690686491911
96,0.5011560868397196,0.5011254966363123
97,0.5011492649351565,0.5011447048459864
98,0.5011275927605425,0.5012362032669658
99,0.501154189149968,0.5011542851875297
100,0.5010980931831479,0.5011881663862895
101,0.5011389755793783,0.5014035903226199
102,0.5014299880413357,0.5011304986132352
103,0.5011770832401117,0.5011772448597814
104,0.5012349535012213,0.5011444108456264
105,0.5011206958184224,0.5011093775175745
106,0.5011402284715593,0.501258859809323
107,0.5011080002870235,0.5012363906661651
108,0.5011526380420954,0.501100579632527
109,0.5011299649198628,0.5012911712297925
110,0.501145472028548,0.5010985285966608
111,0.5011557763463239,0.5011372940254832
112,0.5011210535377921,0.5013970870554816
113,0.5011355229063696,0.5011445514518192
114,0.5011148336919262,0.5010685347906839
115,0.5011355516451896,0.5012984126072678
116,0.5011232519701626,0.5011462266196783
117,0.5011249368896286,0.5011186836275843
118,0.5011241699097735,0.5011880606748915
119,0.5010881615952506,0.501371305154887
120,0.501124442708685,0.5020240255721281
121,0.5011168595833108,0.501144880346974
122,0.5011282917413212,0.5011049198720007
123,0.5011235998263514,0.5013319708315819
124,0.501123590565815,0.5012408753879793
125,0.5011116734641277,0.5010832306580334
126,0.5011010206748975,67.73158840736889
127,14.4063393417778,0.5511860940614276
128,0.551211262109829,0.5511961994245731
129,0.5511507309807444,0.551637461890829
130,0.5510946127073906,0.5511512940026889
131,0.5510823530372491,0.5512801678015615
132,0.551067768048037,0.551114057536653
133,0.55114795021525,0.5533824970566206
134,0.5510848089070053,0.5511131456906556
