epoch,loss,val_loss
0,0.5191640345384178,0.4235852649810282
1,0.3633796282047086,0.29954157914340074
2,0.29676084525936797,0.27470503007697605
3,0.29392296296777387,0.27553856272864924
4,0.31497172645622973,0.31277075374606284
5,0.3368805688348034,0.33307417634442366
6,0.3336868271720019,0.32912192877673124
7,0.32745556245080765,0.3191310131088805
8,0.3290678363719242,0.3125103645749984
9,0.32802544883210405,0.30535683487472143
10,0.3269744880384297,0.32374396362733726
11,0.3276674728527915,0.3169450026708225
12,0.32883988940220277,0.3036583292503101
13,0.32875381006325466,0.32896652813021743
14,0.3320202783619662,0.327224287703551
15,0.3305378025479549,0.31429807276074684
16,0.32978128694849523,0.3110038206486977
17,0.32901651771377316,0.3129722580678273
18,0.3298018332555902,0.3121182899966236
19,0.32856709560711417,0.30924285500183196
20,0.32818752076986024,0.3174052151433106
21,0.3294887389901349,0.3219090514326058
22,0.3285377236793367,0.30663207973094087
23,0.32929380355979043,0.30880864457342694
24,0.32955551159372337,0.31700182958390644
25,0.32578693081339677,0.311752106556294
26,0.32590916200126296,0.31678110942091636
27,0.3273133425165614,0.3138523641870825
28,0.32662367015529115,0.3108329762129117
29,0.326022815349386,0.30551157076714447
30,0.32380866855502033,0.3169116038408633
31,0.3182256777795385,0.34064366028077414
32,0.2577216383471763,0.2082460838081146
33,0.224026773110044,0.19414768087506387
34,0.2197704741732775,0.2100864943666729
35,0.22092477383492568,0.22169997456653343
36,0.21979574570290858,0.19311456850361616
37,0.22021141832323668,0.20240625122822262
38,0.21920093417548828,0.2310439172864619
39,0.22147432754603888,0.197782881516778
40,0.21760451085537935,0.20221922894162087
41,0.22029682998057845,0.21301838421595784
42,0.21908506207305084,0.18538523835277784
43,0.21738418880745852,0.19579629543595364
44,0.21885688290250102,0.1869761184881123
45,0.21368443200604426,0.1904902614141508
46,0.21336652176509754,0.20353125891962104
47,0.21616119321444624,0.1911424553784782
48,0.2130239850027765,0.17846898090067867
49,0.20528858829792931,0.1744414609463646
50,0.2095650258741314,0.20921253994542402
51,0.20528909661691727,0.19534477524477004
52,0.2023893599089482,0.17561035169892736
53,0.20671710475600308,0.19023597552113958
54,0.20568648560179603,0.1797661990303643
55,0.20260161243015817,0.20255481277099255
56,0.20540741605343196,0.17178306726837309
57,0.20322867348897372,0.19524912178610476
58,0.20604089489705463,0.19081152874414808
59,0.2015858655520004,0.19422720846644329
60,0.20507854108901905,0.1960865668217404
61,0.20519135288483234,0.20032300577214504
62,0.20327460803359532,0.1812311298116136
63,0.20124023379110317,0.19076880444526295
64,0.20428048746048402,0.1693846622765676
65,0.20635198590328557,0.1954565898301381
66,0.21028947956461033,0.18412273986986893
67,0.20280362950335684,0.18419517586103273
68,0.20526797191011342,0.19308050379051217
69,0.20600772734811837,0.1720702821166852
70,0.20324969179719854,0.18242488779133478
71,0.2021794235773033,0.19724174836487307
72,0.20143839855083553,0.16862478514731918
73,0.20701080008590822,0.16636762233493643
74,0.2039722339343205,0.18785809736695927
75,0.20409131322285348,0.18515490965760403
76,0.2046441853784924,0.1673252635121628
77,0.20219318319162685,0.18891894732673242
78,0.20237548181193052,0.17596099385146372
79,0.20482028829608317,0.17912312902233782
80,0.20586043841046966,0.19399155340000881
81,0.20465406416345844,0.18798319212122047
82,0.20495348737584793,0.16880595054839104
83,0.2076733702783295,0.2154197569263198
84,0.2087052079568283,0.18085245370582603
85,0.20139396436613718,0.20886675166679164
86,0.2054397687792397,0.18572417602542826
87,0.202665067857785,0.16970454304587115
88,0.20626204075525514,0.18417114495713596
89,0.20194490309313332,0.1983467841839922
90,0.2033273398840456,0.18411140750737856
91,0.20504012416235262,0.1771053255027735
92,0.2069968866001216,0.18882961479480942
93,0.20279421704969436,0.18705390971198077
94,0.19984798507986784,0.164882587946675
95,0.20170773904052952,0.16524088290985306
96,0.2052570434747268,0.19094129012575653
97,0.20266109054013312,0.17652343239432353
98,0.19976094399067423,0.19359385415664693
99,0.204113575122911,0.17773852604952212
100,0.20330692216646756,0.18114085725987156
101,0.2044356150223578,0.18689951500557686
102,0.20288860031383502,0.18570360514293435
103,0.205470640995472,0.19684712918094507
104,0.20126225789197438,0.18046990463887977
105,0.20034903807224605,0.2097458567973094
106,0.20026071223137762,0.19258289864755748
107,0.1988953947782707,0.16986971053911554
108,0.2027357823128323,0.17671624977426822
109,0.2066183595253314,0.1756580222894944
110,0.199619172735037,0.18758939466517838
111,0.20383857369875547,0.16741899103984742
112,0.20551684773940262,0.19539162231978227
113,0.2006400511871806,0.18839849101198688
114,0.20244247044662206,0.19160654391702367
115,0.20237324074160853,0.174426025507388
116,0.20819569080115127,0.1951928757830878
117,0.20305996285163336,0.16897126357199738
118,0.20307354676685363,0.1763983092961014
119,0.2031608882913296,0.17477116079290927
120,0.20501012313994857,0.1798685655385938
121,0.20221698010782543,0.19863408588713893
122,0.20128025959650103,0.16248024088619445
123,0.20145677641736898,0.1633506997090771
124,0.20069832329174503,0.18667606274349632
125,0.20731261204615486,0.1837305536915584
126,0.1972701288253474,0.18155036873721475
127,0.19549070035429786,0.17570780783350673
128,0.19782988721732614,0.1928907084766108
129,0.20112783149134913,0.1756010113406012
130,0.19990515570155531,0.16993509855153716
131,0.2019482719824373,0.17718038599182512
132,0.20110433130598754,0.17990270142914652
133,0.19889901177012187,0.172808715698751
134,0.2019536884294616,0.17743627962251302
135,0.20013839853324478,0.20233187605145417
136,0.2008055635302854,0.1606065458732039
137,0.1938895082278408,0.1878607693321609
138,0.19767152076716618,0.18514805721690925
139,0.20089231454115883,0.17121087699164156
140,0.20038273862654643,0.20281699763194913
141,0.20070110122076898,0.16144679543204257
142,0.20016947654273204,0.18521887340363125
143,0.20272251235828886,0.18691459952044318
144,0.20172229138233488,0.19705241802130144
145,0.20074728368926678,0.1835503245703141
146,0.19720477468485265,0.1814257729072315
147,0.20549769392854972,0.1723273750732711
148,0.19770000213317923,0.18705145808873255
149,0.20369855400255257,0.1657545768024419
150,0.19552120249524868,0.1785523001966085
151,0.20036573768209973,0.18560420109610343
152,0.19738344292489174,0.17616644992118946
153,0.19746999501538792,0.15637725025956425
154,0.2031764278737761,0.18213234660704491
155,0.200007645125917,0.1855214608872887
156,0.20058193901698176,0.19733352885061864
157,0.19708439331951377,0.1942554188696719
158,0.19878470620138944,0.1836167446792643
159,0.20172694031235508,0.18148051157605488
160,0.19633136510396365,0.19954769897856106
161,0.19750010229938988,0.17765108060206403
162,0.19572395613963464,0.17932748615788774
163,0.20089997302928417,0.1706648957757566
164,0.19849939150013607,0.1781822381733719
165,0.201712472452153,0.16454712834853116
166,0.19823834006425192,0.16602975304143675
167,0.19699561816873215,0.18503327165519334
168,0.19933825220873982,0.17416440743156184
169,0.2011867876556947,0.18928977349609866
170,0.19742231319348016,0.18488513187291403
171,0.20322536598506877,0.15701317497850312
172,0.20007239213640646,0.17389126271362274
173,0.1964868761533551,0.158879300895505
174,0.19967766778527213,0.17501196568653918
175,0.19834406455929618,0.15439435794373244
176,0.19945957003046663,0.20625264590992737
177,0.1991131166509873,0.169148066073021
178,0.19834236987679602,0.18258992055079648
179,0.2022384062504692,0.17424263174174429
180,0.19684435413490764,0.17221239143313624
181,0.19712370307111055,0.17786077024810598
182,0.1976260961138373,0.1805206869259159
183,0.1993718153114418,0.18923929205492152
184,0.19804651013833824,0.1776389798359694
185,0.20038068553598093,0.17088047488524205
186,0.19646406221947224,0.16496777422755557
187,0.19739156411729938,0.16643306535345978
188,0.19336752451771647,0.18544560714368286
189,0.19718392320173822,0.16845938829145002
190,0.19669173084955802,0.1639138600350179
191,0.19686952106458105,0.18145374042270873
192,0.1964510176524365,0.1704840081455017
193,0.19798165197066553,0.18153960665286575
194,0.19920440742390141,0.187836340648411
195,0.19825609324337673,0.18060725296964397
196,0.1990350229229382,0.1960462056682537
197,0.19834118813490695,0.1701326849969617
198,0.20038879264911397,0.16367433405383516
199,0.20032584985835755,0.16555486799415492
200,0.19772199623518996,0.2074989755509308
201,0.19999147362584213,0.1694404227393014
202,0.20330339038877082,0.16430351729692205
203,0.19804388406179507,0.16218000230538912
204,0.20334121444337755,0.1697206750641494
205,0.20253734756335556,0.16970725499840356
206,0.201008487805474,0.1587568944659681
207,0.19779239367428633,0.20259583709083773
208,0.2007371118719534,0.18268958841992253
209,0.19744203248017317,0.16000242593632782
210,0.19865044309414454,0.17623356624485098
211,0.19969722349271118,0.1736840704880837
212,0.19586950137937287,0.18003390495383842
213,0.19596183510850088,0.1740060806415546
214,0.19991514354729825,0.19297329311118694
215,0.20217685322824427,0.17338977691782867
216,0.2001645628878062,0.1895939557921162
217,0.198353227570379,0.18601476341697676
218,0.2017593719392753,0.1709967798008727
219,0.19590069916989686,0.1718963148467825
220,0.20139912059076492,0.1878952684370476
221,0.19897293057039583,0.18042772736667928
222,0.1994763993614202,0.1818918471342951
223,0.19686593478627437,0.1980295517285602
224,0.1983835128345173,0.17144310496741613
225,0.197315248040606,0.18144175625496617
226,0.19833672998382224,0.1811629608449921
227,0.19779513474943922,0.19862822377973405
228,0.1987487711756826,0.19328112921426874
229,0.19423981418283723,0.15468171856350663
230,0.19877497437927458,0.15996768936550138
231,0.19905766762560792,0.19067687551243248
232,0.20023482433445067,0.17540156236763724
233,0.19732831903308226,0.1762337889978052
234,0.19841923290710273,0.1636382903089275
235,0.19919338079093457,0.18746575603780544
236,0.20394899961735896,0.19958406485670085
237,0.20015230111414484,0.17053319991293533
238,0.19902330745371888,0.1740883193621978
239,0.20060836559505485,0.16296442435214908
240,0.2002027504128232,0.1563897742680329
241,0.19968873055147038,0.16710342714987877
242,0.19974765753884205,0.17521279122336417
243,0.19782001408431932,0.1661757338018801
244,0.1934017464042091,0.18473191526383984
245,0.19805576837510705,0.18528581573536007
246,0.20248758895910807,0.2057593768284654
247,0.19764698362893623,0.18430050511292426
248,0.19873034559208141,0.18951564589728495
249,0.19509599743772754,0.1739409303890972
250,0.19699927328897418,0.16778992015306837
251,0.19748445725936492,0.16671256796290015
252,0.19849894403648985,0.1764737870999933
253,0.19623509928476895,0.18505858376492829
254,0.19894394834788678,0.15901083168121616
255,0.19758260306075132,0.18445037521757096
256,0.19817147847655103,0.19211175693191687
257,0.19471155797286951,0.18508962422444675
258,0.1929080891821215,0.16244680022243072
259,0.1960346144285324,0.18146182649607911
260,0.19901436137304984,0.16472435133985958
261,0.1940461793999306,0.17323257159603422
262,0.1987599808570864,0.19231059202878797
263,0.1972219165173366,0.1766279665099041
264,0.19634765782635466,0.19745444514051422
265,0.19782704018431602,0.1805132339696011
266,0.20084061559370095,0.17772884454045976
267,0.1967752550324376,0.19774964080142898
268,0.19758818879259005,0.17344940801304726
269,0.1983283543877369,0.17301315957152572
270,0.193624238607933,0.18595408397155572
271,0.19728808890548732,0.1620719045659361
272,0.20087710140849188,0.16985795361702144
273,0.19825499348765274,0.17839431755638724
274,0.20190988641253096,0.1608341909715672
275,0.19846317158352367,0.16587982125045186
276,0.19860866285866494,0.16929944585229623
277,0.20036424648799867,0.1977816119307877
278,0.20257291893402546,0.18326519627268142
279,0.1994143517540513,0.19115119562105767
280,0.20119648492283862,0.185075365118653
281,0.19455816532424886,0.16159730996780727
282,0.1991859066436331,0.1754728037372949
283,0.19782073386043286,0.16197017592619795
284,0.19971291941228053,0.19431518716847887
285,0.19643780441402342,0.1869335537033939
286,0.19982715384613314,0.17994798819851293
287,0.20147621594101406,0.18546041010069678
288,0.19922682645914558,0.16621529451485403
289,0.19623591799101384,0.17262357057034733
290,0.1973733542074593,0.17960101948211582
291,0.1953635660530947,0.16931610927867813
292,0.1944494928768594,0.15779881265187884
293,0.19683989376830255,0.16881392116422436
294,0.19469310874513965,0.1642878449800547
295,0.20144076327935492,0.19110870764729726
296,0.19664520320656012,0.17141837788409103
297,0.1973111197757397,0.1777232362114734
298,0.1950968152208389,0.15909014190617
299,0.1978527384696247,0.17337527600629365
300,0.19849797159576302,0.1819590954043871
301,0.1945119726595928,0.1934461509066486
302,0.1982125223373814,0.19532349573973135
303,0.19757759144647324,0.1790090028046621
304,0.19923100558568915,0.20157524274152006
305,0.1972795319345167,0.1689018274656693
306,0.19469501665956396,0.16602199556983732
307,0.19490237176704178,0.17331766111933536
308,0.19702730599424537,0.1969509850290693
309,0.19679198948313578,0.17457188400068713
310,0.19664520150322995,0.1577498729339997
311,0.19918980630491373,0.20136197502912268
312,0.20101905907753656,0.17676769137006157
313,0.19667275429224607,0.1996225118637085
314,0.1940293461322594,0.1816250467239258
315,0.1994307679321459,0.1994703021944275
316,0.19994561954868212,0.18433469583316403
317,0.20019149082265408,0.16548709339670242
318,0.1962434384260151,0.16562708927687456
319,0.20011017996844627,0.15438904712636733
320,0.19421973259900685,0.1865721079737724
321,0.1985766080488785,0.18922669132958272
322,0.2008526034945016,0.1935731380142936
323,0.19770782830999148,0.1741979978596402
324,0.20084231672026842,0.16318468898887603
325,0.20108555422888863,0.1688092064462314
326,0.20002995390328857,0.17772577254905791
327,0.19642926463120275,0.17933703263914294
328,0.20157084805812006,0.15255317020787906
329,0.20136833472027005,0.1717961179687926
330,0.20118691332691865,0.17089894907909203
331,0.20040739821396666,0.17226370659839854
332,0.19850575898905737,0.1675082381870583
333,0.1972457098898937,0.17735874089511625
334,0.20288421050440683,0.19180299695684105
335,0.1958430240408694,0.17694164562055983
336,0.19788113968382828,0.14999005309031907
337,0.20038695201027593,0.15913383570965012
338,0.20926542785003793,0.15861208867443388
339,0.19894092768240126,0.17391248995286795
340,0.19608495000312082,0.1644559655259139
341,0.20043535856939523,0.18209740899403262
342,0.19838270135253644,0.16926918669817667
343,0.19872572130674748,0.1573291287214246
344,0.2033474204613627,0.17688957201324304
345,0.19879381308595626,0.17131808295481396
346,0.20139663157869966,0.17320172454582583
347,0.19728560922600383,0.1660224866260199
348,0.2017923190558462,0.1911358784857752
349,0.19686590836083384,0.17589162068989866
350,0.20028225978096423,0.1835876451106926
351,0.19823410276838724,0.15838333462154008
352,0.19747034031495775,0.16728835714644302
353,0.19806781412362098,0.1700677336226699
354,0.19741544736136826,0.17497568247632522
355,0.19326320036257105,0.17610910090293674
356,0.19913789781210997,0.16922683696297086
357,0.19259575233875895,0.1780088712897184
358,0.19708936808587646,0.17228716257856697
359,0.19581445553701082,0.18270530619297615
360,0.19583364612431073,0.15647226754331928
361,0.1984354269197233,0.1856599037301004
362,0.20354290799700098,0.1867285082329891
363,0.19804459186099607,0.18714348108587814
364,0.1937368924704959,0.2135275094266378
365,0.19936832469358717,0.17238947425710938
366,0.19352661798016535,0.17735215598142515
367,0.1952046471045648,0.16511010034590512
368,0.19759987937889512,0.19243434859526468
369,0.19950760724685557,0.1913941411188294
370,0.19600140676795721,0.19053532070264914
371,0.19455929885474707,0.15708184675052586
372,0.1990881633641813,0.1767203311047031
373,0.2031956915256026,0.16751858553222154
374,0.19586032468804734,0.164119380566673
375,0.19876860692608747,0.18187959646275406
376,0.2020031793130864,0.18243580649664953
377,0.19943274219306728,0.1829941810094755
378,0.19553007892996288,0.18411152698717065
379,0.20018424991842845,0.19172960743249262
380,0.19915690083059667,0.20751072347587549
381,0.19716200680970003,0.1669624871453057
382,0.19719269713290113,0.1732383060262442
383,0.19916291727269772,0.18167503259270418
384,0.1995806607553999,0.1825531284665158
385,0.20049776177373912,0.16348979401607258
386,0.2015279669532006,0.16216956885809397
387,0.19807855363825053,0.19149990764394367
388,0.20105577790908677,0.18472226430980257
389,0.19992854224620676,0.17868419379678033
390,0.19525522664844466,0.18566510689333846
391,0.19914790891486106,0.1463760837101052
392,0.1977212346262402,0.16482182358698103
393,0.19912590034049954,0.16788507903901817
394,0.19677404576330354,0.18314607548450237
395,0.20102297375313669,0.1857742266501605
396,0.19590211172493624,0.16239538463016334
397,0.1954513099148786,0.1604936123011897
398,0.19697574570739299,0.19182559298593976
399,0.20019558123309167,0.16138538226614624
400,0.1970384263103719,0.19447435725600867
401,0.2019259815307544,0.1589161563597049
402,0.19901703540488874,0.1834437486310596
403,0.20131923239246355,0.19489073885079905
404,0.196619550994546,0.15358297217522632
405,0.19683831248232883,0.1713170073661827
406,0.19859657792760124,0.18615554697699874
407,0.1996260101941945,0.16778823949731797
408,0.19841808392751895,0.17277822584125502
409,0.20010351954246883,0.17272809996977506
410,0.19549952592733477,0.17296212449399334
411,0.19345389398263035,0.18306719745202807
412,0.1945644658115461,0.17264545007352294
413,0.199085064220438,0.16585479926056249
414,0.1994924403363757,0.15888483768245226
415,0.1944753536991745,0.15505796088745205
416,0.19908690541911184,0.17007715855420058
417,0.193594261896696,0.20586588596535557
418,0.1980829990739159,0.19597137562383699
419,0.19904542341530562,0.204254663710342
420,0.205335326897774,0.1895092123003578
421,0.2012504957360234,0.19561459379301546
422,0.19679037665577528,0.17204250102449611
423,0.20002169484238355,0.17341401198057085
424,0.20051199198960304,0.17808902727023954
425,0.1994181482685651,0.17525097803045844
426,0.20364413396727077,0.20392150511258025
427,0.19937468661988478,0.17635151068808624
428,0.19515377832211847,0.17873176004393607
429,0.19864269222715775,0.18450093498687248
430,0.20083009747030448,0.17607589444732138
431,0.19738575361734575,0.19334980192716986
432,0.19601359665036489,0.17281351397850425
433,0.1984444992612306,0.17835548854100017
434,0.19775096127550473,0.1956550252889213
435,0.20152134205297315,0.1776129959861218
436,0.1987147173173517,0.1817623449293948
437,0.2009579704629241,0.18365458022117992
438,0.20287719203366172,0.180934563220347
439,0.19840328740201693,0.17887084871742231
440,0.20074206128490152,0.16932672874938812
441,0.20166448380449692,0.1758666214927878
442,0.19932580915548437,0.21805565724856477
443,0.19721449454196638,0.1613730428462529
444,0.19703696352495945,0.17568516445470403
445,0.20035509443540367,0.18309420261358594
446,0.19761668759093678,0.17491803425875063
447,0.20015484415036405,0.15984905365892724
448,0.2001458503228488,0.17586763588904206
449,0.19633768953317457,0.1779972801386322
450,0.19901719118217578,0.17694289395445995
451,0.19899843300251271,0.17479733553521729
452,0.19720566558609193,0.1649114998335338
453,0.1958819765755408,0.17723371363711715
454,0.195058983370221,0.17618836063800503
455,0.197714171660461,0.17202184852080357
456,0.20100159367783177,0.17060628663910216
457,0.20380306139671736,0.16675318748158738
458,0.1980781133393113,0.16889535837410563
459,0.20091849292734926,0.18853366835999885
460,0.19858496744546006,0.161265883950521
461,0.19982341968779752,0.18563129594689198
462,0.19573278305865974,0.15907281285538483
463,0.19817890622299447,0.17902963248029316
464,0.20089880224588297,0.18487693334105643
465,0.1910521817936314,0.17996783693333546
466,0.20206919301161283,0.19130250539898214
467,0.19204665498315193,0.1892017936179651
468,0.19521349324858922,0.16410443558406906
469,0.20177892602080827,0.17758610876366768
470,0.1992858714944453,0.17039136894358925
471,0.1949419158635189,0.1659596494877536
472,0.19511567243783595,0.16795298058448482
473,0.20011178153953393,0.19723124972646783
474,0.20093718559431326,0.19536811516759145
475,0.19773966931015086,0.16253082115488346
476,0.20015139986785482,0.17547474068831342
477,0.1939461337540933,0.18221150128128213
478,0.19858559062607664,0.17591286724067243
479,0.20026689819652113,0.1785675501531753
480,0.2002242111759506,0.16828669669972504
481,0.19683901944773183,0.19718865330471425
482,0.19756673716550632,0.18140212154190843
483,0.19905402787702736,0.20262446232733994
484,0.20084885093900892,0.16947390446064503
485,0.2041076335916035,0.17733393000305028
486,0.20134596249087156,0.19541931930920603
487,0.20038152808289258,0.2096468913997358
488,0.2029242354343168,0.19302081485479577
489,0.19873653763203883,0.19690426940652642
490,0.2020624445901691,0.18337043356547322
491,0.19775087942632077,0.17610418427244545
492,0.20579309428600576,0.1768901236031878
493,0.2032912147702645,0.18264118133328897
494,0.2049524323593417,0.19178258465939652
495,0.19980458856272182,0.19506118951722592
496,0.20281338069340785,0.18515334113103343
497,0.2065109707814136,0.1938745415789364
498,0.2009734475522114,0.21835058168952826
499,0.2092166472312739,0.19433919046935644
500,0.20637151202876314,0.16579997238439184
