epoch,loss,val_loss
0,0.5550976788564075,0.48475693070992015
1,0.49083505269530103,0.48138214359625925
2,0.4890186454204442,0.480989290934994
3,0.4888430077680867,0.48742302403077425
4,0.48865238098884756,0.4831269490220176
5,0.48733921289491616,0.4821162826918953
6,0.4873516516362449,0.4796152119572556
7,0.48710074376383367,0.48245411638490965
8,0.4863361908163098,0.476596173237136
9,0.4875743961591515,0.4752450878919347
10,0.4871794203464552,0.4859924109648228
11,0.4869491523451847,0.484047768830124
12,0.4863868587785106,0.4816900976031619
13,0.4866652806147302,0.47774719632132934
14,0.4869642033994341,0.4831766683987585
15,0.4859310119367427,0.47732918038552635
16,0.48619199269633595,0.4837568336664078
17,0.4858783477192207,0.47997204840606655
18,0.48557127760849794,0.48098299405945505
19,0.4852983270832103,0.4802221890830015
20,0.4859021846577227,0.4800488003004039
21,0.48511554381782584,0.4840419103098179
22,0.4849027911012026,0.47688717285102056
23,0.48531512980409663,0.47842642596695684
24,0.4844022942818612,0.47742604263767824
25,0.484847610886339,0.4785906874766572
26,0.48371376030498464,0.47624572034228385
27,0.48427242655262387,0.480442343707525
28,0.48439629228233244,0.48024839172235323
29,0.4835600087777983,0.4801776532169017
30,0.4823139918793877,0.4717059030529073
31,0.48333482415698986,0.47123034396036084
32,0.48188131391335065,0.47310822153053794
33,0.4822596594345846,0.4805299263350495
34,0.48233285623726896,0.47238771526853024
35,0.4822975101349927,0.47594335609378075
36,0.48188848450458305,0.47042572655918663
37,0.48200480177772226,0.47474998633223625
38,0.4816296548961545,0.4758837786403903
39,0.48143570113191597,0.475789575122338
40,0.48227481978783887,0.4788281402911553
41,0.48252510239513846,0.4736702737134559
42,0.4820326540848429,0.4747018880418839
43,0.4820276884247454,0.47371811265068536
44,0.4809818326069011,0.47337148866036227
45,0.4816540764699832,0.47090003261344116
46,0.48188429432426044,0.47327145936457116
47,0.48225146192583823,0.47221942345928564
48,0.48246965550785537,0.4785682929719445
49,0.4819973424541579,0.47672977095621255
50,0.4824870370036597,0.47696940399759286
51,0.48348527985939876,0.47804785795633303
52,0.4834617989169036,0.47507199779117587
53,0.483131109107789,0.47591638866144553
54,0.48247798447081036,0.4740227032996767
55,0.48172373431239673,0.4797366550802338
56,0.48183812589334735,0.47551155690141994
57,0.48069809038909694,0.47355747187617453
58,0.4808863840467162,0.47331718753526414
59,0.4813640449377749,0.47484256031951666
60,0.4805443335732491,0.47196788574262405
61,0.4808407376209895,0.4723753718146209
62,0.48018194604024805,0.4717519679874911
63,0.4805519852897437,0.47507866784259856
64,0.47891484227159514,0.47202108152381245
65,0.4805142354074237,0.4710541083150335
66,0.480541336081392,0.4703446617960083
67,0.4796929735955384,0.4757607789517578
68,0.4808459770646122,0.476900571194237
69,0.4815570454565074,0.4675481577228164
70,0.4804835296887383,0.4731621766240934
71,0.4806766428059335,0.47447527205276036
72,0.48206773450334583,0.4704034821716179
73,0.4812746502036195,0.47310592423486447
74,0.4814365401470976,0.4697003231899138
75,0.48038221160761363,0.47343629624491707
76,0.480870913663547,0.48266379684562655
77,0.4808908965852525,0.47326790373816485
78,0.48254851670526294,0.47630683396778994
79,0.48299739966623123,0.47955943736958523
80,0.4809410717728422,0.4737852459219185
81,0.4798212125837851,0.4737683516510284
82,0.4808918834566403,0.4699424250020507
83,0.48004866307444993,0.469939025490888
84,0.47988611301310435,0.47123729375844503
85,0.4800258099222831,0.47095958315771025
86,0.47869721080044764,0.47537584528738625
87,0.47854846577754884,0.4760149199847829
88,0.47894827560555164,0.47465963714595094
89,0.47907425494169253,0.47850491215887275
90,0.4797563579418867,0.47072238602690936
91,0.4793400330294808,0.47219940648364944
92,0.47860735521423253,0.47149681478103694
93,0.47759038583933117,0.46718822538429294
94,0.47822854520796204,0.46948536324896206
95,0.4773697320053236,0.4672305971595746
96,0.4785131613294379,0.46879424934511404
97,0.47770141890580703,0.46990746892430035
98,0.4762859352939516,0.47419836557372497
99,0.4714373373251548,0.43232268826549414
100,0.37648745005031664,0.3482165811046805
101,0.35294021083582505,0.33965053241744037
102,0.3471718943781323,0.3300463097859483
103,0.3436820751114143,0.32664935661284306
104,0.3434848025810423,0.35019714479946956
105,0.33980603803166576,0.32797998152291014
106,0.3390835571489174,0.32852606808188967
107,0.33871134526009183,0.3223909759201586
108,0.33891877319982394,0.34195119104897215
109,0.34166233819260966,0.32522056068881067
110,0.34198582323668575,0.33192170849444835
111,0.34346615005549574,0.3356155536733656
112,0.3441985808878684,0.3383804368944552
113,0.3474889962817077,0.32762046836922276
114,0.3471347933216728,0.3361011550195027
115,0.3524120999611825,0.340037129037288
116,0.35550467716418294,0.34411589793078806
117,0.3550795244513084,0.3433427791616158
118,0.35522336353786843,0.3525204529137525
119,0.35597695753299935,0.3403330569015118
120,0.35695221729511073,0.3436568062561369
121,0.357106002722141,0.340463373307271
122,0.3601548744739293,0.3501894584817969
123,0.3587886180213506,0.3508482673973574
124,0.3609593916925595,0.3557562452653495
125,0.3597275255133303,0.35022285279553994
126,0.3633063542042419,0.34625570985305565
127,0.3629438470807865,0.34413656502985634
128,0.36224057561726114,0.35307672426939574
129,0.36345709653066505,0.35540500487882315
130,0.36343773131033213,0.35397650829524435
131,0.3632116567173736,0.3530253235194847
132,0.3633249314140073,0.34801879649851014
133,0.3630600294930567,0.34330068976745515
134,0.3645000695276985,0.3457835927052863
135,0.36243723429364266,0.3462022032526975
136,0.3645790441931009,0.35460997509881087
137,0.36444778804727596,0.347696434280114
138,0.36631202116477596,0.3547337375104945
139,0.36456948884433027,0.3496557673132128
140,0.36369390680873803,0.35337466594263994
141,0.3643947465480756,0.3495795566356361
142,0.3649518390258344,0.3552682773748908
143,0.36462754002816194,0.35252659021631977
144,0.36560725516600195,0.34979679623079185
145,0.36513522168477,0.36199099239441196
146,0.36572999149251234,0.3497620589778286
147,0.3663837556168139,0.3528764917329248
148,0.3667064196319222,0.35102410079365937
149,0.3668313043104182,0.3533588979972472
150,0.3655250873163545,0.35660330202039436
151,0.3677863811226867,0.3463574565576585
152,0.36657050469939373,0.34911074582854873
153,0.3660996443123745,0.34989040033875624
154,0.3666704177951737,0.35712383312320933
155,0.3669243940560938,0.3585266763522292
156,0.36708402396630135,0.3483929237749225
157,0.36582463089939504,0.3548978626163531
158,0.3661209128076415,0.35674992088454865
159,0.3659158180848205,0.3522478334294028
160,0.36711676626039635,0.3618424101993618
161,0.36669378641316835,0.35698516421084714
162,0.3669556407786483,0.3513973918644198
163,0.36560139238691447,0.35145048791250094
164,0.3664344046637118,0.34995453997023385
165,0.3666220065667856,0.3577526395445088
166,0.3662841328137594,0.3531028181432078
167,0.36782089071117524,0.3512054169469681
168,0.3667984612697034,0.3516989860745425
169,0.3662901977888591,0.36221317649358076
170,0.3678171485900688,0.3653976376732222
171,0.367519723985502,0.36092904245373575
172,0.36666926897639374,0.34803932989876196
173,0.3672308837004798,0.3566322038045716
174,0.36685659985938707,0.3655449308178607
175,0.3680436120068522,0.35802765942127945
176,0.3669983351306854,0.35715161815532664
177,0.36608641362971633,0.36032606958872515
178,0.3667419231909928,0.35379059136431334
179,0.36698442668937664,0.35999746941729804
180,0.36727148638688306,0.3665998785535275
181,0.367163344121856,0.35831577491365085
182,0.36790619316480333,0.35924327554623725
183,0.36760118702570976,0.35358988521319257
184,0.3680137399670413,0.35889189755624923
185,0.36791213766800507,0.3481447620004204
186,0.3682616053225039,0.35634206424760556
187,0.36735700610444416,0.3503504933432133
188,0.3674108295870437,0.35779295712356596
189,0.3680841868324913,0.3548324307589994
190,0.3694584696031779,0.36030607124248076
191,0.36800357848286724,0.35784685385914045
192,0.36767832983693155,0.356930403466665
193,0.36869177765411726,0.36211925601526423
194,0.36758684614103,0.3651322948716246
195,0.36787456824339265,0.3628286090109794
196,0.36890771354940965,0.3570668646784965
197,0.3681162484377313,0.3571756339346036
198,0.36777619884120855,0.36199546304855557
199,0.3683669114594075,0.3625351605494378
200,0.3693342323449971,0.35413560567639807
201,0.36736006723891057,0.35376327456031714
202,0.3685642016067398,0.3544359476950193
203,0.3692151995228349,0.3608432486947352
204,0.3679019030121019,0.3548965544425886
205,0.3687503637789155,0.35432401217149767
206,0.369319336567756,0.3594523706159539
207,0.3693946305510523,0.36131617664444043
208,0.369174701442345,0.3563087208353824
209,0.3700156606715932,0.36230840980300966
210,0.36908305507245587,0.3633074733151539
211,0.3680354662769609,0.3766974546162275
212,0.36904805727142226,0.35946334325712126
213,0.36959273995255393,0.3623425469637482
214,0.3682852505351142,0.3574443537838928
215,0.3684665472577992,0.35486059157793787
216,0.36918806534209886,0.3618694616050916
217,0.36840215629096223,0.35331980826446363
218,0.3693388417946825,0.3537558507947538
219,0.3689789662806155,0.35371029162933815
220,0.3694122111816391,0.3519572931993826
221,0.37028169034005737,0.35829331647625284
222,0.369917557596398,0.36390188729189094
223,0.3693264700430665,0.3648646337927658
224,0.3695333880081261,0.35868860756494725
225,0.37024300594886334,0.3509640028698762
226,0.3694526976842484,0.35492211185107575
227,0.368468573529848,0.3515828990428205
228,0.36964364776270187,0.3575406088872321
229,0.3712502126213458,0.3582116676157821
230,0.37110031053697845,0.35710154018631673
231,0.37159039855575104,0.3718614203542259
232,0.3702575298998472,0.3560199420002378
233,0.3716647292522313,0.3550863720200244
234,0.37182465013411403,0.35793141483225593
235,0.3715637068358733,0.36117177157300423
236,0.37155179448312614,0.35715133617407896
237,0.37100631407172463,0.35792840428021166
238,0.3710837112508899,0.3598963120789065
239,0.37066613154397976,0.3604731267140245
240,0.3713623660740902,0.3581581809150015
241,0.37116755420069614,0.3605517890854153
242,0.3716528719539741,0.3644794000587599
243,0.37234701970212464,0.3566400499539575
244,0.37179934562777256,0.3549843137905931
245,0.3722778067028494,0.3557049148696186
246,0.37301813674678236,0.363029959099257
247,0.3729805388777471,0.36283005076595054
248,0.37291199339331865,0.35829326642152354
249,0.3723697279163783,0.3623345102864923
250,0.37206891162408817,0.3649470973598176
251,0.37318553053122533,0.3615924753866143
252,0.3731284886122131,0.3647675628302694
253,0.3738261020774369,0.3593828706827894
254,0.372993442925999,0.35734821151539203
255,0.37372233172495967,0.3669138340001607
256,0.3742507407657629,0.3584391337590793
257,0.3733223560068914,0.3612020336556077
258,0.37275899882368047,0.3556439931833001
259,0.3724853505524133,0.36507722869480136
260,0.37235579157857107,0.36633848045506434
261,0.3737601354587183,0.3590288376046055
262,0.3743551745355653,0.36304044137813957
263,0.37407788882057347,0.36458640006365695
264,0.37460164776999505,0.3715157058169358
265,0.3753536550475539,0.36027088806021373
266,0.37477983722536207,0.36301911441754803
267,0.3752212180174607,0.37668653132413066
268,0.37561062816902696,0.3680028310420481
269,0.3740623712801724,0.37028109502773543
270,0.37538562414886284,0.3723328158012411
271,0.37477339283644345,0.37441353327002974
272,0.37529288542022904,0.371501431116083
273,0.3749669729162463,0.35960093018287925
274,0.3764121624277078,0.36225148830812753
275,0.3757269703846374,0.37540396330576764
276,0.3765196395244339,0.3751638997890108
277,0.3764869122029685,0.3683061954207371
278,0.3762069052453045,0.3630167269151608
279,0.3759070695113602,0.36768379638114124
280,0.3764011609516174,0.37077718916707086
281,0.3766787391033866,0.36427868129986896
282,0.3762509893718288,0.36537433244529066
283,0.37740369205423396,0.36962407321655194
284,0.37747336034294515,0.36600904311358506
285,0.37837651663785166,0.371161545649606
286,0.3766416032894624,0.36706784369913537
287,0.3779232024455623,0.37197171329228823
288,0.376660365090191,0.3639584694119448
289,0.3773298402674955,0.3687463980212208
290,0.3769739800029331,0.36541143407855525
291,0.37687050570829883,0.37461595527751296
292,0.37687741804847136,0.3824796297932198
293,0.3783946503981126,0.3648567262275443
294,0.37813407131474464,0.36591156453905654
295,0.37783422316912174,0.3671655038867113
296,0.3772397602705075,0.3653532305898493
297,0.37745663928661605,0.36443764853402205
298,0.3787990545840572,0.3621650153055093
299,0.3783334222652739,0.3654197314026418
300,0.3795087226956106,0.36716450919009797
301,0.3785141193085342,0.36743543664582995
302,0.3785262395390313,0.3638444977570634
303,0.378158722445071,0.36638432494184586
304,0.38018494504961753,0.373472630177884
305,0.37976819262516015,0.37947417441652626
306,0.3790488839030361,0.37651766621417293
307,0.3799661449629435,0.37103352613964696
308,0.37982597203849316,0.367343359018934
309,0.3786359819100439,0.36857947180284323
310,0.37929156133168035,0.3667179594946924
311,0.37935983367579923,0.3751339834321646
312,0.3804984321887735,0.3708350835066662
313,0.3805791893236929,0.3688061272618144
314,0.3799547109601023,0.3697252190527054
315,0.38189845838897424,0.37318308784346366
316,0.3806216722602943,0.36505247799542917
317,0.38036893443952646,0.3620201769595835
318,0.3805619212363264,0.3742095205194854
319,0.38044158765356795,0.3684865098208448
320,0.38016843359819136,0.36820323931107674
321,0.3805721224092846,0.3606310552184565
322,0.3806671085570165,0.3664581291348142
323,0.3807150120619866,0.37274870255281345
324,0.3812908859228154,0.381928952265275
325,0.3815369676176211,0.3726860090043475
326,0.3819699793172588,0.3639019807446351
327,0.38160270071334595,0.36890590355541164
328,0.3820186733937473,0.37749348711384123
329,0.384441523529071,0.37026007495814645
330,0.3822554784665386,0.3720348768330223
331,0.3823086705853899,0.36954256038357164
332,0.3852964664558522,0.37512806288445194
333,0.38430495271913345,0.36943227240864274
334,0.3841043301194692,0.3728885357786373
335,0.3835450682541926,0.3784258442077471
336,0.38367921303359154,0.3731473860490388
337,0.3834569027288545,0.36981527797801345
338,0.3847278222191534,0.37598804375649253
339,0.3851804335673841,0.3746995387250453
340,0.38430491455500837,0.3707530388657089
341,0.3860088596574599,0.36980815922169585
342,0.3827585537704251,0.37812504061771923
343,0.38378271336654585,0.36865178199856885
344,0.3842508240783815,0.37531176211801964
345,0.384521093192718,0.370602452834949
346,0.38418515037289624,0.3868309905327674
347,0.38479444086789893,0.3753479412906078
348,0.3847288947811516,0.3803957881613237
349,0.384937701477326,0.37068136308074656
350,0.3843762852567182,0.374047528878854
351,0.3853265370110528,0.3733497974245964
352,0.38538406882211745,0.37150234040446234
353,0.38641161046963896,0.37977956321263934
354,0.38633196195252506,0.3736205406563434
355,0.3853317828868314,0.3726704516275341
356,0.3856627567232751,0.376452065869025
357,0.38601302631276785,0.37130407129297505
358,0.3852515099503154,0.3715936377374036
359,0.38647900098900523,0.37263640584960733
360,0.38486988663816335,0.3766563391723121
361,0.3857913740175805,0.37412670064179465
362,0.3863285502536501,0.37421370752232225
363,0.386903834619301,0.38506893370221146
364,0.3878812635187908,0.37357989026508465
365,0.3858680840161779,0.37601940805458517
366,0.3867162040573992,0.3715224614177243
367,0.38617126369695487,0.372778127347755
368,0.38806162960380675,0.3785178531270001
369,0.3867161467397432,0.3725811138619752
370,0.3866011549076207,0.3813582697578933
371,0.38827413559960516,0.3775801622171334
372,0.38831291727120165,0.37862880188080866
373,0.3864124053888184,0.3782449599881763
374,0.3875279376427714,0.38328026130430887
375,0.3880447655987682,0.37401597976872747
376,0.38753429405409084,0.38177972632124374
377,0.3878198196585897,0.39115797520718804
378,0.389686762822046,0.3779802789298587
379,0.38911586565127093,0.37910843293028923
380,0.38869135707116526,0.38241812704394157
381,0.3886176733066329,0.3809451030386463
382,0.3873270491449286,0.375248738086026
383,0.3874384705468619,0.3746388260548568
384,0.3884756721490674,0.37655439255457746
385,0.3895276126672896,0.3791927474873595
386,0.38781949064190346,0.3835302095716171
387,0.38693062853898935,0.3775287919752035
388,0.3887123829788632,0.3754910380001038
389,0.3898437774533943,0.3764809644542158
390,0.38830975793915495,0.38400154075663956
391,0.3893076724928918,0.3779735588942726
392,0.3884372703558345,0.3781761470138321
393,0.3900333708472294,0.38304459394765067
394,0.38877089114354957,0.38015900379386397
395,0.3893033391018089,0.37419754687781964
396,0.3895048438954792,0.37634039435597416
397,0.3878986191906803,0.37628699623889217
398,0.3890245917627661,0.3735399131428659
399,0.3884825692783824,0.38564293941551997
400,0.38959572295681366,0.37933084451032606
401,0.387930445676799,0.3756865553716646
402,0.38844276345271667,0.37192505616885807
403,0.3894238279258414,0.38919890051576783
404,0.38980762904687083,0.3801797336259976
405,0.3902688381507052,0.37656879269803895
406,0.3905330054003367,0.38034375111889257
407,0.3890079193883281,0.3841722017446652
408,0.38874534789702114,0.3780851396596046
409,0.3891678747537134,0.38214716040062546
410,0.3895879731022959,0.3785963673806134
411,0.3919027807782117,0.37805865365120966
412,0.393294007812949,0.3799851756210673
413,0.39224571019387267,0.3801746378522646
414,0.3889683908243164,0.3808170552317703
415,0.3898049093765035,0.3798454601932155
416,0.3909585511536716,0.37656582288602813
417,0.392910495138378,0.380874264541346
418,0.3933185563384772,0.3817053800176803
419,0.3908778631048713,0.3815972955563733
420,0.3908797517764292,0.37933740657243376
421,0.38978729538208573,0.38106142124418396
422,0.3918043522121047,0.37714611573678447
423,0.3911360463888334,0.38525669242607485
424,0.39175687308648793,0.3767964949077194
425,0.3916361342421729,0.38089618164437344
426,0.39205485825344244,0.38404484750628
427,0.39097048405358353,0.3768406272310861
428,0.3936814427566376,0.3957660745097223
429,0.3932179397435116,0.37988204462563985
430,0.3919164742783105,0.38609051356281743
431,0.3903318613076763,0.3803715340340335
432,0.3918868253390185,0.3819569119714618
433,0.39121911924281755,0.3851424796946329
434,0.3907067813247228,0.3779078720824024
435,0.3908388192157189,0.37984737528057294
436,0.3903732107792922,0.3874126410004466
437,0.3930820532554059,0.3834397167837704
438,0.39186218128406364,0.38160753200725955
439,0.3927987081636723,0.3853205513935345
440,0.3928773362192509,0.3840945360927762
441,0.393353916103129,0.37874307409928554
442,0.39183610883786335,0.38381672093693253
443,0.39159090944426617,0.38823936734974807
444,0.3925608982094567,0.3849473970324013
445,0.39293035262113185,0.3815101643858129
446,0.39212396472906896,0.3881118309102664
447,0.39552576438509685,0.37705845929735177
448,0.3924049612739199,0.38568903579896324
449,0.3924388607724203,0.3837952924085209
450,0.3923313832707066,0.38226513295260206
451,0.3937997873381173,0.3806658315206948
452,0.39382678593138903,0.381657056504568
453,0.39157165357058377,0.3905166528924959
454,0.39131511589415446,0.3762918317656679
455,0.39052387313257686,0.37859076654337104
456,0.3919758549649462,0.3840985759892799
457,0.39377503787918533,0.3822453178894642
458,0.39307832272409154,0.3897770233952162
459,0.392739243001389,0.3877454295625062
460,0.3919780279139725,0.37954365040433624
461,0.3929403732530028,0.3853864330613152
462,0.39249695758882475,0.38477533712289236
463,0.39373460365570995,0.3890050980126472
464,0.3936814345377717,0.38801448396462196
465,0.39305195238569274,0.3850494370793581
466,0.39297818960093384,0.39511507824827763
467,0.3926758920784286,0.3850771763377427
468,0.391669259499684,0.3860970708264454
469,0.3946927266417266,0.38005081538901897
470,0.39216701608958193,0.38572763194695364
471,0.3917464831654879,0.3809870619800209
472,0.3914482318978611,0.3823086033445131
473,0.3945216939127226,0.3825281773529941
474,0.39425635169878853,0.388498419462082
475,0.3932253319820721,0.3879811222052706
476,0.39308188628140306,0.38504420466656375
477,0.3928781035039827,0.37935692236568386
478,0.3923732430028687,0.37927566152345316
479,0.3923327617531867,0.38491425261595347
480,0.3942893417023545,0.3871935629524767
481,0.39343034489739903,0.3839185271991362
482,0.39298630596922457,0.38744700623010214
483,0.3942864207055071,0.37844439959940046
484,0.39420604293676115,0.38935116672007797
485,0.39177194459261083,0.37941427475933776
486,0.3911631132225148,0.38411597275978576
487,0.393915782407891,0.37975615439399923
488,0.3930478588068228,0.38375975108090216
489,0.39399688807036953,0.3875401234570317
490,0.3939419186515488,0.38623965400452676
491,0.39335641834280377,0.38010283093237934
492,0.39288276111145765,0.3785450344209889
493,0.3932132411608212,0.38603338368689816
494,0.39237992186769305,0.3871167218628697
495,0.3917459476765969,0.3796733121704472
496,0.39272341506181957,0.38665745276207986
497,0.3931772949979555,0.3853697197213357
498,0.39288873896657894,0.3856503627341661
499,0.3924191982316361,0.38119584561899694
500,0.3919899565734261,0.37662057436255836
