epoch,loss,val_loss
0,0.05858994301934727,0.021802676453372978
1,0.019758988639886784,0.016863760305915222
2,0.01795073038434491,0.01606741085528366
3,0.01845551097702434,0.01688872952356232
4,0.016608575304003066,0.017940343583173698
5,0.016453886765855193,0.01691562254212926
6,0.016136447363108777,0.01592870282827329
7,0.015802269489589873,0.015445547141412056
8,0.015675506724055748,0.01634537753632879
9,0.015534805804048313,0.015133692631983284
10,0.015286807462262351,0.014605606342238321
11,0.01506900484392967,0.014390654959912336
12,0.014945321203136875,0.016013918232829043
13,0.014772853592429394,0.014882545089510918
14,0.01471903924133809,0.014950733930427146
15,0.014678465953119352,0.015141097745550773
16,0.014574431335299056,0.013917360669718338
17,0.014472322385832164,0.014600779599147311
18,0.01448618983167177,0.015524122983254215
19,0.014320379200939176,0.013490685215104306
20,0.01422377159859607,0.014341634780482827
21,0.014222744463757287,0.01409219074069936
22,0.014191469738916586,0.014836579410558007
23,0.014120540141070727,0.013811828423910787
24,0.01410538436317983,0.013981422240251938
25,0.014026598537631912,0.014751534243449384
26,0.013959016938609405,0.014131332276661697
27,0.013875207260873825,0.01380561732966684
28,0.013715183788147095,0.014174294435689527
29,0.013728009438172576,0.013193575064501455
30,0.013657039587214419,0.01332012086635266
31,0.013566081766221797,0.014160296812228322
32,0.013567871931312755,0.01347346146112636
33,0.013450750691280029,0.0129358006705976
34,0.013490533577661208,0.012869785768592329
35,0.013358812376688586,0.01359806761385933
36,0.013365615764895969,0.013470269133228227
37,0.013284247736365273,0.013607160058380948
38,0.013367306393825237,0.013864725985317017
39,0.013284078134711339,0.01266440510121232
40,0.013176473012377366,0.013160908060892491
41,0.013194843069227902,0.012817603558597731
42,0.013225154655724691,0.014191821360817322
43,0.013168818943794215,0.014068465143737958
44,0.013095655710982557,0.013331285363557765
45,0.013151455118575687,0.012794769575204654
46,0.01299410201266734,0.012793407823992131
47,0.013083689540452161,0.012734156232743198
48,0.013073748551548518,0.012947068210441628
49,0.012949475696533565,0.013100015145562423
50,0.013038127751250442,0.013115870077671395
51,0.01304975280790651,0.01273306548900477
52,0.012964399124670177,0.01313247522316115
53,0.012960711043741245,0.013108223039314854
54,0.012931179973376554,0.013167812917427744
55,0.012916459292713733,0.013000018995430867
56,0.012936559840297764,0.0128394221212188
57,0.01288819818397288,0.013166777401349089
58,0.012849307131231304,0.012271461828101066
59,0.012921245608287642,0.012629409045184368
60,0.012873857998395057,0.01314266708173394
61,0.012841143592987695,0.012620554695705475
62,0.012842862769817692,0.012734320877632935
63,0.012862386159062227,0.0125296618202447
64,0.012787816699035818,0.01248276069362835
65,0.012769666268079682,0.013011900647531816
66,0.012761110670863005,0.01252810609372097
67,0.01273822422645047,0.012981248815675675
68,0.012776027286617978,0.01337117885260221
69,0.012745584049212003,0.012367462138495138
70,0.012738082507604194,0.013000977004672546
71,0.012754869451953536,0.012206993228467019
72,0.012697286949499289,0.01243724021690877
73,0.012722673944650592,0.012404814789131765
74,0.012728149333830688,0.012795265005074127
75,0.012683724637060153,0.012368902961536317
76,0.01267668237720282,0.013306819529690901
77,0.012714149458656407,0.012322704991783309
78,0.012624447301160907,0.012667252213946052
79,0.012638312465179474,0.012423791785819212
80,0.01264743933728545,0.012553864470209288
81,0.012684260605751117,0.01226385463140073
82,0.012573777790556784,0.013170857568070403
83,0.012640563841112503,0.012644311216736107
84,0.01258339127062867,0.012198926825492317
85,0.012605553254813185,0.012858472994665058
86,0.012588284540874071,0.012495699851189002
87,0.01264691282779042,0.012179490940982739
88,0.012562691447947867,0.012668011733157463
89,0.012553788163206674,0.012484762191347242
90,0.012592047706473262,0.01251051181432775
91,0.012613757656229069,0.012408693655678267
92,0.012508666917130106,0.012308595867517863
93,0.012544104752371929,0.01248458932031399
94,0.012565663390613336,0.012607598897744498
95,0.01248333959065424,0.012283627427744657
96,0.012540878709383722,0.01245608165231591
97,0.012521125454170601,0.012624122013820904
98,0.012504987035194816,0.012424785708985465
99,0.012550563278550994,0.012991390550143962
100,0.012538580994097734,0.012339460391264696
101,0.012486658144032157,0.012210042146554507
102,0.01249448006699021,0.01257349600086437
103,0.012519363370055724,0.012748680538763628
104,0.01245922087080937,0.012369732813858808
105,0.012495359127357237,0.012160992075136814
106,0.012464875198386087,0.01208222088480262
107,0.012475702072061862,0.012801075537709828
108,0.012466875170087783,0.01219185201298658
109,0.012481123396937943,0.012494825355468258
110,0.012476051651609213,0.01240460320881963
111,0.012469755860224,0.012721277247864763
112,0.012473658172115949,0.012237371537122626
113,0.012444271545530468,0.012530129558635557
114,0.012429944217149139,0.012924455961318821
115,0.01242132357238569,0.012076479446595862
116,0.012454901478672481,0.012145303623293233
117,0.01243181101030196,0.012447026612297182
118,0.012418771209934166,0.012186945865748833
119,0.012467258990490223,0.012418841428721957
120,0.012486586658180854,0.01228352384156462
121,0.01238321390105908,0.01234992232275364
122,0.0124236284349725,0.012369393435290671
123,0.01238912682022563,0.012161433188332517
124,0.012375141679782124,0.012268021469358032
125,0.012396869739023491,0.01258249048781454
126,0.012395294397884796,0.01205596635464773
127,0.012400686194044771,0.01204655092791943
128,0.012370021969559776,0.012112141674194974
129,0.012414512645248958,0.012465696969062608
130,0.012374631790526712,0.012313217356357325
131,0.01236868277772644,0.012312026663449946
132,0.012373765960089815,0.012742291383500727
133,0.012367904044407615,0.012058730803836811
134,0.012376902158533086,0.012352777697682085
135,0.01236517870744549,0.012710590535317255
136,0.0123551324317489,0.012038469621934755
137,0.012350478614291786,0.012657629435988277
138,0.012355640301345384,0.01239578459901786
139,0.012330475075593431,0.012514721489425925
140,0.012370552121764657,0.012387716768323339
141,0.012353695942854938,0.011988200789904476
142,0.012295878502747715,0.012383804293742251
143,0.012327457532090719,0.012038720474941263
144,0.012356403899097796,0.012434790615297429
145,0.012313085859968426,0.012032480736172968
146,0.012315364266787024,0.012273416607629128
147,0.012312435563897505,0.012784684088922317
148,0.012308584000698411,0.012690918008443292
149,0.012349748090927141,0.012551159362676126
150,0.012297044035564813,0.01202796187353489
151,0.012313493251271233,0.012293604839010807
152,0.01230011676633622,0.012063123316275275
153,0.01230218413212661,0.011928979410944743
154,0.01231806014100496,0.01235617769063998
155,0.012259151655262868,0.012661519811648146
156,0.012279510895308134,0.012129007543323946
157,0.012293787481948155,0.012519188284430256
158,0.012295750330891187,0.012039773277106416
159,0.01224218345168585,0.012121392979238081
160,0.01229317087267914,0.012396460468823058
161,0.01226365202123187,0.01229652673348082
162,0.012309385237201707,0.011939630326502968
163,0.012271276617309083,0.012181091902051907
164,0.012247357916282788,0.012383955430063804
165,0.01225278425220826,0.012328053096184512
166,0.012259166510339242,0.012107256772204604
167,0.012239487833257772,0.012214475661220385
168,0.012293942547126015,0.011906038970679562
169,0.012233332378408408,0.012117926881327375
170,0.012260541398175279,0.011991007201299626
171,0.012243024432519605,0.012134173640948962
172,0.012248342013741672,0.01191504396886447
173,0.01226101625522689,0.012147407646917232
174,0.01223325254456122,0.012377567727479243
175,0.012222751056493765,0.011814381697078793
176,0.012228265140456124,0.012168887183624817
177,0.012222083274555246,0.01226493901441396
178,0.01223273058429983,0.012223278993634373
179,0.012241410571102227,0.012309540859504461
180,0.01223106098804376,0.012396527242571781
181,0.012237012662288623,0.012251770200563719
182,0.012206201671406172,0.01199193847580598
183,0.012205385468971494,0.011904876985617222
184,0.012200635717875443,0.01241969833608079
185,0.012216101633098258,0.012713969411517935
186,0.01220446350848067,0.012092338995568953
187,0.012207052687317395,0.012228459085594336
188,0.012185185200282545,0.012120841807285994
189,0.012238968999233317,0.012072071169154076
190,0.012217057582506012,0.011972516206169395
191,0.012188806217851315,0.01209391640873612
192,0.012191449887692626,0.012134055046840725
193,0.012215138741497331,0.01187989833041397
194,0.01217955009389678,0.012270997477598284
195,0.012195468769060679,0.012001947462373869
