epoch,loss,val_loss
0,0.07005033432240103,0.04156082323186155
1,0.029738717660732078,0.025221269937329198
2,0.019790574383661153,0.017861412473891863
3,0.01752661239969166,0.019313147262885022
4,0.0171186592533977,0.015777243920151264
5,0.01638174054016684,0.015854495631590967
6,0.01601734692892327,0.016034456741795055
7,0.015751129008663052,0.016371920171468785
8,0.015419390286198032,0.0147820597528376
9,0.015183714795921514,0.014008850023316834
10,0.015070019852532177,0.015768354678198364
11,0.014977368477487554,0.0156708160036292
12,0.01495840442464947,0.014819882435738004
13,0.014750938775310389,0.01325258305365631
14,0.014568998768309001,0.015489413451505063
15,0.014542835809735012,0.014190631554399619
16,0.01433786509496167,0.01459993520802437
17,0.014380205453182287,0.01503437032955456
18,0.014289412787946447,0.014523879755242143
19,0.014218073033905772,0.014574818134714593
20,0.014095195797365146,0.013675001480850038
21,0.014139563081188326,0.013126580856241304
22,0.013988608538945119,0.014637338310923825
23,0.01397045046905101,0.014316680986277076
24,0.013857949248115935,0.013686721155387592
25,0.013833246993266565,0.015156679953594066
26,0.013818793245348843,0.013547348145108957
27,0.013739402755380846,0.014461834612706902
28,0.013720530641327864,0.013850674388592799
29,0.013756138914701935,0.014029088903856337
30,0.013598804584315114,0.015042931657219791
31,0.013604827089764022,0.014420283374563784
32,0.013501223957448107,0.013361060385483667
33,0.01342886489603655,0.01421775000109788
34,0.01338375399468948,0.01262780955990328
35,0.013345195985863622,0.012908714663967601
36,0.013244030680122127,0.013397941651936649
37,0.013299646283173285,0.013230627978557985
38,0.013205059994807799,0.012609247206051652
39,0.013160851420006267,0.01274803482208669
40,0.013095498334907944,0.012759945473677614
41,0.01302171962032771,0.012977120533548573
42,0.013012731639242305,0.012893629822390102
43,0.012979934239387493,0.013035362280406077
44,0.013044650876527468,0.012649235291586769
45,0.012949501784239486,0.012570647451629119
46,0.012958283682377496,0.01286896610535478
47,0.013004239554962672,0.013662662774453832
48,0.01287692636571418,0.013366803474650342
49,0.012838638765567742,0.013261868980789451
50,0.012885107018459878,0.012512118697961419
51,0.01275074259415966,0.01268415015985815
52,0.012852308225066163,0.012732472280895444
53,0.01276623864915076,0.013398828501200706
54,0.012768540503307188,0.012655433803500964
55,0.01276740958809074,0.012483698926015616
56,0.012714579157082911,0.012959550342363105
57,0.012661224225281665,0.013212353402457522
58,0.012690549813403932,0.01270511219273356
59,0.01267101716766765,0.012587418921162413
60,0.01268994165353836,0.012372778575155634
61,0.012632407912509296,0.013533995853778595
62,0.01266850612865731,0.012335540869599093
63,0.012621466495813827,0.012382616397113569
64,0.012619074485574642,0.012541063298602998
65,0.012579587066601769,0.013271131576327769
66,0.012595454028619456,0.012385541688253359
67,0.01255661431792358,0.011892112107397457
68,0.012559152633188188,0.012692606912246412
69,0.012536351912556223,0.01247491457548094
70,0.012531370758484562,0.012521668566534153
71,0.012529305522271375,0.01269716583146129
72,0.012509004733382253,0.012646902272149587
73,0.012491929858631191,0.012078958347661619
74,0.012482959103075435,0.012325703634166392
75,0.012421166864608764,0.012308119953824923
76,0.012489061761631243,0.012619280465705223
77,0.012447795016411474,0.012837681800552248
78,0.012427694961006914,0.012385725413932102
79,0.012417332408368589,0.01205099411262546
80,0.012397410020743361,0.012171550187520294
81,0.01243656903489894,0.012586499228334012
82,0.012387665261928953,0.012260496491570922
83,0.012414049027655187,0.012153877993172068
84,0.012381947788633189,0.012150549034936996
85,0.012410961275722103,0.012690919664025158
86,0.012364058888736429,0.012369389881936848
87,0.012343163586462437,0.012297741170723001
