epoch,loss,val_loss
0,0.06665836620978596,0.0305237796647525
1,0.024486422222880947,0.019608520868490853
2,0.019910549834384714,0.019104198892381293
3,0.01832687611442939,0.01816587235787814
4,0.01800701881736646,0.018040931768364115
5,0.0172320080121404,0.019451584637386922
6,0.016954977334315186,0.01818690784275532
7,0.016408825721911432,0.016076914440128702
8,0.01637769640233287,0.01748467059921538
9,0.01602566100400272,0.017067296174412626
10,0.015858885845356108,0.015932747933819484
11,0.015592182606580537,0.018070131579122826
12,0.015466809702393976,0.01566381016861712
13,0.015196183008728248,0.016259641824267045
14,0.01516552705287563,0.014942083915432097
15,0.015058884093906285,0.014088646012818251
16,0.015130917085505858,0.015433014981060407
17,0.01486393605140233,0.014531434018617824
18,0.014812988413188708,0.015919962597007935
19,0.014780723193024361,0.014888952995093525
20,0.014631851417751189,0.015640006876243256
21,0.014561564564635183,0.015362585499124698
22,0.01442681453623182,0.013724656709499898
23,0.014465593901320606,0.014000733814689864
24,0.01447586640684539,0.014507770927960316
25,0.014303425038922514,0.014297820071668986
26,0.014285953236267478,0.013758054206022998
27,0.01422481638755703,0.01365606583072515
28,0.014124073055358776,0.015016638792626024
29,0.01414988402524874,0.015757331997618338
30,0.0140931711369566,0.014106834754717558
31,0.014084749845055875,0.014281220063936917
32,0.014060649959075003,0.01329543149889107
33,0.014036054117403569,0.013638980640445098
34,0.013976486237505364,0.014138588487233032
35,0.01392064138431391,0.014436015759412172
36,0.013875144759467157,0.01376033803452703
37,0.013861717829205342,0.013564564653258613
38,0.013885346503198613,0.013225909760660924
39,0.013810556331800951,0.013643683379437433
40,0.013741054452669871,0.014991285119935981
41,0.01369987094839403,0.01297858225888857
42,0.01377047394366076,0.012994778453471792
43,0.01364530182712907,0.013788224556125127
44,0.01366715793582302,0.014042930659507551
45,0.013713615748636053,0.013997302443787418
46,0.013562323842213187,0.013372067786827129
47,0.013549769697917569,0.015253421341163793
48,0.013588866303822153,0.013600022672090874
49,0.01352877789950237,0.013371225095194563
50,0.0135394701946873,0.014189494422939665
51,0.013503761367205772,0.013460149175531367
52,0.013496327852758236,0.014706734224469874
53,0.013485387141583281,0.014255824638415064
54,0.013429045362159137,0.014250798705530818
55,0.013451085049580673,0.013389404285837788
56,0.013456981034775856,0.0136946167547265
57,0.013462681060486838,0.01319987693288486
58,0.013375651278190875,0.0134534525178909
59,0.013340241795491556,0.014237514757100613
60,0.013419701578232983,0.013163998542311914
61,0.013312965284400595,0.012998008615251806
