epoch,loss,val_loss
0,0.5610041884166482,0.5567201744533946
1,0.5564880532803523,0.5558485967053964
2,0.5560579035787647,0.5558117894321754
3,0.5559237388945063,0.5559383431971813
4,0.5558613929298777,0.5557029971413814
5,0.5558782024257396,0.5558122449418156
6,0.5557965641617388,0.5558633935362766
7,0.5558089971143211,0.5557961220185159
8,0.555797715097525,0.5557595924467366
9,0.5557657032445785,0.5559985128289121
10,0.5557604266546763,0.5556975821407498
11,0.5557585708954054,0.5556760480622795
12,0.5557453706946327,0.5559193031072025
13,0.5557356877374358,0.5557083011265133
14,0.5557312843227249,0.5557886160337008
15,0.5557306819885278,0.5556947870230852
16,0.5557216736916045,0.5557216339312475
17,0.5557161429436349,0.5556401290905387
18,0.5557123208353287,0.5556843185247322
19,0.5557209303559512,0.5558228581478223
20,0.5557037510692792,0.5556898341581188
21,0.5557101379127327,0.5557313078390458
22,0.5556917896040224,0.55564892815597
23,0.555704379923879,0.5557075180131803
24,0.5556957162296937,0.5556988908102731
25,0.5556979412449493,0.5556869854110642
26,0.5556962899515157,0.5557097064354284
27,0.5556935281260743,0.5556652287691461
28,0.5556930638833466,0.555669028084568
29,0.5556914518388469,0.5556592514733819
30,0.5556905952527119,0.55565990747944
31,0.5556869443311605,0.5556543374179906
32,0.5556855956219552,0.5556502188109879
33,0.5556870932571847,0.5557290105902527
34,0.555682129023514,0.5556525170950972
35,0.5556850203666513,0.5557057687425732
36,0.5556765674008102,0.5556494449563417
37,0.5556831144181885,0.5556410479782237
