epoch,loss,val_loss
0,0.5615913028526839,0.5567984040558486
1,0.5567258701089897,0.5563762449744913
2,0.5565134744558593,0.5562532045409342
3,0.5564135027699135,0.5564989392278212
4,0.5563336766879496,0.5568215298593489
5,0.5562656155370722,0.5566881776151823
6,0.5561904818538612,0.556096332096876
7,0.5134639492692605,0.44504810395666744
8,0.4451060538829218,0.444949215872412
9,0.44507974276489215,0.4449363584258125
10,0.4450298552371228,0.44505482712395433
11,0.44500878328659293,0.4452984069180548
12,0.4449639486110276,0.44499855297374963
13,0.4449717914727144,0.4453430061896445
14,0.44496574697595037,0.4448844951228528
15,0.4449199883794837,0.4452890278092093
16,0.44491641744471355,0.44486507483510757
17,0.4449039545604411,0.44479617367015584
18,0.44489884821188314,0.44479147274204284
19,0.4448863207344166,0.4448061310623775
20,0.44487010118578313,0.44482166980099735
21,0.4448889953004754,0.44484008676360914
22,0.4448689618023854,0.44507807410384526
23,0.44485868426951086,0.444843338470601
24,0.4448611993187387,0.4447900377195467
25,0.44484739249806565,0.4448413915285106
26,0.4448442067551866,0.4448329444558686
27,0.44484308971416336,0.44489062268739893
28,0.44483880892752325,0.44482752118749597
29,0.44481875776283775,0.4447817530732593
30,0.4448424154916894,0.444872596231347
31,0.4448247347635201,0.4447686743647526
32,0.4448315442895008,0.44479366185943187
33,0.44482329282705274,0.44479579725868945
34,0.4448183748916791,0.4447340480299209
35,0.44480861744149464,0.4450000275009619
36,0.4448198523060874,0.44479238476705907
37,0.44480982402753,0.4447364534396983
38,0.44479679246638604,0.4447777968334501
39,0.44481867803597536,0.44479733149407813
40,0.44480626698954556,0.44474943055408467
41,0.44480477676535674,0.4451308228981406
42,0.4448036863705544,0.4447790221156317
43,0.4447971167784917,0.44488795766463646
44,0.44480500125401934,0.44477610065978457
45,0.44479400607091957,0.4447172238720262
46,0.44479282846958623,0.44479839327021803
47,0.44480989416460837,0.4447424922628379
48,0.44478806410761773,0.4448284716079608
49,0.4447901170309382,0.44472237068133674
50,0.4447891321541294,0.4453607903077052
51,0.44479543557151086,0.4447272000478456
52,0.4447892854167363,0.44475190487156435
53,0.44478907618598246,0.44472071293270027
54,0.44479082756277805,0.44475305342200966
55,0.4447868860361428,0.4447424388996721
56,0.44478029136249986,0.44471060098252874
57,0.4447807709857991,0.44511234180507236
58,0.4447786849750814,0.4448182873483331
59,0.444783404092233,0.4447704897772881
60,0.4447824459985068,0.4447425458626475
61,0.4447759447769418,0.4448216635003575
62,0.4447772173425367,0.44483219879140923
63,0.4447802096974867,0.4448147663851234
64,0.4447721793404173,0.4447273247443121
65,0.4447733859789097,0.44472069695924704
66,0.44476616122561674,0.44476896537740535
67,0.4447852209831795,0.4448560388301206
68,0.44478334530363095,0.4447397543094294
69,0.4447658153244675,0.4447665799196541
70,0.4447876471531662,0.44484209203838415
71,0.44476666937215353,0.4447681044378588
72,0.44476678436712863,0.44472863915244637
73,0.4447729033044231,0.44473561600183437
74,0.4447652092729178,0.4447334999777839
75,0.4447724599601198,0.44470927753756123
76,0.44477846981943925,0.4450296729581232
77,0.4447601789445187,0.4447196436579115
78,0.4447611515956742,0.4447420659195401
79,0.4447632992335921,0.44483871377135625
80,0.4447723144753586,0.4447428838047141
81,0.4447593873128611,0.44476083761113455
82,0.44475843062088255,0.4447131684045342
83,0.44475828190744765,0.4447360804891468
84,0.4447708264823702,0.4447647859973292
85,0.44475112129653344,0.44492906187071696
86,0.4447538441298043,0.4447116079016891
87,0.4447617720713413,0.44470163403314633
88,0.44475468066668833,0.444974187955667
89,0.4447508777008751,0.4447463618910342
90,0.4447663801660564,0.4446879839926736
91,0.4447555989585119,0.44470492596957584
92,0.44475403271100894,0.44470719440699213
93,0.4447629662195286,0.4448208562049913
94,0.4447600526890216,0.4447663148047019
95,0.4447505374122383,0.4447720907018439
96,0.44475007421313023,0.44495997107945956
97,0.4447524257753549,0.44472422824604046
98,0.44475558702196416,0.4447380499271838
99,0.44474565989010906,0.44470128735005116
100,0.4447516585768608,0.44476156498007385
101,0.44475414479126396,0.4450621471067812
102,0.4447488612557298,0.44484642865344254
103,0.444749022279617,0.4447754626386515
104,0.44474700595989536,0.44470794294075694
105,0.4447547507974561,0.44490040571754685
106,0.44474244535381885,0.4447425755022773
107,0.4447549827176688,0.4447021848658474
108,0.44475152746652075,0.4447344843714172
109,0.4447425257851048,0.4451476303430704
110,0.444739520640095,0.4447868607919802
