epoch,loss,val_loss
0,0.6698756705152593,0.6673263545367617
1,0.6670146239035621,0.6667709751697095
2,0.6668976995849403,0.6669424646249776
3,0.6668577308664946,0.6667515704708714
4,0.6668690380595304,0.6668269004478644
5,0.6668349666622342,0.6669208998124002
6,0.6668268855042367,0.6668744003506512
7,0.666814932526771,0.6667800922547618
8,0.6668100168296973,0.6667843539720729
9,0.6668018602731376,0.6667769058170745
10,0.6668083450898377,0.6667627207102905
11,0.6667930823140377,0.6667532167127056
12,0.6667992493923316,0.6667711373298398
13,0.6668001137247592,0.6667724887431408
14,0.666782341634512,0.6667535317742795
15,0.6667865248107665,0.6669447941756426
16,0.6667884139374688,0.6667509145239743
17,0.6667784990860905,0.6667980382519384
18,0.6667788283303442,0.6667615933690414
19,0.6667744768418248,0.6668913751322934
20,0.6667754866814951,0.6668213942506473
21,0.6667694429420061,0.666765390081382
22,0.6667698982094471,0.6668021452633973
23,0.6667729684761659,0.6667292019569548
24,0.6667620282168045,0.6667317889464405
25,0.6667656801874974,0.6667565968728835
26,0.6667658682133669,0.6668494819707373
27,0.666761403763077,0.6667794261913441
28,0.6667597450096954,0.6667524393971446
29,0.6667575311145504,0.6667671163679648
30,0.6667626417444732,0.6667744939143841
31,0.6667558309532121,0.6667788522710871
32,0.6667638200147328,0.6667623891723955
33,0.6667551874863593,0.6667420489912294
34,0.6667562917732145,0.6667919731613424
35,0.6667549745082774,0.6667374904634935
36,0.6667552470168543,0.6667462806547841
37,0.6667516997843983,0.6667499586015422
38,0.6667522876783071,0.6667272835748072
39,0.6667534759793056,0.6667553327811268
40,0.6667513945220984,0.666738032496005
41,0.6667527868582341,0.6667257360429977
42,0.6667530170800998,0.6667328968533215
43,0.6667513972191019,0.6667505313977414
44,0.6667515046377769,0.6667314028029998
45,0.6667528065039995,0.6667295782205189
46,0.6667490676415181,0.6667570503118908
47,0.6667487771736904,0.66676246705777
48,0.6667501248384872,0.6667737340808803
49,0.6667480644603462,0.6667318286730102
50,0.6667503261632108,0.6667855420716051
51,0.6667474418469548,0.6667330639238097
52,0.6667490059259692,0.6667604830661423
53,0.6667469851951204,0.6667615329361435
54,0.666747315179295,0.6667431349494025
55,0.6667471309003591,0.6667733263141168
56,0.6667455662667986,0.6667281200217254
57,0.6667476711245931,0.6667609609977779
58,0.6667464459348345,0.6667382997259609
59,0.666748999591679,0.6667266912850789
60,0.6667482599792945,0.666803854570791
61,0.6667467139612898,0.6667514083994825
