epoch,loss,val_loss
0,0.7801574403037386,0.7784975379927283
1,0.7782957140430797,0.7780757449400928
2,0.7782084201146481,0.7783288816364469
3,0.7781307090426972,0.7782751302565297
4,0.7781135489860782,0.7780272711595294
5,0.7780681847871274,0.7780162343612084
6,0.7780624530954382,0.7780055487126334
7,0.7780291934677939,0.7779676044845107
8,0.7780216159331925,0.7781611917924053
9,0.7780096309813661,0.7780934881335748
10,0.7779989950085243,0.7780012475941377
11,0.777991005035907,0.7780396862597975
12,0.7779915396989026,0.777968582059846
13,0.7779823083190084,0.7781934655925477
14,0.7779784439200468,0.7779436500729165
15,0.7779740847704282,0.7779312545844994
16,0.7779815177412251,0.7779424215664639
17,0.7779632813380446,0.7779605314098575
18,0.7779581110545697,0.7781042271157352
19,0.7779594856909791,0.777943622592661
20,0.7779533800663431,0.7779258087018583
21,0.7779634914234937,0.7779616277211949
22,0.7779550621950696,0.7779222738654087
23,0.7779564642393135,0.7779454072710894
24,0.7779428327514761,0.7780045091070549
25,0.7779447373534093,0.7779232257353165
26,0.7779482009006631,0.77807858123377
27,0.7779447608368236,0.7779115633100789
28,0.7779413380806629,0.7779300082114435
29,0.7779414105518838,0.7780865947602701
30,0.7779428138306438,0.7779182805908526
31,0.77793489345318,0.7779018411269555
32,0.7779382623536757,0.777926897588498
33,0.7779369392348447,0.7779378904302422
34,0.7779313880491262,0.7779933373922154
35,0.7779369698216567,0.7779566205760682
36,0.7779356320700633,0.7779051623332589
37,0.7779314837655354,0.7780375696293473
38,0.7779347360101783,0.7778941256828403
39,0.7779253235169157,0.777989468326048
40,0.777930823629166,0.777928611894991
41,0.7779299577545794,0.7778963204944696
42,0.7779295229233096,0.7779420014942254
43,0.7779250287128996,0.7779013321358276
44,0.7779242781287042,0.7779572975842591
45,0.7779305660807151,0.7779109852189757
46,0.7779252036316004,0.7779232399339415
47,0.7779258298420483,0.7779228480814704
48,0.7779287889013503,0.7779076765843715
49,0.7779243489331312,0.7779112349668744
50,0.7779226275933344,0.7780336170870968
51,0.777923575413757,0.7778905880066657
52,0.7779202797496456,0.7780295587059286
53,0.7779197133150183,0.7779276839261019
54,0.7779244650320714,0.7779072874237231
55,0.7779199153276001,0.7779112280746252
56,0.7779208269526424,0.7779064534319837
57,0.7779175439515895,0.7781293293382631
58,0.7779258572845912,0.7778967552090401
59,0.777918915820001,0.777940955262622
60,0.7779224468578146,0.7778951269521311
61,0.777918006722364,0.7781409913493741
62,0.777916200586695,0.7779175480601214
63,0.7779212757603695,0.77791391279798
64,0.777919256772831,0.7779787100278415
65,0.7779190253827108,0.7778932346303765
66,0.7779159302324078,0.7779529370977624
67,0.7779174306955862,0.7779297550322104
68,0.7779185839978567,0.7782772919084535
69,0.7779167923127309,0.7779648604227355
70,0.7779154863643226,0.7779291365046064
71,0.7779179578883789,0.7779052061123528
