epoch,loss,val_loss
0,0.44891483010812316,0.44504039933900386
1,0.44508854213239396,0.4453038272727512
2,0.4449988531130164,0.44478141924287784
3,0.4449246558974131,0.44565304992512494
4,0.44487105088953294,0.4450164304033994
5,0.444873070806311,0.4448113837697666
6,0.4448244961694267,0.4446880497944266
7,0.444809948433225,0.44491533452168885
8,0.4447812474088225,0.4447984647662113
9,0.4447883582229869,0.444873336704434
10,0.44477345095271337,0.4448504349138246
11,0.44477287746714544,0.4448879403748524
12,0.44475599138987354,0.4451663766250421
13,0.4447443556510913,0.44478275187258093
14,0.44472174679983256,0.44468728928057194
15,0.44472271593399776,0.4447373871767787
16,0.44472838036822576,0.4447936515654287
17,0.444707347719087,0.4449169111015187
18,0.4447104057167669,0.44463630633673656
19,0.44469979206184584,0.4446675767082139
20,0.44469876732988856,0.4448207071637989
21,0.4446915263239746,0.44464482767114566
22,0.44468840582704494,0.4446783606083162
23,0.44468769280960757,0.4446784272974833
24,0.4446864764393421,0.44487310662754714
25,0.44467570553823194,0.4446469204005769
26,0.4446811873121995,0.44480576911576036
27,0.44467721904034546,0.4448180703903842
28,0.4446853528482842,0.44464034340517694
29,0.4446810843622361,0.4446615030244917
30,0.444671681798348,0.4447177239890134
31,0.4446744567380575,0.4446286750786358
32,0.4446747799793289,0.44511652914229455
33,0.44466525829134473,0.4446218038758924
34,0.4446703674173666,0.4446244574510134
35,0.4446684028609434,0.4446353248124087
36,0.4446636538708693,0.4446754323637515
37,0.4446724048457355,0.4446309404396833
38,0.44466491633315314,0.4446348688738518
39,0.44466452052442373,0.44463561132883017
40,0.44466347815269114,0.44470759676052973
41,0.444665467472008,0.44465021806082716
42,0.44465830770474557,0.4446288505943478
43,0.4446537136815416,0.44471366914271127
44,0.444656102442536,0.4447777041430509
45,0.4446531979859193,0.44463014302419374
46,0.44465484203909367,0.44463530833608755
47,0.4446561031899507,0.44465251709923853
48,0.44464797754046714,0.4447118187660615
49,0.44465939811808536,0.4446681851192976
50,0.4446516126590296,0.4446293173149857
51,0.4446573623730758,0.44461626839401114
52,0.44465757665666844,0.44462835416012897
53,0.44465223130461534,0.444627124500038
54,0.44465314230332814,0.4448259551087325
55,0.44464647425249515,0.4446248971794734
56,0.44464666515088247,0.44475106849859725
57,0.44465102236235027,0.4446388232353012
58,0.4446465543165815,0.44463411809197134
59,0.44464952403965713,0.44460926546943985
60,0.44464713571212383,0.4446105382726447
61,0.44464487634497946,0.4447302973152094
62,0.44464889783670314,0.44475855107047124
63,0.4446446633108906,0.4448479798680204
64,0.44464478011464864,0.4446000672155811
65,0.4446528006460745,0.44463087352866276
66,0.4446453695278404,0.4446932940713821
67,0.44464524963187596,0.44466736886104935
68,0.44464735114070053,0.4447890778481221
69,0.44465149301943424,0.44463771080260833
70,0.44464442062514553,0.44462000334233265
71,0.4446445708318322,0.44466564881594545
72,0.4446431858203604,0.4446302676614993
73,0.44464106326520597,0.44460431310734144
74,0.4446432805266751,0.4446166275304837
75,0.4446402222008427,0.4446439782088211
76,0.44464442256092984,0.44461428465381747
77,0.444637058824003,0.4447618683721528
78,0.444641732520429,0.4446232324498463
79,0.4446413409595393,0.44462108237867615
80,0.4446344768150966,0.4447859740878453
81,0.4446413751051495,0.4447009255513364
82,0.4446486335059077,0.4447157876071504
83,0.44463721104890647,0.4446584674176152
84,0.4446366971549677,0.4446001700964518
