epoch,loss,val_loss
0,0.06012812420833843,0.02365552871199163
1,0.019867818022468738,0.02171947177749118
2,0.017906067590861816,0.01666003826996381
3,0.017103929627953512,0.017278438242656124
4,0.016633293027785025,0.016982007051168688
5,0.016297165801864813,0.014612228214907144
6,0.015839940086848206,0.018546569758734987
7,0.015725203063099633,0.015800475893038377
8,0.015354567136709631,0.014809767506720854
9,0.015258308311065526,0.01565699960491054
10,0.015027714690443715,0.014787171843921577
11,0.015046892602275362,0.014368147064675173
12,0.014715926960214001,0.015226501211172742
13,0.014677968229122557,0.016321015850208682
14,0.014626727399553363,0.013589476193151167
15,0.014523648924687207,0.014786769782028926
16,0.014494508796844902,0.014456120822070255
17,0.014432161671578887,0.013802739725016038
18,0.014502732895940925,0.013927958082065688
19,0.01422334522748373,0.014129877178271119
20,0.014198911263223887,0.014883917474902001
21,0.014196730237180304,0.014141389386492686
22,0.01410618476221878,0.013693528332592684
23,0.014011545869392884,0.01477007382681071
24,0.014061704836581191,0.013422927412460962
25,0.013970151882665453,0.013830630219178667
26,0.013926314725743023,0.014231184700841348
27,0.013905960633886157,0.014284968886422757
28,0.01385029711381339,0.013785085275251576
29,0.013803479427880247,0.01344096283879011
30,0.013819104178608379,0.014911363232723684
31,0.01376907448365491,0.013853687372419142
32,0.013754464881521634,0.013159399778667662
33,0.013719092010765441,0.013383886193574657
34,0.01369457543489864,0.014066739355863323
35,0.01365245628157222,0.013529859184664178
36,0.013680710761272356,0.014711454629935047
37,0.013623743259228948,0.01327352603116343
38,0.013599813799375346,0.01410364697943846
39,0.013518375695307174,0.013727435465929822
40,0.013560523268941365,0.013241855377705754
41,0.013498159085364942,0.013375882868176654
42,0.013570326389774335,0.013535773962107546
43,0.013511598372139227,0.013167767377371528
44,0.013390350130351485,0.013307877588397812
45,0.013473749956040969,0.013156486792078533
46,0.013411018947204633,0.013314742660589017
47,0.013358115864987473,0.013218646198418685
48,0.013324752851847966,0.013508052535114749
49,0.013260537794311961,0.013641953314874071
50,0.013256072565300675,0.013371957086082131
51,0.013228560374084554,0.012972614575852236
52,0.013153450900046834,0.012811259673469268
53,0.013126510379144777,0.013354461687263425
54,0.013110529660032915,0.012727576805736232
55,0.013098024174158776,0.012999131149674763
56,0.013062110520850783,0.01264237651587568
57,0.013010540247700857,0.013639933691260684
58,0.013001744266034369,0.012708732530604077
59,0.012999929364746641,0.013235734697089302
60,0.013017863668865225,0.013088655683024794
61,0.012923088269461414,0.013330154520720613
62,0.012907465629908606,0.012876294232978862
63,0.01291430165770537,0.013126667464618795
64,0.01287308589405532,0.013343607131900179
65,0.01290290938976181,0.01259112188329102
66,0.01284000197354564,0.01247139110440208
67,0.012862904353260764,0.013327564536674738
68,0.012847324975694347,0.013470685308702086
69,0.012810695849142009,0.012173601011595418
70,0.012852249871934243,0.012864165484590951
71,0.012860460821807118,0.012887053914072348
72,0.0127489131708536,0.012928799063281593
73,0.012768738947784979,0.012652123808657413
74,0.01284081912299318,0.012946150249919436
75,0.012724823401630886,0.01283066270378402
76,0.012767506589402433,0.012919138076139739
77,0.01274149412437734,0.012560175647196492
78,0.012753709428361624,0.012659252970652752
79,0.012745823690129644,0.012628715996984069
80,0.012709713388222101,0.012469224301317045
81,0.012712772236505281,0.012828821200350527
82,0.012723155134784453,0.012476742055461218
83,0.01269914002292132,0.012355710379779339
84,0.012669530978014397,0.012561220158510853
85,0.012679259216560832,0.013045717585859613
86,0.012641965325171303,0.012407208527565446
87,0.012630615935418421,0.012934912124154142
88,0.012653946491885872,0.012450757125859373
89,0.012643247650154394,0.012955108687984145
