epoch,loss,val_loss
0,0.6704061384286938,0.6680521958814957
1,0.6680223697495008,0.6683478289147464
2,0.6675936462105783,0.6691872005722954
3,0.6673024963572781,0.6684504417864324
4,0.6671105396827892,0.6669280947881656
5,0.6669694361654712,0.6668197343130561
6,0.6668751960568344,0.6668265843213935
7,0.6668495976813356,0.666913240512015
8,0.6668349111397752,0.666776824973653
9,0.6668166955269497,0.6669142635821113
10,0.6668148679272664,0.6668808532707744
11,0.6668122670566898,0.666829583396391
12,0.6667868940273097,0.6667606631224564
13,0.6667970667829004,0.6667536766002551
14,0.6667820890328026,0.6667367534069506
15,0.6667811836450245,0.666778197655311
16,0.6667756259293864,0.6667537461143569
17,0.6667744665697044,0.6667491518534147
18,0.6667679411819942,0.6667414107926134
19,0.6667725955237325,0.6667471692224886
20,0.6667642067337952,0.666859994100282
21,0.6667627753569761,0.6668389672972724
22,0.666765487505964,0.6667570825250214
23,0.6667604608633645,0.6667468389565536
24,0.6667612456290618,0.6667390279971045
25,0.6667610104785977,0.6667482644393485
26,0.6667581384065324,0.6667201621656678
27,0.6667569789577128,0.6667700841468261
28,0.666754994689657,0.666727015694081
29,0.6667537034173967,0.6667310207120833
30,0.6667571969227665,0.6667290640232285
31,0.6667543996813071,0.6667283571979248
32,0.6667527843497606,0.6667226120496802
33,0.6667481446825927,0.6667275473142676
34,0.6667514238523071,0.6667190409771562
35,0.6667479296220042,0.6667257486146969
36,0.6667632685536417,0.6667329240969334
37,0.6667419765740892,0.6667593800696191
38,0.6667445421840469,0.6667232372033093
39,0.6667475956258497,0.6668070387899432
40,0.666742197535901,0.6669845022575436
41,0.666744280086424,0.6667383715177588
42,0.6667449209958958,0.666719097623754
43,0.66674892905782,0.6667871941407916
44,0.6667429982777351,0.6667148157325631
45,0.6667423554798086,0.6668131139378985
46,0.6667404051621282,0.6668190937775832
47,0.666743726939607,0.6667300322215551
48,0.6667396009376177,0.6667209534432101
49,0.6667345287954098,0.6667133289590367
50,0.666737421897634,0.6667205475400163
51,0.666738885417623,0.6667382184388324
52,0.6667365102765357,0.6667406453388205
53,0.6667313982882508,0.6667364104214141
54,0.6667408094476049,0.666771809989702
55,0.6667372334781391,0.6667469088552016
56,0.6667330799862772,0.66673958668342
57,0.6667349357439705,0.6667113791920115
58,0.666733479043401,0.6667380782569904
59,0.6667350210036737,0.666721020176748
60,0.666735537855718,0.6667359201251425
61,0.6667325625923078,0.666713930655354
62,0.6667324611568944,0.6667796541088568
63,0.6667331462084014,0.66677279215001
64,0.6667336739872936,0.6667352281788147
65,0.6667303750408682,0.6667327174181974
66,0.6667317719151322,0.6667788880930349
67,0.6667307095615934,0.666719660244272
68,0.6667318017628123,0.6667308831333226
69,0.6667326696970293,0.6667158232433329
70,0.6667353034388642,0.6667293862136955
71,0.6667278989597516,0.6667313237935675
72,0.6667293392377076,0.666710666066068
73,0.6667285477945799,0.6667173773715869
74,0.666729357423352,0.6667057627188064
75,0.6667270872145534,0.6667371885060672
76,0.666728471054221,0.6667095129010695
77,0.6667282270822916,0.6667174978824171
78,0.6667294625394377,0.6667202665551425
79,0.6667292946562952,0.6667993359175273
80,0.6667277743824863,0.6667316096000576
81,0.6667287086232322,0.666738451592088
82,0.6667289624831225,0.6667528450932751
83,0.6667258961116372,0.6667159264495888
84,0.6667270736853617,0.6667307494296034
85,0.6667286010254931,0.6667353817310286
86,0.6667281440076426,0.666711619207936
87,0.666726547263254,0.666732591908268
88,0.6667275867242106,0.6667186532363703
89,0.6667253740454387,0.6667210008607017
90,0.6667317721588801,0.6667314359331249
91,0.6667230955413231,0.6667397022247314
92,0.6667255625588041,0.6667057024633914
93,0.6667276362074013,0.6667334802097481
94,0.6667271899262908,0.6667439480277504
95,0.6667275380842773,0.6667173463120946
96,0.6667272348011473,0.6667172000070956
97,0.6667264391724973,0.6667251463267703
98,0.6667260276534663,0.6667185143560689
99,0.6667248819152689,0.6667119955898219
100,0.666725715534672,0.6667154822101072
101,0.6667259313257152,0.6667064807255274
102,0.66672642689912,0.6667096559226365
103,0.6667252787849721,0.6667212883828592
104,0.666727562796686,0.6667106752360134
105,0.6667252031450285,0.6667158533266697
106,0.6667257690550852,0.666806998146379
107,0.6667259265698703,0.6667173864823713
108,0.6667245968801008,0.6667535014542989
109,0.6667256462913359,0.6667184074522544
110,0.6667243039826822,0.6667218555291888
111,0.6667246693387004,0.6667189428883215
112,0.6667246828008419,0.6667916184027792
