epoch,loss,val_loss
0,0.44975502964002345,0.4452010147920613
1,0.4451490893203316,0.4449295487208639
2,0.444966122956695,0.44471339073133825
3,0.4448354289124388,0.4473925577056023
4,0.44479840758613226,0.4447026890501491
5,0.44478202951261925,0.444701454775505
6,0.44473723679087973,0.44462417031340207
7,0.4447479588449892,0.44459933271774876
8,0.44472645431766045,0.44468132843154834
9,0.4446725023062438,0.44477346591263195
10,0.44468135355497385,0.44466222950601697
11,0.44466772970220425,0.44457660465323307
12,0.4446702306302247,0.444783582817532
13,0.4446520341709358,0.44459265315207297
14,0.44465157298570596,0.4445919130339516
15,0.4446534895249757,0.44469593911253785
16,0.4446453615208401,0.4445585307057383
17,0.4446394128071413,0.4445818914373223
18,0.44464719768483074,0.44458965137046264
19,0.4446307216151951,0.44464231840434204
20,0.444629497260411,0.4445964489030483
21,0.44463302165668606,0.444778822269984
22,0.44462494509874,0.44459337592124937
23,0.44462018772381695,0.4445742422534573
24,0.4446132811301644,0.4450011239749918
25,0.4446249783293096,0.4453717831790299
26,0.44462023448712806,0.4446438537785788
27,0.4446067093491035,0.4445793334514864
28,0.4446125077235926,0.4447436058639593
29,0.44461762493746965,0.4445729488622462
30,0.4446121735945205,0.4445756912379348
31,0.44460966409982616,0.44458757526525494
32,0.44460605628221206,0.4445739687672324
33,0.44460655261091975,0.44462994292711205
34,0.44460984582887497,0.44458196630548896
35,0.44459494226530494,0.4445634816036035
36,0.44460642000851125,0.4446234849043579
