epoch,loss,val_loss
0,0.6721597134596056,0.6678290901941342
1,0.6672286947918498,0.6669388855953075
2,0.6671152120642386,0.6668215128683275
3,0.6669233950139121,0.6668188019366773
4,0.6668812731676989,0.6668226070794515
5,0.6668842545303284,0.6667897868984686
6,0.6668446379163765,0.6668452932876038
7,0.666846001048516,0.6668082731829091
8,0.6668251089583009,0.666794473716698
9,0.6668197745007536,0.6667697229397208
10,0.6668147666969483,0.666872141260663
11,0.6668055001558276,0.6667941774387217
12,0.6668083136148052,0.6671125933786776
13,0.666806437928946,0.6667620931014825
14,0.6667909495814223,0.6667634078941629
15,0.6667988744362747,0.6667596993020392
16,0.6667867698973101,0.6667850756171915
17,0.6667855632126712,0.6667661299184889
18,0.6667832777053392,0.6667861295692974
19,0.6667858249269236,0.6667960331990168
20,0.666785263185035,0.6667539209940889
21,0.6667793139795019,0.6668391058817691
22,0.6667832265916408,0.6667524028652655
23,0.6667708481139537,0.6667509780628214
24,0.6667768441924451,0.6667739813440196
25,0.6667714494542273,0.666903892226018
26,0.6667763256783398,0.666990653308982
27,0.6667751069167418,0.6668206292109808
28,0.6667646414420078,0.6667921283996431
29,0.6667701679689579,0.6667722040902888
30,0.6667654891057074,0.6667449880770359
31,0.6667649649286047,0.6667703973744111
32,0.6667627988033156,0.6667714024595823
33,0.6667590936490392,0.6667429874611848
34,0.6667642428147954,0.6667980431031353
35,0.6667628544527759,0.6667701113312771
36,0.6667616886112929,0.6667434503659421
37,0.6667612321471996,0.6667817209553778
38,0.6667608469000905,0.6667794880441046
39,0.6667582588724252,0.6667842395843998
40,0.6667580234995117,0.6667641830207692
41,0.6667607733213549,0.666747090390539
42,0.6667554653487131,0.6667370401895963
43,0.6667610003634542,0.6667635639311362
44,0.6667583395151171,0.666733582084883
45,0.6667543218058245,0.6667325896009914
46,0.666755832504837,0.6668336016960239
47,0.666757111632299,0.6667959431560696
48,0.6667571912629244,0.6667522255007742
49,0.6667561480282137,0.6667424915150436
50,0.6667549291151608,0.6667829276906053
51,0.6667563797291323,0.6667486154411921
52,0.6667532410410363,0.6667914161315331
53,0.6667540557553837,0.6667337984955932
54,0.6667551920047671,0.6668149674500781
55,0.6667511040408606,0.6667339311048351
56,0.6667569727930207,0.6667285944037047
57,0.6667541325028421,0.6667410195613321
58,0.6667530471131544,0.6667437168563862
59,0.666754057090081,0.6667319481485239
60,0.6667538485231259,0.6667589759116729
61,0.666754114848079,0.6667364106284773
62,0.6667563402041083,0.666763544674251
63,0.6667486997699269,0.6667374361241721
64,0.6667518025876398,0.6668150361063463
65,0.6667528257198535,0.6667330991837286
66,0.6667514675289337,0.6667377819494338
67,0.6667515117624729,0.6667386298735739
68,0.6667514497061502,0.6667760593423773
69,0.6667520028805761,0.66674563940938
70,0.6667517503861473,0.6667637820870942
71,0.6667493471178142,0.6668240023310072
72,0.6667487955794179,0.6667564207211913
73,0.666751069040555,0.6667476602878524
74,0.6667511613665809,0.6667414246954338
75,0.6667507050783963,0.6667340996839273
76,0.6667495677704055,0.6667354044488287
