epoch,loss,val_loss
0,0.06698822839302761,0.026127994618847707
1,0.021082061530278695,0.01763764831420062
2,0.018334446506820347,0.01597610186582094
3,0.01739214001645542,0.016764331052528125
4,0.01676399299370027,0.02097984413632536
5,0.016420080549058025,0.016078738183726005
6,0.01610356395262343,0.018115589291633802
7,0.01592418844245696,0.015761075177167544
8,0.015594350226304619,0.015171885664202736
9,0.01541907993139605,0.01629670764742507
10,0.015299891376378398,0.015266336312993584
11,0.015199748659385035,0.015058976860148439
12,0.0149632856871184,0.014271592596088243
13,0.014812503307903471,0.015291198364761716
14,0.01490136014720589,0.014689091518613747
15,0.014672989916767375,0.015267695533689434
16,0.014579419974573475,0.013929633053930166
17,0.014553004087345403,0.014689454000914658
18,0.014436708421136854,0.014545979732578209
19,0.014459255232293196,0.013299630687713032
20,0.014384881386724942,0.014597333974618622
21,0.014246631455900502,0.014504492463123414
22,0.014152308086993587,0.014150833280262521
23,0.014181269830480127,0.014468683674931527
24,0.014101003895886892,0.01393366157869917
25,0.01410274757161196,0.014103604591550958
26,0.014009942375716601,0.014345177210793454
27,0.014055824142450173,0.01384154598808688
28,0.01390835387541215,0.013730267691368205
29,0.013886005149816787,0.014142980847147203
30,0.013908159193114701,0.014906526111972244
31,0.013861223835638556,0.01369793254272
32,0.013788283440385856,0.013512131202938243
33,0.0137194231231368,0.013127550885783826
34,0.013681682858645842,0.01324192795246174
35,0.01368447594690024,0.01387153936656326
36,0.013705843408680037,0.013926803608131469
37,0.013579076846540618,0.014334855401523355
38,0.013676689436619998,0.013685715570121486
39,0.013581622655740557,0.013894667161198762
40,0.013497265728855597,0.01328596619625689
41,0.013559016741239736,0.014367689194606048
42,0.013518094898574333,0.013458152455058199
43,0.013500029556256513,0.015028788647602865
44,0.01344891533562875,0.013180558822549898
45,0.013521714526412761,0.013620685559995564
46,0.013494034545961688,0.012938795883495073
47,0.013380808339069274,0.013846818108120863
48,0.013447230347757575,0.013811834746736007
49,0.013408899093909936,0.013553268420821975
50,0.013363666456323925,0.012674350726878081
51,0.013396804019712334,0.01536259478600534
52,0.013360697531604075,0.012889187158577644
53,0.013351270460944985,0.013628623503775661
54,0.013346241842750009,0.013659098634390026
55,0.013276687344220087,0.012976599972759819
56,0.013316159314991761,0.013159341361401395
57,0.013295266064200985,0.013126827467685894
58,0.01330336439824148,0.013979359608485592
59,0.013238853813494135,0.01337063230213619
60,0.013236665339162488,0.014438786154737692
61,0.013261474410083776,0.013202701949008345
62,0.013198252660241024,0.01374038190629435
63,0.013168677269615334,0.013430497570254519
64,0.013198181949216185,0.013388988255955298
65,0.013216948035131815,0.013788013521202888
66,0.013174937166891049,0.013094757673869062
67,0.013161385437838907,0.01286063621758897
68,0.013159272840321225,0.013495578670472129
69,0.013187696847698004,0.013211470651012792
70,0.013106399700505079,0.01320737362804617
