epoch,loss,val_loss
0,0.45479928037498707,0.4455674821330655
1,0.4452546593611591,0.4449600409041563
2,0.44506352488581347,0.4449359084920907
3,0.4449555114943219,0.4448664532997472
4,0.4449104071550884,0.4447729902586925
5,0.44486803858196344,0.4448471551941287
6,0.4448334161136517,0.4446913861311399
7,0.3876760572909337,0.333709235241632
8,0.33374962287092663,0.33385053689663224
9,0.33371815372899494,0.33372333344099836
10,0.33370655287574386,0.33362263201484016
11,0.3336853621446525,0.33368448669798023
12,0.3336702906103801,0.333839503928982
13,0.3336633636109262,0.33358487046090307
14,0.33365917963756087,0.33370744565284577
15,0.33364316336205657,0.33360911328206877
16,0.33364266084578076,0.33363742726316525
17,0.33363128728942054,0.33397729284414285
18,0.333632532332012,0.33373382749687647
19,0.3336371921446679,0.3335467177200554
20,0.33362616472965506,0.3335556149926434
21,0.3336225727962792,0.3335662097108571
22,0.3336159181436925,0.333857612529996
23,0.3336207352743209,0.3335616137934086
24,0.3336119554910559,0.3336362803248554
25,0.33360367598182256,0.33354759100944764
26,0.3336036032494995,0.3335698700424459
27,0.3335999950177506,0.33363466336768555
28,0.3336062730608966,0.333540227572912
29,0.3335992540805292,0.3335631289050242
30,0.3336075923921691,0.3336263688858922
31,0.3336072458773116,0.3336949465736266
32,0.33358576520887945,0.33356027156484336
33,0.3335914032512836,0.3335661039606809
34,0.33358222604653004,0.3335580407981541
35,0.3335875564625163,0.3335587442364941
36,0.33358457123620644,0.33362867345585123
37,0.33357848990511135,0.33381354165432175
38,0.33357730371422817,0.3335399521639566
39,0.33358074641472574,0.33357310885235336
40,0.3335732733548927,0.333670852142883
41,0.3335758759604968,0.33366129856843213
42,0.3335770152906486,0.333523637514848
43,0.3335706095291237,0.3335477484514932
44,0.33356641939619364,0.33355825624749913
45,0.33357296296126554,0.33378978529875686
46,0.3335749005299053,0.33355051962376825
47,0.33356770525867047,0.33354149478540823
48,0.3335701752961801,0.33353090110251093
49,0.3335682155291271,0.3338710763170465
50,0.33356831946433696,0.333542283696513
51,0.33356903955401324,0.33396307090967525
52,0.333570498815119,0.3336032731213581
53,0.3335668413202626,0.33376835331727495
54,0.33356244638703203,0.33365767234312393
55,0.33356170765221893,0.3335673469024024
56,0.3335708374424837,0.33362990741990045
57,0.3335605479785832,0.3335325985629269
58,0.33356594524854505,0.3335739972277847
59,0.3335649353169762,0.3335547433005965
60,0.333564111675855,0.3335539455301413
61,0.33356186182513353,0.33353665036244073
62,0.33356026396060895,0.3335728843513848
