epoch,loss,val_loss
0,0.0666897649632742,0.032764977699251976
1,0.02608761468128464,0.025299607198824067
2,0.02067062926317997,0.018944847684529226
3,0.01899331229627728,0.0202840757253522
4,0.018060013680492162,0.01791925607133592
5,0.017247714740664385,0.019254271940284274
6,0.016768046380063757,0.01768644635124183
7,0.016648547453604775,0.01749610070545901
8,0.01642195843870591,0.0179108737466427
9,0.016039863210186498,0.015504154661859827
10,0.015616877858805103,0.016743649878809528
11,0.015451859113880724,0.018919347396707416
12,0.015360770364878299,0.014098947476272104
13,0.015300000699173661,0.01590376787497743
14,0.01500345250631003,0.015138912043781493
15,0.014964075991720562,0.013656107535026505
16,0.014793494946969596,0.014493851045668865
17,0.014581425535307582,0.015527228445332341
18,0.014599480963226316,0.014678145610905314
19,0.014368045975109373,0.014767164176343836
20,0.014343922867013437,0.013690622625572066
21,0.014207905030659674,0.014215171925039504
22,0.014165222593408824,0.01414955156963901
23,0.014126415173794349,0.013986456963619583
24,0.014099971089151763,0.014578323255734467
25,0.014002360657614371,0.013861074258409274
26,0.013916222633723522,0.014249514379808979
27,0.013816137121919895,0.014926305642032593
28,0.013901726219711296,0.013721211958057235
29,0.013752774918585193,0.01315099958506027
30,0.013723724730230688,0.013643396845452543
31,0.013647386405223916,0.01387565590616861
32,0.013677860627146859,0.013782960139492309
33,0.013651775127394043,0.014080773945204525
34,0.01357003053008425,0.013641065040201171
35,0.013531689925788034,0.013634127255057726
36,0.013531806336450845,0.01325925689643577
37,0.013533268316536406,0.014072459894544434
38,0.013530375738340717,0.013095673873428967
39,0.013462194375782739,0.01320293850124474
40,0.013394174381225914,0.013166904253954479
41,0.013365379196057282,0.01373677382952818
42,0.013471664296844802,0.013842605216608893
43,0.01337792458910559,0.013085966634913059
44,0.01332743090910001,0.012852387188959211
45,0.013392983870337612,0.013053939367642178
46,0.013286749153853637,0.013370803295271865
47,0.013311042634929543,0.012969888628878753
48,0.013282351738723209,0.013476105444318159
49,0.013235354877794297,0.013570590671290536
50,0.013280363367701024,0.013344215820763011
51,0.013196928160196632,0.013213318092725412
52,0.013213462454964502,0.013488102017927259
53,0.01318095972110556,0.013041654882245414
54,0.0131784460388553,0.01263593771487992
55,0.013189457195232332,0.01258751936487983
56,0.013175420198790764,0.013193447795458526
57,0.013149733670894292,0.013253060217586255
58,0.013120883132778401,0.01353339224351251
59,0.013121229046437912,0.013420576418729189
60,0.013139655570208977,0.012904700637325904
61,0.01308926169451736,0.013181132208047522
62,0.013147954636107077,0.012579570516075006
63,0.0130718137592265,0.013526797009904687
64,0.013006974915225306,0.013106703516049657
65,0.013048802667700502,0.012584991308469927
66,0.01309644346505676,0.012889508235617252
67,0.013057576411536917,0.012698104708610339
68,0.013006724726491892,0.013635779224872293
69,0.013031032178700589,0.013371567661058223
70,0.012998805421698834,0.013261989337708755
71,0.013003744027008017,0.012942408882173947
72,0.012985888446128196,0.012879162104268819
73,0.013046631530887455,0.012660259566276748
74,0.012932621194278106,0.013119126835990485
75,0.01294943619160013,0.01321157615345258
76,0.012957134857298314,0.013018606984918525
77,0.012937495736572017,0.012698629082506407
78,0.012929991343350402,0.012578306642936419
79,0.012900998694661098,0.013411184030564191
80,0.012915552755908806,0.012810655236798835
81,0.012912310905925841,0.012464690471886109
82,0.012922536022463191,0.012506707536782284
83,0.012907203907657002,0.012646406148987875
84,0.012899207905570087,0.012639834472063754
85,0.012858241095028087,0.013396061121234232
86,0.012872403459263923,0.013197343243244416
87,0.012853040050237623,0.012797824727375957
88,0.012824211468833169,0.013007788838952705
89,0.012844341892260835,0.012966737662333413
90,0.01286663621511409,0.012564846991143066
91,0.012829392461451516,0.012545145244312198
92,0.012812214157955266,0.012759112802891074
93,0.012775710361204028,0.01309064226802762
94,0.012827953304284666,0.012699277215537895
95,0.012794922069570974,0.012612007758476155
96,0.012771016676913906,0.013667649619983829
97,0.012800110679964512,0.012852347729538126
98,0.012804932252361043,0.012961666716757247
99,0.01274900902859864,0.012916405624698469
100,0.012815717399473627,0.013011495427924114
101,0.012766350789874403,0.012823525862421647
