epoch,loss,val_loss
0,0.8906753559288048,0.8890476798005494
1,0.8890210472499821,0.8889542208415995
2,0.8889838862084034,0.8889708319609574
3,0.8889884869942312,0.8889615686596475
4,0.8889774852891001,0.8889565072343604
5,0.8889693598431343,0.888939763594502
6,0.8889651637143214,0.889005314771354
7,0.8889661747640543,0.8889706403978409
8,0.8889591542880687,0.8889948978317582
9,0.8889589288441352,0.8889655882904015
10,0.8889592034107648,0.8889811856870912
11,0.8889543935349891,0.8889719917224004
12,0.8889494156656348,0.8889370355949212
13,0.8889500540193034,0.8889452466597924
14,0.8889466093991926,0.8889760524404255
15,0.8889460615233253,0.8889421289375343
16,0.8889460513561191,0.8889311690780128
17,0.8889418547374439,0.8889287992683297
18,0.8889414763176426,0.8889416862953982
19,0.8889407855155783,0.8890649854101554
20,0.8889416015654117,0.8889264814019499
21,0.888939749366911,0.8889591422329469
22,0.8889382040012672,0.8889356451945625
23,0.8889485288137409,0.8889283671864209
24,0.8889364184074724,0.8889256037198581
25,0.8889384970777496,0.8889341924977362
26,0.8889365012360071,0.888930217710973
27,0.8889369995774098,0.8889278228762132
28,0.8889377532711659,0.8890063861759365
29,0.8889375344100033,0.8889852859542032
30,0.8889372081057122,0.8889400180161148
31,0.8889363330515323,0.8889286871879332
32,0.8889358505529543,0.8889280924726065
33,0.8889367031728613,0.8890066897011276
34,0.8889347166984533,0.8889263814199652
35,0.8889352442619952,0.8889527226204316
36,0.8889344792177908,0.8889252048863963
37,0.8889368117266601,0.8889334975933615
38,0.8889328141466845,0.8889278712106994
39,0.8889333132761266,0.8889412298983439
40,0.8889330204299819,0.8889716182394004
41,0.8889340482809657,0.8889241706053022
42,0.8889324632995828,0.8889270322198608
43,0.8889327940481317,0.8889512249612926
44,0.888932473746034,0.8889233280352268
45,0.8889324878771018,0.888923287036697
46,0.8889339057673258,0.8889264916072117
47,0.8889321392189982,0.8889540798610848
48,0.8889328439265253,0.8889540790919926
49,0.8889323410438388,0.8889328665827995
50,0.8889319698157838,0.8889294394488371
51,0.8889309942577965,0.888925055859994
52,0.8889326408214165,0.8889259313235508
53,0.888932415368017,0.8889347497346087
54,0.8889322155562659,0.8889769671868449
55,0.888931207412576,0.8889431602605815
56,0.8889330622457627,0.8889218117403925
57,0.8889307644500656,0.8889252903443708
58,0.8889317234040089,0.8889297744772274
59,0.8889313002505513,0.8889351320621689
60,0.888931618045753,0.8889234171315991
61,0.888931015445721,0.8889369932061094
62,0.8889316113020611,0.8889410785350846
63,0.8889309555208119,0.8889268171106911
64,0.8889321312360572,0.888956586510017
65,0.8889308938131513,0.8889259462321071
66,0.8889362184095577,0.8889272888600087
67,0.8889293489665563,0.8889265303280454
68,0.8889300720482578,0.8889600377520616
69,0.8889317187862088,0.8889257109194773
70,0.8889310914761346,0.8889204354499173
71,0.8889302292956301,0.8889300778249357
72,0.8889302149200258,0.8889236431855422
73,0.8889312925791975,0.8889620981796208
74,0.8889301707401269,0.8889861510350154
75,0.8889311686755915,0.8889285437522396
76,0.8889290222994042,0.8889223332736391
77,0.8889288572907516,0.8889226951019344
78,0.8889298130854381,0.888942749269547
79,0.8889296773265337,0.8889277552552614
80,0.8889296894374125,0.8889307562825698
81,0.8889298089109594,0.8889245560979725
82,0.8889287226354178,0.8889356383318937
83,0.8889291499814971,0.8889385167481586
84,0.8889301352586362,0.8889335227663404
85,0.8889289049249289,0.888929006597836
86,0.8889295763446965,0.8889268653268554
87,0.8889292948813422,0.8889233219712307
88,0.8889287229399054,0.8889322162857718
89,0.8889291258189016,0.8889215711624392
90,0.888930321281671,0.8889256442746808
