epoch,loss,val_loss
0,0.05479621208240446,0.027496499652343413
1,0.02139189610911067,0.02153741903695516
2,0.01922512928282547,0.020361531135757862
3,0.017578666635694108,0.017959801981193256
4,0.017077060398481267,0.017638112596298567
5,0.016564162631303236,0.015020829224704808
6,0.01649073448265683,0.01850858985934009
7,0.015823233141359045,0.017235232406196465
8,0.015599524033437935,0.01610740630358236
9,0.015322635917851882,0.015794083067486364
10,0.01517944802990083,0.014250806386284438
11,0.01501847533549686,0.01599976264226895
12,0.014964456863224496,0.014780167294273306
13,0.014812788690870922,0.016014070456695024
14,0.014738019510424843,0.016225590484757576
15,0.014598541533655144,0.014717770895687286
16,0.01450519938747078,0.014377384909218357
17,0.014416773131240996,0.015145064381045976
18,0.014410226362442113,0.015535560542389418
19,0.014207176355550228,0.014750930238006724
20,0.014308649632698714,0.015138993228764894
21,0.014246123568025394,0.014831762407760763
22,0.014113502635123289,0.014792729602206877
23,0.014038940893003947,0.013175272809401636
24,0.014028707413026932,0.013924231789728844
25,0.01405205797231544,0.014444363620548184
26,0.01401076384871897,0.014234731541877202
27,0.013946820874445973,0.01429254705127948
28,0.013968926484483547,0.013569536358210496
29,0.013909733318435015,0.013824705325214945
30,0.013865186439786929,0.01489051790635284
31,0.013801240910154399,0.013485629137873502
32,0.013779651649307919,0.0136872511537325
33,0.013747727277441644,0.014182386927251189
34,0.01371573192824707,0.013742590834740226
35,0.013665585164427643,0.013266301891828884
36,0.013694893415166888,0.013233765630656969
37,0.013684559429546047,0.013353793352620477
38,0.013634246551703848,0.013066574356174351
39,0.013625518521741289,0.013006630364722264
40,0.01360850083570701,0.013982241844790745
41,0.01354076193948038,0.01388272273472092
42,0.013550761305156138,0.013854372175988134
43,0.013526888793679403,0.013954248122186874
44,0.01354133247929276,0.013386450755518512
45,0.013443855171123247,0.013744118361833226
46,0.013507936646328962,0.01314482508601607
47,0.01343838897190217,0.013201886263881664
48,0.013447930254612077,0.013915631752784732
49,0.013448088227299614,0.013304448951839958
50,0.013384261623298959,0.013378524584302831
51,0.013391187178679645,0.013143596112284411
52,0.013393110932584074,0.013456086064261331
53,0.013358495469177337,0.013413195367948737
54,0.013335951613525937,0.013026179016449906
55,0.013353275475366288,0.013223482275534208
56,0.013294006562980899,0.013587748749694664
57,0.013285301028671967,0.013245826386950595
58,0.013307594146762759,0.012727092524468159
59,0.013322923235057146,0.01356146496630484
60,0.013262170248902144,0.01347167719774891
61,0.013246151580425981,0.013639818093561505
62,0.013261859850455778,0.012851232458506862
63,0.01332414525209969,0.013117827107626066
64,0.013204475001235373,0.013176943676976057
65,0.013238980733098281,0.012734578011404936
66,0.013201796636512903,0.013095026022798517
67,0.013182077716413674,0.013100364087865904
68,0.013166595006706494,0.01346123564073229
69,0.013212303815482532,0.013663655127544262
70,0.013138570751595947,0.01356990587419227
71,0.013225344271033742,0.013842349444000656
72,0.013189017747555314,0.013604878068487935
73,0.013148580185800415,0.013459307161476418
74,0.013134480596127651,0.013333650963570432
75,0.01314658509582343,0.012582536811290988
76,0.013118319105739957,0.013302192182069825
77,0.013131288302671677,0.013440132099515747
78,0.01312394168735867,0.013675871925895327
79,0.013102673645314459,0.01330552265676612
80,0.013108264669813236,0.013008851969323443
81,0.01306495487721673,0.013108796440527102
82,0.013056672070620062,0.013755575257351174
83,0.013010796817807596,0.012808226133065839
84,0.013030698654980142,0.012671662846270478
85,0.01298869769969022,0.01256712691040326
86,0.012942545989328404,0.012484752271721883
87,0.012914532537934417,0.013017128845191475
88,0.012856356037890313,0.012559404692822887
89,0.012799858915891957,0.012739570394028949
90,0.012787537887327421,0.012962580609502774
91,0.012675618425313263,0.01261336392175323
92,0.012630951967563123,0.012102759036954224
93,0.012639821417147252,0.012321677072338815
94,0.012563318727578343,0.01252679111292729
95,0.012583302529629683,0.012180437136524664
96,0.012505671312996937,0.012044217397756967
97,0.012464857975198269,0.012183700147877556
98,0.01247634953617189,0.012365540774266418
99,0.012459065707077293,0.012792420046168285
100,0.012425139409828473,0.012255247793259752
101,0.012431924198872887,0.012319809502041517
102,0.01239238318427702,0.012240997661210172
103,0.01237859320245992,0.012400494572283613
104,0.012448414237545998,0.012044028279651188
105,0.012340850331619089,0.011922388884791222
106,0.01237839614363275,0.012307137119174744
107,0.012328651532076913,0.012021895073742487
108,0.01234460243407586,0.012031535719690045
109,0.012318290841442812,0.012320659261557364
110,0.012350876816652421,0.011972246237709268
111,0.01232087574739459,0.012589119853585885
112,0.012279090364445324,0.012660651626735556
113,0.012322894277930412,0.011925784479040958
114,0.012341406338492794,0.012272487785528523
115,0.012290521596703869,0.01230753105753113
116,0.01228632517825545,0.01221922168152282
117,0.012256519978777263,0.01213284007299035
118,0.012267920756377181,0.012332705187405606
119,0.01224777268992023,0.012123121183005072
120,0.01222686147166994,0.012242109948773833
121,0.012235687615906777,0.011971203229452481
122,0.012241037955251981,0.011977873511020806
123,0.01221266460682653,0.012553565224942291
124,0.012215338427245537,0.012333621462765463
125,0.012273585212076112,0.012009308988196087
