epoch,loss,val_loss
0,0.05993820566606259,0.029582405274285573
1,0.030735460071393113,0.018175300787533485
2,0.018629287721748725,0.019015715052154165
3,0.01747286067164679,0.016792486781351472
4,0.016956157783305864,0.016903728607200807
5,0.016465418396267403,0.0177351057215157
6,0.01699036933119621,0.01604191203354384
7,0.015595891011174055,0.015488875656857828
8,0.015565623089717873,0.01612643147206336
9,0.015368309465121632,0.015380449266757622
10,0.01507237202728195,0.014517284266502775
11,0.015096473196846472,0.013747969425974354
12,0.014882896261772157,0.014178680919258677
13,0.014640826427740708,0.015491173948824554
14,0.014596906140704708,0.014685567982827611
15,0.014450718470099107,0.01409692647578033
16,0.014378348785551012,0.013558271290646594
17,0.014327573672548725,0.016613458478753975
18,0.01423304655555182,0.014472358972388816
19,0.014210380764864456,0.014219254666648196
20,0.014170434329162722,0.014456271837758959
21,0.014146916184058325,0.01437853719789544
22,0.013948444137105064,0.013884493487681409
23,0.013970910051394315,0.013512694016191415
24,0.013882216960702493,0.01410975251577924
25,0.013871944420839033,0.013498624689673668
26,0.013874897884588526,0.014523343219613615
27,0.013775024347181704,0.014411375852343315
28,0.013706685776692765,0.013753913517200178
29,0.01369718712258954,0.014514579550448629
30,0.01369941244057026,0.013064695680721966
31,0.013569206378295392,0.013208276840393655
32,0.01357742698019571,0.013110095586063844
33,0.013530000376887775,0.013243932349066581
34,0.013479310572619188,0.014410233915443752
35,0.013515550962767327,0.013316966994912837
36,0.013414344752403102,0.01364598202405881
37,0.013526347067652145,0.013460338911591629
38,0.01351469240415517,0.013616981746504088
39,0.013364364010818893,0.01383316803159696
40,0.013394664921068824,0.013074032347603116
41,0.013353727268672413,0.014040782880823754
42,0.01333318849603339,0.012711759953396788
43,0.013343960801417906,0.01356734903459957
44,0.013343416560261353,0.01361920417519864
45,0.013296060094524836,0.013029502043338774
46,0.013260344683384861,0.013193385604833699
47,0.013237576784426002,0.012790301898332595
48,0.013221791165037269,0.013133764622857789
49,0.013239898152970948,0.01307435972759357
50,0.013210199865296373,0.013330670799274302
51,0.013149171594530195,0.01305912102921577
52,0.013214373984041012,0.012934431191487584
53,0.013119412151682814,0.013399226666328777
54,0.013159500837099854,0.012846498974776889
55,0.013116891331733254,0.01294140187565875
56,0.01317230757526595,0.012781344896769405
57,0.013131329745879163,0.013479061239392083
58,0.01311802800376833,0.012614062814869301
59,0.013067138400702599,0.012764950673888546
60,0.013113613336140185,0.01281389928799557
61,0.013528926331128403,0.01313237955391629
62,0.013045002501278226,0.012490531281746054
63,0.0130134397934678,0.01339261924972753
64,0.013068035986711343,0.012778268130981449
65,0.013027788331047278,0.012605636892724717
66,0.013032042335023863,0.013176966642050382
67,0.012974333304458423,0.013238351924747007
68,0.012997639041187272,0.012684977710450405
69,0.012939248223914398,0.012788112566022955
70,0.012959662386884644,0.012906490830200778
71,0.012919575436051434,0.012754715030213295
72,0.012903210114130523,0.012875753038426486
73,0.012946095958512715,0.012837676489933697
74,0.01287931612423105,0.012598908330699795
75,0.012912726490195148,0.012395655703511338
76,0.012872891449244448,0.012578772019511712
77,0.01289640334150521,0.01256562326260595
78,0.012892417733796475,0.013340675888615417
79,0.01288264770624001,0.013679652836256969
80,0.012840770701429681,0.013108666029483745
81,0.01284004502084752,0.012998415577796197
82,0.012821121508957731,0.01344829969542568
83,0.01282775031683456,0.012934711378150927
84,0.012838400581775948,0.013362189795979052
85,0.012759027951592422,0.012788317435266214
86,0.012809394980879494,0.012482766768717145
87,0.012780615914754948,0.012600159985255958
88,0.012796880459773747,0.013608788547773958
89,0.01275660886205334,0.01289647666843742
90,0.012791607086121183,0.012761005394567478
91,0.012785292564553574,0.01272275076841672
92,0.012756235641862118,0.012685803998788592
93,0.012737573262574882,0.012387705060004004
94,0.012752673563093203,0.013213228224487814
95,0.012769584515321711,0.01234593085815238
96,0.012793014026609147,0.013023664075742585
97,0.012750855820150623,0.012976997350307906
98,0.01273414771179317,0.0124431153787092
99,0.012696422979402683,0.0128066947771509
100,0.012707660966830547,0.012531687829541805
101,0.012722674918138497,0.012765310060408512
102,0.012691859604083302,0.01238779803280425
103,0.012672272540703454,0.01245689884188675
104,0.012668860955569712,0.012355902557614868
105,0.012687474534051987,0.012579087393067167
106,0.01268030935267977,0.012614873130216493
107,0.012680186269985107,0.01293484897355066
108,0.01265282599768107,0.012316567659673856
109,0.012631213835489102,0.01245288627439412
110,0.012641715446687702,0.012190469699650633
111,0.012636944024189498,0.012918651262506214
112,0.012663952140306781,0.012703611780300035
113,0.01261595744463677,0.012977190200174713
114,0.012633716232467859,0.01246060823314539
115,0.012606725958072116,0.012557220191835765
116,0.012628721225797165,0.012224408853845323
117,0.012611277972768418,0.012391756191184149
118,0.012623070919740373,0.012710440006319702
119,0.012595754490998616,0.012422039833557665
120,0.01261498209893054,0.012649823418788371
121,0.012604369019311747,0.012453881622969216
122,0.012549099540142808,0.01224497140618619
123,0.012520544293353987,0.012641190517018954
124,0.012534174692928984,0.012409981086887142
125,0.012470010081249773,0.012573713577229983
126,0.012457733674007435,0.012986199666859198
127,0.012427833646895184,0.01233601567587323
128,0.012362005185092373,0.012609846432862004
129,0.012357850580896486,0.012145782522302556
130,0.012385734587394708,0.012537183609349705
131,0.01238086345458251,0.012243834572379701
132,0.012329565544088665,0.012252341304667682
133,0.012334326985765988,0.012420050618666278
134,0.012334967383165087,0.012184553435788704
135,0.012306585014415646,0.012289947182143445
136,0.012334452783902996,0.012076990765336873
137,0.012286520872865941,0.01201447152368558
138,0.012305303070565975,0.012561806253904
139,0.012299434043597892,0.012387546346922667
140,0.012306244513374523,0.012055576776637333
141,0.012281942645366663,0.012220252558552006
142,0.012315075883092592,0.012077276420689398
143,0.01224727223334873,0.012117720307509598
144,0.012309593660565285,0.011895454612100686
145,0.012251750589582252,0.012137075079600362
146,0.01228053064237676,0.012170264651310207
147,0.012271712784200473,0.011995994501167137
148,0.01227047619387809,0.011998944350104622
149,0.012241163117963253,0.012490445341702282
150,0.012255021672070187,0.012430682013426023
151,0.01225596599025599,0.012046578642969983
152,0.01224604442247426,0.012009560991605517
153,0.01224875932537826,0.012575565182393597
154,0.012252333913649173,0.012139425315794814
155,0.012251508115391057,0.01203484886670231
156,0.012251373135423658,0.012147973808771919
157,0.01221630913087059,0.012099523786409173
158,0.01225475776228716,0.011914852826807546
159,0.012225048105700648,0.012541260120109943
160,0.012214347229778547,0.012306340987200182
161,0.012232855311171216,0.012848134287089924
162,0.012223721572118882,0.012265106722731005
163,0.012198928635161624,0.011990710597938254
164,0.01224504951699724,0.012202064275149967
