epoch,loss,val_loss
0,0.6698347085036027,0.6670320155011217
1,0.667194850018574,0.6669261077201691
2,0.6669824787804641,0.6668516008197226
3,0.6669851496319311,0.6686541423312488
4,0.6669389714490878,0.6668312532434393
5,0.6669441161240452,0.6669633756204515
6,0.6668995273076807,0.6669223692221914
7,0.6668900680716165,0.6667974957757198
8,0.6668696588515175,0.6668705141573923
9,0.6668734743336672,0.6670983327825372
10,0.6668550888640511,0.6668268738254424
11,0.6668507922550957,0.6668305034377143
12,0.6668471918477333,0.6668242106662494
13,0.6668453149005379,0.6668030937907122
14,0.6668269620205685,0.6668168208439356
15,0.6668342072897043,0.6667837492289673
16,0.6668293057165987,0.6668064415602767
17,0.6668205365600323,0.6667943801240944
18,0.6668217393707361,0.6668953250418822
19,0.6668209619356188,0.6669374156826483
20,0.6668186332501996,0.6667825345661741
21,0.6668165014515569,0.6670200672398134
22,0.6668135296929102,0.6671749046363546
23,0.6668129461959297,0.666792418672784
24,0.6668146387561198,0.6668435919373562
25,0.6668130482915923,0.6667895480953434
26,0.6668075389855498,0.666790674578759
27,0.6668298080841805,0.6668101274346003
28,0.6668058255237798,0.6667935626086763
29,0.6668039444667896,0.6667739694230905
30,0.6668041951697897,0.6667849788594779
31,0.666812191968137,0.6668284063007932
32,0.6668024356467657,0.6667983597028936
33,0.6668037114887584,0.666773433513736
34,0.6668064564798178,0.6667781978032133
35,0.6668021154424827,0.6670158885252978
36,0.6668046379761121,0.6667877024515687
37,0.6667998535921073,0.6668642621478135
38,0.6668122449505693,0.6669836531501846
39,0.6668009663549209,0.6667879853295925
40,0.6667989652706264,0.6668043962779175
41,0.6668003573803685,0.6668014591740024
42,0.6667977658258525,0.6667817654739834
43,0.666799737842618,0.6667848484096102
44,0.6667958765563723,0.666856458169355
45,0.6668071702407258,0.6667783945724923
46,0.666794262476696,0.6667699146211591
47,0.6667967121636224,0.6667918351980356
48,0.6667966529100061,0.6667889615146457
49,0.6667976799745282,0.6667626557515809
50,0.666793597261062,0.6667969995041935
51,0.6667947027366812,0.6667977918762131
52,0.6668009881328889,0.6670754075641964
53,0.6667951098295974,0.6668242867767958
54,0.666797722810264,0.6667666386433926
55,0.6668005979003858,0.6667976556285735
56,0.6667947487640156,0.666788776873359
57,0.6667987216331602,0.666836513183253
58,0.666791885135567,0.6667844369157077
59,0.6667922087893955,0.6668618005499355
60,0.6668086809547261,0.6668656166374831
61,0.6667927644296983,0.6667732185228883
62,0.6667989712333785,0.6667755195284009
63,0.666795805684106,0.666797927887209
64,0.6667893824591089,0.6667770723255337
65,0.6667938908857801,0.6667858531398158
66,0.6667921324063757,0.6667871306906858
67,0.6667912153218536,0.6668659565466509
68,0.6667976037232427,0.6668437477081053
69,0.6667922606335488,0.6668134203619756
