epoch,loss,val_loss
0,0.5606661423843785,0.5571344759269032
1,0.5562158905579949,0.555878248167393
2,0.556124841745193,0.5558395926473159
3,0.5559776604796376,0.5558304352440846
4,0.5559541588488356,0.5558159040458149
5,0.5559058364693372,0.5558084257187382
6,0.5558472095541931,0.5561249277431971
7,0.555858847734004,0.5563099194697055
8,0.5558361189134198,0.5559302482948114
9,0.5558154536767741,0.5558423407320349
10,0.5558174026163718,0.5557814398119526
11,0.5558025862029315,0.5557423716147544
12,0.5557953855822586,0.5557355301847529
13,0.5557862704361942,0.555754571812916
14,0.5557869530904523,0.5557979641126344
15,0.5557870954573703,0.5559187915425738
16,0.5557778726536159,0.5559689764941005
17,0.5557803210949825,0.5558002290595554
18,0.55578174728289,0.555760137999324
19,0.5557688125590802,0.55578651954755
20,0.5557687065997372,0.5557449985970339
21,0.5557680709320285,0.5557255837225145
22,0.5557598089612061,0.5558511211913514
23,0.5557588239546352,0.5557051929587465
24,0.555761968670167,0.5558818883990532
25,0.555758207752839,0.5558164515802937
26,0.5557619334245358,0.5558602767605936
27,0.555745634433807,0.5557913402174011
28,0.5557518002270999,0.5557334419811334
29,0.555755340875996,0.5557488383193762
30,0.5557487698190794,0.555783543781962
31,0.5557451111741115,0.555701637238486
32,0.5557450558330829,0.555705289953104
33,0.5557454351568814,0.5557053019331939
34,0.555737247787116,0.5557054910707119
35,0.5557426672314318,0.555893064048095
36,0.5557421231876919,0.5557461963693794
37,0.5557328093168815,0.5558559693118774
38,0.5557413390491129,0.5557001722657651
39,0.5557386345746343,0.5558032996601265
40,0.5557367546638114,0.5557701811601151
41,0.5557317503253283,0.5559471364648407
42,0.5557324977707764,0.555707913237825
43,0.5557294784584128,0.555832295944318
44,0.5557307523180803,0.5557162730037131
45,0.5557309926314247,0.5557064995576371
46,0.5557278639811671,0.5556996585417622
47,0.5557344342216466,0.5557008654544726
48,0.5557399046889457,0.5557289436792322
49,0.5557253324320206,0.5556946739665332
50,0.5557308564710067,0.5557218464964968
51,0.5557294179655475,0.5556973249977339
52,0.5557265351890841,0.5557393071373402
53,0.5557338777656955,0.5557565390028374
54,0.5557211665405689,0.5557158458321622
55,0.5557304290988961,0.5557161731400502
56,0.5557295325420493,0.5558142420375909
57,0.5557206986597656,0.5557882518093876
58,0.555727348014188,0.5557528364451293
59,0.5557187440208845,0.5557197562222446
60,0.5557208824078201,0.5557655233307452
61,0.5557214698039782,0.5557871161560267
62,0.555724078826305,0.55573195287075
63,0.5557187434876366,0.5557096643720016
64,0.5557191314846007,0.555743938018903
65,0.5557182025155936,0.5557207133278953
66,0.5557202186381082,0.5557115495057023
67,0.5557235841971276,0.556029833960474
68,0.555719291908584,0.5557261776983294
69,0.5557212686165107,0.5557077327673844
