epoch,loss,val_loss
0,0.7814831444140572,0.7786072355641916
1,0.7786489922067531,0.7784800985315006
2,0.7784845460011972,0.7795078603860462
3,0.7395791692774847,0.6681850403177532
4,0.6674745689046002,0.6674715012829594
5,0.6674382519336091,0.6679586476782711
6,0.6673917323254275,0.6672597925952883
7,0.6673519790911709,0.6672671327519949
8,0.6673166145410481,0.6673563136356344
9,0.6672963982793612,0.6672678998622942
10,0.6672694795553958,0.6672049680655411
11,0.6672556075577959,0.6675630948088009
12,0.6672532262780478,0.6673505979199563
13,0.6672256487681869,0.6672585850318076
14,0.6672257063510652,0.6671964904214844
15,0.6671960943737019,0.6671948925141366
16,0.667206816959087,0.6674911541323508
17,0.6671786157488294,0.667216667673428
18,0.6671643050255152,0.6670868369545002
19,0.6671451049149127,0.6670842165390848
20,0.6671348190334753,0.6674444440576633
21,0.6671277250907677,0.6676003315016886
22,0.6671352579406201,0.6671228258840499
23,0.6671218634285951,0.6672821228320782
24,0.667125207603272,0.6670769053120766
25,0.667125048931276,0.6670924302957786
26,0.6671036338834866,0.6671144018693834
27,0.6671064378410289,0.6670720035029996
28,0.6671009414812341,0.6670551323713203
29,0.667101471818296,0.6670798265016996
30,0.6670949619657677,0.6670553255909429
31,0.6670924517481124,0.6671028661964549
32,0.667100390786884,0.6670742321546853
33,0.6670811314841939,0.6671059804873786
34,0.6670871378852906,0.6671499751637651
35,0.6670788795675315,0.6671299361117721
36,0.6670820964490078,0.6674634736465757
37,0.6670814614147281,0.6671072528320862
38,0.6670806995936756,0.6670358740366422
39,0.6670734763604544,0.6670609991544529
40,0.6670798955805711,0.6671195996902125
41,0.6670749076079058,0.6670301101935413
42,0.6670727530657694,0.6670290981273793
43,0.6670696001716672,0.6670884074407535
44,0.6670736675290155,0.6670546187656393
45,0.6670655676292497,0.6670741332080169
46,0.6670797639030636,0.6670478642726358
47,0.6670670393577847,0.6671279511735694
48,0.6670701827315197,0.6670303592019282
49,0.6670675177126482,0.6671358562876509
50,0.6670635655857401,0.6670813530017957
51,0.6670673407745472,0.6670769499194238
52,0.6670677515891548,0.6673374568558212
53,0.6670605502443375,0.6670287201777285
54,0.6670620900014131,0.6671169178953241
55,0.6670623641286655,0.6670373394234896
56,0.66706031931016,0.6672022130589923
57,0.6670594988878521,0.6671485219936513
58,0.6670613681305628,0.6672604145246464
59,0.6670662430396989,0.667080457985549
60,0.6670553625735123,0.667064389105766
61,0.6670617408234718,0.6670796820011091
62,0.6670499050690264,0.6670279108561002
63,0.6670563180984196,0.6670369079036097
64,0.6670583181304173,0.6672357618069235
65,0.6670612809106218,0.667099923235607
66,0.6670620820050621,0.6671323918822977
67,0.6670551691804558,0.6670354053932739
68,0.6670567954475273,0.6670447821948428
69,0.6670585015582076,0.667103081335205
70,0.6670614406443806,0.6670296811288403
71,0.6670481053607292,0.6670672537966934
72,0.6670579023406705,0.6670682295084591
73,0.6670518116390858,0.6671573487168211
74,0.6670475841448875,0.6670124534637697
75,0.6670535433085873,0.6670421253362897
76,0.6670536872807706,0.6670656440867384
77,0.6670496841900414,0.6670164092894524
78,0.6670513255300413,0.6670623121723052
79,0.6670510688666557,0.6670763407096674
80,0.6670514423767906,0.6670793541903531
81,0.6670504564954091,0.6670217270590827
82,0.6670445016363444,0.6672745887458177
83,0.6670497355435436,0.6673059595429868
84,0.667057228634879,0.6671425727697519
85,0.6670435786214123,0.6670736004341921
86,0.667044404365155,0.6670470876965866
87,0.6670565642151727,0.667079967659697
88,0.6670469159111969,0.6672018267972297
89,0.6670510452451963,0.6670574059261578
90,0.6670543310229243,0.6671536843770787
91,0.6670436723278873,0.6670631817493486
92,0.6670477651509753,0.667111260216526
93,0.6670466025460541,0.6670191550373143
94,0.6670514286204162,0.6670741585288983
