epoch,loss,val_loss
0,0.7798079236332378,0.7778926467185576
1,0.7780036280179825,0.7778583023447553
2,0.7779518863287136,0.7778505755713205
3,0.7779100229215383,0.7782549044038758
4,0.7779321388762807,0.7783330072244403
5,0.7778837369095426,0.7778720330659569
6,0.777886028873433,0.7778705850132641
7,0.7778863750191191,0.7779468937783915
8,0.777876721855173,0.7778310988736212
9,0.7778668745976911,0.7778453973623423
10,0.7778718384038168,0.7778594636443826
11,0.7778666760748851,0.7778570068977015
12,0.7778602394926607,0.7778531927624648
13,0.7778573329906125,0.7778901650947022
14,0.7778635002314052,0.7778465417715219
15,0.7778566317728612,0.7778580160353971
16,0.7778559636196312,0.7779513666115091
17,0.7778500715812637,0.7778950071512322
18,0.7778494280016086,0.7778375574731945
19,0.7778487475781565,0.7779609510088086
20,0.7778458602398998,0.7778347676504339
21,0.7778455012552467,0.7778622650922676
22,0.7778442107087081,0.7778582277428128
23,0.7778448146513258,0.7778443130015144
24,0.7778432074068456,0.7778241793511819
25,0.7778410293986491,0.7778898828970291
26,0.7778424431057173,0.7778465243190453
27,0.7778415070837975,0.7778760992563688
28,0.777841175699453,0.7778513594537456
29,0.7778405383428632,0.7778471896725316
30,0.7778398549510507,0.7778561772838716
31,0.7778394238895907,0.7778343975100269
32,0.7778396886518751,0.7778656312904642
33,0.7778348686483346,0.7778292671030863
34,0.7778365178639949,0.7778255745731572
35,0.7778374871255558,0.7778669985588964
36,0.7778347449474575,0.7778283563204498
37,0.7778349879404511,0.7778333014057529
38,0.7778391321249295,0.7778197489660372
39,0.7778328978747622,0.7778264850008281
40,0.7778312982109206,0.7778290608680574
41,0.7778313644156906,0.7778424307371191
42,0.7778315951266297,0.7778301159738016
43,0.777833253500585,0.7778221327377016
44,0.777831884325233,0.7778493678599374
45,0.7778308114266392,0.777842291738496
46,0.7778328177739953,0.7778240893082347
47,0.7778301807253927,0.777816828959633
48,0.7778327712055247,0.7778203598618804
49,0.7778296991860298,0.7779120470394864
50,0.7778315316101861,0.7778369334732037
51,0.7778302797477807,0.7778188498972664
52,0.777831688616177,0.7778209508796483
53,0.7778290417837388,0.7778637050694922
54,0.777830275229373,0.7778432747270569
55,0.777829051656712,0.7778411363549623
56,0.77782910009155,0.7778339730302986
57,0.7778304536899123,0.7778176960223366
58,0.7778298241584979,0.7778193903620131
59,0.7778297124927721,0.7778440878645658
60,0.7778280691562481,0.7778297172586616
61,0.7778286140251023,0.7778318542108938
62,0.777830014183258,0.7779183088106199
63,0.7778298683028996,0.7778222500242608
64,0.7778302301494212,0.7778170607226067
65,0.7778281890896819,0.7779301137545565
66,0.7778298872095329,0.7778162147211969
67,0.7778281677834332,0.7778360725928181
68,0.7778280224379002,0.7778149680227558
69,0.7778270263814243,0.7778206611981167
70,0.7778290698044927,0.7778495444257562
71,0.7778273900469836,0.7778158170709539
72,0.7778279931991955,0.77781417588738
73,0.7778269675932167,0.7778585259730999
74,0.7778287251323378,0.7778280091049061
75,0.777828131257534,0.7778182392084865
76,0.7778278654674065,0.7778148040877974
77,0.7778288941790018,0.7778232559376852
78,0.7778277208957138,0.7778842455400131
79,0.7778267865200784,0.7778807501934893
80,0.7778265810200874,0.7778296995399607
81,0.7778271172654722,0.777834539969565
82,0.7778267887950588,0.7778535154853802
83,0.7778266490249632,0.7778261107191554
84,0.7778250435845331,0.7778316081605537
85,0.7778262495513383,0.7778217433995703
86,0.7778275247109946,0.7778158529224821
87,0.7778257678218679,0.7778175503681078
88,0.7778254079726591,0.7778208580265565
89,0.7778258078414869,0.7778170521442707
90,0.777825751501802,0.7778700255874369
91,0.7778286504989389,0.7778193984966421
92,0.7778255144786599,0.77781525533785
