epoch,loss,val_loss
0,0.6711814416857244,0.6679070398174504
1,0.6679658677157653,0.667826086652486
2,0.6677135126405291,0.6676691901003456
3,0.6675599354876052,0.6676330905990032
4,0.667478117808583,0.6675705080292657
5,0.6674330395203997,0.6672994930158478
6,0.6673941786480017,0.6673076043649584
7,0.6673128887502382,0.6675808517867815
8,0.6672643637933571,0.668027494030614
9,0.6672163224260033,0.6673075815584169
10,0.6672174818464252,0.6677505058922779
11,0.6671738456315707,0.667296398839643
12,0.6671602717250338,0.6670793070982467
13,0.667156619919206,0.6671883582477238
14,0.6671433202377363,0.6671612491382855
15,0.667147890464361,0.6671569770086492
16,0.667127746834816,0.6672491216482063
17,0.6671312841722115,0.6670720791698389
18,0.667109946232375,0.6674840822113359
19,0.667121011763959,0.667065096078972
20,0.6671072030784962,0.6671601043149792
21,0.667099408695033,0.6673962750446708
22,0.6671034241814079,0.6671598211411507
23,0.6670956298302867,0.6670556557681365
24,0.6671002183837561,0.6670663499063061
25,0.6670926142214713,0.6671110631810229
26,0.6670931749583928,0.667146924884976
27,0.6670902162737842,0.6670657312603802
28,0.6670811373893615,0.6671632089330896
29,0.6670898908387817,0.6670358489819851
30,0.6670823910471397,0.6670597941348926
31,0.6670771916503839,0.6672197014758959
32,0.6670782840882512,0.6672884780479128
33,0.6670763271112834,0.6670350766359429
34,0.6670779696542463,0.6671356461775806
35,0.6670748935817522,0.6671266599565226
36,0.6670740257398281,0.6671308219284928
37,0.6670633330715399,0.6670339942865868
38,0.66706656143441,0.6672179604582396
39,0.6670812448853417,0.6670665701920578
40,0.6670610332816851,0.6670966084186848
41,0.6670656517964257,0.6670169338103263
42,0.6670612137434814,0.6670328801973878
43,0.6670571765312012,0.6671338410886286
44,0.6670598655888222,0.6670621740019351
45,0.6670611903271174,0.6670865239339786
46,0.667053599204951,0.6671123446069344
47,0.6670636078629855,0.6671055598531113
48,0.6670513030894578,0.6671097627644503
49,0.6670524414024157,0.6671165593208805
50,0.6670550909389569,0.6670683627093105
51,0.6670531852168877,0.6670045180297075
52,0.6670474665479627,0.6670096880744764
53,0.6670474979638331,0.6670157940156998
54,0.667053987463806,0.6670995136644349
55,0.667053763064281,0.6670964284511122
56,0.6670540084923872,0.6671364313023853
57,0.6670473162091474,0.6670745376321873
58,0.6670471029565531,0.6671106783982838
59,0.6670537509904771,0.6670412619119839
60,0.6670527140080185,0.6670437869599676
61,0.6670475148660541,0.6670472660963943
62,0.6670441208200831,0.6670401797992715
63,0.6670504185701287,0.6670155563366325
64,0.6670457225885184,0.6669964259079018
65,0.6670491105060833,0.666998924925073
66,0.6670487808642601,0.667143009347892
67,0.6670592439133475,0.6670940320485874
68,0.6670477627355834,0.6670431093010062
69,0.6670446472950423,0.6670248651327034
70,0.6670436609261651,0.6670257459799054
71,0.6670468260699799,0.6671416591473903
72,0.6670454593068643,0.6671433000943205
73,0.6670517692632368,0.6670766530202576
74,0.6670474892930339,0.6674225530020949
75,0.667043251266402,0.6671178809466493
76,0.6670473177181756,0.6670086870122488
77,0.6670487876537041,0.6669945843758122
78,0.6670452863405132,0.6670822951988902
79,0.6670458372289152,0.6673035960043631
80,0.6670535987892385,0.6671133067116843
81,0.6670382523495347,0.6674568247262657
82,0.6670502497908775,0.6672672887889682
83,0.6670388025414015,0.6670315894832091
84,0.6670407750890484,0.6670462632593387
85,0.6670510623501462,0.6670213686029609
86,0.6670401197534871,0.6670469955238456
87,0.6670420536872066,0.6670202647781845
88,0.6670379568750147,0.667034236876012
89,0.6670449642233219,0.667109030854909
90,0.6670445639545581,0.6670694763548025
91,0.6670483709260407,0.6670318069588161
92,0.6670404748547392,0.6670568885045962
93,0.6670373313090394,0.6670108125760005
94,0.6670416101125656,0.6670025709840856
95,0.6670476280905044,0.667043303408043
96,0.6670402664147855,0.6670598296610356
97,0.6670411523658377,0.666998077770025
