epoch,loss,val_loss
0,0.06818592032042887,0.02965983400957904
1,0.02078452664795312,0.020393534133178425
2,0.017799788444765537,0.01721225292988066
3,0.017162886522218784,0.01755474790949236
4,0.016572524109606,0.017306257104940215
5,0.016121228135541156,0.016078786646240108
6,0.015814464134324815,0.019936659860034144
7,0.015665779055067896,0.016522253790948883
8,0.015507011999822434,0.015076965125041919
9,0.015278440645047329,0.014793366234444508
10,0.015145490317964859,0.014747292034919594
11,0.014931663180907282,0.015329401631361202
12,0.014805442908609755,0.015046347371272502
13,0.014820071665462883,0.01401973610498917
14,0.014772600054183698,0.01608657784778486
15,0.014527162183472777,0.014225596843966775
16,0.014512500615990133,0.014039389125854887
17,0.014501241173151129,0.014256792511818722
18,0.014445589791270315,0.014396271726611086
19,0.014329527272666434,0.013296024842423482
20,0.014338691563452563,0.013953051134648158
21,0.014212701472889071,0.013729832783600238
22,0.014124500491709597,0.014473843591625134
23,0.014080828326480018,0.014618751468141528
24,0.013984649419913519,0.013793664205606758
25,0.013991164377380266,0.013383193932492148
26,0.01393556819913633,0.013147217784973587
27,0.013831218410520912,0.013881228530950493
28,0.01367185555851646,0.013429384654105894
29,0.013703969823704412,0.014216775349607094
30,0.013546734313278776,0.013253770376239019
31,0.013461422394068806,0.013898183104048296
32,0.013530001876930804,0.013435456682708364
33,0.013424542000701464,0.013101051464473492
34,0.013368784522603731,0.01406441248731489
35,0.013384832315342848,0.013286878008663506
36,0.013304714121337522,0.013382200667491326
37,0.013226561668119273,0.013917293268309042
38,0.013261745975234586,0.014224502779820717
39,0.01323959194926624,0.012845847494068276
40,0.013227598829863756,0.012687408613970054
41,0.013134678017137878,0.013022859925612178
42,0.013293095782637897,0.013015433989243383
43,0.013050713493044139,0.013003655123725423
44,0.013105940733114952,0.013180062362448158
45,0.01306429230176594,0.013413958439127387
46,0.013050495014130538,0.014538509798035136
47,0.013002957956946358,0.01279331732162323
48,0.013017509516635082,0.01270391804815522
49,0.01296759289213785,0.012652608505438635
50,0.01302276804467721,0.012927956236688139
51,0.01294338789860058,0.013085409873176745
52,0.012982641946607159,0.012600774885555058
53,0.012929826099479047,0.013327282020549473
54,0.012938441250424107,0.012980512057710671
55,0.01291926339140697,0.012749893448914104
56,0.012876999188456662,0.012675626003749612
57,0.012940561203924632,0.012298630708574362
58,0.012813494569752741,0.012463918233535277
59,0.01281147172016087,0.012728302469638826
60,0.012871484484709551,0.012494221763227772
61,0.012777983556376698,0.013493938770413251
62,0.012776420814684896,0.012423385309041583
63,0.012767958765129987,0.012397914771314146
64,0.012778385158814734,0.01312498684750671
65,0.012756037303185905,0.012209291677579986
66,0.01275800407139701,0.012569467766815912
67,0.012746739464494441,0.012919835931628425
68,0.01274963449790546,0.012717230332825822
69,0.012681963601310232,0.012906415910268244
70,0.012706144993256788,0.014048322931708532
71,0.01268240576362844,0.012679395693407461
72,0.01271296121816346,0.012307356082124835
73,0.012712012168832849,0.01303620628282317
74,0.012672064603282676,0.012619159314735208
75,0.012631225657644445,0.012404138373936672
76,0.01263033792290388,0.012326993551059042
77,0.01263861354970987,0.012152989130125151
78,0.01263407319238394,0.012151903397040835
79,0.012638068620658183,0.01297306639995084
80,0.01264026186240841,0.012267082714228416
81,0.012591604893753909,0.012703538573261525
82,0.012598087012575416,0.012453698471798643
83,0.012615404724920946,0.01233261618439672
84,0.012617763394832508,0.012582212297370653
85,0.012607412820882612,0.012497811524137373
86,0.01257632617758553,0.012640094961832386
87,0.012577200614445816,0.01354966770913036
88,0.012552810903544485,0.01213825131875114
89,0.012559963913877453,0.01248603209335514
90,0.01255967748313667,0.012317591026961507
91,0.012545434444162824,0.012433128713840438
92,0.012566514251643079,0.012825750654318345
93,0.012555640957408186,0.012433455747646966
94,0.012481899769035245,0.01225952675228675
95,0.012518031275802383,0.012184398893091282
96,0.012529567490612714,0.012529762766830087
97,0.012476845953166699,0.013050040474656055
98,0.012472788058305153,0.012220616992239473
99,0.01248714073348555,0.012548772755908611
100,0.012492520239739733,0.012602113413788545
101,0.012483128687818866,0.012674933536066016
102,0.01246111804704699,0.012568863828853697
103,0.012446282345279142,0.012547395486966996
104,0.012477358929759957,0.012475389889707193
105,0.012439000337063305,0.012151035285155027
106,0.012462291915805692,0.012663539915481957
107,0.012440110114643107,0.012346530428373487
108,0.012454412725599311,0.01246269763754704
