epoch,loss,val_loss
0,0.4494109780297991,0.4449143910674244
1,0.44495939000305285,0.4448296271985577
2,0.44494328912296727,0.444721928823083
3,0.44480737408147364,0.4446966389716411
4,0.44479418447584645,0.4448697976675578
5,0.4447779154373174,0.4446436918255117
6,0.44472773493679646,0.4447464404271791
7,0.44472094989761957,0.4446283481996645
8,0.44468983885054286,0.4446062883727308
9,0.4446964679001339,0.44457439320259
10,0.4446881436209582,0.4449811656776788
11,0.44467753939923876,0.4446682938127305
12,0.44466534334161395,0.4447705653997568
13,0.44465173094184046,0.44461511213785365
14,0.4446528939818003,0.44457847308875903
15,0.4446504490085167,0.4446178874070236
16,0.44463217756006734,0.4446384099369901
17,0.4446380658909424,0.4445672577131475
18,0.4446247694890257,0.44469848995469047
19,0.4446244710658659,0.44458610572235163
20,0.4446219377355454,0.4445855874577468
21,0.4446163740516335,0.4445811725283971
22,0.44461016610927984,0.44488793642585983
23,0.444609384639701,0.4445971772629333
24,0.44460925908271126,0.44496720800032985
25,0.4446041259281947,0.44456690021839096
26,0.4446087444922372,0.44454549306971264
27,0.4445963071099904,0.4445589503046892
28,0.4445962063908329,0.44457367506275697
29,0.4446004370103684,0.4445517277155561
30,0.4445939302386085,0.44461203477814537
31,0.4445867611162384,0.44461799518346196
32,0.44458848308867543,0.444569346360474
33,0.444580889558611,0.44463575562235735
34,0.44457660486648265,0.44484665495881964
35,0.44458083163890316,0.4445792777366733
36,0.4445768713318471,0.44500183977796776
37,0.44457653634531874,0.44455323815345765
38,0.444576946598675,0.4445820728839183
39,0.4445711331552015,0.4445484863617284
40,0.4445742502045577,0.44454116938131916
41,0.4445680448369391,0.444557144062099
42,0.4445696879600851,0.4445576349647702
43,0.44457183467546846,0.44456590036896265
44,0.4445661000493385,0.44462591671470375
45,0.4445678847225708,0.44458109322316003
46,0.44456641980556705,0.44453004693275056
47,0.44456329204826306,0.44461777162906846
48,0.44455919453401405,0.44465190695769735
49,0.44456830621830606,0.4445418021223385
50,0.44456234396279415,0.4445288208075256
51,0.4445611329691815,0.44467273523139006
52,0.4445617775948228,0.4445294777897392
53,0.44456209584123424,0.4445679580159578
54,0.4445624582139043,0.44474559004785996
55,0.44455953687044875,0.44455087656714487
56,0.44456161488402657,0.4445601364371203
57,0.44455645211808403,0.4446755276128613
58,0.4445616803674132,0.44453246797580576
59,0.4445628424879939,0.44453063475582794
60,0.4445553768620774,0.44458363400795325
61,0.44455272564217685,0.44454050967770237
62,0.4445552107321055,0.4446056292163527
63,0.44455775333588987,0.444559303273634
64,0.44455563618065863,0.44453970800262527
65,0.4445569486751575,0.44466379997748
66,0.4445541143646907,0.4445736879302609
67,0.44455409916909944,0.44453688192900004
68,0.4445593858678345,0.44452388194891124
69,0.4445550356410457,0.44452667785045824
70,0.444556792949829,0.44454835472864196
71,0.4445530517642487,0.44453042412809934
72,0.44455785109851936,0.444584574711234
73,0.44455701697150535,0.4445773199977118
74,0.444554501800798,0.4445355705972345
75,0.44455406626826005,0.4445323210052462
76,0.44455108469619664,0.4445737476975983
77,0.4445539676308201,0.4445434965507564
78,0.44455542606917814,0.44458070255390764
79,0.4445548043735883,0.4445324521058842
80,0.44455352138441806,0.4445371933669665
81,0.4445503864708649,0.44456110528621723
82,0.44455323670698343,0.44453263340457794
83,0.4445523705570958,0.4445506962889773
84,0.4445541462467586,0.4445319089788953
85,0.4445535941135858,0.4445665498377372
86,0.4445535782336861,0.4446149581419327
87,0.44455335804965873,0.44453171284559645
88,0.4445544916221538,0.444524293649877
