epoch,loss,val_loss
0,0.5591105786887705,0.5565963711099648
1,0.5563185214475711,0.5566314737790867
2,0.556198921761441,0.5561003971928107
3,0.5560975955881235,0.5562074037698599
4,0.55609121884877,0.55595805896423
5,0.5560378592311322,0.5560423279814329
6,0.5560390246237721,0.5559491424939177
7,0.5560002482482804,0.5561157294301774
8,0.5559736642099055,0.5562013177658724
9,0.5559602373070185,0.5559220592082287
10,0.5559487583600604,0.5559351627347487
11,0.5559353147576812,0.5559213021552888
12,0.5559108653167114,0.5559564356176788
13,0.5559099351960152,0.5558249880599029
14,0.555921686698091,0.5558541481903114
15,0.5558789569706412,0.5558277142846555
16,0.5558892076853302,0.5558887393835461
17,0.5558717154042647,0.5560134111503809
18,0.5558683864823692,0.5558599460213711
19,0.5558608000079783,0.5558120709790781
20,0.5558477457995779,0.5558314440859754
21,0.5558454131952604,0.5559469952181019
22,0.5558369886532644,0.5558158898176094
23,0.5558324769143037,0.5558052863731574
24,0.555831465547462,0.5560024962235917
25,0.5558304625784849,0.5558057520584788
26,0.5558315934480602,0.5559410297249446
27,0.5558253541628028,0.5557668304620842
28,0.5558198317637904,0.5557668935276439
29,0.5558164782525434,0.5559202104585047
30,0.5558134853327925,0.5557815412138
31,0.5558162825679411,0.5559851350618651
32,0.5558225729243004,0.5557616116095417
33,0.5558050782191659,0.5557918889350986
34,0.5558085266359067,0.5557910749989171
35,0.5558037498356958,0.5558064347165395
36,0.5557972660144969,0.5557657471365728
37,0.5558045353744447,0.555781463742552
38,0.5557994278572379,0.5557622926110961
39,0.5557922373698515,0.5557541036132547
40,0.5558041670934517,0.555739418093679
41,0.5557887739882515,0.5557498856158766
42,0.5557964308063938,0.5558252907864213
43,0.5557868330410608,0.5557794045573724
44,0.5557923999536464,0.5557348677893135
45,0.5557957934253503,0.5557508840158619
46,0.5557875195242908,0.5557452442332473
47,0.5557829018094219,0.5558281942573434
48,0.5557849727412949,0.5557342773335743
49,0.5557782936038764,0.5557748536318171
50,0.5557894808358694,0.5557436234897775
51,0.5557752237623361,0.5558732804826116
52,0.555774948275144,0.5561971086722154
53,0.5557770111909452,0.5557525674403453
54,0.5557708687753637,0.5557362031108393
55,0.5557736711804923,0.5557569442552609
56,0.5557717937978637,0.5557867999408145
57,0.5557717634571661,0.5557549128461416
58,0.5557666639694411,0.5557360383772081
59,0.555768776684753,0.5557673886751123
60,0.5557683808847007,0.5557367297910875
61,0.555768652262887,0.5557720320987938
62,0.5557686557526627,0.555756429643844
63,0.555765600276472,0.5557454229880208
64,0.5557608178179967,0.5557808216984751
65,0.5557661970762506,0.5557908871629398
66,0.5557669428580602,0.5558187043104811
67,0.5557639403650907,0.555821734208327
68,0.5557678569955202,0.5557267383073755
69,0.5557569263606513,0.5558767174077093
70,0.5557674478903034,0.5557405210014609
71,0.5557571518803124,0.5557257117172033
72,0.5557622872376315,0.5557631083516862
73,0.5557569253186094,0.5558243902090465
74,0.5557615001299034,0.5557768176270478
75,0.5557582430528992,0.5557247088801476
76,0.5557595508534762,0.5557340004308052
77,0.5557643444675593,0.5557748638370789
78,0.5557630812081646,0.5557453974896566
79,0.5557566823366593,0.5557275565031444
80,0.5557588024772108,0.5557571046405632
81,0.5557541397454963,0.5557657305123492
82,0.555763324289507,0.5557276922183356
83,0.5557621794016664,0.5557792371614991
84,0.5557588757932667,0.5557322878399794
85,0.5557526277654267,0.5557348198393735
86,0.5557540458394477,0.5557477141432372
87,0.5557625921425923,0.5557437322867419
88,0.555755324794945,0.5557210747124836
89,0.5557599709423363,0.5559019875289785
90,0.5557604036114281,0.5558519302171749
91,0.5557514725557695,0.5557216650499008
92,0.5557585264954233,0.5557630602242634
93,0.5557634900183598,0.555729512984936
94,0.5557559472608257,0.5558165095875932
95,0.5557520355266524,0.5558694893905601
96,0.5557597301959253,0.5557695542612383
97,0.5557567692639452,0.555727363490585
98,0.5557569122311613,0.5557299890234216
99,0.5557585297351406,0.5557513632194576
100,0.5557555420114009,0.5557278559758113
101,0.5557586993166301,0.5557163713883525
102,0.5557538024110209,0.5557328135440722
103,0.5557536817416104,0.5557263529034465
104,0.5557538197754952,0.5558574566178524
105,0.5557551675996354,0.5557241746272994
106,0.5557567042510946,0.5557269934389195
107,0.5557591464757065,0.5557153594996734
108,0.5557512599231943,0.5558042701065689
109,0.5557561180555328,0.5557602985029481
110,0.5557533106090036,0.5557738435179661
111,0.5557560114114871,0.5557280643997949
112,0.5557506684464281,0.5557734203397784
113,0.555758843859925,0.5557548791244071
114,0.5557546886215975,0.5558644082351003
115,0.555754235404321,0.5557478816278519
116,0.5557489738281852,0.5558240506252639
117,0.5557528906155916,0.5558226448430613
118,0.5557563219889112,0.5557817643392766
119,0.5557473737423205,0.5557375882162942
120,0.5557534656658002,0.5557524886971372
121,0.5557507962586775,0.5559016143417832
122,0.5557505105017315,0.5557191765042155
123,0.5557552507105705,0.5557881592521005
124,0.5557544729733321,0.5557746662987078
125,0.5557570962205972,0.5557288683377779
126,0.5557505690682785,0.5558431440488281
127,0.5557485361460905,0.5557220645341329
