epoch,loss,val_loss
0,0.780999424039124,0.7791764368490309
1,0.7782174178554729,0.7790269432825131
2,0.7780138672189357,0.7779468669784868
3,0.7780279362681771,0.7778846155029373
4,0.7779096207477545,0.777853944727564
5,0.7779150634577682,0.7778529878289765
6,0.777908262220005,0.7778775615964278
7,0.7778982645282596,0.7778617503625288
8,0.7778885572514904,0.7778552497586896
9,0.7778826679842763,0.7778356927795979
10,0.7778844646626845,0.7779188734426096
11,0.777875848710746,0.7778811426375699
12,0.7778677884622166,0.7778543224701515
13,0.7355657077700504,0.6667454030910142
14,0.6667952039257535,0.6670083692292718
15,0.6667883136821423,0.6668481351424091
16,0.6667900898076327,0.6667608193960735
17,0.6667857901064709,0.6667928776729196
18,0.6667813854454114,0.6667416908309123
19,0.6667791008050016,0.6668203503559008
20,0.6667829534038827,0.666756546941052
21,0.6667765443501835,0.6667431303052689
22,0.6667759354726569,0.6667524178034023
23,0.6667716076103296,0.6668004714821467
24,0.6667719971967825,0.6667656303339502
25,0.6667736987164828,0.6667842028750379
26,0.6667678573934557,0.6667680465553889
27,0.6667660306078431,0.6668056275057733
28,0.666768145361487,0.6667787547442813
29,0.6667709683439869,0.6667828053162057
30,0.6667640803808779,0.6667915632647853
31,0.6667611069688474,0.6668018517955657
32,0.6667636215573995,0.6667550081059004
33,0.6667672740936822,0.666746059392877
34,0.6667631927669759,0.6667418758271646
35,0.6667605028660976,0.6667306996160938
36,0.6667643985775932,0.6667709768557962
37,0.6667595975548358,0.6667702166081658
38,0.666759866449791,0.6667543950211026
39,0.6667603369708021,0.6667571832169374
40,0.6667598945557384,0.6668408656830231
41,0.6667590360543286,0.6668023595443139
42,0.6667591351619101,0.6667979662234966
43,0.6667574233566793,0.6667456334045448
44,0.6667584290139827,0.6667773018995526
45,0.6667562606255456,0.6667967316530479
46,0.6667570151270616,0.6667644665199829
47,0.6667551287825564,0.6667559483211034
48,0.6667546863012311,0.6667715387368025
49,0.6667551217556751,0.6667720505084944
50,0.6667556071886938,0.6667559839064076
51,0.6667503856014129,0.6667380223794848
52,0.6667539776558737,0.6667634936183617
53,0.666752234579917,0.6668106709757159
54,0.6667528951501419,0.6667655455563264
55,0.6667540042070409,0.6667345724094003
