epoch,loss,val_loss
0,0.6695417352992479,0.6671964192508764
1,0.6673057946931504,0.6670658431928743
2,0.6671760522032351,0.667835761684342
3,0.6670995697074822,0.6671513664515379
4,0.6670855546393296,0.6673077334541245
5,0.6670568573697492,0.6670850890741751
6,0.6670377812558343,0.6670661289697841
7,0.6670124877624203,0.667273877128478
8,0.6669976323564152,0.6671161724675087
9,0.6669869060517052,0.6669826895368306
10,0.6669858168653876,0.6669256207369102
11,0.666973622062394,0.6669451463902855
12,0.6669646770160792,0.6669489713519737
13,0.6669376956481142,0.6670207730002202
14,0.6669242161540536,0.6671482328741485
15,0.666925720000516,0.6669017592375687
16,0.6669077752326288,0.6669387397340154
17,0.6669041957481446,0.66686580255073
18,0.6668867424927748,0.666891590123141
19,0.6669009333007984,0.6668635355035957
20,0.6668845096618098,0.6670228948072523
21,0.6668920978621568,0.6668425232837573
22,0.6668876339987548,0.6668511718141825
23,0.6668827440703307,0.6670529213200136
24,0.6668831045971428,0.6668935232363623
25,0.6668838089859834,0.6668534843560779
26,0.666880200701383,0.6668521628190507
27,0.6668787628301416,0.6668638794652877
28,0.6668753960650039,0.6668698988244788
29,0.6668763369547822,0.6669902735253421
30,0.6668706985073148,0.6668387164253159
31,0.6668733888420486,0.6669567554227768
32,0.6668674844356444,0.6668733349213234
33,0.6668645581813392,0.6668277602929336
34,0.666866947821088,0.6668397557350897
35,0.6668624187626163,0.6672098008929648
36,0.666868200865158,0.6668237076503764
37,0.6668604881443415,0.6668879999120537
38,0.6668604252226743,0.666900235606778
39,0.6668616208100786,0.6668304287470304
40,0.6668546412719082,0.6668999785525036
41,0.666861750013032,0.6669147475777429
42,0.6668569796536031,0.6668753776893427
43,0.6668558014488162,0.6669203598801019
44,0.6668560369282216,0.6668376605208991
45,0.6668570076719906,0.6668494386353505
46,0.6668519513505203,0.6670981960911905
47,0.6668584338677863,0.6669075402373416
48,0.6668523897149514,0.6668648327254776
49,0.6668508249804208,0.666824183067672
50,0.6668485220612848,0.6668351523337825
51,0.6668488125819639,0.6668460450456397
52,0.6668454128651073,0.6668320230455611
53,0.6668512579760875,0.6668853414561553
54,0.6668450526270063,0.6668273317902614
55,0.6668417497285519,0.6668192942444208
56,0.6668409724551445,0.6670411228837801
57,0.6668445882667432,0.6668683116252606
58,0.6668436875164858,0.6668664899712461
59,0.6668443473736101,0.6668269889230468
60,0.6668402469249204,0.666818299039126
61,0.6668365997211161,0.6668473724691802
62,0.6668404918773632,0.6668112998564841
63,0.6668378749249467,0.6668081802706565
64,0.6668389592576047,0.6668523630492444
65,0.6668381511386496,0.6668052324586116
66,0.6668390290515428,0.6668066145172782
67,0.6668333099345634,0.6668453290799711
68,0.6668360364670438,0.6669667477643224
69,0.6668343713075888,0.666815786148715
70,0.6668364602452533,0.6669445491901994
71,0.6668315944107965,0.6670867021563035
72,0.6668360272882393,0.6668961570221497
73,0.6668342735796677,0.666807633327787
74,0.6668335773922736,0.6668982308792417
75,0.6668360640531535,0.6668018693959447
76,0.6668386777366659,0.6668061871386639
77,0.6668357289376518,0.6668598383886938
78,0.6668332136888504,0.6668221051876362
79,0.6668322636013357,0.6668588562579664
80,0.6668357538591,0.6669150096015363
81,0.6668339069465368,0.6668749755428683
82,0.6668323474261604,0.6668079222993875
83,0.6668341958509071,0.6668241574805664
84,0.6668253692960482,0.666995123834823
85,0.6668341852774544,0.6668469190005925
86,0.6668294818335296,0.666829640368374
87,0.6668320510271337,0.6668047105703993
88,0.666836353507337,0.6668354623666768
89,0.6668287273130817,0.6670210106497071
90,0.6668302994200003,0.6668163232117078
91,0.6668352973989509,0.6668300426627507
92,0.6668298520187538,0.6668688009749572
93,0.6668328294198883,0.6668304317642383
94,0.666825502106313,0.6668214415793975
95,0.6668330129218284,0.6668179366783824
