epoch,loss,val_loss
0,0.230997638571384,0.22462988265099065
1,0.22470308734453512,0.22406323212695772
2,0.2242449625132078,0.22359235995164875
3,0.22393302280261135,0.22555004168237114
4,0.2238244345013226,0.22344058492491323
5,0.22372188151996547,0.22338353151423168
6,0.2235915224509968,0.2236301335078611
7,0.2235952673657623,0.2236009458454312
8,0.2235182535713661,0.2233126934867343
9,0.22347228449799428,0.2235415817638189
10,0.22343244642822693,0.22324273455379617
11,0.2234187451612419,0.223394838604087
12,0.2234077034181515,0.22346079823544837
13,0.2233785638104181,0.22399518721304815
14,0.2233638612838466,0.22333265413569459
15,0.22333089637226414,0.22317684397803939
16,0.22330178409821538,0.22334732033182905
17,0.2233186076649968,0.22314294252738764
18,0.22327926915280802,0.22319044706691288
19,0.2233001386634085,0.22317150475517397
20,0.22327627514605186,0.22360520246750665
21,0.22325388051685716,0.22415288288895013
22,0.22324293422374925,0.2231175858536666
23,0.22324523950818656,0.22333386078218076
24,0.22322711491725664,0.2231583480651562
25,0.22322307524146612,0.22308399734958526
26,0.2232205588959964,0.2230719091800543
27,0.22322615337911228,0.22315497669777268
28,0.223224207661286,0.22324060761455272
29,0.2232081041926608,0.22308067524847264
30,0.22319745066030688,0.2232192168238737
31,0.2232244508550364,0.22339123281888276
32,0.22319557496064318,0.22309661268744221
33,0.2231906727560807,0.2230746671150695
34,0.22318309403153205,0.22306919684333185
35,0.22318658602432384,0.22311643494417888
36,0.22317914588347323,0.22313269248819234
37,0.2231772882826829,0.22333256662187742
38,0.2231605585077672,0.2239261458514642
39,0.22316760217766718,0.22316718144393144
40,0.22317097510690542,0.2231478555696478
41,0.2231638762872677,0.2230777568837845
42,0.22314097786014864,0.2231531782052653
43,0.22313802289230106,0.22320950290849131
44,0.2231609457687546,0.2231419157745229
45,0.22313988739454899,0.22331899636732438
46,0.22314728481424118,0.22385609328155187
47,0.22313697548035086,0.22346336908139308
48,0.22313766774391652,0.22305754348450796
49,0.22314969660566536,0.22325840323941584
50,0.22314293676126556,0.22308673706303164
51,0.2231394411534715,0.22332525473670392
52,0.22315160226009248,0.22307980405189856
53,0.22314231902460702,0.22306842310700759
54,0.22315134717140503,0.22316559970970484
55,0.22312983397130506,0.2231860109875279
56,0.22312611377407562,0.22327926239511808
57,0.2231402852493014,0.22312965325031328
58,0.2231306940420885,0.22307801435958066
59,0.22311950724986718,0.22307360531674425
60,0.2231255536903038,0.22309961198429315
61,0.22312818679101865,0.223033191126866
62,0.22311984687273304,0.22320203631746563
63,0.2231393922985825,0.2230699084236959
64,0.22311790231073725,0.2236529828449041
65,0.22312997975759585,0.22315802630360607
66,0.22310045772833584,0.22308046839225382
67,0.2231341389112719,0.22314717182450497
68,0.22312509762989335,0.2230746218051863
69,0.2231184306899276,0.2236943554123933
70,0.22311736596300202,0.22304081948608087
71,0.22312643060532938,0.22305519710995128
72,0.22311986801115852,0.22301732181911138
73,0.2231210245839107,0.22331857373637537
74,0.22311713320860355,0.22331447133946952
75,0.22310544088638848,0.22307086762216488
76,0.22312140451451518,0.22305679699179554
77,0.22309910561395652,0.2238651673566023
78,0.22310908234929858,0.22372523810964068
79,0.2231152641567892,0.22330028121879616
80,0.22312800979395278,0.22317401525696218
81,0.22310352175345174,0.22315027730784404
82,0.22312120406440483,0.22311598830128426
83,0.22310658321329846,0.223214402987111
84,0.22311717918545299,0.22441475897213958
85,0.22312225062994237,0.2236553904806118
86,0.22310681892836626,0.22303082048892975
87,0.22310578833521852,0.22305518725226003
88,0.22310203830529682,0.2230309244938583
89,0.22310115027094946,0.22321317039115848
90,0.22310463893054786,0.22303979677095012
91,0.22311482506683342,0.22306215064992976
92,0.2230948574138078,0.2233511385491705
