epoch,loss,val_loss
0,0.23367234567485626,0.22347485278143775
1,0.22363355895191905,0.225405146628988
2,0.22335500822120616,0.22441056846241206
3,0.22323211859805434,0.22489310479341607
4,0.22316927736095896,0.2231803732755462
5,0.22311760789226087,0.22312444331628217
6,0.22304978674964857,0.22318650777671237
7,0.22298786296013343,0.22302623304628558
8,0.2229340485246868,0.22269817038298245
9,0.22290190753524558,0.2228140344173086
10,0.22287506828670367,0.22275570985992849
11,0.22287037011865882,0.22279346376731438
12,0.22283497151147175,0.22270909548545298
13,0.22280573930201714,0.22272072816752914
14,0.22279448760895879,0.22356507854337432
15,0.22280275556757853,0.22277760718655645
16,0.2227719881583058,0.22312532985772449
17,0.2227479551004787,0.22269420497322792
18,0.2227515793712734,0.22310726425192196
19,0.22274490169614516,0.22263329155539757
20,0.22273378845150085,0.2230244557703695
21,0.22272315063970338,0.22266171300233742
22,0.22270840964533492,0.2230534240788325
23,0.2226934385967268,0.22269462890571756
24,0.2226801268382978,0.22274131512375683
25,0.22269812603079242,0.22281115646693606
26,0.22266773876707985,0.2229245112936195
27,0.22266408038143917,0.2226237730264072
28,0.2226574763041757,0.2228842880308776
29,0.22264360734869154,0.22279440154952387
30,0.22263877571841548,0.22256434726951732
31,0.22263930944349428,0.22264388123753645
32,0.22263461019081068,0.22264151068094645
33,0.22263204478594828,0.22257353235267233
34,0.22262389920060785,0.22256467530212687
35,0.22263157781387508,0.22276082227454883
36,0.2226188102066639,0.22257409188942637
37,0.2226197334330021,0.22256479982111058
38,0.22262585309799052,0.22254334501829692
39,0.22260909091091444,0.22253728980018248
40,0.22261926455314796,0.22274567619446786
41,0.22260470029730695,0.2227480888662504
42,0.22261260834262564,0.22258645966094423
43,0.22261861448557838,0.22276087687269924
44,0.2226079736259461,0.22255877605442964
45,0.22259444654760147,0.22266068734395
46,0.2226098166769982,0.22252933274279754
47,0.22260618197848678,0.22255370503028038
48,0.22261055372647998,0.22261421056302547
49,0.222599821792495,0.2226019766948951
50,0.2226067460839018,0.22282350269647744
51,0.2226005098843429,0.2227335319329728
52,0.22260184980087513,0.2225515514612198
53,0.22260113557081165,0.22257297461293177
54,0.22260088618909876,0.2225828881447132
55,0.22259166924692927,0.22256030093499507
56,0.2226066944247287,0.22255435423283068
57,0.22259410838722304,0.22252822982762055
58,0.2225925378137864,0.22255257504157924
59,0.22259169769424209,0.22253252401689147
60,0.2225823832324022,0.22299283356879546
61,0.22258120228505698,0.2227905454248116
62,0.22259337383576286,0.22252742679184187
63,0.22258117463820756,0.2225532670840436
64,0.2225738866940598,0.2227754489142013
65,0.22258158200997455,0.2225394674477447
66,0.22257215654127754,0.2225759370599136
67,0.22259255342193485,0.22254385561416523
68,0.22257758361001206,0.22266872956350484
69,0.22257652051122784,0.22254342591348417
70,0.22258024488786607,0.22272300269852205
71,0.22257107764640657,0.2225284781852372
72,0.2225824571087233,0.22282599713607107
73,0.22257024051198523,0.22253703199900113
74,0.2225731566996599,0.22252667300014875
75,0.2225731919920291,0.22262655792401978
76,0.2225759828214987,0.22291169495647659
77,0.22257916031915134,0.2225570171331945
78,0.22256691260215625,0.2225971856646739
79,0.2225722833075409,0.22254475815124605
80,0.22257496829480858,0.2225696975998488
81,0.22257665440396202,0.22252797877818123
82,0.22257305669360314,0.2226176341177512
83,0.22257452695925622,0.22272859395437739
84,0.2225719868633538,0.2225651436940612
85,0.22256655105381162,0.22252526019258476
86,0.22256428206533013,0.22260254006231986
87,0.22256444149124868,0.22254484365359134
88,0.2225669785509515,0.22254008550945642
89,0.2225727015251035,0.22250963865083737
90,0.22257211967223808,0.2226303058803525
91,0.22256712294239692,0.22253254410202983
92,0.2225699021216634,0.22251091688205824
93,0.22257074080909017,0.22256598441535722
94,0.222573795330996,0.22253089432532971
95,0.22256400298542015,0.22257493543565718
96,0.2225646963555145,0.2225710556909405
97,0.22256433739354023,0.22270044801252947
98,0.22257452126371968,0.22259763252942202
99,0.2225588054688362,0.2225152489787
100,0.22256733961298358,0.22256968888840073
101,0.22256865006954485,0.22253754263184503
102,0.22256584983546868,0.22251666452985247
103,0.22256897436922643,0.2225072851104121
104,0.22256109999582666,0.22253292546082962
105,0.22256409142429795,0.22255909868860363
106,0.22256754663797668,0.22306530050397216
107,0.22256438842046755,0.2227255066926071
108,0.22257081894764705,0.2225457517370101
109,0.2225666848258551,0.22250576209341622
110,0.2225661005850096,0.22250864742411572
111,0.2225685711869258,0.22293975611330558
112,0.22255998236752086,0.22262229266444744
113,0.22256224222965493,0.22261051423940115
114,0.22256587630183677,0.22251802856661843
115,0.22256313581676093,0.2225009119022573
116,0.2225676255454438,0.22250526114078076
117,0.22256652281159414,0.22252300288481985
118,0.22256250039792752,0.22254395655012013
119,0.22255890293388025,0.22252518345345337
120,0.22257201242099184,0.2226509212634108
121,0.2225677223906661,0.22252349605039687
122,0.22256128746715007,0.22251535143804904
123,0.22256460929669158,0.22294110757837224
124,0.22256637783819078,0.22259786066878817
125,0.22255745107730718,0.22265858755957696
126,0.22257476016801975,0.22251796715016992
127,0.2225566567920316,0.222658342463207
128,0.22255678909271334,0.2225284797382118
129,0.22255480074602157,0.2228711644340094
130,0.22256736251680648,0.22265473877821607
131,0.2225497108514331,0.222520564137854
132,0.22255392159624582,0.222534227445167
133,0.22255997567293345,0.22251112834543507
134,0.22256004974054536,0.22253866948501644
135,0.22255673127160905,0.22252673750775623
