epoch,loss,val_loss
0,0.7802408196274513,0.7787726474163255
1,0.7784438573192877,0.7781950086872867
2,0.7781089348927194,0.7780691965342159
3,0.7779855682302721,0.7778626693389552
4,0.7779333219205283,0.7779536873471944
5,0.7779223459935128,0.7778677048221712
6,0.7779000961067921,0.7781493307047387
7,0.7778844907334552,0.777961367738454
8,0.7778802066195379,0.7778603784795435
9,0.7778772278379541,0.7778526249653648
10,0.7778710758270668,0.7778495344275577
11,0.7778600290916802,0.7778298804836888
12,0.777866738070468,0.777813775338251
13,0.7778579759810131,0.7780834585502189
14,0.7778513145480539,0.7778251433195015
15,0.7778518097514983,0.7778495729117476
16,0.7778534786200233,0.7778243869764929
17,0.7778478255855455,0.7778212963499443
18,0.7778443299550727,0.7779179509165269
19,0.7778440702121019,0.7778792656976591
20,0.7778433112947257,0.7779317847256625
21,0.7778405962199743,0.7778356269038936
22,0.7778415291496877,0.7778181072500149
23,0.7778398390332872,0.7778168610840223
24,0.7778355027596853,0.7778952513971636
25,0.7778386554605247,0.777846835387256
26,0.7778360050838814,0.7778789115307053
27,0.7778348978957164,0.7779201750719813
28,0.77783925048544,0.7778435737855973
29,0.7778312300277695,0.7778110773628462
30,0.7778349195261735,0.7778293622338742
31,0.7778332638350227,0.7778140974991374
32,0.7778332832764816,0.7778135464445829
33,0.7778301770431428,0.7778359705402005
34,0.7778339943561626,0.7779014167951295
35,0.7778339437599355,0.7778586408932215
36,0.777827057318476,0.7778142953333133
37,0.777832106176843,0.7778137564659119
38,0.777827488737275,0.7778289982166243
39,0.7778285313030594,0.777895366938475
40,0.7778286832211088,0.7778218237105433
41,0.7778270475654046,0.7778184012207144
42,0.7778271342260665,0.7778151936625725
43,0.7778280980171041,0.7778691491773052
44,0.7778261721112888,0.7778135694286072
45,0.7778269324872081,0.7778347349935962
46,0.7778236584054352,0.7778126451276963
47,0.7778256594100581,0.7778143099756454
48,0.7778253471816167,0.7778152981999494
49,0.7778272146802284,0.7778208743549754
