epoch,loss,val_loss
0,0.44937472021421504,0.44616783082337297
1,0.44570514718694665,0.4448695875722776
2,0.4448586097855948,0.44464611053170994
3,0.4447598896200974,0.4446637566273029
4,0.4447252225360592,0.44474693022058265
5,0.4446845614560359,0.44471333606663177
6,0.444686947188719,0.4445979348187411
7,0.44466533571758976,0.444580167458016
8,0.444664499227641,0.44467256864897964
9,0.44464544646737847,0.4445643998405182
10,0.4446464188428385,0.44457467381770793
11,0.4446387727657749,0.4446186309121087
12,0.44462974342764916,0.4445530194354708
13,0.4446184805754332,0.44466560870482963
14,0.44461952246913594,0.44470897414548227
15,0.444611486892785,0.4446673623533462
16,0.44460486088452095,0.4445758744297785
17,0.44459932560512794,0.44470083185520126
18,0.44459721702169797,0.4445525397585876
19,0.4445883736667713,0.4445883471527999
20,0.44458417598160044,0.4447694093506626
21,0.44458885091214806,0.4445325165913064
22,0.4445844327017817,0.44456729244061793
23,0.4445726092207137,0.44460448486633397
24,0.44457555376557756,0.4445804419647671
25,0.44458329285415865,0.44463439932827914
26,0.444569753775174,0.4445299366715528
27,0.44456894394406743,0.4446519644177581
28,0.4445721057846643,0.44465705755330787
29,0.4445689210885602,0.4445666590931989
30,0.44456833521129074,0.44455508052859055
31,0.4445651173205088,0.44461618045127715
32,0.44456646813391326,0.4445526160761973
33,0.4445668395252557,0.4445969138192776
34,0.44456519194049765,0.44456454116120825
35,0.4445608028584,0.44453586952266266
36,0.4445641269215085,0.4445713036113578
37,0.44455767209999925,0.4445358823753764
38,0.4445606882933363,0.4445647730425037
39,0.4445547198542004,0.44453352738550816
40,0.4445621553776454,0.44458588363219137
41,0.4445544601806465,0.4445443334118013
42,0.44455777434238386,0.44451828508755703
43,0.44456103685480847,0.4445555252413596
44,0.4445525674442666,0.4445345072829102
45,0.444562357638708,0.4446439614071148
46,0.4445549959957255,0.44452620055480274
47,0.4445596271727359,0.44453097436919103
48,0.4445550246633186,0.44453767098800717
49,0.44455294053158956,0.44451730689103197
50,0.44455422701014113,0.44453126943436805
51,0.44454861303646187,0.444550642141929
52,0.4445521846066331,0.44453817509835764
53,0.4445487135836547,0.44454781348001277
54,0.44454884696779196,0.44452447132496326
55,0.4445523013311139,0.4446376075371915
56,0.44454802533778814,0.44468554571899527
57,0.44454874999990684,0.4445456289919671
58,0.44454728046155334,0.44458553107737314
59,0.4445444348187812,0.444550661886892
60,0.44455086917374936,0.4445245972785997
61,0.444549826385121,0.4445856685969729
62,0.44454637656111073,0.44497959100578915
63,0.4445437556862464,0.4445344205973462
64,0.44454543456184553,0.44453682540072403
65,0.4445448297803091,0.4445250416807738
66,0.4445439937384148,0.44453533552124835
67,0.4445437517795749,0.44457174554356277
68,0.44454412969294854,0.44450933851911767
69,0.4445464024508454,0.44467517184856215
70,0.444547696563676,0.4445151723052373
71,0.44454530992660146,0.44451359451260813
72,0.4445420632017837,0.44453515133845894
73,0.444538737696303,0.44458248964314423
74,0.4445434247574501,0.4445468417764006
75,0.4445423792741848,0.4445391159939115
76,0.4445421290862895,0.4446115938664666
77,0.4445443674465455,0.4445243853493305
78,0.44454168191577526,0.4445158337688919
79,0.44454092821452534,0.4445415859778525
80,0.44454193656488816,0.44450529503171554
81,0.44453965896200875,0.44450758139489605
82,0.4445440724591268,0.4445260132364836
83,0.44453966577393433,0.44454358174250674
84,0.4445391966952955,0.4445113365910485
85,0.4445415938987233,0.4445309257684807
86,0.44454100559935694,0.44453412576881296
87,0.44453875820228544,0.4445234379017028
88,0.4445417334440029,0.44451151787495197
89,0.4445428917273289,0.4445447033155645
90,0.44453678338636315,0.44452711414758384
91,0.4445404628201085,0.4445677140214603
92,0.4445368696668099,0.4445231915111873
93,0.44453822803008874,0.4445367874637727
94,0.444537335448147,0.4445348710191457
95,0.44454138202500065,0.44452183236259385
96,0.44453619631914637,0.44450598045555
97,0.4445375216384135,0.44451267451565557
98,0.44453801985163166,0.4445253445256141
99,0.44453739961300737,0.44455605618119537
100,0.44453518962413946,0.4446246704599698
