epoch,loss,val_loss
0,0.6712327516753712,0.6687564401413607
1,0.6675791917099212,0.6675357313664912
2,0.6674093318539923,0.6674235304295277
3,0.6672890864867688,0.6670787006986348
4,0.6672179113925462,0.667338296674913
5,0.6671907494823244,0.6672196620155505
6,0.6671384633533238,0.667088070075506
7,0.6671171959363026,0.6669935915961159
8,0.6670893673061515,0.6673847860201417
9,0.6670601074735123,0.6670474552043318
10,0.6670448926766076,0.6669683836529924
11,0.6670316970510384,0.667041591941275
12,0.6670199489764208,0.6669994055781115
13,0.6669972952223021,0.6670880673245224
14,0.6669864452040938,0.6668872148464099
15,0.6669775024666791,0.6669512876505888
16,0.666972581730571,0.6669615451514573
17,0.6669629609803629,0.666900214782128
18,0.6669436977272214,0.6669005224781651
19,0.6669477816042092,0.6671403780764444
20,0.6669327651786554,0.6668834773837484
21,0.6669330342329539,0.6668827174023423
22,0.6669204728922775,0.6668565533297234
23,0.6669142944130502,0.6669732464750114
24,0.6669066997025044,0.66687677998105
25,0.6669150007408303,0.6669115390730259
26,0.6669094931867752,0.6668831764912191
27,0.6669061178912497,0.667235444822619
28,0.6669063859752894,0.6668999830191543
29,0.6669004146257721,0.6668705550671807
30,0.6668920866639522,0.6668612491995761
31,0.6668964229691071,0.6668986317241754
32,0.6668974669721364,0.6668379761740824
33,0.6668913496444459,0.6669144726568653
34,0.6668861226962887,0.6668988960256648
35,0.6668970556653001,0.6668553355609809
36,0.6668821646500142,0.6669977948032597
37,0.6668840649354796,0.6669551356258818
38,0.6668811234930768,0.6668919933345122
39,0.6668886519404793,0.6669234954985437
40,0.6668736973898178,0.6668489976497205
41,0.6668794005030515,0.6668516716353651
42,0.6668733903171572,0.666990528331501
43,0.6668744761903965,0.6668842630410017
44,0.6668734144237459,0.6668651446515218
45,0.6668739788239855,0.6668821935913994
46,0.6668727669835657,0.6668500692317858
47,0.6668742082522899,0.6668978347080221
48,0.6668695037189935,0.6668506859254009
49,0.666866321969557,0.6669096006649008
50,0.6668678061118807,0.6668643931597101
51,0.6668621120662267,0.6668291575855416
52,0.6668638405985587,0.6668306671064486
53,0.6668641703082211,0.6668675543948379
54,0.6668666395375763,0.6668274104447282
55,0.6668651294207188,0.6669078012553988
56,0.6668591842957937,0.6668546481996257
57,0.6668609976468739,0.6668454000139354
58,0.6668557319341233,0.6668754131563248
59,0.666860974808721,0.6668724289307227
60,0.6668565197036782,0.6668859213812476
61,0.6668564670052239,0.66686979038248
62,0.6668544008773145,0.6668312512911283
63,0.6668579471576549,0.6668481218607787
64,0.6668527427423742,0.6669390069935517
65,0.6668535834706967,0.6668777718733321
66,0.6668577566272558,0.6669132947330143
67,0.6668563808423126,0.6669221134102966
68,0.6668571927263445,0.6668243815230377
69,0.6668484227399308,0.6668437193700161
70,0.6668560843849126,0.6668227206388715
71,0.6668512330033655,0.6668341349431363
72,0.6668473838232656,0.6669497861164083
73,0.6668471725309093,0.6668318635180925
74,0.6668518171148431,0.6668389551101193
75,0.6668476719230312,0.6671590994368711
76,0.6668476029265983,0.6668484331064721
77,0.6668447305603,0.6668737039376725
78,0.6668451775765984,0.6668623562190432
79,0.6668465534964312,0.6670757439532884
80,0.6668536867259366,0.6668335918161473
81,0.6668452509581271,0.6668737232832992
82,0.6668467258806272,0.6668895298139037
83,0.6668440483107108,0.6668384110069748
84,0.6668448655650847,0.6668261815537294
85,0.6668464999413096,0.6668781594662158
86,0.6668422177915745,0.6669987111174439
87,0.6668415922752954,0.666813362975866
88,0.666842513530352,0.6668497393208165
89,0.6668387216917488,0.6668446276383128
90,0.6668439781184143,0.6669281324441024
91,0.6668447957348604,0.666966965328671
92,0.6668449081468177,0.6669162668602047
93,0.6668375141283553,0.6668224565148649
94,0.6668465664718657,0.6668479534591694
95,0.6668387684542711,0.6668327945041893
96,0.6668450091412762,0.6669188741123114
97,0.6668371105559793,0.6668217973141162
98,0.6668418290191923,0.6668324330012793
99,0.6668383689159622,0.666895290521475
100,0.666838331646198,0.6669978874788687
101,0.6668419116473646,0.6668434447449431
102,0.6668358639550577,0.6669110046426948
103,0.6668421540061404,0.6668271778830819
104,0.6668362339375531,0.6668306504230641
105,0.6668385702185986,0.6668983609149829
106,0.6668413030885245,0.6669022343886402
107,0.6668390099942433,0.6668340917852321
