epoch,loss,val_loss
0,0.45162039843186297,0.4448350998663133
1,0.4450786733051948,0.4447985366763311
2,0.4449843706831095,0.4446827989210266
3,0.4448906140922167,0.4446042678492241
4,0.4447639321194983,0.44528614366912367
5,0.4447593865133837,0.445057912899306
6,0.444764897018445,0.44468575328514537
7,0.44470703873903994,0.4452676234410951
8,0.4447263691577441,0.44474080588030757
9,0.44467831766065347,0.44469544714496984
10,0.44469348074868886,0.4447975049983183
11,0.44468791765482046,0.4446225347057466
12,0.4446568681059705,0.4447321472185717
13,0.44468164870883525,0.4446979642358075
14,0.4446529120814625,0.4446883032250937
15,0.44465371332854103,0.4451062960453128
16,0.4446500731531957,0.44461944548427024
17,0.44463299363198794,0.4445736020285793
18,0.44463381823469067,0.4448081774540042
19,0.4446289129986616,0.4445762346015675
20,0.4446225758774136,0.4445706967976194
21,0.4446249772423044,0.4446326582810423
22,0.44462640476648674,0.4446385370442648
23,0.4446223084477068,0.4445861218880779
24,0.4446167762490822,0.4446196147880838
25,0.4446176434587605,0.44481945622056057
26,0.44461204690556233,0.44471078970592015
27,0.4446151593292301,0.4448209974073595
28,0.4446133885015097,0.4445592019901086
29,0.44461214662527443,0.4446959510334668
30,0.44460446787179303,0.44457689319591664
31,0.44460964122065416,0.444692699326475
32,0.44460849902745053,0.4447305454213921
33,0.44460758269783696,0.4448478922210911
34,0.44460340416186417,0.444600927548728
35,0.44460467496521694,0.44456258374763186
36,0.44460552207989223,0.4445613784026863
37,0.4446022607570205,0.4445863805840684
38,0.4446026066104456,0.4447387946154876
39,0.4445979684140478,0.4447063809588884
40,0.44460173193490315,0.44456477523145843
41,0.44459695238010427,0.4445590618526373
42,0.44460390622101403,0.44469110511668564
43,0.44459943429223864,0.44455848456020686
44,0.44459548000788557,0.44457316166413924
45,0.44459938687972195,0.4445709452735579
46,0.4446034740618997,0.4445765805895216
47,0.44459350372316525,0.44457492400931364
48,0.44459663986334613,0.44457396938842225
49,0.4445978276523952,0.4445564228015265
50,0.44459106617314903,0.4445491224897115
51,0.44459249890872465,0.44455490511641016
52,0.44459589433790575,0.4446488127075413
53,0.4445929929620575,0.44455637039972595
54,0.444596515533773,0.444582965947854
55,0.4445934191099068,0.44456585905983786
56,0.4445948240022148,0.44462482383470087
57,0.4445900894646559,0.44472218324469576
58,0.44458846878998176,0.4445678620273363
59,0.44459496517208597,0.44459484107145303
60,0.44458809119568904,0.44544433830097946
61,0.4445892341765376,0.4448620800049074
62,0.4445890738160549,0.44455823535954686
63,0.4445888712063302,0.4445911449327067
64,0.4445885018738293,0.44460381513493824
65,0.4445867556551811,0.4447607429832146
66,0.44459286234828477,0.4446560076833067
67,0.44458496598235586,0.44482230961174885
68,0.4445880803260314,0.44455612798778354
69,0.44458508907149674,0.44471171569291773
70,0.44459207210890883,0.4446022181741653
