epoch,loss,val_loss
0,0.5068184791161098,0.46700056397077505
1,0.48482124482413275,0.48269070947179665
2,0.4882001561536301,0.48967828925613727
3,0.47588564903377817,0.44747999486908163
4,0.4244777725087844,0.36826404366986243
5,0.38052283578829993,0.3668403390503908
6,0.3782004641829063,0.3617270815156065
7,0.3639771986207802,0.3488919670739885
8,0.35442678881682554,0.3511845184388646
9,0.3643435952570036,0.36364022395981516
10,0.37180381408221813,0.3676513663265963
11,0.382585609154545,0.37812242504641497
12,0.3862096495765576,0.3698833690869498
13,0.385237150579143,0.37891838036848036
14,0.3830311770657365,0.3686550926437694
15,0.38396512382893827,0.3703656335138578
16,0.38530088684779945,0.3923403489467377
17,0.38452599063622867,0.364553630516674
18,0.3828320391982389,0.37924319079944063
19,0.38271625465054593,0.37835603736005813
20,0.3834673772565276,0.3730886929272288
21,0.38109331193873636,0.3793054007129022
22,0.3806776634866385,0.3728588182058688
23,0.3788884120712654,0.37214078243172066
24,0.37786077875361074,0.3678502967344463
25,0.3757457370809514,0.3750064843220323
26,0.3744583701987347,0.3653820705347957
27,0.3757319931360743,0.3609463368801969
28,0.37653683984784675,0.36722412905358104
29,0.37714256345034597,0.3640528775710427
30,0.37739893504612737,0.36798272338925897
31,0.3782081993149339,0.36876448661959255
32,0.3817007310217995,0.3694450787041445
33,0.38324073822997645,0.3742893163905712
34,0.38980675380912233,0.3831847508826779
35,0.3915612385999099,0.38065015180617123
36,0.39571380490164676,0.3883248885833286
37,0.396630632589094,0.3862664121149465
38,0.3977303989976049,0.3955633982533814
39,0.40027355366378287,0.3898600746584202
40,0.4018558140495698,0.3895761539076103
41,0.40282599112208034,0.39255580230782894
42,0.4024427051095368,0.39114277877483955
43,0.40385897911423974,0.3906464971419668
44,0.40379826785277406,0.39266743202235815
45,0.40344818503403074,0.4001823583501667
46,0.40282165405037496,0.3904168363057824
47,0.4050403065461335,0.395016582890016
48,0.4042169851936597,0.3938173901498459
49,0.40445239435759284,0.3944888533620074
50,0.40471709956177515,0.39052042748482096
51,0.40446558594703674,0.3981349322630273
52,0.40645698485948106,0.3998855857182979
53,0.4075086941178754,0.398802988013604
54,0.40757363560578996,0.4036147470491179
55,0.4077939796957562,0.40398228972938555
56,0.40881407002417397,0.3938892008097226
57,0.4084134721856037,0.39917996664544025
58,0.4091799233338053,0.399503498987222
59,0.4099751185956333,0.40656526133876764
60,0.4091315534022405,0.4036804057052028
61,0.40989451269975763,0.40435555930107525
62,0.41023122073172763,0.40010697254065747
63,0.4093561984485478,0.40343483670922653
64,0.4094009650744599,0.4054802003204117
65,0.4095451900903746,0.40314139911483005
66,0.40977174560610147,0.4026181452276204
67,0.4099187244185441,0.40569522334725816
68,0.4099535019301491,0.39891744445606586
69,0.4090546966075516,0.399914332257544
70,0.40979540598192377,0.4012819832483426
71,0.4088125293679851,0.3974486905096456
72,0.40936917421533814,0.3945109778346278
73,0.39813600082715733,0.3949573677453641
74,0.39591930526718916,0.38085437761862256
75,0.3945050777481805,0.38272799719668976
76,0.39509728932075744,0.3861233083723847
77,0.39168907013490234,0.37046378634534866
78,0.3904469118987342,0.3722639640391861
79,0.3882831400103992,0.37462434269070344
80,0.3891100082680476,0.3762267334261746
81,0.39598788423456255,0.3973756003022288
82,0.40202862135083267,0.38988938586582045
83,0.4041468206522085,0.39599617497132533
84,0.405915289200086,0.3978457562831225
85,0.40803747124475637,0.40361134142224586
86,0.4108363301824513,0.3923950050417231
87,0.408197473302829,0.4093385442985544
88,0.4174611426467042,0.2775497117095231
89,0.28705337340478226,0.26798808673468744
90,0.2855777145206309,0.26725066658447555
91,0.28305419705373397,0.2735186245324768
92,0.28453498180631065,0.2616153495605291
93,0.28662206399307355,0.2687744111199029
94,0.2891921328542997,0.28420303572607303
95,0.2888966759236501,0.28457884024755165
96,0.2907588111101199,0.28831630797017344
97,0.29023510276628056,0.27539332923732973
98,0.2814591193406416,0.2531134718477773
99,0.2745483004325014,0.2702632057520942
100,0.26836508738813547,0.25087793460725893
101,0.2806083151250244,0.26590709076590113
102,0.23687202334523105,0.20782404433533067
103,0.22038974604017728,0.18727403507518692
104,0.20829339345081818,0.1997596986809394
105,0.20332723503394856,0.202129621473277
106,0.2047299124020562,0.18455038455497966
107,0.20622211034230287,0.1916722730801815
108,0.20739403152041774,0.2002647682236421
109,0.207159197391223,0.1835724682486142
110,0.20826320465115145,0.19059520912810207
111,0.20849473850666095,0.2027522323163551
112,0.2064466752606235,0.19693038020438816
113,0.2043257239375183,0.17717168605412284
114,0.20127746640897387,0.2062718090031593
115,0.20521399090520676,0.19146865699219723
116,0.20570900045829615,0.18108281507300125
117,0.2039621655317805,0.19828021516927885
118,0.20532046003545598,0.1892023911462963
119,0.2057221680760479,0.18451099008345284
120,0.2080965037171027,0.1899564901885783
121,0.20355546327350998,0.2033780292558595
122,0.2075411234613803,0.2093956695594652
123,0.20130519025760302,0.19533773726286055
124,0.2004728185580217,0.184421541400095
125,0.2041393071949053,0.17189260261117142
126,0.20228763413634138,0.1845365668857954
127,0.2025655495891754,0.1896484937480612
128,0.20525323165406426,0.17593909470745214
129,0.20270496154789158,0.18088884705761427
130,0.2037559442883201,0.20956340649745175
131,0.20570301144814893,0.17355148393099196
132,0.20832288077623723,0.19261945841720748
133,0.20316830071375716,0.18791570365664145
134,0.20036483172485106,0.16982698776915775
135,0.1997985614122723,0.1753173768049916
136,0.2060587419737443,0.1927956932039833
137,0.20995223741356037,0.1944992512041128
138,0.20870531102021536,0.20155288369616092
139,0.2106082983892694,0.193565303273058
140,0.20384927029661137,0.1902239371352809
141,0.2043867586470908,0.18054436053125145
142,0.21168194474171487,0.16928355347573898
143,0.20790638366072392,0.18502452749620768
144,0.19926976751414038,0.16950554256610448
145,0.203385528453963,0.1652290655128017
146,0.20606532394528676,0.17558099309477923
147,0.20404133228637236,0.184219755591044
148,0.2027105986238193,0.21356301422465385
149,0.20475799604047307,0.19769979414736652
150,0.20436594566162064,0.2014048577719254
151,0.20254191003448005,0.18629486716536903
152,0.20237844906074348,0.20259502186677356
153,0.1995739162825852,0.1835784405211153
154,0.1999249826553914,0.19387358516431175
155,0.20227009199148746,0.19378879905076316
156,0.20775708790829808,0.21633757207463272
157,0.20339791370119503,0.19005460298569446
158,0.20066439948803325,0.1864071811924982
159,0.19744723698766017,0.1916624932610904
160,0.2011958800143094,0.17923053602769606
161,0.2020762493546537,0.16750735397308758
162,0.19987158785216053,0.1920387140624431
163,0.20149420495989986,0.19659810625575336
164,0.2041855257132547,0.18453161305532553
165,0.20362350504270657,0.16625795552790776
166,0.20225153931920573,0.16912587872620352
167,0.20222111422714475,0.17465873661244488
168,0.2022992762908947,0.1913722091381627
169,0.20181927146266498,0.17275642252570547
170,0.19734793681082585,0.19565748840264666
171,0.19965730969020598,0.1700974229926092
172,0.19701815082086363,0.1801067756896143
173,0.20122949585473413,0.1997436981856964
174,0.19781848756696205,0.1719458298647413
175,0.19911096861465372,0.18166056390625338
176,0.20072672172463674,0.19692625616983625
177,0.19976091575470092,0.1673098081500867
178,0.19910529232044205,0.17841888890082006
179,0.19642249276216844,0.18539019475890223
180,0.1986866072356272,0.1583566274126402
181,0.19959948556147797,0.18387538112329516
182,0.19756672647502496,0.18845258085108593
183,0.19593217793843157,0.18015689597462892
184,0.19688726440488957,0.17296381393519555
185,0.20072640158194338,0.17566263765073142
186,0.20084154329521003,0.1955818045816745
187,0.2020537115091519,0.20727584456353085
188,0.1992312254224845,0.17555029472687533
189,0.19527196047379436,0.17538888951221035
190,0.1963466126724875,0.197466593738513
191,0.20315003984694857,0.18271293519939508
192,0.19882816799896227,0.18470753832840034
193,0.19650433532935346,0.1619492466631327
194,0.19811560779357318,0.1666277222329458
195,0.19633981942249049,0.18063125383599876
196,0.19883629068625058,0.17669423015078128
197,0.20070641193029692,0.1951544872516709
198,0.19913106726752006,0.1919024816604703
199,0.1997741824752993,0.18526373703647242
200,0.20090552873843961,0.17211169323162856
201,0.20025053999716524,0.1942550396251227
202,0.1968541712009554,0.17206444580110866
203,0.1962234890825457,0.17494083930397936
204,0.19568777422634342,0.18412663743499705
205,0.2035198499866241,0.18019598561332464
206,0.19806587139217496,0.16770245692300909
207,0.1967243185991959,0.17220866153253375
208,0.19761620978299949,0.19785944543537795
209,0.19680220412788726,0.17226679918327573
210,0.19710642186333713,0.18501240777141387
211,0.20114882083700525,0.1778556991724302
212,0.19887869213696577,0.157758123037753
213,0.19601663670760933,0.16720388331042563
214,0.19687586066295965,0.17282537096301306
215,0.19606591974921841,0.17962610796858405
216,0.19236391189572907,0.1790814037716285
217,0.19500658917817756,0.17098185148357686
218,0.19397004939716975,0.1651335938200766
219,0.1952681404700001,0.17080642075969557
220,0.19270736955219417,0.17767003971286524
221,0.19329058309253172,0.1742147260772589
222,0.1940607298120892,0.18318077914810782
223,0.1947454818004041,0.16328219008568054
224,0.19399537029359742,0.169768189998151
225,0.19599372351603161,0.1737007111334481
226,0.19571798565766985,0.17594875134204258
227,0.1969065192303688,0.20389322134436072
228,0.19769348026656036,0.1721195296429233
229,0.1980537750023446,0.17175312240291224
230,0.19636517212235574,0.16826022726255038
231,0.1995608325151326,0.177793221132155
232,0.19322786014452636,0.16453333849406374
233,0.19855134684643108,0.18103335092127934
234,0.19715143824152523,0.17146962552956926
235,0.19780059157015323,0.1671632898305473
236,0.19916477286034256,0.19017071567987398
237,0.19323828970666507,0.1821651628804
238,0.20250872435639325,0.19288686826978035
239,0.1981015620733813,0.17905833082304476
240,0.19592342479861707,0.18843718957458788
241,0.19711457758689288,0.18126563131574014
242,0.19684590283724712,0.19789839647092872
243,0.19475663760059075,0.16815788001880555
244,0.19667158559333983,0.18783487692392992
245,0.19778341002506222,0.16767747510862613
246,0.19071618696268228,0.1771921284831972
247,0.20154538468943892,0.16217317980814847
248,0.19346856896420844,0.16356736523905605
249,0.1997157622226994,0.1989707170552688
250,0.19603919236065387,0.19537933958781076
251,0.19838659892932212,0.17741973748711404
252,0.19628800347530775,0.18853135609259827
253,0.19498798214226698,0.17003209093892865
254,0.19489265926521745,0.19464342554865058
255,0.19668936030231982,0.18863063048638973
256,0.19640851541341162,0.21302323944237445
257,0.19993276344381458,0.18027015931275103
258,0.19935868505975135,0.19766914922135406
259,0.19591168744815626,0.17040528720443232
260,0.19758380761892674,0.17955228014780766
261,0.19419379625841676,0.19176478339351813
262,0.19434732843717512,0.16723335892456012
263,0.199754738848177,0.17325047391224963
264,0.1982917437772099,0.18925216207141093
265,0.19592276588380098,0.16904533086984103
266,0.1951875815109955,0.16370935252358243
267,0.19613069549000425,0.1964001812352472
268,0.1975441875098516,0.19559332174443786
269,0.2034208879386969,0.16219805360969447
270,0.19639152633271914,0.1827377258390541
271,0.19556592752655252,0.15297487579233174
272,0.19578140666730684,0.1727233356204481
273,0.1986846505380649,0.1698130282743201
274,0.19785900866027645,0.15989397475591494
275,0.19579466951670024,0.15919697341151187
276,0.19442669917448915,0.1795737990828697
277,0.1954032876234737,0.18737591462005473
278,0.1965497902376379,0.18001893115683437
279,0.19182986536805482,0.17227353259109565
280,0.198323982832529,0.1700478304109897
281,0.19651111139715624,0.18825539266771468
282,0.19654276576354732,0.17773313709808883
283,0.19608059140751594,0.19260712420742815
284,0.19590902156371484,0.19749952719826913
285,0.1971657881669575,0.16723655773460536
286,0.19420244924122576,0.18438785668424293
287,0.19673516478636663,0.17580127295021383
288,0.1961549940667183,0.2102284013707523
289,0.1955343418055587,0.18584883183640763
290,0.19459460436892834,0.1610830841025877
291,0.19611419386548296,0.19308086417045006
292,0.19788622688784968,0.1844101349669549
293,0.19600606849082083,0.18563038722303973
294,0.19401161654961765,0.17080628639050327
295,0.19729737576534995,0.16992855977616916
296,0.1944938877182041,0.19183132725149604
297,0.19197936301870788,0.19131403699246746
298,0.19902959410592522,0.19442360411268006
299,0.19223617848089272,0.18298332010937565
300,0.19771802895289245,0.17592671818166808
301,0.19621504740201406,0.16817028765238073
302,0.19661831293555854,0.1651795806735166
303,0.1969678148055534,0.1988060630228732
304,0.19533668911094956,0.17694969291798035
305,0.19528761486426818,0.17644969614453454
306,0.1893883588657581,0.17523759684651125
307,0.19862559767697546,0.16319222264903308
308,0.19861683057700033,0.1674475359606197
309,0.19314591490107474,0.1857569448549915
310,0.1957161539642931,0.19168103375158257
311,0.1967103953222386,0.1606644577837028
312,0.19469394836780266,0.17201330568626724
313,0.1949198699230961,0.16691435553609807
314,0.19974128134864316,0.1914937132771032
315,0.19429913662868342,0.1726874602574858
316,0.19800183053115766,0.18113514121207272
317,0.19695420227319502,0.19302877862573894
318,0.19698281922071673,0.1944936782991971
319,0.1982866484615252,0.16400594341303293
320,0.1935817888922257,0.17039612147313174
321,0.1993847749085068,0.17041235963425114
322,0.19689630768258126,0.19909161766777853
323,0.20132037709585482,0.16729080391240667
324,0.1991911301081129,0.18264325701682324
325,0.20051914341539312,0.1769149917477026
326,0.20109659547118736,0.19890744203220886
327,0.19761347211450694,0.1683883826118242
328,0.19646586892273216,0.16514783281459522
329,0.1991835634271018,0.18249252324463724
330,0.19835442439210024,0.19423414091708252
331,0.19982487881045452,0.1729037214097021
332,0.20081156417191456,0.18400676042758862
333,0.19613657390875971,0.1750513452451438
334,0.19988356458006812,0.18222344076906308
335,0.19867625271530745,0.18290701927212907
336,0.20266789169334393,0.19006081943965467
337,0.19533900940399185,0.18864304216574193
338,0.19960416341833265,0.1648500750713115
339,0.20104327528096502,0.17811272799639413
340,0.19949341651132638,0.1774428603845783
341,0.19969644010376683,0.17308632400248497
342,0.19896033665330576,0.16047744935153505
343,0.20055565984843732,0.165227365957157
344,0.19777470330992858,0.16244815878023194
345,0.1957667160758393,0.1638234893967057
346,0.1987359559328722,0.18243376867170868
347,0.196571326167654,0.1577547825725886
348,0.19729368245120432,0.16462155116902813
349,0.2033988840812497,0.17100081391097433
350,0.1994011829868495,0.17849194201410712
351,0.19669393998541707,0.19042483529615514
352,0.19996631349162233,0.17729789594918982
353,0.1989137419133926,0.1638431731837889
354,0.1947648518746324,0.1731233635377771
355,0.1966754534809614,0.18508248105233546
356,0.19917468178710587,0.19357180124958764
357,0.1990829457481988,0.15561706017064786
358,0.19659902926662462,0.18598888216991544
359,0.19967739435313323,0.17693990236111484
360,0.19831497116769245,0.15721484561228055
361,0.20024350853703862,0.19960869898124295
362,0.1988173808506448,0.18722681847019468
363,0.19753621133278124,0.1868998039258025
364,0.20211375776907617,0.17646397730216512
365,0.1988391521141874,0.16681237282391692
366,0.19705353226426311,0.19414796644341034
367,0.19628645592837407,0.1679698749965067
368,0.19403555567601888,0.1788721786489991
369,0.19953488524583318,0.17928751518666133
370,0.19437107796386943,0.18204367914675915
371,0.20238976166855327,0.1770128917886972
372,0.1997686315307038,0.16250125188806816
373,0.19598548952266753,0.1886017632794926
374,0.19691483649632913,0.1845490627267178
375,0.19967350973595055,0.17779526229721407
376,0.19841419006709002,0.16775914478603082
377,0.19972135843657,0.17073117151868183
378,0.19850936623738347,0.18533898586585187
379,0.19769143225620692,0.16414335862848828
380,0.1959767158178212,0.17530424812927714
381,0.20045291004087523,0.1646520917398683
382,0.1993437042887167,0.176078495987777
383,0.19597548624570613,0.17568393255089246
384,0.20069622587290503,0.17885715131601576
385,0.19933402939713735,0.17475819895845185
386,0.19409776945337118,0.17756147112259266
387,0.19456107996636443,0.17595499077695698
388,0.19514070407783005,0.17180259383468055
389,0.19424991792650054,0.1771821467986517
390,0.1935794239076112,0.19356994684888512
391,0.1973459452188177,0.17516820794875546
392,0.19392401286118705,0.16970308048572705
393,0.20207697584879675,0.17501822750259782
394,0.19616601324314883,0.14630461096669523
395,0.1955363148157831,0.18418438311580984
396,0.1940588057160282,0.19063734224958503
397,0.19841707771797357,0.19040983041488194
398,0.1970261113761331,0.17543803968105903
399,0.19285146117829782,0.18277564128506532
400,0.19141636756088712,0.16708607068425008
401,0.19536886529790032,0.17073349194820225
402,0.19584131498726534,0.1820149412165501
403,0.20167448948756111,0.17873898281435752
404,0.1990654381702272,0.1802759765049747
405,0.19670189338789093,0.19119372699283294
406,0.19598928232082455,0.19693305513335665
407,0.19657984013847118,0.17854511281497476
408,0.19558200676092427,0.16188972862621132
409,0.19295139806114323,0.16098519449358203
410,0.19588160214664266,0.1699975238438187
411,0.1940232662321757,0.1880800425418268
412,0.19986239207281672,0.1625838348996291
413,0.1965051216008566,0.15888606670482383
414,0.19834585981570083,0.17061213224585262
415,0.19410311087048787,0.15802739164259083
416,0.19506919169001918,0.18160577662930116
417,0.1915061367358521,0.18431304943260474
418,0.19757517823855653,0.17719169436191703
419,0.1936340912711992,0.17482268805567824
420,0.19600513285631946,0.17749346031762525
421,0.1929039676174176,0.16460645529305548
422,0.19501080483698444,0.1670008675498857
423,0.19300399005389232,0.15841189920667031
424,0.19345219394595597,0.17627223524034918
425,0.19395428395671524,0.17589968848670667
426,0.19343455696253659,0.165066873676775
427,0.19262339189041147,0.17137380346549996
428,0.19238760107331615,0.1660991392576892
429,0.1911626510816417,0.18211713300366617
430,0.19098489301548682,0.1710086571201153
431,0.19195435483821577,0.16811709458797863
432,0.19115007777127335,0.17274567206120434
433,0.18788919475772303,0.17537181421632173
434,0.19117573937542623,0.1628170762484527
435,0.1893524205763277,0.1747509150426973
436,0.19662392025680947,0.19235566250197794
437,0.1940897434032697,0.16917539407346976
438,0.19209521215001074,0.17388077999958393
439,0.1966874752399161,0.1663567739955628
440,0.1955900650611408,0.18344310148315535
441,0.18852707769254223,0.16376206642215235
442,0.1942286429395207,0.17634910306266283
443,0.19457099587916374,0.16791123212936268
444,0.19822529227518254,0.16573756969671316
445,0.19311809942995806,0.16179508133111456
446,0.19363633709416972,0.18819958297352013
447,0.19495159837839415,0.1744090452990197
448,0.19544683102009108,0.1975095238663027
449,0.1957112243302244,0.172854245791025
450,0.1959104194200868,0.18714245903322616
451,0.20128004082577597,0.18208826104533324
452,0.19732915644618057,0.17053327813521085
453,0.19283712613615964,0.1783179176211263
454,0.19979096365441903,0.20024841886246025
455,0.2005816833864299,0.1585263477810368
456,0.19616844356179142,0.18341361482546098
457,0.19992276262655723,0.19876026606221037
458,0.20027223799964317,0.17558047771689078
459,0.19787366824041452,0.16362442205576982
460,0.19350865698284764,0.19933150491097262
461,0.2010474756812687,0.1661167111727038
462,0.19466207913762565,0.1728257748585756
463,0.19844043484742313,0.20358603146006576
464,0.19253012311639642,0.17391188180437217
465,0.1989997135732862,0.16886025868303303
466,0.19917192192767544,0.16793583678088983
467,0.19485753125471653,0.17436200374444827
468,0.19437587545882407,0.16256932898967777
469,0.1937472263602711,0.16896342450272125
470,0.19806294536871685,0.1725315733532691
471,0.19968217840607314,0.18486744225401527
472,0.19529551429618938,0.16299312714055098
473,0.19690545806162457,0.18289300151339835
474,0.2000578021724447,0.19066481736812801
475,0.19951195103659047,0.18756376852552628
476,0.19459524150374982,0.16929217983675265
477,0.19751616794285443,0.1768321087841171
478,0.19494076190496998,0.17782467368463878
479,0.1948235673334101,0.1670485870190841
480,0.19566261906513302,0.174432374319413
481,0.19430368826638975,0.22118516481571904
482,0.2022935936598183,0.1749843310538294
483,0.19834193058437008,0.19846340929229334
484,0.1979738260082585,0.1787854609474387
485,0.1991695257351934,0.19257849707740823
486,0.19658655666714187,0.1808779113812059
487,0.19533461730161922,0.1776228170980124
488,0.19709538664225099,0.1758707202412335
489,0.19996149486584439,0.185570592226809
490,0.1949910171371665,0.1956719470687428
491,0.20187846882094582,0.1653324083117114
492,0.19560385985578374,0.1642049602288003
493,0.1991713107597056,0.18358126616703777
494,0.19676516074047004,0.18419868940665388
495,0.1933508233415137,0.16588441410117385
496,0.19711416585744618,0.16160677226397027
497,0.19468644374518468,0.16451431528592356
498,0.19522208533436655,0.1606247752857848
499,0.19741471599546268,0.18274126409449348
500,0.19564384687766373,0.17695468484226323
