epoch,loss,val_loss
0,0.05181439361294531,0.02498741165616968
1,0.020292365093331564,0.0202748504783912
2,0.019131223040137382,0.018259617076636692
3,0.018216925584381982,0.018104508269587462
4,0.017549687490609006,0.01623673069270018
5,0.017022178931707852,0.01875770565113122
6,0.01653974847742735,0.015873093329943144
7,0.01606980161107725,0.01724183028494528
8,0.01574670658304551,0.01599176887783312
9,0.015614639460734629,0.015830787137224717
10,0.015288404212579463,0.0156573143970249
11,0.015223406108424566,0.015327184395887716
12,0.015079326553067122,0.014559715183881612
13,0.014955872897084806,0.0166757627129185
14,0.014804819261668548,0.014864341306405387
15,0.014696360076968989,0.014943213470594463
16,0.014637568828039302,0.015211052717941423
17,0.014555640580021354,0.014252419442992204
18,0.01445950614049952,0.014427883582878349
19,0.014494370553674113,0.014304261990631041
20,0.014338989358150455,0.014158044868696564
21,0.01437485248112309,0.014215046705368434
22,0.014177816725369897,0.014116807867109627
23,0.014171256682632902,0.015298685317318286
24,0.014204399557546443,0.01321337632603814
25,0.014124739807137018,0.014510241049173157
26,0.013988630531388007,0.01408807340334574
27,0.014041700222445054,0.013393400472683586
28,0.013875389624978599,0.013308676382614572
29,0.013809375931236928,0.013274085823973414
30,0.013843357592920316,0.013516417144804675
31,0.013695907743429755,0.013814733720502398
32,0.01369500461834361,0.013531061612698191
33,0.013655874429719295,0.012927343064535492
34,0.013626057009690567,0.01314438598429225
35,0.01355695724216145,0.01345152162828901
36,0.013617240342459922,0.01347758787922173
37,0.013483449929309017,0.013379846257215397
38,0.013537251036591747,0.013687051369556717
39,0.013501658321275523,0.013974953035618324
40,0.013469510488404878,0.013334036532502909
41,0.013448665017342636,0.01308004269214629
42,0.013378495852692459,0.013791508613981622
43,0.013444621256309689,0.012585793064893328
44,0.013312727933709943,0.013201603602165029
45,0.013306329724968176,0.013275002855021811
46,0.013323530084605188,0.013036422442099444
47,0.013342866520330376,0.013164946780292775
48,0.013194754912935465,0.013359287394113635
49,0.01328907878081317,0.013724065829003715
50,0.013270250193435406,0.012870652659359404
51,0.013218079166653574,0.013251183169984049
52,0.01320086828770953,0.013134488586807814
53,0.013189172671816417,0.012999883095361755
54,0.013158573673769628,0.013048820116235956
55,0.013148743711899844,0.012867200860370034
56,0.013132306913482638,0.013979217563536268
57,0.013131831406325694,0.012407081374995613
58,0.013114987045775083,0.012987584072088929
59,0.013104875146995302,0.013183678831285786
60,0.013069829832178697,0.013788656192478117
61,0.013079929975804228,0.012879634388807985
62,0.01306130278318321,0.013003714653956831
63,0.013031884245786964,0.012684495714273554
64,0.012993883124968195,0.012544688124385276
65,0.013016448582198128,0.01297724760893187
66,0.012990451457366404,0.012993833993933633
67,0.01300424005970793,0.01325267040986503
68,0.012992565019830461,0.012716138151661486
69,0.013020326126808549,0.012984016400394458
70,0.01299649246290023,0.013397367687308906
71,0.012932656552218638,0.01273138565762389
72,0.012977933568759394,0.01284677119135265
73,0.012936769852558467,0.012998962533607081
74,0.01292840643049683,0.012503443488264203
75,0.012894595106604283,0.012852475181610206
76,0.01287314439844504,0.012776218980975985
77,0.012881288970375472,0.01282024847264991
