epoch,loss,val_loss
0,0.531784049112448,0.4269233726335494
1,0.40944297338942354,0.4199832518127083
2,0.41314033182452525,0.40570615945882277
3,0.4131055033678631,0.3971590858185112
4,0.41049726972048234,0.4127192707304514
5,0.40865656126031485,0.4071684879586747
6,0.41310430070955595,0.4054555283019932
7,0.407027165619113,0.4026057733591843
8,0.40483432730658353,0.39180496398538894
9,0.40409609232303334,0.3939431191854996
10,0.4045059728465206,0.3887198541281067
11,0.404888965564666,0.390184318327772
12,0.40394601302085925,0.3943938630344177
13,0.40464530979319635,0.39108111979270793
14,0.405076439729888,0.39493939612169576
15,0.40536009260028194,0.39641823651946806
16,0.40405573752477203,0.3938090829935804
17,0.40586327310565185,0.39235218580821035
18,0.40673367490918994,0.3930475969858403
19,0.4070679991722679,0.3967342778699268
20,0.40362381481295295,0.4001917140918542
21,0.4040038201996653,0.3950469313687759
22,0.40574592877206184,0.3940211724557553
23,0.4058570831799679,0.3934549307531509
24,0.40511433136977737,0.39533565311612534
25,0.40448622116082006,0.39600649974716867
26,0.40643885525629864,0.39487823206510897
27,0.4077215810402406,0.4093039720521353
28,0.4089871911074427,0.3981079115299324
29,0.4080433817885572,0.38977944895613353
30,0.4051767579561991,0.394983249803933
31,0.40331130903020657,0.3966977577700611
32,0.40740530621662413,0.4019345598561423
33,0.4104889313594329,0.40569390334194816
34,0.41194159897873633,0.3968365927474557
35,0.41165868281651075,0.40122626193790994
36,0.4150002812333911,0.40681414361440393
37,0.4242701558686561,0.4211384506327201
38,0.39691797187693306,0.20965989498567092
39,0.22555228368007688,0.20271334469600655
40,0.2228963721594174,0.19843821515694507
41,0.22216007365978402,0.1955496011494461
42,0.22300950248392937,0.20863549780591606
43,0.22144885770351194,0.19766215067400927
44,0.22037579215687814,0.19084592925674254
45,0.21688858538175182,0.20345743514462164
46,0.2165575256343368,0.1971118547192877
47,0.2166515876837581,0.20434985591514712
48,0.2164052062564426,0.19386092112961958
49,0.21779585483191397,0.18990864922846032
50,0.21691743685878057,0.19276684841351333
51,0.21854622285667177,0.2145297865323787
52,0.21772357999539965,0.1814903486123119
53,0.21600853752413338,0.2167245860798865
54,0.21833070114457445,0.20758576958124902
55,0.21683696462072247,0.21070572239917945
56,0.21543652781670233,0.18816622945861544
57,0.21338350857071262,0.19040949161634166
58,0.21241232885612096,0.19810446826322115
59,0.20783633860848028,0.17278921592395516
60,0.20814541803537417,0.17914402354346926
61,0.20602245967713095,0.19953209952096254
62,0.20182364578131767,0.20171575177675546
63,0.20387971303541122,0.17948215302512133
64,0.20290766659376624,0.20120993080154215
65,0.20449851024493898,0.18428200836151531
66,0.2000057824271665,0.21488216806323676
67,0.20087409891384683,0.17809271136182636
68,0.2005146476481077,0.17259773759034644
69,0.19732865864495866,0.16564150185169155
70,0.2014018561568954,0.18873961743822978
71,0.19895069987225017,0.17468071955343636
72,0.19753356289258486,0.17430332981655705
73,0.19539030900390314,0.17414153980616048
74,0.19934117933995812,0.18735174466609578
75,0.19330750255109214,0.16025125023033454
76,0.19748041704356623,0.193782144888424
77,0.19932537546141638,0.15633466638677593
78,0.20288483079650896,0.18752396570102567
79,0.19343509202857287,0.15664835690558193
80,0.2008811774716484,0.18421996989961487
81,0.1987591070725287,0.19383174887819374
82,0.19248227155108533,0.1742930220235683
83,0.19346927540550987,0.18014234400868134
84,0.19747822393449566,0.16399982064703644
85,0.1998136053851945,0.15526540807926853
86,0.19949880424592134,0.18194454306208815
87,0.19580460655436718,0.18052893861740146
88,0.19212584402397287,0.17404978250130576
89,0.19852871880185405,0.15595053403322962
90,0.19932963354862945,0.16673439308330593
91,0.1961192708376119,0.16380021493549693
92,0.19725374611828633,0.1849034304753381
93,0.20058215766859283,0.16196131917935427
94,0.19462354391884745,0.20330704373455274
95,0.19841261269996682,0.16850008913731143
96,0.1949249584314158,0.17718036079980673
97,0.19506871908736362,0.1618285847632266
98,0.1967898696768198,0.17984002485177417
99,0.19119096683750716,0.17412999919200375
100,0.19288511321151094,0.1887544856451587
101,0.19561662349841005,0.1739878422083023
102,0.19412395016228456,0.16914078332160343
103,0.19885219385226569,0.18961906638922613
104,0.19519230444058716,0.17981773910084012
105,0.1962670243138985,0.20890967926597068
106,0.19656023208638557,0.17051729319974393
107,0.1967707653101876,0.18113647975268662
108,0.19401170455699535,0.16977213685354475
109,0.1910480554286334,0.17590005168927966
110,0.19726317156728604,0.16628287804343142
111,0.19438263554152824,0.15801394846652
112,0.1913235005166986,0.1848617598543792
113,0.19247763410961027,0.17926906956023086
114,0.19058123665104668,0.1826377205591834
115,0.19378488693091508,0.1717727444330914
116,0.19158552813944485,0.17571969497316733
117,0.1923948395952618,0.215569798811835
118,0.19312892108560084,0.1895738709203446
119,0.1942418257026173,0.17290114608447008
120,0.19196923713175226,0.17401817565653016
121,0.19384138364133408,0.1731240589292198
122,0.19103021829200686,0.17950490809794759
123,0.19223133490073213,0.18896342986855058
124,0.19237803808338255,0.15725165645532374
125,0.18799123380610125,0.16107931750772878
126,0.19047200010953952,0.18581802957200966
127,0.19170859553735795,0.1836084458027285
128,0.1930876584778682,0.184638556830979
129,0.19290511258285967,0.1601214367123034
130,0.19000230671809637,0.16957043618222534
131,0.1962934723622698,0.17080043861973257
132,0.19052845169362023,0.16649782564711552
133,0.19344510587094593,0.16307149556977785
134,0.19595129786135196,0.19132215550261966
135,0.19506266564845468,0.15752191502886112
136,0.1963199404098814,0.17161277135291622
137,0.1950573139220214,0.1632528028905909
138,0.19609146832609825,0.19199867998179998
139,0.19943795153062693,0.16346415152865879
140,0.1960473943421309,0.1838658546474663
141,0.1963815039558281,0.17367280349311814
142,0.19556591570448817,0.17443941994595924
143,0.19264470701285308,0.16117034227996713
144,0.19324365678689273,0.18931644217602928
145,0.2011570140576477,0.17728247154201215
146,0.19304290324521006,0.1784844058488614
147,0.19437833565125745,0.16967825482187068
148,0.18976641569039424,0.16351439039963103
149,0.1916357402761968,0.17748138408493414
150,0.18868290990305175,0.1645366949953239
151,0.194890088666019,0.18226383305386284
152,0.19749685754473928,0.1981937237960105
153,0.20086551898960872,0.18809401885486535
154,0.1980814959267251,0.1632205393009517
155,0.19334009203383867,0.17318396024470642
156,0.19139561256011137,0.16799042657923302
157,0.19653405294977694,0.18829916690453452
158,0.19328042715907,0.16224869330661354
159,0.19491789844944227,0.16035145344749246
160,0.1951791978866267,0.1709640430435009
161,0.19520128942388806,0.17015743850720805
162,0.19043048452154146,0.18131049672448926
163,0.19720961632941075,0.1720828875346549
164,0.19318480039838787,0.1714285214349992
165,0.1955716757001065,0.15759550233760403
166,0.19792578159142837,0.1627143835141702
167,0.1948873945336929,0.18379054955356028
168,0.19329276857235067,0.1643503186922894
169,0.20127205552457333,0.1791396141757905
170,0.1914058902935921,0.1706108083947023
171,0.18967155920420523,0.16918770238557196
172,0.19831202420994914,0.18772850584917963
173,0.19877672568856955,0.17705669102935973
174,0.19476772601798856,0.18140183295099022
175,0.19515566618965685,0.17326874728737238
176,0.19473641919051046,0.18578458228681438
177,0.2032746834327563,0.1728906270878091
178,0.19710933105598727,0.16596621773613657
179,0.19521840369934848,0.18140201257643215
180,0.19100382211182615,0.1493417145632907
181,0.19251906774122177,0.1644379176675756
182,0.19417373446537722,0.15561924641915165
183,0.1931007695224264,0.18336261403118426
184,0.19064270513211126,0.16180954719493026
185,0.19424847896388775,0.1568403064310786
186,0.19670520540621642,0.17178994924088775
187,0.1982540126315219,0.20358189074844474
188,0.19469330510456595,0.19950119279554349
189,0.19569918367383388,0.17228998780109417
190,0.19237644253350752,0.18378155419181064
191,0.19425233262334224,0.17098865209363442
192,0.19592967783685306,0.17960913052404595
193,0.19253366024231167,0.16971587863086995
194,0.19294673729714729,0.16141494164197767
195,0.19391662443427446,0.18504692044847107
196,0.20127982206100659,0.1818537850171069
197,0.19473928895047146,0.17836444717321043
198,0.1932580064324071,0.1792132972306686
199,0.1934394270336504,0.16130586591826335
200,0.19510881309743694,0.17600486096473972
201,0.19456313141911244,0.17308458253070888
202,0.19102760862341697,0.18691953560359476
203,0.19201065032935732,0.17777940139303833
204,0.19238400886908805,0.17836609575676937
205,0.1899555362612128,0.1752349314204143
206,0.19345357139214434,0.16270762631388846
207,0.19471984714579335,0.1849645383967691
208,0.19259698136890535,0.16008622191652314
209,0.19612975438817037,0.17828100650397077
210,0.19197106126139013,0.18166297208444285
211,0.19372295113585644,0.1654868187425451
212,0.19171327004710928,0.18764388286041855
213,0.19695141756658455,0.16776358762545762
214,0.1962751466140663,0.1725766385693012
215,0.19454503065342907,0.19683094335618503
216,0.19595640841171705,0.1806717564270265
217,0.1910618754873554,0.1842613340882495
218,0.19708581692833219,0.1708406315324056
219,0.19454756417839553,0.17889927440538309
220,0.19065179964668935,0.17244479811699634
221,0.19466909766197205,0.19171388455517385
222,0.19371697967120116,0.16805655533343483
223,0.19166784370236165,0.1763405211816741
224,0.1992916598272838,0.16625773131659205
225,0.19309270246137533,0.17971254932240605
226,0.1928558635185186,0.17594779644458428
227,0.1972361040427435,0.16031398825882548
228,0.19659911436166505,0.1767199853907068
229,0.19265294148862885,0.17534174304970063
230,0.19420543469065765,0.17675725110139826
231,0.1978635945134788,0.1641323221487235
232,0.1936091448215367,0.17151872753720634
233,0.1934328439364807,0.17342457803291134
234,0.19365940324003272,0.20018336893115912
235,0.19403089360772469,0.15611681883130002
236,0.19212461495213656,0.17373151932537978
237,0.1942471512716165,0.16427445339940153
238,0.19665855885171396,0.17065390554016371
239,0.19402397952848774,0.1750610970613424
240,0.19361212603646596,0.18122104181957321
241,0.19530649113354923,0.17838807752166289
242,0.19321608595210585,0.16175596085513025
243,0.19754888679531457,0.1666401937874453
244,0.1923321570209462,0.16641025927326486
245,0.19550871628103592,0.17845285419836324
246,0.196685718415643,0.17517449896732654
247,0.19406499944144873,0.17581637897591187
248,0.19925270309384396,0.17289002884205815
249,0.19672747326792955,0.18516737322639837
250,0.1943975864328164,0.17245925980566426
251,0.19484167287556484,0.1776928513912865
252,0.19787281146533578,0.1762183978624389
253,0.1966432186482336,0.19008560145851564
254,0.19669785455977032,0.17405720908950423
255,0.19523017000642232,0.18018372044049574
256,0.1961114727300134,0.16011236852656788
257,0.19358821667069726,0.16157328546188343
258,0.19645256148896914,0.1519082604592112
259,0.19204479087290052,0.18167404098922846
260,0.1917410264376828,0.1725346942350633
261,0.19206122731228623,0.17297985657002857
262,0.19231124380700212,0.16724158055498173
263,0.1910495312689401,0.17926167179819347
264,0.19691449528832516,0.1755916857893484
265,0.18982150667100597,0.15477568173417916
266,0.19046417742872315,0.16111079634600206
267,0.19232355270811693,0.18083035944716236
268,0.19292618471274464,0.17373045220465386
269,0.19554870732896906,0.18858278466898715
270,0.19465868293548183,0.17976859739989678
271,0.1922540061003108,0.15889740891125415
272,0.1919795774358163,0.16345956549930496
273,0.188770888288387,0.1746314007674227
274,0.19238399088883,0.15983315553125096
275,0.19535448350351778,0.1458426987915502
276,0.193165204180278,0.18347538703054353
277,0.18857386019780673,0.15524563601427221
278,0.18893968419943877,0.17462513818690037
279,0.19055111569275768,0.2015899614899198
280,0.19391950219869614,0.21196027717537644
281,0.19617346986878118,0.18037712916249635
282,0.1932616430125553,0.1625451675271461
283,0.1914362456503627,0.18193054513236906
284,0.19054584769155386,0.1785955412023728
285,0.1890539525331353,0.16584489633929758
286,0.1898483147057031,0.17678201367935986
287,0.18727927597211325,0.17802379826626255
288,0.1929121947736382,0.16821936696132714
289,0.1875250730440199,0.18617328280478646
290,0.19373754039108992,0.1826699061029618
291,0.1938950361298333,0.17163960378096624
292,0.1882528641479288,0.15486111194953828
293,0.1892806155254229,0.16132480882243463
294,0.18937961194369432,0.16530944528124328
295,0.19117237751980384,0.1703361696324766
296,0.19305671015374667,0.16831258298048563
297,0.19221787394093667,0.18794514589311573
298,0.1927694861265681,0.1690928717603247
299,0.1917401142865062,0.17204463758286098
300,0.1939161794660665,0.1534230381532645
301,0.19507322095328575,0.1702800509773471
302,0.19297540142572375,0.16472254431238303
303,0.1919512933642744,0.16586904838128455
304,0.1912623271882105,0.1787069834586477
305,0.19339867012439776,0.1857170705943006
306,0.19352530119278066,0.18004248689363203
307,0.19397974325765333,0.17420458855973328
308,0.18897085375398945,0.16932428597039656
309,0.1922199736050755,0.19713942624258074
310,0.19378633296889938,0.17210821548642938
311,0.19177284136378794,0.17048403079714847
312,0.19293585358906706,0.18682358573295982
313,0.19506892841830434,0.1785153903378778
314,0.19722918176250778,0.19490552357829455
315,0.19066580200938585,0.16180500477528892
316,0.19456590079575134,0.17019041659988188
317,0.18959821860710208,0.16244378377813568
318,0.197716825883642,0.1952232074201248
319,0.19119792791317217,0.17482672769344032
320,0.19263994515085106,0.1812599415066869
321,0.19638843153663676,0.16652572690123352
322,0.19410795380147716,0.1597372835183012
323,0.18974662949736837,0.17088784038691232
324,0.1950978575457486,0.17718359919730942
325,0.19753047196175175,0.17723552145257934
326,0.19441611532398836,0.16063369990524196
327,0.19338062783177618,0.18565975295434153
328,0.19134832325456239,0.1856653467349961
329,0.18750248427728383,0.17085228793340682
330,0.19131308004891368,0.1675590180160497
331,0.19048642611903824,0.18317472232592416
332,0.18940385860457218,0.16558472046535977
333,0.18834717038700238,0.16571421227355407
334,0.1924243828030132,0.16461501100586454
335,0.1884148849560012,0.14835744259412964
336,0.193402859339897,0.1837118110768703
337,0.18910782383404953,0.19554111312107486
338,0.1903147297583038,0.17861417489862855
339,0.19448103893289176,0.16733916177934047
340,0.19000622076834803,0.15656201906014167
341,0.1910293991629073,0.1514399902690746
342,0.19363759752872178,0.18030540726273286
343,0.19070954591059666,0.1882062007591493
344,0.18996045775383974,0.19631988539315626
345,0.19670723465015943,0.17837607143145429
346,0.19521203185085484,0.17406525804522288
347,0.1937166083630898,0.1864578953481793
348,0.19197497196453844,0.15686696219745355
349,0.19250876352274351,0.17397149752799038
350,0.19505547752959743,0.1682424412506626
351,0.19342697088381083,0.16565059475900623
352,0.1980306468397784,0.1682424743225373
353,0.19414194998481005,0.1845598637869533
354,0.192478071639149,0.15922590856158836
355,0.19638402154334159,0.17183739799585696
356,0.1970977564688495,0.17917801102222
357,0.19160098159651487,0.18221571643990425
358,0.1947254157490391,0.1680910195787779
359,0.19957408803901514,0.17780922213312012
360,0.19427647421971786,0.17549516759289469
361,0.19655142931176794,0.1980959063170929
362,0.19637034074079504,0.17256845031653978
363,0.19213320989069416,0.19591284553272667
364,0.19263689960245128,0.17926635590235643
365,0.1912308784602262,0.17125215541921268
366,0.19443307504903592,0.15842103228949145
367,0.19415520151837362,0.17714048129371893
368,0.19771063961475777,0.1731383690776652
369,0.19459238933692638,0.16362316214906578
370,0.19633157310082758,0.16354862282430457
371,0.19860690452759977,0.19492189593219156
372,0.19336646318816833,0.16446837124244942
373,0.19458507488576246,0.17089227922760603
374,0.19265749558603926,0.20521348552526972
375,0.19440894457790778,0.18431808188522342
376,0.1935951238949236,0.1814863744714454
377,0.19389832800598167,0.17118110024938454
378,0.19419421642113457,0.22197834982727113
379,0.1949756292880868,0.16860700592151662
380,0.19431907757461594,0.18250013678536794
381,0.19481578494885937,0.18451434290352636
382,0.19239460527420424,0.181465743255126
383,0.19636638657294875,0.17668360291782476
384,0.19554162562655794,0.1699070677502285
385,0.19375158266293155,0.1632210967949082
386,0.19168213417799734,0.1713935558190944
387,0.1995162709797029,0.16837763828655444
388,0.19459893817095447,0.18064718180128037
389,0.19248141558002607,0.1654850465510902
390,0.19244810865580034,0.16100403354830317
391,0.19478306670983633,0.15610947791007718
392,0.19443553684355258,0.17758910279153553
393,0.1947250898352725,0.17270026518871395
394,0.19446387373619706,0.17863489458103676
395,0.19874156862616443,0.17848700106190996
396,0.194976502685524,0.16696332774956393
397,0.19738021999192562,0.18054032703272074
398,0.19431277219768908,0.1677105019623215
399,0.19933911746473526,0.168698795192714
400,0.1953571991120978,0.19417206745450669
401,0.19569502399860622,0.18131137922135693
402,0.19698771585425218,0.16967377248907428
403,0.19851060275980037,0.1897429875388518
404,0.19601125462497357,0.19743578453513705
405,0.19685862112126284,0.18011320566415975
406,0.1992534587768723,0.1698940529678408
407,0.20082001003334754,0.18813402752003147
408,0.1963253484593688,0.1724875115369753
409,0.20135824060101778,0.16783619435076272
410,0.20198666409170218,0.19121275087134895
411,0.19778359154884,0.1628562014288289
412,0.19461962879656983,0.1592897347041539
413,0.19267022997426758,0.16514228915923584
414,0.19513120359296707,0.17197794904131164
415,0.1967470436502132,0.17027753663279452
416,0.19723330226709707,0.19297737989871636
417,0.19515380933940363,0.178505343579832
418,0.19761834927885938,0.17266442969547263
419,0.19608112185192908,0.1865974551782706
420,0.1958136407734393,0.1762725841533319
421,0.19513243294472127,0.19395169574582116
422,0.19503964453959446,0.19267816661659337
423,0.1931899021402728,0.1770106794425796
424,0.1895423284430298,0.15900460360740806
425,0.1935692971273006,0.15956568258102238
426,0.19604034745078577,0.18725795501691672
427,0.19522354807808912,0.17081278147383194
428,0.196161774601296,0.17793110782176186
429,0.19426342752649725,0.16070111219395591
430,0.19415106483214764,0.20089918145676156
431,0.1943608091996728,0.17749115969359452
432,0.19493961502179252,0.1946206445546252
433,0.192118686124337,0.18110646152223484
434,0.1934944128604244,0.1638105508842709
435,0.1949485289357263,0.17169820305015876
436,0.1932116941415625,0.1775557980494134
437,0.1919969973518408,0.17639439570075804
438,0.1928153566533713,0.193311750571278
439,0.196982609830219,0.19003486456886087
440,0.19424840593509538,0.1744898808877489
441,0.19359781531740627,0.16702743162766345
442,0.19318927668457886,0.1792026732084595
443,0.19027161046112184,0.16613130930049644
444,0.1936319579871343,0.20779451395031404
445,0.192598633628955,0.16675045274803746
446,0.19566614735278962,0.2014911668970534
447,0.19431030426880153,0.16127728873712394
448,0.1885702177810726,0.17202333497925829
449,0.19127625849345128,0.16013386435130494
450,0.19112506953717992,0.19224514035418358
451,0.1911508823446423,0.17328179662351825
452,0.19158368495156725,0.15883562319280597
453,0.19312036998695034,0.18423927386586084
454,0.19595282805933179,0.18908958007664595
455,0.19152910349895055,0.17840144260482893
456,0.1948568476118344,0.16724905479866967
457,0.1952367134862762,0.19720585924156464
458,0.19255696306768938,0.16946170874816183
459,0.19400263244776036,0.1839089754207358
460,0.1909066566126905,0.16838645471675998
461,0.19097059773360128,0.1669296332015329
462,0.19722442829804265,0.188972444412458
463,0.19399896257524962,0.16753755158200073
464,0.19313077227793915,0.15480240216242017
465,0.19614971285577204,0.17815397642170622
466,0.19776651505038417,0.17010450891227166
467,0.19400823739268702,0.16338154805299326
468,0.19041970137545436,0.16301081661831796
469,0.19403904866424204,0.1747063355080801
470,0.19224386732522056,0.16351996482171313
471,0.19265182340126052,0.178486092737931
472,0.1927280412029496,0.17837442961045863
473,0.1961991657003415,0.16036380768622013
474,0.19298642130492688,0.1638805943628701
475,0.19690095880429903,0.1755328529471004
476,0.19735328250413509,0.16849891657940308
477,0.19539684668886098,0.16279951779975982
478,0.1922635698406626,0.1631495801477613
479,0.19128060736339822,0.19302174297250344
480,0.1974501037519041,0.18980483182697852
481,0.18878185978348402,0.1824917157475367
482,0.19639209629320126,0.1650320118397545
483,0.19618336097609035,0.18598746018515108
484,0.19562989916446968,0.17427016394808242
485,0.19384178406090663,0.16535233869125454
486,0.19224279913470613,0.16350848804615384
487,0.1905621307537996,0.18294054388576544
488,0.19617987116225521,0.16990884450494348
489,0.19446975036228684,0.17317516959456825
490,0.1910298104814107,0.16403251788751666
491,0.19552053374757203,0.16437399714314854
492,0.19563518848707923,0.16061744499648756
493,0.19193607761109951,0.15845049421384566
494,0.1956494505361592,0.19968869441263112
495,0.1948501522854554,0.17336803203082593
496,0.1987989579709314,0.18904351754130203
497,0.19229720486439675,0.1762958339517664
498,0.1959589284410675,0.15941170223745288
499,0.19455498661235462,0.18680856223405584
500,0.19379639272376312,0.17206717920566791
