epoch,loss,val_loss
0,0.3863885213645528,0.33052258380492466
1,0.32545509305503445,0.3180936921179153
2,0.32252814137726,0.32421985746088605
3,0.32218245169718107,0.318931657400485
4,0.32235182388175687,0.3177445658850877
5,0.322870427315279,0.318257533666555
6,0.3218789102433683,0.3238274442133418
7,0.32300666741711154,0.33075190547797845
8,0.3232240934642575,0.3201135183613227
9,0.32255006567846767,0.3208932153051447
10,0.32318958516220014,0.3217544818874787
11,0.3231663904744658,0.3235035638406508
12,0.3233426597645338,0.3244901881880335
13,0.3240154855114093,0.3234406680503791
14,0.32457856088281156,0.3213130625430862
15,0.324193968666162,0.32425277881859416
16,0.3246135765390335,0.32098189306804864
17,0.3252011013331173,0.32151526556112864
18,0.3250917179359616,0.32322509150478723
19,0.3258120401157178,0.3224394875383791
20,0.32560757556550507,0.3259813849532708
21,0.3251720864019043,0.330656341614456
22,0.3256563202297087,0.323620761720421
23,0.3257027127855211,0.32103660860302513
24,0.3249387549672672,0.3232261872517376
25,0.32568210777904777,0.3203965596495977
26,0.3245395171246845,0.3219404959876234
27,0.3253158842035525,0.3290631629955891
28,0.32491644979904977,0.3329191247167414
29,0.32503789657359117,0.3234915660889768
30,0.32446988486795786,0.32045785011319355
31,0.32481194489436754,0.32325419009719764
32,0.32548533557511444,0.32940059742686684
33,0.32534473643695516,0.3230401825133326
34,0.3246652781367778,0.32236212802479
35,0.32540274291730326,0.3306052365355729
36,0.3256246169074643,0.32508615423773063
37,0.32681335581482934,0.32772610487670717
38,0.3264879936413418,0.3218065489909737
39,0.325554183168377,0.32524131263158595
40,0.32510443295029806,0.3275495219531733
41,0.32534143013014594,0.3213913296279516
42,0.3238993648121016,0.3297472173008471
43,0.3245563156408467,0.32812398545085303
44,0.3254324532241272,0.32336397848923376
45,0.3259333935763529,0.3301204975985502
46,0.32576410456908217,0.3267484197912013
47,0.2996962089046872,0.21847693845570887
48,0.16038126693212157,0.12463418568389663
49,0.1294173766448677,0.1331059451273039
50,0.13079837733190314,0.1312333713237846
51,0.12711337552689533,0.12180077459813105
52,0.11635713768210247,0.11679666799852578
53,0.11339959142495878,0.10832860727736399
54,0.10847768818827079,0.11354295254318189
55,0.10511542060565081,0.09786828106303053
56,0.11725376013943331,0.12000550210311269
57,0.1274490964343603,0.12151205583807043
58,0.11273291040298274,0.10929061916980955
59,0.10735149338519831,0.10357501308397693
60,0.11678085684609546,0.11748929551693052
61,0.130098771842883,0.13254265959985442
62,0.12927388966524248,0.13712503242393884
63,0.1354556221821659,0.12241464972660686
64,0.12937804162323618,0.13148633708799554
65,0.1255248165536794,0.13687158385387255
66,0.1380720958858133,0.13572409386792894
67,0.13627924589361315,0.13710048657730986
68,0.13892768429432936,0.14390615484991126
69,0.12906808510339327,0.13433701269793152
70,0.1257724161270997,0.12511465495603707
71,0.1270143080988138,0.1278946635143533
72,0.1291592592101017,0.13175555087490728
73,0.1286155626767402,0.12346371148008009
74,0.12528918160320662,0.12446363082107072
75,0.12631709353445914,0.1237521961613631
76,0.13316434184364753,0.12875413557113205
77,0.14462425368581172,0.14096763427203907
78,0.14604884823806566,0.13390852547388143
79,0.1438838380346481,0.13651550311856883
80,0.14558124888858062,0.1474604515245606
81,0.146175758682376,0.14452268200284774
82,0.14524345118388665,0.15539846496969673
83,0.14691484090890722,0.14794517050320083
84,0.14368941464262613,0.13530340226809623
85,0.13974835896353832,0.13520966818954594
86,0.1357321396922703,0.13628476328894953
87,0.13558378707852772,0.12686167295137163
88,0.13251621897319715,0.13451922400292207
89,0.13560004766396194,0.14261534583667365
90,0.13887098939608422,0.13910274758593907
91,0.1370970890771666,0.13168638759390425
92,0.13723687248990882,0.13812192909319568
93,0.13819687804884667,0.13759598172995266
94,0.13477338745975667,0.12934202786708499
95,0.1295013648869513,0.13059716608195956
96,0.12833271070504837,0.13294130428484696
97,0.1274640673189331,0.12236911328340386
98,0.1264972470218329,0.1171289583478467
99,0.1286616068777087,0.12521094433087107
100,0.13097407001790573,0.1374838020190914
101,0.13379042472341934,0.12458770589839782
102,0.12984365903490264,0.12291764632020301
103,0.13214442577305363,0.1297041213326597
104,0.1332076549393048,0.13370715779117834
105,0.13630874796534517,0.13768841250378405
106,0.13957106004909073,0.1310043541954179
107,0.13736168186751296,0.14557154809478332
108,0.14124760120142277,0.13559469559480566
109,0.1440198059580166,0.1382106381638274
110,0.14721890319165565,0.15070060315970463
111,0.14834924418327333,0.14333644408171065
112,0.14459883686390332,0.14350532511015435
113,0.1442816458124337,0.14901810366992604
114,0.14654856017358203,0.14307952899818074
115,0.14768253797464234,0.14901149621631748
116,0.14797236969311842,0.14139895602743177
117,0.14918171736798128,0.14825388506325382
118,0.14833139580228535,0.14703287136606466
119,0.14851752891957903,0.1397852659719425
120,0.14812078053276126,0.14923398357822656
121,0.14742663427353572,0.14324823509969387
122,0.14879226132179146,0.1504985539105904
123,0.1488424939044612,0.13902380091050712
124,0.14892561443382316,0.15773874398941304
125,0.14819362109227718,0.14755995430481555
126,0.14810108075396333,0.1573315988388133
127,0.14753639312992564,0.14145578689808533
128,0.14750819395986392,0.14505035275536066
129,0.14890641744712368,0.1570314275072895
130,0.14732983103580327,0.15456988689531562
131,0.14834250208976077,0.1440719274984821
132,0.14650416622261445,0.14864534769433638
133,0.14571191805551093,0.14301075826927537
134,0.14526129253714873,0.13918327045610032
135,0.14637394800639267,0.14175353159844264
136,0.14623687825173878,0.13759510043270493
137,0.14508882929369224,0.13513310526474875
138,0.14707380971260112,0.15105170479607374
139,0.14492705498310587,0.13550404791485726
140,0.14613897817955315,0.1474418265784737
141,0.14793513255784932,0.1475898180312779
142,0.14951552347623281,0.1414581867671427
143,0.14838468362327864,0.14775878968983067
144,0.15035001494341807,0.14738599592033294
145,0.150636322870791,0.14847102334345055
146,0.1506115611609843,0.14982782848232265
147,0.15254155605685987,0.1525784297225131
148,0.15078051740841136,0.1518193516871453
149,0.15095345022605,0.15011772762722356
150,0.15108240072389872,0.14299278022999262
151,0.15277164893673,0.1489592275296315
152,0.1532481285742671,0.15288896659343565
153,0.15431819754324372,0.14951848438643242
154,0.15388506673556343,0.15799277512196397
155,0.1574597987000176,0.15013449187460337
156,0.15831560025410019,0.16564835428650584
157,0.1661925215741618,0.17692815778804935
158,0.16302905865698505,0.15665518744145215
159,0.16215852202533437,0.15197850178100974
160,0.16047000611940923,0.16177646632893591
161,0.16097891707714798,0.16362970752822384
162,0.16210608852567146,0.15888603338008803
163,0.16184422693592754,0.16138509110545396
164,0.16531890834704768,0.16555419569539573
165,0.16675882986028323,0.1659857804674564
166,0.16991307179359413,0.17657542917892136
167,0.17268376378751962,0.1723508547988574
168,0.17367509703675238,0.1649543666519701
169,0.16813674694497427,0.168088955232828
170,0.1738426597903577,0.1732622612776395
171,0.1763815972313797,0.1778747242152832
172,0.17685276056698662,0.1714212965005575
173,0.1759425984988872,0.16770547965942825
174,0.16892820735462755,0.15721038630160178
175,0.16279141174601042,0.15950726656553402
176,0.16538209050631733,0.16213723075088782
177,0.16535809863623765,0.16647916500645543
178,0.16762080039980887,0.1692219824069301
179,0.16866765258540448,0.17364907210608965
180,0.17044888117568766,0.16390027423354708
181,0.1710550124845583,0.1739772667589391
182,0.1726207213400365,0.17327949248295463
183,0.1725357239909595,0.17663841798678098
184,0.17480535780211431,0.1672594712748712
185,0.16934216509965494,0.16348983802565836
186,0.16964887827932595,0.16529550373954102
187,0.1684647723496389,0.17133031509693156
188,0.1682171240585933,0.1691846239844362
189,0.17134423306782087,0.17029856845160216
190,0.17228713935966208,0.17423781158068843
191,0.17928696407390823,0.1808881400228017
192,0.17706726941106607,0.18630732480662962
193,0.1858968807043408,0.18371417348132701
194,0.18462707303601394,0.1771197965708227
195,0.18077703662437025,0.17473254320465303
196,0.1786589010013379,0.17861807015272418
197,0.17730696787007993,0.17536946798909248
198,0.17685207496467922,0.17647280781026328
199,0.17809112000760796,0.17610245597884705
200,0.18002185911583385,0.17723614052702522
201,0.17951395277449075,0.17126224462851447
202,0.17768214860980172,0.17395158737733218
203,0.18080780405601818,0.1794351342750894
204,0.17966434581102514,0.18202938071224947
205,0.18138780925485443,0.17899947648172596
206,0.1801652205076149,0.1733545841797657
207,0.17811639583129868,0.17689457686284252
208,0.1878220684987178,0.1906470280631659
209,0.1886903946157649,0.18318830985625897
210,0.1903382430402495,0.18661166855737554
211,0.19015642747485476,0.18868521005268066
212,0.1923346132826176,0.18912114754566173
213,0.19929219206436266,0.2073250585004111
214,0.20834954109766501,0.2048447993955183
215,0.20744539595407835,0.20448255507185784
216,0.20580828340529062,0.21179134469852734
217,0.20173885678049092,0.20236556074378428
218,0.20262805666688152,0.20045314713924442
219,0.2000347444717642,0.1957779006522381
220,0.19971568625179126,0.19669293011843736
221,0.20433724962240404,0.19649844143272105
222,0.20556004482398121,0.2022910054828957
223,0.20129438081710077,0.19523758540590072
224,0.20002351748905212,0.19521784730661357
225,0.2000836215609555,0.20172706352224853
226,0.20016571394592927,0.19730392909934413
227,0.20023047537516822,0.2022445627503632
228,0.1975532379046047,0.2008474095773772
229,0.19814102357025626,0.2047953177905026
230,0.19667891797711617,0.187290916091453
231,0.19497648478864577,0.19549879053021005
232,0.1928847554466612,0.191688018056381
233,0.195233813006815,0.19713486015984838
234,0.19592902615821237,0.19496464149492787
235,0.19510754490260787,0.18859776986238047
236,0.19565184789595844,0.20328850300884097
237,0.1952890809431827,0.19557713323817444
238,0.19475135515681463,0.2044487058904666
239,0.19582341514307436,0.19654591140449754
240,0.19632201928267184,0.19566013488180542
241,0.19814409141679654,0.19606338137938642
242,0.19980551909318836,0.19855337102486567
243,0.20166577014038795,0.2026750406437063
244,0.20194781275628376,0.19674758156783578
245,0.20045880199098093,0.20017367012169573
246,0.1997826390808149,0.19965378152119803
247,0.20025606929279155,0.1989653513317703
248,0.20003691916581062,0.20420974397762798
249,0.19974841100039434,0.2097497749794348
250,0.19897587016093835,0.19547049060240446
251,0.1978702523070369,0.1894656639919567
252,0.1972929041126935,0.19586990873646154
253,0.19868207387000822,0.1994732000645259
254,0.198367041298192,0.19987740816332358
255,0.20046019703626253,0.19987208025137457
256,0.19982015440980497,0.20448950449359068
257,0.20289703660445818,0.199754860660836
258,0.20030014495626627,0.1946133556874982
259,0.20053890982358386,0.19840661099367285
260,0.20097311028092504,0.19622729697515387
261,0.20041034664276788,0.20011342332743243
262,0.20205402010374313,0.19785867347995786
263,0.20139585367495494,0.2028516148405933
264,0.2014254483399536,0.1973416593334481
265,0.20095408439850634,0.196017771277168
266,0.2005466038731934,0.19264295046830046
267,0.2004352894951876,0.20569691421859548
268,0.20231165978119528,0.19637483296049987
269,0.19861405501238924,0.19773518568714868
270,0.20094100907623624,0.1957335971948568
271,0.2010057986699801,0.20608414137984413
272,0.2040897527103611,0.2098474695208323
273,0.21266883528894848,0.21745328890966822
274,0.21831156299125662,0.2257273055924707
275,0.2218598595780911,0.21610256546157122
276,0.2208085979441468,0.2203209787466061
277,0.2221695525552348,0.21913610949183226
278,0.22334582607546966,0.21605316131436741
279,0.22710888595175113,0.22913437174969803
280,0.22486638710748472,0.22254635580619114
281,0.22937315748892814,0.22549263864826197
282,0.22954506609294054,0.23988817353463116
283,0.2474149330247411,0.2522917934167827
284,0.25152241367754413,0.2470534721414405
285,0.25168189736340735,0.25034043007039986
286,0.2527564698391014,0.2548979127392961
287,0.25378059066361564,0.2557760384389521
288,0.25431774170707455,0.25359515011922146
289,0.25570265162620043,0.25450867526203796
290,0.25583376669936136,0.256149214322678
291,0.254046302797983,0.25276884123765303
292,0.25079975556507766,0.2492825590609187
293,0.2491851397555509,0.248061249469243
294,0.2467262783853842,0.2469202012952708
295,0.2432965487182188,0.23291159278309617
296,0.22649335726607236,0.21839539840782168
297,0.2064235516363006,0.1951672772934988
298,0.1926718403359683,0.2042082244708205
299,0.19134337047664382,0.1853680506924898
300,0.19250463157725467,0.19273292180959314
301,0.18967634121434007,0.1879058675024579
302,0.1884658144865867,0.1926114637736928
303,0.18840472030935052,0.18692366128468382
304,0.18826096085049837,0.19333647446737764
305,0.18981597982317233,0.1908219901002479
306,0.19094687983167352,0.18979584804979382
307,0.19175544918941365,0.18573541668756044
308,0.18980158908332853,0.18980306557481835
309,0.1929887903930186,0.19454860156835677
310,0.19321293317728477,0.19028719001241623
311,0.19398895604052036,0.19817105374330599
312,0.19842454341413687,0.19759580198948837
313,0.19755069503514505,0.2039943565368276
314,0.207733726145314,0.21248772748596761
315,0.2105012566065617,0.20548961741442556
316,0.20938850146570176,0.20635915364726096
317,0.20924479229677972,0.20874973148366271
318,0.20812903594175022,0.20617115009508458
319,0.20758091054445835,0.20105170688482374
320,0.2006238584431241,0.2015019138450216
321,0.20261066680927453,0.20254816034927836
322,0.20505137004250054,0.2041490475846353
323,0.2076170551512453,0.20883983111372123
324,0.2109433680558376,0.21453373423456298
325,0.2120854937963539,0.2064850309653459
326,0.2141145296472249,0.2132720919509713
327,0.21811642641310308,0.22607988523703065
328,0.22629998844685695,0.23214051776639852
329,0.23413514265482374,0.23598427862375856
330,0.23780700789509918,0.24462413867816457
331,0.2397703676879835,0.24316682170814855
332,0.24559028508018055,0.26040993475641144
333,0.25517467886423895,0.2596871297991737
334,0.25657990122799107,0.2544757914100939
335,0.2565585504785525,0.26187412071482064
336,0.25734402098768144,0.25434258474359006
337,0.2560059412611093,0.2538346071693026
338,0.25510147174628234,0.25494646642654073
339,0.25367352699966644,0.2506676623693299
340,0.25463400569727285,0.25365312568014214
341,0.2547988504778853,0.25684428445542057
342,0.25511234154184753,0.2592673666757585
343,0.25601299999834154,0.25898366005710477
344,0.25784874918292183,0.25499782703622836
345,0.2558731370025592,0.25595325893695275
346,0.2550348503519591,0.25584231529917034
347,0.2563934034342579,0.25925217326598177
348,0.25670362897604393,0.2572272940352853
349,0.256517689767406,0.25719839136903455
350,0.25774913793392507,0.25690020701973665
351,0.2579694882773762,0.2557628465126891
352,0.2581226148312803,0.2604790431312811
353,0.2584483262112768,0.26083533955119026
354,0.25919801491699057,0.25912765421167355
355,0.25821739401248434,0.2600982817332389
356,0.2593609769519666,0.2605889499563821
357,0.2605505558691151,0.25752006046585707
358,0.2604187101625996,0.26565012460443665
359,0.2611547237475046,0.26320213211175486
360,0.2599477456282559,0.2611286179489664
361,0.2602085473416425,0.25980016397460765
362,0.26077637551642724,0.26178127020338715
363,0.2614716491836915,0.2603287203700503
364,0.2616664244831323,0.26290487899682424
365,0.2621934859753608,0.2645767220334924
366,0.26104261616556096,0.2607473847474653
367,0.2618037976628299,0.258332775901318
368,0.26230974733043344,0.2590520537525251
369,0.2628606824125413,0.26058626560686887
370,0.2635790173062604,0.2643642459291121
371,0.26411368283364983,0.25967051852097545
372,0.2642656293132608,0.26493696650841525
373,0.26561577624077803,0.26719836987137513
374,0.2652829604731094,0.2652006339937472
375,0.2662303623714321,0.26715027823773724
376,0.2663754487959601,0.2725527612308677
377,0.26621649893139193,0.26628804504400927
378,0.2661379937895482,0.2636107735706298
379,0.26734968760221317,0.2661641480984797
380,0.2662948177729865,0.26802244147354914
381,0.26636606288685216,0.27331540562453566
382,0.2675992955716489,0.26892399400966605
383,0.26770691316333606,0.2678345254701051
384,0.2672274715299134,0.26815369674655143
385,0.2696025441590545,0.26868875659914027
386,0.2700621771345512,0.269272516633736
387,0.26986209594969934,0.2692866855092941
388,0.2692316769302892,0.2674220547185889
389,0.2705138827578055,0.2690201433112326
390,0.27083722691980006,0.2717957506639899
391,0.270660831702413,0.2688262361353932
392,0.27053815383109736,0.2689217506733671
393,0.27084211186229656,0.2699697638414183
394,0.27089428813528005,0.2682002718253877
395,0.2718060288152439,0.27034944182977777
396,0.2721875376409764,0.27410557971945315
397,0.2722887742064363,0.27083312018517913
398,0.2715795704548498,0.2727682072060637
399,0.2716547627564814,0.27379383159699927
400,0.27145139645520067,0.2698901664603857
401,0.2720986094346626,0.2698683471263819
402,0.27178145199418546,0.2736412122457537
403,0.2727546206207203,0.2731929296640872
404,0.2728858976234063,0.27049503534820574
405,0.27203513558010023,0.27231849554776205
406,0.27183395595573406,0.2725385398307746
407,0.27205145590716034,0.2735121190053982
408,0.27180828473908153,0.27266419166735806
409,0.2718840785902276,0.2699463223978207
410,0.2726031562907519,0.2704649412006304
411,0.27240228349808976,0.2738508163306689
412,0.27194270030628864,0.2687774050654439
413,0.27193898788030196,0.27123600654980284
414,0.2714037851547356,0.2766032410872293
415,0.2726393368997448,0.27515835374382036
416,0.27214180696591866,0.27009806126332603
417,0.27310787783943113,0.26996583661509954
418,0.27251180555585097,0.27127555651324137
419,0.27236123508114896,0.27314991831497215
420,0.2729721690872781,0.2679094757117337
421,0.2717333868872538,0.26997009744160555
422,0.2717148743980794,0.2753148702015158
423,0.2723089516591683,0.2699784445028749
424,0.27158472792421884,0.274152772873052
425,0.2715803221952048,0.2705866366083827
426,0.2731760830925904,0.27260214418478623
427,0.2717894062542801,0.2766513203130337
428,0.2723052340338556,0.2754644215365706
429,0.27176194212776866,0.2696189786871306
430,0.27150260988804553,0.27483808940192705
431,0.27159434969691065,0.27061823503229687
432,0.27187989708735977,0.27195387894042194
433,0.2714328687968586,0.2703603501971914
434,0.2718847810531215,0.27396723099976145
435,0.2719380476956459,0.27214188264549105
436,0.2718428416932515,0.27056719140453234
437,0.27183710882584633,0.2726481631809835
438,0.27222774369563224,0.2708762745360455
439,0.27226909909912533,0.2701999343043721
440,0.27268037712759824,0.2708843321596061
441,0.27259361942847377,0.27106363161069347
442,0.27273651210071564,0.28031720577400315
443,0.2724501073098392,0.2727400317211836
444,0.2719742307107416,0.2721256817313942
445,0.2722594936688741,0.27156224189401146
446,0.27205190499075693,0.27436903981167027
447,0.27229717152295924,0.27132937374459354
448,0.2720732203335594,0.2755792123201614
449,0.2724292203545761,0.27752471891038516
450,0.27296252311657754,0.27349217969927153
451,0.27273343187823096,0.2757385260798184
452,0.272784986257029,0.2709481110230335
453,0.27303438363291566,0.2728254461297861
454,0.2726667147043416,0.27340934844871345
455,0.27322636448817667,0.27847007079301334
456,0.27409635042305663,0.2754707396053948
457,0.2738996855110573,0.27468381070582626
458,0.27436274619435047,0.27428540084055303
459,0.2755580568413654,0.2763855246078714
460,0.27440393209266817,0.2787449350367405
461,0.2746612255891069,0.27153564320367063
462,0.2752705585720728,0.2746466620404041
463,0.27560665898567005,0.2729440838004438
464,0.27520534088857457,0.2749848806938037
465,0.27605697704400184,0.2786200277172117
466,0.2753154522509312,0.27883174715544545
467,0.274807958270339,0.2757049093777115
468,0.27482791755387154,0.2751785875331161
469,0.2749334919474108,0.26795701200367433
470,0.27428659684747625,0.27635498690671023
471,0.27535977157400093,0.2741343823703331
472,0.2770396945692843,0.27801166277234723
473,0.2752132211371863,0.2742283437062928
474,0.2758268540044673,0.27444445351822316
475,0.2765607377238792,0.27589354918712505
476,0.27780286194108944,0.2727146266997096
477,0.27317248088278645,0.27329774105652355
478,0.276399015766873,0.2756005092667329
479,0.27825366619298403,0.2756692554975177
480,0.2795699422391389,0.28651818099131054
481,0.2810245417981601,0.27926698517592385
482,0.27917108398904616,0.2844984962089662
483,0.2775305869231979,0.27615551070707844
484,0.2773603802735952,0.27397869222730564
485,0.2788668015151382,0.27533298254530547
486,0.2764817744576864,0.2823247084160348
487,0.27912431799893755,0.2806056487743743
488,0.277447287353585,0.27829126455036785
489,0.2801000609708061,0.2844007972219184
490,0.28241270944345104,0.28427710103631115
491,0.28395172689768144,0.28164667465033827
492,0.28152726475688383,0.2803330980329506
493,0.27682887230940956,0.2763653757681316
494,0.2751310306022779,0.270737742627335
495,0.2736165763365088,0.27208007422835223
496,0.27293196172832396,0.27027700836722457
497,0.27317308793536765,0.2723200006473695
498,0.27345489497355324,0.26959787720804057
499,0.27430559622703027,0.2696405850297932
500,0.27401517652016844,0.27411905775506756
