epoch,loss,val_loss
0,0.539317655406124,0.4693005903790857
1,0.45893103143961117,0.44850870644660473
2,0.4536858042128843,0.45019336029499085
3,0.45316652156752074,0.45320161057440617
4,0.45364793682460497,0.44549891218578336
5,0.45217914620844674,0.44709456244508583
6,0.4523386090374488,0.4443639238330447
7,0.45288740273573985,0.448501356822257
8,0.4525700052984232,0.44700256371084124
9,0.4536002416619294,0.44755493103281757
10,0.4533340649115001,0.44909740595151426
11,0.4528058321951486,0.4521225403403333
12,0.45336663719418524,0.448953678829988
13,0.4525520479579052,0.4457075891526741
14,0.4512945726859293,0.445961240035112
15,0.4520156263804836,0.4474822498957943
16,0.4510073078145607,0.440202005848512
17,0.4501142657036595,0.44320855810120996
18,0.45024345833048834,0.4429259374090886
19,0.4499654616716859,0.4455452370615389
20,0.45090567618965816,0.44728301146788774
21,0.45000297107475457,0.44280239092899104
22,0.4506369653365595,0.4468648873075502
23,0.45041057203027557,0.4448806671712374
24,0.4495982559178945,0.4480231940840395
25,0.45001331032465974,0.442885846417065
26,0.4501190357190147,0.44455923559915955
27,0.4495505854951964,0.4444794516772291
28,0.4501323551058674,0.44372453730503403
29,0.44954304181509835,0.44993519486643335
30,0.45084028423642464,0.44062728155477837
31,0.4503762278792193,0.4414839884288309
32,0.4504768742526845,0.4437627327094044
33,0.45021815101305646,0.4427043963767641
34,0.4508079125417127,0.4471030985641028
35,0.45047851963390073,0.44873140675869155
36,0.45071362219840216,0.4424081298904148
37,0.45087843494926044,0.44537350671820125
38,0.4508823313229947,0.44563186664983995
39,0.45052218142983247,0.44402151173179133
40,0.4490756291946728,0.44015585788141204
41,0.45043845144774225,0.44478720355993573
42,0.4504806518935852,0.4462474083796955
43,0.4504569464807602,0.44548715468740124
44,0.4515674554591747,0.45574441815608113
45,0.45090316918542345,0.4440480749863005
46,0.45064055224021465,0.44642185595624545
47,0.4504981710256147,0.44494430968962795
48,0.4522034283950746,0.44380089704126663
49,0.4519272067254301,0.4418644573430706
50,0.45314141257489615,0.4449279192826272
51,0.45286652823384527,0.44954046489407723
52,0.4535323393097122,0.4500558527793673
53,0.4523270637106648,0.4455734334221579
54,0.45279169532892516,0.44739013350470946
55,0.45317327374701116,0.44747869311681204
56,0.45278298763110103,0.4453833878228489
57,0.45324000975877926,0.4435327642765587
58,0.45436250363036595,0.44582923247104755
59,0.4545592081537254,0.4502703361654244
60,0.4554557043442623,0.4474567855166561
61,0.4563343622368112,0.4534875676682735
62,0.45492102888276537,0.45510520223284107
63,0.45637413538950716,0.44770909995193453
64,0.4578366535458919,0.45399878235811686
65,0.4584371297598647,0.45405571864831135
66,0.45858830966347225,0.4522630064244711
67,0.4575790983500431,0.4557031852905451
68,0.45839372672718304,0.45525713242596305
69,0.45992579682172535,0.4554976814359591
70,0.4608716631202484,0.45500593208476325
71,0.4605518229287877,0.4554332520374653
72,0.46129234398392843,0.45746218332551836
73,0.46223194954349556,0.45407937581179736
74,0.46243168121809775,0.4615515965171564
75,0.46247829526639006,0.45682985808967885
76,0.4623158578630641,0.4571488266303583
77,0.4635095041956928,0.4604327250345542
78,0.46370505561216846,0.45632106865496735
79,0.46392177116813704,0.45582223270197225
80,0.4649302268104492,0.456909180816554
81,0.46515682186011215,0.4601649548138044
82,0.4649578894404389,0.4574847105881692
83,0.46580705935244177,0.4584215729605427
84,0.46581665886868295,0.4622322112533551
85,0.46612206692222974,0.45663057635784526
86,0.4686443318994783,0.4603078228192905
87,0.46827047430782864,0.467950773902455
88,0.46728828873375144,0.4621494387253684
89,0.46728089249296056,0.45944759778931277
90,0.46747075984899183,0.4599159929633799
91,0.46690754081419616,0.463696500755429
92,0.4678108870006389,0.4601907471360987
93,0.4701461444893996,0.46251349980283557
94,0.4685027976211408,0.46147578206698353
95,0.46865484068433727,0.4669687387363687
96,0.4690876044600988,0.464527459928344
97,0.4707122801972045,0.4654506452458057
98,0.4719488313801283,0.46553284023912667
99,0.4719518839741211,0.4625567700463952
100,0.47243599061199804,0.4692329639699766
101,0.47265554240329277,0.4654147134066193
102,0.4713431622722833,0.46556833061818165
103,0.4725230627303882,0.4708255137057406
104,0.4720822140919886,0.4639937411685016
105,0.46981953531146337,0.4650424426008419
106,0.46940028148112917,0.4608128729446158
107,0.4677154025514063,0.46369417415139424
108,0.4674634934781934,0.4619950496877566
109,0.4651606753885412,0.456782384871872
110,0.4652867217024834,0.4595644213171013
111,0.46560886117527717,0.46242827021802796
112,0.46787997741969845,0.45849531192711795
113,0.4681105910659694,0.4636458947654775
114,0.46748971173183906,0.4586960272753248
115,0.46540452539920807,0.46124684090866475
116,0.4666799230279206,0.4595210779908142
117,0.4664816030686041,0.46273591237079464
118,0.4642413776102874,0.4546341309419465
119,0.4615851005823683,0.4529717204226409
120,0.4608691225258662,0.45870806889545285
121,0.461167144344198,0.4587285769390326
122,0.4613261831988343,0.4654693307844597
123,0.46226551121087384,0.4580531770447247
124,0.4631333699781927,0.4560970824208896
125,0.46260001042859256,0.45316556432440985
126,0.4609499883999546,0.4652912444078555
127,0.4614664260908473,0.4546143325088338
128,0.4629042064852947,0.4539588331329418
129,0.46375091824171355,0.457563359081604
130,0.4638003565543752,0.46039134122860553
131,0.46280117733158366,0.4562918052206664
132,0.46111302737661786,0.4551048848510447
133,0.4609786724801258,0.4523508744674493
134,0.4608133303390132,0.45314481414578145
135,0.46020837455725877,0.4599204060357673
136,0.4604203586669849,0.45636101602190765
137,0.4633579215914797,0.4537481772400962
138,0.46382817919019886,0.46409648365172795
139,0.4633778714233165,0.4558246579335822
140,0.4652070219663503,0.4579222178308627
141,0.46491969787150167,0.4602292379527555
142,0.46580380974389574,0.45682928702355186
143,0.466191817137549,0.4633964560778948
144,0.4676951340181555,0.46087976711513307
145,0.4668187830064127,0.45889909489002395
146,0.4672291820331348,0.46278263490879357
147,0.4659843568345435,0.45950060911129664
148,0.46551996122875944,0.45644039948248166
149,0.4667272596812839,0.4587465543726249
150,0.4667735797443169,0.45786193490686994
151,0.4650228517256576,0.46001634761491156
152,0.46515842927969714,0.46228821480377696
153,0.4672056234044899,0.45910664113281086
154,0.4659396174738257,0.4553836438960698
155,0.4644993675722302,0.4556491783545915
156,0.46169905407394435,0.45144404874322164
157,0.46199939300497467,0.45619909228917266
158,0.4612092387785824,0.45441220017427897
159,0.46248557394166456,0.45311691230361445
160,0.4636521743808528,0.4598195390524409
161,0.4629063537176088,0.45197502728889755
162,0.46004818725309593,0.45088505655550637
163,0.4610873436351284,0.4518446513020155
164,0.4585633821767583,0.457355196187133
165,0.45890679052598377,0.45716175418156
166,0.4606337626393941,0.4549649843288954
167,0.4588000846447514,0.4497638302189963
168,0.45836250237423737,0.45082414138477056
169,0.45881163566518457,0.4465506507029379
170,0.45812831157974776,0.44773844938251856
171,0.45903950133960214,0.4498489826988214
172,0.4578925788307266,0.45480339736005126
173,0.4570695702597011,0.4498329459444782
174,0.4564205003108719,0.44661058289099603
175,0.4548929606815227,0.4421622286938078
176,0.451193126009332,0.4411419424939174
177,0.45127476401609196,0.44267605462691495
178,0.4506876555016096,0.44501483263984476
179,0.45139291074922044,0.4483352529315753
180,0.4507090380723528,0.44343998096736287
181,0.4507191496358501,0.44584578677906045
182,0.4518069245641847,0.4449430478070793
183,0.45023778366813844,0.44110212565032914
184,0.45003593338431597,0.4418508865603708
185,0.44903634177695073,0.44105959630144237
186,0.4490916300520337,0.44458155092895735
187,0.4495710347124713,0.4389734226319389
188,0.4478716823241884,0.4409443442757523
189,0.4479835109768821,0.44069019792676445
190,0.44935362554377883,0.44436317571713024
191,0.45229770492116134,0.4400871564246767
192,0.44994910328174764,0.44318856509445026
193,0.45056534113643837,0.4434964010681613
194,0.4506608284920525,0.44023501840085616
195,0.4495700968803166,0.44027772552871103
196,0.45017485333670626,0.4410359228842825
197,0.4505216168056575,0.4421215923216367
198,0.4490681358878847,0.4390728207629971
199,0.44898073421679524,0.44184292268357883
200,0.4484466324916942,0.44193232981539565
201,0.4491449614389718,0.44128602557325325
202,0.44902340525822293,0.44039816816867383
203,0.44865295800754873,0.4441133804601671
204,0.4474240758841177,0.4422285813182569
205,0.44768146239072204,0.43708014904558895
206,0.4481602642866824,0.4392235432681646
207,0.44842659489666337,0.4449355064787635
208,0.44818230677279924,0.43853559657260954
209,0.448260072597878,0.44259964963443277
210,0.4492890466150525,0.446205759434222
211,0.44914046383733086,0.43953810160613566
212,0.44686427172854076,0.43964869816564817
213,0.44668132196560945,0.43888023893195244
214,0.4466838101855666,0.43942878511164635
215,0.44808744226428243,0.442009207058254
216,0.4489785038667331,0.44177600038079834
217,0.449324238857777,0.43885426010404316
218,0.44934671551441785,0.4441161078783877
219,0.4488720451470473,0.44104665858875414
220,0.4496999302451654,0.4463391655198965
221,0.45140143919238845,0.4459917265642508
222,0.4498127504861612,0.4384870386396512
223,0.4493077571491162,0.4418149626010407
224,0.44714115131244386,0.4375998417552099
225,0.44778126936784085,0.4403196438947059
226,0.44754168666381056,0.43914460427853286
227,0.4480242989570212,0.43968950591881445
228,0.44847524892702567,0.44320988746825973
229,0.4489421685822576,0.44019363290132646
230,0.4362294216760152,0.395622254429413
231,0.40065821896878173,0.3924415739107621
232,0.40043304107791416,0.3847369098625695
233,0.40061119675255125,0.388747713089742
234,0.40141462424485613,0.38385838284300555
235,0.39794407688456473,0.3891291050291852
236,0.401649866899331,0.3882376801196101
237,0.40478958835085327,0.3942929005048928
238,0.4057539485031657,0.3993680184293941
239,0.4059411323518395,0.39581035074043575
240,0.4067539519352688,0.393437629834629
241,0.40750142001657846,0.3936388263009906
242,0.4080713133898666,0.4009766033200081
243,0.40920464252587035,0.393849803362668
244,0.4112882727532269,0.40983612968306327
245,0.4137814808592236,0.40084154034752306
246,0.4142448335028381,0.40276848340749555
247,0.415649081925027,0.4032543882104291
248,0.41514624501589675,0.4086248327073095
249,0.4162591000040658,0.403348642771133
250,0.41624330390366815,0.400337065804541
251,0.41544057406205165,0.4016068713252904
252,0.41578893409930257,0.40551114757416656
253,0.4167003050553713,0.40592936953881076
254,0.416231313709923,0.4029309281751502
255,0.41636459417432714,0.4077374362155219
256,0.41846066626379913,0.41106902598017486
257,0.4186021583043128,0.40667791167110934
258,0.4209166483031951,0.40666864063199715
259,0.42104445081010616,0.409755652145598
260,0.42123803607136795,0.41079417026315795
261,0.42057916202800544,0.4111594212930223
262,0.42174868931253845,0.41506368159401014
263,0.42239540222165683,0.40959767829082855
264,0.4215646121475241,0.40803249068587616
265,0.42274536783222577,0.412472254757629
266,0.42291960612141927,0.40819496956037177
267,0.4226540345415699,0.4143171357939162
268,0.4239216587788386,0.414021311002918
269,0.4247838908152805,0.4114154901858287
270,0.42474795588486486,0.42388022637498973
271,0.4258677501210587,0.4172641420185613
272,0.425971380669436,0.42388135695796175
273,0.425917848408651,0.41215726027548927
274,0.426337463476008,0.41720236784939513
275,0.4261218353474645,0.41861433541106724
276,0.42518802537477846,0.4156914351018471
277,0.4254146788379462,0.4188926931479453
278,0.42517528261879173,0.4186287415526284
279,0.42491205969302775,0.41819142417919003
280,0.4251503413624996,0.41921057862001043
281,0.42647501167585905,0.4130006205075918
282,0.42429180777997233,0.4156158151782773
283,0.4263832875602632,0.417934387310716
284,0.42761087055495983,0.4190987329268512
285,0.4274061763529583,0.41832903455634146
286,0.42792819650005476,0.42209819667247117
287,0.42914247549742723,0.42197771783221305
288,0.42843776508915626,0.41779134312575505
289,0.42994771974025775,0.4181280432485085
290,0.42991764444432,0.42131270711687296
291,0.42909158618568327,0.4168777977893366
292,0.42914349194482077,0.42684659077223586
293,0.43034837817211896,0.4152904429723639
294,0.4295037674436943,0.41714613244302085
295,0.41112305975551133,0.38878734737940446
296,0.38486845129066044,0.37802129899222925
297,0.36788196926065486,0.3559591658442813
298,0.3602299148635231,0.34105577133448933
299,0.3297326649478871,0.31524680431376506
300,0.3252593843723468,0.3091130254771075
301,0.3208798940399949,0.3235407937391593
302,0.32504258609170633,0.31344961435567137
303,0.33287722108175427,0.3282865505333293
304,0.2709704706256243,0.21665184480897443
305,0.21372583030248812,0.19381364608431953
306,0.21441129885083862,0.21140362150620173
307,0.21622824900561005,0.2097182884377199
308,0.2214495248193268,0.22091109343843376
309,0.22026161376020606,0.2190234601474128
310,0.22534659983728716,0.20938522480986865
311,0.22995254791659608,0.21544978750580018
312,0.22343325946661685,0.2100089835010369
313,0.21747647688614666,0.20530419674979106
314,0.2150070508607,0.19051868329155416
315,0.2154409315862911,0.22114635989857925
316,0.2170263999562374,0.19055435263743623
317,0.21577594340514603,0.2023705886331429
318,0.2141661045195864,0.21645516506451365
319,0.21246911653225942,0.19604509257385838
320,0.20918964549339267,0.18863664679199857
321,0.2095046130230101,0.18438896820266695
322,0.20913640394223204,0.20160066429893145
323,0.2118949442327642,0.1942137426857696
324,0.2106833127822331,0.20366245784576992
325,0.20666627451884662,0.19050305961809857
326,0.2114911029736201,0.1912425961213123
327,0.21438962439719816,0.20011911300711493
328,0.21862632741959548,0.20119893856658272
329,0.2220893749218288,0.22026199309394975
330,0.2240198124214995,0.21703487986312103
331,0.22882721605870746,0.23210866459966553
332,0.2288770361734237,0.2148728202131666
333,0.2274408886293999,0.20011827635454585
334,0.22429535088898372,0.20451180721561835
335,0.22518262114051243,0.21108956864337425
336,0.22391325031086315,0.20398531487210114
337,0.22210887234678847,0.2014571908264529
338,0.2215046989415094,0.21303917926272353
339,0.22012048832875647,0.1964535529959738
340,0.22003733333971479,0.2033188629898389
341,0.21742871940898287,0.20676763948485338
342,0.2145557916052431,0.20089104097709942
343,0.21590575288763816,0.20769993649191432
344,0.21596742524422236,0.19673267128012176
345,0.21399257709677938,0.18853574314969868
346,0.21238546041871528,0.19542008346709663
347,0.213662340843992,0.20060598430383272
348,0.21099462663288787,0.19102514947411012
349,0.21028216373767974,0.20420349231129475
350,0.21020981812958334,0.19440789631293717
351,0.20848382160150938,0.19397509508511168
352,0.20948056020229744,0.2008725755804622
353,0.2101747497713728,0.19694509124934625
354,0.21073728337657632,0.2129978703977371
355,0.20915936489852308,0.187155730698931
356,0.2061323413698317,0.18220565593327323
357,0.2061832854859263,0.19368393118210261
358,0.20668542101610002,0.19304176291190647
359,0.2120214898964103,0.19786632580839938
360,0.22301136173432964,0.2123057207396958
361,0.2245924676434218,0.22038454967591362
362,0.22421829067736412,0.20562053431228286
363,0.2200790690742046,0.206630271619102
364,0.21909431369303703,0.20764645139062696
365,0.22048452591224255,0.20961602503799884
366,0.21717727850738475,0.20849090514685473
367,0.21845631976183846,0.2052153648239661
368,0.2138309447671012,0.20193335129317094
369,0.21354300559138795,0.19544511233715908
370,0.21458428937325374,0.2081941222358898
371,0.21078590018381413,0.19254985543433945
372,0.21517140045464278,0.1947377282000002
373,0.21758828886883627,0.20202551528094034
374,0.21653016414835774,0.18631223714436332
375,0.21397089441236164,0.1926814445897925
376,0.21022893677798393,0.1949302983288701
377,0.2054142087793274,0.18043161179479314
378,0.20041063021746375,0.1780863441556292
379,0.1989704450960163,0.18648887051073887
380,0.19799981555707163,0.18188551249425056
381,0.1972139145937755,0.18318735826363597
382,0.19756534516358737,0.17086357388707155
383,0.19577837976620352,0.18936905703538973
384,0.1952434497700035,0.173461919260853
385,0.19631524653814966,0.1668988182470379
386,0.19371793483444255,0.1763211694305679
387,0.19340294282094275,0.1938719002040428
388,0.19531003585893758,0.17075200844629598
389,0.19719347738914733,0.18081252521525806
390,0.1947845952461759,0.17904497032666075
391,0.1960097847582339,0.19514142621335026
392,0.1943582235801992,0.21083212500965867
393,0.1981571261747945,0.1898929847444054
394,0.19563042945999035,0.16971108300909812
395,0.1934620299749523,0.1755585735979848
396,0.19327881386120924,0.1784913251624864
397,0.19407008582953927,0.17506710364062106
398,0.1928788136830814,0.1725181403857286
399,0.19243497185879568,0.19052884288443855
400,0.1937101535219178,0.17800067658017918
401,0.19259415638389632,0.17954243137409298
402,0.19497113197827512,0.18794971171710656
403,0.19415996448218012,0.1730564698141771
404,0.19347412355369228,0.17479442082339605
405,0.1935884741475161,0.1692908865641494
406,0.1923168345237617,0.17539034031137482
407,0.19277530990773253,0.1735407411228886
408,0.19164690584968702,0.180348404686848
409,0.19138664408005493,0.17541614522967833
410,0.1915734396528283,0.17800618090682266
411,0.1947753342221395,0.176544038171644
412,0.19228560251178597,0.16514135182092016
413,0.19339137645267088,0.1758440600527302
414,0.19314936244730754,0.17560054677014475
415,0.19267395369821697,0.17873111046150902
416,0.19349032423669676,0.16676072436425285
417,0.19199204052404628,0.17326403458050696
418,0.19357794609596785,0.18366774160417873
419,0.19360788671566334,0.17324000775767012
420,0.19391117301538027,0.18271447733432736
421,0.1950603928878534,0.1704394809354829
422,0.19552047292200878,0.172225279726188
423,0.19485224934695342,0.17871266829280658
424,0.19370968848300113,0.17806457792244845
425,0.1918840212978238,0.17602913717914964
426,0.19533278871711782,0.17941557889438184
427,0.1910266650797461,0.17980612983784527
428,0.19557083328422026,0.16361146397306492
429,0.19194798652740785,0.17531317426590065
430,0.1936148856934026,0.17204132162169763
431,0.19257816148819112,0.17798122967098676
432,0.19322208639719693,0.18305930415287486
433,0.1941596775067796,0.18573222869761646
434,0.19475668242318833,0.17657242001467272
435,0.19424363407942888,0.1806325681019507
436,0.19417068630838089,0.17511807674955174
437,0.19116943541000025,0.17008185114979085
438,0.19269562401264595,0.17280230026077642
439,0.19261455526359553,0.17173507608526226
440,0.19308282695204423,0.1745139438638371
441,0.1927874924586736,0.1826395290567824
442,0.19284509671487207,0.17387270485216366
443,0.1927068756162215,0.17715959954233554
444,0.19378698725613663,0.17895969696748698
445,0.1930391282724629,0.18691047288671478
446,0.19421033180064912,0.17826347111855892
447,0.19602231593202535,0.1758740098930854
448,0.19527323889456016,0.17280944952507515
449,0.19653408964284413,0.19021169945962238
450,0.19916314637656216,0.18717952932348003
451,0.1994928578011614,0.17942692798098525
452,0.19835346874644716,0.1833610235939086
453,0.19692261347906004,0.1788142977992474
454,0.19488989241379534,0.1781707832379518
455,0.1962009574547946,0.185831796963006
456,0.19727296327991928,0.1740364265328989
457,0.19649886382188347,0.19027133730564327
458,0.1987614847130055,0.1894746266934659
459,0.19854039689310068,0.19854791608257566
460,0.19858413230743913,0.18142702052371185
461,0.19935131781130766,0.18646776423316916
462,0.19868023573256416,0.18909683757724025
463,0.1963201950517871,0.17330459053109928
464,0.19901302303198717,0.1827296653693364
465,0.19978771828633132,0.1890738948697449
466,0.20210911780238439,0.1777457175710207
467,0.20201599735507575,0.18141511502516203
468,0.20211717073055957,0.17810891478101193
469,0.20283274272744128,0.2132787876178076
470,0.20324098046044176,0.19102915747483698
471,0.20599483210239097,0.1907249578196135
472,0.20895986241116513,0.1886565907907561
473,0.22085102492099185,0.2046078336384697
474,0.22381939989128272,0.19989192036539905
475,0.22682561662247616,0.21511944528630897
476,0.22335072929600921,0.21757826016188234
477,0.22327177386751754,0.20890840140025072
478,0.22302007206457314,0.2055823357677309
479,0.22334166161185928,0.20574370729895022
480,0.2235400600256108,0.20514406528450319
481,0.2247482209409074,0.20077590290354103
482,0.22318099552302434,0.20210163428168082
483,0.22368373004176156,0.21987171901570782
484,0.22242006355767055,0.19454489180255144
485,0.22158221338245032,0.2102361051064358
486,0.2225378858897802,0.20802825071864364
487,0.22268680216883013,0.20371680211014134
488,0.22397387768629548,0.20204821518301117
489,0.22197071848203428,0.21294200122826853
490,0.22596265281514108,0.20564016830337828
491,0.22462631708426442,0.2108944096406238
492,0.22349763387660804,0.21017982768984225
493,0.22534152189437912,0.20222091065585943
494,0.22190427843281788,0.21677169767109164
495,0.222987152302532,0.21417771618528073
496,0.22470925581588638,0.22952934056402852
497,0.2254266413710386,0.19961401162744039
498,0.2250041001849323,0.21699023590185743
499,0.22202809827385855,0.2106508013410839
500,0.2213630263003514,0.20689097536108864
501,0.22104982499905723,0.2059215463068698
502,0.22290788294314196,0.2179766839051115
503,0.22511814325619087,0.21690607542538135
504,0.22480590066177952,0.20632611618516195
505,0.22481846431795832,0.22436264146710344
506,0.224648154676437,0.20384825092182446
507,0.22775840861119812,0.20142651281680474
508,0.22744252516640176,0.2122243385829602
509,0.2257368328998224,0.22705941559671886
510,0.22967736208610398,0.22072286365205318
511,0.23081100287792874,0.20595755745034192
512,0.22929087511712698,0.20972415061569064
513,0.22973133056617373,0.2231107694526874
514,0.2349069678931118,0.21725982542854647
515,0.23498511263173072,0.21574148854451003
516,0.23620457125963162,0.22903737692778375
517,0.23765105973902367,0.22064011599853836
518,0.24237540080178555,0.22503190180073598
519,0.23918830148345657,0.23509917406463773
520,0.24554228324064914,0.23505361138268918
521,0.24631849330940025,0.23266216408058518
522,0.25060136847311165,0.23944959298493643
523,0.2558309184752113,0.2469100260602835
524,0.26625308703532896,0.25503733420146196
525,0.2792872926361746,0.2673342175364212
526,0.2785569428802013,0.2558536349715637
527,0.2483935971602166,0.22778489207224104
528,0.23762719221204687,0.23495744841486427
