epoch,loss,val_loss
0,0.1567706422711774,0.06590857103297794
1,0.05335321531797334,0.04875217313181068
2,0.04862543178336013,0.04810849162058819
3,0.04846364101193684,0.047539121768190334
4,0.04846257798439317,0.04824158004866513
5,0.048389081418919885,0.04811157839975508
6,0.048515537442017594,0.04967501935672199
7,0.04838296134857009,0.047893944327075215
8,0.04847697047345203,0.049091835194308875
9,0.04836213143260552,0.04798778421143546
10,0.04833948458906553,0.04905932505720047
11,0.04828179824658878,0.047731829835864846
12,0.04836256021381713,0.04788396732287976
13,0.04836962024291293,0.048905439831963035
14,0.04835139684307518,0.049065596911231385
15,0.048316841569242236,0.04892809099584987
16,0.04833988544849561,0.04845676994417996
17,0.04827745804329029,0.0482988932773483
18,0.0482752964831143,0.04840831397839997
19,0.048306855968862555,0.048037540696301506
20,0.048308316373629416,0.04755794169609371
21,0.04823342765017068,0.04800886648124732
22,0.04829051037333172,0.04823098890634445
23,0.048237380284586365,0.04761315880997434
24,0.04826070870413744,0.04842713913016946
25,0.04825202862562849,0.048191010118110916
26,0.04823316105479618,0.0477507296414851
27,0.04816634068973929,0.04788443539216087
28,0.04823623166484438,0.04769818385079539
29,0.04808722436875463,0.047684456832821735
30,0.04813189847056297,0.04782591531142315
31,0.048198018600348475,0.04826638978412745
32,0.04819765129239202,0.04789238604992652
33,0.04813249206678976,0.04760408068539549
34,0.048198167937065814,0.04835182870077294
35,0.04809042564880332,0.04832736724822964
36,0.048140275808837146,0.04813085171935622
37,0.048166168609065856,0.04779122012991395
38,0.04802247565433538,0.04774609076075213
39,0.04808357355741857,0.04816142470248811
40,0.04810845425682034,0.04790583810340749
41,0.048063924023098614,0.04765870624855584
42,0.048074133814967945,0.047955802298133586
43,0.04812178748239986,0.04769028122298909
44,0.048062280524340126,0.04767991074595815
45,0.0480855016516532,0.04838572307478482
46,0.048175759280952,0.04751804885239207
47,0.04802616909623528,0.047688418895078695
48,0.04808552863540126,0.047684847510934165
49,0.04807302087330646,0.04776282999770291
50,0.048009547612982525,0.0477382264856101
51,0.04805872270806109,0.04791591392598883
52,0.04802406176453452,0.04778852385060147
53,0.04805333321068504,0.047655410381805964
54,0.048028449477960436,0.0493399497342129
55,0.048065886290682806,0.04815989725793268
56,0.047993217121430926,0.047821268091840854
57,0.04799100297918503,0.04762604803342405
58,0.048033125877523536,0.04754805637996369
59,0.04803434382822869,0.047648251361824684
60,0.04800515889739685,0.04783849586148815
61,0.048013932989526976,0.04781358304455429
62,0.04801742899253237,0.047718074903895194
63,0.04795633207669585,0.04751536016264101
64,0.04803374545981256,0.04804832611870495
65,0.04793259492956752,0.04755670636505589
66,0.04802233525652519,0.047987646632506806
67,0.047991721442728355,0.0476236681258253
68,0.04799728746338784,0.04783549877631403
69,0.04793286670575007,0.04768974885997111
70,0.04796224911723307,0.047784075261805954
71,0.0480210956937676,0.04758458602977109
72,0.04795605952950646,0.048508278953042924
73,0.04792827100241728,0.047509014322471545
74,0.04795816315083002,0.04759688309521474
75,0.04798109626458634,0.04758459660137754
76,0.047951039776886056,0.047720526368489426
77,0.047967295597096365,0.04745136862144853
78,0.04790044294817864,0.0486597673422132
79,0.047987776888225725,0.04860350040647912
80,0.047924093420418194,0.04747814050024347
81,0.04789624070439986,0.04784476204147594
82,0.04794278846318432,0.047584370820989284
83,0.047929203512074,0.04817723933024225
84,0.04793450214547382,0.04794865221824476
85,0.04788942138304273,0.04738976349578287
86,0.047972310699814794,0.04776654519074251
87,0.04791098633696071,0.04771092461553513
88,0.04793095099832937,0.04759795081538102
89,0.047933623983597066,0.047617675296944134
90,0.0478699173930409,0.04781792513778416
91,0.0479158670369318,0.047581199024836415
92,0.04792571158183394,0.04747115979567835
93,0.047849837875514147,0.04741381108760834
94,0.04790432172849047,0.04750206724522274
95,0.04793373424055769,0.047544112191848995
96,0.047867792908302106,0.04756416512135075
97,0.04789904287581543,0.04766247489482817
98,0.04794185973548765,0.04760509103971676
99,0.04788063055842375,0.047640464393254325
100,0.04784604338548773,0.047425449592426165
101,0.04789588385350328,0.04843887825408121
102,0.04791101910251441,0.04765383971421484
103,0.04785510846782771,0.047575776117029754
104,0.04787838623804556,0.048523254447827374
105,0.04783340170830369,0.04757490597320879
106,0.04792418728789107,0.04766999891470432
107,0.047890560404718924,0.04771594580531797
108,0.047885691845495765,0.04751626541120486
109,0.04786991568250929,0.048203081125204675
110,0.04786774185184148,0.047669900564623384
111,0.0479435161281052,0.047485025244593526
112,0.04782288141691799,0.04756256534936268
113,0.047885773071140836,0.04754715304691813
114,0.04784411522861812,0.04895347638383496
115,0.04791248845364496,0.047495944629402924
116,0.04783500664478975,0.04759231263232347
117,0.04791738736100966,0.04762633714374738
118,0.04784569378384502,0.04741239813303715
119,0.04787700255367878,0.04809129474698192
120,0.047892393683008044,0.04758201719285121
121,0.04784889970783046,0.04751231619560999
122,0.04790439692029865,0.047595853570603974
123,0.047815375769730085,0.04772590900207088
124,0.04787189349550023,0.04772161596000726
125,0.04785978045908092,0.047608172483228614
126,0.04784449460424835,0.04757799419052506
127,0.04788008430529776,0.0475097877386616
128,0.04781828521101402,0.04749949711215564
129,0.04785068074108554,0.04752028375767347
130,0.04787250602538821,0.0474705574679017
131,0.04786907497635357,0.047825508067400976
132,0.047857283281268266,0.0475877338487108
133,0.047848686619137555,0.047493404634024974
134,0.04784760990584966,0.047457021584814386
135,0.04780429661172547,0.04769201691217859
136,0.047878152634903755,0.04735279322540673
137,0.04781870366490966,0.04741808007994708
138,0.04785610339175567,0.047670156775769044
139,0.04785429931180872,0.047399912259125265
140,0.04786242839333723,0.04750589002452531
141,0.0478003347565452,0.04738367743191928
142,0.047893576036163385,0.047796496512656855
143,0.04782099815292822,0.04757784552636518
144,0.04783693559503584,0.04740388613173078
145,0.047856541229687855,0.047581601975559704
146,0.04788131360486567,0.04751054125642351
147,0.04782337195771613,0.047594018646086124
148,0.0478397296954862,0.04742480919598953
149,0.04785023745689228,0.047620561844023475
150,0.04785600613453705,0.04765293876499252
151,0.04782330789853087,0.0475065204898758
152,0.04787198358548699,0.047365104599832425
153,0.047820850122597715,0.04753660956293417
154,0.047804087158844315,0.04807237849026218
155,0.047868667746050725,0.04781231597754787
156,0.047860908476386764,0.047499199499831585
157,0.04782889873755751,0.04749360582991431
158,0.04787355390421336,0.04755989876058367
159,0.04780348209146741,0.048256554020703175
160,0.047841452542331526,0.04737122964479531
161,0.047834661511109294,0.047393408140948605
162,0.047789277738516475,0.0475871005131042
163,0.047888247669041394,0.04749871003958914
164,0.04779509082287431,0.04749385174741517
165,0.047849158983859566,0.047915981035598
166,0.04790427831648062,0.04739163604784766
167,0.04779631359796461,0.04744907730808127
168,0.04780012162162171,0.04736829667812136
169,0.047836213447958874,0.047570300091357126
170,0.047803944646357725,0.04740910009697793
171,0.04783980041784081,0.047821363042934294
172,0.047824533277446984,0.047775438522190364
173,0.04780962923951775,0.04750699947217278
174,0.04782733662103156,0.04798039052233596
175,0.04781047449118381,0.04743290868408779
176,0.04782589673966146,0.047650925364928425
177,0.04784863205511776,0.0477548979180476
178,0.04780505618618859,0.04736707744770967
179,0.04780646883774462,0.04748755453542684
180,0.04778423663482273,0.04755584533354275
181,0.04788094488314813,0.04747060747984842
182,0.047791550993275124,0.047428505182483774
183,0.04786452182305394,0.04757174077260233
184,0.04785178067107455,0.047349895414838146
185,0.047806215447912796,0.04741663063686743
186,0.04783894459726669,0.047640601289364155
187,0.047793250317700965,0.04837573248068201
188,0.047814917154878595,0.049543909674143266
189,0.04784438229226369,0.04768916759685298
190,0.047803276723282065,0.04765654297278165
191,0.04784262640248116,0.04778653259682926
192,0.04778649700019625,0.047470390128949165
193,0.047844280838501084,0.04866161166606448
194,0.04784651895055922,0.047817010903808035
195,0.04773280449551616,0.0474022274711513
196,0.04785106053279103,0.04760832857681983
197,0.047819567547501135,0.04759378013988868
198,0.04777499830560555,0.04743695044580361
199,0.04778472596616913,0.047716727566400004
200,0.047803656513496245,0.04767221959862202
201,0.04781413388649543,0.04759413851704524
202,0.04781802408576155,0.04749197279618991
203,0.047816396281540725,0.047494210314915034
204,0.04779843015490388,0.04754546843620209
205,0.04783065745933615,0.04813557206400023
206,0.04774921193563814,0.04793622595804161
207,0.04784499253597471,0.04756463965626142
208,0.04778736268130658,0.04764371090972704
209,0.04781070891901958,0.047480111248301766
210,0.04778084752885841,0.047697634782886855
211,0.04779995862749503,0.04775407042623243
212,0.04783415781845562,0.04739874167502265
213,0.04777472635941376,0.047439942125832274
214,0.04779925681740117,0.047511588818327934
215,0.04783430069482164,0.047483576671654676
216,0.047753584841855344,0.04772809736388346
217,0.04783948390834851,0.047606962038821934
218,0.047794231600623974,0.04789851377480221
219,0.04778689137243146,0.047510096342555895
220,0.0478750134112121,0.04732911471226113
221,0.047772990386065146,0.04800736353357246
222,0.047799342190377035,0.0479817076012891
223,0.04779650010258031,0.04758814302637919
224,0.04775733348754666,0.04738603157368213
225,0.047807855911857135,0.04769541033440166
226,0.047792414458300035,0.04796200150145038
227,0.0477667964317853,0.04764675884677546
228,0.04779050030929743,0.04752861588456141
229,0.04779966104122474,0.04738999253315647
230,0.047827048388252365,0.048663165864428176
231,0.04781961292058253,0.048206571105864605
232,0.04779552357991616,0.047564676891036474
233,0.04780103118003035,0.04740310922591356
234,0.04782558129496389,0.047447339431454474
235,0.047845792668081935,0.047335609887324014
236,0.047759837477659585,0.047623667799522505
237,0.04779361916170586,0.04748428354624414
238,0.047772611654680476,0.04752066436269761
239,0.04780370872423017,0.04774987997618615
240,0.04784161161729772,0.04755941890210324
241,0.04771872773897753,0.04780691595323571
242,0.0477972922099529,0.04775428978631096
243,0.04777793786238679,0.04766257081576604
244,0.047791954070281945,0.047863010755178896
245,0.04781159498632622,0.04730881772941433
246,0.04774909614144658,0.04745391167440457
247,0.04780306026124782,0.04783987244236112
248,0.04778615130429224,0.047417858858734056
249,0.04779686180619692,0.04740603547316688
250,0.04782097936839796,0.04747123455225406
251,0.04777543540533969,0.047402936554327306
252,0.04777380603822686,0.04740886219806625
253,0.0478230209721385,0.047386923322978294
254,0.04779829442489138,0.049539495041988194
255,0.04778584390520763,0.04736153453298439
256,0.04776783336738379,0.04773822139166084
257,0.04780836815716888,0.04828725060914845
258,0.04779797469417127,0.047471897249070014
259,0.04777864106983734,0.04738761220559393
260,0.04782924277214311,0.04751390931162521
261,0.04777593003232494,0.047670021405426935
262,0.047777346884898896,0.04768206327791052
263,0.04775819005526668,0.04777319021734491
264,0.047791368114032014,0.04735467658776243
265,0.04777809407702201,0.047345263918216696
266,0.04778766446262956,0.04740741109930202
267,0.04778740131963578,0.04760652557559257
268,0.04777060032749863,0.04747157600094222
269,0.04778562260238384,0.0475544491624165
270,0.04780127813486312,0.047568972619055544
271,0.04776127813152784,0.047345174308820945
272,0.04781962293024966,0.04747478981764454
273,0.047763901020738006,0.047407791184658744
274,0.04776948142954834,0.047593503450221
275,0.04779943449794053,0.04736211755753337
276,0.047775173871468506,0.04776407537463711
277,0.0477496307519219,0.04768367508684632
278,0.04780303535489343,0.04757795020309485
279,0.04781330293797559,0.04743039036065413
280,0.04776445826033863,0.047383791157509
281,0.04781406833898363,0.047728111243837745
282,0.04776574570903356,0.047593539298209156
283,0.04783500618695783,0.04753830967001188
284,0.04772019957313784,0.04743816832568427
285,0.047795754207896175,0.04740565589841361
286,0.047787882688882545,0.04772022884680503
287,0.04776252673758422,0.04743577326011194
288,0.04777530166622493,0.047518590938024956
289,0.047737736635214335,0.047772043211640906
290,0.04780862761066378,0.04733349016088832
291,0.047752844573880696,0.047518515444246616
292,0.04779022127342186,0.047950039962903326
293,0.047768119583913,0.04749176578727662
294,0.04776866976663864,0.04752129104535269
295,0.047738899567050394,0.04746862516918998
296,0.04779401789751169,0.04736974881017778
297,0.047838507388666976,0.047462874801417046
298,0.04773502869067715,0.04753465602432724
299,0.04774742151608316,0.047574233886123383
300,0.047767636809853006,0.047546481177367914
301,0.047772189239867695,0.04740123018706995
302,0.04779870947412818,0.04782886916147628
303,0.04773935241351803,0.04735429831217772
304,0.04777548952196673,0.048853562968055694
305,0.04777705903687746,0.047411752639629934
306,0.047765897246923227,0.04735039824745274
307,0.04779926776062784,0.0475666197704186
308,0.04775601274984851,0.04738964230450594
309,0.04774709896678873,0.04761448724003507
310,0.0477631025663536,0.04735823618875029
311,0.047779412030445945,0.04729427069135536
312,0.04779191434627967,0.04750477755555561
313,0.0477828568457555,0.047679173087116576
314,0.04772246019054261,0.047362819643327114
315,0.04776652472569429,0.04761762264436179
316,0.04775161165192282,0.047418965124929234
317,0.04776037271895869,0.047412248384222595
318,0.04778972961563316,0.047643209391387616
319,0.04770008840108271,0.04733294235589247
320,0.047788364614387624,0.047392951422775074
321,0.04775096494122874,0.04881259253352808
322,0.04778772423877489,0.04734458683386433
323,0.0477622155625048,0.04731918313666658
324,0.04780025583944672,0.047587231411889426
325,0.047725511860964395,0.047432052078811696
326,0.04780846021120982,0.04735282849632234
327,0.04775631436116224,0.047839545163674176
328,0.04770868587895954,0.047359249661076096
329,0.04784426772243696,0.047446474012981465
330,0.04773266814511905,0.047293000491237795
331,0.04778282522850985,0.04858816359177026
332,0.04774779303102278,0.04739431216889828
333,0.04774423938146155,0.047915495472861225
334,0.047799270773072354,0.04732234055736832
335,0.04775813044465667,0.047359829371234605
336,0.04775663466901899,0.04755418790566274
337,0.04778852429929927,0.047394750813522284
338,0.04776802821736559,0.04746586587113862
339,0.04779355145030446,0.04733408876337467
340,0.04774200922106389,0.04739054340177305
341,0.047789371841616204,0.048273268537195546
342,0.04774898832725037,0.04741354553453437
343,0.047807998136521056,0.04755856204303609
344,0.04773478684656089,0.04742587784672306
345,0.04775970276322863,0.04762869421015014
346,0.047746769982495246,0.0476969171674969
347,0.04772463645502698,0.04748511672720905
348,0.04781623006767755,0.04737501072985122
349,0.047784298816449744,0.04753381316606726
350,0.047688400772533675,0.04744222885887505
351,0.04776857500885419,0.04752774763208816
352,0.04780297843460515,0.047812719085379915
353,0.0477342706895452,0.04745172709226608
354,0.047774139888662165,0.04756082775976149
355,0.04775668387923888,0.047866234638926856
356,0.04772881241597301,0.04756018970182826
357,0.047817128280206046,0.04746220991716381
358,0.047725993018445254,0.047352960023542584
359,0.04772434180216182,0.047684245412778006
360,0.04778453416144065,0.04740935133502721
361,0.047779551256087134,0.04731893580820826
362,0.04775153083787907,0.0473845867562468
363,0.04778971869328482,0.047462281066280795
364,0.047734642525116285,0.04731478152338896
365,0.04775980925015968,0.0474589667875933
366,0.047738779011108665,0.048286483205389606
367,0.04776579920080206,0.04786841048038015
368,0.04775935673327137,0.04747161972249608
369,0.047741675920921677,0.04739410829007481
370,0.047757169750748014,0.047549645828093734
371,0.04775497568450612,0.0476240348418312
372,0.04773879823110121,0.04768217800053657
373,0.047745487373098555,0.04736264209834812
374,0.04777616152228166,0.047552690372197295
375,0.047752918256484,0.04756873551777293
376,0.0477610161979858,0.04737769899359585
377,0.04777471644369911,0.04879733989889894
378,0.04772353105491595,0.04728573934150148
379,0.047778310234829174,0.04783219481846325
380,0.04777458446432916,0.04735545890476775
381,0.04771735576735295,0.04760816470936654
382,0.047760582908546574,0.04749263560479478
383,0.04777898486432216,0.04754664935020538
384,0.04777587605588096,0.04765262800689548
385,0.04774764698860739,0.04742904135236775
386,0.04775328519161316,0.04744680619829569
387,0.04773525239152609,0.04748095784695866
388,0.04773718448694321,0.04744493838064282
389,0.047763826981711804,0.04885985043930118
390,0.04775208332766,0.04772304769209605
391,0.04778486037040778,0.047604641986637705
392,0.04773803453913348,0.0475024755618143
393,0.04775939296015365,0.047507736850031394
394,0.047768673377098135,0.047366895044444544
395,0.0477548748481455,0.0478704838083705
396,0.047773996057858266,0.04748046039531894
397,0.04769338688121928,0.04741284781757256
398,0.047775175074955004,0.04749909436688226
399,0.047737554264507646,0.047388613205901604
400,0.047735310237917356,0.04756058101743967
401,0.04774564213072471,0.04740508310406168
402,0.04777990212683395,0.04733572428364727
403,0.047736167554274574,0.047356526362079
404,0.04776350118434601,0.04806809430973663
405,0.04779223893419374,0.04741193028129124
406,0.047771458808568305,0.047357883811939665
407,0.047742687195563335,0.0475151151485155
408,0.047760876457842945,0.047355364464277766
409,0.047728465442017046,0.04750527831554316
410,0.047779649475200164,0.04765991536660206
411,0.047769932971120456,0.047389650362372304
412,0.04770302135732959,0.04745159509371957
413,0.04775801840110766,0.04768488186638914
414,0.04775112099331126,0.04744817958563107
415,0.04778251610398054,0.04734855948887699
416,0.04771462430934414,0.04743770785502854
417,0.04776351194712426,0.04753448158526749
418,0.047765235500850135,0.047310971049931795
419,0.04772714920807257,0.04804353808133658
420,0.047766489748529095,0.04730866919214998
421,0.04775800328221533,0.04733392968773842
422,0.04776380060343527,0.04774530633184258
423,0.04774168623630718,0.04759300619194591
424,0.04775616467846117,0.04755116050454145
425,0.0477369063876098,0.04743252783131522
426,0.04774245916991782,0.04738632457546847
427,0.04774672035470879,0.04762450463326598
428,0.04775269054401341,0.047327761597997856
429,0.04771953384676058,0.0475376689956136
430,0.047708169471403904,0.04738074961055708
431,0.047777392416059064,0.04733690790475527
432,0.04771200410747309,0.04742859075237171
433,0.04776911938889586,0.04747683176013965
434,0.047716251916712145,0.04746719948276696
435,0.047779548395756155,0.04734121713204202
436,0.0477459502590595,0.04741059916225373
437,0.04770756962360908,0.047413607248062054
438,0.047795454222109436,0.04730286832599744
439,0.04771893994481541,0.04737533480291529
440,0.04773169646473576,0.0473949314070154
441,0.04775385524752476,0.047325323315432474
442,0.047793677777612655,0.047622436891700426
443,0.047735215187836307,0.04750719997920066
444,0.047737980913147154,0.047515746764989764
445,0.047747836158192565,0.047512624681672715
446,0.047757071388469303,0.04754429870713366
447,0.0477141114153129,0.048386749351474204
448,0.04775064693297072,0.04836069589476226
449,0.047762507814362205,0.04750670872731414
450,0.04772834171555203,0.04754832668859883
451,0.04774483167875806,0.047494263076264975
452,0.047774323843139184,0.04859598204856081
453,0.047765158497101314,0.04753612744450472
454,0.0477378738893448,0.047532455347605286
455,0.0477758966255083,0.04781318313328116
456,0.04774448361018116,0.04730370225322894
457,0.047776054719193065,0.047451333172274915
458,0.047757578496220976,0.04744838027393827
459,0.04772801644014444,0.047431046745927956
460,0.04772883769366339,0.047281302819866915
461,0.047783958860594715,0.047415791987309296
462,0.04776001748314994,0.0473430272182699
463,0.047712445543934286,0.04761894565114913
464,0.04774887781974981,0.04783574015578891
465,0.04775553655544455,0.04753717953234984
466,0.04775793368132521,0.04743827032854377
467,0.04774739587749597,0.04739326475503864
468,0.04773616414066789,0.047287688387402264
469,0.04778997626325624,0.047388967845682584
470,0.04772436429408668,0.04774704789146116
471,0.047792429748692924,0.04791939167633641
472,0.047699539949767014,0.04740732151709817
473,0.04775828643261289,0.04756952573855718
474,0.047750132927914156,0.04738038849608258
475,0.04775912974557703,0.048757906081661015
476,0.04774252421634974,0.04743036653148577
477,0.04777124410926151,0.04739832566916604
478,0.04772221382328565,0.047376963244229915
479,0.04775447119251072,0.048336451593710944
480,0.04770643458521968,0.04751000666366973
481,0.047776125049333366,0.04765441325181206
482,0.047796821821215536,0.0474329883352055
483,0.04774269511739763,0.04749916388146392
484,0.04777102416502036,0.04735608101616231
485,0.047751403475602305,0.047370698475199605
486,0.047766619332856516,0.04795784233115305
487,0.04771087649580333,0.04757843317655848
488,0.04776758976501403,0.047516604367302186
489,0.04776151151097327,0.04736550235690282
490,0.04779262970044338,0.04742671723348381
491,0.04773345429918545,0.0478058920241137
492,0.04774017637227181,0.0473829496709293
493,0.04775260427476073,0.047351543443384735
494,0.04779353668932632,0.04739891444631253
495,0.04772416354448582,0.04745748052668108
496,0.04779408467087963,0.04744612177515165
497,0.047755016254080684,0.04762905186823201
498,0.047693260923755754,0.04733605297329169
499,0.047778502467563384,0.0474345207800492
500,0.047757421661201144,0.047337430206770253
501,0.047708402478022036,0.04745267170261583
502,0.04781468767222402,0.04732093140664182
503,0.04777085425271045,0.04789472779822562
504,0.04770349476895063,0.04732196938793348
505,0.04771717411098335,0.047359548333884255
506,0.047755000605773604,0.0473475269006455
507,0.04775304966020861,0.047392580851562026
508,0.047742670240869416,0.04905392415972618
509,0.04778459793876848,0.04747159957329819
510,0.047736469448937044,0.04747219697934094
511,0.04773993667414944,0.04749986028415056
512,0.04778028639097563,0.04780294152772823
513,0.04772228290370887,0.04758104997998993
514,0.047769832169059945,0.04747337965779641
515,0.047729086236740416,0.04760878774830701
516,0.047796105558844545,0.0475126349994881
517,0.04773666195905476,0.047469498968810836
518,0.047741381834753994,0.04738070646909708
519,0.047749922572790954,0.04740916741203701
520,0.04772643892436003,0.048058566999140545
521,0.04780937967042001,0.04741745778425187
522,0.047700837528925115,0.04747611339546178
523,0.047774095447649,0.0473431572167011
524,0.04773241777518828,0.04777158162007463
525,0.04774866405698516,0.04738579265054221
526,0.04776546923970107,0.04787917863894843
527,0.047740107108417563,0.04751594287901512
528,0.047795049698532724,0.047507321088901884
529,0.04771921563866713,0.047496771668019765
530,0.047766196956817775,0.04736391587571119
531,0.04772255207159168,0.0479378690920462
532,0.047711227479889644,0.04760509665635477
533,0.0477519912303711,0.047499522436878494
534,0.04777691015650073,0.0474721847641352
535,0.04776844385716083,0.04734261842128811
536,0.04782412026235588,0.04912065194628148
537,0.04771108120930395,0.04745173750676378
538,0.04779302559679656,0.047815420706390076
539,0.047687036552734145,0.04746328242612581
540,0.0477490397401339,0.04751476591085865
541,0.04775580163564894,0.04735557292342573
542,0.04774269824467295,0.04734575935463449
543,0.04771274392208975,0.04738060168057849
544,0.0477977919044067,0.04744101063154233
545,0.047767556807081446,0.0473690819620651
546,0.04770485176932249,0.047310724724552444
547,0.047744019592316556,0.04763835066716456
548,0.047730424495829975,0.04756401292224387
549,0.04774535691337265,0.04740402952368339
550,0.047741619400304254,0.047530958206911736
551,0.04776318472555821,0.047849928318173154
552,0.04778256943170503,0.04775330482922428
553,0.047737222692792756,0.04742434494263838
554,0.047788395485978685,0.04747833729708765
555,0.0477017467368761,0.04742694743406647
556,0.04773165745656189,0.04746797050606982
557,0.047831098713857635,0.04729733653578058
558,0.04770958497285175,0.04732312894420999
559,0.04775727068851765,0.047528630988151195
560,0.047765131124121556,0.047627053024898384
