epoch,loss,val_loss
0,0.1404155257889788,0.05396195338199528
1,0.03360801027696148,0.02218424143665121
2,0.017150304820328997,0.02202594985901698
3,0.014878342106795426,0.012705572963866457
4,0.013199055762619054,0.01165219782847961
5,0.013073712160221214,0.018495215721951758
6,0.011097864467474959,0.012169175701922993
7,0.010467211925071015,0.007142801362221389
8,0.011119190238521908,0.007459378739173547
9,0.009874315880745988,0.007318856583830284
10,0.010286652371935028,0.01063531039586995
11,0.010032402161846785,0.016800730556084966
12,0.009980453469929733,0.009322512634657176
13,0.010031833668328006,0.019864377948648832
14,0.009416206272878796,0.014243303226996521
15,0.008612900854182913,0.005926980307338952
16,0.0108953034754643,0.010711811429246872
17,0.010112581299997562,0.007734107534271013
18,0.009677970896941794,0.008352651743728436
19,0.00958610846998645,0.007892921378787521
20,0.009100382028484075,0.02016575427927318
21,0.009354202272958584,0.006116773651643776
22,0.008658361353939005,0.00720719442296341
23,0.008361706423177143,0.007656772197213174
24,0.010083715214009146,0.006899564863265666
25,0.008130531327584557,0.009453179281654796
26,0.009365424581935152,0.0097837757367726
27,0.008703882219738883,0.007550364499874913
28,0.009391857441968852,0.010310667267050109
29,0.008719050768780694,0.0089945217878238
30,0.007638362368090833,0.007600575833248405
31,0.008484437687435656,0.012946591719885039
32,0.009072017359758,0.007687165961625097
33,0.007571704647162085,0.008554203547507924
34,0.009180562743778637,0.012486335535510939
35,0.008625858904254867,0.009207581618290626
36,0.008215389960407497,0.009194583907699904
37,0.008416242653699063,0.004617268437535841
38,0.008607951185698036,0.007612740794812706
39,0.008317294997534603,0.005113759728982139
40,0.007965593007493684,0.006087411102422034
41,0.008378672127933542,0.015880584499953814
42,0.009698188604807837,0.007722527055538773
43,0.00805396347097847,0.004039599717688036
44,0.008222109656673011,0.009830441969816573
45,0.008540361816585391,0.010331593941964779
46,0.007877085286436035,0.015341242155664393
47,0.007588880349990638,0.010480089480646878
48,0.008022545876787702,0.006690279397254938
49,0.008999837973478178,0.006732735506478688
50,0.007175410798896733,0.009895972803164487
51,0.008258542769196199,0.007095226038897141
52,0.00818948674960796,0.006517561240784747
53,0.007521962432814636,0.00705444354941773
54,0.0077955082332868755,0.008043689394903375
55,0.007414194718033051,0.006651580796430759
56,0.00834775092765141,0.008110152181140909
57,0.0073180623188931985,0.009494286304708768
58,0.006739890477121276,0.010127503144824562
59,0.007701322674095411,0.007824125218601352
60,0.007854205812588125,0.005749155750355573
61,0.007822556096481994,0.011499654150317293
62,0.007407231928894578,0.0067456938100695
63,0.007244644934485713,0.00819725369308335
64,0.008671920251032021,0.010483396046992683
65,0.007496966502918072,0.007530350734618652
66,0.0073500444309869345,0.008313524852497261
67,0.007876182747759121,0.006817677633832455
68,0.007360617659962197,0.01050284149120808
69,0.008029037170100221,0.008769610023453844
70,0.006802306533400282,0.008985117692338639
71,0.006864765726255445,0.004271018849362361
72,0.0074108315864019544,0.007123634019232963
73,0.00652176011281146,0.004635693941297687
74,0.007600338129660965,0.011456571948650605
75,0.008107094698009356,0.008688472357638116
76,0.008070440068159797,0.010780233946417906
77,0.006823098330165175,0.009967493527696042
78,0.007398255753329397,0.005524902275580422
79,0.006731360228817842,0.006315891161610997
80,0.008127814567879402,0.006723519530435458
81,0.007164082795788767,0.004845907154177692
82,0.005831392755326952,0.007734149924149382
83,0.007143055414706528,0.005229521689064736
84,0.008140879401789723,0.005094980847843185
85,0.006692340837506433,0.0069053142732884015
86,0.006709084741203197,0.009368819161079348
87,0.00742599644104866,0.0070165323134696944
88,0.007437591337216207,0.010833538038143043
89,0.007256286167766717,0.005255516628781077
90,0.0061309240362178875,0.010240888622190272
91,0.007184611598616369,0.0064170612702212325
92,0.007263300287035509,0.004499955050979506
93,0.006493542195509205,0.0068335881509657154
94,0.007162511171635351,0.006858101147708454
95,0.00802397289487208,0.005818757491705215
96,0.006617173386497988,0.0070253173087818374
97,0.006732032480307197,0.006130921513638985
98,0.007702328631826353,0.007469691340565305
99,0.006539525779643111,0.012738789637567917
100,0.006617302291760062,0.007605322285672178
101,0.007612679446068444,0.007936109436989042
102,0.006958248651512771,0.006473482773884037
103,0.006352364790806774,0.009053129854229085
104,0.007297988279166517,0.009555143901773956
105,0.006515036067768312,0.00469883708628784
106,0.006790090491883546,0.005518407418650605
107,0.0075254503340325615,0.006845995283229152
108,0.00734881756350407,0.008800298986249348
109,0.00671137323871785,0.005227925687008071
110,0.007098129203954011,0.007375032459801003
111,0.007263479836591833,0.00730226592961243
112,0.0064560227890050025,0.007812213196750692
113,0.007457675968131555,0.005712824850839334
114,0.005776543755454274,0.005207452196451441
115,0.007005889225266517,0.006725180339900264
116,0.006419717615431578,0.008213938552748056
117,0.006937737909438227,0.012580980207909254
118,0.006618368691469965,0.004835489576486922
119,0.006905016428560203,0.01093117192449326
120,0.00655486605775585,0.007123317574272145
121,0.006551110492866608,0.006557720214210821
122,0.0073880315760149065,0.006049445685110957
123,0.0063675372918277125,0.0065852251119217775
124,0.005926709011592399,0.0043844140231044815
125,0.007194736160521807,0.009246465502322991
126,0.006895744708645121,0.014308530960052664
127,0.006526846566414691,0.006124176122115862
128,0.006939678761395637,0.005372558670425707
129,0.006777173399252982,0.004254597516681914
130,0.007113958104903684,0.007145183210885233
131,0.006912686893598085,0.009096415005565489
132,0.006510064944805061,0.005851078638476162
133,0.006934889475256651,0.006212552090931828
134,0.005895290714908215,0.004938738124743516
135,0.006388630540345421,0.0055995564683595555
136,0.006754653969985082,0.005036353588254201
137,0.0072144199424958545,0.0062898650652219576
138,0.006961170599317933,0.006199633485057642
139,0.006966479559638184,0.006458835195949935
140,0.0061624028785474344,0.005113096274479624
141,0.006339873668259765,0.008267105357087825
142,0.007028343298637735,0.006247929797596765
143,0.0070560640778480396,0.00798508139538866
144,0.006280820998124968,0.00796085272106359
145,0.005799611509728471,0.00580412748320456
146,0.006226875688891849,0.004338809316970508
147,0.006657650926895588,0.00616604466896854
148,0.007166248292373352,0.007135081145362583
149,0.006800023498844436,0.004784034717616337
150,0.0063325920305829005,0.005691859171370775
151,0.006523138032477948,0.003955815164754557
152,0.006904604048453283,0.010144584543926563
153,0.005956142748554173,0.006012464880108269
154,0.007187836878035191,0.009803733031317628
155,0.006412098290686079,0.009270316605098198
156,0.006461073171074162,0.0053315024070247664
157,0.006490929078569057,0.0072072311462547806
158,0.006533771751263885,0.007393887335612441
159,0.006467485298338583,0.005548854624953976
160,0.005478323383579145,0.00984984334564129
161,0.006805761623085379,0.00570941633480912
162,0.006097198849049606,0.005279556949547218
163,0.006272741339000449,0.00557057867517611
164,0.005618763427870969,0.004895522960791719
165,0.006250231718863372,0.006006856826034793
166,0.006239954740360683,0.007219780179882906
167,0.0058328164337526,0.007495357325313806
168,0.00753568868916988,0.00758867362703784
169,0.006006513999274029,0.00409284426614601
170,0.006201409818630645,0.00368585476402602
171,0.0054445588647824925,0.008983838122746751
172,0.0066794984571771215,0.008150888840287876
173,0.00669788762185943,0.008750710487159906
174,0.005981500862708999,0.006096078888546226
175,0.006016453262139335,0.004777300475501906
176,0.006503841716708313,0.0050504299993579
177,0.005940741697641955,0.006552688769361073
178,0.006257496975294555,0.00898089021041507
179,0.006336228543915581,0.004527909094622122
180,0.006406084625988448,0.006135723835493908
181,0.006218444204890727,0.0057884513984133665
182,0.006301757299618946,0.008667125654772172
183,0.00645799601168039,0.005762665355012068
184,0.006636050783825828,0.004507745410688368
185,0.005941649663357361,0.005703388275203737
186,0.006255533369771725,0.008347111656356253
187,0.006051015156748549,0.007696666508536689
188,0.007040472902848179,0.004614496710927071
189,0.006661632568106431,0.0055252297806399914
190,0.006174813944948383,0.0043534225179286765
191,0.005947990547236558,0.005945588550262076
192,0.006495083788138845,0.00528298972039274
193,0.006459399663413659,0.005199589062005799
194,0.005628505428090876,0.004350456544407588
195,0.005949484042564242,0.004505864159301829
196,0.006353404141123519,0.007216703488867092
197,0.0065994137199409456,0.004780049161616516
198,0.006276398555648853,0.008192848038933907
199,0.006428829260091547,0.0036734331992029226
200,0.006743105522507309,0.005773254274739792
201,0.005849061226159584,0.004806274814632645
202,0.005970439317801462,0.005755272799780873
203,0.006207873739732458,0.007496326858208654
204,0.006759497297679831,0.005258247004888052
205,0.005752657631990596,0.006942691547897568
206,0.005972438196701516,0.005715617523017768
207,0.006451600648594542,0.005031913252078414
208,0.005842375703886312,0.004683160894545238
209,0.006166523533238978,0.00404491500808448
210,0.005840523477210451,0.005779317533487091
211,0.0057199208763242665,0.0047979833170089465
212,0.00618424695601194,0.006271058940508748
213,0.006075466385961389,0.005278193155904877
214,0.005817024329908752,0.0063496316432505966
215,0.006630481126328125,0.004455249087668914
216,0.0066763649356449475,0.008067862057195419
217,0.005948677657545804,0.009026909411694463
218,0.005642550568532595,0.006481364946047927
219,0.0055670098891648515,0.00636631115130204
220,0.005832272424674529,0.007878212626117863
221,0.0056970086921904264,0.004963048939587991
222,0.005472014149871292,0.006826291631116299
223,0.006329560277073069,0.007401000828524109
224,0.005702579842242364,0.005680396579920469
225,0.006218011820890593,0.006696737552210159
226,0.006192397532354055,0.005690999305200628
227,0.006307356289217917,0.007624996161189786
228,0.005979011134098587,0.006558960031324023
229,0.006368512490322794,0.006183265974479062
230,0.006335893128946465,0.0076716755125039475
231,0.00560951870486444,0.00607929427225228
232,0.0057728983351862505,0.006702223379935278
233,0.0059120208696856035,0.004081814892585635
234,0.005882274454383613,0.007287546769210859
235,0.00649204199638986,0.005815306376304181
236,0.005781775991377278,0.005247036385075752
237,0.006476387431060405,0.005470988263126871
238,0.005942859867071029,0.00973527998411359
239,0.005523282868827103,0.005968657054665668
240,0.0058257906425217216,0.005600532172828466
241,0.0055555577643385395,0.005822696399616979
242,0.006250384598795465,0.007363039293071371
243,0.006324957605253319,0.010671965276562237
244,0.005931586300177004,0.007044325570187046
245,0.005666947198587267,0.005396396941604605
246,0.0063320392807707385,0.0057379917878195965
247,0.00634771576093556,0.005768135180821805
248,0.00563766226543934,0.007497128866974561
249,0.006226246419409625,0.005136421403826318
250,0.005623828523589833,0.006975416476296551
251,0.006414225081642189,0.0038166263921005504
252,0.00541540398653284,0.0038247194965153157
253,0.00571645346597108,0.005608502049190187
254,0.006629591733742085,0.00609316732425716
255,0.005728088266537827,0.005681823961504374
256,0.005384458477875377,0.003502239488416602
257,0.006043324937491561,0.006231899697395319
258,0.00564383681211025,0.0039528109888151445
259,0.006064069682459007,0.004125404262241937
260,0.005793896588522175,0.005826072361255572
261,0.00567988139784915,0.005398209861331952
262,0.006068882197781885,0.008892481433611361
263,0.006064698585107339,0.007914962526337312
264,0.006182380276713535,0.005140427048314413
265,0.0060691742244534655,0.003337229286146298
266,0.0057516284725278154,0.007926044113869355
267,0.0062557445281817255,0.005395359573951954
268,0.005715031014140442,0.00532825212799242
269,0.005325693056917192,0.005479129951597201
270,0.005225282751390789,0.004970211146844826
271,0.006021686181665021,0.005446586485558146
272,0.005831499828016765,0.007353584045410486
273,0.005688441149852455,0.006234607039991217
274,0.005767352804508087,0.00878103363423975
275,0.005597577204642673,0.005766186793353159
276,0.005421758778553328,0.007154813094392431
277,0.0065859533756298366,0.007836975331470406
278,0.006186967254147309,0.006284550763299099
279,0.005469838146036185,0.005741778025719695
280,0.004971963437020981,0.005105373663893933
281,0.005552419419806126,0.004927845564086487
282,0.005676695029530451,0.010685858032250837
283,0.00613956342830578,0.008684529875858665
284,0.005585072860907135,0.005334870304674169
285,0.005387204005193117,0.0037424210286254524
286,0.005747152600351045,0.006805238856815666
287,0.005606964835134014,0.0048754629969373405
288,0.005633520737415452,0.005566038031810226
289,0.005872097818350656,0.00748050799108189
290,0.005547762518826065,0.006263880180408142
291,0.006027435265882737,0.0067359315063848495
292,0.0060022352569491615,0.007279757143460632
293,0.005510931208950849,0.007833582781337571
294,0.00546639701036988,0.00680325931818728
295,0.006475644355876555,0.006612724480134653
296,0.005997811076618421,0.00801811881411906
297,0.005691530904341802,0.005630971347852871
298,0.005796932447184291,0.008635875134601683
299,0.006260806700024161,0.008682837792111365
300,0.005508142265325172,0.004175215437655479
301,0.005691280239820034,0.005703513607920839
302,0.006088913915374374,0.005271417980435898
303,0.005945924721244309,0.00496208498250008
304,0.005609771353378743,0.005112680437847466
305,0.0055517185059525695,0.004697501822576903
306,0.005581820013018684,0.004577448256402009
307,0.005903559507985267,0.005104713443293285
308,0.005405460667649774,0.004262078629333258
309,0.005685627809167355,0.008364123386355159
310,0.006162718207360231,0.005418423092802774
311,0.005961026023268598,0.008117022261835029
312,0.005926652411784348,0.0051969868927053235
313,0.0056323255010270815,0.007426483240184369
314,0.006046953142157568,0.004575971372854832
315,0.005526170277760344,0.006783132445384713
316,0.005993345009850161,0.00451336391586237
317,0.005475005329803204,0.00658565631794913
318,0.00553545666628515,0.004388897170716251
319,0.005796667800354157,0.007131084328959825
320,0.006238355897914181,0.005897869951008645
321,0.0054590210202615334,0.0047689586309620545
322,0.005384051566962138,0.005895190109258434
323,0.005551442213867941,0.005314887808554974
324,0.005398883212295969,0.0036696070706326257
325,0.005175738818113425,0.007375579215615588
326,0.0059288990755322025,0.003810054220695816
327,0.006028634047866773,0.006169658523617458
328,0.0057384689160950965,0.008621492652456264
329,0.004954250544669936,0.00515682865617813
330,0.005413013158554433,0.0036327710725078924
331,0.005490960788259433,0.007927214522091136
332,0.006027308831212492,0.005699102457351071
333,0.00571507162819851,0.006001794733174716
334,0.005084355585377583,0.004392956220710263
335,0.005734374317218461,0.006125104766494896
336,0.005689583524937282,0.005853616717420724
337,0.005408589358550968,0.006766240599094034
338,0.005288675872718455,0.004752784156282421
339,0.005468662011810838,0.005178989765720167
340,0.005945043788171655,0.0046031176856474185
341,0.0049759735904937735,0.004419326991351481
342,0.0055800752161885145,0.005281640984112104
343,0.005412853123593352,0.0048847049026328835
344,0.004554713218414086,0.005649876280231276
345,0.00556004747197845,0.005998213341769827
346,0.0053996583293314925,0.006674073427774442
347,0.005147042598457729,0.004626574559282767
348,0.005535655700844332,0.00791727222543395
349,0.005900983960158545,0.005940796277429188
350,0.005287371050241849,0.004812784428284125
351,0.0048196219835805595,0.005923532864303808
352,0.005052266436979639,0.004023793348807315
353,0.005887572009445463,0.004578910802947482
354,0.00604818950218858,0.003912930055789726
355,0.005455089663025096,0.004655288894026413
356,0.005838902001987568,0.005408535719185409
357,0.005195346554453901,0.005418177686731648
358,0.00535427103527069,0.006317924570303996
359,0.005079073536352699,0.0062318222950805855
360,0.004919500639967376,0.009027815610611402
361,0.005467688778417555,0.006990521152422197
362,0.0051868959604728995,0.004563675629932084
363,0.004816213076998243,0.005364658681480265
364,0.004908885748916976,0.006738225182984392
365,0.0052992523570420695,0.004808509677145762
366,0.0051648028420662575,0.007777255263705845
367,0.005876125092134267,0.006259319728612312
368,0.005680347377580288,0.004493819483524245
369,0.005457152092500295,0.004604541183902861
370,0.0051779511273368824,0.00636000713831859
371,0.0052821636078976015,0.004200310684849332
372,0.004928951996540893,0.003481711319779305
373,0.005997259066243627,0.006973322374333099
374,0.005032154631508376,0.005098825713491689
375,0.005386635975195296,0.005561999956788326
376,0.005098960770526343,0.004659251126901033
377,0.005709359150690337,0.005718273130901916
378,0.005766558926273361,0.006100530049601171
379,0.004696624036387002,0.002742093126822466
380,0.004992831630619626,0.006091352235364133
381,0.005337794629323165,0.004468771737457004
382,0.004705898565624347,0.006876009433723592
383,0.00541435412189318,0.0034658348207283344
384,0.005399923282228767,0.004381275916253029
385,0.005764898834664443,0.006157712040258823
386,0.005666746533841347,0.0035243512957482564
387,0.0055905644473680065,0.006428338615216415
388,0.005929579159790586,0.0032885244673731035
389,0.005456079102250086,0.005198451720880846
390,0.004593173517558209,0.003817199522279491
391,0.005388339166622534,0.006392463501439898
392,0.00577168503860317,0.00483005535667549
393,0.005321579709497216,0.006347899126725443
394,0.00453341749685107,0.0034760127037737135
395,0.004949192806008569,0.0067577682006971845
396,0.005538847892627799,0.005364235831628941
397,0.005374221256740546,0.004020151371450914
398,0.0052642789366897005,0.004436172961368392
399,0.005744949386877229,0.007977931618017175
400,0.00544745082815113,0.006557794165045564
401,0.005457964044795345,0.004535478452292595
402,0.0052220272452129035,0.006935232800402882
403,0.005441618788478186,0.008159130673132243
404,0.005996753644889785,0.005672310274270758
405,0.005205958510833167,0.004701816748119097
406,0.004802864020709678,0.007994057626802336
407,0.004759344200940161,0.008079819170641989
408,0.005297949280236944,0.0028268255636275355
409,0.005233010162504838,0.0036195584127404552
410,0.005030408740690578,0.0052741030425909425
411,0.005214181570276665,0.005342200668580131
412,0.0057284768816339765,0.003995169200379498
413,0.005486843339130312,0.0050196558282649606
414,0.005313424500923375,0.004317166640231387
415,0.0049125953183079855,0.010097292915645225
416,0.005405422157907991,0.0074483245385527
417,0.005453483313977194,0.004587801326589619
418,0.005279618056977151,0.008317182414989327
419,0.005300618590508624,0.006351323133803486
420,0.005655824064484073,0.004804995969443596
421,0.004826933974947343,0.005696387849777537
422,0.005177432793001983,0.00540551343850421
423,0.0051299552031182985,0.007951966324422712
424,0.004813827425174469,0.005163992638975358
425,0.0047209558865728436,0.0051573901165250305
426,0.005623279335379279,0.0037341876236255843
427,0.005253117034981529,0.005221891630405667
428,0.0046853999954184515,0.004312962662993145
429,0.005052668168295107,0.005258551291201114
430,0.005538852613729735,0.005643585919539996
431,0.005149103099868137,0.004484357752990869
432,0.00459569763586887,0.0036996953463550855
433,0.004300677059624019,0.0034124405112635012
434,0.00559130550803636,0.005546083815701618
435,0.005038906642843297,0.007764938327130268
436,0.004578446871120867,0.0032558869818576862
437,0.005224584236381491,0.003942161734710611
438,0.005717965955793899,0.006384987281172315
439,0.0046641468929371046,0.00715296996107594
440,0.004718962711744386,0.006844033417310316
441,0.005640612191540732,0.008194307262267574
442,0.004519513621144622,0.00610147142046276
443,0.004480947921373438,0.003650975411782819
444,0.004952929878170393,0.0037838727845527355
445,0.005012826030727008,0.005116832206259469
446,0.004893316775649715,0.006040695048398217
447,0.00555274823558056,0.004567766862376736
448,0.0053168706434721545,0.004244121685388903
449,0.005225607692982427,0.006898283143619688
450,0.005058504421997973,0.004242781643779991
451,0.005103473773514249,0.0058036043463773205
452,0.005448949859022713,0.004478527504609694
453,0.005086674958078129,0.00388542661111105
454,0.0046171607784845,0.003388186199105423
455,0.005367773097956912,0.0036908047686859484
456,0.004880870021205934,0.003122489084397761
457,0.005380484636025809,0.004690942029970762
458,0.004964914462669826,0.005091654689910498
459,0.0043600756442546545,0.004207677286538724
460,0.004913482775477668,0.006823114059195099
461,0.0049390558829548944,0.005229685038045907
462,0.005052505374821327,0.0070459398333697736
463,0.005303864189007466,0.006853015128237908
464,0.005033134074928574,0.004350191322555905
465,0.004999404285307065,0.003946839027612484
466,0.004563222883353315,0.00415110487425472
467,0.004779271467560553,0.00411638793360586
468,0.005217420308088376,0.0047484108904007625
469,0.00422433536281239,0.0043341190871748056
470,0.0043207641421474045,0.004503208591110986
471,0.005202015033747396,0.0029993099313017626
472,0.004768364331338831,0.00510748109876545
473,0.004499322329785564,0.00664574116977092
474,0.004473984986413375,0.004070532672664396
475,0.005119411834812672,0.006025821530284403
476,0.005103807473055673,0.0051377006503587975
477,0.00617594499340866,0.003743094857965891
478,0.0051754979026071325,0.0030847088854257148
479,0.004729398735724449,0.004795197884448537
480,0.005115636077867322,0.007021353496260641
481,0.005407663587153964,0.003975655378747347
482,0.005131298227036159,0.005737497712740559
483,0.004911505160287475,0.0030227589146061356
484,0.005083391408928835,0.004518898494685717
485,0.005305261251782413,0.006667055586910121
486,0.005119962421030723,0.003687060413839503
487,0.005170080701349307,0.003985353562306104
488,0.00502182201132086,0.008572305571773011
489,0.004976629096602234,0.004922545775580025
490,0.005095974728316187,0.003665882898913586
491,0.00504192825035303,0.004236437343193281
492,0.0044907885387712575,0.006137240965113385
493,0.004592440861033843,0.005109377007640387
494,0.00521784389645031,0.004265911275140159
495,0.005098917591608882,0.0060200437777708764
496,0.005289614288903904,0.00478774909335817
497,0.005433841208502245,0.006247039477839984
498,0.005506596425537029,0.005417362392469123
499,0.004975382773522779,0.0033355614919459483
500,0.004732104773122481,0.0054908011530562
