epoch,loss,val_loss
0,0.17541791769496495,0.06191420363410778
1,0.058529568638065924,0.051861444548442784
2,0.048819514622779295,0.04786911320702806
3,0.0479986840452579,0.048147348376856886
4,0.0480519991016669,0.048535193404110756
5,0.04803052948241373,0.04900113157428148
6,0.047955794137813965,0.04807147503063824
7,0.047991994430395146,0.04884251258567552
8,0.04800192097411882,0.0477181150656614
9,0.04784461345335991,0.04913481076754447
10,0.04780680517391335,0.047578418772923445
11,0.047824481180567535,0.04746053622184349
12,0.04787889111051552,0.04817218224987705
13,0.04779589923320533,0.04769450549885995
14,0.04776357149155878,0.04748252163558093
15,0.047860934943270435,0.04818593328135072
16,0.047773579926156315,0.047938998265231604
17,0.04776897682524699,0.04795234904410619
18,0.04774300377074477,0.04762681556869983
19,0.0477794664818868,0.04756358595772249
20,0.04772203301729487,0.047756172819526155
21,0.04769176692455459,0.04763243592034764
22,0.047662222046229386,0.04772210956184339
23,0.047678560006628026,0.047895058460280755
24,0.047696461250408474,0.047370929229819315
25,0.04768915694924615,0.04864291624175627
26,0.047633852181341245,0.047694372990842684
27,0.047642455237517825,0.04749349130710091
28,0.047641609255656255,0.047678996077441
29,0.04761285344056851,0.048163771773405493
30,0.047656683770896525,0.0477053367260082
31,0.04757103243981191,0.04793882719002188
32,0.04763495324880814,0.04777310744233741
33,0.047632841927875626,0.04806506316800144
34,0.04767815870561188,0.04785497397795943
35,0.04751236589519764,0.04773734005692914
36,0.04757530376356807,0.047504195442163014
37,0.04758659932765362,0.04773622057338164
38,0.04753060031720965,0.04763062196565408
39,0.047573540876392456,0.04782232572783987
40,0.04753380686455636,0.047791751188350266
41,0.047523591939886985,0.04742934582747619
42,0.04754653767043119,0.048258459446885595
43,0.047517990785763325,0.04765671184661356
44,0.04755810067819939,0.0474631730658197
45,0.047475765711612265,0.04765615953630882
46,0.047533869622744244,0.04731829939579155
47,0.04750774408296811,0.04728216793455754
48,0.04744933530104627,0.04805320564836805
49,0.04750089294654574,0.047787201456319844
50,0.04752222969413376,0.0473307264790868
51,0.04750536611939458,0.047808780248887725
52,0.04751784200344583,0.04752237658180302
53,0.04747691886911956,0.047719981439041166
54,0.04748712707278158,0.048191226848298956
55,0.047512595362359765,0.047523102566493995
56,0.047414768441058366,0.04716067415704008
57,0.04747021294010581,0.047929542984492965
58,0.047434541424341815,0.04744937844521527
59,0.047454044638241794,0.04825748512028895
60,0.04746590595212962,0.047536873744525775
61,0.04747221581965423,0.04773546089936451
62,0.0474402670377045,0.04731305210241767
63,0.04740586876720309,0.04735083561963986
64,0.04747244627248469,0.04731414975170649
65,0.047435095442904175,0.047759719942744173
66,0.047443556081917554,0.04726969420427681
67,0.04734106853509026,0.04739031714299766
68,0.047509977098205966,0.047429404679418266
69,0.0473948104930915,0.047350520942868825
70,0.047404444080403,0.0472386425718277
71,0.04740112652178768,0.04757975911590746
72,0.04740996626641253,0.04727511087045862
73,0.04743811465966568,0.04722232647363652
74,0.047405197805495,0.04722130339189882
75,0.04741384348661589,0.04824157424959124
76,0.047379349543751004,0.047229870430531236
77,0.047371633297247855,0.048507736950242436
78,0.04745024368524266,0.04733662418991727
79,0.04738075736698678,0.04722832016582176
80,0.047376137941503985,0.04751016300439176
81,0.04739476242463747,0.04750514125132429
82,0.04738254008366526,0.047674997273800215
83,0.047341985169419946,0.0472495237449162
84,0.04736395221468594,0.04727216171660852
85,0.04740133560407791,0.047560196055280196
86,0.04737650195686079,0.04752225833103331
87,0.04734862848764939,0.04812417628909531
88,0.047347291677201586,0.047610186660793134
89,0.047380657866597176,0.04719136524783784
90,0.04739278601668626,0.047414090798986924
91,0.04732957844295614,0.04730305005373593
92,0.04734427376473836,0.04767322578800411
93,0.04736763572426056,0.04792743763976805
94,0.04740324979134315,0.047173735748126736
95,0.047362796995017546,0.047685675816970634
96,0.04730806477236853,0.04724154068890668
97,0.047296991473514974,0.047117030358305105
98,0.04741064105763567,0.047832536310451465
99,0.04732845643078156,0.047257908970564484
100,0.04733445642621731,0.04742875457656788
101,0.04736755458082703,0.047352412952243954
102,0.04732405330440838,0.048017750267048194
103,0.04732008042821972,0.047621094210818705
104,0.04735202587497749,0.04717843601775621
105,0.04730904492572677,0.047508368175991335
106,0.04731425791561937,0.047187165081524526
107,0.04731359647558652,0.04715825002802199
108,0.04733378250303743,0.04768475077769939
109,0.04730354676798856,0.04716470471826612
110,0.04730167722911667,0.04762099394258685
111,0.04733268731235743,0.047185018546908694
112,0.04729856887637235,0.04732323913954804
113,0.04730139943144971,0.047224928419845914
114,0.047319305634839263,0.04722790043998066
115,0.04738530901809343,0.047270043455387725
116,0.047287492297417064,0.04732002339663238
117,0.0473283144394509,0.04732570186810128
118,0.04731768985345162,0.04738187099841512
119,0.047294470546342775,0.047480166728748704
120,0.04731742476971506,0.0473252750533297
121,0.047337254516774424,0.047507565791976666
122,0.04733311691783744,0.04728568246810099
123,0.047286568613027595,0.047219539059718575
124,0.04732481180448279,0.047350993196185215
125,0.04728239060168882,0.04768537118995669
126,0.047315527661908253,0.047371930283242165
127,0.04729671442328835,0.04725134252749189
128,0.04729436326483123,0.047303168854331445
129,0.04729483523916045,0.04715638448379128
130,0.04728442301555313,0.04743589259442986
131,0.04733265549403062,0.04705562578674462
132,0.047319941627655286,0.04756844903753325
133,0.047272320047652215,0.04742299420163682
134,0.0472559943738625,0.04755667185421148
135,0.04732069869389494,0.0471403383941705
136,0.04725572001412332,0.04767033655046476
137,0.047321465070382485,0.0476041439694265
138,0.047270347284589356,0.0473328548753318
139,0.047314454322691255,0.04714054250303176
140,0.04730654742827804,0.047191050582827784
141,0.04728618972033238,0.04731857588172147
142,0.04728708406843299,0.04720724861254444
143,0.047294588808676034,0.04727539731793829
144,0.04728863755468842,0.0472363539969206
145,0.04732339923753203,0.04747929277329249
146,0.04730738360705755,0.04720909241954454
147,0.04732204633627197,0.04721456191016636
148,0.04724718177829572,0.047074563448459214
149,0.0472858632645971,0.04717361097883407
150,0.04732227651662916,0.047187630928047265
151,0.04726295416458524,0.047440305772666023
152,0.04728346663139326,0.047571487527784624
153,0.047311303352447244,0.04720446513267418
154,0.0472331066101456,0.04751008492030774
155,0.0472986665438953,0.04728689337268342
156,0.047256757376446044,0.047414064727835326
157,0.047265059794846485,0.047822189429846916
158,0.04724067898331691,0.04733224962297724
159,0.04734061742953355,0.047270052520162774
160,0.04725084133553419,0.04750436782284148
161,0.04721426915564983,0.048525809377267214
162,0.047289973735320956,0.047217943000694665
163,0.04730052827931137,0.048398426697893036
164,0.04723181764779093,0.04723772096676251
165,0.04730283211526587,0.05143762098503282
166,0.0472904786967831,0.047142683530568885
167,0.047218347784224075,0.04744656507187503
168,0.04730706569179595,0.04724554429984789
169,0.04726043348159674,0.04751577710507889
170,0.04730395160222368,0.047512675346637584
171,0.04726028948766198,0.04727370694173822
172,0.04726392339072306,0.04749827259223858
173,0.047257772915595346,0.04761474759515666
174,0.047346376443950296,0.04733536160759034
175,0.04723910835209034,0.04776737498209151
176,0.04728418241421001,0.04719768755355498
177,0.04729002234276584,0.04720824741962018
178,0.04727132862164296,0.04725725789743328
179,0.047289358334337395,0.04736193220389106
180,0.04724952810965806,0.04776244700813538
181,0.04726468890214519,0.04737211890583351
182,0.047281143924803565,0.04720114399373955
183,0.04722760514848286,0.047338453469167284
184,0.04727420586642982,0.047161037092050793
185,0.04732762765642598,0.04735015189802919
186,0.04720276360996335,0.04730870705259627
187,0.04728123422959249,0.047307659199295214
188,0.04723451867383971,0.047601981889735835
189,0.047248553582947314,0.04777620945952027
190,0.047259281360381225,0.04730552179413982
191,0.04727335331543125,0.04714713328839195
192,0.04724401607662797,0.04724788322056855
193,0.047225952021878875,0.04731009769729017
194,0.04728549937282106,0.04744145108038455
195,0.047226470994125073,0.04746013110019884
196,0.04726603558565454,0.047143300588006753
197,0.04726399749600821,0.04753886204692164
198,0.04725436482736342,0.04744221528825933
199,0.04722758429608852,0.047088331530413106
200,0.047250649523284796,0.047565140415221197
201,0.047244023467651566,0.047471502691436775
202,0.047225937789245,0.04735203142900493
203,0.04724102084049218,0.04712220598320935
204,0.04725883965143006,0.047132019956185295
205,0.04723409826098253,0.047200179634573146
206,0.0472108776317083,0.04725193912376545
207,0.0472933009213252,0.04734192039132495
208,0.047239533801980725,0.04728762585825589
209,0.04723485893042063,0.04715619130088009
210,0.04726237550133662,0.04748548165069571
211,0.0472367056634286,0.04711519225538012
212,0.047220547466898424,0.04738661842957292
213,0.047251518729398194,0.04807234178249443
214,0.047225049953702254,0.04736150120809122
215,0.04722223690689372,0.04722130732300626
216,0.04725968158788246,0.047609761704256334
217,0.04722530100283196,0.04728807770627262
218,0.04723445830984319,0.04733752099989716
219,0.04723973562427276,0.047262854056745976
220,0.04726719290321822,0.04716663185180692
221,0.04722571945775279,0.04721176274408952
222,0.047214987868670934,0.047228529864088604
223,0.047250036541804326,0.04915633105511918
224,0.047246871029230045,0.04726869027529444
225,0.04724561588482844,0.047109123763364416
226,0.04723742313468628,0.047632907488586965
227,0.047260259694273145,0.04744860513140201
228,0.04721959069115128,0.04755668100719388
229,0.047203645960306476,0.04904450860459596
230,0.047257384181106026,0.047483348109022126
231,0.047227631804706766,0.04760639864919029
232,0.04727978393477168,0.04714356072617499
233,0.047272396864269754,0.047232292571943765
234,0.04725051432145204,0.049785151880678453
235,0.04721334569757696,0.047895175173302384
236,0.04728753851960413,0.04716082485341235
237,0.047227257743573114,0.04744128466840325
238,0.047225922170421965,0.047239018202815924
239,0.04725253399160745,0.047334242106401365
240,0.04723972538195783,0.04712648264587443
241,0.04719570465237021,0.04738830620659649
242,0.04725548072601203,0.047262290258904376
243,0.04723175440719135,0.047160525318902594
244,0.04719003663658143,0.04710067623392653
245,0.0472248317681247,0.04715864245956962
246,0.04722350419794532,0.047164957570507475
247,0.04725358618660082,0.04731683987880092
248,0.04721036697213027,0.04819071778605656
249,0.04727767154479103,0.0471787958155256
250,0.047210355202178304,0.04723324867196222
251,0.04723936379801551,0.04713782106232907
252,0.04716567475226619,0.04741972793649291
253,0.04723507265964572,0.04738261149615496
254,0.04721651013812525,0.04736912764473609
255,0.04720727282521917,0.04837336595851602
256,0.04722070512320879,0.04715130355829504
257,0.04721560474964593,0.04722372237842856
258,0.04726458375277422,0.04717549631091301
259,0.04718104993952788,0.04761049728590669
260,0.04726939242062189,0.04721040307781597
261,0.047208669207555405,0.04741770671217481
262,0.047205875973871575,0.04720897206355948
263,0.04721857079540749,0.048307677261948866
264,0.04721882902264452,0.047215167738808926
265,0.04718965201896967,0.047353963258116846
266,0.047266131460511805,0.04707293760181414
267,0.04723503697755859,0.047541736774352375
268,0.047190651139743224,0.04709571507930661
269,0.047213040420310576,0.04772680614734599
270,0.047253365585986945,0.04743871174829158
271,0.04723576331089774,0.04720784004280768
272,0.04720667508288587,0.047266983745388846
273,0.04720348069707839,0.04733867757757442
274,0.04721855921752685,0.04740667527493004
275,0.04717136844605517,0.04721045722242595
276,0.04729904155942986,0.04725183805284673
277,0.0472078039887831,0.04727184347332041
278,0.04724336231647016,0.04711141939779954
279,0.04724879945508487,0.04774130567696589
280,0.04719794520156847,0.04791414794448143
281,0.04722863839541694,0.04717112533107176
282,0.04718320357868616,0.04785200087581456
283,0.04722623115064477,0.047231197280731364
284,0.047257267753128336,0.04714761616187295
285,0.047205818772351714,0.04709206256300987
286,0.047221040036037956,0.0473336383859144
287,0.04718431567313145,0.047702976120981344
288,0.04723022666295989,0.04713242464561394
289,0.04724371977311244,0.04830951445045768
290,0.04719160219206275,0.047249216412876945
291,0.04726741587420066,0.04723749670546264
292,0.04716108455289182,0.04724706297750631
293,0.04728483115371278,0.04713134649602936
294,0.047172027569320756,0.047119801077512465
295,0.0471743752243374,0.04727615370476161
296,0.04725683116756803,0.04742709837483438
297,0.04725356194094645,0.04715747077491402
298,0.047202966516192775,0.04731630306064659
299,0.047205632012024774,0.04724338389903707
300,0.047203626818686936,0.047644409332674324
301,0.04725354419147177,0.04740959973072291
302,0.04719808586477805,0.047073146985474774
303,0.04722793517019346,0.04729677004050155
304,0.047185512369782995,0.04728899775300801
305,0.04722449767420427,0.047229913990259546
306,0.04719884166840931,0.04751941213573917
307,0.04724428585494499,0.047411757905768334
308,0.04719518562205594,0.04717496839582026
309,0.04729639318027942,0.04729413077670378
310,0.04713726862907695,0.047075740113889694
311,0.047217472891906184,0.04714599598107982
312,0.04722075585832746,0.04739218943509043
313,0.04719534198151266,0.047187663650032845
314,0.04723456816868388,0.047214328634075604
315,0.04720968972120306,0.04717170186899455
316,0.04721987514729075,0.04716940456156008
317,0.04723594370458147,0.047060432252139676
318,0.0471676167615836,0.04729307418205461
319,0.04722042252971448,0.050539936649818165
320,0.0472339824628201,0.047306388695948505
321,0.04721463220469433,0.04717577736892377
322,0.047212067780067785,0.047315774778023234
323,0.04724059695695087,0.04754766794811014
324,0.04723939437755673,0.04738131013493794
325,0.04716749454317667,0.047141360323332195
326,0.047243147693890084,0.04720941610816622
327,0.04715865120577584,0.047061417654638886
328,0.047201018156610326,0.04713482941899981
329,0.047258088313084805,0.04738666515300475
330,0.047188540928059824,0.047327468123201696
331,0.04726493480108339,0.04729245797434753
332,0.0471815871228155,0.047029493013492414
333,0.04721858428655673,0.04716913616130365
334,0.047222089245736745,0.0472595068172573
335,0.047172888906465635,0.0471956374501514
336,0.04722967892021632,0.04710116840446193
337,0.04724326786204732,0.04714646407983015
338,0.04718283587228432,0.047334221883396886
339,0.047192926261779504,0.047244816051168335
340,0.04722603267396716,0.04742328287194165
341,0.0472115214607365,0.047335920962721885
342,0.04720431714237546,0.04714439219803253
343,0.047243650450254325,0.04757904305454305
344,0.04719403178113208,0.04709415960448317
345,0.0472103842957724,0.047202695378682324
346,0.0472416119734875,0.04707820009331395
347,0.047231187213131846,0.04718095229993021
348,0.047267194066068635,0.047230751992401024
349,0.047187487696774666,0.047408286414470084
350,0.047206571638334,0.047525572942624245
351,0.047184735661645015,0.047157695762454384
352,0.0472099435620671,0.04719183711010166
353,0.0471875211737639,0.047416018358863235
354,0.047224940060616304,0.047338516440392484
355,0.04718487699487083,0.04737599208457035
356,0.047228213785280235,0.047093184939758365
357,0.04720652501562612,0.04711168455496583
358,0.04725335759790443,0.047175156236306456
359,0.0471932460783983,0.04740003344103776
360,0.04719320050687146,0.04707233117336162
361,0.047205110679832483,0.047304152198659216
362,0.04719180447889937,0.04719419472489944
363,0.047180362059165246,0.04710741929751075
364,0.047241518385619,0.0473025743338708
365,0.04722260650274136,0.047112166955067404
366,0.04719374287608478,0.04753262917757411
367,0.047175469855181604,0.0477307966506754
368,0.04724132020077069,0.047430031351456986
369,0.04719890085168832,0.04719241892282381
370,0.04721936849292091,0.0471512384436313
371,0.04723940312647991,0.04720183952337376
372,0.04718808348266055,0.04725449879219331
373,0.04723174232009837,0.047093228684722106
374,0.047248091965580254,0.04771887462500898
375,0.04721192393204768,0.04717758420234415
376,0.04719832809351617,0.04793162277554939
377,0.04719687278399603,0.04748921278032056
378,0.04718151260807598,0.04709252875060102
379,0.04719381210216277,0.04729063095026535
380,0.047235765934383556,0.04708395523166882
381,0.04723902290268577,0.047085699531960505
382,0.04718982415805332,0.04715774762249407
383,0.04721837078513716,0.047184679577834225
384,0.04716635931828182,0.047221334861340065
385,0.047232503809934136,0.0476419080486896
386,0.04714462634393399,0.04719257663756068
387,0.04722605137039813,0.04726651285634609
388,0.04720171090129087,0.047204828000059255
389,0.047207047503224187,0.047280655005077915
390,0.04718697933311895,0.04708107367698941
391,0.04721980134425737,0.04716491551324431
392,0.047211038973107994,0.04721796475556674
393,0.04724693569621975,0.04730716030441971
394,0.0471312622789094,0.047424368677923975
395,0.04721440649706778,0.04712985782651047
396,0.04723495580732441,0.047227214677840024
397,0.04721516065097017,0.047124193277101205
398,0.047163092706212516,0.047422951082945246
399,0.04725346612266833,0.04741322651693646
400,0.047159199950565917,0.04886282894586896
401,0.047241195897868786,0.0472890064796549
402,0.04719700077347618,0.04729850892192187
403,0.04718376427209921,0.04712342165392877
404,0.0471704898537587,0.047084402619334026
405,0.04721147037125367,0.04828518306823255
406,0.04720554276586151,0.04712743541165516
407,0.04718874877752017,0.04726395722487449
408,0.047197942805888175,0.04727845814817048
409,0.04719592911972226,0.04718107913621505
410,0.04720884725916014,0.047196575644078365
411,0.04723962784992705,0.047302990475553364
412,0.04723609024606687,0.047115566219249484
413,0.04713533226725199,0.047145114463313695
414,0.04722049324322852,0.04731730395823647
415,0.047175791297706486,0.047227681180037374
416,0.04717869399417695,0.04727366089456272
417,0.04720422492878471,0.047087178039992995
418,0.047243494375182285,0.04727406875357538
419,0.04719165889925951,0.04707639726744737
420,0.04719558717916719,0.04750781029392248
421,0.047186368631182626,0.04735524954763848
422,0.04715540024379698,0.047292470049933366
423,0.047224952820703374,0.047105389672912945
424,0.04725294850534387,0.047099696844228156
425,0.04720749241336406,0.04711816314058033
426,0.047191664853470504,0.04781563917870303
427,0.04718026651038255,0.04711689223442006
428,0.047212933397871984,0.04716890585486025
429,0.04724650494873429,0.047160324644247374
430,0.04719436616688181,0.04737730908495004
431,0.04718488097923408,0.04756163187095662
432,0.04718168331630272,0.047564354917033036
433,0.047197257593679105,0.047077989180725956
434,0.04717229878296145,0.0471904915922866
435,0.04722810924190173,0.047513462750104436
436,0.047182761099960786,0.04727516353612541
437,0.04724041158876879,0.047033792777661745
438,0.047180640924391413,0.047108655267681016
439,0.04721703558123941,0.0472039532624979
440,0.04717626128283193,0.04716246470150368
441,0.047204614486649546,0.04701624078868691
442,0.047235597324052116,0.04710027556675291
443,0.04720047365525644,0.04721823962730221
444,0.04718462380168916,0.0471220175105705
445,0.04712831579762206,0.04710825186313939
446,0.0471992079588435,0.04719298978901418
447,0.0472236371247007,0.047437312109388514
448,0.047222829929334846,0.04743571732643089
449,0.04718997161224973,0.047242068971530035
450,0.04718936172624429,0.04706110265738116
451,0.047188694958837867,0.04714082753919389
452,0.04723369996908376,0.047257628694658875
453,0.047179508439118535,0.04722462463080177
454,0.047194741812231635,0.047072809745264316
455,0.047209748922349165,0.04713755203874072
456,0.04721767809703577,0.047572004546329746
457,0.04719133939382603,0.04707501011576442
458,0.04718342081432958,0.04706795266943366
459,0.04716672698299376,0.047220926828852955
460,0.047234101555973504,0.04708464615393927
461,0.047183779235795247,0.04704869540309756
462,0.04719443061351061,0.04709956991385548
463,0.04722521329919497,0.047287331010496515
464,0.04720896399385637,0.047276011934972884
465,0.047144526740808566,0.0471495479733434
466,0.04721894565609386,0.04706057240185346
467,0.04721186678859589,0.05067980269759587
468,0.04718409717934642,0.04732596125650707
469,0.04720404334247207,0.04729765221394228
470,0.04720700493783688,0.04710386726114349
471,0.047204848319339715,0.04740704651025213
472,0.04717726852420232,0.04724573555983891
473,0.04717654598613294,0.047116174282478177
474,0.04717850810636005,0.04764126930400529
475,0.04721631606122096,0.047270216600529866
476,0.04721423023068409,0.04729486557624899
477,0.04722471035969295,0.047043184984266614
478,0.047150638128677716,0.047291512994335316
479,0.04716897464776449,0.04730004765205056
480,0.047245168537318374,0.047264357592143126
481,0.04715643705223962,0.04716295011241604
482,0.047222750142311976,0.04795545606264564
483,0.0472153012873791,0.047513501975911754
484,0.04718817822444591,0.04710250891209966
485,0.04721959950558716,0.04731402926047016
486,0.04714428111583256,0.04719787351816493
487,0.047291223008891374,0.047232678432044026
488,0.04715679848431159,0.04775692576332269
489,0.04721496322696253,0.04707022301188208
490,0.047202195728020514,0.04705326561981425
491,0.04717641963893704,0.04727737937231372
492,0.04715146849171625,0.047340745328327945
493,0.04717722453838058,0.04716096825503701
494,0.04718669252447802,0.04708941915934727
495,0.0471928647602443,0.04760725649210441
496,0.04718375901917188,0.04711566437344525
497,0.047205342396760254,0.047186853012750725
498,0.04718898832768226,0.047227205960013875
499,0.047194506233032466,0.04713138818576191
500,0.04719561102430073,0.04718593490657697
501,0.04722134401496175,0.04706206188582019
502,0.04719674945931784,0.047158465077534566
503,0.04716266393006372,0.04713668486348926
504,0.04723444663816028,0.04752133081607585
505,0.04716501450932903,0.047200603403251
506,0.047174647434068906,0.04725649293979605
507,0.04720845770873993,0.04763571945943038
508,0.04721420490853697,0.047568857858006
509,0.047227300548677346,0.0470641385072926
510,0.04717320121741361,0.04725386388158836
511,0.04719541322061722,0.04728640513031522
512,0.04723262615638862,0.04714842492621907
513,0.047168939302174404,0.047175754878990464
514,0.047154493360436985,0.04716320100939453
515,0.04717281756909202,0.047161400920895956
516,0.04727313561524323,0.04724515495261717
517,0.04719321792729372,0.04724630218619612
518,0.0471631696389662,0.04710112518286178
519,0.04716925157887711,0.047415519952068386
520,0.047199206895751064,0.04761656656296778
521,0.047169876221618015,0.04742120623576801
522,0.04719881870174151,0.04720397081576
523,0.04719519867248339,0.04769839105014737
524,0.04717629557575206,0.047468950191326
525,0.047176158557430826,0.04712433371789924
526,0.047182628618393965,0.047118733489287586
527,0.047218512740733624,0.04716935687372792
528,0.04717164178141396,0.047121489183843464
529,0.04722660153115587,0.04713528533631549
530,0.04717663818781229,0.047578544053818735
531,0.047240030811094555,0.047126108170402456
532,0.04714015238046598,0.0473454632747098
533,0.0472158215713682,0.04722763018148945
534,0.04719202567955001,0.048921066297375505
535,0.04716667008372567,0.04711409378282273
536,0.04719646758795213,0.04715341120523172
537,0.047210490801554025,0.04726857790795479
538,0.047178683562768546,0.04797448000584706
539,0.04718727438593749,0.047580256884669166
540,0.047213494697277494,0.04724447510330905
541,0.047182220090135965,0.047108075595457155
