epoch,loss,val_loss
0,0.1069927484318614,0.0497067027464509
1,0.04877650345861912,0.049353018216788766
2,0.04872170916572213,0.04872948526591062
3,0.048746189534664155,0.04873258663713932
4,0.048566523142158986,0.048894154272973535
5,0.048599055476486686,0.04866185011714697
6,0.048547114677727224,0.04811346281319857
7,0.04858344624936581,0.0480830065086484
8,0.048513519909232854,0.04886439630389214
9,0.04849215298518538,0.049437957011163235
10,0.048479509212076666,0.04825774556398392
11,0.04842288167774677,0.04814626855403185
12,0.048432705406099556,0.048429893903434273
13,0.04839140911772847,0.04829708856344223
14,0.04837370822951197,0.0481141911894083
15,0.048395795322954654,0.04801127488166094
16,0.048351412426680326,0.04813864279538393
17,0.0483462723121047,0.04843096577376127
18,0.048317814968526364,0.047923218585550785
19,0.04831311948224902,0.04828546110540628
20,0.04828891134634614,0.04801287166774273
21,0.048266227882355454,0.04855696765333414
22,0.04830245842412114,0.04789500906318426
23,0.048272524692118166,0.04804504752159119
24,0.04825595743209123,0.04795234777033329
25,0.04821279953047633,0.048185280315577984
26,0.04825813899934292,0.04828750585764646
27,0.04822299474477768,0.04823427699506283
28,0.04823666195198893,0.04790049058943987
29,0.04821407372131944,0.048107021562755106
30,0.04819610111787915,0.04787796051055193
31,0.04817406513169408,0.0482041888833046
32,0.04821758500114083,0.04824418000131846
33,0.04819697578251362,0.04791685479879379
34,0.048154943466186526,0.04821229963004589
35,0.048186348088085654,0.047937445513904095
36,0.048167624305933715,0.04794549223780632
37,0.0481414571814239,0.04780724079161883
38,0.04817205116152763,0.04796683792769909
39,0.04816116885095835,0.04834303852915764
40,0.0481434354968369,0.04794842135161161
41,0.04812785144150257,0.04807048527151346
42,0.04814982802048325,0.04806150121241808
43,0.04811621434614062,0.04795058546215296
44,0.048106526840478184,0.047966492399573325
45,0.048105985786765816,0.047806572541594504
46,0.048148458175361154,0.04828192289918661
47,0.048136385694146154,0.04799139598757029
48,0.04811662806943059,0.04801906835287809
49,0.048108593061566354,0.047760312527418136
50,0.04810011925175786,0.048040789417922496
51,0.04807911808043718,0.04786558859050274
52,0.04812245273217559,0.0478887193351984
53,0.048067233860492706,0.0480630756020546
54,0.04806708811223507,0.048043604642152786
55,0.04810678391158581,0.047942443132400515
56,0.04810809832438827,0.047961532205343244
57,0.04807890981063247,0.048698079921305176
58,0.04812541964277625,0.04776582308858633
59,0.048083562981337306,0.047973788231611254
60,0.04808774520084262,0.049860592544078826
61,0.04808292107284069,0.04781261079013348
62,0.048096247743815185,0.0481068783774972
63,0.0480614882260561,0.047814249612390995
64,0.04811172052100301,0.0480559688359499
65,0.048084553651511666,0.04796182844042778
66,0.048050001442432405,0.0478858219012618
67,0.04807616667076945,0.047920503064990044
68,0.048101171381771564,0.04786645871400833
69,0.048080218717455867,0.04806787822395563
70,0.04804750474914908,0.04792933949828148
71,0.04807239148393273,0.04786105494946241
72,0.0480666988492012,0.0480018046349287
73,0.04803835502639413,0.04787623180449009
74,0.04805636724829674,0.04811137709766626
75,0.04804421590268612,0.04793297044932842
76,0.04806589674204588,0.04822444023936987
77,0.04806891569122672,0.04881299328804016
78,0.04805573131144047,0.04845735915005207
79,0.048059215363115075,0.04776893310248852
80,0.048067027185112236,0.04817067830264568
81,0.048059035453945395,0.048381256930530074
82,0.04805121052265167,0.048018354132771494
83,0.04805115858465433,0.0478847077190876
84,0.04804924609512091,0.04782160372287035
85,0.04805020805820823,0.04827983875572681
86,0.048041596073657274,0.047900008216500284
87,0.048030011750757697,0.04799896771460772
88,0.04803488457947969,0.04781627076864243
89,0.04804348058626056,0.0483191177174449
90,0.048049506820738316,0.04778808459639549
91,0.04804336207732558,0.04804387830942869
92,0.04803926352411508,0.047920101940631864
93,0.048067162699997425,0.047967985659837724
94,0.04804766751080752,0.04785367155820131
95,0.04803474384173751,0.04798872299492359
96,0.04803263377398252,0.047750574484467505
97,0.04804349641874433,0.04792069550603628
98,0.04806011300906539,0.04797242047637701
99,0.048030320584774015,0.04795658101141453
100,0.048036886036396026,0.04769906736165285
101,0.04808736981451511,0.04789630886167288
102,0.04802554529160261,0.0482515574619174
103,0.04805899700522423,0.04773312757909298
104,0.04803378193452954,0.0480474124327302
105,0.04804332083836198,0.048524329453706744
106,0.04801871764287353,0.04793288839608431
107,0.048053913429379466,0.04789391265809536
108,0.04802080176025629,0.04839594732969999
109,0.04801740364357829,0.04790978126227856
110,0.04801292683556676,0.04789228138327599
111,0.04802875536307692,0.04807405894994736
112,0.04802212849631905,0.047881489686667916
113,0.04804690174013376,0.0487578550055623
114,0.04800585823133588,0.04807815880328417
115,0.04805866461247206,0.048208969376981256
116,0.04801891385391355,0.04783301302790642
117,0.048035058077424767,0.047793901406228544
118,0.04804230399057269,0.048042726472020146
119,0.04801078430190683,0.04802211245894432
120,0.04806037848442793,0.04831452389806509
121,0.04803436462581158,0.04822641834616661
122,0.04799677525833249,0.04781151694059372
123,0.04801513060927391,0.04782958968728781
124,0.04801189122349024,0.048258425131440165
125,0.04801896114647389,0.048036890655756
126,0.04803831175342202,0.04799911304563284
127,0.048001292224973444,0.047722551114857195
128,0.04802489800006151,0.04792233169078827
129,0.04801531685888767,0.04830180615186691
130,0.04801413308084011,0.04823607536405325
131,0.04803160277381539,0.04815849759429693
132,0.04800718029588461,0.04778749396651983
133,0.04803791063278914,0.04798485504835844
134,0.04798523270711303,0.04788887932896614
135,0.04801473046839237,0.047910362362861635
136,0.04803580102324486,0.047987040042877196
137,0.04801970913633704,0.047805395498871806
138,0.04800882213935256,0.04819436487555504
139,0.048004351399838927,0.047800110556185244
140,0.0480024886764586,0.04789409297704696
141,0.04799997928738594,0.047809495717287064
142,0.04803034792095423,0.04769446305185556
143,0.04802734363079071,0.04833589389175177
144,0.04800710245594382,0.047945166990160944
145,0.048000989638268945,0.04800238759815693
146,0.04801674322038889,0.04781674572080374
147,0.048023598123341796,0.04784326396882534
148,0.04804530882835388,0.0477867639362812
149,0.04801220011338592,0.047738248072564604
150,0.04802751771360636,0.04776909862458706
151,0.048017399784177545,0.047737688206136226
152,0.04796927982568741,0.047809917256236074
153,0.04801618358120322,0.04780068700760603
154,0.0480014119297266,0.04779210367798805
155,0.04802774609997869,0.04770192133635282
156,0.04798439442738891,0.048725191362202165
157,0.04801747565716505,0.04794375319778919
158,0.04798777337744832,0.04781053025275469
159,0.04798740014433861,0.04792452543973923
160,0.04801381402090192,0.047895800471305844
161,0.047996056385338305,0.047970085106790065
162,0.04797907584160566,0.0484507686495781
163,0.04803637982159853,0.0479972128123045
164,0.048007912684232,0.047997162818908694
165,0.04799232965707779,0.04787589894235134
166,0.0480281732827425,0.04778550940752029
167,0.048005570515990255,0.04774727189540863
168,0.04801126349717379,0.048508928187191484
169,0.04797633103653789,0.047950836472213265
170,0.04801901549845934,0.04805217832326889
171,0.04798369029164314,0.047902511410415176
172,0.048023548521101474,0.0479435965269804
173,0.04798572732880711,0.04861322326213122
174,0.048022033926099536,0.04778811741620302
175,0.04799664003774524,0.048766168385744095
176,0.048029276210814716,0.04887370236963034
177,0.047989147417247295,0.04791077303886414
178,0.047971568133682016,0.047800461642444135
179,0.04800914705917239,0.049120162919163705
180,0.04797670704498887,0.047747129522264
181,0.0480035634636879,0.047696781106293204
182,0.04801637188717723,0.04902970543503761
183,0.0479995714314282,0.04782069106400013
184,0.04800656012818217,0.047762668460607526
185,0.047963309220969676,0.04774384463578463
186,0.048028445173054934,0.04787917046993971
187,0.04794420316815376,0.04781408093869686
188,0.047990218698978425,0.04779766517877579
189,0.0480091898702085,0.04775152914226055
190,0.04796067725867033,0.0478381329625845
191,0.04800719875469804,0.047767536506056786
192,0.04800382662191987,0.04861221109330654
193,0.04798566112667322,0.047731419995427134
194,0.04799664942547679,0.05042764652520418
195,0.047994532715529205,0.04826364235579968
196,0.048012820735573766,0.04779008836299181
197,0.04799508356302977,0.04801360841095448
198,0.04798979038000107,0.04783552815020085
199,0.047991334170103074,0.04785347723215819
200,0.04800460139289498,0.04799129770696163
201,0.047969272721558806,0.04772009239345789
202,0.04798895553126931,0.04894513174891472
203,0.048001680072396996,0.04780849055945873
204,0.04798690728098154,0.04781218511611223
205,0.04799855946004391,0.04773006824404001
206,0.04798504289984703,0.047685782782733444
207,0.04798845602571964,0.047731789477169516
208,0.04797368754073977,0.04774085220694542
209,0.047979968454688784,0.04783037868142128
210,0.04798595763742924,0.04773068940639496
211,0.0480008360221982,0.047987216211855414
212,0.0479968166872859,0.04776389986276627
213,0.048019588086754085,0.04783197196573019
214,0.04798368803411722,0.04786192660033703
215,0.04796779292076826,0.0483574456423521
216,0.04798593479767442,0.04778930998593569
217,0.04798781697079539,0.04769354563206434
218,0.04799276139959693,0.04806744308769703
219,0.048042638372629884,0.047885583437979225
220,0.047985200624912974,0.048157773196697236
221,0.04797632858902216,0.04769577322155237
222,0.04799091229587794,0.04802543007582426
223,0.048001238636672494,0.04805534388124943
224,0.04796563630923629,0.04772660849243403
225,0.04798228518664837,0.047818037107586864
226,0.047983279194682836,0.04785774965584278
227,0.047993474077433346,0.047725678883492946
228,0.0479794192276895,0.04790242780745029
229,0.047961476512253284,0.047778568647801875
230,0.04804132170975208,0.047820135287940504
231,0.04794319701939821,0.04767886427789927
232,0.04799588782712817,0.04773244423419237
233,0.04797912161052227,0.047760403156280516
234,0.048004934806376694,0.0478975914940238
235,0.04796346940472722,0.04786283166706562
236,0.0479820023290813,0.047798099063336846
237,0.04800292164832354,0.04788702603429556
238,0.04795449597015977,0.04793845721334219
239,0.047974073208868505,0.04778656166046858
240,0.047976340260356666,0.047980724446475505
241,0.047992702726274726,0.04796506983786821
242,0.047943877842277285,0.04800845520943403
243,0.04800152310729027,0.0479955280944705
244,0.04798859011754394,0.047764559045433995
245,0.0479818859025836,0.04807582188397646
246,0.04797072215005756,0.047710964404046534
247,0.047968094881623985,0.04785873801261187
248,0.047970719162374734,0.04780575597286224
249,0.047978240609169005,0.0477893941923976
250,0.04797940972074866,0.04824365612119436
251,0.04797013202682138,0.04781287729740143
252,0.04796203876286745,0.04786780878901482
253,0.04799173583835364,0.04803764441609382
254,0.0479876225553453,0.04770159187912941
255,0.04795323551818728,0.04792983526736498
256,0.04799609614536166,0.047843854635953906
257,0.04797228148952126,0.04824471247196198
258,0.04800901782512665,0.04827180396765471
259,0.047948486670851706,0.04785835684090853
260,0.04797048674896359,0.04777406685054302
261,0.04800406912341714,0.04774153736233711
262,0.04796427551284432,0.04769190435856581
263,0.04798557722941041,0.04775426797568798
264,0.04797317580506206,0.04799494826048613
265,0.04797129314392805,0.04777188571542502
266,0.04797338942065835,0.047856560543179515
267,0.0479570332840085,0.04801655764132738
268,0.0479799473285675,0.047735066600143906
269,0.04797275974601507,0.0480028345733881
270,0.04795179584622383,0.04780004128068686
271,0.04797113284468651,0.048135972127318384
272,0.04798683674260974,0.048135507248342035
273,0.04797774439677596,0.047812129236757754
274,0.047953014474362135,0.04775136077404022
275,0.04798296017944813,0.04772895658761263
276,0.0479821910187602,0.04807402841001749
277,0.047970418829470875,0.048440294273197654
278,0.048027713656425476,0.04772428096830845
279,0.04794577916711569,0.047967397689819335
280,0.047960827745497224,0.04818687580525875
281,0.047978193797171116,0.04772725570946932
282,0.04794465057551861,0.04773422442376614
283,0.048001849185675384,0.04809453619271517
284,0.04796350786089897,0.04782075639814139
285,0.04794945540651679,0.04782086634635925
286,0.047962515987455843,0.047848667323589326
287,0.04798690282925963,0.048009952917695047
288,0.04795201724022627,0.0477776193022728
289,0.04800190906599164,0.04768577787280083
290,0.047961483597755435,0.04817014364898205
291,0.04798846923932433,0.04778941412270069
292,0.0479682960473001,0.047748525209724904
293,0.04797147687524557,0.04803967329859733
294,0.04798831304907799,0.04795429896563291
295,0.04795908872038126,0.04768578523397446
296,0.047960429020226,0.04800133264064789
297,0.04796276113018393,0.04803079999238253
298,0.04796495091542602,0.047787711285054685
299,0.047971599485725165,0.04878587584197521
300,0.04794471190497279,0.04784209069609642
301,0.047977889496833084,0.047657374285161494
302,0.04795065747573972,0.048935550652444364
303,0.04798591155186296,0.04785100180655718
304,0.047963702525943515,0.04805910853296518
305,0.047977543450891974,0.047780112996697426
306,0.04795028935745359,0.047733305372297766
307,0.04796580350771546,0.04785287210345268
308,0.047978584446012974,0.047685358941555026
309,0.047980442948639394,0.04805896191298962
310,0.0479473958723247,0.0478081778883934
311,0.04800225753709674,0.047810936413705346
312,0.04796603573486209,0.04784072403609753
313,0.04795721176639199,0.04779853588342667
314,0.04797413781285286,0.04779560860991478
315,0.04797140708565712,0.047813303761184214
316,0.04797549932077527,0.04775539266318083
317,0.04798479599878192,0.04774601002782583
318,0.047977441791445016,0.04778883389383554
319,0.047959940891712904,0.047827930480241775
320,0.047967268463224175,0.04802492529153824
321,0.04797278793901205,0.048273540683090685
322,0.04797563602402806,0.04822698211669922
323,0.04795530677586794,0.04855026829242706
324,0.04795802747458219,0.04769060588628054
325,0.04795712476968765,0.047866997569799424
326,0.04795757018402219,0.04772338180989027
327,0.04797376685589552,0.04770115350186825
328,0.04796524227038026,0.04773963203281164
329,0.04794952706247568,0.04792381855845451
330,0.047985459625720976,0.04778770890086889
331,0.047944469165056944,0.047859444610774515
332,0.04795518970489502,0.047902001224458216
333,0.04797358460351825,0.04793593457341194
334,0.04794777737930417,0.047804821975529196
335,0.04797137227654457,0.04782400956004858
336,0.04795065949857235,0.047709309615194796
337,0.047947258409112695,0.047763287357985976
338,0.04799570468068123,0.048105826526880266
339,0.04796042709797621,0.04788827826082707
340,0.047964398682117465,0.0482240939065814
341,0.04796689219772816,0.04778080876916647
342,0.04798720152676105,0.04777530983835459
343,0.047945542857050896,0.04796268256008625
344,0.04796390138193965,0.04776987048238516
345,0.04799615102633834,0.04791776806116104
346,0.04795358832925558,0.047838184162974355
347,0.04797571481019258,0.04773743381351232
348,0.047950617093592884,0.048053457513451574
349,0.04795213334262371,0.04770349715650082
350,0.04795645695924759,0.04777867386490107
351,0.047964375380426645,0.047669165432453156
352,0.047950418543070555,0.04794826885312796
353,0.047975138168781996,0.04775930632650852
354,0.047964394088834524,0.04769939864426851
355,0.047962983679026364,0.04769649708271027
356,0.047972483117133376,0.0487386215776205
357,0.04796501315012574,0.04775632670521736
358,0.04796900150179863,0.04779499938338995
359,0.04799755672365427,0.0480678926333785
360,0.04796590355783701,0.04816390638053417
361,0.04793956009671092,0.04771890538185835
362,0.04797646115720272,0.04822088309377432
363,0.04797272297739982,0.04769654966890812
364,0.04797761983051896,0.04785016632080078
365,0.04796558576822281,0.04781365211308002
366,0.04797078012675047,0.047700790546834466
367,0.0479772456176579,0.04777836944907904
368,0.04796700597926974,0.04795697958767414
369,0.04795430875942111,0.04773755427449942
370,0.04797986948862672,0.04774512515217066
371,0.0479269429706037,0.047715634055435656
372,0.04797916390746832,0.04773505961149931
373,0.04794406104832888,0.04806750389933586
374,0.047986910436302425,0.04781311610341072
375,0.047961361575871705,0.047736668296158316
376,0.04797313057258725,0.04777013080567122
377,0.04797241716831922,0.04782378756254911
378,0.04797169563919306,0.04788139556348324
379,0.04794869459047914,0.047821323052048684
380,0.04796499814465642,0.048059982784092424
381,0.047961948286741975,0.047865661948919294
382,0.04799111120402813,0.04853929170966148
383,0.04796855000406504,0.04777043218165636
384,0.04797787771746516,0.049069556541740895
385,0.04794672530889511,0.04798955848067999
386,0.04797336470335722,0.04772170684486628
387,0.04798216200247407,0.04767159412056208
388,0.04793579506501555,0.04771724319458008
389,0.04794838133081794,0.047745656095445156
390,0.047996388874948025,0.048010210104286674
391,0.04793156338855624,0.047903973154723646
392,0.047992377445101736,0.0477013218998909
393,0.04795930565148592,0.04786777377128601
394,0.04795812188833952,0.04803125747293234
395,0.04795867919921875,0.04835562264174223
396,0.04798308770358563,0.0478561669588089
397,0.04796209640428424,0.04772642483562231
398,0.04795204236730933,0.047837752409279344
399,0.048005298882722855,0.04786392861604691
400,0.047962912678718564,0.04813602065294981
401,0.04795827909559011,0.04794573048502207
402,0.04794966292008757,0.04822461385279894
403,0.04795619985461235,0.04787031188607216
404,0.04793993154913187,0.04787575309723616
405,0.04795825501158833,0.048191174022853375
406,0.04796168567240238,0.047850721962749955
407,0.04798818872123957,0.04781857915222645
408,0.047944324355572464,0.04775047413259745
409,0.047971140544861554,0.04793360941857099
410,0.04795735895633697,0.04780822353810072
411,0.04794336360320449,0.04787881226092577
412,0.047961058616638186,0.048234032206237315
413,0.047947011385113,0.04866465017944575
414,0.047973229713737964,0.047758186250925067
415,0.04796827893704176,0.0479440108910203
416,0.04799647629633546,0.047800365701317786
417,0.04795444955676794,0.0476983157992363
418,0.04797055005282164,0.04788812846690416
419,0.04793251034244895,0.04796817682683468
420,0.047981415569782256,0.04787030904740095
421,0.047942429631948474,0.04774939457327127
422,0.047951654735952615,0.04800318317860365
423,0.047950227450579405,0.047820146292448046
424,0.04797628438472748,0.04787421979755163
425,0.04792009229212999,0.04819586131721735
426,0.04795805329456925,0.04781949659436941
427,0.04794157297536731,0.04777080722898245
428,0.04796764962747693,0.047724897883832454
429,0.04795380412787199,0.047787455707788466
430,0.04794854809343815,0.04779213637858629
431,0.04797355513647199,0.04771044321358204
432,0.047954163141548635,0.04781617058068514
433,0.04793843648955226,0.04782934062927961
434,0.04795927506312728,0.047811155267059806
435,0.04796008745580912,0.04785672698169947
436,0.047953589744865896,0.04781814232468605
437,0.04792543280497193,0.04788292265683412
438,0.04798335997760296,0.04788097055256367
439,0.047963641453534364,0.04775921555608511
440,0.047942989941686394,0.04794197631627321
441,0.04795673943310976,0.048018308363854886
442,0.04797185592353344,0.04776326061785221
443,0.04795561395958066,0.047742379531264305
444,0.04795801863819361,0.047911892481148244
445,0.04798203112930059,0.048166464865207675
446,0.047943586252629754,0.048466655895113946
447,0.047968882508575915,0.04815089329332113
448,0.04796783798933029,0.04822871843725443
449,0.04792825599014759,0.048264425806701185
450,0.04795571416988969,0.04778716444969177
451,0.04797858665138483,0.04774143321812153
452,0.0479748401530087,0.04778258318454027
453,0.04794546649605036,0.04781169846653938
454,0.047938988342881204,0.04786040023714304
455,0.04797111384943128,0.04779056452959776
456,0.04794752218574286,0.04779348923265934
457,0.047975724153220656,0.04772807918488979
458,0.047939567297697064,0.04786615638434887
459,0.04795605646818876,0.04767720597237349
460,0.04795511420816183,0.048021627344191076
461,0.047972603902220724,0.04781475593149662
462,0.04793557222560048,0.04898204556852579
463,0.047929553363472224,0.047739680036902425
464,0.04796688725426793,0.04796727761626243
465,0.047952318452298644,0.04780691264569759
466,0.04795047346875071,0.050239013023674485
467,0.04798857364803553,0.047884618498384955
468,0.04793160692229867,0.04776645923405886
469,0.04797130635380745,0.048021452970802785
470,0.0479425198584795,0.04787853675335646
471,0.04797538686916232,0.04797058423608541
472,0.0479348696693778,0.048001832470297816
473,0.0479597696736455,0.047793527349829674
474,0.04796000331640243,0.04782036662846804
475,0.0479722308665514,0.04797134187072515
476,0.04798240354284644,0.047964916475117206
477,0.047921591378748414,0.04792832699418068
478,0.04796816307678819,0.047826819814741614
479,0.04796143907308578,0.047768995434045794
480,0.04796724553406238,0.04768047007918358
481,0.04792659109830856,0.04775623456388712
482,0.04795798401162028,0.04810766641050577
483,0.04797905499488115,0.04802418494224548
484,0.04793185763806105,0.04781490221619606
485,0.047961138654500246,0.04799046452343464
486,0.047985155042260884,0.04767135693877935
487,0.04793113849312067,0.04775969421118498
488,0.04796255948394537,0.04766804901510477
489,0.04794694472849369,0.048112137220799926
490,0.047957609705626965,0.047732573851943016
491,0.0479932666644454,0.04775111095607281
492,0.047943936675786974,0.047738923862576485
493,0.04792936798930168,0.04768854125589132
494,0.04797507749125361,0.04802424805611372
495,0.047947803165763615,0.04774120230227709
496,0.04795136882737279,0.04775115103274584
497,0.04796597308292985,0.04770943380147219
498,0.047935041431337595,0.047893864884972576
499,0.047961054526269434,0.047769484400749206
500,0.0479516121186316,0.0477334200963378
