epoch,loss,val_loss
0,0.4456123523145699,0.29937174403851147
1,0.27563129445974877,0.24060387067067748
2,0.26389068524368864,0.24292716444360465
3,0.2656096168834749,0.2633275312083771
4,0.26493112708898997,0.26196060268644966
5,0.26340311080265083,0.24521292320664878
6,0.26020047752212005,0.23667817567048377
7,0.2625137997554053,0.22942993444876272
8,0.2517622646162088,0.23041707543174328
9,0.2515378474437589,0.22853862198744956
10,0.2534286762364775,0.23405671290092514
11,0.25227499224120276,0.24980621229606437
12,0.2520751267600002,0.2207740560741997
13,0.2510781843510506,0.23461085154288974
14,0.25356535351662945,0.20878225447729362
15,0.2541109603987015,0.21632350732278552
16,0.2519498730094744,0.24578500273792317
17,0.24952727209051864,0.23393635230632884
18,0.2507494999717673,0.2352247545367223
19,0.24838370377655694,0.2281915550901942
20,0.24827137205889932,0.23577848826108283
21,0.2484783311669019,0.20549737671140916
22,0.25015671726605526,0.23125212611169807
23,0.2484189033257761,0.2188915532484155
24,0.2456839710915442,0.2236321579849246
25,0.2473940639745435,0.2299466125262238
26,0.24767357603705722,0.2225425447498215
27,0.24626369483238034,0.23915682370500263
28,0.24638277843439454,0.22509588034096908
29,0.24630966213486308,0.24306992819081064
30,0.24421423018646773,0.25407785557917434
31,0.2480846826461337,0.21255910092026647
32,0.24646256934460686,0.24264318995715542
33,0.24588157582559808,0.23147689427240825
34,0.24590226818767905,0.2300186648976967
35,0.24684576180169257,0.23584392809423121
36,0.2482505609587825,0.23229108558664066
37,0.24612707381634066,0.25960921192207864
38,0.2467045996955531,0.22106683526160945
39,0.24731275305044564,0.21309803904843155
40,0.24667818219758111,0.23132241366843528
41,0.24840861149698948,0.22961944237726062
42,0.2458466476349949,0.22717959415061822
43,0.24786605020825436,0.21838874908259315
44,0.2482220725274926,0.2581149842303068
45,0.245228699403252,0.23341460613003612
46,0.2443650839171761,0.2350276929763692
47,0.243622897922086,0.22801954744554398
48,0.24584513466008862,0.2130828346794249
49,0.24534752510422417,0.23443374535656517
50,0.24657424725443006,0.20906468356951213
51,0.2460590547220625,0.2258354446821259
52,0.2472716118630359,0.23271826245585595
53,0.24804519912641082,0.228219661073093
54,0.24832285700248088,0.22988111439364187
55,0.24952114930598615,0.22302016180797216
56,0.2513413520528375,0.23026156348130225
57,0.24976578583304074,0.2295656679175486
58,0.24664848453527075,0.21946614812712117
59,0.2460710492560728,0.22386236928723638
60,0.24655440891142175,0.22844806221666514
61,0.2476366321750886,0.23997620629133098
62,0.2480152474046708,0.21367390983151113
63,0.24907821933444355,0.22131549866095077
64,0.24653626258989828,0.22013621718682416
65,0.248975248427225,0.219769727332942
66,0.24775683724756142,0.23167529836333292
67,0.24739413058237614,0.21679634344065374
68,0.2480336738656386,0.22273738423644868
69,0.2472270817173014,0.21372009607127113
70,0.2443268575293241,0.23509714141524332
71,0.2461730739992079,0.21315022822037424
72,0.24736831381356267,0.2151071899732921
73,0.25064517876761166,0.22369419541043764
74,0.2481185888425649,0.2132151303427643
75,0.24888082093792596,0.23542455820078204
76,0.24749945694680592,0.23553294106556552
77,0.24750690537991765,0.223707105484032
78,0.24327193646191406,0.22652521840653958
79,0.2440878303529168,0.2052125670710716
80,0.24237783312845268,0.21558109905936326
81,0.2420016744012256,0.21166433664665701
82,0.24162521836660308,0.22273185352484384
83,0.24534336505554694,0.25270314753925716
84,0.24677417716615385,0.22226388105897524
85,0.2405162481747693,0.20122766585390645
86,0.24548988257817406,0.2146903505338853
87,0.24405980336250926,0.21787174379593555
88,0.24279038493541644,0.21063953393953946
89,0.2440778943504974,0.23602633795792363
90,0.24551673574124078,0.20306542782839584
91,0.2400811006657308,0.2213624765717297
92,0.24176515660899653,0.23077799658995765
93,0.24401043603022257,0.24071348009560037
94,0.24177540748046816,0.22638099501022746
95,0.24208346221020358,0.21351735011069445
96,0.2442318811368427,0.21774935590621425
97,0.240365358855459,0.21708476617146777
98,0.24342767016781722,0.2217676132699869
99,0.24060469549641406,0.23358574977321347
100,0.2421778008592329,0.24746259161107248
101,0.24003939164147747,0.21276479960696443
102,0.2383047096294055,0.20496947526786738
103,0.2403711818093009,0.21754036980340466
104,0.23834746821915465,0.20876070529536706
105,0.2435779169834166,0.2227013265322788
106,0.23732356619749,0.22024480335033722
107,0.2379776654456309,0.24027789331555657
108,0.23558378704578234,0.2151320120689836
109,0.23906396080652553,0.20707790714304136
110,0.2398885755156211,0.2036940935343528
111,0.23528548243572656,0.21421482858141552
112,0.24039066989747307,0.23576108937280893
113,0.23758923707364368,0.21029226892814343
114,0.23722815643056475,0.21158655136461096
115,0.2391955484692052,0.22718382524651237
116,0.23842489302420827,0.2331317454600663
117,0.23935286616019194,0.21149578634936542
118,0.242200632414835,0.20521594851073074
119,0.23948730110788077,0.2108037425242878
120,0.2364666089355898,0.21833922271069142
121,0.23631299456493485,0.2229948937651208
122,0.23891676059835334,0.24153601770370062
123,0.238688552022887,0.215515959726923
124,0.23954447111885865,0.19556808656584607
125,0.23934159297242558,0.21814673996416417
126,0.2378297718681747,0.2234720074226483
127,0.24010825927277582,0.2080483012028274
128,0.23604632541239023,0.22156292474424558
129,0.23706469930607,0.20894799892097976
130,0.23746409590502945,0.23167447284141984
131,0.2359819253078931,0.2338288476190621
132,0.2378374765141665,0.23496289280547616
133,0.23590531056408312,0.21190564296928152
134,0.23602746752164572,0.2168057827401335
135,0.23346517588182675,0.2051376011177281
136,0.2360778371687886,0.21823657638206775
137,0.235654195479816,0.22913655335354013
138,0.23607317086240595,0.20057068931940408
139,0.23407732533086673,0.22022284718422222
140,0.23643392035730176,0.20781367379093402
141,0.23628670388192916,0.20948128967824645
142,0.23426589996123715,0.19792893765809955
143,0.2322950130753559,0.21306671445097075
144,0.2348032964049004,0.21191217996246525
145,0.23547526621956935,0.22232979224256066
146,0.23426427619399023,0.20146003500871898
147,0.23554738711198872,0.2162058270156432
148,0.2339770988321858,0.20107039759677306
149,0.2359969327576739,0.21967364435551714
150,0.23568864461419295,0.194990045434077
151,0.23492190310413882,0.23070210791272258
152,0.23456638712015412,0.2254836846683824
153,0.23499043047833768,0.1968427666879145
154,0.23434598058509865,0.20578684178630413
155,0.23512372988953983,0.24867769941651327
156,0.23353432188685938,0.20502672751116152
157,0.2335767613304816,0.20282983457230014
158,0.23885256028752788,0.22649693829879852
159,0.234283251194261,0.20141589935243565
160,0.23362903252208203,0.200908845008048
161,0.23410602102430464,0.24293489870218754
162,0.23222791562803846,0.19906317062573228
163,0.22992725043987827,0.2153325850825337
164,0.23361340523648969,0.20663995846247923
165,0.2328429333597207,0.20846054689099125
166,0.2339781221506403,0.1977959894375016
167,0.23093536559990446,0.2036926111769889
168,0.2350531697237463,0.20125043502157525
169,0.23358366148676082,0.20155678724527165
170,0.23084279699169033,0.2262341685152015
171,0.23198188975560752,0.2090621320628965
172,0.23480279437654777,0.2263560310815856
173,0.2350671150929647,0.206213614559715
174,0.2358614082177512,0.22559103264570815
175,0.23347095045163405,0.22369614077938926
176,0.23603397023210151,0.21282097283941115
177,0.23248037815189437,0.21457219491233115
178,0.23404295857640817,0.24644497936079393
179,0.23502100234011633,0.20578311155312254
180,0.23263105254372757,0.1959569228560772
181,0.23272222266185752,0.19976064266707969
182,0.23098744551619116,0.21842795314338279
183,0.23099172330074447,0.19856704288107152
184,0.23354687215424805,0.2134716083799449
185,0.23225458489478923,0.19825194708380578
186,0.23432376754699086,0.21284899913191505
187,0.23328550899024006,0.20341727993204065
188,0.2336570035645349,0.22387086534200407
189,0.23294034573414307,0.20567138443511382
190,0.23107408212007188,0.20799054298474356
191,0.2316246616472904,0.19624744020916057
192,0.23147926264232974,0.2021900442733285
193,0.2351623952352972,0.22402730138197433
194,0.23474369921070562,0.2267316341375976
195,0.23199551798301854,0.20809788766278547
196,0.2347941526574932,0.21863736956707366
197,0.2347783875212467,0.20835780104001364
198,0.2349968452969964,0.20232544241160372
199,0.2319993782546923,0.21422812720913278
200,0.23158017328207353,0.20945713253931988
201,0.2329333903636333,0.22037001815832252
202,0.23423604988712993,0.23175047379098862
203,0.23451208555287986,0.18957004992824594
204,0.2312021697039982,0.2284380842516892
205,0.23236133990953978,0.2085141310678298
206,0.23423639617508368,0.2087181184655365
207,0.23321944055817811,0.21103817701871475
208,0.23555283340289174,0.1987211677545662
209,0.23398601468369137,0.2372351520833018
210,0.23513535295633242,0.21033308103330137
211,0.23281301344462257,0.2172685698073566
212,0.23381948496719854,0.22033754111979903
213,0.23312886764375185,0.19931323332024703
214,0.23295729281641753,0.19907023505717877
215,0.23414609294900712,0.22453781723105995
216,0.23233385118629762,0.23623729084481676
217,0.23534320143936538,0.20391677589505453
218,0.23403384524574272,0.21106444901068425
219,0.23410179670616757,0.21624237104392302
220,0.23258937573175223,0.21198010463977576
221,0.2315011312953943,0.20793696908040057
222,0.23079094825218543,0.20805646867067565
223,0.23087911136609446,0.21482036725012926
224,0.23150798127806788,0.22495569054276016
225,0.23097550694206603,0.21221654601727474
226,0.2310475528693562,0.21173188748972646
227,0.23229529031569524,0.21572835950085717
228,0.23150018563835595,0.20906426011307494
229,0.23022430973519697,0.19366109197157144
230,0.23370112192998227,0.2063103961151785
231,0.2329224280482106,0.22682594274082324
232,0.234347308530294,0.2165354660441019
233,0.2327442644559163,0.1946951360815633
234,0.23226297786944003,0.22112793721325108
235,0.233133153541027,0.2030581230688946
236,0.23395964072001657,0.2258271170358588
237,0.23399123148000936,0.19864730744804682
238,0.235196166623345,0.20437014392982725
239,0.23257990099722334,0.20034643052944978
240,0.23192482430329792,0.22955595124860362
241,0.23393377856171732,0.21073204057785136
242,0.23333840607236728,0.20508253296409693
243,0.23383159053215893,0.20186962974042497
244,0.23418567669067122,0.21657521929667428
245,0.2365105347014409,0.2199468224974831
246,0.23635347971351173,0.2199936217997776
247,0.23284806766874605,0.22017085062761377
248,0.23419066574618375,0.22121940109658222
249,0.23453530088794813,0.21835118373863502
250,0.23345622905284716,0.21435521319448125
251,0.23127902222214172,0.21188559619421313
252,0.2327818258570804,0.20449110061921247
253,0.23187293091399655,0.2140579425094578
254,0.2339962020253925,0.18964042361683703
255,0.23298108953538182,0.20680746753962176
256,0.2354354953007091,0.19388062767352116
257,0.23434896492142024,0.20583221172522648
258,0.23421515032851858,0.2224414735573245
259,0.23286082751279455,0.20604635190161283
260,0.23407960711143988,0.196539571117504
261,0.23414330922955987,0.204335441602891
262,0.2337377369881058,0.19621470772388594
263,0.23699894082770526,0.2141750710506509
264,0.2367329195714455,0.21740563891809933
265,0.23423904753189453,0.2024439453764457
266,0.2358356844052207,0.20183376419234836
267,0.23358155506624997,0.2081685133054792
268,0.23440018476391908,0.20777085609582993
269,0.23532297802243451,0.2094084931430252
270,0.23407888392193782,0.2278883343944681
271,0.2353233296552403,0.19523583289722263
272,0.23265385195266924,0.21201531364244847
273,0.2332559371228405,0.22623970094291737
274,0.23704665160780433,0.23926871108602724
275,0.23343847007203616,0.22478303252828866
276,0.23501194516618887,0.20888951736210037
277,0.2356089940600342,0.2011145959515351
278,0.23571958728104805,0.21544402645597202
279,0.23475067974258365,0.23872440102278267
280,0.2332346682206357,0.20924193301485114
281,0.23259853997571264,0.2085988549492945
282,0.2352252570305279,0.2090684549651877
283,0.23223627227439797,0.21692601642711126
284,0.2349464980970391,0.22105457002277404
285,0.2326867499167295,0.20687979317156163
286,0.23545964894364413,0.2016710337592834
287,0.23398318573581972,0.23066187494669324
288,0.23129980149772092,0.22828192031199818
289,0.23317779950779663,0.21008306106028282
290,0.23261893628906308,0.2106075479746445
291,0.23341353154115624,0.19727603937684282
292,0.2313186273014574,0.2172288645938075
293,0.23266088926763512,0.19573596871585644
294,0.23127272188830508,0.19715433170760635
295,0.2363582998096609,0.2159980272773022
296,0.23207432816060092,0.21930254500326063
297,0.2358696805633861,0.21081980774050696
298,0.23584229354146388,0.22050664672402956
299,0.2334600202291846,0.2018731234040767
300,0.23380341240054994,0.20995192421903866
301,0.2347107551950183,0.20409368872884223
302,0.23447949134463592,0.22314558947415053
303,0.23444250452699805,0.2077554877415384
304,0.23335911431390824,0.205676742762158
305,0.23303799576955952,0.19590664533513016
306,0.23450603467927542,0.20898938044869406
307,0.23593624158679627,0.20986973446554413
308,0.23325770596464315,0.21345981753703935
309,0.23245714201604584,0.23055263922307323
310,0.23279981668874491,0.20620384211716183
311,0.23240076407515783,0.23059615214859094
312,0.23377374061543624,0.21374900033584188
313,0.2322999982534646,0.20348604488740196
314,0.23333848743223018,0.214874675589563
315,0.23352995697405932,0.2130834732056631
316,0.23467397647466157,0.20849814609792885
317,0.23370807645939368,0.2020639899728362
318,0.23405235513651057,0.20957717210030227
319,0.2296221250469824,0.2020281269143291
320,0.2321085011403116,0.22370820149888088
321,0.23342851638269005,0.23240499283033758
322,0.23223886307212618,0.21182327048621907
323,0.2322790961834886,0.2054623823676376
324,0.23140085394307075,0.21434742706583848
325,0.2340821912758249,0.20836492078582736
326,0.23540278496123773,0.2103240457329437
327,0.2338061484995129,0.21519473317137405
328,0.2352345505769583,0.21229668231099386
329,0.2314849194822262,0.20011209298321028
330,0.23134920711489657,0.19449605877962137
331,0.2332094370531406,0.2322506528266155
332,0.23095457884576245,0.20621904793640317
333,0.23224463893638983,0.20403053071908803
334,0.23389240689545845,0.21806605051468758
335,0.2320024489795713,0.19850119914548336
336,0.2330469650934466,0.23613599910788294
337,0.2354779617608882,0.21581165421231432
338,0.23315230712258786,0.2082618798966922
339,0.23332625683590924,0.1959294481724138
340,0.23497477009761228,0.20146045175782085
341,0.2330397837299457,0.19562554511710675
342,0.23394897229987396,0.2166685758570975
343,0.23286811416272263,0.20519621476881503
344,0.2335534703025253,0.23116946570871327
345,0.23465688693060505,0.21407402298939682
346,0.23328071659664998,0.20932731635427437
347,0.23252963160781312,0.21443614485731766
348,0.23594651185125232,0.21022576946895102
349,0.2317154178794047,0.22253295467427758
350,0.2376331907448719,0.21273952375701646
351,0.23492302103124685,0.20332945799885585
352,0.23414648410150582,0.22089005674372236
353,0.2357192289850729,0.2011126261944705
354,0.23483310573047594,0.21008821333315153
355,0.23265509867520215,0.20914711466622565
356,0.23463422985221025,0.2073732654519518
357,0.23314686157137418,0.2220585160108475
358,0.2355526229612726,0.2047284367069034
359,0.23221776235380395,0.22884767805282796
360,0.23498677136040955,0.21488694000659875
361,0.23407699668808304,0.2199545003298522
362,0.23447371534913708,0.20462959911749795
363,0.23448280781340466,0.21788013168736772
364,0.2346228584885788,0.20558561972022926
365,0.23456933601700466,0.19878221036743943
366,0.23375811924735865,0.20627102962810628
367,0.2303490367851513,0.20391501267557693
368,0.23425258527263057,0.20934455598261137
369,0.23575006158138104,0.20275449468803328
370,0.23506222755981504,0.1955832323695428
371,0.23608319059885244,0.21369867825643474
372,0.23494121889838035,0.2201553153271416
373,0.23678453699100294,0.20912880900664146
374,0.2366819488730213,0.20886849403526372
375,0.23562597830573304,0.2221446937767355
376,0.23697333311657603,0.21284341212703461
377,0.23557232956799437,0.195087101736498
378,0.23700105755017986,0.22314395608693144
379,0.23574391641528059,0.22017000505620643
380,0.23872823998916617,0.21297501472322708
381,0.23703214090117652,0.2122676512959133
382,0.2404309651844973,0.21777823969830562
383,0.24159300254525137,0.2150073031632763
384,0.24179543367474435,0.20239815668226352
385,0.24295863932709966,0.23765853388176056
386,0.24371585542197416,0.20980368844639066
387,0.23835166676150407,0.21674052534650615
388,0.24384819154886364,0.2090745443071859
389,0.2379288670835827,0.2145257502044978
390,0.23563333434329403,0.21694355092441175
391,0.236730952922395,0.21930675543331074
392,0.23594367566158334,0.2137264253062537
393,0.23783903090571099,0.22120933567037065
394,0.235053332717873,0.21904538003825988
395,0.23572536213122147,0.20372173590139944
396,0.23594653378542754,0.2107142063049601
397,0.23664409441767548,0.21013326619034942
398,0.23774473357191078,0.22118157429948437
399,0.23895730176646773,0.21673457013912928
400,0.24201873716733474,0.20422491367184237
401,0.23993128014383935,0.2247881375839337
402,0.23538814845373385,0.23143783007466687
403,0.23757403662459578,0.2108973855906546
404,0.24318254570826423,0.21443296526615346
405,0.23891313870946726,0.21437143456471808
406,0.23677853398842275,0.2149924149816827
407,0.23682972492934992,0.20809551956251396
408,0.2385758893181077,0.21439289601953262
409,0.23834596186566104,0.22261112144055253
410,0.23659657376756468,0.21628975145524823
411,0.238152211658758,0.21848924870135236
412,0.23705166085564297,0.2118339338200129
413,0.23753411953357623,0.2210124814694042
414,0.2371637710124803,0.22213579966880787
415,0.24153807460426616,0.21291666570371084
416,0.23990191273492656,0.21389895619557142
417,0.241290130484715,0.20438231304227483
418,0.24080397439799947,0.22078565506314418
419,0.24021188165542123,0.2242074609165354
420,0.23716067174394384,0.21670053383246343
421,0.23856152937090616,0.21038085863973102
422,0.24032179881826796,0.2165519574722041
423,0.23866368160904455,0.21274708954667232
424,0.2343230120378365,0.20753400013249576
425,0.2358031113019841,0.21987454045718025
426,0.23701544890435244,0.21024119183239856
427,0.23590611561452798,0.21870295893150138
428,0.23695462152922603,0.21044337766400606
429,0.23736227349675684,0.21579223612605897
430,0.23570415304244471,0.9156645650507856
431,0.23934290363633032,0.2126150891027698
432,0.23771573215412845,0.19931242906844238
433,0.24118636975033556,0.22747601058699693
434,0.24021513167741873,0.23146034323966125
435,0.23854552144952731,0.2132779495535299
436,0.2388879947358365,0.2105243392862736
437,0.2373636286911533,0.20725865212525185
438,0.23730126436086918,0.23216299698155582
439,0.23817056899456332,0.23267848439218547
440,0.2375279633914403,0.21078793816902922
441,0.23646533334727665,0.20997753953266607
442,0.2346687657211283,0.21277777687476498
443,0.23566587643326523,0.21650314907522966
444,0.2352883031456064,0.21683509296164316
445,0.23483202398849354,0.24248375068664163
446,0.23887603810494,0.220646507935319
447,0.23850606939046262,0.2160089575388716
448,0.23615267819123234,0.2109618954124822
449,0.2359721817201476,0.20435278547892993
450,0.23809065719286474,0.20291999438044894
451,0.23937544600070237,0.22518703822478567
452,0.23733693049300472,0.22815592821448777
453,0.23734136688723576,0.2124318805585909
454,0.23566249240819123,0.2195459575500318
455,0.23669112349052826,0.19994337254922176
456,0.23685577178330686,0.2143700844445851
457,0.23869066304259534,0.2152096267430065
458,0.23925879910242281,0.21151566474010378
459,0.2357422714356521,0.24569815712688614
460,0.23690407563320057,0.23634140238177942
461,0.23742406036230543,0.2153795493852773
462,0.23778705876932038,0.20950043340427354
463,0.23549151143209757,0.20170537090504548
464,0.23618849728396646,0.21823275153315946
465,0.23570185353318818,0.2096314587224719
466,0.23792595554104418,0.21066887171550774
467,0.23764116417249745,0.22469065247129252
468,0.23817960857700787,0.21086763681818196
469,0.23542842447900886,0.20116211948893656
470,0.23595798389018297,0.19751040622990787
471,0.2392856535778416,0.23194724766103988
472,0.23556367231546352,0.20506056587288077
473,0.23844258049376207,0.2323726616975068
474,0.23887290840176603,0.20759130419750862
475,0.23573625389579012,0.20701817542145334
476,0.23548199192250224,0.21654844389199632
477,0.23390809462082873,0.2327026520090575
478,0.2360597691887183,0.20432304311166039
479,0.23618611688610075,0.2125252307500669
480,0.23425482581552265,0.21286209182630975
481,0.23528990583170692,0.22007810720223678
482,0.23741457059538013,0.21045453690554394
483,0.23499367964730633,0.20871992735532077
484,0.23571178189413944,0.22034961613618737
485,0.23617726878775322,0.2094303270422726
486,0.2356959021239399,0.2100312859424226
487,0.2387797641064569,0.22913032753237456
488,0.23805553530506177,0.2271512470662062
489,0.2371222653968321,0.22875682044009898
490,0.2391333955707695,0.23167114875854172
491,0.24039513401812415,0.22776417147794198
492,0.2369384055642532,0.22269543306864284
493,0.2372893968565737,0.21394465383918712
494,0.23545383442464687,0.21092943000000663
495,0.23480827862425172,0.22912545985597377
496,0.23539312847191282,0.21554547280000655
497,0.23576059664269272,0.22365626935686217
498,0.2373854959901091,0.21238722768819923
499,0.23486803513202217,0.20384761216141592
500,0.23741326732836884,0.21473875530638156
