epoch,loss,val_loss
0,0.19244250025656773,0.11290739270275563
1,0.09724867130390746,0.09581085183343835
2,0.09539429489657175,0.09496608404141293
3,0.09504132587715781,0.09463770708749872
4,0.09513631185813011,0.09514216150744467
5,0.09503851953348953,0.09476011304071595
6,0.09500926042453563,0.09455517711207541
7,0.09499121924860776,0.09495509728707002
8,0.09498206166614541,0.09480483845852451
9,0.09490916087068052,0.09456591322230089
10,0.09494676957611176,0.0946567851076845
11,0.09494852931867781,0.094490166903483
12,0.0948896348553834,0.09474637191786763
13,0.09486531446294057,0.09478715103892896
14,0.09487674220038547,0.09456846523727125
15,0.09483468060573037,0.09462418814131662
16,0.0948070276090853,0.09449345662002029
17,0.09482004759992532,0.09473659392760886
18,0.0947846624074127,0.09449500733458722
19,0.09477307109369172,0.09454568915345486
20,0.09472977996265573,0.09449715311356012
21,0.09476491172822545,0.09430203453329669
22,0.0947150091240875,0.09452842927487139
23,0.09473229608804488,0.09438119006608543
24,0.09470288487944863,0.09446386014417861
25,0.0947408701608078,0.0943854421365421
26,0.09471288313873284,0.09458185558302155
27,0.09469734698974734,0.09441337092311343
28,0.09466828718233547,0.09424753067243165
29,0.0946574643831983,0.09420522866916167
30,0.0946444854449978,0.09463423921564196
31,0.09466274457571985,0.09490380953077077
32,0.09463634522710677,0.09463925118063413
33,0.09463867940884128,0.09450914249141666
34,0.09461121607146007,0.09440663107027665
35,0.09463571064132485,0.09442218231373917
36,0.09460153070380457,0.09447944567089675
37,0.09464678360070351,0.09430561212333244
38,0.09455095998924985,0.09443312498204992
39,0.09459682133831947,0.09441556231704583
40,0.09460041556748555,0.09435345952846727
41,0.09461430567714998,0.0942403222210029
42,0.09458739824777694,0.0945029265255371
43,0.0945715570567752,0.09444968434140356
44,0.09455192234399888,0.09428413266987902
45,0.09457230787101886,0.0944186116626814
46,0.09455076646473673,0.09463447666394023
47,0.09459049347266972,0.09439080453756388
48,0.09457974114137398,0.09441484704954754
49,0.09456267137583688,0.09468470640839229
50,0.09454192665459918,0.0943504638187793
51,0.09454029638894933,0.09453156224107215
52,0.09461180528374218,0.0942796322780984
53,0.09456243305552682,0.09435164282758497
54,0.0945314981853314,0.09447848108827174
55,0.0945157728654494,0.0942890934099244
56,0.09451656850526849,0.09428051596282501
57,0.09455856125203253,0.09426865496782214
58,0.09450842374913412,0.09443766292663851
59,0.0945559616545312,0.094259450295918
60,0.09451895703276475,0.09432230045358873
61,0.09451604542507828,0.0942962559288472
62,0.094509664955709,0.0946251263558253
63,0.094516265056402,0.09441730466501488
64,0.09451448293231565,0.09429408122962539
65,0.09452078721041587,0.09425045815667676
66,0.09450303870651552,0.094428012690021
67,0.09450991481518764,0.09443298875462285
68,0.09448127465532552,0.09448841113623617
69,0.09449886541060216,0.09439601784464687
70,0.09450277523826257,0.09435716071463798
71,0.09448129271300768,0.09433394681659381
72,0.09448994813169792,0.09415275836400187
73,0.0944953455770616,0.09431292777609053
74,0.09449754844454648,0.0943784956962176
75,0.0945131274209701,0.094323225913315
76,0.09446714190449074,0.09436456228723278
77,0.0944634977397587,0.09421718721561011
78,0.09448783982881634,0.09428512854847083
79,0.094472798360266,0.09427105588360668
80,0.09448549061489525,0.09431836365971305
81,0.09447557527979882,0.09437613729049393
82,0.09448073544709994,0.09439466184485872
83,0.09444895533503865,0.09436341927290527
84,0.09446238404471907,0.0941857956967301
85,0.09444249670901934,0.09438116770258266
86,0.09446826407449137,0.09426181613458078
87,0.0944595798778591,0.09418293379170742
88,0.09445569970362859,0.09433749542757575
89,0.09446232759063955,0.09422851499131842
90,0.09444024591006155,0.0942138127376926
91,0.09445074262867252,0.0947232354835158
92,0.09444974216339971,0.09426839901362241
93,0.0944507226711221,0.09427062450263475
94,0.0944419119575565,0.09424969059986305
95,0.09443942683754113,0.0946008432612423
96,0.0944566133645751,0.09434093090381411
97,0.09444360842081093,0.09423025026505823
98,0.0944493162653429,0.0942005329039874
99,0.0944377263869456,0.09419910195735655
100,0.09447077826427804,0.09453346417965433
101,0.09443731934165688,0.09421323950754533
102,0.09442428097450475,0.0942454090093475
103,0.09441618487941657,0.09429170762871604
104,0.094442691731391,0.09429209494129728
105,0.0944289262655923,0.09429378584674145
106,0.09442961145397856,0.09423994505226659
107,0.09445908633794049,0.09421907601717804
108,0.09441452144647387,0.09427456141412023
109,0.0944177365476946,0.09420760680980916
110,0.09443483596963943,0.09423283585174495
111,0.09446687929981427,0.09427253433871476
112,0.09440978438996202,0.0941437849129573
113,0.09442440192583654,0.09438958909324331
114,0.09445789364947499,0.09419262768508133
115,0.09442603757841696,0.0942257236051296
116,0.09445198293891456,0.09432514381154654
117,0.09441516127922743,0.0942453322101505
118,0.09444786137123283,0.09436451776604438
119,0.09439560899631583,0.09423257607522685
120,0.09445146777980525,0.09416657141112114
121,0.09443199306988506,0.09421516750257788
122,0.09441807061481437,0.09424710504257877
123,0.09441464268963495,0.09418323055650647
124,0.0944272597386635,0.09419471659383721
125,0.0943974109528829,0.09417055881249217
126,0.09441017993777204,0.09428012872080965
127,0.09441741454980071,0.0945742856696448
128,0.09443019966868092,0.09423492820646788
129,0.0944550267631392,0.0943205279445874
130,0.09440241804976257,0.09421409580683088
131,0.0944461398255482,0.09429218590071377
132,0.09443060108285538,0.09419448677841472
133,0.09442713664923545,0.09426989803280338
134,0.09441493894401595,0.09424765413919582
135,0.09442927026086384,0.09455366994841605
136,0.09444764457184443,0.09417062692620572
137,0.09443008583441055,0.0941695739421773
138,0.09440201477145406,0.09433783517875535
139,0.09444095582651386,0.09420966525762779
140,0.09443457265921253,0.09426211928559178
141,0.09438362747406978,0.0943128628907659
142,0.09443954294688886,0.09416791039865226
143,0.09442582278312157,0.09448215915235648
144,0.0944133016327731,0.09568769915798281
145,0.09443716812048027,0.09421369207592206
146,0.09438727997380386,0.09426856201491962
147,0.09445001947567713,0.09441417804974313
148,0.09440070884131033,0.0942159466145541
149,0.09444372894631016,0.09421595368290286
150,0.0944103923894995,0.09491537637191207
151,0.09441258406920208,0.09418215055162735
152,0.09439476909373494,0.09430836712693076
153,0.09441614123902542,0.09434399302187357
154,0.09439620503680787,0.09427070872889039
155,0.09443182635793297,0.0941964425822836
156,0.09441985303668572,0.09427670700491744
157,0.0944187555143492,0.09444007138709148
158,0.09442906546816647,0.0942969406354399
159,0.09441889044370869,0.09419013886185452
160,0.09441113115834009,0.09424053841721099
161,0.09440107190375514,0.09420233516238671
162,0.09440624302358841,0.09425030750440817
163,0.09439936806734422,0.09421863219308967
164,0.09445685164915095,0.09422403692187714
165,0.09439138772426177,0.0941777147923103
166,0.09440513329504491,0.09445895098778989
167,0.09443609811049952,0.09422434169002283
168,0.0944056759962885,0.09417131354395762
169,0.09440985170723819,0.09447556589425034
170,0.09442615962857537,0.0943411771258032
171,0.09442191688026741,0.094262544715508
172,0.09440453391042736,0.09420848911262067
173,0.09440081751198887,0.09424808255052039
174,0.09441041700142941,0.09418391672146066
175,0.09442304157846265,0.09418305308332384
176,0.09441438491205327,0.09421862598917291
177,0.09439769922960385,0.09426003113541907
178,0.09441329883359414,0.09425593986695642
179,0.09442771874445614,0.09440396672030933
180,0.09442856672892182,0.09428982957080301
181,0.09441019471088569,0.09423133258685035
182,0.09439971406373093,0.09423508303976473
183,0.09442213869137729,0.09415676507690146
184,0.09439202920674421,0.09425841353028049
185,0.09439661405045542,0.09432392028743297
186,0.09441113018458315,0.09421480568191999
187,0.09440230557636962,0.09441347855959902
188,0.09443475115153906,0.0942725611067044
189,0.09438578499187764,0.09414161856991152
190,0.0944240790554326,0.09414207721871472
191,0.09440799518454847,0.09426193552028503
192,0.09442705855512028,0.0942142353508542
193,0.09436042486823244,0.09419152910373488
194,0.09443361277607895,0.09449920682170397
195,0.09440834459950694,0.09436263623276187
196,0.09438787422163024,0.09435129453205367
197,0.09440961487287526,0.09450473331779406
198,0.09439861299477512,0.09418981900437197
199,0.09438225253523111,0.09411842708829453
200,0.09441918388997718,0.0941443406251254
201,0.09440773567088026,0.09460910866603009
202,0.09440100273723416,0.09421340493160435
203,0.09440416949901649,0.0942083314566887
204,0.09438119501733094,0.0942917972709028
205,0.09442445096804751,0.09432992549655751
206,0.0944056367571596,0.09417997052468177
207,0.09439546678313535,0.09445891233533033
208,0.09441671107443783,0.09419736826546848
209,0.094395606611058,0.09417910244089464
210,0.09438484005457301,0.09421459077353918
211,0.09441992906417301,0.0942777623352613
212,0.09441200299538392,0.09409925737951154
213,0.0943976383444836,0.09419792769998665
214,0.0944225253443495,0.09412376681414757
215,0.09441415720480047,0.09412959188622759
216,0.09439018530418261,0.09415882901709759
217,0.09439426361561584,0.09420034682176766
218,0.09439867961523439,0.09414360187095079
219,0.09442114305915497,0.09428115937661824
220,0.09440413171010052,0.09418686010066976
221,0.09440474034987574,0.0942721625682681
222,0.09441017416967667,0.09424155434827308
223,0.0943998570213739,0.09414541734281072
224,0.09441218174380554,0.09441724861218596
225,0.09437787830591392,0.09412517769654717
226,0.09438260092878704,0.0941979160624973
227,0.09444157471307081,0.0941387168363313
228,0.09438026602641283,0.09417366913880715
229,0.09441003966019404,0.09424060214407913
230,0.09442121887521492,0.09413647648732118
231,0.09440921654673122,0.09420243832970004
232,0.09440115109074125,0.09435933527860853
233,0.09443518853814101,0.09415866828566945
234,0.09439936262085664,0.09417817999197915
235,0.09437520688267158,0.09417138694423151
236,0.09441052886436312,0.09422791635745514
237,0.09441105569664428,0.09449101673422974
238,0.0944072086777952,0.09420718678994355
239,0.09440337833490589,0.09413676727166209
240,0.09445356060382273,0.09416091833160727
241,0.0943632500587131,0.09445666467099088
242,0.0943862393730693,0.09421458185871662
243,0.09438581354648089,0.09419171693834058
244,0.09440777672351978,0.09423418774107073
245,0.09439971737807794,0.09423078663041484
246,0.09442589594293936,0.09421250396411816
247,0.0944003338644878,0.09419992609624328
248,0.09439621653726442,0.09423171672984758
249,0.09437748226973651,0.09432354464174351
250,0.09439912922591043,0.09412941475999384
251,0.09440430699230479,0.09410713516593262
252,0.09444084966318499,0.09423468353104761
253,0.09436268322497345,0.0941746070769328
254,0.0943958788252563,0.09418957751617718
255,0.09439465610517396,0.0941890349527843
256,0.0944015593480149,0.0941663141926161
257,0.09437059267735977,0.09432142976474461
258,0.09439189352994438,0.09421462492154355
259,0.09439228608203734,0.09422156634581023
260,0.09439256777473205,0.09412995298358523
261,0.09441212557857748,0.0941703415754374
262,0.09438611548259962,0.094164979239101
263,0.09440818167240214,0.09414695045707164
264,0.09440784222132963,0.09430608821954893
265,0.09437912639430006,0.0941864472726432
266,0.09441876161894162,0.09415802450728586
267,0.09438762490709814,0.09413642238093439
268,0.09441183120619764,0.09422629208384109
269,0.0943766298601858,0.0942250265318668
270,0.09440015349313795,0.0941640680042796
271,0.09441635973281044,0.09427564750530631
272,0.09441574226073224,0.09424347281103164
273,0.09441620696017401,0.09414470328669333
274,0.09439580615082804,0.09416922997468649
275,0.0943956031597299,0.09424889849788481
276,0.0944019288694163,0.09412334096671657
277,0.09440335353239358,0.09413907885104536
278,0.09438497117824024,0.0941757626225841
279,0.09440010338187885,0.09435192318581745
280,0.09438945736578233,0.09438304386697798
281,0.09443522761348816,0.09423004374813639
282,0.09437801266948191,0.09417563730934612
283,0.09437903931601156,0.09411741422684812
284,0.09438446287711938,0.09418462677884497
285,0.094395152494895,0.094217636796698
286,0.09441333738186186,0.09415897401233499
287,0.09436794453792625,0.09430289230270468
288,0.09443091798862584,0.09424270658320862
289,0.09437352753312087,0.09421038047220166
290,0.09438781587959384,0.094200141063429
291,0.09440978014057012,0.09426858759505032
292,0.09437597330084903,0.09425073676252327
293,0.09438639939974824,0.09417522502820512
294,0.0943876853336295,0.09418434436832156
295,0.09438576330717424,0.0941557132748515
296,0.09443441377900583,0.09437366782583961
297,0.09435598114483076,0.09418350671606922
298,0.09440382862750955,0.09440963572418963
299,0.09439935341632243,0.0942595919922006
300,0.09438732151481077,0.09415066798512355
301,0.09438834882837882,0.09424782134504325
302,0.09438440539568162,0.0942293176840588
303,0.09439285528614558,0.09415781219220105
304,0.09440575811645682,0.094179291628013
305,0.09438152616317991,0.09418043063184645
306,0.09439234576410623,0.09415197838171317
307,0.09440281765935994,0.0941436676912733
308,0.09442817512974083,0.09423542469622304
309,0.09437355134698698,0.09420372853268764
310,0.09437547759603349,0.09441600765242009
311,0.09439070746421718,0.09414374180308645
312,0.09439335803655412,0.09417906184787343
313,0.09437404270116374,0.09436240654082964
314,0.09439587486173799,0.09416697988170475
315,0.09436128768536875,0.09420454189851704
316,0.09441930690495898,0.09415545607986842
317,0.0943892753268365,0.09416676133330074
318,0.09439165560271053,0.09418057555651796
319,0.09438755714910017,0.0945290047337243
320,0.0943799471552614,0.09435945064793823
321,0.0943831892149578,0.0941523101530681
322,0.09439815276508613,0.09430903702645012
323,0.09439683098980277,0.09442525378177744
324,0.09439845415328046,0.09418997283210506
325,0.09437132646127952,0.0942400139304438
326,0.09439601533287625,0.09415068121034514
327,0.09438576736300588,0.09419475665173384
328,0.09439065314525609,0.09412406433752982
329,0.09435636277714793,0.09429887880371984
330,0.09440885339792875,0.09476612600032608
331,0.09440614736909203,0.09433328570840673
332,0.0943762753650153,0.09418698063895001
333,0.09439428816798875,0.09417385814951082
334,0.09440945409875598,0.09430419420198653
335,0.0943945848958479,0.09413745142548877
336,0.09434439330030497,0.09412174310826277
337,0.09439561200989999,0.09414092989398817
338,0.09436119103031479,0.09461331707973036
339,0.09440960598994884,0.09413210283185708
340,0.09439835594081097,0.09418168635164177
341,0.09436372963847112,0.0942603533215756
342,0.09439584408863652,0.09413539283653838
343,0.09436134374934993,0.09427098166594472
344,0.09439525541236742,0.09418065411398141
345,0.09439125675842058,0.09415410898314185
346,0.09436912741437614,0.0941722184984159
347,0.09438017596729653,0.09418293079265762
348,0.09440608636783562,0.09421953854122403
349,0.09438508507802332,0.09423797588204434
350,0.09437769855097901,0.09418053385208419
351,0.0943837487023416,0.09438865991704748
352,0.09439423328919186,0.09419385741311166
353,0.09439094428369087,0.0941328763926509
354,0.09439069953420275,0.09426433079079935
355,0.09439164760420553,0.09416435288460874
356,0.09441104647424295,0.09415988603514203
357,0.09437968410390744,0.09429277931858257
358,0.09437564265527885,0.09419442368663948
359,0.09439077480829401,0.0941684673045598
360,0.09436172279987118,0.09419014344863658
361,0.09438670242576004,0.09414488602291436
362,0.09437991980966523,0.09422927109293798
363,0.09439193694401893,0.09425906744074802
364,0.09439400130276866,0.09419603608166409
365,0.09438373632937502,0.09417126217199859
366,0.09441631913280411,0.09416779028964777
367,0.09437325689122736,0.09411772406397603
368,0.09437002448274268,0.09417978922330025
369,0.09438935070217466,0.09422010735512344
370,0.09439459794776427,0.09419988435652657
371,0.09438345424360413,0.09426855522883437
372,0.0943723075467048,0.09411004859580707
373,0.0944195974924915,0.09409491560806321
374,0.0943804902555369,0.09455093210408701
375,0.09438073240833984,0.09436965382113265
376,0.09437168558402885,0.09423947690059184
377,0.09440450254473373,0.0941622943779852
378,0.09438806936907158,0.09412018554880568
379,0.09441466577988353,0.09424128172288472
380,0.09439165982827961,0.09448826490609591
381,0.09437951500669753,0.09411208800848017
382,0.0944105590002047,0.09420191522484797
383,0.09442844387772177,0.09428476589866389
384,0.09438506973911819,0.09428589936895641
385,0.09436314192106969,0.09428560851993012
386,0.09440291725355182,0.09414130009434406
387,0.09437923449918711,0.09421696154005244
388,0.0943841287683097,0.09414945427554747
389,0.09438674980930858,0.09417862199899618
390,0.0943845882714033,0.0942234550709318
391,0.09440174480255464,0.09439429470235754
392,0.09437698914969472,0.09420180266051191
393,0.09438857612171048,0.09414566389998773
394,0.09435489198727479,0.09415722898874306
395,0.09437774896597881,0.09433222469750971
396,0.09440134528229277,0.09414390088797744
397,0.09438766001594914,0.09416500503680983
398,0.09441392986084536,0.09413982390910505
399,0.09437934716316246,0.09409200220171071
400,0.09437066131977917,0.09412812866746861
401,0.09439871297608748,0.09422719484487667
402,0.09437579002311762,0.09412708959079862
403,0.09437781498789025,0.09418591507067338
404,0.09438090202369565,0.0941631138065996
405,0.0943914501816868,0.09442559819030498
406,0.09438587027154476,0.09417068238510518
407,0.09438839745071294,0.0943222416839735
408,0.0944045270822174,0.09419505422216
409,0.09438923656714143,0.0941657923167864
410,0.09439212917316732,0.0941472800232429
411,0.09438788116597634,0.09418990984029815
412,0.09437441643920066,0.09426158741292938
413,0.09440150613383615,0.09418339867382983
414,0.0943871536176744,0.09420772587208646
415,0.09436176744677562,0.09415183288075366
416,0.09438469544422332,0.09452894632281895
417,0.09439957728512663,0.09433165379015591
418,0.09438524809446361,0.09417285359719652
419,0.0943680057982556,0.09428854025576937
420,0.09441042234369224,0.09423937849647526
421,0.09437082389549767,0.09412815725252961
422,0.09437392057655908,0.09417859949436165
423,0.09440782537265456,0.09415428657393429
424,0.09439081044422447,0.09437251588492857
425,0.0944275777789948,0.09416411411908074
426,0.09439443019058684,0.09417101547957031
427,0.09437636538244171,0.09423783939587571
428,0.09439326329923553,0.0942442741865423
429,0.09438543988884592,0.09447229724162756
430,0.09437643572223559,0.0941614694687543
431,0.0943815339591911,0.09423597666839963
432,0.09440377768543032,0.09413460755592834
433,0.09436863661110163,0.09412326809568676
434,0.09437511025441826,0.09429733401080616
435,0.09438398003363781,0.09420548465276385
436,0.09437704286117443,0.09416002993660831
437,0.09439561690846317,0.09415441824986225
438,0.09442618887106197,0.09416436278735359
439,0.09437253490554914,0.09409981759025435
440,0.09438340641040024,0.0942182555771194
441,0.09440052196038046,0.09414431228116449
442,0.09440149148877004,0.09430187757126252
443,0.094373777303264,0.09423880590142089
444,0.0943987224664953,0.09429017607866541
445,0.09439036011886444,0.09427665207526208
446,0.09439862012374792,0.09411602103884237
447,0.09436689335986864,0.09415839357270721
448,0.09441144578605533,0.09425494287107154
449,0.09435033820849432,0.09430669975520686
450,0.09437946741172164,0.09419417611801822
451,0.09438096883771517,0.09426836384241281
452,0.09439563725015623,0.09420130906395772
453,0.09437022772100237,0.09470059419816747
454,0.0944117221364872,0.09412788420962648
455,0.09436200719645364,0.09433891723004494
456,0.09440048440969248,0.09420434238525856
457,0.0943901825258486,0.09416392216225167
458,0.09438449767925185,0.0941245400279925
459,0.09437617256963472,0.09428724105563235
460,0.09435918440612005,0.09436278285101445
461,0.0943864276148766,0.09416278680432191
462,0.09437706190750277,0.09416056707818958
463,0.09440790464897617,0.09430487617415148
464,0.09436982703342331,0.09415606265239294
465,0.09438623161577016,0.09422396870231478
466,0.09438370513937457,0.09471763632809353
467,0.0943861669160241,0.09414496196944035
468,0.09436791747522583,0.09417480985386313
469,0.09439913203104508,0.09417744794156294
470,0.0943999222898893,0.09464329968029435
471,0.09440888405191622,0.09447974452915019
472,0.0943658046400566,0.0942422519213775
473,0.09440124013738857,0.09423416410150166
474,0.09436575795928065,0.09419357346189991
475,0.09440093398165646,0.09415019425874445
476,0.09435944590303633,0.09420671236378618
477,0.09440299076773376,0.0941761029088883
478,0.094383460041478,0.09472141367836834
479,0.09435357023879207,0.09428433654646094
480,0.09439572233030741,0.09425491299818328
481,0.09441733093475171,0.09418220760413955
482,0.0943864165938539,0.0941200185487754
483,0.09438182472241678,0.09416473289362164
484,0.09437279587538598,0.0942828174160048
485,0.0944074006448928,0.09421171074484687
486,0.09438266604543209,0.09423109880797771
487,0.09434128893936852,0.09431401021549245
488,0.09436704782094602,0.09414738063254315
489,0.09439362736819364,0.09434080747233288
490,0.09441431919983823,0.0941393918989207
491,0.09436445754411504,0.09422626352230205
492,0.09437782478501662,0.09412344319903201
493,0.09436156726378998,0.09445689626820179
494,0.0943817292465914,0.09412686845497908
495,0.09441333976116398,0.09431497816175763
496,0.09435598900933251,0.09410996079421363
497,0.09443192693779318,0.09424600220963818
498,0.09437125156239735,0.09418722453226512
499,0.09437346903921412,0.09420654918019378
500,0.0944039201606616,0.09411947825525159
