epoch,loss,val_loss
0,0.2810324150726473,0.21482216004038196
1,0.18771633592178877,0.17975720778495755
2,0.17902612260324682,0.1787954751393319
3,0.17860214422932633,0.17834198458418662
4,0.17839876158560494,0.1782501167026014
5,0.17829369988253743,0.1783105735714829
6,0.17816972550895097,0.17820140294842393
7,0.1781383960676803,0.17797546273342907
8,0.17805283727477209,0.17796800436706361
9,0.1779905852141807,0.17777287536657224
10,0.17798565510365602,0.17836619296126602
11,0.1780169050601556,0.17771113850323347
12,0.17797627644859057,0.17787900696425524
13,0.17793415326008694,0.17800199448027382
14,0.1780127764796372,0.17852697623180608
15,0.17795444247152784,0.17822013189685373
16,0.177955090767331,0.17786252713852635
17,0.17789586514329833,0.1777245700006515
18,0.1779249106034291,0.17772891278942457
19,0.17786247089660043,0.1780892287005377
20,0.17787654575803202,0.17791323693088404
21,0.17789123281776953,0.1778188078842863
22,0.1778279801698135,0.17795953402720574
23,0.1778366545276295,0.17771234603829522
24,0.1778228408772406,0.17769760294466763
25,0.17781967955599015,0.17794958628484744
26,0.1778593071692472,0.17765878912446625
27,0.17783048754925732,0.17773652734159953
28,0.17781971914352748,0.17768543135395365
29,0.17779684973825557,0.1778147102296117
30,0.1778003320300417,0.17770879235245057
31,0.17779700110236898,0.1778817205515638
32,0.17776882796764945,0.17772337170971975
33,0.17778480809917457,0.177702825560566
34,0.17778962523007183,0.17758843737882993
35,0.17776543497562788,0.1775602828755375
36,0.1777955417057498,0.17765031014028834
37,0.17777271563415048,0.17758527052336634
38,0.17776662462073073,0.17770246433383757
39,0.17774195439047474,0.17755416149733663
40,0.17776084205896545,0.17764973950931756
41,0.17776112931428387,0.17762327878702883
42,0.17776935075303252,0.17771082361476478
43,0.1777775648543589,0.17771349151066748
44,0.1777519473223854,0.17758136279675182
45,0.1777314630081709,0.17782845837964537
46,0.17773186364810434,0.17771539540157227
47,0.17770923707458516,0.17770330952487787
48,0.17771804981904446,0.17756662045582694
49,0.17773072970070714,0.17806296408082334
50,0.17770888502720736,0.1776647525291887
51,0.17772736788081894,0.17758317399937615
52,0.17773132360310293,0.17787444876137923
53,0.1777234173340382,0.1777415434699785
54,0.17773896041248055,0.17756659606355518
55,0.17774147112711633,0.17755642759113116
56,0.17768495430429873,0.17772470652210307
57,0.1776896411185261,0.17778286951775615
58,0.17768722716019117,0.1775501742664998
59,0.17769451506084485,0.1776690268102554
60,0.17768772765934515,0.1776026378090963
61,0.17771058342010854,0.17754768885395708
62,0.17769904448379048,0.17781044974417412
63,0.17768308631093097,0.17762203653355518
64,0.17770175555412718,0.17770043481214834
65,0.1776720756809298,0.17753219958497674
66,0.1777094096112118,0.17765128569002686
67,0.17767637976996906,0.17774454139073062
68,0.1776717277727634,0.17757490276114246
69,0.17769641527454916,0.17765895168472673
70,0.17767788065399387,0.17764161009673726
71,0.17764789450892823,0.1776377193764993
72,0.17766606558760484,0.17774948500090917
73,0.1776654096863729,0.17758022077034663
74,0.17765782095736068,0.1777117607766658
75,0.17768749847805662,0.1776647752749233
76,0.1776587742505123,0.177545179990021
77,0.17765790313410817,0.17760375099757947
78,0.17764364434279603,0.17762569310444964
79,0.17764566016854713,0.1775124848194732
80,0.17764642817391862,0.17760029679786152
81,0.1776329985470604,0.17752811173895916
82,0.17766568582239958,0.17756729605354094
83,0.17762624814832428,0.17766005299462045
84,0.1776275274743565,0.17751414870406665
85,0.17767439277576122,0.17779176794551166
86,0.17767098832497302,0.17750744489863243
87,0.1776366848692143,0.17757512898358568
88,0.17765525178157454,0.17756124559404723
89,0.17762548347218907,0.17773139608499094
90,0.17765713544438877,0.17760217162738565
91,0.17765209860772158,0.17762688404476915
92,0.17763021153559405,0.17756312159966933
93,0.17764904288103064,0.17760316699437487
94,0.177669602397868,0.17757738502174264
95,0.17765226466454667,0.17771141962592962
96,0.1776817034927013,0.17779917023552622
97,0.1776363759351482,0.17754923245901186
98,0.17764063589840676,0.17787338462794214
99,0.17767072433857417,0.17829069477559642
100,0.1776544092703971,0.17759116531453362
101,0.17763911343092542,0.17768950169963355
102,0.17764885258450688,0.17752587480063314
103,0.17762896785442586,0.1776030957698822
104,0.17763770158461434,0.17762826133781093
105,0.17767147738918318,0.17757059129185815
106,0.17762438571162456,0.17755463123086312
107,0.17764623790717335,0.17756795946688
108,0.17760581117001273,0.17758780526145762
109,0.17765419578237784,0.17753232919097228
110,0.17765457704841947,0.17759408575395194
111,0.17763144598542738,0.17759832498729936
112,0.17764373974119732,0.17752469084633554
113,0.17764524076815894,0.17749574887489086
114,0.17763480171859025,0.17760989967301405
115,0.1776593459977044,0.17757220549807365
116,0.17763765169371612,0.1775465627519183
117,0.17761652870810957,0.17746575578941354
118,0.17762355736905722,0.1775866912614669
119,0.17762842509362528,0.17759460490711487
120,0.17764768199764377,0.17757439316965598
121,0.17760815724527998,0.17759191271302827
122,0.17764510338802894,0.17753080452109474
123,0.1776321104986014,0.1776788095225475
124,0.17764780342245368,0.1775791035713694
125,0.17763280658889635,0.17756601293066307
126,0.17762330410887392,0.17750947344416038
127,0.17762121957221286,0.1776340344146
128,0.17763462224952895,0.1776452550242619
129,0.17765605446698662,0.17753421052431814
130,0.17763314816019804,0.17761865749825806
131,0.177648793498008,0.17759934518171655
132,0.1776313651665795,0.17748413769485635
133,0.17763678912374137,0.17751012753104262
134,0.1776532670922226,0.17757293868930488
135,0.1776501008634754,0.17758045268510397
136,0.17761641491255123,0.17757239390896734
137,0.17762071237289648,0.1778138609575115
138,0.1776295951802096,0.1775509449752561
139,0.17764480023099175,0.1775834650601001
140,0.1776381831327312,0.17753806377407502
141,0.1776430615954262,0.17755472517756843
142,0.1776260527656328,0.1775158659482247
143,0.17764610574423648,0.17756501327091628
144,0.17762980223607291,0.17765076223234538
145,0.17766242119357836,0.17748225459736355
146,0.17761582896697053,0.17747909999684075
147,0.17764687888937697,0.1775152576703581
148,0.17763026932970608,0.17760104247925312
149,0.17763400668029686,0.177531215508528
150,0.17762521216623503,0.17761166443152981
151,0.17764113225239359,0.17751161991703104
152,0.17761742523152957,0.1775029177212207
153,0.17759019807040644,0.1775157351426092
154,0.1776282721274286,0.17760417218178204
155,0.1776576818262549,0.17772736849047202
156,0.17764302032838147,0.17760097821726042
157,0.17764179977915173,0.17752367185153825
158,0.17760943862007295,0.17750988681907248
159,0.17763054622806235,0.17752044099282352
160,0.17763911113798095,0.17757576437051031
161,0.17762342002466142,0.17758696303418423
162,0.17762868685259237,0.177675398956064
163,0.17760649144792442,0.1775751454842401
164,0.1776152540275233,0.17759421571277687
165,0.1776173498264129,0.17755584960954812
166,0.17763005178585517,0.17759478003986257
167,0.17764009989732557,0.17753996650064283
168,0.17767914185087552,0.17754698368914032
169,0.17762479746489407,0.17746596252391353
170,0.17762693601379767,0.1776992067071332
171,0.17762603662568602,0.17752337320498246
172,0.17762546945247146,0.17761773600198194
173,0.17764643875124167,0.17754630515118142
174,0.17762507178443226,0.17755362303264516
175,0.17763026230793585,0.1775176480541854
176,0.17764162652784113,0.17753788387813058
177,0.1776401834557954,0.17757254039196865
178,0.1776457289390141,0.17757873439421876
179,0.17762408451996833,0.177692401863123
180,0.17762758354727123,0.17751602186353166
181,0.17763895695086576,0.17761112860129777
182,0.17762154656396115,0.17746614890015774
183,0.17763526713271602,0.17751791229987576
184,0.1776216230232367,0.17752388666583124
185,0.17764181887908137,0.17755518674897508
186,0.17760998836095385,0.17759809441329366
187,0.17762909921929895,0.17757328286261284
188,0.1776457433815864,0.17769649999999773
189,0.17764508206066754,0.17755656864055988
190,0.17762518319175494,0.17756884441003146
191,0.1776346256978792,0.177541517362222
192,0.17761491653587608,0.17760004430138981
193,0.1776100714429677,0.1776360005916529
194,0.17764475716532563,0.1774911506376402
195,0.1776042454165044,0.17764783054943054
196,0.17763966014631075,0.1775690517208194
197,0.17762803882479572,0.17748462696337003
198,0.1776064853195092,0.17783601729062568
199,0.1776250991627848,0.17762513804501592
200,0.17763713494145708,0.17754876524233498
201,0.17757970312659402,0.17753280449920314
202,0.1776232845920453,0.1775127801259108
203,0.1776047442004168,0.17753220996992175
204,0.17761105740908906,0.17753619991754488
205,0.1776228292073182,0.17759725641997293
206,0.1776461615074548,0.17759332932302493
207,0.17762322251578505,0.17766104871443905
208,0.1776127834423936,0.17772887196706427
209,0.1776278671755684,0.17756420946676335
210,0.1776115464732992,0.17763939539842372
211,0.1776063410307673,0.17759943415352747
212,0.17764222765450094,0.1775949992645229
213,0.17761371461012,0.17764197903866832
214,0.17760580570268023,0.17752412647220595
215,0.17763848651012928,0.17748260817945521
216,0.17761868338504855,0.1775534300349694
217,0.17763301234046142,0.17756484340708747
218,0.17764780033144542,0.1775439433818176
219,0.17763099864089518,0.1775043850210396
220,0.17761830067177184,0.17747029429264866
221,0.17761317590515105,0.17783154527220843
222,0.1776125281572723,0.1775740831384719
223,0.1776166275548611,0.1775523416268703
224,0.17762878933827653,0.17753371739820317
225,0.17758006407178753,0.17767051204556825
226,0.17764783763199402,0.17757799422872658
227,0.17762363314938298,0.17757825011236045
228,0.1775997501792763,0.17754324123957257
229,0.17762653875074608,0.17764476387399147
230,0.17760476793983668,0.1775179660357917
231,0.17764845551799335,0.17754564240821818
232,0.17764940445157265,0.17750844799258528
233,0.17758106568948828,0.17749876274353138
234,0.17762396857440232,0.17753633875590943
235,0.17759571322124543,0.17760580043060722
236,0.1776203631187419,0.17776228876780034
237,0.17760721917489736,0.17759630449804248
238,0.17764788690349942,0.17762453680021517
239,0.17760825965354007,0.17752047044231653
240,0.17759773641419735,0.17770275606493735
241,0.1776203213692855,0.1775464782728016
242,0.17764959375945022,0.17754719569255917
243,0.17762251175660118,0.1776164596769503
244,0.17761637792169904,0.17758211956874723
245,0.17760546969995797,0.17768888923485823
246,0.1776292123537746,0.1775187276650717
247,0.17761183833237365,0.17765647474008936
248,0.17759903603725485,0.17761076372866566
249,0.17763714442293135,0.17749877524545274
250,0.17759874688206817,0.17752007802547012
251,0.17760740786933785,0.17756540064230245
252,0.1776076213275786,0.17758949278562014
253,0.17759779529820244,0.1775099287822478
254,0.17762904008515448,0.17756462432355888
255,0.17762698298044724,0.17764436810526588
256,0.177614407007881,0.17754701120983266
257,0.17759505405628995,0.17754377469408672
258,0.17759194477594537,0.17756812933070884
259,0.17761005851909886,0.17753696699215846
260,0.17761783893826863,0.17761125012750031
261,0.17760211033977383,0.1775539482707759
262,0.177620805960765,0.1775136711377277
263,0.1776067299379719,0.17752153591650532
264,0.17763086905082068,0.1775023599450007
265,0.17760807248971444,0.17749225714588693
266,0.17760434950427187,0.1775789655092295
267,0.17760550213469972,0.17756092504854737
268,0.17762230302718618,0.17749837197322213
269,0.17763249043652193,0.1778764103516501
270,0.17762712567901726,0.17758138000306503
271,0.17758970715992933,0.17763477909630834
272,0.17760997799208028,0.17753276157162748
273,0.17760735025985255,0.17758954826216106
274,0.17759717463089122,0.17761893853862734
275,0.17760492781464526,0.17750931395351557
276,0.1776248746031194,0.17756743011694776
277,0.1776159612668885,0.17754392244727385
278,0.177611033574378,0.17757051515127603
279,0.17761365977599086,0.17761277856089133
280,0.17762906322304864,0.17758853512433165
281,0.1776422227529599,0.17756835313039027
282,0.17763094420579792,0.17756166281479968
283,0.17759431086832003,0.17760549296331668
284,0.17761784564438673,0.17753880012900977
285,0.17762017901614607,0.17754036538602802
286,0.1775995324031531,0.17755258320915293
287,0.17763116938485612,0.1774742617179958
288,0.17759913960687643,0.1776801196486346
289,0.17760464438884188,0.1775894525513088
290,0.17760505308683733,0.17767778004871737
291,0.1776072015936712,0.17746663180598143
292,0.17761214235894304,0.17757118118731358
293,0.1776115829102713,0.17756237590651675
294,0.17760437275532434,0.1775173360824397
295,0.17762200325298652,0.17757272271067492
296,0.17763687551116866,0.17752430253407103
297,0.1776118500889253,0.17754003767809157
298,0.17761211589776832,0.1775302479092117
299,0.1776383346338257,0.17789861812728922
300,0.1776238989105804,0.17754832895703454
301,0.17759821925470107,0.17752311336965945
302,0.17760769685776495,0.17750462096981298
303,0.1776321893937582,0.17764402497868512
304,0.17758283384745832,0.17751749854861232
305,0.1775930918794837,0.1775890242752355
306,0.17762580802210037,0.17750620158667063
307,0.17761217711640775,0.17749446002441593
308,0.17758813065638263,0.1775775719507529
309,0.17760962574220865,0.177523217560178
310,0.17763862132930833,0.17756570983845696
311,0.17762604927559264,0.17762022511923323
312,0.17761197519435776,0.17769806485714268
313,0.1776278225733317,0.17748054311608552
314,0.17762856581490294,0.17753373153490068
315,0.17759200532754643,0.1775605440398512
316,0.17760986098639972,0.17869562215238646
317,0.17760575765209327,0.17761782547951496
318,0.1776113789871061,0.17755350644605405
319,0.1776012317370549,0.17754249874540642
320,0.1776382766312642,0.17757461496997087
321,0.17760624796104468,0.17748892104992645
322,0.17761438541251312,0.17759455311176056
323,0.17760662412305148,0.17756534364859514
324,0.1775762879079004,0.17759754338787595
325,0.17761867062198364,0.17769018156658314
326,0.17761480943452446,0.17752977417695212
327,0.17761712330732224,0.17754581142525647
328,0.17761721607330416,0.17755206570252718
329,0.17762886966875702,0.17751315812379614
