epoch,loss,val_loss
0,0.5568099537198778,0.4857244125575462
1,0.483257010900717,0.4746153689127036
2,0.48417080444492977,0.4779764976714103
3,0.484269959820832,0.47524994973978285
4,0.4841488349399597,0.47885512529439406
5,0.4841590938593844,0.4817101153550227
6,0.4831980376196899,0.4819237762252082
7,0.4846459784977537,0.4806160279259309
8,0.4835821095940402,0.4836268721599699
9,0.4836352939466588,0.48241172322816706
10,0.4828381041209284,0.4765445707393803
11,0.4832299994073993,0.47160663379866397
12,0.48328406240442673,0.4798160457620493
13,0.4828801110660811,0.4754954837115618
14,0.48234076389401176,0.4796785774340099
15,0.4830413454180236,0.473640159678064
16,0.4822677741233679,0.47182053153497927
17,0.479596562808652,0.47182861614998817
18,0.47876380356572135,0.47129224531276076
19,0.4784685551381702,0.46591583696424066
20,0.4782229450990637,0.46630155183992333
21,0.475991063111787,0.4713841968384331
22,0.47498952505066333,0.4671010922143661
23,0.4730158326961249,0.46876802981699556
24,0.47397134936065505,0.46721193970614
25,0.4726783700888868,0.4659197681892925
26,0.4729176425128627,0.46562980601142123
27,0.47216301554922674,0.46259350480766115
28,0.4708980216825609,0.45892437057600494
29,0.4689722630045683,0.4691286709897614
30,0.4691294081253018,0.46157882342022427
31,0.4672949082917161,0.4598831579547843
32,0.46542803901467295,0.45803617565483207
33,0.4673851012802429,0.45759314606767426
34,0.46722314179801255,0.45657698870081553
35,0.4644290684081382,0.46653897736894867
36,0.4632952330971984,0.45302466336628916
37,0.4607380083520159,0.44924321297876646
38,0.4610095574772901,0.4621761695267934
39,0.46056262544876664,0.4571862101743046
40,0.4608529826267351,0.4557306245498612
41,0.46072881776604246,0.44930193213938535
42,0.4593886126526635,0.45001153291541945
43,0.4566525258034539,0.4456165241461244
44,0.4575337735559348,0.4542872434586357
45,0.45672764534429966,0.44710115045191456
46,0.457815729611688,0.447281594881413
47,0.4564623446296826,0.4443913575882223
48,0.4558173063085329,0.4475413019627027
49,0.453843689400801,0.4494087857906519
50,0.4533336212833246,0.44334624758271035
51,0.44658478846748195,0.4342102397824237
52,0.37821680985146955,0.35653376932114056
53,0.363160266245393,0.35895814934205894
54,0.3560808935492254,0.3446874402363468
55,0.34884960899393047,0.3413621528278492
56,0.33767347139039106,0.3137672657136759
57,0.3267200050546492,0.3234387524455386
58,0.3344403354526995,0.3158784465895173
59,0.33478476524019507,0.3353424772043913
60,0.33749653714642724,0.3403710922154274
61,0.3392509862387495,0.326308799617951
62,0.3393376968580661,0.32066047024613964
63,0.34047684919157567,0.3358937038054312
64,0.34054734048654706,0.3260512740572513
65,0.3397018374036923,0.3261590455118464
66,0.33761783464730594,0.3253373544377987
67,0.3314219900339151,0.31576553097651905
68,0.3281198164803995,0.30614897858089785
69,0.31926455379104157,0.3010694632261121
70,0.31656514283278575,0.29087748221506166
71,0.31367175905205175,0.29976345823332373
72,0.3116235054082436,0.3059738410817608
73,0.3063817319871901,0.2949290711553245
74,0.30683837901297617,0.29830977722896584
75,0.3111965614114162,0.3016308633332753
76,0.3224371727779329,0.3098275133165301
77,0.3284757662353089,0.3138418561751765
78,0.3364731190706805,0.3301320413528885
79,0.3479996110252339,0.3317511126622499
80,0.3532453479288484,0.33821696400548307
81,0.3523191932937224,0.34552896869587163
82,0.35325037482545246,0.3439958427445382
83,0.3536510609274955,0.35924512093802935
84,0.35419849355777294,0.34329151959050425
85,0.3546082793975429,0.34261171636190013
86,0.35567053848748015,0.33999438154575107
87,0.3561763121522397,0.34958015494019196
88,0.3593217358767367,0.34979692101478577
89,0.3577586241262994,0.3484929385106208
90,0.35846309741433385,0.3441114796130038
91,0.3588978223306098,0.3423879826125331
92,0.3597677316334989,0.34621315359504745
93,0.3597096536490176,0.35247498186159626
94,0.360131883614069,0.34630633110875864
95,0.36050455172141965,0.35045841395055205
96,0.36177370436995815,0.3456012885120786
97,0.36166940692612687,0.35290241133254063
98,0.36045038205780666,0.3530932831641907
99,0.360379793041711,0.3466810466458502
100,0.3603373007665721,0.3446396951282128
101,0.36291253316602545,0.35484941533069114
102,0.362659088153538,0.3556983756238114
103,0.36347539917075283,0.35213899944086385
104,0.3647761918324456,0.34798799366958516
105,0.3640391148990102,0.3513216384537312
106,0.36372695245045267,0.3511423989365961
107,0.36354299492353825,0.35358969388557593
108,0.3653018283520004,0.3634123661758962
109,0.36588853272459776,0.3505987842767937
110,0.36579398160501064,0.35493057505201897
111,0.36589320171937095,0.35196736389102196
112,0.3658938730577771,0.35722407658643957
113,0.36631886593157725,0.355118484104724
114,0.36743113311598724,0.36147026370713914
115,0.3679801126440271,0.35993239826918966
116,0.3690607173503827,0.36009804315235827
117,0.3684279801938936,0.362203237077996
118,0.3682356207586116,0.35559742292646546
119,0.3689781844639759,0.35639459296955117
120,0.3680246822672973,0.3576670243407011
121,0.3686980316154867,0.35373333550478026
122,0.36889780096584657,0.3586519946944742
123,0.3691265962654643,0.3558763949863536
124,0.36785655639630904,0.35304561356154596
125,0.36717596567934935,0.35527944421335383
126,0.3670805146177705,0.3645162943929975
127,0.36632979424784984,0.3555833603701633
128,0.3668978585304021,0.3515201846538986
129,0.366965740168695,0.35311260301952013
130,0.3658567617217795,0.3542701353590227
131,0.366534109738805,0.3612841573538701
132,0.36621850129845235,0.357817800334804
133,0.36734832514771265,0.3598293454842767
134,0.36789540518864355,0.350470067623006
135,0.3664135750320604,0.3520900497967179
136,0.3674100009705142,0.3556607226122997
137,0.3670940535317222,0.36012547784841425
138,0.3669839287928635,0.356266531355285
139,0.3679491438382535,0.350850806004811
140,0.3674247672589277,0.3514485064932184
141,0.36745271614367825,0.36106579738427264
142,0.36670363774831344,0.3537858108318783
143,0.36729042128407413,0.35551785639448247
144,0.3672542669933191,0.3526993655697417
145,0.36690163450370683,0.3546827119123117
146,0.3663733859451936,0.36065620713188784
147,0.36725327551221965,0.3497770124048159
148,0.3679208686168817,0.35440932144870324
149,0.3685524339775006,0.35595807837706056
150,0.36841203028158986,0.35631083771762834
151,0.36762573530109854,0.3553581913108419
152,0.368652775716915,0.35715065885926195
153,0.3684453582830376,0.35811061349174783
154,0.36908482560675016,0.35372840382023507
155,0.3676501050484266,0.35663984060852005
156,0.36887814890709425,0.3576914347478886
157,0.36743461499683006,0.3584000391807722
158,0.36838277650298734,0.35605070575918846
159,0.36663229497883626,0.3611983726743459
160,0.36685807008346877,0.3506122910797643
161,0.3682425156247606,0.3584903600701405
162,0.3683706949249827,0.357816601020667
163,0.36647006470284205,0.35146821610741286
164,0.36720825749621405,0.36566408257269917
165,0.3678173472007497,0.3583788970322146
166,0.367339296258992,0.36653998512965824
167,0.367016063605567,0.35747637406238536
168,0.3675813579397331,0.3626199410059552
169,0.3668105267792297,0.353925973294566
170,0.36756006924273205,0.3602216875543722
171,0.36718261741000496,0.35637622584765977
172,0.36858522682357653,0.3516691441882193
173,0.3679330629362858,0.3618874756858964
174,0.3679934840479629,0.363358174780738
175,0.36847072994585134,0.35487810718138196
176,0.3679179938481771,0.3590795861141081
177,0.36684335160741416,0.35745484730627186
178,0.36882054619937776,0.36234927318560956
179,0.36826645370295863,0.36054834796390667
180,0.3671880686025825,0.3585397562316392
181,0.3662475559065382,0.35607836490177974
182,0.3680804607560404,0.35999855307396134
183,0.3684317758090967,0.35198605820336676
184,0.36806889228540646,0.35421397912756325
185,0.36803265039821703,0.3560928647548266
186,0.3672846554876041,0.36210477509739464
187,0.3677851091162097,0.3572925242647564
188,0.36898812125150343,0.36137034329449746
189,0.3686263726340781,0.3558797539456585
190,0.3674542343587898,0.3562938664123216
191,0.36722847066527836,0.3646206319943694
192,0.3676234242155683,0.3634086912696345
193,0.36676538857719976,0.35183084850811824
194,0.36683064684879296,0.35839113821264507
195,0.36764846956558367,0.3669431103009734
196,0.3668551960175367,0.35648625802128164
197,0.366503058696727,0.36157458787747226
198,0.36652159347808616,0.35821594419023983
199,0.3656503729087462,0.3649130807726423
200,0.3666830324559665,0.3525653152646469
201,0.3659102516018039,0.35431252117691403
202,0.3659834367670506,0.3659851317247633
203,0.3656355068861819,0.34761810850796027
204,0.36347158528346235,0.35040263190642057
205,0.36422612723543774,0.3560289402787104
206,0.3648018066545756,0.35381128725425975
207,0.36425676172395216,0.3508787610066059
208,0.36380018059202995,0.35055509127306017
209,0.3639938605131863,0.34899605854157867
210,0.3637387464157969,0.34640005132111396
211,0.36346173600898946,0.3489098825036962
212,0.36392915632417927,0.35608334562961
213,0.36345165252066153,0.3594670805671409
214,0.3638057884552496,0.3528926438389562
215,0.3641859855202081,0.35231315746209524
216,0.3645550444257631,0.3634189568877502
217,0.3657814554220957,0.3544007456010971
218,0.36520955571644215,0.36423966163900207
219,0.366077216075574,0.3587588216953609
220,0.3664338642911469,0.3528621220504005
221,0.3663223956009562,0.3633219657823055
222,0.3670160093848749,0.36697603356396014
223,0.36893299453073647,0.3616031670815002
224,0.36891499822802964,0.354538766789267
225,0.3678576884200152,0.3571123605933637
226,0.36706970483183765,0.3522036960017709
227,0.36688472182868864,0.3526653612139852
228,0.3675831353707279,0.35757954845582773
229,0.36726370134609015,0.35703793894896474
230,0.3672950927325957,0.349051603343229
231,0.36692681098632296,0.36203335887725274
232,0.36702905087876947,0.36591664855180994
233,0.3671324505723066,0.35238389545006366
234,0.36749797293560493,0.3585658761913041
235,0.36869368603904185,0.35785964437140755
236,0.36832903351762786,0.35969524622998467
237,0.3664110547347034,0.35576728129819707
238,0.36552764476536753,0.35059799563254346
239,0.36671241968989277,0.3600019588184432
240,0.36814391489128034,0.3569652070045095
241,0.36772928704365454,0.35518436149150817
242,0.36757038974409384,0.3488211886752941
243,0.3668805024773478,0.35691895636405735
244,0.367789135824481,0.35599633077513826
245,0.3670379440490005,0.35531593545177553
246,0.36738953212325237,0.3515046898925408
247,0.36672665998280096,0.3522948028774081
248,0.3675787031864948,0.3575193445891401
249,0.36739020466470984,0.3560819712650522
250,0.3674337453217053,0.3614122706223588
251,0.3674630565847234,0.37089690361421884
252,0.36683460833023873,0.3531875203421667
253,0.36741650185520225,0.3575653202108445
254,0.3684572076483024,0.3554955136616021
255,0.36714650251024916,0.3546650483792658
256,0.36758172525156985,0.3609546025202043
257,0.3682855409112194,0.36102845900248803
258,0.36750876988104875,0.3535512895356414
259,0.3670966322664067,0.3540365239862579
260,0.3683534008469418,0.3530063934935861
261,0.36759301684171464,0.3568551666687677
262,0.3672769369719793,0.35416552737272905
263,0.3675529788033091,0.35676194239340153
264,0.36777414542307957,0.3554819208153045
265,0.36791243764469855,0.35851956813374936
266,0.3682007611298161,0.36083104627849366
267,0.3675158278261729,0.3573812090372042
268,0.3683386012780771,0.35760618956802204
269,0.36894329889215155,0.35219154653345963
270,0.36832565244296184,0.35572109080339476
271,0.36775956641760565,0.35554847175339216
272,0.3682144653025291,0.3615166599485191
273,0.3663302824127493,0.35592637089358226
274,0.3666429264987592,0.3484656552724605
275,0.36773227606650644,0.35762929617652955
276,0.3670438687673671,0.3569909128365596
277,0.3669930950557585,0.35516462614429023
278,0.3669500674584882,0.3520112175732592
279,0.3659653246021576,0.356151662149482
280,0.3666942884310258,0.34791821253139765
281,0.36606017486464015,0.3649492340005093
282,0.3668573562213652,0.35188381869019536
283,0.3668758688356093,0.36212209208141466
284,0.36666662849301246,0.36346579745894075
285,0.36629199230080123,0.35545820216541696
286,0.36637633756624993,0.35171989432073714
287,0.36615919997747376,0.3513867098605812
288,0.36730548201038016,0.3600796019362952
289,0.36640168799103784,0.3538436352406888
290,0.36625714212965715,0.3581856020153651
291,0.3670999344995172,0.353510256089276
292,0.367634015927593,0.357198869913887
293,0.3662062467788335,0.3562804717150088
294,0.3674426869355994,0.34871506596891166
295,0.3677521782289211,0.3531870021063602
296,0.3676002536841529,0.35437348800187235
297,0.36721574469245405,0.3549660442613106
298,0.3668236235301081,0.3502818551370264
299,0.3679725853421038,0.3509244852726537
300,0.36723693778856004,0.3526264648552287
301,0.3665601691062883,0.36268383958439426
302,0.3663361648932921,0.3575149628009585
303,0.3662183476294831,0.36000830621915064
304,0.36610915996044946,0.3540953520535482
305,0.3662875843562668,0.35243809912368457
306,0.3669397281013804,0.3493409809063247
307,0.3658952140669933,0.3495932372894076
308,0.3671704280814774,0.3517866029265177
309,0.3661365571925394,0.35203063121064027
310,0.36595877058071485,0.36598910825310865
311,0.3664131554291784,0.3488861483528375
312,0.3666572667521348,0.35044338544147074
313,0.3666164405483136,0.35558908719101945
314,0.36644839424547626,0.3521941442045529
315,0.3666016421586775,0.3623686293118002
316,0.3656496313645495,0.35896829292825005
317,0.3658724104900726,0.35359808590907044
318,0.3666133972928583,0.353299196794829
319,0.365296939496609,0.3597232582254869
320,0.36580912468673515,0.35247823892377356
321,0.3662690601760535,0.3607167147376355
322,0.3667200410084949,0.3561266998936082
323,0.3661998262484487,0.3549639204636087
324,0.3657024505374719,0.35567574368844185
325,0.36692702197294824,0.35358490662586056
326,0.3674114227151985,0.35216012258367835
327,0.3674110712812578,0.3529022203342314
328,0.36597674178610223,0.3569656526985936
329,0.36607416790071057,0.3707070267614456
330,0.36600105226230467,0.3528534850692222
331,0.365415905638755,0.35257597297030163
332,0.3658198692101083,0.3525717383825412
333,0.36665196358252294,0.365381341071795
334,0.3661487751441608,0.35169788642294686
335,0.3657563112312846,0.35648025474683825
336,0.36579399784024863,0.35333388465167787
337,0.3664041332465758,0.3580597770336395
338,0.3661691076773629,0.3513825630567727
339,0.365326722343858,0.35480462394554785
340,0.36636514853325775,0.3543866076098715
341,0.3667202448006347,0.3553248941192687
342,0.3679009854412384,0.3608221997872242
343,0.36763113463144126,0.3519378768804982
344,0.367219160202977,0.3530245265955048
345,0.36837032356327004,0.3534917018737206
346,0.36729819603341757,0.35584906980854
347,0.3687637832453497,0.3646841862818907
348,0.3667594799273115,0.35881334180989977
349,0.36786077134043194,0.3541361746725927
350,0.36797929321118683,0.360394401774222
351,0.36717830491151743,0.35542745548340876
352,0.3657878149065564,0.354592843938269
353,0.3671133182913089,0.35270069799464615
354,0.3686302374426028,0.35622094419873784
355,0.3694201555969618,0.3663275521763122
356,0.3699805311662116,0.3615266780921015
357,0.3616390803234754,0.32911210205485336
358,0.3435909934729028,0.32940640455169196
359,0.34069294086415514,0.3284964711297283
360,0.3392707667738604,0.33051677712701677
361,0.33832383011694817,0.3318056898645839
362,0.33695550753677683,0.3251732483141612
363,0.3369230602999671,0.32802461874513245
364,0.3372835644024263,0.32659492616401287
365,0.3372266129981414,0.3224461103812295
366,0.3374035247772051,0.33459165236003396
367,0.33703409708279974,0.3272517355013383
368,0.3373343053219511,0.326223652853962
369,0.33697469353818776,0.32245677958912233
370,0.33624275346739974,0.32632916041406573
371,0.3361386942158309,0.32719739518865604
372,0.3366325805656058,0.32162522632208224
373,0.3357047571910085,0.33472686236828636
374,0.3358268721474351,0.322979150603113
375,0.33552184876063457,0.32696767481839273
376,0.3367440581417008,0.3294646760423821
377,0.33703999046227345,0.3225668549725834
378,0.3367788099365936,0.329186273307996
379,0.3368432411758734,0.32876669979509443
380,0.3364953795354143,0.335691983928432
381,0.3365382308201443,0.3234191326617066
382,0.33597927037284053,0.33164160152354766
383,0.3371090278041353,0.3232988362342425
384,0.33756845059107055,0.3243125985481651
385,0.3369749325880711,0.3266795712986986
386,0.33676837412096994,0.32987947203365947
387,0.3385218097080144,0.32971839551485327
388,0.33931979533436774,0.3289449667733019
389,0.3389532527358507,0.32737895328883776
390,0.3382470322955998,0.332021400838173
391,0.3398136386244322,0.3291220810814175
392,0.3393400218322885,0.3287701765053274
393,0.3401306459872271,0.3293156100006299
394,0.33988037663731546,0.327322095703119
395,0.33980172902321837,0.3278394044151246
396,0.34030716912113695,0.32525071638159236
397,0.3409682748248156,0.325986653825102
398,0.34231218727801344,0.33790699409610564
399,0.34129332487198183,0.3312980706943897
400,0.3413246959852848,0.32998688045033525
401,0.3426560874132039,0.33913310228508103
402,0.3432590814469625,0.3345523376161881
403,0.34286086505456126,0.34271873819517545
404,0.3434335647774734,0.3301321918228619
405,0.34335054336882515,0.334913558464118
406,0.3443817053672126,0.3401270185104015
407,0.34280374753389425,0.33538971317971705
408,0.3432326624147612,0.32842753776999656
409,0.34300235335489543,0.335361244881727
410,0.34198825335283456,0.32962830951577016
411,0.3416593003091957,0.3311117127737664
412,0.3433580626662877,0.33335962519931717
413,0.3442660594801251,0.3299994685796649
414,0.3446862956674265,0.3394810533373019
415,0.34466411018495463,0.3261890515344013
416,0.34562994823229015,0.3377509308359994
417,0.344740123735915,0.33504426533440107
418,0.34450786014636164,0.3360873574615936
419,0.3451419902219475,0.3291984132263918
420,0.3454295726393243,0.3376242740001844
421,0.3452719961353343,0.3309757587424205
422,0.3454140733948333,0.33148688454277986
423,0.3453250158247616,0.33483923815231953
424,0.34443607148554306,0.33126278973133805
425,0.34476123716857887,0.33130974930012047
426,0.3460608316506509,0.3429766376844615
427,0.3444143244378763,0.3389250679145954
428,0.34517252610789406,0.3303760936999754
429,0.34412886177321417,0.3384924552858393
430,0.3461452261459151,0.33467859700145736
431,0.3451771483385115,0.32887614297885637
432,0.3443116121154895,0.3359055393967181
433,0.34537469890477845,0.3364395903101472
434,0.3447336203260102,0.33094136241673483
435,0.34500333950292766,0.3323625978655766
436,0.3456001979150742,0.3301243337007988
437,0.3447247054412973,0.3324635221013518
438,0.3453835458706895,0.3314911668095517
439,0.3434476442069268,0.3324294889311952
440,0.34480887980198116,0.3339256779500228
441,0.34366888970398696,0.3430197559526424
442,0.3446364269839774,0.33142147131481786
443,0.34337560718151017,0.3368377768108952
444,0.3447248479016393,0.3309372253510175
445,0.34403663117298594,0.3347955903342698
446,0.3435959584064049,0.33366323392411906
447,0.3445464312124977,0.3386522483995042
448,0.34442514998259116,0.3365792825688691
449,0.344131666419508,0.33718336943387045
450,0.3437882805709168,0.338690067640702
451,0.3455508372051824,0.33370034901194434
452,0.34397926861100153,0.3331847860056675
453,0.34390588888494994,0.33404445427086943
454,0.34414930502287777,0.33693598978803585
455,0.3429815258434732,0.33446723737863454
456,0.34407884933108046,0.3377451230290375
457,0.34369816412504534,0.33965532807449517
458,0.34451386886391994,0.33286311229854093
459,0.3437620900946555,0.3414733132087253
460,0.3438732034320549,0.33360616395863
461,0.34283517775156325,0.33098525324014577
462,0.34324008092986974,0.34009567766370224
463,0.3438652523939939,0.3336378731827333
464,0.3428636788726329,0.3297587336285809
465,0.34373216649039473,0.33676906573367854
466,0.3437551687732875,0.33631667005517113
467,0.3436171536942085,0.33294768914897893
468,0.3434695508911741,0.33238682463682817
469,0.34371652424954874,0.3397734629750346
470,0.34327068559223894,0.3310694155630956
471,0.3434455082904425,0.3291003012760662
472,0.34246310414217834,0.3366404456845775
473,0.344368259254977,0.337396095988312
474,0.3432036850759261,0.3373691580760357
475,0.343414483179482,0.33375789840200704
476,0.34292244441884695,0.3316049059498658
477,0.34350684590095715,0.33741717705034135
478,0.34299725668131115,0.3315341278334349
479,0.34281252307905186,0.34593027794840964
480,0.34309218648812184,0.3349923366341143
481,0.34295955998339145,0.3345796869745759
482,0.34357946724009264,0.3322809802657897
483,0.3417070938362111,0.34227943460397486
484,0.34326141236497343,0.33364993507879026
485,0.3427034611944005,0.3337536672249307
486,0.3435392042906355,0.3347784956092428
487,0.3424829700343805,0.3368175508896949
488,0.3435750217389146,0.33568030518156955
489,0.342724993801136,0.33827580075237634
490,0.3430955909567771,0.3361117388662054
491,0.34373987693009045,0.33177246166291724
492,0.34212274810107207,0.3372034610211614
493,0.3432139324651157,0.3311645286753127
494,0.34322204773755766,0.3367326543052646
495,0.3428502937467645,0.329688092880392
496,0.3430268138194446,0.3315629395049862
497,0.3427794392613008,0.3376419828600458
498,0.3420730725133257,0.3329254353761485
499,0.3431417226767559,0.33640356635896823
500,0.34333664251507806,0.33457277866922785
