epoch,loss,val_loss
0,0.18751598296346042,0.07634501898662725
1,0.07275107598675193,0.07188517234531461
2,0.07205180631582733,0.07129704934010472
3,0.0717953938579888,0.0710397107084153
4,0.07177864813910638,0.07121065110791454
5,0.07186758072434855,0.07143825666880457
6,0.07159526406569208,0.07164813193250756
7,0.07164471343957739,0.07129205083849398
8,0.0716551758622904,0.07122932360658235
9,0.07164520372321709,0.07100811125541542
10,0.07166133594842886,0.07180723959569774
11,0.07155495613283343,0.07267276917443843
12,0.07151867222371433,0.07112555491613796
13,0.07146366627263032,0.07263964698036167
14,0.07155111998313671,0.07193867461175174
15,0.07147119887810435,0.07096400110149534
16,0.07149918357150065,0.07103189006271378
17,0.07145398671773794,0.07138765095229589
18,0.07144961935087597,0.07172710020403836
19,0.071443293653101,0.07209798082380005
20,0.07151330520155476,0.07161520140417561
21,0.07141605279833484,0.071064824039953
22,0.07143349705679382,0.07110903082502198
23,0.07136408852295671,0.07113518852273028
24,0.07138675336035893,0.07110437522359316
25,0.0713259645184572,0.07100704391417112
26,0.0713477283373749,0.0708375695648867
27,0.0713261974831041,0.07093750765134052
28,0.07136727014867712,0.07108831132490896
29,0.0712883446282215,0.07119685726647501
30,0.07127424573405183,0.0709691146666503
31,0.07130591290966451,0.07200150736023238
32,0.07126852702185643,0.07152460984762202
33,0.07127348498123394,0.07091521939531781
34,0.07123509386061526,0.07098379959341289
35,0.0712812814227254,0.07080750304091231
36,0.07124058569935586,0.07091422413711766
37,0.0712800135227035,0.07117011478345697
38,0.07120858455787031,0.07086338179263903
39,0.07118884291050198,0.07090445438248488
40,0.07116854076476978,0.07076904962123053
41,0.07120389687262184,0.07109106941870469
42,0.0712243824300887,0.07240057121535973
43,0.07115089029169007,0.07130702612326197
44,0.07119890690582405,0.07073498263825745
45,0.07113682755606351,0.07105398752624441
46,0.07117933984235418,0.07088617205431637
47,0.07116305432189331,0.07080213238662307
48,0.07116587974464626,0.07079967698810039
49,0.07121829355625417,0.07151109907826102
50,0.07114700120624354,0.07078782462565657
51,0.07111461286535033,0.07072137838969009
52,0.07114135944764677,0.0712666919259406
53,0.07117118385079191,0.07138666264483472
54,0.07118105005731971,0.07084324932124263
55,0.07108839696867289,0.07066535062635143
56,0.07108731493562293,0.07101189597394397
57,0.0711381044789708,0.0705929752542169
58,0.07116874561553521,0.07078419852452007
59,0.07106584677700516,0.07087965180837176
60,0.07115245983749033,0.07084188615019715
61,0.07112042156519364,0.07060503066997408
62,0.07103859594644164,0.07086306454609395
63,0.07109846119775617,0.07083701391740399
64,0.07111871183115087,0.07081958689765848
65,0.0710856821373117,0.07076639904337034
66,0.07103252394063819,0.07083063769641597
67,0.07113847284496641,0.07073187991247558
68,0.07104967771281155,0.07120568814210376
69,0.071078878183433,0.07204436480516793
70,0.07111103712118787,0.07066490312107643
71,0.07105521193975739,0.07098916852765885
72,0.07105437224413708,0.07077469786110127
73,0.07106291889983544,0.07077640601990255
74,0.07108825861925272,0.07077643498425513
75,0.07101001748911959,0.07152024024675564
76,0.07103062795696975,0.07066447924949
77,0.07108782000875444,0.07146267181860713
78,0.07106020222816298,0.07074456308522183
79,0.07112988801323157,0.07091215272575922
80,0.07097296217839114,0.07075271862775863
81,0.07109337344134359,0.07065383690661488
82,0.0710565941222161,0.07068917314039033
83,0.0710278829257432,0.07064958059044456
84,0.07109891949333161,0.07088297894246576
85,0.07103673544683331,0.07099352975176748
86,0.07103665211914684,0.07067567574032292
87,0.0710450645363469,0.07059521749968499
88,0.07100991552455915,0.07069805438829485
89,0.07104052871102386,0.07114473349563984
90,0.07098483659928556,0.07116891102955016
91,0.07105494715380582,0.07073174100648538
92,0.07100737078054298,0.07083789346814626
93,0.07102015876709271,0.0707054636643313
94,0.07103892232028605,0.07060162342890756
95,0.07107374004924373,0.0712117738815961
96,0.07100676576630008,0.07083658651164318
97,0.07104237693891251,0.07057816390280378
98,0.07100302207586671,0.07073342528755776
99,0.07098992607689543,0.07113155621767703
100,0.07103723294580346,0.07132561216108801
101,0.07099160700768446,0.07063550595855657
102,0.07099280915975714,0.07069683068776658
103,0.07101213894814229,0.07286470017051169
104,0.0710362100186084,0.07074799457742835
105,0.07100227756424249,0.07058137747287845
106,0.07096615808455349,0.07062579205093557
107,0.07104547142380957,0.07086889628664941
108,0.07101176694321404,0.07070388617295398
109,0.07096689533320168,0.07083335036048762
110,0.07103369582584389,0.07097084522129704
111,0.07095622507889542,0.07210978127033953
112,0.07109171458833415,0.07059443603551284
113,0.07096473241655184,0.07143039326312134
114,0.0710294192432047,0.07096680940585336
115,0.07097545364718262,0.07059450024458114
116,0.07109833988163779,0.07063480190221211
117,0.07091805118200877,0.07128641142523844
118,0.07096411337961349,0.07084301133193928
119,0.07098930354247228,0.0706113207359058
120,0.0710279724116234,0.0707636649243316
121,0.0709498928045388,0.07064343599901014
122,0.07102352347847321,0.07057992416568507
123,0.07102955462817523,0.07072458078389386
124,0.07091228557016542,0.07117048801520535
125,0.07100883898862022,0.07067055519796679
126,0.07096141471053294,0.07078346273117209
127,0.0710118585135892,0.07086498245020598
128,0.07098909036117158,0.07074314586659446
129,0.07095240226103296,0.07062165350921529
130,0.07092140875399398,0.07114648414392027
131,0.0710147640375282,0.07064361057017107
132,0.07094714771822203,0.07072984508952478
133,0.07099335628608577,0.07075360569082666
134,0.07094661673481802,0.0706238790158691
135,0.07096676672432872,0.07119311299689567
136,0.07100272339156015,0.07061517802555917
137,0.0709517138550798,0.07087640840363202
138,0.07097150983332064,0.07069155307458722
139,0.07097748357305328,0.0706438616788472
140,0.07094339714299956,0.07092948655150214
141,0.0709769841101911,0.07056205439210032
142,0.07102668306959285,0.07052764540572004
143,0.07097332907779563,0.07055483727871008
144,0.07101126758159874,0.07058219576067781
145,0.07097589020445336,0.07051663210096562
146,0.07097612435428453,0.07133837086872595
147,0.07093255653036394,0.07154525323655536
148,0.07094763308840928,0.07075822448626973
149,0.07102583498239136,0.07062038841885944
150,0.07093592258922155,0.07075112320088738
151,0.07094479531800146,0.07066354687136746
152,0.0709858318860773,0.0709456232859332
153,0.0709386150182175,0.07068808280055036
154,0.07096728059700687,0.07077650038118238
155,0.0710050654794863,0.07075539651461352
156,0.07098474510931235,0.0707908085743649
157,0.07104686787612528,0.07061720519211223
158,0.07098016903388034,0.0706227024533472
159,0.07092251526050383,0.07057044541885181
160,0.07096172030047357,0.07059980977411899
161,0.07098991263934748,0.07089417908508286
162,0.07098274853089445,0.07063045492064982
163,0.07096153105066406,0.07123874520093508
164,0.0709534865289593,0.07070457985905465
165,0.07095890161510614,0.07072227824282346
166,0.07098306481131642,0.07057985139168334
167,0.07094295609215323,0.07054178474945823
168,0.07097644937767399,0.07071651009094461
169,0.07091336264807305,0.07065471941818378
170,0.07098892785096578,0.07058694440321651
171,0.07095009082411644,0.07061385732635138
172,0.07097998395901647,0.07053593804305618
173,0.07093101741372349,0.07062588472745507
174,0.0710245262486019,0.07081183445387783
175,0.0709099105993311,0.07091014097196997
176,0.07098730853338131,0.07067935430130906
177,0.07093493182280605,0.07056621375075456
178,0.07098318785607671,0.07131768441990594
179,0.07092020088147155,0.07054940107754111
180,0.07105422349755379,0.07068530533054068
181,0.07093905666910058,0.07080547149633458
182,0.07091223378386571,0.07061572998303453
183,0.07095314920853844,0.07065361812299127
184,0.07096776074106745,0.07076255924523395
185,0.07096088027877868,0.07073912702812486
186,0.07098618800864279,0.07065879469171413
187,0.07092473398206188,0.07067836103365473
188,0.07096235656725179,0.07065337031326994
189,0.071001521884192,0.07054826020959239
190,0.0709075078347342,0.07068999504763118
191,0.0709838268029199,0.07059547353621158
192,0.07097344649888629,0.07071112437672096
193,0.0709258257288584,0.07083058585401775
194,0.0709600552356691,0.07114824988741807
195,0.0709354475670629,0.07071323430234744
196,0.07094746800534112,0.0706918528531373
197,0.07097959207842866,0.07060089113445102
198,0.07100807007500451,0.07071306148945297
199,0.07093471233590806,0.07059887870734567
200,0.07096143034424522,0.07076396790186815
201,0.07089282265550893,0.07052726776654455
202,0.07104165883486172,0.07067349439614762
203,0.07090872040481495,0.07122050588854957
204,0.07088602394115724,0.07055466456872418
205,0.07095154752727036,0.07074461939973255
206,0.07096068672448706,0.07113996038438301
207,0.07092501225618483,0.07111498446225085
208,0.07095449335045284,0.07083900326358679
209,0.07098432903518255,0.07053512761453144
210,0.07087962885054468,0.07094582122028015
211,0.07094415976888509,0.07103549209794568
212,0.07099112154518386,0.07094000488954824
213,0.0709339740569238,0.0716471100974337
214,0.07099102525789437,0.07064364997239309
215,0.07095487280893954,0.07085073925701764
216,0.07090383837763355,0.07072619159412648
217,0.07098223853835481,0.07185852410008611
218,0.07099225278422654,0.0706070383956278
219,0.0709079627668281,0.0706943243259789
220,0.07096214616875188,0.07076146425392653
221,0.07096026316404247,0.07057693805589672
222,0.07091005175090809,0.07089381951371233
223,0.07104163364969569,0.07057809441599586
224,0.07086697061338441,0.07067418123735814
225,0.07097469696657453,0.0709931022225164
226,0.07090014375918965,0.07095065374506583
227,0.07099448625358651,0.07069294619202708
228,0.0709593754103906,0.07060873231776324
229,0.07090860816965,0.07070287510211673
230,0.07095110111182733,0.0707592349102531
231,0.07095230066721483,0.07059487592849378
232,0.07093770426960824,0.07061122771537764
233,0.07090719193845486,0.07071309050967022
234,0.0709937894873196,0.07072916526079837
235,0.0709288001572676,0.07078511650426329
236,0.07091643185102396,0.07066476052213863
237,0.07103422498829264,0.07077944202270674
238,0.07093677937770061,0.07059130193437754
239,0.07092879083064153,0.07065695112875435
240,0.07093074867914287,0.07083704673053716
241,0.07089358291549268,0.07075382023167685
242,0.0710088490611977,0.07070026632277816
243,0.07099891392786582,0.07069514101722528
244,0.07086998936709026,0.07072711039713828
245,0.0709317599763449,0.07062526962822031
246,0.07095771905728619,0.07078204721200626
247,0.07092439872826889,0.07133632314692075
248,0.07094114557277861,0.07057106484906732
249,0.07097364939618216,0.07069193757629433
250,0.07095395196393,0.07082524766885302
251,0.07097646368177626,0.07065475969071829
252,0.07089912136800759,0.07071406346611273
253,0.07091156062897114,0.07147487467882571
254,0.07097195556683601,0.0705667525859169
255,0.07089414285848752,0.07079140126011271
256,0.07099888776745394,0.07060899323803661
257,0.07089256073722688,0.07057929439756845
258,0.07092523195897694,0.07082047904735018
259,0.07094003369422744,0.07088083680057582
260,0.07102124068102868,0.0705726096478615
261,0.07089898400276685,0.0706190242745929
262,0.07092802254386324,0.07066464904275294
263,0.07096569240391017,0.07068038774741006
264,0.07089724978484171,0.07176037604943353
265,0.07096575284384185,0.070693640157451
266,0.07089634178181013,0.07105462191054551
267,0.07096360960184671,0.07070304067906848
268,0.07092391259128528,0.07064275874005779
269,0.07091021588999781,0.07083212462825011
270,0.07096892703238199,0.07056622413863982
271,0.07089839083143323,0.07069554920554537
272,0.0709446861574666,0.07124702764444212
273,0.07092609026467057,0.07060207430664348
274,0.07095699888660753,0.07054041275767801
275,0.07090007892990713,0.07068316315630806
276,0.07091576778899422,0.07067364975280807
277,0.07097417355286513,0.07108701252464525
278,0.07088523958590057,0.07204669559905166
279,0.07095985550084989,0.07063714056713147
280,0.07093307310692984,0.07093889045440126
281,0.07094139879871664,0.0707298274980395
282,0.0709609463051569,0.07065592686209796
283,0.07088907513853838,0.0706403405238722
284,0.07094431963624905,0.07067671242951407
285,0.07094969516612595,0.07050150018935139
286,0.07091775730395203,0.07102691666491406
287,0.07091522669876746,0.07054585640060686
288,0.07094116017019911,0.07073161491114226
289,0.0709633364511146,0.0705652455251661
290,0.0708842763765086,0.0712782078038169
291,0.07102042694332646,0.07066026023032633
292,0.07092430860512881,0.07085816564527947
293,0.07096256915744927,0.0705537594643134
294,0.07094721677902933,0.07056633578561947
295,0.07094046901122367,0.07059902768073444
296,0.0709639716071548,0.0707821685676746
297,0.07085942060684415,0.07064325841115796
298,0.0709794936887771,0.07067308007741689
299,0.07091647305404492,0.07072536222454405
300,0.07098532185184775,0.0707770339650673
301,0.07084625146443324,0.07060506877260785
302,0.07091836892306615,0.07080317260410811
303,0.07097837133266086,0.07064318217060749
304,0.07093395714422496,0.07056339786644517
305,0.07088093628896941,0.07094371840122561
306,0.0710301779695957,0.07063034480553776
307,0.07090690782030137,0.0705963983049803
308,0.07094997134682038,0.07074442222984927
309,0.0708907689961741,0.07064855273080889
310,0.07090893839683225,0.07057488622068889
311,0.07094621329868345,0.0706352261766121
312,0.07097431856820242,0.07053145795954713
313,0.07088071516276502,0.07073065997252054
314,0.07097647121722558,0.07066594459992652
315,0.07093806744818922,0.07054442421319264
316,0.07096821705041696,0.0709017443616934
317,0.0709540948754163,0.07090775884729064
318,0.07092784627896848,0.07057140340062701
319,0.07094353657337925,0.07105154716119394
320,0.07090498326267365,0.070721977523395
321,0.0709291276210051,0.07076530169398651
322,0.07092598004402112,0.07073023654197085
323,0.07094808773909636,0.07079167675518011
324,0.07095748734184736,0.07063861493823936
325,0.07088688223791732,0.07120272655395796
326,0.07099958154842627,0.0706025765092945
327,0.07087517901808381,0.07068427730919154
328,0.0709522036205736,0.07059231684517465
329,0.07092248969268408,0.07080973097620842
330,0.07099009167810948,0.07070757196988284
331,0.07093349772897795,0.07059550749310002
332,0.07087617688071575,0.07065098949993984
333,0.07094957438750947,0.07105183052729695
334,0.07091640868484021,0.07480799181544132
335,0.07098979562026658,0.07056612873357304
336,0.07090768817481663,0.07055760912697148
337,0.07092910977028352,0.07084028363145517
338,0.07094885759073481,0.07054998151422864
339,0.07095410155473376,0.07100360929648426
340,0.07091845466430001,0.07060962076862684
341,0.0709134061753059,0.07068160845770927
342,0.0709889425987677,0.07060262030718265
343,0.07089916906423038,0.07058714837094603
344,0.07090253206483609,0.07141022357704513
345,0.0709133915242841,0.07087303777449509
346,0.07088918290841732,0.07087434231117662
347,0.07100613936811662,0.07063330482653303
348,0.07087867022257485,0.07062912252220754
349,0.07098299104550616,0.070793656522045
350,0.07089034258294925,0.07075636116780441
351,0.07094578539504469,0.07069133599336541
352,0.07099721999131708,0.0706515370588088
353,0.07088238230759768,0.07081616278252643
354,0.07091615326124892,0.07069804954277123
355,0.07097013291570066,0.07082363838754777
356,0.07096335709803729,0.07058854789517956
357,0.07089590924612577,0.07085191054768043
358,0.07095257479021494,0.0706604894282974
359,0.07093294005063798,0.0716500363820589
360,0.07091433783884434,0.07064091195752983
361,0.07098549064680588,0.0716301455899732
362,0.07090242106250103,0.07076118784444296
363,0.0710060482473968,0.07052391715459497
364,0.07094833996298788,0.0706360197575335
365,0.07090425708120485,0.07085449007746264
366,0.07097478640629805,0.0706573647682885
367,0.07088909226415349,0.07109746348109881
368,0.07086861936254896,0.07056861010915949
369,0.07093833403276216,0.07062932154738535
370,0.07100688990393131,0.07059463239976903
371,0.07087712050925532,0.07058402071776781
372,0.07093276622162449,0.0735736389621657
373,0.0709791056287708,0.07060560998936855
374,0.07089221299135333,0.07077075679504975
375,0.07092316643142109,0.07059688746764516
376,0.0709674749389398,0.07058219099160057
377,0.07086591860897344,0.07076746698148437
378,0.07093046140893519,0.07059048138847009
379,0.07098614467199234,0.07097030266966516
380,0.07085817615292389,0.07079693614178129
381,0.0709500917934066,0.07058541632265487
382,0.07093759987512224,0.07069372008800882
383,0.0708807458405753,0.0705267965893578
384,0.07102010319147893,0.07068545212814821
385,0.07086488672887249,0.07059195249296589
386,0.07095350192295466,0.0708170579224472
387,0.07095501497447443,0.07061382350471421
388,0.07087813348298688,0.07086806076019414
389,0.07096099212831207,0.07056687161291125
390,0.07088497306832926,0.07104806643164618
391,0.07089829509355705,0.07087875345182305
392,0.07096636634346822,0.07055219921453224
393,0.07089443296509729,0.07084063176527301
394,0.0709172755890756,0.07056671883484558
395,0.07091120552631924,0.0705787459360443
396,0.07092835503867824,0.07075405566884761
397,0.07090329670523711,0.07153052870175362
398,0.07095924789736645,0.07074953660651183
399,0.07090698574914588,0.07061820632786193
400,0.0709879673290834,0.07116866764195716
401,0.07090695175698859,0.07057785477133463
402,0.07087999883053495,0.07056468317686523
403,0.07090941457886347,0.0704941371280844
404,0.07102935492760129,0.07051038417462392
405,0.07087874679649762,0.0705419085102469
406,0.07085620258881939,0.07102314606250132
407,0.07092144042045045,0.07061909978008214
408,0.07097303033839884,0.07065334366877059
409,0.0709222909614003,0.07080946466646612
410,0.0709617868822208,0.07061862680934598
411,0.07088498680366219,0.07059358996239909
412,0.0709174982667398,0.07106675293764074
413,0.07095792832122527,0.07161091908447932
414,0.07088686484280679,0.07057628498045873
415,0.07092898643964962,0.07062713788923732
416,0.07094267654499943,0.0705418184534856
417,0.07088592142569457,0.07078857352661636
418,0.07098905263032368,0.07103011493101398
419,0.07095467280909169,0.07057216506518994
420,0.07084166265720372,0.07053338098850603
421,0.0709989990556626,0.07098622313438199
422,0.07089979466435006,0.07054570573951752
423,0.07091655529183831,0.07157287743727617
424,0.0709151035661606,0.07058011462004898
425,0.07088518647147979,0.07054773862484692
426,0.07093360047224614,0.07056930239864381
427,0.0709290508192768,0.0705353368423591
428,0.07095429978424983,0.07087976616919746
429,0.07091353489733715,0.07117953271720479
430,0.07087343176908725,0.07052974653707401
431,0.0709485892730532,0.07065506259768896
432,0.07092791323145803,0.0708574330744399
433,0.07093578321988778,0.0706079466578616
434,0.07089539031408054,0.07063372577551602
435,0.0708513050887296,0.07055430436520098
436,0.07095252903703925,0.07060321156103119
437,0.07095553499790166,0.07060164693910584
438,0.07091033325897608,0.07073975063642839
439,0.07093911983078713,0.07095123480802554
440,0.07090991004396209,0.07084775210932286
441,0.07093046219210973,0.07051350739391281
442,0.07095653409634134,0.07080837193620704
443,0.07090428287385227,0.07081414858245341
444,0.07092955421438987,0.07064406229469751
445,0.07092072635436421,0.07054359890408843
446,0.07086960008765439,0.07070289340514128
447,0.0709528510498224,0.07068018915738848
448,0.07090694810912239,0.07061975007404844
449,0.0709114478935274,0.0706305348423869
450,0.0708582656045588,0.07088443631895809
451,0.07097739072815834,0.07074815239213354
452,0.07091603327622946,0.07054979694623503
453,0.07094306362082632,0.070580052672029
454,0.07091687988492844,0.07073290307359989
455,0.07095126838063737,0.07064895301869091
456,0.0709222210370165,0.0716429370313577
457,0.07091463773215799,0.07077761410479011
458,0.07090232913031709,0.07065732427817588
459,0.07091971912192736,0.07058810920181854
460,0.07096695193766261,0.07093874711746198
461,0.07088067340586397,0.07051990234720114
462,0.07091674745696293,0.07077770235330078
463,0.0708996502356492,0.07072377102574497
464,0.07087867796349583,0.07071746561761531
465,0.07098043103405326,0.07067512022221098
466,0.07090048486594673,0.07075410881965483
467,0.07095493759057647,0.07070387170694904
468,0.07091760439731234,0.0705408217898484
469,0.07097791393788504,0.07073590237920738
470,0.07087085610456603,0.07068345176780798
471,0.07091781288849935,0.07056825546563941
472,0.07091800042008944,0.07060225953913243
473,0.07093622814193903,0.07076842403414217
474,0.070902363427704,0.07056820810417444
475,0.07093326295975397,0.07075173281656538
476,0.07086705583647239,0.07061827436512912
477,0.07096521006815201,0.07080540208303279
478,0.07096968674146348,0.07075337896560155
479,0.0709165507372168,0.07120212945784277
480,0.07089058708080904,0.07070216526231055
481,0.07089906521617985,0.0706581019758943
482,0.07091241373682765,0.07057594259481968
483,0.0709399322418572,0.07067751272889508
484,0.07088310497073676,0.07057044258445572
485,0.07098035848618364,0.07054903699583488
486,0.07093351758081469,0.07108258491862733
487,0.07091747333469103,0.07089765894725837
488,0.07084676043705927,0.0705273155190621
489,0.07095215783017478,0.07059111775155602
490,0.0708795711591685,0.07069252617216149
491,0.07095131395216421,0.0706878925725853
492,0.07088506241871727,0.07060216127320736
493,0.0709349958123349,0.07053658869573236
494,0.07090184959373791,0.07119096770012294
495,0.0709211673977659,0.07119931861899365
496,0.07089973317621519,0.07067305547932799
497,0.07099026036139824,0.07062835832315349
498,0.07087685648563335,0.07062145389304823
499,0.07091819867491722,0.07055754174831917
500,0.07093816418364512,0.07076766612721223
501,0.07093233355789257,0.07094339637090205
502,0.07092622997199031,0.07055689574417018
503,0.07093294326373809,0.07069699823762265
