epoch,loss,val_loss
0,0.4564092752816294,0.28185398085153096
1,0.27419909144000565,0.24879407552206903
2,0.24234150916480904,0.19913138155167556
3,0.22814667073013686,0.20213242661981198
4,0.2422170272881655,0.23269943304906798
5,0.25265752122127755,0.24736660463704588
6,0.2534430578505869,0.23196710329782144
7,0.2562885657191086,0.22795937205028985
8,0.25432624150332594,0.27017761476414354
9,0.2538008991655686,0.24315587542333655
10,0.25490223350141833,0.2217858742449165
11,0.2543756916678304,0.2512253497586819
12,0.25260655452712455,0.22762046308619072
13,0.25415752012190296,0.22887781498793458
14,0.2525202738914749,0.2398576526516709
15,0.2548890002101636,0.2382730079407568
16,0.25397871568691816,0.23485955034971426
17,0.25250683794561907,0.23138366113898315
18,0.25213245903964426,0.22110587718360708
19,0.25091958738011805,0.24079575286715071
20,0.249878147189661,0.22456875137673088
21,0.24891581166562415,0.2339336377316417
22,0.2523791227314017,0.24280402337178153
23,0.25170302570318814,0.2253939880568302
24,0.2515085787474394,0.2381634444539342
25,0.24990129412459336,0.2507497052931842
26,0.24768714398908007,0.21964323857024418
27,0.2479983958766329,0.24433936156338373
28,0.24733692949576724,0.24729139858234936
29,0.24986083626890068,0.23580126547869867
30,0.24912559167205764,0.2300752432283305
31,0.25198652982997666,0.24183716925468235
32,0.25294775309727535,0.235536274941963
33,0.25597889185976164,0.24187858654414
34,0.25733552055417014,0.23330317662283484
35,0.259424540910313,0.23667440741619164
36,0.25905089630044814,0.25166081234330534
37,0.2614368368431533,0.2476178387087353
38,0.2624891274552837,0.24350868457165306
39,0.26431564148143233,0.24558985228602492
40,0.2629479402653891,0.25394671977789457
41,0.2630408292741989,0.23969695233132016
42,0.2655700372456075,0.24247287680713228
43,0.2666599537006957,0.25349777199522
44,0.26118299801596445,0.23584185841757196
45,0.2551337107182216,0.23977801889392836
46,0.2398400164300875,0.2100634057995082
47,0.22712371119563815,0.2154716467330469
48,0.22305149935799345,0.1922351288085108
49,0.21268794252027234,0.17582079331848502
50,0.20870922745274698,0.19435201474739608
51,0.2046173758191361,0.16810260549622816
52,0.19677022386857454,0.1681416074627012
53,0.1915749486068265,0.17190072090962596
54,0.1920259624814911,0.16317794638985053
55,0.18717634003403946,0.16907781514250206
56,0.18438049901625236,0.15705290279147563
57,0.1841685553874186,0.16680808484130896
58,0.1739838499126198,0.1485367330304261
59,0.17409669761832575,0.14672138262025558
60,0.17662628259447266,0.1432804762846669
61,0.1786482832807717,0.16296181233266063
62,0.17526321985917412,0.14611771184695266
63,0.1749227644174362,0.14931570291636775
64,0.16807377079634261,0.14694725884376028
65,0.16640618982182132,0.12696020382191125
66,0.1635007142639465,0.1361875512241
67,0.16337449393338627,0.14194541557999982
68,0.16250426133723853,0.13063240782214416
69,0.15443509401117775,0.11329299527872427
70,0.1531320969216067,0.1271342224167291
71,0.15331802145837783,0.12098468328519608
72,0.1554907547543756,0.14598918566811056
73,0.1553370955941393,0.12016736711915685
74,0.15173252754741245,0.14180433150342628
75,0.1535648621773596,0.11146063569877311
76,0.14710489113768227,0.12407517863618359
77,0.14451282702797322,0.12806655330129185
78,0.14521423812142664,0.1266689423674566
79,0.14810323714316606,0.11795532330576604
80,0.14653137137444852,0.10122550442967719
81,0.1530420663479945,0.10538065698712289
82,0.15504267883541392,0.13107717120115833
83,0.1562590962268418,0.14512090022133953
84,0.15636003049586317,0.14015387558476042
85,0.15001333856897103,0.12680292813417568
86,0.14124365628277846,0.09154262042059706
87,0.14515514248054473,0.12439504488655781
88,0.1494982491949384,0.15274578394646143
89,0.15394083127010164,0.15571091782181115
90,0.14135614677751474,0.10801487643015883
91,0.12806981377643076,0.09867122796994077
92,0.13829515237423728,0.14447679310072664
93,0.14079997793352195,0.11122862134355208
94,0.13798870013760242,0.10476297578806
95,0.13425266827277238,0.12460579827792455
96,0.1338428519666195,0.0869982640693389
97,0.13363057240355405,0.07855351784964104
98,0.1409280792974549,0.11355827684090095
99,0.13796906848903373,0.08741138366822097
100,0.1442293512145821,0.10194751055765641
101,0.14405211698201348,0.1265559035875991
102,0.14087292681530797,0.11436732529700037
103,0.13743490333275066,0.09818458310736383
104,0.14118011225518182,0.10768854972666046
105,0.1366943567604136,0.10837795922934021
106,0.1365668851253893,0.10923308368122474
107,0.133799451965389,0.09824504842650919
108,0.13041141592293715,0.11647843939399945
109,0.1285952746087937,0.09691166423772768
110,0.13591103152417355,0.08162885249225568
111,0.14185923945417794,0.11740572915810153
112,0.1407132787312821,0.11914309334148078
113,0.14167394231168104,0.09120618494340728
114,0.13535577738337476,0.07847232332169397
115,0.13815361930490683,0.10749011461482616
116,0.13776686552355139,0.11852273489065591
117,0.1376091957413893,0.08420490728134043
118,0.14158099532413254,0.09207991811710732
119,0.1331887646771068,0.09753820035480192
120,0.13798364794118512,0.12876730101166886
121,0.1395324076995623,0.10560303257268154
122,0.13778438313687733,0.08530174271036718
123,0.14766232032689164,0.13900916359513033
124,0.15179770608707296,0.0936378447931398
125,0.14458118964263575,0.1140400685352327
126,0.14495082909195162,0.08448617249703727
127,0.13987407864307425,0.14211443795777723
128,0.1414121076863685,0.12216887263773743
129,0.14422717336103688,0.11464376176612624
130,0.1498577743947363,0.15826257776348443
131,0.16400390436990464,0.169185401902673
132,0.16097483213702074,0.1193655869131871
133,0.16648149077328656,0.17972049576942623
134,0.16315109976868836,0.12006721293940352
135,0.16482730369142395,0.11840628925490398
136,0.17174089238714638,0.19445501844198004
137,0.16897467038423705,0.11147123776323323
138,0.1746778450936055,0.1405019273756523
139,0.1737919334146521,0.1705726996687518
140,0.17072505240353178,0.10036665745132442
141,0.16798261524163943,0.11400207356147721
142,0.1795854324089299,0.11507406158059624
143,0.18296490127531936,0.19592419808881906
144,0.17769257549783118,0.10780452277096783
145,0.18485981866205148,0.1534941601960228
146,0.1955926378758596,0.11444089674606225
147,0.19671389305715462,0.20761824894958156
148,0.1919523570820582,0.1582420771175609
149,0.2006642118685966,0.1475281634830356
150,0.211744328590034,0.15549971477879063
151,0.2010208822751074,0.13811501078513447
152,0.22618482568316894,0.2545977438070121
153,0.21960320161115066,0.19614750442066434
154,0.24431828796851646,0.09198709121584045
155,0.23619563232282464,0.2680241916249282
156,0.5156178220236997,0.522700007143412
157,0.5165563564387252,0.4770735816731637
158,0.43835009515380785,0.4118781452491327
159,0.4208776709392107,0.40620880258205655
160,0.41854431012646853,0.4151338652399646
161,0.42156024183110175,0.412643857306162
162,0.42292876222389014,0.41113307027715157
163,0.4241973715458366,0.41830880988180497
164,0.4249077571167363,0.4156954969678606
165,0.4248043578400982,0.4122603245626403
166,0.42539704585675714,0.4201705819664739
167,0.4252897565075152,0.41023067841872324
168,0.4259245428059408,0.4138553779757484
169,0.42491592042785375,0.4166300897299067
170,0.4238315859882475,0.4127529951278488
171,0.42556103894845854,0.4165237138331548
172,0.42503633453167505,0.41265102764613626
173,0.42685951007832346,0.4148788858372674
174,0.4265340716480542,0.4153599931249114
175,0.42647191168640636,0.41509507345983904
176,0.4267900492861974,0.419821036078371
177,0.4254735907157072,0.41796837233142203
178,0.4251005980465338,0.4157702004053316
179,0.42609964974587866,0.417014341045762
180,0.4247881266281759,0.41155143050387233
181,0.4241121642523818,0.4175310044328152
182,0.42517125786399,0.4146694819947915
183,0.42476090081304096,0.413247062638696
184,0.4238839421769698,0.4141772066690645
185,0.4242275318891691,0.4186121301332984
186,0.422466255110993,0.41684344791952044
187,0.42379631789372885,0.4115620336150596
188,0.4226121491522526,0.4078077038348709
189,0.4235407227306343,0.4201155558710693
190,0.42300866597847975,0.4141048417847836
191,0.4214996913735339,0.4134643294252367
192,0.4190385078164123,0.4145650672413932
193,0.4200615193799055,0.4083510546018123
194,0.41968828576693623,0.4107212680197176
195,0.41753123007375276,0.40968357731059674
196,0.4179497995465208,0.4055967994957527
197,0.41423111716858585,0.4031262181364088
198,0.3662611712023413,0.2554152123130205
199,0.2676757725296642,0.2535105900164185
200,0.2682626782049187,0.2510236888747565
201,0.26735348872643866,0.24379164619105204
202,0.26794228619999355,0.25776684377121944
203,0.2678820991056333,0.2424371639926695
204,0.2670683044609692,0.25646199977529643
205,0.2696988939953079,0.2438475839505538
206,0.267966829579797,0.2439796114730007
207,0.2678848803281593,0.23225016283913683
208,0.267555535417333,0.2614580593715057
209,0.26630446629272664,0.24963218337123377
210,0.267224741478761,0.24593552952924863
211,0.26878207705194335,0.24057325687856304
212,0.26961207931204667,0.255919907233239
213,0.2699690995921048,0.254206391776182
214,0.2674963372371656,0.2655746085773609
215,0.26943847987887193,0.25327848166156774
216,0.270089557380985,0.2391459325000632
217,0.27030677618168525,0.2447165205263207
218,0.2674979895746393,0.2459423906965903
219,0.2680460436166905,0.2520617876428267
220,0.2676455944740801,0.23689344204262475
221,0.2652098008935495,0.25075685115855983
222,0.2551677186223719,0.20239124859329652
223,0.228327091071579,0.2018905522179773
224,0.22302722337124922,0.21329082968485288
225,0.2241182309582079,0.1963444864458236
226,0.22317974611247282,0.1942712684245023
227,0.22160354170272295,0.201271689552064
228,0.2260436567006637,0.19361995480478328
229,0.22231433803824593,0.19250490922766025
230,0.22405308406415889,0.20225955134267964
231,0.22618872511515514,0.19662997664056053
232,0.2288725909283407,0.2203575661310363
233,0.22921692422158618,0.20488520362947338
234,0.22992093127360827,0.19302487672080934
235,0.22185853165950326,0.19983762280387773
236,0.2232828949042838,0.20086351452188034
237,0.2232342404987124,0.19506376239617415
238,0.22134450505034242,0.20005491993374588
239,0.22240946229270322,0.19123219678085812
240,0.22215645836530734,0.2085070728714671
241,0.22422608844548775,0.19954936740289264
242,0.22184158779448457,0.20053200848288863
243,0.22289018147735953,0.187364002735293
244,0.22287015001074398,0.21429817736054746
245,0.2224778140918147,0.18896267379045298
246,0.22280833535462166,0.19866392704428137
247,0.2240686610900908,0.20631821116031204
248,0.22352404794175562,0.19477925767744256
249,0.2260622120649218,0.19926632783172069
250,0.2238883175771776,0.2023553966817276
251,0.22316594297389428,0.2056726170814028
252,0.22351764849454855,0.20154992818550133
253,0.22499882701418097,0.1971965934596103
254,0.22419966029510985,0.20609671841856994
255,0.22249550000726462,0.19636439039844553
256,0.22116978615998842,0.19268656824880825
257,0.2225864697560418,0.19244969523884503
258,0.2188566221202687,0.18362775519078608
259,0.21767228245020484,0.19408110400401615
260,0.220793956260887,0.1982247511185147
261,0.22148301533991388,0.20790727143694118
262,0.22204929484213762,0.19983322204523607
263,0.21810860803230203,0.19306291155252478
264,0.21691717697585897,0.21847765718093518
265,0.21414194069058298,0.17364818031804807
266,0.21304452671207114,0.21610386923672933
267,0.2100785195374851,0.19967415035006186
268,0.2081681702146046,0.18545490973750342
269,0.2086423418933539,0.19783738656550198
270,0.20704812669067932,0.20169639512132073
271,0.20883607686304456,0.18848023951147708
272,0.21347773440188164,0.20750714393939762
273,0.20457004155996417,0.19242276341875614
274,0.2050364992553763,0.1767586108588194
275,0.20764531489970872,0.1983949621902645
276,0.20836209998928384,0.17729974371669982
277,0.20295418100915463,0.1768229686211862
278,0.22472424053555007,0.1830065493731397
279,0.20910150658407753,0.1636975171792761
280,0.1962322480053448,0.17623001624019294
281,0.19758234962189702,0.17160618892079182
282,0.20345023313133742,0.1901109632701505
283,0.20324054945239442,0.20308949049759212
284,0.21033468783544979,0.1908961936490406
285,0.21329225079237604,0.2080782718938829
286,0.2070329559864186,0.17875027823561088
287,0.20669036400880364,0.2000651154329011
288,0.20419453624055253,0.1882323354906046
289,0.20675464541458494,0.19650968745785993
290,0.2010193391919708,0.17216058783438984
291,0.20402042463505202,0.1957428472759033
292,0.20920499094980036,0.18781009723374292
293,0.207762775589808,0.17437471883355302
294,0.20402849551370675,0.1737694421690472
295,0.20262978099685588,0.17149947589555875
296,0.20320530214326846,0.16323031125194742
297,0.20768874799080794,0.20175365429745007
298,0.2041056249007809,0.16448754696697349
299,0.20501664290420538,0.17340774028528932
300,0.20393459250529608,0.16505454618251503
301,0.20691727656278489,0.18447472469112303
302,0.2084705265913364,0.18963124872947548
303,0.2093498057646336,0.19097856785616915
304,0.2073624619572378,0.1804853900032149
305,0.20723736665541415,0.19564114709773586
306,0.2080014287281951,0.1837456682557277
307,0.2083690083986945,0.17239669667470145
308,0.20659912312083203,0.17130498138815753
309,0.20315770407636866,0.17885945607991133
310,0.2064359614388834,0.16617173089365744
311,0.20523404982164323,0.18556430437194144
312,0.20563905155487197,0.18432522780940394
313,0.2069937500367157,0.19784431086578233
314,0.2042350598471723,0.181845297941375
315,0.20347498065466693,0.1780925753460969
316,0.20946960916502966,0.2102943324699304
317,0.2061671883427649,0.18767235942637722
318,0.2046149403130789,0.2129982289194402
319,0.20940578320353245,0.19908539305169845
320,0.20558148386071531,0.1899245486851273
321,0.2052152737808361,0.19601531873656336
322,0.20443312502760205,0.20013516737940562
323,0.2086312018459935,0.1746827925554673
324,0.20574797069330772,0.18416765705045038
325,0.20615019749322955,0.1822466676923922
326,0.20645464763200158,0.19482170437016447
327,0.2034244363268407,0.1763356539355363
328,0.20531944230758695,0.19251421886630762
329,0.20347481240614426,0.17237209067066164
330,0.20300449497050804,0.1774165424288213
331,0.20451236699672817,0.17013873698538273
332,0.20122837427136994,0.1933018844854013
333,0.20837304568428883,0.1997731706831713
334,0.20365462489694142,0.17780785149679282
335,0.21026488155912723,0.18310645449650786
336,0.20208241910242633,0.17962091841279942
337,0.2045890419817657,0.18319819090210177
338,0.20749218308692166,0.185106766734334
339,0.20952199510842873,0.19677340365716953
340,0.20693868439760713,0.1718391355629878
341,0.20523505557259972,0.19987516463884897
342,0.20174765109205894,0.1667221298863216
343,0.2008427522903819,0.16740371617352576
344,0.20079312683771744,0.1653705151794271
345,0.2020429335743022,0.165586976338863
346,0.20336451769756567,0.173506136863083
347,0.20574013909085287,0.19109885281667807
348,0.20408132115451932,0.19655552832225975
349,0.20186805979406042,0.18737095386236788
350,0.2046045086724009,0.16879454046934725
351,0.207527844394616,0.16713849116990015
352,0.20372461374524495,0.19450685410115695
353,0.20602120035033908,0.17127130817454353
354,0.2054014731284907,0.16029712163799845
355,0.20222363511411598,0.18490685077991276
356,0.20581381651852057,0.18577861917611643
357,0.20802239656186314,0.19239685665036904
358,0.20433524337937412,0.17303354488928296
359,0.2028778309075476,0.1686833070998316
360,0.20249728264687636,0.1880054825647854
361,0.203963663187816,0.1816188411841547
362,0.20567562091026564,0.15540736398550123
363,0.19968044066386256,0.16485534493106505
364,0.20140179632593402,0.1871078630061063
365,0.20043481602299984,0.16709927828789886
366,0.20807748815591195,0.1946360434169551
367,0.1992887832480464,0.17439229660553546
368,0.2036204013309414,0.1965638756305097
369,0.20511075201556742,0.19083749796333704
370,0.20327437600548223,0.18755030846068874
371,0.20382434769952706,0.17968027979347212
372,0.20498088537026748,0.1719029260227411
373,0.202261538034101,0.1906317270757085
374,0.20159454313185005,0.1830831189840538
375,0.20360381463520247,0.17111887330602452
376,0.20604944792535188,0.17828099229670738
377,0.20441980487246403,0.1740943938964168
378,0.20291881886817853,0.16703324338631453
379,0.20351908171920183,0.17848843147929672
380,0.20247789858270893,0.18554457057717286
381,0.20562075781259986,0.18459042772686002
382,0.20530642397540935,0.18263347437509703
383,0.20360394688747485,0.19855029993905923
384,0.2052259856193281,0.16724515214103738
385,0.2022227793038606,0.16310421263926972
386,0.20702115315303718,0.16412767736151543
387,0.20465456818838676,0.16467210509312274
388,0.20474722165522052,0.1770898021739961
389,0.20363558446474783,0.1994324391553415
390,0.20573323151524023,0.1703339102424405
391,0.20603334028824724,0.16202740406510202
392,0.20445218654892905,0.17141535653546747
393,0.20140531190412697,0.1802736047270172
394,0.205133348929701,0.178245990645161
395,0.20671742021751632,0.19165086487474267
396,0.20221619032245935,0.1646472362194272
397,0.20289440651972898,0.1978900085637771
398,0.20051675836602562,0.1854608811044091
399,0.20224738218706192,0.16246977900085058
400,0.20574450715006493,0.1687497310899051
401,0.20686758565697833,0.1953051167392505
402,0.20763439174107223,0.18601214696359897
403,0.20692902658101942,0.18917583172586647
404,0.20233251937001728,0.18749339418704808
405,0.20451011789216697,0.1760116972458485
406,0.20019351378928937,0.18836778993905767
407,0.20690183115782115,0.19360887193971482
408,0.20561221569514485,0.19595621114607015
409,0.20474001201246378,0.17692126053802215
410,0.20188725007761962,0.18051540753976886
411,0.20340658406273637,0.1871522530360587
412,0.20466914839691205,0.16854479119781443
413,0.20547350727134853,0.1831932824690133
414,0.20406701735598293,0.15768081586052324
415,0.20442721060664057,0.2132059577749579
416,0.20109227311601646,0.19794874656548533
417,0.20398031324624635,0.1923477275454349
418,0.20295733111582215,0.16505900349970776
419,0.2031700250318201,0.17717245905627016
420,0.202595171048868,0.18496914886543858
421,0.20366545783267986,0.17383446702593974
422,0.20199152955905997,0.18204032778504708
423,0.20497556162371242,0.19541414499565102
424,0.2038801600940698,0.16352759868541664
425,0.2032523482239885,0.17566118008900367
426,0.20121673696475634,0.17696592735086922
427,0.20081454068779658,0.19442641306977246
428,0.20737363851303867,0.18221960608989307
