epoch,loss,val_loss
0,0.16006036282931682,0.06023618437191023
1,0.052077870626898885,0.04795639418306648
2,0.04794183410376572,0.04788483209737474
3,0.04801620929825792,0.04764531000613602
4,0.048048003775467404,0.048550296892377456
5,0.0479833764983691,0.048388254641310476
6,0.04794685209213163,0.0482257297402211
7,0.04784333403501436,0.047644325641543264
8,0.047976648586866955,0.04787972366882763
9,0.047816456763816774,0.04861870257223603
10,0.04781865158812891,0.047747459118537484
11,0.04785918561275676,0.04830173559739727
12,0.04780489872012445,0.04899631899611726
13,0.04782018247994778,0.047883164117020136
14,0.04771593749987708,0.048525485412262516
15,0.047816904881101054,0.04816728643925997
16,0.047809904886426016,0.04769742535022929
17,0.04771654353105574,0.04763699788967737
18,0.04771409829040702,0.047757123268393896
19,0.04771344260506922,0.047962570020483535
20,0.04773390645847665,0.04780465071019735
21,0.047668904995175,0.04774075871790688
22,0.047682370461946386,0.04814430645827995
23,0.04763811900258826,0.05068716777293063
24,0.047706676404372296,0.04813779182820312
25,0.04763308930829418,0.047922839596573535
26,0.04762177834723541,0.047750234559778164
27,0.04776312122575575,0.04794816799820551
28,0.04760281964362287,0.047379884116157546
29,0.04765308669639482,0.04832970400964922
30,0.047622100059255705,0.0483732521592771
31,0.04762502991669565,0.04748737406288439
32,0.0475660548221579,0.04856584947365141
33,0.04759104059284015,0.047379941924312684
34,0.047593293050460395,0.04759245476117262
35,0.04759027624129058,0.047960656553201066
36,0.04747783198660845,0.04752065322781607
37,0.04759543464719344,0.047190885067621174
38,0.04750739986733567,0.04748768437927223
39,0.04759649558366536,0.047646299836644056
40,0.047529076244667186,0.04757964924777598
41,0.047539579030647455,0.04749292266667595
42,0.04754139812622996,0.04800325298671564
43,0.04747368647850198,0.04758007810895802
44,0.04749657718433465,0.048075166766861806
45,0.047491445034134876,0.047378487582153093
46,0.04749414967380458,0.047538600867906705
47,0.04750997011961459,0.047559428078011445
48,0.04750878039113195,0.04748926332607077
49,0.04742450138135589,0.04818175651938687
50,0.04750210299885435,0.047865607106106996
51,0.04746862672132363,0.04782847023400719
52,0.04744399571232944,0.04807623771578662
53,0.04744921853657154,0.0475577375989028
54,0.04746007767441175,0.047291163322769385
55,0.04747553635760844,0.047386472319982706
56,0.04743842153157071,0.04731344807696041
57,0.047441480332891715,0.04731741758106069
58,0.04745013032147257,0.04741160024101563
59,0.04739901081299325,0.04718391360287226
60,0.04744211013624661,0.047886955209999645
61,0.047543233257534505,0.04744703018921703
62,0.04740253017454458,0.04724748459686514
63,0.0474192871943676,0.04735919679114455
64,0.04746118637261917,0.04719616497713182
65,0.04736709662174864,0.04780030011507405
66,0.047446721747851105,0.048296595020212336
67,0.047354032435148456,0.047430577601916976
68,0.0474052949816727,0.047502414285901406
69,0.047370295687247335,0.047393721687859595
70,0.04739050712469194,0.047414500592680736
71,0.047435274276194525,0.04745015324679245
72,0.047370955011517786,0.04735711682955392
73,0.04741616122764077,0.04722374316007957
74,0.047376699568472985,0.04800365996659508
75,0.04741122296525182,0.0473648523963288
76,0.04740588665663672,0.04738043278937935
77,0.047348311812662296,0.047366181980956705
78,0.04741111617508552,0.0480708102324438
79,0.04737911321562257,0.04743957324887037
80,0.047419794737625656,0.04737128088017007
81,0.04734518299464413,0.04723031712723889
82,0.04734188746765172,0.04767464812559788
83,0.047387527581825434,0.04718625484932664
84,0.04731240750794455,0.04752048502816586
85,0.04742807697067015,0.04734494027570654
86,0.04738792652587334,0.04750859254314002
87,0.04732677509500492,0.04774997973169223
88,0.04740375745073735,0.047548413461907794
89,0.04735221411380693,0.047325270831138015
90,0.04733172903726284,0.04755516429067881
91,0.0473588125498818,0.04714680787678675
92,0.047341218626172805,0.04751974533899336
93,0.047336769034917785,0.04731729373500492
94,0.0473452684916943,0.047331526016944396
95,0.04738106848530584,0.04732558848931739
96,0.04730569856385771,0.04802115905468353
97,0.04735661439633341,0.04823859273834594
98,0.04728380961270689,0.05172939791146375
99,0.047370125817285356,0.04756837269407421
100,0.04734110964579786,0.047266256317037625
101,0.04732885352558464,0.047365655806488945
102,0.04733848226048964,0.049836616160461256
103,0.047400320696232796,0.04795249513899518
104,0.047281077249254067,0.04746723150644795
105,0.04728304808267015,0.04771077539992313
106,0.04734652114214657,0.047165643150352925
107,0.04729596821280073,0.047202144232714564
108,0.047302702042779664,0.04721517116713449
109,0.047380009360855624,0.04751311132615254
110,0.047307419484193855,0.04751415852083874
111,0.047301329313505655,0.04816980408570761
112,0.04732709387235409,0.0477122278809077
113,0.047419203536139785,0.04724733807564064
114,0.047297341336639855,0.04730312397443317
115,0.0472594346839199,0.04706324912143111
116,0.047339131488359804,0.04734370617847228
117,0.047349911150362474,0.047987428791497574
118,0.04727949952478889,0.047757319550323224
119,0.04734559681305258,0.047819945484917276
120,0.04728190025998105,0.04728252431282211
121,0.04732765330464767,0.047173324716589825
122,0.04732575867143419,0.047136958006360724
123,0.0472758505404067,0.04757677512309546
124,0.04734752281047076,0.047118952605158866
125,0.04727054009739634,0.04734946136093083
126,0.04732242452023889,0.04743238178911695
127,0.047289978148494595,0.04723593442985272
128,0.04729554522708118,0.04723909913011677
129,0.047321762003713276,0.04712344876004658
130,0.0473176962424287,0.04718223555805933
131,0.04731679251558966,0.047273340163827414
132,0.04726947862640035,0.0473721392346868
133,0.04733142433323258,0.04745667988482948
134,0.04733476093817624,0.04719524352495936
135,0.04728652207221059,0.0474054173146681
136,0.047303169606913095,0.04746195087363707
137,0.04731909525867322,0.04716368120137217
138,0.04731271026148308,0.047324316903960544
139,0.047257419483517284,0.04714879245389232
140,0.0472875674628168,0.048874391517774646
141,0.04735124549663944,0.04736802377682929
142,0.04722786604238452,0.04794959614866346
143,0.047331772746144536,0.047356174966201314
144,0.04730449835929892,0.04725064695375401
145,0.0472905633555685,0.04712425379028166
146,0.04731421916634678,0.04724241835201173
147,0.04725114489309222,0.04746007757304029
148,0.04727207299330823,0.047543853033266394
149,0.04729345364036034,0.047174982206150594
150,0.047350983329706914,0.04741257090112687
151,0.04722725658816733,0.047078228660733475
152,0.047283987895095,0.0473371099066151
153,0.047318568762889104,0.04746625790315156
154,0.04728655212169452,0.04716201897801709
155,0.047243755691938644,0.04725153886234563
156,0.04732424609637041,0.04729238842873472
157,0.04726450528196103,0.0473443192783405
158,0.04725594907480893,0.04739373294899759
159,0.04732008324973255,0.047217300748298184
160,0.04726977561184352,0.047276597017247374
161,0.047286312159100216,0.04754977713279491
162,0.04727718705455843,0.04745335215680601
163,0.047285557420050306,0.047230500057516084
164,0.0472783588965853,0.04766257070798806
165,0.04729925249394277,0.04726534467940267
166,0.04727689733358024,0.047287578061634666
167,0.047290042559389206,0.04770751535633745
168,0.04723412767320657,0.04741385286260799
169,0.04735628984939995,0.04714456084165972
170,0.04725427688252059,0.04771767469636078
171,0.04725928332129543,0.047374822605098434
172,0.047254504299433016,0.0471641628458308
173,0.04726171755283285,0.04723133701881087
174,0.04729899312767813,0.04720713316676837
175,0.04727097990499031,0.047430030542889634
176,0.04730666359122709,0.04721953386430582
177,0.04723901065329997,0.047207911437834545
178,0.04729020452613739,0.047454580579367606
179,0.04729931419499391,0.0471807081713955
180,0.047280477218443064,0.047410203224811015
181,0.04728253287740415,0.047226201589994764
182,0.047256413579201524,0.0473012855127983
183,0.04726223216550671,0.04731574099754948
184,0.047333926278100215,0.04716323932078568
185,0.04725750977639481,0.047397572435468036
186,0.04724938309729861,0.04728313643064853
187,0.04732084338315766,0.04725350116121552
188,0.047286076067710854,0.04710032535980043
189,0.047246799675478256,0.047441418270191625
190,0.047243574735441274,0.04781320488819854
191,0.04724780656992913,0.04709932389768354
192,0.04740745448421756,0.047306253900420696
193,0.04718295850312348,0.04722396471047364
194,0.04728113552131098,0.0471310206874911
195,0.04730244414459506,0.04741080800672639
196,0.0472614159606558,0.04715243877509304
197,0.04730571125098746,0.047151793941161535
198,0.04723942232021182,0.04706525827604387
199,0.04726814501118555,0.04755334377041838
200,0.04727898877587536,0.047539937706118786
201,0.04730217525069948,0.04710550146396459
202,0.04732610719154874,0.04752953319671404
203,0.0471910777748179,0.0472157453822638
204,0.04730188040037473,0.04718608976633603
205,0.04724806295685488,0.047787520722813184
206,0.04730042425258983,0.04718642532766665
207,0.04727742142772837,0.047165683281755674
208,0.04722974218612762,0.047123465519442555
209,0.0472392682551885,0.04730085449053626
210,0.04727348012419389,0.04758918920168749
211,0.0472981623239178,0.047229477610871276
212,0.04722464114254851,0.047155410701139946
213,0.04724976115172906,0.0472358772185673
214,0.047282358844407936,0.047137551544779575
215,0.04720125171682722,0.0471942252064184
216,0.04726372927361779,0.04719359929002263
217,0.04727738272014568,0.0475904621013338
218,0.04729059040337968,0.047646702929519724
219,0.047228082244714004,0.04726581938194307
220,0.047226420087780024,0.047135483767563845
221,0.04726712891964508,0.04723950779475654
222,0.047264466543110915,0.04725034548162285
223,0.047269386476833375,0.04719850248065443
224,0.04726715152748197,0.04732850558861749
225,0.047265508361786106,0.04736345582410117
226,0.04719554916393461,0.047256271145361656
227,0.04731146457324401,0.047308663904502245
228,0.04720299233712977,0.04755843551307564
229,0.04723838903903246,0.047154664187659026
230,0.04723937177418662,0.047861095594320134
231,0.04733286813187371,0.0472823403740409
232,0.04724479726643013,0.04936027125218014
233,0.04719570535663173,0.047130670319087124
234,0.04725077271693759,0.04717349305443154
235,0.04726836415860865,0.047132336991032746
236,0.04725823486350376,0.04724644345614321
237,0.04726572366033813,0.04719718245182248
238,0.047204492618139984,0.04743435009490719
239,0.04722024305023068,0.047146430955031016
240,0.04730912623591989,0.04764374473147629
241,0.04727288878274907,0.0472841819346939
242,0.047244166313625165,0.047256074207757716
243,0.04718101089395922,0.047080755466044
244,0.047259360075378114,0.04735569225149354
245,0.04722716955603551,0.04716799823359984
246,0.04725004900857318,0.047143758257708404
247,0.0472244395242392,0.04742337920318557
248,0.047223012891414166,0.0475246940416761
249,0.04727365344846182,0.04724749562572379
250,0.047263479664278546,0.047219038768226744
251,0.047229637428343914,0.0470732869087897
252,0.04722142090602554,0.04757964521081973
253,0.047271161242652474,0.04713623632324805
254,0.04725916431896644,0.04720411009516129
255,0.04726376496910525,0.047153970366307106
256,0.04726155082896936,0.047283369462698954
257,0.047200127210703303,0.048197586912641206
258,0.047238843524448876,0.047123235951000625
259,0.047171451852654665,0.04780748581782795
260,0.047285661798158136,0.047132175868552034
261,0.04724737625423191,0.0470598939903251
262,0.047216933813217066,0.04724208156165873
263,0.047291672793771625,0.04757326550858173
264,0.04719261442728752,0.047183855741792714
265,0.04725354754601975,0.04725588756983169
266,0.04719154889748203,0.04739878216983299
267,0.04725784819266445,0.04729632719551473
268,0.04722455778359461,0.04767484623929978
269,0.04732895914396698,0.04709448896189703
270,0.04719513101722125,0.047396892418565956
271,0.04726455050805728,0.047135806641737686
272,0.04721640957017644,0.04726079095157941
273,0.04722369331077372,0.04919257499836238
274,0.04727419474564916,0.0474033129725667
275,0.04722894068143303,0.047463327869714106
276,0.04722228256180037,0.047126391571788405
277,0.0472238755135013,0.04912996674346096
278,0.04724404953277225,0.04785381633297326
279,0.04727408024434039,0.04718334358641268
280,0.0471971657820981,0.047596022004486545
281,0.047223513396523836,0.04758029575764709
282,0.047283159288987936,0.047186197761531504
283,0.04718772765788005,0.04731181827274569
284,0.04725222565311132,0.04713020154702071
285,0.04721633528324245,0.048420265119966784
286,0.04724180334799295,0.047214805885808335
287,0.047228872165572255,0.04724931483757524
288,0.04732435521968215,0.04748068480872224
289,0.04719336976786312,0.04719667264863837
290,0.047201553743770365,0.04714686913972966
291,0.04723524619682992,0.047153231029964
292,0.04727878556888309,0.047575154836453505
293,0.04721600084389142,0.047072197518648835
294,0.047245526050539804,0.047542210533074156
295,0.04724547804015384,0.048592186782100394
296,0.04723311489750203,0.047210783004502
297,0.04722735358120726,0.047122520595294995
298,0.04724097751724205,0.047191634627195826
299,0.047234995443996286,0.047291245790758565
300,0.047259842348601415,0.04715033065771718
301,0.0471990777195977,0.047216996906329634
302,0.047242203803299715,0.04732524226665873
303,0.047210222638720614,0.0470749123967249
304,0.04726422640333454,0.04727167076039427
305,0.04721317499381699,0.047292263156660165
306,0.04724871102931926,0.047194465553798165
307,0.0472685610763818,0.04781656718468139
308,0.04726173947129747,0.047235941080686704
309,0.047168161833195756,0.047434516883239845
310,0.047207951776498704,0.04752663492968257
311,0.04723310214634851,0.04762076461818525
312,0.04720208472121867,0.0477183408088447
313,0.04728405849991752,0.047095524172144985
314,0.04722016096877442,0.0479826127791273
315,0.04721557277795985,0.04752128319880957
316,0.047224181225533776,0.04741538219277371
317,0.047188753213027686,0.04732682100764014
318,0.04725217044675093,0.04727545841328723
319,0.047227340804742016,0.047167229509508884
320,0.04723355760403293,0.04745600591307093
321,0.04720789024667393,0.047377410729216515
322,0.047184959222241744,0.04749148346383739
323,0.047211062149714225,0.047238449627076344
324,0.0472478519702296,0.04736083271694917
325,0.04725929071976365,0.047711157952247875
326,0.04720601775824166,0.04760834486492055
327,0.04724030648555449,0.047289994954710035
328,0.047167785684589285,0.04718208908975924
329,0.047289554802455204,0.04819377148913509
330,0.04718170279590823,0.04710943958389072
331,0.047228526392524284,0.0470900110071253
332,0.047262605382419894,0.047593647265702414
333,0.04718882400694368,0.04727961076533785
334,0.04721307011543037,0.04710801885167068
335,0.04724200321383756,0.04712914701348322
336,0.04718503747418296,0.047832319041053985
337,0.0472689524090452,0.047146347496179304
338,0.047153939225738475,0.047143990031334015
339,0.047235286239978316,0.047745322727766576
340,0.04726857014393492,0.04718391966565726
341,0.04720212027972503,0.04808249395126043
342,0.04718946391861025,0.04729502409073247
343,0.04723593914698211,0.04745346308342566
344,0.0471925685892431,0.047035710755279896
345,0.04722765704347409,0.04710480744561626
346,0.04722253017598014,0.04743118428617081
347,0.04721397627070606,0.047290674604081505
348,0.047249067625362906,0.047323597276079064
349,0.047220427394032385,0.047268657335730734
350,0.04724692765602486,0.04762579277216589
351,0.04718147443799521,0.04713771512824527
352,0.047198860606046125,0.048352608714479106
353,0.04723248553933571,0.04708273076373663
354,0.047238921965483564,0.04754850506229766
355,0.04723465916880076,0.04743618294067428
356,0.0472029882262079,0.047683211118453306
357,0.047227153183816435,0.04703318693137771
358,0.04721853912597318,0.04708224873998641
359,0.04724499525027357,0.04724671540821549
360,0.04725576201669699,0.04709579865576813
361,0.047235201441233964,0.0473443306570883
362,0.047218070063981224,0.04742100249149711
363,0.04718015541275628,0.047268537570734896
364,0.047210649380997886,0.04804315034597054
365,0.047257318242574384,0.047225111914650134
366,0.047152608987405524,0.04710128138043228
367,0.04725948935724515,0.04719537481277499
368,0.04720063674018728,0.047114645211054004
369,0.04725288648864062,0.04713397061756585
370,0.04720910554893202,0.047263419404096646
371,0.04718829618601633,0.04722414276288453
372,0.047201369874935735,0.04713242357830504
373,0.04726201788389044,0.047120042680376804
374,0.04719317041718655,0.04707116987953152
375,0.04724890047864472,0.04720281682843849
376,0.04723315872103095,0.047425008807463635
377,0.04720294695320747,0.04793525261079691
378,0.047172372434124483,0.04724599306354771
379,0.047236525933805416,0.04752073684838125
380,0.04721768910019137,0.04721069109538642
381,0.04719104148971615,0.047180794546970155
382,0.047184959176085076,0.04723309539699517
383,0.04725453758286201,0.04716656074492406
384,0.04717850900715966,0.047409766125062744
385,0.047279368174805055,0.0474232595410983
386,0.04717529896828387,0.04738246270506139
387,0.04721365775987446,0.047170559072245176
388,0.047227252867343805,0.0477728451519099
389,0.04723632429614008,0.04737277312796701
390,0.047192820761022235,0.04724802919784774
391,0.04722446044661301,0.04725728468012415
392,0.047195232072048524,0.04730398346094419
393,0.047227017511483387,0.047600817341054626
394,0.047239659240932395,0.04724720111903283
395,0.04718727498597426,0.04769249499467479
396,0.04723099203888985,0.04783024085831153
397,0.04719743395386507,0.04727958141287293
398,0.047208570424827644,0.04724158061155204
399,0.04720836322751644,0.04713918620039839
400,0.047221588651291564,0.04757817942228671
401,0.047246668755793746,0.04707835982505882
402,0.04714622975979968,0.04740029685169858
403,0.04725203036422209,0.04984420221872281
404,0.047233853694632184,0.047163700248278685
405,0.04718549964543012,0.047284097708438264
406,0.047216299147033194,0.04715942863401411
407,0.04720442184804679,0.04722216201985833
408,0.04724335580242338,0.04747200163041595
409,0.04719274265648459,0.04725713941144397
410,0.047208445524866825,0.047190493338792085
411,0.04725036962027792,0.04715182436975609
412,0.04720333589316844,0.04746991123683639
413,0.04720251035871361,0.04741722630261905
414,0.047210586682367,0.04785603825252829
415,0.04721268110548993,0.04713661554721555
416,0.04722982575353101,0.047350184572970855
417,0.0472877082704521,0.04856319070132868
418,0.04719405688887401,0.047121234220506264
419,0.04718689174561811,0.04739677979248475
420,0.04726104129650753,0.04711762600487955
421,0.047190921519585934,0.047311929484569096
422,0.0472208852712199,0.04782340821134545
423,0.047211345376001655,0.04737463367672162
424,0.04721910319329023,0.04723046472165278
425,0.04721155838905383,0.04716925399455858
426,0.047195726822463153,0.04726361236942972
427,0.04723778600059301,0.04748854456850178
428,0.04717928726675747,0.047106353167647344
429,0.04724928057141346,0.04721250828434937
430,0.0471695955116138,0.04739430463845653
431,0.04728438051418959,0.04710589441887582
432,0.047189437223674295,0.04728390782154161
433,0.047178982098182616,0.04712338979343495
434,0.04720120742726478,0.04712624469185402
435,0.047240913716806686,0.04719390236458726
436,0.04715706276253973,0.04718586620481445
437,0.04725736795331267,0.04712317901609823
438,0.04722843972220123,0.0472313656391548
439,0.04724962135209597,0.047062457257612725
440,0.047201422917888126,0.04718672471516416
441,0.047198390467561406,0.04827026763214967
442,0.04726219379739891,0.04761797449924199
443,0.047187271622492734,0.047347261119801504
444,0.04720722537913578,0.047610468986049446
445,0.04723287257347271,0.04727772493047703
446,0.047206340417218245,0.04758618200740291
447,0.047171136796129026,0.04756804562417089
448,0.04722181174138801,0.04721476246427154
449,0.04718502259386672,0.04724159066424938
450,0.04719565078157553,0.04718162047940629
451,0.047192753218918394,0.04716625803200956
452,0.047248575440366015,0.04706620094208334
453,0.047222857218351864,0.047536205409216714
454,0.04723537131119594,0.047599155938027875
455,0.047206809114423584,0.04729854865345131
456,0.047194519730137406,0.04723783699764731
457,0.047193490022378,0.04719552168682888
458,0.04720795608991437,0.047205299006711804
459,0.047221287846755826,0.04702887511514451
460,0.04723907207889999,0.047404668690091335
461,0.04719103810241183,0.0472130754752336
462,0.04720794946122036,0.047085935230813065
463,0.047230269463597346,0.04732764633144557
464,0.04719374419825016,0.04722314102732486
465,0.04720958603246749,0.049377056692845256
466,0.04721536985088548,0.04813979451427708
467,0.04719992896927585,0.04714156736949813
468,0.04721812193961643,0.04709674897526509
469,0.04723240986919041,0.04818800160251176
470,0.04716392920362197,0.04710636499919285
471,0.04721098377419223,0.04756632661292566
472,0.04725580353239219,0.04738404032286924
473,0.04718301060358636,0.047104029350964784
474,0.04723676343073995,0.04790750669863813
475,0.047247455371238534,0.04717483425008658
476,0.04719783747635728,0.047104082442967085
477,0.04723130060668043,0.051941092128276634
478,0.047239944279241525,0.048067553861224
479,0.04719310044664607,0.04811290306081053
480,0.04721783212781381,0.047367313404838775
481,0.04721782686744186,0.04776031694183128
482,0.047164577603649845,0.047127540269609317
483,0.04723481524685066,0.04808619674868535
484,0.04717787040872492,0.047086785302659896
485,0.0473142138687517,0.047172823595948925
486,0.04716929413235302,0.04722954717118531
487,0.04722709921326378,0.0471363835089679
488,0.04717383156720397,0.04776423689692436
489,0.04725627656981385,0.047140988405873295
490,0.04720438597686619,0.04716957444597062
491,0.04718938688460967,0.0472883168040483
492,0.04723559416157545,0.04753051694385537
493,0.04720514653165706,0.047300667499780846
494,0.04717673567219747,0.047382326568781906
495,0.047230631309590466,0.047531016673760425
496,0.04722337941560957,0.04731641714214902
497,0.0472378479488057,0.04796947787009362
498,0.047199341828088395,0.047119280877622356
499,0.04722583511893412,0.04709685105174757
500,0.047222891508294146,0.04717836934770292
501,0.04724097766017885,0.04725528103259011
502,0.047187508144181406,0.04716884326292665
503,0.04720223382067718,0.04713198840441719
504,0.0471898308805496,0.047222445088996604
505,0.04720700919318447,0.04716164678711541
506,0.047259253861425786,0.04711329674417331
507,0.047182218160489196,0.04751993310597344
508,0.04722185307841221,0.04725929825098475
509,0.04724927786901462,0.047324084915697055
510,0.047175978052077724,0.04715809808792613
511,0.04719892352354898,0.047113757262972275
512,0.047218031743519025,0.047540724112842624
513,0.047205278186870515,0.04741869350540986
514,0.047234938096561783,0.04712710061478822
515,0.047203747348652944,0.04723624494029672
516,0.04719354523320516,0.04726936634344761
517,0.04720163695234284,0.04709079444126153
518,0.04720866072961657,0.04718874732727786
519,0.0471990233887252,0.04966272305235584
520,0.04720361976713824,0.04773329043997585
521,0.04718649620525271,0.04717618536906818
522,0.04725255285479801,0.04752326656453423
523,0.04717495227359134,0.04748471930105572
524,0.04723850339889336,0.04713933041353064
525,0.04719982699429293,0.04744786806492798
526,0.04723333001738306,0.04718741236788227
527,0.04720915628405069,0.047297841027649536
528,0.04717105254084229,0.04716110452362752
529,0.047202688122955826,0.04728886892323712
530,0.047206786810327396,0.04730925171826426
531,0.04725875279052461,0.04755158077016908
532,0.047173813914509415,0.04725174917218341
533,0.04727147481323098,0.047140821058894104
534,0.04715567978052832,0.04734128495441616
535,0.04720900701932151,0.04708290861327063
536,0.04719211807627853,0.04754674626953882
537,0.04722663286707098,0.04709817682287781
538,0.047246706309459575,0.04743544386601298
539,0.047193485222083865,0.04793854966030501
540,0.04717130924937584,0.0470715106627371
541,0.04724408608885835,0.0473289274490764
542,0.0472327052823288,0.047068804540710364
543,0.04722827208562673,0.04716559026710801
544,0.047151763139547206,0.047504833507650744
545,0.04721326887798157,0.04759866426733411
546,0.04722350461335539,0.0471889783893642
547,0.04725911089336034,0.04712139530770404
548,0.0472295915247868,0.047522519507108
549,0.04717341012847748,0.0471772329254045
550,0.04720794619303003,0.04725142244922898
551,0.04718847673901504,0.047382393703393894
552,0.04720757754711653,0.0477465035271814
553,0.04722943576387793,0.04724360985685825
554,0.047220580687792564,0.0473406847239999
555,0.047194884278529366,0.047261380944062896
556,0.04719750522423705,0.047644244949462004
557,0.04725100745042737,0.04735717222082775
558,0.04718943316933158,0.04711671094185928
559,0.04719912019862736,0.047720501721258135
