epoch,loss,val_loss
0,0.09802833965203527,0.07322933708508517
1,0.061577673508330766,0.06157242037368915
2,0.0584764626838174,0.05703119559390111
3,0.05693235025589272,0.05762450669770707
4,0.055455739888264154,0.05516835501453309
5,0.054437912062821246,0.05389944269214336
6,0.0539190919910488,0.05291032607594529
7,0.05312032463774063,0.05260785042763949
8,0.05224985496803863,0.052443616872226526
9,0.05181314496703657,0.051653165570185906
10,0.05111715499198616,0.051384694137895495
11,0.05064831306043925,0.051161487349417736
12,0.05015205616271302,0.05068993775716221
13,0.049626353269018285,0.05010386602768202
14,0.04927380326768162,0.05056129475295004
15,0.04903898339182466,0.04931361195970754
16,0.04877065753356525,0.049027532250948025
17,0.04850267510032497,0.04950895959537134
18,0.0482760511764516,0.0503482424268197
19,0.048131766664319606,0.049212529577051
20,0.04803635244485989,0.048382765597966865
21,0.047778366744041845,0.048789236685108796
22,0.04762173963955527,0.048401261213057635
23,0.04756556469482816,0.04834290491959841
24,0.04728945442473314,0.04819349141349835
25,0.04724130768150956,0.04870967934970318
26,0.04716723361141221,0.050164810830112844
27,0.046985281530051076,0.04809529177267125
28,0.04692574814720712,0.049202943717380807
29,0.046777693897924896,0.04779864161643449
30,0.046820695299950726,0.04828005867223546
31,0.04660028940217689,0.0489340220711568
32,0.04655176423370199,0.0484476932217242
33,0.04640029312516937,0.04812766284363429
34,0.0463619527826171,0.047511200184215195
35,0.046337883400347106,0.047998283352133145
36,0.04632747114035781,0.04771330000734176
37,0.046268392676426295,0.04816348633137472
38,0.04626802418781317,0.04743005449908635
39,0.04601373757799718,0.04781763063844578
40,0.046014973009354296,0.048074702742174256
41,0.04595954206126742,0.047371717712375895
42,0.0459050473789805,0.048020736524817184
43,0.04589482062295304,0.04748581190384559
44,0.04591177649564742,0.04748990211655942
45,0.045791108923119855,0.047539551296458184
46,0.04574081672265893,0.047720194922170604
47,0.04571744069259656,0.047478083012501636
48,0.04566742957418363,0.04733818224208997
49,0.04552529191465519,0.0473087540028591
50,0.04550788901728081,0.04706318338787781
51,0.04559845860357773,0.0469998364674443
52,0.0454955809105267,0.04790518343036295
53,0.045447459987530844,0.04696557057566783
54,0.04533431605429949,0.047464593757184724
55,0.045303206382487825,0.047411819796004104
56,0.0453013217854948,0.04795245484537561
57,0.04527403401347577,0.04699948385499249
58,0.04530948483654429,0.04763393184030806
59,0.0452438316382399,0.0479126863299319
60,0.04525235622700337,0.046938181653641296
61,0.04517616458781494,0.04684107559331546
62,0.04520389114799071,0.047301649208121
63,0.04512036921583663,0.047075755421053904
64,0.04513207955827999,0.04685417380895627
65,0.04508778592595958,0.04682235894448155
66,0.04502231216500197,0.04715246629465075
67,0.04517141903127266,0.0472391214649441
68,0.044973292264974984,0.04734236382631881
69,0.04495438993947566,0.047201994835812174
70,0.04494049830952114,0.04691992212815764
71,0.044944074141992196,0.04707093454266761
72,0.04483822221295384,0.04696143602537355
73,0.04483753590220968,0.04742159928424866
74,0.04482362967631106,0.04770745299916258
75,0.04476447390810106,0.04775562048108048
76,0.0448190321679576,0.047209571899095755
77,0.04474160023735604,0.04663888201571863
78,0.044743856415140226,0.04720716313700795
79,0.044679973324804806,0.046674946005645014
80,0.044599811807591816,0.047115362448831084
81,0.044643986481104306,0.04663500623259565
82,0.04461222718065457,0.04697846844233306
83,0.044573380717135826,0.04706850541838085
84,0.04459057177141214,0.047504877019363
85,0.04463682027393059,0.04736444668032966
86,0.044592445520084324,0.046940645147827864
87,0.044470091055641946,0.0469426585385617
88,0.04454775401554673,0.04766433945477922
89,0.04451749561358598,0.047499083883839124
90,0.044435994173454056,0.047364629215561
91,0.04448485880230567,0.046904579167619136
92,0.04440318079863009,0.04698528621741537
93,0.044417992751536295,0.04667979618955959
94,0.04436371795662483,0.047117017331990585
95,0.04436252279040858,0.04722661972672992
96,0.04436138315982631,0.046812867371719497
97,0.044295317180169234,0.047616892893441766
98,0.04438050112205629,0.046470822959579855
99,0.04431310795261901,0.046986199013814296
100,0.0442645510057986,0.047877364498349395
101,0.04429592396110383,0.04697535777627494
102,0.044255524832124214,0.046881101238684025
103,0.04428227223011268,0.047088928721822666
104,0.044237085233174114,0.04683957274246541
105,0.044152828295355245,0.04733727722046715
106,0.04420174211804479,0.04686366958132202
107,0.04418562471071298,0.04749951383644117
108,0.04415478877264183,0.048367381625366114
109,0.04418184513397186,0.04772542553738041
110,0.04418177163817763,0.04750605007582985
111,0.04416378198607407,0.04652929532641747
112,0.044152120000820805,0.04667552478010406
113,0.04407868206293355,0.04706163612120853
114,0.044118586811353354,0.04658574915828403
115,0.044034293704199035,0.04749047666863826
116,0.0441016178636485,0.046643507590717656
117,0.04397993657701217,0.046992889946666484
118,0.044087792838981725,0.04679629644350919
