epoch,loss,val_loss
0,0.6581158893138516,0.6517854280295363
1,0.6517939217195817,0.6515877870542579
2,0.6516241038937393,0.6514916292339805
3,0.6514270970960478,0.6514985066274622
4,0.6514170147554552,0.6512248296103099
5,0.6513936954276404,0.6513760684500881
6,0.6513180610703315,0.6511196149082739
7,0.6512559982856276,0.6517453003832702
8,0.6512203457109755,0.651212102428436
9,0.6512078821512766,0.6520522874850252
10,0.6511685707604508,0.6517903908190319
11,0.6511573812643802,0.6511142035931164
12,0.6511491236260785,0.6512550979459856
13,0.6511485955092925,0.6510180991018161
14,0.6510860927371076,0.6510141636760383
15,0.6510619688382866,0.6510208868139866
16,0.6510610075121958,0.6510782694180504
17,0.6510401904593626,0.6509798463041752
18,0.6510442771738368,0.6510417895627927
19,0.6510106718789375,0.6509976231599396
20,0.6510255730555129,0.6509669105912346
21,0.6510213651920849,0.6511962664483255
22,0.650987979703191,0.6511486869152149
23,0.6510008101406461,0.6509686388372333
24,0.6509836333355861,0.651070484442807
25,0.6509756629237801,0.6514951196316218
26,0.6509770897503658,0.6509494969906156
27,0.650976534627758,0.6511315799278173
28,0.6509545022616685,0.651488060608201
29,0.6509605552392186,0.6510667180767017
30,0.6509553701569156,0.6510919656368481
31,0.6509462746017893,0.6509337857618812
32,0.6509542267275858,0.6509143259670311
33,0.6509384974780411,0.6509786843259656
34,0.6509393006055395,0.6511645125636643
35,0.6509306064970253,0.6509642730644057
36,0.6509357225370611,0.6509708818441651
37,0.6509334712667844,0.6509924610257054
38,0.6509346523034357,0.6510706516898245
39,0.6509227874953811,0.6509891931870939
40,0.650920167266094,0.6509527471948847
41,0.6509259772941859,0.6509202563357539
42,0.6509216781584709,0.6509385345160857
43,0.6509124098963158,0.6515711025716919
44,0.6509230144917119,0.6509065864785467
45,0.6509248087990929,0.6509266671196173
46,0.6509162407265556,0.6510447961518893
47,0.6509203662145954,0.6509385504750235
48,0.6509128948869266,0.650947159877065
49,0.6509186514377882,0.651167940237758
50,0.6509119503879558,0.6509148913971182
51,0.6509070043138615,0.6510088892139781
52,0.6509037925638785,0.6509135830860507
53,0.6509103388160385,0.6511950590874782
54,0.65091558402399,0.6511723663488115
55,0.650904249225452,0.6510409967367736
56,0.6509088356716699,0.6509673141980713
57,0.6508989566960814,0.6508969776219975
58,0.6509107308072803,0.6511912166750468
59,0.6509155015981183,0.6510184799155793
60,0.650911284876443,0.6509188187203748
61,0.6509064349916334,0.6512031834835814
62,0.6508999582132151,0.6509157917471903
63,0.6509038202591134,0.6508880559841905
64,0.6508962379000605,0.6509726083343021
65,0.6509016161410576,0.6509259147778075
66,0.6509016691035946,0.6509103290718927
67,0.6509049079331525,0.6508997662665258
68,0.6508979591789631,0.6508740061319914
69,0.6509007607325471,0.6509715886471554
70,0.6509062789847274,0.6510284789851948
71,0.6508994617553944,0.6510517678696977
72,0.6509030190933657,0.6509344052687247
73,0.6509005222705839,0.6511489045900145
74,0.6508876747595082,0.6511739165475866
75,0.6508976788899816,0.6512147004696723
76,0.6508981396892163,0.6509229526863186
77,0.6508827750634256,0.6509266143680394
78,0.6508980207441755,0.6509885882335522
79,0.6508851518281669,0.6512898300514536
80,0.6508926304218858,0.651066003994694
81,0.6508868470612198,0.6509254778474592
82,0.6508783952174835,0.651124143687547
83,0.6508903826976687,0.6509990829105357
84,0.6508769172974272,0.651165333672783
85,0.650895961398512,0.6510744164183876
86,0.6508856679760647,0.6509160478995001
87,0.6508943808951417,0.6509370535105699
88,0.6508832547741897,0.6514549260577153
