epoch,loss,val_loss
0,0.09092124467933958,0.06609795943886984
1,0.0614866866622328,0.05922137234080154
2,0.05923210334010367,0.056398106223051844
3,0.056488646209215114,0.057290116720208006
4,0.05532084719096746,0.05536986625081436
5,0.0541762447014808,0.053168918655844215
6,0.053481116597226416,0.05416347952380632
7,0.052796008852357836,0.05229460356506503
8,0.05232378856040103,0.05216062539259328
9,0.05177683384518058,0.05253446286809535
10,0.05129637831766489,0.05287254203305569
11,0.05108156676500874,0.05143357069927141
12,0.05070385552391429,0.05127641694123014
13,0.05040972086245376,0.0542631765568121
14,0.05017616709330764,0.05102194392305576
15,0.04974118117414246,0.05059262664717389
16,0.04926478198125227,0.05018397387396973
17,0.04916365696963457,0.050534205918231524
18,0.04886243230897952,0.04985823701314033
19,0.04870846234833624,0.05052825339136733
20,0.04846256142323353,0.04904148091185097
21,0.0483313783823263,0.04956091147810055
22,0.04819685513164284,0.051117303161956555
23,0.047997984144574214,0.04885184552034812
24,0.04781178859931143,0.049404152173401626
25,0.047562992157351956,0.04920649459966832
26,0.047503612479171765,0.04907442835834465
27,0.04728216703678236,0.04890776248712359
28,0.047193973534170014,0.04900399710328139
29,0.047025607770515454,0.04937045856374388
30,0.046903245412801976,0.04854868533294154
31,0.04670911479861356,0.04939853024978249
32,0.04671300185915085,0.04821110952764451
33,0.046565664432191484,0.048136418351655975
34,0.046403119210103164,0.0484947874554641
35,0.04638644659719137,0.049612068360985244
36,0.046403469898165205,0.04853101354639587
37,0.04626316144658974,0.04816528868414692
38,0.046356352518464296,0.047806162781728265
39,0.046164160191894864,0.04819908015766001
40,0.04604195321554253,0.04848029407009551
41,0.04607850996518479,0.048207682569679694
42,0.045975512280981144,0.04780096001745605
43,0.045957319367342056,0.04784494235195256
44,0.045834268691457104,0.04779505930936808
45,0.0458192683029076,0.04833137993510751
46,0.045858098775954155,0.04773294589499552
47,0.04563505971177521,0.04792372417192961
48,0.04571602943472039,0.048110400814470156
49,0.045629469539063015,0.048110981686142806
50,0.045634627365222634,0.04755052145584123
51,0.045498934960796496,0.048836826164454665
52,0.045604289911010336,0.047715337645739896
53,0.045477217123638794,0.04851409470050467
54,0.04541253338256946,0.04773072880965359
55,0.045358264759220696,0.048393367105059364
56,0.045361410015605404,0.048024703957801854
57,0.045273899842928164,0.04745867152514795
58,0.04522872596371862,0.04814868798674369
59,0.04505706043857869,0.04763069730612902
60,0.04506602483482837,0.04757894193438574
61,0.04505645162559138,0.04743910778407939
62,0.04506629405341657,0.04755819274776059
63,0.04493267832670575,0.0475321853782154
64,0.04493258815775579,0.04751677392915835
65,0.044850659127584715,0.04722623617446137
66,0.04490303615125153,0.04823749543285823
67,0.04474441596773443,0.047352718200894865
68,0.04485565392608107,0.04741139021803126
69,0.04481870892707684,0.04768895048530391
70,0.04471627031081015,0.04727883216443848
71,0.04470245856343227,0.04840713057593659
72,0.044740408611036946,0.04735925601260216
73,0.044650988097135115,0.047368977129535104
74,0.04463752414725411,0.047526859319671974
75,0.04455491138626392,0.047751373416163374
76,0.04457009710578111,0.04734364817945687
77,0.044563782054020375,0.04843987995539466
78,0.04453234364574397,0.047328829255362664
79,0.04446150196098742,0.04803922724843082
80,0.04455422903444337,0.04729223446747472
81,0.04441629120976769,0.047207000056168985
82,0.044501478196073294,0.047288025893230744
83,0.044392134116393346,0.047290471077766356
84,0.044452939981206654,0.0472769860085943
85,0.04441441880760528,0.04709237041707614
86,0.044364776046888973,0.04716266891112285
87,0.04439034731982537,0.047238133139866904
88,0.04429374095432462,0.048870664888574944
89,0.04434295234349699,0.047466572768405275
90,0.044263397087176186,0.047492072568182594
91,0.04431683226667632,0.047832900681026365
92,0.04429852423249085,0.048227413307076146
93,0.04423286159525771,0.04749406885642044
94,0.04429520743606075,0.04832476871826165
95,0.0442950602923321,0.0474514240457867
96,0.04424293108025007,0.04896298070787693
97,0.04425705767666541,0.04728555858797221
98,0.044142792714875055,0.04863202357533074
99,0.044129475609495566,0.047510822006759046
100,0.04425738350890886,0.047195729188300395
101,0.04413879142026934,0.048781116453261344
102,0.044116114966901,0.04717176972551347
103,0.044061017349064896,0.04738882784825602
104,0.044079440089638676,0.04726593597406515
105,0.044102313177508276,0.04784582567140779
