epoch,loss,val_loss
0,0.8012356346047478,0.8003634815417113
1,0.800479083140903,0.8001203204556763
2,0.8001266037809571,0.8001514989240824
3,0.8001548971009376,0.8001216285679669
4,0.8001589218171472,0.8000965152058277
5,0.800146588052067,0.800100886799976
6,0.8001352691396081,0.8001522850058884
7,0.8001268098369595,0.8001052761751829
8,0.8001188166039266,0.800117856763896
9,0.8001192775293695,0.8001140952772879
10,0.8001167644797461,0.8000833038651831
11,0.8001142118906304,0.8000932572871252
12,0.8001079999982557,0.8001176207779664
13,0.8001143493725198,0.8000823448522897
14,0.8001080211949447,0.8001099953542385
15,0.8001036686604853,0.8003092223033842
16,0.800108420764208,0.8002083812305922
17,0.8001024634695315,0.8000897742110963
18,0.8001063271241917,0.8000744984218842
19,0.8000973110341685,0.8001175537144587
20,0.8001018318260242,0.80008085174032
21,0.8000996810692449,0.8000893224056171
22,0.800098312201074,0.8000817290512138
23,0.7553877358651865,0.7501315813613957
24,0.7501161407079312,0.7501428011856288
25,0.7501159455752597,0.7501135343632207
26,0.7501162532447441,0.7501244400869727
27,0.7501139623639829,0.7500964146541076
28,0.7501156372609298,0.7501180050807358
29,0.7501129443202628,0.7500957386473237
30,0.7501128700190524,0.7500958513869016
31,0.7501132043603009,0.7501005077430213
32,0.7501115343965221,0.7501463897790117
33,0.7501117892202122,0.7501266053911049
34,0.7501117830856985,0.7500965827956206
35,0.7501102514699136,0.7500964223496096
36,0.7501144410051314,0.7501130208564747
37,0.7501115471277874,0.7501675333459169
38,0.7501086205060865,0.7501798382075378
39,0.7501163737851372,0.7500968698103958
40,0.750111808196029,0.7501028432426934
41,0.7501121965753461,0.7501025157531747
42,0.750110685711366,0.7501061993855341
43,0.7501134293933034,0.7500999827450829
44,0.7501104795618906,0.7500954072532605
45,0.7501108074491606,0.7500987338446162
46,0.75011152598592,0.7501808883359323
47,0.7501115258711494,0.7500908205778765
48,0.7501074059946475,0.7501095872001458
49,0.7501115029394901,0.7501453026544674
50,0.75010868454301,0.7500978404564651
51,0.7501076009711362,0.7500983931553711
52,0.7501072249476146,0.7500939915790545
53,0.7501078644629721,0.7501094347951297
54,0.7501076726353813,0.7501138140469179
55,0.750109806575295,0.7501196347996983
56,0.7501068970311588,0.7501356062178046
57,0.7501099454991146,0.7501147325661365
58,0.7501078780583701,0.7501879074762071
59,0.7501071156492285,0.7501011461478596
60,0.7501081169316935,0.7500942837288972
61,0.7501083096695619,0.7501029782358078
62,0.7501062196020302,0.7501022054057889
63,0.750109137882938,0.7501651553742674
64,0.7501077380791333,0.7500907867479574
65,0.7501068047152869,0.750104492157816
66,0.7501060848714823,0.7501215438284684
67,0.7501076434177584,0.750099867411941
68,0.7501087492153137,0.7502133837858609
69,0.7501095671091869,0.7501330461760675
70,0.7501073036341701,0.7500925279002503
71,0.7501067598770168,0.7501863666578041
72,0.7501076875082442,0.7500939242647094
73,0.750106165584076,0.7500964443097138
74,0.7501061034639415,0.7501303721358327
75,0.7501090995341424,0.7501225948276947
76,0.7501044681262068,0.7501585523022419
77,0.7501056984223639,0.7500974634715218
78,0.7501068473689697,0.7501037588133894
79,0.7501081158762763,0.7500926634802295
80,0.7501030792713692,0.7501084270061946
81,0.7501042983456337,0.7500917477154895
82,0.7501054577604317,0.7500968729529623
83,0.7501059061746852,0.7500986163769902
84,0.7501043045972845,0.7501472784438473
