epoch,loss,val_loss
0,0.45661861460685976,0.4502994228856647
1,0.45062935645385127,0.45031776134269624
2,0.45042925432843145,0.45038888989288844
3,0.4504206701493449,0.4503026292075879
4,0.40383278228286773,0.40032557700860494
5,0.40044260522916275,0.40037836875113986
6,0.4003837618367507,0.40036023168340834
7,0.40039303922613445,0.40051515921252256
8,0.4003772471800573,0.40035873288736845
9,0.4003603669014692,0.4003637165839244
10,0.4003896764765611,0.4004846791677178
11,0.4003513727369882,0.4011851926019916
12,0.4003603088440597,0.40041053302944585
13,0.40035649394722717,0.40068704226584173
14,0.40034590612708737,0.4003168079414613
15,0.40034403253385853,0.40025858357915506
16,0.40034504099442225,0.40026524206021485
17,0.40032177781846845,0.40030871473438534
18,0.4003364007094225,0.40040239563949226
19,0.4003221836311,0.4004498142746113
20,0.4003272156094858,0.40047197645195554
21,0.4003136938802973,0.400578008909935
22,0.40032238878510723,0.4003604928713972
23,0.4003024245219617,0.4002769649719764
24,0.4003151356402866,0.40025182252216474
25,0.40032399068453633,0.40049392502232545
26,0.4003263938924863,0.40024238731371936
27,0.40030231513700465,0.4002636122087344
28,0.40028998079511297,0.4006096990747983
29,0.40031155748681474,0.4005957195422603
30,0.40029592481385623,0.4002356109035873
31,0.40029364728120354,0.40026025025640494
32,0.4002933456385614,0.40030105323266735
33,0.4002932124635313,0.4002948774716126
34,0.4002864046530864,0.40024189679645744
35,0.4002930038480634,0.40027410835761273
36,0.40028667118121863,0.40030458084416615
37,0.40028557357083716,0.40027697956314046
38,0.4002857464809825,0.40023327237256884
39,0.4002898897996956,0.40029922007037777
40,0.4002820087343162,0.40023670695652297
41,0.40028571674768026,0.4002396247704786
42,0.40028074387068346,0.40050240230168427
43,0.4002836514169812,0.4004094732414451
44,0.400284919430695,0.40025526152417
45,0.40028397045803327,0.4002482220944628
46,0.40028802350801307,0.4002444821751381
47,0.40027759306177313,0.4002415722767588
48,0.4002847495335764,0.4002333057268434
49,0.40027932923503357,0.4002472324983381
50,0.4002808436281141,0.4002397446186936
51,0.40027971561197667,0.40023815204496327
52,0.4002792120009044,0.4002378582102506
53,0.4002794532447753,0.4002470278836478
54,0.4002814879616718,0.4005620338073586
55,0.40027492340220466,0.4002694701327773
56,0.40027514072072296,0.40023904054178516
57,0.4002750657592852,0.4002318979658474
58,0.40027457060555144,0.4003472640738897
59,0.40028064942820113,0.40022813097028215
60,0.40027665040564114,0.4003825234892597
61,0.40027717993872125,0.4002341773300033
62,0.4002688460621085,0.4002410691135059
63,0.4002722855737575,0.4005845788903552
64,0.400277050147652,0.4005992757965501
65,0.40026824969777347,0.4004703375537641
66,0.40026929927720845,0.4002286321434006
67,0.40027705586429774,0.40023180160879124
68,0.40026350704705477,0.40065528681463
69,0.4002755530969765,0.4002703960611647
70,0.40026866473268435,0.40030253792501963
71,0.4002733323176463,0.40028560203712327
72,0.4002690408778787,0.4005719908830077
73,0.4002705647789821,0.40038370656857364
74,0.4002704396067433,0.40025422471145494
75,0.40027012392776284,0.4007415864199556
76,0.40027800102093225,0.4003094107324365
77,0.40027295218959313,0.4002650817230578
78,0.40027711091972384,0.4002286025327559
79,0.40026908749509466,0.40031880115220825
