epoch,loss,val_loss
0,0.6039561195071644,0.600216070612177
1,0.6004412652696409,0.6004895352741755
2,0.6003249687882893,0.6002267544347558
3,0.600325148130721,0.6003114773968922
4,0.6002819416668546,0.6001858856018448
5,0.6002736510909394,0.6003802034548962
6,0.6002586794124187,0.6003506425706019
7,0.6002586880545341,0.600414186318526
8,0.6002393550168308,0.6001748184665945
9,0.600244405928241,0.6001672439202631
10,0.6002267608989524,0.6002834812646748
11,0.6002320361362041,0.6001945186488606
12,0.6002235824600807,0.600429716248616
13,0.6002124987005603,0.600465447997903
14,0.6002193261192441,0.6004563560651677
15,0.6002095362297776,0.6001803150475357
16,0.6002151470443305,0.6002012690003001
17,0.6002074753739527,0.6002266749524305
18,0.6002120865009984,0.6001710338035575
19,0.600211312925575,0.6002404551354972
20,0.6002148562260248,0.6001553255754065
21,0.6002037218407935,0.6001586673873861
22,0.6001974282024946,0.6002374438088868
23,0.6001937564819134,0.6001709023931584
24,0.6001939912392678,0.6001913455605261
25,0.6001913089217926,0.6002457912609618
26,0.6001975771366067,0.6003531170483901
27,0.600198780270759,0.6001763498572976
28,0.6001889519366576,0.6003617162986163
29,0.6001879544329488,0.6001526072836687
30,0.6001877197497419,0.6002192197526393
31,0.6001826846581515,0.6001674982551849
32,0.600190817036263,0.6004296154593104
33,0.6001815121023055,0.6001739851137712
34,0.6001863759201206,0.6001556940886715
35,0.6001794643528213,0.6001762388309865
36,0.6001776838112195,0.6001497417929742
37,0.6001778152497019,0.6001628054708493
38,0.6001770966194694,0.6001727403260912
39,0.6001760587515759,0.6001763520296441
40,0.6001743206731612,0.6001834392935695
41,0.600177766048962,0.6001768653754754
42,0.6001784313904879,0.6001739569442583
43,0.6001792490374659,0.6002705047125663
44,0.6001755153706811,0.6001621039117805
45,0.6001755285574796,0.6001532476526111
46,0.6001792953547399,0.6001501289581295
47,0.600174789579309,0.6002062275539566
48,0.6001725795365609,0.6001464303323195
49,0.6001725119484504,0.6002764444048677
50,0.6001752094791566,0.6003307092704715
51,0.6001723595309884,0.6001840004452225
52,0.6001719738099343,0.6001425214479779
53,0.6001763985608003,0.6002556978851646
54,0.6001743250103894,0.600138905399732
55,0.60016973375169,0.6003024706920783
56,0.6001790176053067,0.6001454078055042
57,0.6001698227999493,0.6001708216566461
58,0.600169174144348,0.600142520127532
59,0.6001710215716319,0.6002262421774641
60,0.6001753080395802,0.6001631122213215
61,0.6001679301683911,0.600292489020166
62,0.6001718250820939,0.6001507933364703
63,0.6001714777303441,0.600139620338373
64,0.6001711000834679,0.600162763107726
65,0.6001723570624323,0.6001552051545249
66,0.6001645350235058,0.6002309852050035
67,0.6001660651342562,0.6001445387485804
68,0.6001714196260008,0.6001594802709312
69,0.600164049034666,0.6001430259719053
70,0.6001695232957497,0.6001784312397559
71,0.600170350537716,0.6001504183487607
72,0.6001640593778331,0.6001477894829212
73,0.6001683279107887,0.6001456219023213
74,0.6001669364765684,0.6002128544650003
