epoch,loss,val_loss
0,0.5560595439739889,0.550249066209157
1,0.5504031770357615,0.5502937028090765
2,0.5503530989037818,0.5502683007236282
3,0.550356331014718,0.5504885089052884
4,0.550340083560474,0.5502740310613591
5,0.550290184757122,0.5502586940015632
6,0.5503922340789872,0.5501775297831596
7,0.5503075181082341,0.5530034984239078
8,0.5502362462207411,0.5501997399674685
9,0.5502557871732588,0.5501850409338885
10,0.5502561175649754,0.5503049499745859
11,0.55025151132022,0.5502131237043962
12,0.5502500305557435,0.5501831512006669
13,0.5502390618907268,0.5503523907520211
14,0.5502551709658191,0.5501806538966756
15,0.5502415126092111,0.5502378181538847
16,0.5502321914184375,0.5501838075853405
17,0.550225274305071,0.550196121188408
18,0.5502340324686512,0.5501803681597514
19,0.5502321245682513,0.5503057797257628
20,0.5502184149186059,0.5501966244676141
21,0.5502252833396154,0.5502059711754199
22,0.5502236528179117,0.5502092670273626
23,0.5502206245042432,0.5502695993466927
24,0.5502165645372582,0.5501807746914468
25,0.5502068054812755,0.5502468783627886
26,0.5502161115112735,0.5502976718707294
