epoch,loss,val_loss
0,0.5301419769982704,0.4664811031758447
1,0.33413844047378216,0.25701235848670073
2,0.2627178938437501,0.23180575052462066
3,0.26078029999955354,0.25206723041826407
4,0.2612644389295597,0.23872830362843964
5,0.26597051656513426,0.25146296576861915
6,0.26826311657436375,0.24149405008781663
7,0.26715998012151976,0.2516749438989095
8,0.2653157172726096,0.27463811736278965
9,0.26173550499568854,0.24700176466893878
10,0.2660904423511916,0.2604774813993327
11,0.2632412439327034,0.23517341011438733
12,0.26387954047553724,0.25027232927127474
13,0.2625618520691645,0.23688860294399278
14,0.2619221661034062,0.26077220733341705
15,0.26477860655781743,0.2557807172809494
16,0.2605826428370346,0.23570022550135827
17,0.2625728364142062,0.2507851870438962
18,0.26383252091723697,0.25496021970586863
19,0.2616253551349247,0.24383189179311412
20,0.26242116351930306,0.22652971692570611
21,0.26382332561825445,0.2516977902553184
22,0.2641636969221889,0.26641528055809033
23,0.2600001464064738,0.2575156729417609
24,0.2581903973073841,0.24820865270140108
25,0.2599910939152571,0.25728285295733183
26,0.25860667787044883,0.2620291655878661
27,0.2581912994122295,0.22170857097787386
28,0.2576866249521796,0.23357877592100715
29,0.2590079550341285,0.2456432916918907
30,0.25670232477070715,0.25356936613090236
31,0.25925359710323226,0.2244330654396628
32,0.2577888744594671,0.24782483133473052
33,0.2616464265639349,0.25927053724278887
34,0.25718447012458445,0.24516746050104898
35,0.25752011256469926,0.25592955975926995
36,0.2530921174823236,0.2314521543808517
37,0.2583414728971746,0.25311064061505567
38,0.2586906237588872,0.23736234941041673
39,0.2609380387706314,0.2377172185218344
40,0.2570783681660485,0.2671183430727961
41,0.25749987376342304,0.24756586765575872
42,0.2561866519950312,0.2416956658080063
43,0.25468196552261724,0.22926256536760664
44,0.2562322868727702,0.24451853426751913
45,0.25848407779124566,0.245216087654946
46,0.256311244964361,0.21729453196877496
47,0.25534422151607167,0.23028422563373802
48,0.2588107481396036,0.24436490664323557
49,0.2596647185120609,0.2413045267505754
50,0.25587395462300705,0.25665435308570894
51,0.25948638159385007,0.23063724704950878
52,0.25641796704503994,0.24464558255885155
53,0.2571528912652388,0.24154738291481695
54,0.2566887973498305,0.2505968196524514
55,0.2575695726862423,0.23155494034290314
56,0.2567530769923384,0.23700570315726868
57,0.2560070992840396,0.2368684208136889
58,0.25685261317593655,0.23171673089096628
59,0.2578542713609765,0.2535096773846016
60,0.2575232030703031,0.23926835667284543
61,0.2539872002599237,0.22424130023299246
62,0.2556382560665556,0.23496549021201896
63,0.25615720517688795,0.223065136098707
64,0.25800304920722045,0.23824644660379282
65,0.255789332336383,0.22221660766288312
66,0.25472718327521704,0.2286477190807208
67,0.25534980693418946,0.24759820397317844
68,0.25503524215675716,0.23357265590654575
69,0.2571001235989211,0.21986514345621153
70,0.2540237378833101,0.25292286674423325
71,0.25536689821412983,0.24038044330025723
72,0.2549936718600478,0.21545636126981552
73,0.2542506698146164,0.2438730753517112
74,0.25341520608187296,0.21873322509936172
75,0.2563524818222364,0.2240724781738097
76,0.25472736460051604,0.23516989120456713
77,0.254290826004252,0.2198618621431708
78,0.255256969705403,0.26740293910565266
79,0.2540087051647868,0.22586240669574953
80,0.25684038364142775,0.23788438411089627
81,0.25542840223798186,0.22507060856376349
82,0.2541134019939302,0.2345158859350192
83,0.2549075554725263,0.23097939235788967
84,0.2539566195695948,0.25252559627591353
85,0.25443172145834725,0.26244233885820767
86,0.2551011268774255,0.23808563135062788
87,0.2537687224648398,0.23170133246847602
88,0.25384191972456327,0.2400575323696554
89,0.2550445439411794,0.25981841858141036
90,0.25608991162241507,0.23318794824104433
91,0.2553031556397748,0.2518691630476583
92,0.25384542495728113,0.2515021110707343
93,0.2539356145098078,0.24033049972001266
94,0.2523854510057822,0.2408880438151054
95,0.25341066710346694,0.23253556567532013
96,0.25471878946543314,0.250433952317234
97,0.25511531965483464,0.2359001017859189
98,0.25630644942112596,0.23259113018385105
99,0.25460488518015495,0.23819036009537914
100,0.25473681843285567,0.2377295898332503
101,0.2524389407639985,0.218009447021786
102,0.2538937774954365,0.24203555265385643
103,0.2562795168130373,0.24690684542023641
104,0.25510408534251566,0.22478985607575713
105,0.25394718935362715,0.25610199430466474
106,0.2546843902899133,0.23513642694296533
107,0.2529565170407295,0.25094470034888966
108,0.2560541374837045,0.23270026625217893
109,0.2560271469770287,0.22775068280905703
110,0.2522529452693186,0.23044434628492436
111,0.2540858627689944,0.23847947012865728
112,0.2558409197627305,0.2402550222205613
113,0.2544487853041642,0.23636249930802536
114,0.25688805049352403,0.2285481036579522
115,0.2548292186782301,0.23701800853134844
116,0.254583306401801,0.25495397998662084
117,0.2566885920263845,0.2500836026929591
118,0.2555734002478033,0.24380003401687836
119,0.25475679292642567,0.22425791734809905
120,0.25383376068263364,0.23691880690887124
121,0.25454538230231705,0.2412500895457063
122,0.25341766627074436,0.22679019522976315
123,0.2541643607559158,0.24510181827556768
124,0.25388326548976453,0.24110031576293905
125,0.25174012155629233,0.23112715484645438
126,0.2538210337607263,0.23620574699604502
127,0.2533761953548778,0.2388912231237639
128,0.25350842556302505,0.23465927827435593
129,0.25393041845461767,0.23890848996817146
130,0.25496609043106255,0.21718560008140278
131,0.25398712867708373,0.23091658083336777
132,0.25734865881377356,0.22293368170441213
133,0.2513482945086099,0.24037157186433153
134,0.25534569509058974,0.24968074509890603
135,0.25382123498008957,0.23452430724227516
136,0.25368163162011736,0.2328615401662276
137,0.25572601208288825,0.24513049397106976
138,0.2524680977969097,0.2394911076659027
139,0.25286056555276687,0.2207591277815323
140,0.2545073215213654,0.2204761766169193
141,0.25714563476361685,0.252648432384829
142,0.2537369549608498,0.2502370958563185
143,0.2529802546143723,0.22410033065568888
144,0.25345873224248494,0.23598701571509398
145,0.254061854373607,0.21823222620982227
146,0.2541112775763003,0.23054294248276963
147,0.2530974368926427,0.22826569060291205
148,0.25387542762214227,0.245201961511243
149,0.25420806083896813,0.2170053768331987
150,0.25335318619628444,0.22563662889375014
151,0.2532786743356,0.23135396910699904
152,0.25118902060177156,0.227331519332342
153,0.25181674530760967,0.22700027883391213
154,0.25590502926475817,0.2329923651465921
155,0.2518667715718691,0.22748197697326603
156,0.2546498708134656,0.25913540042471517
157,0.25362974615265027,0.23921817259535205
158,0.25257605693643814,0.24052713874241055
159,0.2515443879320585,0.2322370002449574
160,0.251565932696633,0.2288163996211707
161,0.2542638448510674,0.24519928760482157
162,0.25346076337574386,0.2370952225055331
163,0.2532135317500254,0.23850053444879382
164,0.25581706091582634,0.22027325655567095
165,0.25298146083891343,0.2215462119499069
166,0.2539872688422497,0.2435157125980411
167,0.25344243028266034,0.2218559615295879
168,0.2543156185419298,0.24618744033193163
169,0.25354518628626277,0.23696032542333503
170,0.255874655377254,0.2316411612170166
171,0.2543604505942572,0.2435951534196408
172,0.25379371328698436,0.22818477241517274
173,0.2551604524386034,0.23068678389935598
174,0.25431944441804893,0.23411676558361533
175,0.2539652243459387,0.2369177912974493
176,0.2537005755057136,0.22952407280652387
177,0.255307422633215,0.23093269567178307
178,0.2540860511690641,0.2521477750738945
179,0.25354734812978746,0.22805296370437836
180,0.25140149433246317,0.2566311053526856
181,0.2517169846760167,0.23304838699871025
182,0.25436387988354703,0.23222742676251512
183,0.25385346791570523,0.2306764292842667
184,0.253834572879432,0.22151074126447398
185,0.25633353555651067,0.23260089062571235
186,0.2524136253494659,0.2196167769682475
187,0.252390302801199,0.2317389692123209
188,0.25367136636049487,0.23697245385670024
189,0.25703472608895755,0.23840334601790947
190,0.2542877639647576,0.23000951378401566
191,0.2520522916013952,0.23083427509735585
192,0.25528986812282123,0.23694495387852724
193,0.25466126735636097,0.23606384230742877
194,0.25423502471682735,0.22267353220480976
195,0.250403989705923,0.2383877837309872
196,0.25239924198871044,0.23643807710328918
197,0.25750571803105554,0.23040267947188064
198,0.2554601941397898,0.23309068239179936
199,0.25396157594157565,0.22720502584036636
200,0.2530258393244709,0.22550628142732
201,0.25347771700784816,0.22848380547370353
202,0.25250549074575557,0.2305433450074865
203,0.25261525556242304,0.23299152694721098
204,0.25432787212827285,0.2228375719339018
205,0.25397707035748646,0.2374844735507934
206,0.25532788383044464,0.23491686035101722
207,0.25462628065275134,0.23154155877384827
208,0.25390307289109026,0.23288330381369068
209,0.2553874396795841,0.23214308756788088
210,0.2550927561769684,0.22795906316093187
211,0.2567682981467228,0.24277454202530932
212,0.2555118112133635,0.2367613311714983
213,0.2554699813155196,0.2330294726998073
214,0.2530767474833539,0.235837231901537
215,0.25565484259203014,0.23595412521466722
216,0.2556771715525821,0.23707332825235303
217,0.25566674118713917,0.22953167978284422
218,0.25630405806512047,0.22641066613471905
219,0.25821547436895514,0.23208901597925635
220,0.25481961569111283,0.22705403719601935
221,0.2544160674484946,0.22717471834081804
222,0.25576167757674345,0.2382021499110351
223,0.25349537035624825,0.2411796841090613
224,0.2539962930403489,0.22539340072014616
225,0.25649277936873005,0.2516521318768063
226,0.2580627030532679,0.25443538066244475
227,0.2597115936281206,0.2375638443743999
228,0.25465246978356804,0.23620430639335419
229,0.25425765896029623,0.22587083601555202
230,0.2553388726673096,0.24063749415596036
231,0.25480736258795394,0.2165117830714847
232,0.25407930443867194,0.2266696531262131
233,0.2549907661574759,0.22778196312601937
234,0.2557204648243894,0.25611914467105806
235,0.2568192059775178,0.24649196159810624
236,0.25487419539947714,0.2604063260705125
237,0.2558930207482331,0.23563033326650576
238,0.2578581491764113,0.24555730999772954
239,0.2571553623704933,0.22673074335512453
240,0.2563917638004733,0.23265863194856234
241,0.2548239528834581,0.2360375487553039
242,0.25544651729569995,0.2387215871566307
243,0.25476582965152184,0.24722670016255885
244,0.2569957022503722,0.2546099696764594
245,0.2539405644691592,0.21464774070575
246,0.25472848915500196,0.23706235164370076
247,0.2538303750767719,0.22481370681635462
248,0.25533167181538047,0.24368975173141158
249,0.25418129020495067,0.22813951471232827
250,0.25511450569232624,0.23858871178615412
251,0.2574647501397362,0.21196862127079
252,0.2576898132816995,0.23009351114625382
253,0.25703824125379443,0.2308118970338059
254,0.25224270439558355,0.22065661643350018
255,0.2523710751910511,0.2532265229091737
256,0.2538912648423087,0.22362011917606178
257,0.255227709766194,0.25448822804756116
258,0.2532226549114009,0.22321498432685374
259,0.2543752397223412,0.23517754108366304
260,0.2538290536098236,0.2413191575880275
261,0.2539757734494175,0.23083289356755707
262,0.25819160791637424,0.2288780622939607
263,0.2558178617607793,0.253182612474334
264,0.25457194538188993,0.24126691108347437
265,0.25374880920442416,0.21811451813068605
266,0.25615528077960875,0.2418586602683775
267,0.2574705765235892,0.2253814278244489
268,0.25611055478322403,0.23474996669304052
269,0.25403890135982116,0.25985479484170987
270,0.2556518176563078,0.2437206167736773
271,0.2537397552278636,0.2303052558733599
272,0.25312786054811637,0.21850697867820057
273,0.25435418031328294,0.24984513311393844
274,0.25604647528037155,0.2299866827880089
275,0.25568160620496405,0.24711338299517696
276,0.25531227635540327,0.22865249598451678
277,0.25556140092967317,0.23276411329259356
278,0.2571116221294678,0.22031525068667876
279,0.25429687683013463,0.2434671976077102
280,0.25506544536690984,0.23323871252117173
281,0.2553348604014055,0.2291565651537825
282,0.253969948765657,0.2685345735428107
283,0.25422696213873985,0.22322708843253244
284,0.25439892454539614,0.22928142826777595
285,0.25482566948171803,0.23734723498012994
286,0.2542097396593842,0.24705402093840534
287,0.25382760680728766,0.23252335738236596
288,0.2516097937456315,0.22591016411974676
289,0.2531118175809721,0.23345355637558862
290,0.2541212018749254,0.2337549812819836
291,0.2558126348533852,0.23858956214333585
292,0.2541503058112651,0.2279207922778087
293,0.2561981054224235,0.23029939969284013
294,0.25621120183109,0.2158890692977913
295,0.25217649059070407,0.24457535739846087
296,0.2523711743929369,0.24567190137754488
297,0.2569090636719982,0.23315901915329024
298,0.2545066511003469,0.2607942767266036
299,0.2533508906002232,0.22081397120921667
300,0.2538305484623409,0.253278583046487
301,0.25514782429505006,0.2304068794481559
302,0.2541948531130202,0.237014038175562
303,0.25744906459764255,0.25054023396118036
304,0.2555580486456235,0.23700795190322718
305,0.25590841339124115,0.22202937813764265
306,0.25281539030247824,0.2214400496723588
307,0.25541855597658286,0.22586455802219435
308,0.2567067611172163,0.23951380550619653
309,0.2551694828703749,0.26560942229224915
310,0.2539019317830726,0.2614223490327911
311,0.2561272540814978,0.2228632177024572
312,0.25447946876359046,0.225647201950436
313,0.25589938192748374,0.23356401812759534
314,0.25472042731063854,0.24167603332872614
315,0.2529489921094228,0.23896971922624624
316,0.25430429050381226,0.23388679174514485
317,0.25456431189520634,0.2433298098320702
318,0.2533397561817574,0.2381271737456225
319,0.2552978279497072,0.220900883349769
320,0.253180443936343,0.22796439110555983
321,0.2555524572920952,0.23912683903977625
322,0.2554096097858836,0.23948642483399538
323,0.25608306926927915,0.254202382855075
324,0.2552034952360883,0.237019064664744
325,0.2538841817620471,0.24121519557025892
326,0.25565279096818333,0.21965687917145113
327,0.2546909378410531,0.23371499977456006
328,0.2555502590964182,0.2732532303674571
329,0.25511876296839586,0.2331367022533873
330,0.2538917082920372,0.23594967873475461
331,0.25375351331847684,0.22117239820551118
332,0.25562467380129306,0.24035760519810062
333,0.25438990878810686,0.219418415429625
334,0.25658619106770325,0.23846440030517177
335,0.25477419664160167,0.23335474185699964
336,0.25399249057778367,0.2228979533727055
337,0.2539380970504209,0.24233535365998407
338,0.2554555886668907,0.22851074332883467
339,0.25481137359519307,0.23337481178748154
340,0.25400748379450977,0.23238289913363508
341,0.25631330117547485,0.24487350739701821
342,0.25319017358929563,0.2260412077954989
343,0.2555535842803977,0.22905472026109117
344,0.25601926221071575,0.23293797198051566
345,0.2556836147180455,0.23150727865856446
346,0.2554844806643368,0.24948528740141127
347,0.25436704768668755,0.21869452420957478
348,0.2550163603334832,0.23740197302409524
349,0.2555803234597222,0.22130009325316352
350,0.25634234397410394,0.2491160956636639
351,0.25636555363623215,0.2307846609862568
352,0.25595318296367975,0.2306321292076281
353,0.2552661748052693,0.23871581267266379
354,0.2562155410993376,0.22753308617962345
355,0.2564226768558936,0.23712192047976519
356,0.2565121317895247,0.24014974651980575
357,0.25543320397313257,0.23091034574278563
358,0.2556439960916773,0.25982018542647456
359,0.2553758776550583,0.24916185256145104
360,0.25691674683120747,0.24450680979702014
361,0.25408295683377835,0.2417961297993339
362,0.2532858768697258,0.2320405278061815
363,0.25450454334362305,0.25142373254602746
364,0.2557314443793461,0.24227520750966966
365,0.25663458131211964,0.23587632306155787
366,0.2552076678654497,0.22690719783016075
367,0.25490556613768073,0.2397693297602931
368,0.25815700570209393,0.2525030568495864
369,0.25500412258484345,0.24416573561987834
370,0.25575043061812275,0.232966609994087
371,0.2551680613067553,0.22950792252195626
372,0.25515467707541967,0.2379497345975039
373,0.25565250798928635,0.23444419316131704
374,0.25767185201971315,0.2524673173389876
375,0.2530135323671554,0.23099102470223148
376,0.2538317134074443,0.23730952464896107
377,0.25461899401475374,0.2328728677679249
378,0.25968697599714713,0.24334493935688278
379,0.25730923684336265,0.2243469672312315
380,0.25602885672719694,0.2568234731802008
381,0.25601038571187645,0.23930173089904508
382,0.25486841986330155,0.22338665171019545
383,0.2546238269958141,0.22121289750713694
384,0.2538192763781433,0.22391177265506784
385,0.2565144465996133,0.2307799066094393
386,0.2567102983176374,0.2371136835940176
387,0.2554033679352272,0.23409230296484165
388,0.25348664674045945,0.22691491214801698
389,0.25504233551512157,0.2523274326580671
390,0.2578463105021046,0.24106099743574302
391,0.25584150090801705,0.22610890072530976
392,0.25308873998918374,0.27164181995614217
393,0.25786644124311864,0.2451650011447611
394,0.25545581464795136,0.2544520897103439
395,0.2537629653910716,0.22802496167913455
396,0.2571316838288326,0.24122234056224112
397,0.254494763546891,0.23820524518313876
398,0.2536218016385269,0.22604318658027434
399,0.2537380091613345,0.24005478338941943
400,0.2508961553927705,0.23910833230515563
401,0.2524416513257832,0.2320445592047621
402,0.2539686235167486,0.24068337970164763
403,0.25161776821120824,0.24245715815655505
404,0.2517554415606135,0.2318567294757345
405,0.2495593247328213,0.2271236803288974
406,0.25155894498261,0.24126339057839602
407,0.24903805268774803,0.23153558088238416
408,0.25347295228699096,0.22017955655550822
409,0.24865221041884777,0.22690941034442316
410,0.2502822087133666,0.23437433185271878
411,0.24932452147488024,0.22117375906946596
412,0.24866114548438067,0.2353514243047216
413,0.24798992327492747,0.23072262020103348
414,0.24764290234868863,0.25141117390054857
415,0.24858499933377182,0.219912537934813
416,0.2489172654022113,0.23323497135080368
417,0.2504384429085913,0.22459882874848489
418,0.2480002332976859,0.21662610893750325
419,0.24852266875479678,0.21425924519649484
420,0.24941026963430754,0.22778259383307564
421,0.25157471308357915,0.23015283409503062
422,0.25434302042325657,0.2452575269382559
423,0.2524897017783886,0.2501725262606521
424,0.25479988822992367,0.2397985316492732
425,0.2552210006525843,0.23209556781317486
426,0.2552826658929225,0.23788193132900554
427,0.2588340936599969,0.2506085121694466
428,0.25916233759006563,0.23938941947106704
429,0.25990646624798963,0.2494438701012419
430,0.2592521869332147,0.2463941315108939
431,0.2590983585596944,0.2484217059148199
432,0.25754227534568813,0.23571192296123658
433,0.2582461097605043,0.23016810576701105
434,0.25502656496840537,0.24542396169364308
435,0.2572186574984112,0.23277455656536208
436,0.2579518636767629,0.22988166885461056
437,0.25739998522522545,0.2652911767061416
438,0.2554617015014084,0.25284410858434675
439,0.2555187246721205,0.2374194893934624
440,0.25918995248999377,0.23650059883466892
441,0.2565235320726235,0.22422863493483916
442,0.2525378913104868,0.2455982888436182
443,0.2513846116449186,0.23140846452670472
444,0.25030945950717903,0.23053896812675256
445,0.2518431661103228,0.26712904691647826
446,0.25482530469556536,0.2377566776789018
447,0.25668843582666234,0.24140053806223719
448,0.25443034013024896,0.2385226719788391
449,0.25426705871776545,0.22047366400076332
450,0.257935775928587,0.23963731991403583
451,0.25183584936577574,0.224729968598966
452,0.2531691350227742,0.23186710747585776
453,0.2547561302244234,0.25819444402581004
454,0.255071984155117,0.2361889367217662
455,0.25194339303253555,0.22951113329316578
456,0.25486779960395817,0.24205781811876986
457,0.2562068313050022,0.22755072270093268
458,0.25323971713467347,0.25607946337429566
459,0.2539882097151682,0.24028482212589122
460,0.2556050765612204,0.24053071951682453
461,0.25598339189449437,0.22380101833030255
462,0.2553256504518018,0.2236261098779321
463,0.25586117136540465,0.22849675951357887
464,0.25147303952585703,0.24275874407525383
465,0.2543744127735126,0.2339561579677987
466,0.2533345620831649,0.23990609030944007
467,0.2541479354886841,0.21944262262581812
468,0.2527638801438413,0.22952283058385006
469,0.2553183455184233,0.2331051072838436
470,0.2551094875443545,0.23241337324097597
471,0.253157983931472,0.24908990662511732
472,0.2545611353708898,0.225207182262259
473,0.2567336141669435,0.22594100525731103
474,0.25255879012940885,0.24241986369226198
475,0.25301100112635005,0.23110312161799476
476,0.25397948492422784,0.24654395775590016
477,0.25455311506843453,0.22784771527928835
478,0.25173685287503456,0.22335657555933222
479,0.2560338491888596,0.23473768428100963
480,0.2554881684869838,0.23090509159093162
481,0.25553267288675685,0.23330266684269577
482,0.25350185372740675,0.23047063264630233
483,0.2541959794928686,0.22875185517499047
484,0.25726998278839863,0.22869756929002347
485,0.25557779917438284,0.23110160850357062
486,0.25637332483636943,0.23118497285046233
487,0.2538986746564782,0.23225221307366628
488,0.25375536593009795,0.23159485372555325
489,0.25389181977038006,0.22321406542191347
490,0.2574065644040501,0.22130001633029978
491,0.2582350637766721,0.25448386956063695
492,0.2552289159191523,0.23676484574269976
493,0.25554614133530373,0.23496103573164512
494,0.2546009551092469,0.2404025696030692
495,0.2560159718159965,0.25645216614225486
496,0.25442581841523787,0.24939946007264502
497,0.25611826946870914,0.24747041594131342
498,0.2559027415487745,0.23228651524460228
499,0.255605054573358,0.2646521944054142
500,0.25841874254642244,0.22037223379058946
