epoch,loss,val_loss
0,0.42525927048921586,0.31397211354970933
1,0.24394466958940028,0.2602109540998936
2,0.2649021877348423,0.26515165823698045
3,0.27235762669146063,0.26209578853845594
4,0.27506630957126615,0.27977045652270316
5,0.2783054353892803,0.2766596909761429
6,0.28350404688715936,0.27866308483481406
7,0.2873491754978895,0.2936933737397194
8,0.2929445722401142,0.28410332536697386
9,0.2949728383272886,0.2850204102694988
10,0.3026225174218416,0.29148922488093376
11,0.3061838390678167,0.3057908514738083
12,0.31058467157185077,0.30430482110381124
13,0.3136035303771496,0.3122253161072731
14,0.3192488987445831,0.3079854288697243
15,0.32245445472002027,0.31743015080690384
16,0.32527793619036677,0.32431733012199404
17,0.33133436857163906,0.32693501508235934
18,0.3341136748492718,0.32304213362932205
19,0.3389112770855427,0.33259307307004926
20,0.3420380475819111,0.3366923043131828
21,0.34731901007890703,0.33789202898740767
22,0.3490652251243591,0.33830818778276445
23,0.352105915337801,0.3475102581977844
24,0.35278328531980513,0.34498520731925963
25,0.35714779829978943,0.3492261721491814
26,0.3569621506035328,0.3514524137377739
27,0.35842979621887205,0.3569757851958275
28,0.3597843524813652,0.34900685358047484
29,0.36140677785873415,0.35159170925617217
30,0.36035136169195175,0.3545330306887627
31,0.3624310469031334,0.36377925032377245
32,0.3640862489044666,0.35138086140155794
33,0.3637152731716633,0.3553725391626358
34,0.36463068443536756,0.35882173281908036
35,0.3664753927588463,0.36574721348285677
36,0.3729501309990883,0.370580393075943
37,0.3798042480647564,0.3708638716936111
38,0.3816088510155678,0.37393673074245454
39,0.3819839318394661,0.3807480878829956
40,0.3837759650349617,0.3767444756627083
41,0.38393154892325404,0.37664398247003555
42,0.38431275364756584,0.38101176446676255
43,0.38244468259811404,0.3724985187649727
44,0.3796931843459606,0.3769218580722809
45,0.37804907059669496,0.3703956880569458
46,0.379695684581995,0.3705101855397224
47,0.37877690225839616,0.3720371599197388
48,0.38012471443414686,0.37180208426713945
49,0.3810011112689972,0.37370516985654834
50,0.38192550411820414,0.3804498935341835
51,0.38358150947093966,0.37656711125373843
52,0.3833165052831173,0.38540538960695264
53,0.38512410563230515,0.379018875002861
54,0.38609081792831423,0.37756260025501254
55,0.3857559068799019,0.38957450395822524
56,0.3860343360900879,0.3825742421746254
57,0.3877909640073776,0.3758969739675522
58,0.3874729484915733,0.3810001302361488
59,0.3874948388338089,0.3791417247056961
60,0.38773302307724955,0.3821791671514511
61,0.38877658265829085,0.3781012551188469
62,0.3894411134421825,0.3798273301124573
63,0.38885550859570506,0.3842389004826546
64,0.39037608325481415,0.37868024623394014
65,0.39049925094842913,0.3820515792965889
66,0.3907905631661415,0.38382421958446505
67,0.3913681129515171,0.387050213098526
68,0.39182043126225474,0.38555973863601684
69,0.39271114346385,0.38531148761510847
70,0.3929568907022476,0.3846040365099907
71,0.39286131915450095,0.382868703186512
72,0.39421809059381485,0.3835883346199989
73,0.3942937214374542,0.3836490504145622
74,0.39402630826830864,0.3867738536000252
75,0.3947948432564735,0.3895619047284126
76,0.3952031016945839,0.3860215011835098
77,0.39593911498785017,0.3949655364155769
78,0.39583865827322007,0.3858160549402237
79,0.39615871807932856,0.3876464900970459
80,0.3968855711221695,0.3920223326086998
81,0.3969897707700729,0.38650788623094556
82,0.39812978699803353,0.3875259958505631
83,0.39934679234027864,0.39218864583969115
84,0.400253895252943,0.3909790449142456
85,0.40048793718218806,0.39750694966316225
86,0.4001460087001324,0.3928096519708633
87,0.40058800658583643,0.3905668677687645
88,0.39939918905496596,0.39075549644231794
89,0.39873397135734556,0.3924545203447342
90,0.39929048386216165,0.38796131652593613
91,0.39807433512806895,0.3871590460538864
92,0.3987569399178028,0.3885443488955498
93,0.39833400973677635,0.3919863277077675
94,0.39820121932029723,0.3900868377685547
95,0.3974210045337677,0.4010269148349762
96,0.3975263996422291,0.38726159650087355
97,0.3972262552678585,0.39010782426595686
98,0.3975755388736725,0.39393749392032623
99,0.3975969040095806,0.3926808236837387
100,0.39656892412900924,0.39653672939538953
101,0.3951287852525711,0.3868065611720085
102,0.39295142167806624,0.3888272043466568
103,0.3941421637535095,0.3923533920049667
104,0.3935223900675774,0.3868112531900406
105,0.39354240599274637,0.38999794483184813
106,0.39186768913269043,0.3822388107776642
107,0.391829827606678,0.3849988239407539
108,0.3914283696115017,0.390554797410965
109,0.39126833084225654,0.3833561600446701
110,0.3915745543837547,0.3848732014298439
111,0.39156171947717666,0.379181359231472
112,0.39131859958171844,0.37958277654647826
113,0.39073764890432355,0.3792931653857231
114,0.38920841449499133,0.3774291927218437
115,0.39011654058098794,0.38648555624485015
116,0.39030407363176345,0.3816648260951042
117,0.3910587128698826,0.3814714272022247
118,0.3904708335995674,0.38122998529672625
119,0.3904607755243778,0.3889757478237152
120,0.39106278094649316,0.3877935358285904
121,0.39117394241690634,0.3838675334453583
122,0.3912928264141083,0.3837644715309143
123,0.3905330508351326,0.3816304445266724
124,0.3919246083498001,0.38717577010393145
125,0.39135857370495797,0.3847198825478554
126,0.39122250720858576,0.3811776944994926
127,0.3914379499256611,0.38435358387231827
128,0.3910910333395004,0.3845345989465713
129,0.3913620356619358,0.3847994349002838
130,0.39248212742805483,0.3829611747264862
131,0.3921450262963772,0.38242477053403856
132,0.3919911905527115,0.39421242934465406
133,0.39194587099552153,0.38783928734064105
134,0.3918026470243931,0.38254854053258897
135,0.3915797173678875,0.38527657073736193
136,0.39159234264492987,0.39630613195896147
137,0.3908824695944786,0.381359403192997
138,0.39090194973349573,0.380247155547142
139,0.3911303095817566,0.3849698387384415
140,0.3914653196632862,0.3821580991744995
141,0.3918818022310734,0.3825111148953438
142,0.3918935035765171,0.38973197144269944
143,0.3924401468634605,0.39022221314907074
144,0.39179231598973274,0.3824010172486305
145,0.3922023347616196,0.3904909747838974
146,0.3933088779449463,0.38742647314071654
147,0.3928078374862671,0.3859442947506905
148,0.3919349174797535,0.386360189974308
149,0.39282484909892085,0.38976261687278746
150,0.39339689958095553,0.393839956343174
151,0.39289314758777616,0.383070896089077
152,0.3923821157515049,0.38167680889368055
153,0.3918022176623344,0.3903192144632339
154,0.3914831070303917,0.3840771324634552
155,0.39198127821087836,0.39064282751083373
156,0.3923054470717907,0.3862592861652374
157,0.39195274624228477,0.3851881989836693
158,0.3921510631144047,0.38400201314687726
159,0.3920461646616459,0.38527909100055696
160,0.39181889283657073,0.38918882113695147
161,0.3919335111379623,0.3884168424010277
162,0.39129756978154184,0.38772916042804717
163,0.39217560294270515,0.3838797979354858
164,0.3928079785704613,0.38526794731616976
165,0.3926087157726288,0.39039228212833404
166,0.3929488793313503,0.38525534856319427
167,0.3936756256222725,0.39239689153432844
168,0.3930907206237316,0.38436361247301104
169,0.3941210287809372,0.3872221674323082
170,0.3937281315624714,0.3900805428028107
171,0.3934752805531025,0.38265124773979187
172,0.39323987895250323,0.3893721350431442
173,0.39323108810186386,0.39190280383825304
174,0.39377904745936393,0.3888324342370033
175,0.39344000738859175,0.3868435316681862
176,0.39240329736471175,0.39071729815006256
177,0.39311550760269165,0.38738344168663025
178,0.3929674621224403,0.38492522984743116
179,0.39209838956594467,0.38472291362285616
180,0.3918828980922699,0.3824721385240555
181,0.39119547832012175,0.3818302845954895
182,0.3913229066133499,0.3835768961310387
183,0.3918555321097374,0.3917376022338867
184,0.39167428627610207,0.38850431817770004
185,0.391468754440546,0.38476039451360705
186,0.38932715544104574,0.3853376398682594
187,0.3898376657366753,0.38211424320936205
188,0.3886758082807064,0.38969031393527986
189,0.3876237688958645,0.3850085982680321
190,0.3871297567486763,0.3782175459861755
191,0.38683568790555,0.3757094515562058
192,0.3869302757382393,0.3814859411120415
193,0.38597765627503394,0.3827006614804268
194,0.3861426945924759,0.38648531717061996
195,0.38214074262976644,0.37566093856096267
196,0.38109591537714005,0.3791386024951935
197,0.38252473178505897,0.3766477318406105
198,0.38011806574463847,0.3761710078716278
199,0.3796013481914997,0.3695078040361404
200,0.37713034895062447,0.3722328149080277
201,0.37434020861983297,0.36560960865020753
202,0.32135210871696474,0.3009604404270649
203,0.29696408767998217,0.2819011401832104
204,0.29227250424027446,0.2842196595072746
205,0.29257801970839503,0.2902000424563885
206,0.29184598265588285,0.2902849138081074
207,0.2935522498786449,0.2810192925333977
208,0.29360806494951247,0.28586430206894875
209,0.29546936647593974,0.28092096707224845
210,0.2949134339988232,0.2912998452782631
211,0.2957412509769201,0.2930579894781113
212,0.29610045893490317,0.2946974880695343
213,0.29655464848876,0.28867732182145117
214,0.29636703230440614,0.2840003908574581
215,0.29728803035616874,0.30113763746619227
216,0.29741514921188356,0.289319073587656
217,0.29797615098953245,0.2976349062025547
218,0.2986791865825653,0.29044988736510274
219,0.29946071925759316,0.28628601151704786
220,0.29962375743687153,0.28900137478113175
221,0.2995935503989458,0.2975236338973045
222,0.3014136916846037,0.2963166519403458
223,0.30073236384987834,0.2920998118519783
224,0.3013779565542936,0.2960924575328827
225,0.30074557711184025,0.28738594630360603
226,0.3019668083190918,0.29878366383910177
227,0.30196324783563616,0.2894455309212208
228,0.30156007412075997,0.29224436441063883
229,0.3020730785280466,0.2965472650229931
230,0.30210021188855174,0.2995720321834087
231,0.30307514052093026,0.29535455775260927
232,0.30244911113381384,0.290022795945406
233,0.30227963930368423,0.2916380818784237
234,0.30154073384404184,0.2937375862300396
235,0.3022842861264944,0.2896434704363346
236,0.30250095151364803,0.30050318413972854
237,0.30380642883479597,0.2948568947315216
238,0.3027328301370144,0.2898243892788887
239,0.30414306761324406,0.29638586127758026
240,0.3047562134563923,0.2913223171532154
241,0.30421003267169,0.2965504007935524
242,0.303965634688735,0.30019845655560495
243,0.3033984841555357,0.296120439261198
244,0.3030917685180902,0.28815468406677247
245,0.30316026039421556,0.2963425850868225
246,0.3059730313718319,0.2950092847049236
247,0.30603566555678846,0.29624601647257803
248,0.30793461990356447,0.3084109102487564
249,0.2970023949891329,0.29738039371371267
250,0.2946730763167143,0.2846638303101063
251,0.2942440672516823,0.2807465487122536
252,0.2963481397032738,0.28893978306651114
253,0.29868618175387385,0.28826676538586615
254,0.2988650751560926,0.29255539739131925
255,0.2985859922170639,0.2908646541237831
256,0.2979546240121126,0.29559531274437906
257,0.298474304869771,0.2980511329770088
258,0.29990383704006673,0.28939775565266607
259,0.29948853212594984,0.29833907771110535
260,0.2999139471054077,0.28984810498356817
261,0.3004395018965006,0.29294801262021064
262,0.3014487698972225,0.2868463150858879
263,0.30200360821187494,0.3009703492820263
264,0.30142567586898805,0.28780056539177895
265,0.3017252155840397,0.2944874511063099
266,0.3011597186625004,0.28652802380919457
267,0.301904282823205,0.2909353901445866
268,0.3021455987095833,0.3004591417014599
269,0.3024877823591232,0.28734238505363463
270,0.30251209349930286,0.29355810341238975
271,0.30367689788341523,0.2918464477658272
272,0.303612342312932,0.3002672960758209
273,0.3046486383080482,0.29451533752679826
274,0.30323466849327085,0.29124125188589095
275,0.30332995231449605,0.29270714738965037
276,0.30253740221261977,0.2918738671541214
277,0.30365363593399525,0.2941138681173325
278,0.30432630720734594,0.29538885483145716
279,0.3049776300787926,0.29325504207611086
280,0.3042684359252453,0.29028823056817055
281,0.3054743622392416,0.2915399409532547
282,0.30549274483323097,0.29417300248146055
283,0.30522994419932364,0.29253236716985703
284,0.30486313784122465,0.2926151242256165
285,0.30580708833038805,0.2963161469101906
286,0.30692634083330633,0.29571077120304107
287,0.3057760379612446,0.2950468893349171
288,0.3055905971378088,0.2925812222957611
289,0.30518302592635155,0.2944582698047161
290,0.3058815315514803,0.29605360102653505
291,0.3055715216845274,0.2946329630613327
292,0.30563534995913505,0.29712240236997606
293,0.3064107790440321,0.30590659046173097
294,0.3061400480270386,0.2945170100927353
295,0.30686918666958807,0.29403669369220736
296,0.30690376690030097,0.29295943105220795
297,0.30717347675561907,0.2981983009278774
298,0.30711371076107025,0.3094467875063419
299,0.3081138246059418,0.29705954778194427
300,0.30763225677609446,0.2914361099004745
301,0.30782869273424146,0.2955126838386059
302,0.3076121025979519,0.2921686999797821
303,0.30735823045670985,0.29633009278774264
304,0.3083981801569462,0.2999965924024582
305,0.3085371025055647,0.3039542053937912
306,0.3088944362699986,0.29906408470869067
307,0.30867630314826966,0.3100652810931206
308,0.30942377890646455,0.29861216256022455
309,0.30969932314753534,0.30284502053260803
310,0.308923151627183,0.3028291137218475
311,0.30955043572187424,0.3052808746099472
312,0.3095413915216923,0.29512096765637397
313,0.30937051378190517,0.3046745108962059
314,0.30923545922338963,0.3036605978608131
315,0.31008117711544037,0.2979669705033302
316,0.3100259639918804,0.30500260150432584
317,0.3096637500822544,0.301170751452446
318,0.31002696114778516,0.30066378659009935
319,0.3112783823907375,0.3062381780147552
320,0.3113970240056515,0.2993208464682102
321,0.31079653948545455,0.30119143694639205
322,0.3108927040100098,0.29943996995687483
323,0.31190006402134896,0.30005443850159647
324,0.31186048236489294,0.3001156350970268
325,0.3132148499786854,0.3063834688067436
326,0.31203838565945624,0.30012209284305574
327,0.31235342770814895,0.3046334169507027
328,0.3131936278343201,0.3090085468888283
329,0.31497106187045576,0.3023900879919529
330,0.315407656788826,0.29971568155288697
331,0.3139466049969196,0.30423073554039004
332,0.3131200048029423,0.30402982914447785
333,0.3135521679222584,0.2996553721725941
334,0.3116471141576767,0.2954549896121025
335,0.31111960250139237,0.29871637469530105
336,0.3111619561314583,0.30570120438933374
337,0.31179063716530797,0.30633575201034546
338,0.3120336262881756,0.3081586298346519
339,0.31200634248554704,0.30084520983695984
340,0.3112353784739971,0.29698194268345834
341,0.31126642194390297,0.29747858944535255
342,0.3122347390949726,0.30303729343414304
343,0.3117570717930794,0.3033193636238575
344,0.311094179302454,0.3018370535373688
345,0.31119388464093206,0.3025435301959515
346,0.31217040184140205,0.30213061153888704
347,0.31292066152393816,0.303013362467289
348,0.3130416089296341,0.3036524245738983
349,0.31322781816124917,0.309857616096735
350,0.31285308238863946,0.31295766633749006
351,0.3135551638007164,0.3003763215839863
352,0.31227333165705207,0.30294487524032593
353,0.3132678109407425,0.3003456067740917
354,0.3125666100382805,0.29809881779551506
355,0.3125678338110447,0.3036756592988968
356,0.3125738616287708,0.29980994683504103
357,0.3130962110161781,0.3011425248980522
358,0.312388193666935,0.3056020066142082
359,0.3123923836052418,0.3038611238002777
360,0.312961774289608,0.3008319928944111
361,0.313039417296648,0.3066012431681156
362,0.3129816493690014,0.3108936200141907
363,0.3132546102404594,0.3082158084511757
364,0.314499118745327,0.30088422566652295
365,0.3137495021224022,0.3051008810400963
366,0.3135539134889841,0.3025296629369259
367,0.31307329764962194,0.302396596968174
368,0.3135907090753317,0.3017272121012211
369,0.3140888257622719,0.29860189363360407
370,0.3139419768452644,0.30186364763975143
371,0.31321130961179733,0.30263057014346123
372,0.31376810641586783,0.3019139712750912
373,0.31418229430913924,0.3029198916554451
374,0.3143762429356575,0.30869988244771956
375,0.31416105821728707,0.302020828127861
376,0.31433722588419916,0.3005278879106045
377,0.3140193290710449,0.30654171910881994
378,0.3138987352252007,0.30358001160621645
379,0.3138217080384493,0.3079528960585594
380,0.3132712569236755,0.304892187833786
381,0.3133634721487761,0.3108594423532486
382,0.3148909850120544,0.30216506639122964
383,0.31520987455546856,0.30425366169214246
384,0.31363567751646043,0.307993480861187
385,0.31373561298847197,0.30454849696159364
386,0.3136215743720531,0.30405612403154375
387,0.3148950496613979,0.3034129268229008
388,0.3141233562976122,0.3035187800526619
389,0.31321083709597586,0.2990041819214821
390,0.3135911537706852,0.3032714945971966
391,0.31435383373498915,0.30490182170271873
392,0.3141683203279972,0.29962137234210967
393,0.31389854572713377,0.30537409147620204
394,0.31393667060136793,0.30003485387563705
395,0.31497362327575684,0.31107656556367874
396,0.31539125749468805,0.30482268691062925
397,0.315556697756052,0.3138005017638206
398,0.3153749722540379,0.30553121092915536
399,0.3147007039785385,0.3016110433936119
400,0.3150897332280874,0.31079931819438933
401,0.314418553173542,0.30280511328577997
402,0.31396798631548883,0.305154654443264
403,0.314513096421957,0.30314060151576994
404,0.31390331938862803,0.3038235612511635
405,0.3147681651711464,0.29822102922201155
406,0.3155364466905594,0.3016132625937462
407,0.3148496915400028,0.30008989438414574
408,0.3137094388604164,0.30236695080995557
409,0.3138239487111568,0.30208416053652765
410,0.3151031101942062,0.2965941818356514
411,0.3142674632370472,0.2991003952026367
412,0.31383002242445945,0.3035734784305096
413,0.31430141639709475,0.3080136129260063
414,0.3149672718346119,0.31534754943847654
415,0.3142254505455494,0.3127611120939255
416,0.3147667092233896,0.3074682061672211
417,0.3136682106554508,0.2995483772754669
418,0.31440794095396996,0.30856834834814073
419,0.31392669849097726,0.30150498676300047
420,0.31480356527864933,0.303611411690712
421,0.3146604890525341,0.30388680928945544
422,0.31591548496484756,0.30989405733346936
423,0.31504265546798704,0.30768889755010603
424,0.31464476910233496,0.30405894929170607
425,0.31561638233065603,0.29943517661094665
426,0.31560674858093263,0.3087805443108082
427,0.31558489030599596,0.30141873890161514
428,0.3146170165389776,0.30947281432151796
429,0.3142513081431389,0.31335013049840926
430,0.31452521857619287,0.3087846577167511
431,0.31472538590431215,0.30310332584381106
432,0.3146170129776001,0.3038395369052887
433,0.3156480175256729,0.30446294820308684
434,0.3151292269229889,0.3046707462072372
435,0.31512926530838015,0.3005358430147171
436,0.3159159988164902,0.30552337431907656
437,0.3157204701602459,0.3095889137983322
438,0.3161446394920349,0.30381203693151476
439,0.31476795828342435,0.31398306393623354
440,0.3142781347632408,0.3039411977529526
441,0.3142351030409336,0.30223905023932457
442,0.3157409980893135,0.2993523084819317
443,0.3150893151462078,0.3013919486999512
444,0.31553502231836317,0.29938386952877044
445,0.3147221089750528,0.31084353232383727
446,0.31440494892001153,0.30108947271108627
447,0.31543171854317187,0.30296272987127304
448,0.3147154157757759,0.307614627301693
449,0.3145295516997576,0.3006030277311802
450,0.31503332835435865,0.3010805123448372
451,0.31591399040818213,0.3069258416891098
452,0.31527808207273483,0.29918536058068274
453,0.31546004077792167,0.2995792305469513
454,0.31501065945625306,0.30701998257637025
455,0.31553914174437525,0.3037296935915947
456,0.315563088208437,0.30458891624212264
457,0.31563419088721273,0.31704663872718813
458,0.3146510687470436,0.3032025886178017
459,0.3145519632101059,0.30162976080179216
460,0.3139583117067814,0.30639462250471117
461,0.3131638376712799,0.3019501103758812
462,0.31480706568062305,0.30305027329921724
463,0.31506135323643686,0.3115133358836174
464,0.3153098921477795,0.302105188280344
465,0.31513534221053124,0.3008195583820343
466,0.3145442819297314,0.3125865442752838
467,0.31422671139240266,0.30066354924440386
468,0.31413819624483585,0.310088869869709
469,0.3145396009385586,0.3047110203504562
470,0.3145218062102795,0.31218766152858735
471,0.3147553544342518,0.3039889419674873
472,0.3138748030215502,0.3007285224199295
473,0.3131796423494816,0.30795481711626055
474,0.31375710187852385,0.3103426617383957
475,0.3145611398667097,0.3025575353205204
476,0.3145851267576218,0.3039293423295021
477,0.31436881130933764,0.2973809814453125
478,0.3135571860074997,0.30417335414886476
479,0.313667229115963,0.3098380732536316
480,0.31388674457371235,0.3139269187450409
481,0.3137828460484743,0.3001941772699356
482,0.3135818770825863,0.305541954934597
483,0.3140838385075331,0.3009488498866558
484,0.31363500678539274,0.3104299962520599
485,0.31422743329405783,0.3055724757313728
486,0.31395908069610595,0.3004765685200691
487,0.31462786594033243,0.3004192238152027
488,0.31453434816002845,0.30342785322666166
489,0.31450179176032544,0.30997717076539993
490,0.3143852286040783,0.3060194317102432
491,0.3140040244013071,0.3044511697292328
492,0.3127476471066475,0.3138318911790848
493,0.3120722071230412,0.2972631593644619
494,0.31139984545111654,0.3044269498586655
495,0.31134301275014875,0.30195639795064927
496,0.3109019318819046,0.2977007541954517
497,0.31085279370844365,0.29823615330457687
498,0.31051751285791396,0.2981300719678402
499,0.31026265782117846,0.3003438785970211
500,0.31021622198820115,0.3002547706067562
