epoch,loss,val_loss
0,0.5103103547715683,0.4488684176576882
1,0.3959163142095288,0.3130658002568761
2,0.30765848139746843,0.3243210478130628
3,0.28984072378533093,0.26353136679068484
4,0.2774788080405196,0.2871662836706165
5,0.27744993208956015,0.273228189286331
6,0.2753855236668029,0.26541680750185553
7,0.27634869477718327,0.2666711820907353
8,0.27696417134890466,0.27842897533258576
9,0.2743530061254032,0.2650006729490082
10,0.27319121103080585,0.2532123393361779
11,0.27467521536555456,0.26133445960326784
12,0.2739848370870368,0.2768995366803244
13,0.2726810199676083,0.2627562742743759
14,0.2741855505504925,0.2510563996223928
15,0.2702405589511148,0.26045582786093663
16,0.27218691316888843,0.2657599681678673
17,0.2709101704392937,0.2538032757128919
18,0.2684691851381496,0.2532031362194988
19,0.2667343548899464,0.26114947661237803
20,0.26792753040432643,0.26064491298560294
21,0.26450734946420423,0.25030936063882886
22,0.2658606138202646,0.2489834080260649
23,0.2634660152970456,0.24264820411934276
24,0.2624819066533573,0.24650187053191208
25,0.2619666663215483,0.23850171919383367
26,0.2601516011884634,0.26123207092091794
27,0.2561384133451743,0.25910275156963963
28,0.2497252512923043,0.23228517203725457
29,0.23600357330685334,0.21880676741775998
30,0.22849874341602416,0.22876881719215653
31,0.22690010184140277,0.2083357455207387
32,0.223010723075693,0.22211776045358772
33,0.21922701343691187,0.2062343861741548
34,0.20046771716794745,0.19262431879789965
35,0.20358874647019862,0.18185891049089997
36,0.18289766823045248,0.14266463273657307
37,0.16844812652067817,0.1590443513109156
38,0.1677819491178394,0.1528522207100316
39,0.1665801188831715,0.14686500634590205
40,0.168141300411965,0.14945578935275886
41,0.1664963886111951,0.15919930811152647
42,0.1663263699083065,0.1345445901663054
43,0.16566008088992443,0.14817811201257813
44,0.1643682393171579,0.14869912018257722
45,0.16225024260837045,0.1410329032323753
46,0.15875724451042253,0.15837505926277612
47,0.15881653114246597,0.1434353142553776
48,0.1556892208695364,0.14137576549447656
49,0.1566661362550419,0.1350604606020383
50,0.15386799136527163,0.14774393105376377
51,0.15170625901465612,0.1331477007207016
52,0.15693896826359632,0.1335123748928671
53,0.15471006024351494,0.13833317652477642
54,0.1560145178414565,0.1344127317305899
55,0.15066528032489832,0.12406312970977823
56,0.15188900474086106,0.1250768435479951
57,0.150766279873512,0.1331409629425283
58,0.15355970134274113,0.1470134200804715
59,0.15335653554663073,0.12558753086315938
60,0.150632160641939,0.1306210892019674
61,0.15163855327724265,0.12497052595635691
62,0.14948601294174682,0.13193082651735222
63,0.14477355547362655,0.13110258210290282
64,0.13549941363599036,0.11039692584639725
65,0.13440100310312164,0.12966795656029423
66,0.1358629623838097,0.11399121985552471
67,0.1359342425655994,0.12779659767607218
68,0.13856361763144703,0.11818320872163927
69,0.13800902618132563,0.131016070946193
70,0.13466439904679386,0.10430609494665244
71,0.12987976802812756,0.11126194934195266
72,0.129324212273638,0.11032086901445265
73,0.12907217267313129,0.11981825189119612
74,0.12996517158179782,0.11781179558694217
75,0.12948225748787126,0.11020544255930335
76,0.1288428718687965,0.11109186140918577
77,0.1314262427669988,0.11156453539686095
78,0.12635124078970417,0.13222388956402728
79,0.12996263644271033,0.11583102855224099
80,0.13004382686902755,0.11850145033168677
81,0.1274253439793499,0.11215107796135126
82,0.1288467756807327,0.11556537921290425
83,0.1300207774987738,0.11225089079127114
84,0.1260923132527056,0.11110066242413316
85,0.12406284167014474,0.12310030128253928
86,0.12321146880928949,0.1073044248511418
87,0.1222871169000506,0.1106561162453885
88,0.12426756804076741,0.10454579220974436
89,0.12205918311619396,0.11006902672489388
90,0.12347295625303821,0.09751013359425036
91,0.12214745694787814,0.10513641821811186
92,0.12057548331870759,0.10239204868299634
93,0.11826831751388965,0.09590093986057983
94,0.1177548219929274,0.08084099299885447
95,0.11148662011536528,0.12060522087468235
96,0.11323910875557612,0.09403550189172748
97,0.11381874853272358,0.09683351935962305
98,0.11506091194112507,0.09768998382397039
99,0.11464160049350573,0.08744916695397459
100,0.11472373855135458,0.07966846970891141
101,0.11709461591129688,0.08701296125003118
102,0.11409401451293424,0.09622264146466422
103,0.11359387856003664,0.09825139448034599
104,0.11503095306259237,0.10323391642061946
105,0.11803846456426635,0.09779038541895146
106,0.11880929853984888,0.10225646928351581
107,0.11553524898065387,0.11062138779610033
108,0.11255566279491107,0.10317998267679995
109,0.11867711528109684,0.10214119549577834
110,0.1257447190224838,0.09999681433356108
111,0.12059423607215583,0.10658933108087874
112,0.12080556568835046,0.0929189270780711
113,0.12042011740841896,0.11472816860782162
114,0.11955609524233328,0.11378205936199653
115,0.11542617039288207,0.09409884719324614
116,0.11670279151814475,0.10173148880595612
117,0.11706065119589397,0.12342150259191972
118,0.11845875999706092,0.11551183208956142
119,0.12057407807001025,0.09197731380745926
120,0.11875541389191313,0.09380271311755695
121,0.11737795662973001,0.10771802193443657
122,0.12135788022254924,0.1158782019002691
123,0.11937558176435882,0.09423603079397314
124,0.12245996074200727,0.11423574417031884
125,0.12313059061538992,0.10437238826707235
126,0.12432382803103081,0.11013060358004752
127,0.12064152809264089,0.09719574719739947
128,0.1202120250724763,0.10432480009150331
129,0.1272334089164165,0.10049482702072907
130,0.1287716438291405,0.12018610506234668
131,0.1305588328147574,0.12858473142761576
132,0.12960877728531417,0.11740755640870656
133,0.12865932393458196,0.11210996301093917
134,0.1313096968959674,0.13366656468853366
135,0.1300827395991147,0.1128102598677103
136,0.1275383244284255,0.15398791958090743
137,0.12589305983162863,0.1236272658382309
138,0.1296437924132765,0.10476621007735615
139,0.12948046535181942,0.11564063399256677
140,0.13299510004617768,0.10905985147461887
141,0.1331659137063307,0.11987437830523369
142,0.13567646256416105,0.11547368914130637
143,0.13540828922350373,0.1076619616692277
144,0.13512844476308986,0.12725130944767332
145,0.1334517170176256,0.11279211088181122
146,0.1319121452565905,0.1268221115858112
147,0.13320466439672907,0.11429957916170044
148,0.1333386773337499,0.1133759061157075
149,0.13431642551103337,0.13270343541615587
150,0.13929299507633125,0.12737349346461377
151,0.14123103639977375,0.11781181265137008
152,0.13862901615848341,0.12131906618021991
153,0.1409830335852764,0.130403951837682
154,0.1374942069296077,0.13389246742824956
155,0.14263347426266837,0.14246474150251007
156,0.14807600310568908,0.14714633905467037
157,0.149261720687318,0.13265116414280317
158,0.14685838488493566,0.12663767289820477
159,0.14828749562354923,0.14355118347925572
160,0.15300576922724587,0.1335037709768961
161,0.15256422897987218,0.12903637253503344
162,0.15793416873992586,0.14818371927240276
163,0.16273199794612664,0.15539715080148112
164,0.1678047156523618,0.15114215678034618
165,0.16868633903962693,0.15276993194176527
166,0.17104813560926982,0.16218113169883772
167,0.17197275077633328,0.15392499857575354
168,0.1716408204463265,0.15830126916574253
169,0.17218955836480287,0.15420632259519915
170,0.1737303541566106,0.16527424759359158
171,0.1746651149415273,0.16950044926597352
172,0.17593956971354632,0.1546196754227203
173,0.17672502334185655,0.1632708934379707
174,0.178966819300496,0.15910977930048087
175,0.18064479209524426,0.16868950690642084
176,0.18257352801336585,0.1853089935273923
177,0.18174109348148895,0.17027787790487958
178,0.18172062930462357,0.1653219517456354
179,0.18198145463394585,0.17518372448208075
180,0.18324283613943404,0.1645923594537056
181,0.18409390128355585,0.17088787412363055
182,0.18338604134807976,0.16832423195641696
183,0.18137296275187245,0.16728154131168285
184,0.1815811987873838,0.16801040611756302
185,0.17999271943783454,0.16860848493626324
186,0.1788755496643227,0.16359981249742941
187,0.1778128948017919,0.1673547356583583
188,0.1777829452782416,0.16309802461376252
189,0.1789547444684349,0.1628595199330203
190,0.17745014447703947,0.16428242554919853
191,0.1772786231041909,0.1672416942289276
192,0.17990083070255644,0.17608500414037742
193,0.17596774798235576,0.1710521438418127
194,0.17673374408538386,0.15698150218451593
195,0.17569799380327722,0.16070994818152592
196,0.1734955700291835,0.18374024976924097
197,0.1717633119582223,0.16076004924516996
198,0.17094793874588463,0.1585656793037277
199,0.17151891647146833,0.16695277488942273
200,0.17184542920932566,0.15258988464328205
201,0.1718064575844569,0.16307138969452517
202,0.1725225712749078,0.16342740873326544
203,0.17214809411807094,0.15535831962623736
204,0.17326941698181142,0.16167663865619236
205,0.17437881052052623,0.15562763363606352
206,0.17345050330742823,0.15957352198775185
207,0.17062774635225034,0.16513590382930232
208,0.1692264989537416,0.15836437355306993
209,0.1673718211505774,0.15667569625213296
210,0.16609040842211847,0.15765781107827695
211,0.1655643885586861,0.14315488448688293
212,0.16173659108155627,0.15165035873772356
213,0.16029110429189605,0.14220025279201923
214,0.15949204845951975,0.15280812570261743
215,0.1567061818432245,0.14886526590619548
216,0.1595187974218324,0.13486008398651786
217,0.15602269783329734,0.12993588220609076
218,0.15408039465546608,0.12556283847887345
219,0.151772027213374,0.14359918024031398
220,0.15217864445990043,0.14533451110100418
221,0.15053031661266608,0.12814682640515976
222,0.14627096916230514,0.12842876758405278
223,0.14682512879789208,0.12555520547688345
224,0.14759506831606262,0.13089136497116824
225,0.14875044886341945,0.13388598412396166
226,0.15114190247509363,0.131821391108504
227,0.15227524725626335,0.1416476574112319
228,0.15015807406331083,0.1328681646714052
229,0.14866179101365962,0.12362494144440664
230,0.14654770558528465,0.12517676179184725
231,0.14362731542858817,0.1270038179527524
232,0.1423473427321216,0.11713588716339891
233,0.14107644297272037,0.12222477316928897
234,0.1444725566495171,0.12324027536438426
235,0.14654771557109084,0.13656128646876883
236,0.14796903111738524,0.12371243814433965
237,0.14295217927822693,0.11968703793976622
238,0.14700411525282792,0.12777766646380745
239,0.14819070399463702,0.1356204507535585
240,0.14570866213787834,0.11869806360637668
241,0.14451325320608144,0.13591582468270483
242,0.14488891693200465,0.13502457949415225
243,0.1445755777154282,0.12913992017241677
244,0.1472275277660836,0.23630443441365082
245,0.14588314314500345,0.13164248994860528
246,0.14518959023613182,0.12823041585264222
247,0.14317269161570254,0.1339073214507741
248,0.14226029288050554,0.113889927725819
249,0.14035894892948736,0.12917476783703713
250,0.13591509631829704,0.1181472136978202
251,0.13827632704945064,0.12926798486675756
252,0.14041276699345145,0.1166705026533772
253,0.13689285600550466,0.13709045240212916
254,0.1359206088591185,0.11691475830011414
255,0.13465211590866835,0.12307956253404262
256,0.13745881458095688,0.1158381709881846
257,0.13894312170813616,0.1283344888617039
258,0.139489729017067,0.12741707967532329
259,0.13960734444906753,0.11693774610878681
260,0.13673933934244373,0.13720650441600168
261,0.13669631682378086,0.12415966300923749
262,0.1369868683829319,0.1276278005065419
263,0.1391389254716227,0.13304693660330985
264,0.13695849547143266,0.12101766528729395
265,0.13669088110924243,0.12252584804946198
266,0.13512112625283274,0.11184711020140753
267,0.13440074043883812,0.1214408109331653
268,0.1309491706768974,0.10895453036339034
269,0.1306158459966807,0.11325143744137262
270,0.13130128172168834,0.10519308018568369
271,0.13321229002719598,0.133901545661596
272,0.13879115535938044,0.1395463164463724
273,0.14185126414828247,0.12934964611244124
274,0.14047257244300612,0.12612020241252214
275,0.14034159148068692,0.11541865530989563
276,0.1399485016431066,0.12876128110451515
277,0.1363065845345716,0.11652944900476149
278,0.13562306288400108,0.12243521069716556
279,0.14022460927048905,0.131153740768305
280,0.1354359853580248,0.12001236643572696
281,0.1363731637668667,0.11851118515273563
282,0.135722391080675,0.10577304343430859
283,0.1324734229734652,0.12378769204781874
284,0.13723674435630812,0.12287308442476602
285,0.13425869531064533,0.128290822730979
286,0.13137680406960323,0.11648109897258122
287,0.13227713558736373,0.11840834610605279
288,0.13294000334566455,0.12194625707607587
289,0.13049581756977868,0.10558298265822806
290,0.13134504144815945,0.11566305349052967
291,0.1288594569984057,0.10499517422619624
292,0.12376929055138813,0.10683911905260658
293,0.12273363309134666,0.11435310720841477
294,0.12369080578343118,0.10874804696075721
295,0.1261268295735431,0.12908860767337238
296,0.12491948420914104,0.10823692345730386
297,0.12636729351597561,0.10121828068080996
298,0.12296544214049943,0.10744821797491377
299,0.12610993264399595,0.11039761349933475
300,0.12775970010863866,0.11108787127582406
301,0.13091763883256455,0.1287607841513936
302,0.1330300251855623,0.12203845798679222
303,0.13168414907039308,0.11257869131494516
304,0.1293261250416883,0.11860163364218003
305,0.12788071706473494,0.12020109971533534
306,0.12658983259629591,0.11221576469972283
307,0.12606424345277709,0.10977390945102757
308,0.1271293121870992,0.10659028278529306
309,0.12828439164808314,0.12085994487720492
310,0.13067961555776642,0.1157539754211661
311,0.1288175868381969,0.11266024686873491
312,0.12305320588181361,0.09494155886471997
313,0.1214247652209454,0.10722670578439354
314,0.12514431564043388,0.1045430927368943
315,0.12431529004744189,0.10636204273862174
316,0.1247974957903926,0.1176668771294105
317,0.12608602493882085,0.11177146944178862
318,0.12703240529490148,0.11232334009197216
319,0.12554143023214118,0.09760546846812272
320,0.12591109764847974,0.11605018582149723
321,0.13033274641399195,0.12178768703392243
322,0.12686331422210598,0.11562234430369187
323,0.12585421899755636,0.12587626083223005
324,0.12715358150790365,0.1071255294136274
325,0.12817635769553906,0.09971173734850547
326,0.12692362675853402,0.1115886881306997
327,0.12393882376454275,0.10729159600881667
328,0.12439310362784742,0.11704017997198925
329,0.12201920834431847,0.10173064895089041
330,0.1245929049797732,0.106488262450463
331,0.12602221182852483,0.10059464661841072
332,0.12255119110902755,0.10687008952088986
333,0.1201687358361516,0.09916132531413584
334,0.12190908185236926,0.09658613769580751
335,0.12095549938271197,0.0950429337605266
336,0.12087858655453444,0.0913938937371858
337,0.1213825001322431,0.10652174788549096
338,0.12182462924391962,0.101762718944799
339,0.12486821986895928,0.1228934812743975
340,0.1266533789233125,0.11018014418237691
341,0.1292915774510802,0.11265584193804548
342,0.12605384325353597,0.10142298050025374
343,0.129890559734799,0.1172529309746316
344,0.13171419050034472,0.12180435449029987
345,0.13393611402166566,0.12000286832318882
346,0.1335591933308982,0.11618716823842017
347,0.13617770238410387,0.11872954464185943
348,0.1380500993859157,0.11634202874949186
349,0.13792224624175564,0.11461813832479865
350,0.1362864755666714,0.11448198361118345
351,0.1349043653304096,0.10383768085411478
352,0.1336860611313004,0.11957763585005944
353,0.13349026914915627,0.1167917970299044
354,0.13396185795792204,0.13242250754643725
355,0.13330611829355873,0.10864542630128714
356,0.12944576811131905,0.11241841787549411
357,0.12403250918138305,0.11220826941564233
358,0.12497505039465819,0.11135544725191468
359,0.12754294093999508,0.11465280495783418
360,0.13109829528234881,0.11280316220776201
361,0.12967165165824637,0.10786994113394234
362,0.1302382850332008,0.11562057471526703
363,0.13396615524581665,0.1267570872630226
364,0.1341860447767928,0.10859369986297053
365,0.13265209826077815,0.11302922097460004
366,0.13358953838841356,0.13241283764151762
367,0.12966710997758815,0.1089749125112679
368,0.13179579848428075,0.12349848170060021
369,0.13150404418130412,0.11650143338356768
370,0.12884568274200106,0.12231549033283318
371,0.12975283464293083,0.11779915716647135
372,0.13356048684773014,0.11826469905112491
373,0.13281077652083959,0.11856393600660713
374,0.13267874092257337,0.10695910177647536
375,0.1337806283950424,0.13127177807488097
376,0.1347307364812033,0.12115630050645257
377,0.1328402310072946,0.11745719481123625
378,0.13418676467348423,0.12644697044162564
379,0.1336419794610064,0.11451396903828306
380,0.13336093362578877,0.10975299614261827
381,0.13470329921707522,0.11938165469640459
382,0.1339128442180214,0.12872416428188338
383,0.13385098439166315,0.11235255899703898
384,0.13314746596438107,0.13065016629221182
385,0.13231373875975322,0.11788004905662204
386,0.1305021675403496,0.10615301952188999
387,0.13354437683729098,0.11407854249708457
388,0.13479278622876653,0.11148885959594693
389,0.13443217588196382,0.10183128871670218
390,0.13229263479335962,0.11249298334653457
391,0.13328971793715527,0.11045995994568451
392,0.13060151533580858,0.11969687268198358
393,0.13245912867965842,0.10905374381132273
394,0.13188312368823873,0.1100362017327755
395,0.1303740402100514,0.1179288834007117
396,0.13325064098112005,0.10263745627529913
397,0.13049695155828642,0.11786478189245435
398,0.12865991958135886,0.11317166122883582
399,0.12804489546687342,0.10977916250916293
400,0.13089342569534163,0.13426843926685184
401,0.13190555279616645,0.1063729271606904
402,0.1308438759550655,0.11468814184703387
403,0.12773965684483773,0.09856747095650613
404,0.1324069483624734,0.11675833386202121
405,0.13177151259503142,0.11931570699107617
406,0.13150775395602202,0.12008981801877637
407,0.12994081819887826,0.10074687161802376
408,0.136038977169604,0.10971792167338142
409,0.1322211267007552,0.11488542934790531
410,0.13281989806265332,0.12646919917330351
411,0.13736131730033838,0.10783209919397752
412,0.13769880346983696,0.12686921598726622
413,0.139575828731752,0.1225678134356102
414,0.13864586160803816,0.13223402110885432
415,0.13802395791734,0.12797042770977438
416,0.135548800060017,0.11498044650557558
417,0.13469196233847697,0.11824741616953899
418,0.13484122781299226,0.11887787739895073
419,0.13458513473574404,0.11251866718979261
420,0.1305242405206657,0.11387965234188364
421,0.13127852743976207,0.12223356584538701
422,0.1354904556878096,0.1367191042621157
423,0.13526963811215637,0.12158451536300215
424,0.1365369460444817,0.11280064667300876
425,0.13563563695268405,0.12817528238406728
426,0.1345796283659599,0.1124662666944885
427,0.13627651811922617,0.12433295686701305
428,0.13818982082774775,0.1264460954183693
429,0.13781338948025715,0.11913406236787588
430,0.14466198184807078,0.12410740901784789
431,0.14790580028278813,0.12297268478322203
432,0.15036302065854076,0.15431361510709157
433,0.16860331410021664,0.16817553381270156
434,0.16194516521773403,0.12964106001872314
435,0.1398300717057611,0.12725043664206748
436,0.1352399074412089,0.10574498064423227
437,0.13136040764429074,0.13117753679275707
438,0.14225685514742323,0.1509854156955992
439,0.13979589833234482,0.13132762404374737
440,0.13701525182009125,0.11534493603869753
441,0.12936625388071382,0.11559086128017908
442,0.12277819821722895,0.10824052978606119
443,0.11860729159237005,0.10967640509256385
444,0.11545679887370457,0.10775737696465494
445,0.11479705716487024,0.09224998479027721
446,0.11361822687250504,0.09983979410281146
447,0.11571371832711874,0.10230971606930193
448,0.11915638795595249,0.09842985505895313
449,0.12065758064592047,0.09447595624544712
450,0.1236653139291285,0.12325419933328953
451,0.12091029542770454,0.10629262599946035
452,0.11714815161674857,0.11373793463081436
453,0.118908233818314,0.10460218886292667
454,0.11983220682466765,0.10314726187799969
455,0.11849096275454431,0.10698445409004609
456,0.12233179007426465,0.11271914204058373
457,0.12249686818918865,0.11275118528370537
458,0.12138257393415114,0.10804369705461044
459,0.12347529839285858,0.11198034234773988
460,0.12484125630725756,0.10521762444662641
461,0.12546391311803276,0.12735607438182212
462,0.1260736850951556,0.10244146771336221
463,0.12682314287778662,0.11079990881927983
464,0.12942890493606357,0.11793492816007921
465,0.129271764958425,0.10868708482382265
466,0.1276357610753959,0.09629911280993224
467,0.1262228736509267,0.10253656267007966
468,0.1301102019082889,0.11528306975900306
469,0.13183414575168856,0.12170576183344423
470,0.13362377565249717,0.10753896429421742
471,0.13509178402318392,0.12882212250941377
472,0.13492363993469192,0.12485720145924731
473,0.13693478339917667,0.1187487959511282
474,0.13811716551275802,0.11679704855925072
475,0.13817737134601518,0.136209803407548
476,0.13599384475866252,0.10979108444119699
477,0.13462607585806385,0.12017693264230131
478,0.13448534542329318,0.11934684955387316
479,0.13535192617482905,0.11617167833029306
480,0.13636643014508215,0.11960624770502298
481,0.13067942369189425,0.12365470474943917
482,0.1333104691970005,0.11194454677952854
483,0.13735136783437982,0.11979742947624451
484,0.1397985544941538,0.12584336010764888
485,0.13959492467421356,0.11412781704782182
486,0.13768844357471738,0.12097810767742066
487,0.13734661397323597,0.12848116066503215
488,0.14110486842900682,0.1349115293995694
489,0.1404163735367662,0.12467479503986223
490,0.14168337676480258,0.12657760451068167
491,0.13569337025499514,0.11489412276148313
492,0.13947298877042613,0.13636482710023287
493,0.1392386135122507,0.11984790607815532
494,0.13861531890731893,0.12740101074892046
495,0.1369542978536949,0.11655518119521771
496,0.13382350046148866,0.12976757461161315
497,0.13426900066560607,0.12496897755288923
498,0.13534652012541257,0.1313765446828423
499,0.13519796835567305,0.11220211982243639
500,0.1333403000421673,0.11900179174525508
