epoch,loss,val_loss
0,0.13713319005770722,0.04415437178105563
1,0.049113642859855575,0.05015667975713347
2,0.037909135066470104,0.04271651099964494
3,0.033681470593683226,0.04557786329157633
4,0.03112607502968882,0.02965265748715109
5,0.028493656011538016,0.043987797798137544
6,0.03056403276972848,0.015875255868379866
7,0.025879527172661846,0.019391639044930263
8,0.024301813358700068,0.012956859857055646
9,0.025997415242112167,0.027163414896157846
10,0.025130188938857115,0.03496942897316219
11,0.024629973145544257,0.023240463575899553
12,0.02378615067708198,0.02230066261985637
13,0.02365059717625326,0.029338662791188626
14,0.023869863059334487,0.02228514174471338
15,0.022351581022421792,0.005846750926176393
16,0.021567635195364032,0.02803505901703001
17,0.021166533303761975,0.021496435636162006
18,0.019957233031431466,0.01705298469723118
19,0.020782500908015478,0.006040581728786748
20,0.02073007335363002,0.018897458716885914
21,0.01938681605906277,0.01996305681494577
22,0.019812071795123433,0.022935622720887273
23,0.01836660664475007,0.021526311238273543
24,0.019197168219708006,0.015169749840588295
25,0.01713377318243019,0.01769061420986101
26,0.018803785919106836,0.014517959415318698
27,0.01815228932388246,0.02048295088576913
28,0.017349195441783524,0.017955937924858802
29,0.016795620158538787,0.012246745334969042
30,0.015993582136329,0.012481478952906362
31,0.015023212111145585,0.009654260522758716
32,0.017378436973047473,0.01818021769681688
33,0.016259383914960946,0.014751954755401085
34,0.015206898852206057,0.012779360796577035
35,0.015501594242954747,0.006360851620759847
36,0.015413323082390884,0.010701196496804916
37,0.014231000862774446,0.015485171868885561
38,0.014252371305479206,0.009441065530336058
39,0.01429580196786261,0.01508502818382365
40,0.013554586992348931,0.014547514485896527
41,0.015466934884991422,0.017136467814786564
42,0.013276659148588157,0.014032582445151005
43,0.014265199946008807,0.011354551769663664
44,0.013133779665522968,0.014252971553470831
45,0.0133563555973611,0.008846502013845573
46,0.013385117421843123,0.01625926369299852
47,0.014327326486688212,0.014841832388148311
48,0.012708604927818707,0.007045387440370639
49,0.01243074314598423,0.02146814897915182
50,0.013231024078147816,0.00645738970466258
51,0.011637547786599197,0.013036181242444097
52,0.01535095418818283,0.013713703732628849
53,0.01316461244301735,0.011296827022659562
54,0.012538652575249486,0.015658787515634803
55,0.012571915530403861,0.007348023121257701
56,0.013203993585589026,0.016312194156042212
57,0.012255369198897914,0.017039668181030507
58,0.012030616425797433,0.008540498174362372
59,0.012502212592640328,0.017263524956125015
60,0.012191846487030452,0.01160880323534724
61,0.012469854328310865,0.012035408160181007
62,0.011483502236185975,0.007002985092054909
63,0.011292531340700135,0.014834987508293297
64,0.011920652057280203,0.012494155487314678
65,0.012157781283091232,0.02064492566262584
66,0.011285889515211043,0.009366730400805833
67,0.011234342203130104,0.010224504859407962
68,0.01129564477095781,0.012598492524894608
69,0.011633803525349226,0.01380758405602063
70,0.01132439495772302,0.01167131101693473
71,0.011144967819135978,0.011913530279359624
72,0.011586762137906841,0.009936811528870602
73,0.010509474999193165,0.007501989094380233
74,0.010816315326729505,0.008804616825574246
75,0.011075422371574621,0.008690761756548848
76,0.010176189430839687,0.01126903887461774
77,0.009885636271911113,0.012811405937780568
78,0.010008375510758758,0.008894670039456523
79,0.010998261841215032,0.006882795954495081
80,0.010341604980792727,0.012227657867776378
81,0.009620016706801451,0.004938555916663974
82,0.010511315487835893,0.011435144172206627
83,0.010739029961363446,0.009031317364380363
84,0.009905414873932143,0.011831786867963252
85,0.009701315581584147,0.010105721517991578
86,0.009713814843432617,0.010712349766772754
87,0.00973485221250279,0.009020343647818445
88,0.00938477435755617,0.006291066762059927
89,0.010228567991962584,0.00840393650244801
90,0.009150338586424287,0.010009810054305743
91,0.009025376796410483,0.007596235986925432
92,0.010094461973840676,0.010580681229852604
93,0.009497349666949692,0.005136907766275432
94,0.009026148134275234,0.008512546240345479
95,0.009712567505743846,0.00832151518083503
96,0.00983400398818441,0.012359716173117333
97,0.009752712062493766,0.008040424847965083
98,0.008760499735295826,0.006988979070414307
99,0.009576980203991647,0.015393351543556543
100,0.010108260589437357,0.008118522792669409
101,0.009217059309817671,0.01148007535570446
102,0.009320449873173741,0.008623761281844496
103,0.009100939195285247,0.007896894041813422
104,0.009178710292368162,0.008956535666410671
105,0.01015276383568751,0.009594810837710712
106,0.009151967288330674,0.0169229435160368
107,0.009107289288537674,0.010569229241292968
108,0.009468551623809197,0.007022985604157247
109,0.008999006501376647,0.00731826896632962
110,0.009348714512941851,0.004105861194912512
111,0.008337592126892434,0.012488920279817498
112,0.009583110866459946,0.006884137052754506
113,0.008861620128407872,0.003927451787933989
114,0.00867132824682947,0.009737059898856783
115,0.009857559529264166,0.00516980766901642
116,0.009623418117204843,0.005976572453434672
117,0.009590301865456457,0.007509535854798466
118,0.008971228530696726,0.0061018279303032864
119,0.009287357305289715,0.012932359141715888
120,0.0090024423307935,0.007639220871263563
121,0.009156299258606861,0.018171073945317102
122,0.009544701224545107,0.013628666745623737
123,0.008709343038681748,0.010314953532555063
124,0.00930343209819825,0.01110567204321969
125,0.008797750848499562,0.008629838969843682
126,0.009088529191418386,0.001951138922910117
127,0.008975880289116025,0.024192536185071424
128,0.00948175808510108,0.009575865263797067
129,0.008990267319117132,0.010160667862928375
130,0.0089638558849,0.004736122592178121
131,0.008752874448522479,0.004705779445919943
132,0.008266149551796017,0.007607893815415529
133,0.009497658768985168,0.009879984121825532
134,0.008648109965682995,0.003780040200674743
135,0.008487178943679034,0.00716915240124656
136,0.00903974970442345,0.009011900927886167
137,0.008961949978942434,0.009319689620253884
138,0.008689621067363963,0.007987169111140172
139,0.009287073431692147,0.005539678276061494
140,0.008458943283974493,0.016812791439227544
141,0.007976508861278101,0.013101802706636119
142,0.008523155446089864,0.008082070707283978
143,0.009573933464824129,0.008966986387644637
144,0.00870627520582099,0.00925557573062045
145,0.008612204530778126,0.006231403661907989
146,0.008736631190638802,0.004865162026419377
147,0.008934834597000984,0.005306873399611407
148,0.008816658586768403,0.00901752200430434
149,0.009245250640503263,0.006383629787739751
150,0.008280476241018533,0.013040473613367602
151,0.008865922885975963,0.006805824390417751
152,0.008408878209738643,0.0077336524306681085
153,0.008717785103356005,0.00797809271072791
154,0.008380849985108017,0.011902218312613119
155,0.008745065134250931,0.005845995170403134
156,0.008359993442068165,0.010145511969206553
157,0.008964415505170364,0.0066911799611925095
158,0.008113692680613505,0.010199425406842225
159,0.008388559801316411,0.004577378818843199
160,0.00874133338071525,0.01088046329279725
161,0.008541841307084718,0.008695262639350372
162,0.007427061124028062,0.005386103122864851
163,0.008718802328294086,0.008888423381830494
164,0.008226953538061736,0.016244812028360537
165,0.008188307596959448,0.016796730636621238
166,0.009192815582494256,0.010619106952427359
167,0.008527621882390693,0.014381779340884538
168,0.008260594200820095,0.007007127565985227
169,0.007974377294362477,0.00908624544304567
170,0.008592164226276108,0.010315258331573329
171,0.008664077885789897,0.008356281799126796
172,0.00876904906845353,0.010513604085689562
173,0.009066416724803869,0.013563308363520168
174,0.008629279198228486,0.005666252982382969
175,0.008341697374188292,0.0033180391198743046
176,0.00843399568886342,0.012877294840033872
177,0.008630146298815849,0.006771421058495965
178,0.008556789173435667,0.022211865716758636
179,0.008486748119886164,0.006615968203155916
180,0.007920574672392858,0.008002263299412232
181,0.008516877327377883,0.0068291767445946405
182,0.008157086252107574,0.008720432181020091
183,0.008890409108927305,0.007853833972840278
184,0.007907314480358302,0.00455266185933261
185,0.008361992106283847,0.007598063199183277
186,0.008318551151055118,0.010671789336717308
187,0.008814132838084889,0.009440576659490508
188,0.008379532460891586,0.010837671484418901
189,0.008500961074642807,0.011423715321169233
190,0.007832800416718069,0.006939412432780817
191,0.008138776000076942,0.009432121729823719
192,0.008587029531596603,0.007571085736202554
193,0.008470535551258873,0.008532803727647593
194,0.008583469569759755,0.007501975524782452
195,0.008459318163272419,0.008140265289988095
196,0.008191857240173957,0.009391072786897539
197,0.008718218474792575,0.007245176054990094
198,0.00808539357744336,0.0068597628278532835
199,0.008233556408899651,0.01004674937796574
200,0.008269857908271516,0.007025839262895563
201,0.008314539467991083,0.008693916889991032
202,0.008740338237883954,0.0061255479668838216
203,0.008558824330923422,0.005189692394641811
204,0.007461652635402388,0.007125015113276342
205,0.00865430270459765,0.00850685615931956
206,0.00773353832853894,0.009519767984248044
207,0.008004723191480908,0.012901980790802833
208,0.007895468609135071,0.0100460279197818
209,0.00793107605236266,0.005271257477611797
210,0.007808261745639866,0.013774329870674633
211,0.007879673210300243,0.00835871240072652
212,0.008301842309215175,0.015266825818407461
213,0.0077243306593847375,0.010326435056609861
214,0.008151803417860879,0.01657376553048839
215,0.007929490066131951,0.0067437974322255
216,0.007524834562492796,0.0063147794884565595
217,0.008956544277396688,0.005669789850394276
218,0.007974914141292635,0.0109872474094769
219,0.00828996741865798,0.009924725278765081
220,0.007928051205417461,0.008646136475396185
221,0.008386638375363208,0.007232330220177382
222,0.008445135141677445,0.015369869276863577
223,0.008734754835282245,0.013094982259481228
224,0.008165123077931343,0.007799110533382917
225,0.008327661360112234,0.008431069930352347
226,0.007470394339621645,0.011548532154660998
227,0.00796828161451227,0.009267896531412897
228,0.007694672268769182,0.010836372987000418
229,0.007522229527763138,0.004550634212600804
230,0.008861697858946173,0.0071620420529268205
231,0.008245831360105428,0.010031468728917409
232,0.007477852456784583,0.008045718318252768
233,0.00796216228211166,0.007132897867241194
234,0.007582560947948812,0.008678113381601077
235,0.008691687280011417,0.008451756639751564
236,0.008089245037290362,0.0068996083116322025
237,0.007330728226250483,0.007202668476044167
238,0.007649137019767886,0.011068735893554074
239,0.0076311725693539705,0.005247580566338389
240,0.007655441058151197,0.007873472121442009
241,0.008125253453040026,0.008439779945008968
242,0.007932107028779205,0.004597296189272742
243,0.007526112652717264,0.011151140948997159
244,0.008644292753530021,0.006224786109293222
245,0.00805918490768207,0.01164548173282169
246,0.007700391982824986,0.009682854325102602
247,0.007753889725862189,0.008247799710491886
248,0.007995396438479085,0.004603504545063416
249,0.008306639855537715,0.007413461291684748
250,0.008755305508556637,0.008379390386786626
251,0.007730738005804108,0.010381791650243367
252,0.007872930140890402,0.005362530890190658
253,0.007649224159939827,0.010953520242368836
254,0.007850329737368074,0.011042972517235832
255,0.008154410205567054,0.005320928284447073
256,0.007671625760616921,0.004322477366265141
257,0.007757130670912123,0.004716488194777597
258,0.00727753295385607,0.003808270669604733
259,0.008258755436166377,0.006316231899242774
260,0.007632018884641679,0.008996566512049326
261,0.008224040269386395,0.006242703946693943
262,0.007740350547440196,0.008111208434721665
263,0.007480135752739821,0.008032958617179575
264,0.007748698965805641,0.009574098195718937
265,0.0071932077727955785,0.00585798739956217
266,0.007469650020301387,0.004645533586654521
267,0.008100223393632854,0.0038064017529131134
268,0.007877129808084653,0.00892889919825304
269,0.007513183392870942,0.004542099724868466
270,0.007779325374482508,0.006489209092024423
271,0.0069861223942676125,0.0035328102737647534
272,0.006978161749430001,0.005095520322508786
273,0.00801722957150747,0.010341284563581165
274,0.007718174757497708,0.009876785565376424
275,0.007716630208049175,0.00868815660841275
276,0.007918319161825007,0.0064693091186564695
277,0.007890985384646753,0.009018796293216374
278,0.008054713239159277,0.01532041113867756
279,0.008462214100116537,0.007987936090195777
280,0.007622024803746233,0.008363082277240863
281,0.00799553294461012,0.011770227893851785
282,0.007906933656713511,0.008992124512062452
283,0.0075013986386680345,0.006024681149313745
284,0.007670665364641753,0.010103615193430043
285,0.008274377961877546,0.010752548584927699
286,0.006970381882279176,0.006322040398999896
287,0.008090793477392924,0.010225986514237563
288,0.007595841829712651,0.0049843061024406905
289,0.007823395207885364,0.0071191532495442625
290,0.006971713087668897,0.0038555213875021864
291,0.007272404987442431,0.01114982795690634
292,0.007904527699861446,0.007081425415415202
293,0.007554984957666146,0.00430760916025505
294,0.007891623631229909,0.0067791957055360385
295,0.007674775195779275,0.006584818819324591
296,0.007886936473340052,0.009054400198802576
297,0.007863088407450251,0.00728901686226242
298,0.007996262234488991,0.008517158011175934
299,0.007721049789090654,0.00403581185787534
300,0.0078352142216937,0.009797640015454205
301,0.008602467414883555,0.0056114659913695745
302,0.007467120399156647,0.016192826157951788
303,0.007321675983927608,0.009728210840753523
304,0.007886690978644986,0.006546141591140649
305,0.007376498990520227,0.007429804664690285
306,0.007594641260088061,0.0068693712530856115
307,0.007479140663975112,0.005381064525869364
308,0.0074662642948386026,0.0038773324232160363
309,0.00745980948823758,0.012534527099987562
310,0.00798650982412439,0.00671378507307527
311,0.007398040538622464,0.00750431354762582
312,0.007342964834101844,0.008042324750060136
313,0.007725671888124361,0.008478377020279065
314,0.00800931251583268,0.012969086110597768
315,0.007457475925290989,0.0038649900515005877
316,0.00766959843813158,0.008774993379968612
317,0.00745894488276278,0.008187810597087139
318,0.00733877789786757,0.007118302675650618
319,0.0074591251063368304,0.008377354803047457
320,0.007875694898232597,0.010315956725741147
321,0.007029977718202157,0.007593157731331797
322,0.00776151471103517,0.005884216561393067
323,0.007452986374267375,0.006053272237811581
324,0.00751879076158135,0.008022367425745127
325,0.00784557543566181,0.004702062552593408
326,0.007625135998196936,0.004859968418609748
327,0.007491360199161255,0.007536707832621324
328,0.006764294272534352,0.006121456033190758
329,0.007084931158159169,0.009588912205848529
330,0.007332410490278789,0.009692099633396565
331,0.006988363841706388,0.01120760467273919
332,0.007892376167043079,0.007190526059175229
333,0.007188056887545847,0.005592029139284859
334,0.007426251453045252,0.007743906579991095
335,0.007409760892167122,0.006113944026099808
336,0.007664109237766047,0.010929031861356468
337,0.00754570103335871,0.005287738308904438
338,0.007400907536441509,0.00888478915459214
339,0.007730414029501146,0.0095942314698022
340,0.006783908882217823,0.008022820208759739
341,0.008209707221384052,0.008439253003137288
342,0.007554268126273982,0.009503203050190055
343,0.008188596945799452,0.008443095833401254
344,0.008099468746058774,0.006174431926693588
345,0.007398098151783551,0.007991708336940481
346,0.0075891157515424424,0.008597719507334546
347,0.007295191665809098,0.009707126416554109
348,0.008245492065090874,0.008724344567922785
349,0.006857554606950397,0.005055646109964402
350,0.0071529155060333265,0.0075247750941725726
351,0.007589895870435319,0.009613622301173614
352,0.00885194416163857,0.010550014047656316
353,0.00721565714293196,0.011532141468336992
354,0.007124428633789567,0.007033284121408365
355,0.007256492811477007,0.005368112164513512
356,0.007504735728489424,0.011051707371081437
357,0.007258589274938971,0.011222928542652607
358,0.007437200111197047,0.005566717147894774
359,0.006668163689976032,0.0031661256512328572
360,0.007488521903628211,0.005305820430284212
361,0.006682238471470952,0.005700701821577789
362,0.009468080200940567,0.006432625060443837
363,0.0076801241557899235,0.009623733574440725
364,0.007623543004247752,0.007140000863111009
365,0.00738919193535927,0.003481670536193482
366,0.007704852052947892,0.006605277867030702
367,0.007445723301251616,0.009388141691296611
368,0.008298074550588699,0.005923946645704775
369,0.007128312402098871,0.0047868840913152305
370,0.008107791730142432,0.0049671109676825646
371,0.007378041497442862,0.00886273729573015
372,0.007998648081454996,0.005654299791958168
373,0.0073706402608433915,0.007344856953076378
374,0.007404748898399301,0.011047817296962288
375,0.007095728371144205,0.007603717492650768
376,0.007245497990602093,0.007155314048174431
377,0.008390615983727685,0.014471028249302104
378,0.007388171755137752,0.00723489976562295
379,0.007274639379749779,0.007539897480495892
380,0.007314317393117397,0.007967743094593005
381,0.007170790633743928,0.007868952668053646
382,0.0069223759163783,0.012079273179267557
383,0.006987350234995596,0.011450985581823569
384,0.007702897256230943,0.007805599671903919
385,0.007009467380696448,0.010197692983669846
386,0.0077847733993721985,0.0102225109036562
387,0.0073208795818719835,0.009189938773175418
388,0.007017540897307493,0.00519368661150054
389,0.007068717327854074,0.0037661113391462024
390,0.006668646466362921,0.007464520706359265
391,0.007752937573134054,0.007590462164049226
392,0.00783524106952364,0.011110860459659404
393,0.0070937303579609685,0.00948135643585893
394,0.006984689198261266,0.009349993624869254
395,0.006934922513106077,0.006262510907619415
396,0.006944550313757171,0.003547819955171554
397,0.007493050435871008,0.004426405368918213
398,0.007316464455880159,0.01015594544369895
399,0.007209060435592056,0.007062852188971278
400,0.007560352167569854,0.013927536535840526
401,0.007459222500269814,0.0075724454076215334
402,0.0072761852454079935,0.00812287083419
403,0.00675471445588733,0.012940284457930967
404,0.00782201511047998,0.009602891985435794
405,0.006977228205379316,0.006383004561934
406,0.007389099601444771,0.010960421531557473
407,0.007998133501630547,0.007827848552534359
408,0.00801873521585811,0.005141207319482185
409,0.007056560379164152,0.007263656725464558
410,0.006546180423473468,0.004092763565427785
411,0.007271703608578993,0.007386665887933668
412,0.006765618281391301,0.007707431095769157
413,0.007316053767192016,0.0032889544171808196
414,0.006804664467675812,0.008397007542982074
415,0.007080606036658714,0.009268782989525522
416,0.007186440999141718,0.011880147633243472
417,0.007218597904420931,0.008893154279623642
418,0.007817033820857794,0.005385984716997221
419,0.0075180762487245525,0.006349537152599987
420,0.0070588611985566456,0.006709768314093892
421,0.007585829232360045,0.005619629774310265
422,0.006961831468813341,0.008619169825901172
423,0.007313546333402443,0.006767354822175867
424,0.007070000196224916,0.009803317396827306
425,0.006947103455170638,0.006914303394735753
426,0.007209865483276689,0.008891880653369304
427,0.0072197120241764235,0.008141811673941816
428,0.006672587001891278,0.0070813866313796815
429,0.006729976732941191,0.013486326671401722
430,0.006748947710599855,0.011891771473237493
431,0.007953806800193055,0.006823633908461
432,0.007214865695739494,0.007361516214601384
433,0.006996258242550097,0.004287722226321968
434,0.006662849989756168,0.006185360228967718
435,0.007162255520610768,0.0026929121706693567
436,0.006659534572401076,0.009848369036278531
437,0.007104839948058087,0.01258616470794275
438,0.007103220716831263,0.006078860909922817
439,0.0072842907285404134,0.008772910227844728
440,0.0070429054001602326,0.013344792152983566
441,0.007598241914337655,0.00683928182313326
442,0.00683996969672794,0.00874738371986146
443,0.007398091420679421,0.013415955258467203
444,0.007940212520007655,0.013672443321408394
445,0.006816053871630425,0.006550343128710679
446,0.006955369988338744,0.003549715654554041
447,0.00784216254248286,0.0051042171170892405
448,0.006707768035523272,0.006138131818157086
449,0.007297952503090997,0.007384318807298331
450,0.006931531678909044,0.005439692078380248
451,0.006848369403487276,0.00615174148486076
452,0.008018699171264276,0.0067480883675744285
453,0.0070457695735816495,0.007175335639995106
454,0.007431087951413352,0.006425479754449796
455,0.006785197479878928,0.00384681609046852
456,0.0068509316114302304,0.0035411044251432476
457,0.007222664651373844,0.009007179797954134
458,0.007492708620618281,0.012850592942686418
459,0.007691790004816207,0.008605467269510243
460,0.007386852438395231,0.004243161982100313
461,0.006803853276314484,0.006268862545954824
462,0.006810280473453911,0.00448125341815996
463,0.00804699898828089,0.009642855231168708
464,0.006925962078269663,0.0049434584681600354
465,0.008016340199301092,0.007066507819354911
466,0.0067781563230353194,0.003995497687848398
467,0.006880985958379605,0.006535209907217344
468,0.007022873351095821,0.016358161973601595
469,0.007521337746801845,0.00825177288548793
470,0.006995364572003418,0.003943671555800074
471,0.00720272354389296,0.0032289161445350984
472,0.007402090280470129,0.005609174641238815
473,0.007078315423242078,0.007096364699456997
474,0.006646993037273766,0.0032798697522914166
475,0.0073359453083603355,0.004433726489796776
476,0.006902345509225909,0.01054630030443467
477,0.007160639120993554,0.006356782181410453
478,0.007032304531060826,0.0037350205369381896
479,0.0075373189591003845,0.010288260410368536
480,0.006897147550961549,0.005279878301041725
481,0.0065747470376070595,0.006687794727124068
482,0.006949353434940537,0.006942516013071376
483,0.006856721537232363,0.0035350304304591976
484,0.006936663149414565,0.0028408275203795513
485,0.007232590814956355,0.008918909178480754
486,0.007322717183023888,0.009736318287499185
487,0.006732309728933068,0.008488344935657664
488,0.0069722597160451795,0.014119824445302926
489,0.0076689616883833175,0.0065674505993318115
490,0.0070797062512832605,0.008248026357065437
491,0.006816025333451874,0.0061020901791998365
492,0.00645624885527636,0.004787983021080706
493,0.0069260410662981674,0.010221257330239666
494,0.0071673487348639835,0.005136838647733195
495,0.006823996636945067,0.007537097613170637
496,0.008202726743165419,0.007296234430655566
497,0.007185091973274208,0.013173675279249897
498,0.007120334628900941,0.0038887709202781473
499,0.006992273841337632,0.00511783917619014
500,0.006867548641921814,0.0062881952615479785
