epoch,loss,val_loss
0,0.1528824445851844,0.044162162312768816
1,0.030301429768302125,0.020240251726126143
2,0.01760964212286994,0.017398814730281518
3,0.01538141983130174,0.015192315603540982
4,0.012895616828363468,0.012891510977823619
5,0.010453572918323698,0.008865478255248672
6,0.01036723169273318,0.007964503092819203
7,0.010207984246779605,0.012677614027288784
8,0.009911844530124232,0.008035305160117625
9,0.009963673164436726,0.01195552390459822
10,0.010888080903255253,0.012876180291687444
11,0.00903319251175663,0.006104441712836087
12,0.00902264471817985,0.011244927677777967
13,0.009570611598376605,0.005533794205762216
14,0.009699671238520854,0.011051041542331158
15,0.008808474361652332,0.013196769152821615
16,0.00833162254386609,0.009747973046373596
17,0.008986708076058818,0.005830327525952479
18,0.008328387890827004,0.010199718938106943
19,0.009765980395132589,0.013816974401450476
20,0.009319810518830402,0.008862724525511453
21,0.008615673596908947,0.008463626481951364
22,0.00825265856764222,0.0048762398599937334
23,0.0076931105296817615,0.009098908658879615
24,0.009458667380444194,0.008200058471720192
25,0.009164591652912933,0.010113534685915252
26,0.008561112461045838,0.006948630349385687
27,0.007224640958450383,0.010935270738359409
28,0.008698701430454576,0.009061187061010004
29,0.007624696630301128,0.005122607533806008
30,0.007639830236693176,0.010480166814233388
31,0.007853803667630688,0.006330121514014753
32,0.007166782524332487,0.011265649278695977
33,0.00902356993234668,0.011016009178456587
34,0.007490145253872932,0.004453807934345391
35,0.008212407998317075,0.0070007292181841485
36,0.008507045445968206,0.007233296737116015
37,0.00810576553570388,0.009124866491970154
38,0.009339867368452905,0.007083885513551845
39,0.007952940245855043,0.011111346143279474
40,0.007626640384359439,0.008916308668213467
41,0.008020379495130276,0.006611744285176707
42,0.0071248623156669934,0.004763797516533965
43,0.008256399671626773,0.007651274683117137
44,0.007796229826633355,0.007423739726695614
45,0.008743882715180189,0.005311444757143131
46,0.0075168914996723325,0.010222586473095764
47,0.007070702217838658,0.006486043960646959
48,0.007983136387317806,0.008526260408866141
49,0.007983681833673772,0.00668159090960141
50,0.006615499734132588,0.0036781227821447455
51,0.00741801897522068,0.007792346284966607
52,0.00806347053493563,0.006583530750219734
53,0.008252982441767705,0.006045477057571193
54,0.007426211872394178,0.01221991940118496
55,0.007690510011466442,0.006682092958624639
56,0.0074149168712153235,0.009460003338695372
57,0.006221938489316155,0.004471931775595225
58,0.007171569942242855,0.010389770561977691
59,0.0062787603734129616,0.004352110355354452
60,0.005896425790259158,0.008046454801455716
61,0.0071166694905202416,0.007427485959255964
62,0.007603707487417979,0.01408906067606141
63,0.007469227118659571,0.007173034884388417
64,0.008110373184162316,0.00530945506143871
65,0.006666794219307399,0.007459216172297521
66,0.006470448895376906,0.006811841045915728
67,0.007545921424359864,0.007230040880071548
68,0.0069468940360111284,0.0066518199934397
69,0.006905884981035537,0.005657596364779061
70,0.006258253973229773,0.007508308795040389
71,0.007588851879976934,0.007137287338650194
72,0.007155877751499998,0.007928360204690892
73,0.007380615103339179,0.0064566778008044706
74,0.006841973307524635,0.006044724733431272
75,0.006993949050746328,0.009314226173305474
76,0.006555039766910884,0.006294654484914694
77,0.007709764221089064,0.00884221651574454
78,0.006414032997477868,0.003442973589624595
79,0.006964287693447751,0.005632506242064552
80,0.006369032259981373,0.009886133894706535
81,0.006980626371601294,0.010265372657520666
82,0.006375890756066856,0.010822945596369449
83,0.0065945336285481255,0.007761416200771869
84,0.0074389738750626905,0.006239022750880837
85,0.0073248806218210935,0.005952527046779901
86,0.005503577459845498,0.006056210169481921
87,0.00578716390799332,0.005293692484198119
88,0.006097441656793432,0.006330953900655988
89,0.007435535979948545,0.0072962601890386135
90,0.00683170861041964,0.007713232166997518
91,0.007466009608823523,0.005868218622325487
92,0.006960363210671001,0.006731441213610422
93,0.007678926683501523,0.0061552109955365295
94,0.007479143839293747,0.005228646995239518
95,0.007260106192405918,0.007326087113558047
96,0.006159193470045257,0.008201444506110078
97,0.007679260874295132,0.00956366049682967
98,0.007552998031669711,0.007853910550416315
99,0.007351022103982274,0.009110136909502976
100,0.006927756148373349,0.007363473300417061
101,0.006775580274557574,0.005433142318624794
102,0.006921197583382989,0.008051056048414584
103,0.006527463555243685,0.004358108227281598
104,0.007135366797625876,0.007560926126779278
105,0.007370714514741866,0.006629829045426285
106,0.006271868783271135,0.005789157219272292
107,0.005710484718417765,0.006857436636922956
108,0.006161201029191826,0.0058692401001595946
109,0.006136870381219847,0.006596215140962446
110,0.006940926339359676,0.005801693753551783
111,0.005542484881858126,0.0043766063354297845
112,0.006648489654597958,0.007909634089922119
113,0.006227541406420048,0.0058577012170720685
114,0.006149017444192368,0.006453691732179558
115,0.006819295585151765,0.0061627559197718175
116,0.006460861058077134,0.01018018168327417
117,0.007236724095266434,0.007549662401366041
118,0.006242112032503342,0.005391145524537248
119,0.005856988324354187,0.004452949333950677
120,0.006479663719373981,0.005466260074034345
121,0.006393257326980253,0.007723790540888423
122,0.00731917721037712,0.00553562024927271
123,0.006012201175945316,0.006483683356355167
124,0.006446905783470645,0.007365183879774955
125,0.007214888058462107,0.006720756577149963
126,0.006941706949318622,0.008160838417726515
127,0.0061729205227892495,0.009686172858245183
128,0.005722550464310884,0.006082753866584567
129,0.006377606032446748,0.005941667868193436
130,0.00681955377591013,0.004778893879484665
131,0.006903788890409693,0.004998429574736857
132,0.0049870720551573305,0.00402289876128505
133,0.006275992149946471,0.008325552986824521
134,0.006820403200073196,0.008440088320100105
135,0.00648651145741814,0.006403921257289922
136,0.005567320750644363,0.005375840945203142
137,0.0055693665250978,0.0076697616012445
138,0.005239107464120048,0.004871414768882243
139,0.0055048312125675425,0.01005205834959211
140,0.006553120023815138,0.007432731246280218
141,0.006681960463214168,0.006537367713262033
142,0.005789994838000606,0.005516699529616802
143,0.00645366800566696,0.005591667702696459
144,0.006871769497867861,0.007675020640896782
145,0.007802848738404534,0.006837780334146571
146,0.005658369259551453,0.007460169358900803
147,0.005644772685956296,0.00578500445117702
148,0.006637014357353018,0.007835192244570488
149,0.005342387779002382,0.009343780156727748
150,0.006362699555325434,0.00894757549865752
151,0.005654987107369033,0.009352457764004993
152,0.006468120533570969,0.0040389170617323835
153,0.007070015264610997,0.004893361443422894
154,0.005942002369584493,0.005018718511633569
155,0.005871238191236111,0.004263302003678108
156,0.00647550299566397,0.004202800477254362
157,0.006966846895576875,0.00589624357070912
158,0.006890471023563251,0.009463128818297537
159,0.006727406685854748,0.006595564279528871
160,0.006371655604905552,0.006695056568622448
161,0.0065225016440731655,0.005570731178696407
162,0.006638878008643304,0.007292562922581901
163,0.006177996265159236,0.0066154788629737725
164,0.006883512874101129,0.00646053334505495
165,0.00649403966377027,0.0055771106567407275
166,0.0058598919783895325,0.004856776789377642
167,0.005488690046454333,0.0054092218073256955
168,0.005557372159012657,0.002995394767889049
169,0.006599550572340097,0.007598747578673741
170,0.007075267695381845,0.0077639287561854465
171,0.005283156406695692,0.004003858187690895
172,0.005753578331178541,0.006960167437086166
173,0.006581813082762277,0.004658929361567054
174,0.006043129795261448,0.004933540403163729
175,0.005542486450068361,0.0032037703326632046
176,0.006195412536388447,0.004140092608141812
177,0.005784747919974496,0.004907862944109475
178,0.006809178420783971,0.008418451837354414
179,0.007136788526955667,0.00821275984384737
180,0.005406897941263293,0.008454543283325344
181,0.006688689808178839,0.004939600371776976
182,0.00694193492234453,0.004209468592341986
183,0.005783264762159886,0.007869828032989764
184,0.006383857275411445,0.00938526117893402
185,0.006199406045820299,0.0036842415538184997
186,0.005055168395129432,0.006078498523635312
187,0.006307571551198219,0.0066037620788979646
188,0.006672242152442088,0.007934316470498703
189,0.005521094967550833,0.006244514376401384
190,0.005175943269753913,0.006068886478961502
191,0.0060778431457390696,0.004858019674268875
192,0.006098792925075018,0.004657937326610394
193,0.006080071805592189,0.0068903430806062736
194,0.006627043537932525,0.005671467992235284
195,0.006813079449456099,0.006406714614545419
196,0.006588613971223612,0.005696990748466049
197,0.006209773247034924,0.007102101654602302
198,0.005350761240062347,0.004670534195450458
199,0.005494163372087852,0.006732881507279841
200,0.005916031224256327,0.008389252535675394
201,0.005195136617241557,0.004544096203166595
202,0.006383326453090512,0.007932133026253476
203,0.006614259748103962,0.008774329379683135
204,0.006958721343038542,0.009236600189730701
205,0.005096749413563468,0.0036267873234958658
206,0.005485198200050501,0.006622724962033384
207,0.005208496525001487,0.0054179636372698745
208,0.0064170494598212195,0.005703690866465609
209,0.005290590729162418,0.005850887497932589
210,0.005949724372085497,0.005123533520571176
211,0.006889932013550798,0.007851108053777053
212,0.006894627333727392,0.005636154299112362
213,0.006390003835690095,0.004078433049722165
214,0.0054899645694006655,0.00552651614954823
215,0.006706295623838586,0.009617126739386177
216,0.006067289096537046,0.006511684468908392
217,0.005218017069034004,0.006916565405632698
218,0.005953219722395094,0.007794075072158625
219,0.006507515658171837,0.006815658290903566
220,0.005635737869080802,0.004758844189213526
221,0.005544910852374475,0.006575019334772956
222,0.006395586965818533,0.00712924583608486
223,0.006120160735267357,0.004700820727660464
224,0.006106051661969005,0.0060025602520311925
225,0.006042532990485591,0.006972951385991585
226,0.005852550109323534,0.0076841761416152135
227,0.006617599288277108,0.008523053380101332
228,0.005876667628572475,0.004521465871333135
229,0.005991650606802614,0.005516373545766441
230,0.0062077472806810665,0.0038465751011965425
231,0.006190023376613105,0.004798575985482831
232,0.005712012902161272,0.00429532170459634
233,0.005962959364716181,0.007571963551097741
234,0.006131582883380943,0.006083082102662527
235,0.006263744744504218,0.007247061504678832
236,0.005874583110895207,0.007395470253946796
237,0.005609062674595304,0.005773110444941974
238,0.004954550611257232,0.003955390192046409
239,0.005773366139501893,0.004866951427862766
240,0.0060110857932092095,0.00527426277690853
241,0.005600079842232656,0.008923548217142484
242,0.006380123731722649,0.005628313748320328
243,0.006075279357348778,0.009305055045920418
244,0.006392858064209344,0.00574352991698867
245,0.005328510229350727,0.005183725438838576
246,0.006155326579258942,0.00424561499884086
247,0.0056991198631137505,0.005527903457799222
248,0.005258031099547835,0.005286997598731903
249,0.005816137643071631,0.00587142674302375
250,0.00529734980274769,0.004093516390511932
251,0.005830344407622674,0.0051327250844959964
252,0.00614716786612793,0.007470328730531772
253,0.006046362135627811,0.004499719081991944
254,0.005851870747845171,0.005209060670659476
255,0.005796517154088707,0.0038088510735820457
256,0.006071165894351,0.0044567049117119365
257,0.005986986067079062,0.00379069488192008
258,0.005115907717805853,0.004244864951001793
259,0.005203167786080983,0.004055017697857877
260,0.006134674884192794,0.005743049336531168
261,0.005951422452777743,0.004520053887811813
262,0.0058162243850491974,0.005249263795538149
263,0.00649935496532895,0.006845978232013869
264,0.006382557049339308,0.006058580707758665
265,0.005082116577402799,0.0036866636345884818
266,0.006328685388384427,0.006506456698393177
267,0.005998051533908051,0.0039697911218396775
268,0.005470329090200222,0.007038203702435403
269,0.006075373425023358,0.006076038273340995
270,0.006115089601213239,0.005639187369757312
271,0.006389725083249995,0.0037523337236319647
272,0.005180308185380063,0.005796040887940725
273,0.0058627075840087,0.004999958801626477
274,0.006335498663305724,0.003683492185176007
275,0.0057792089227921995,0.004209728397343722
276,0.00586695525488875,0.007059390560357046
277,0.005584763171397698,0.0038627369181218466
278,0.0063003500604139956,0.004533825962618287
279,0.00538205174436282,0.0037193467174219327
280,0.005895441707627897,0.006405745718948655
281,0.0058237000861369684,0.0073611389969835015
282,0.005697315610066015,0.008891981557429119
283,0.005296106364088152,0.007486688047015324
284,0.005587407028776028,0.007620859773198897
285,0.0054923273290028805,0.004396438789748732
286,0.00535146190573072,0.004898875593057089
287,0.005324413052307431,0.005750208244833216
288,0.005740795773156226,0.004728811626905471
289,0.005998723483610925,0.005625997682490872
290,0.006296165884367461,0.00904635604744411
291,0.006081665100304218,0.004414192803318729
292,0.005334374783050677,0.008307912081903422
293,0.0055463583561123535,0.005700751336404632
294,0.005341395799206089,0.0045243722126446515
295,0.005062416386544901,0.004580936150224005
296,0.005102385385546366,0.003966413971055784
297,0.005781583524652296,0.005954235863093443
298,0.005847473005238596,0.007288380319454017
299,0.00581774837560773,0.0038051925433818736
300,0.005512503418251782,0.004855578377160766
301,0.006181258079260856,0.004576227916573669
302,0.005722933426238061,0.004636636283542687
303,0.005578911832279171,0.005799504575461455
304,0.005953292151895179,0.007297923822241123
305,0.005468800526873903,0.0040402237545322526
306,0.00620367064940662,0.006748412515241844
307,0.006467143100199493,0.006646645850418893
308,0.005867076441935962,0.0043311435012580515
309,0.005576287243823461,0.007474519134129397
310,0.0060290010732715485,0.005236359417141542
311,0.005632830420799321,0.004213422699298507
312,0.005681061541377236,0.006758125697724939
313,0.006181452755178276,0.00564372189300342
314,0.006101934184457252,0.005760722473152011
315,0.005097226780965079,0.006085859906389992
316,0.005258110810542475,0.005605820175730744
317,0.006132413333056303,0.006700547318317543
318,0.005540679868807246,0.007789787585349444
319,0.005291362062932627,0.005655686673506118
320,0.00573589273668501,0.004426402014833835
321,0.006196529289400823,0.01054912713895116
322,0.005162059300229978,0.005004797826191056
323,0.005927491872247568,0.007694960761838831
324,0.005672087175600368,0.0040473320654460365
325,0.006092907715704944,0.005872148874523773
326,0.005053087528203156,0.005496701944160739
327,0.005571222945610039,0.006308619130326357
328,0.00511900205762579,0.009882510649282911
329,0.005395021964070036,0.005349634210090282
330,0.006109422007255512,0.007543679789493732
331,0.0064055717171100585,0.00660043936215441
332,0.006183583852291542,0.00404129519723444
333,0.0055328194400203305,0.005015286466293478
334,0.0059702769394585796,0.003406602175371176
335,0.0056462692887634695,0.005133240701646883
336,0.00576909749106475,0.0070177676275978195
337,0.006128187406994998,0.004831945603373795
338,0.006399168308711143,0.007915042683293995
339,0.005730483352748616,0.005097803722217314
340,0.0057042839074824495,0.004552818850952994
341,0.005472503893217333,0.006442895303932389
342,0.00622404088070028,0.007693123748642117
343,0.006123852840871167,0.007724836584468738
344,0.005354324362700809,0.00590927451011014
345,0.005356400553099841,0.005959029603843601
346,0.0056848159312254945,0.007686959566723411
347,0.006210922943163875,0.0067166635511559155
348,0.005380655443638289,0.004311733488096387
349,0.006123137366541064,0.006554493074905901
350,0.0054648502834616225,0.003999526027535642
351,0.00504530354138303,0.0043860789393563625
352,0.006032959754700861,0.004326998649772195
353,0.005494755819896988,0.0036978398528002975
354,0.004797116309839139,0.0034978519410303636
355,0.005892491377376431,0.007294683209998973
356,0.005468588450634711,0.004760042059690278
357,0.005346243276441697,0.006679818209851691
358,0.005256986159620602,0.0033479741391900047
359,0.0051403887163055575,0.005365796489736628
360,0.0065034574465744266,0.006166658490666886
361,0.005529695110087343,0.00486959281782513
362,0.00631658842317763,0.006595376047990105
363,0.005203893187725329,0.006878960560845548
364,0.005562382325032007,0.006353425278806884
365,0.006287500407337564,0.0046261649081908345
366,0.005334910813724245,0.0034561239944840027
367,0.005105551854661889,0.006334919799648478
368,0.005057923578404837,0.006980845893585456
369,0.005762270263241356,0.0072449647785467995
370,0.006113121342613733,0.005658121095954102
371,0.005856185458596054,0.003348611900362391
372,0.005497425851273647,0.004448972270113211
373,0.0054739562127899995,0.004480401851198597
374,0.005183217391151366,0.0080180169971132
375,0.005469470652364504,0.006274936447653629
376,0.005915346325186791,0.006164559408663621
377,0.006197104936087434,0.0060159146044059305
378,0.005662359312443966,0.007084341166613016
379,0.005407275633419678,0.004835455059481825
380,0.0055778109337122055,0.004837137466515602
381,0.00604908769506571,0.00873325442220507
382,0.005433136730813693,0.004333235015070923
383,0.00595589976977009,0.006758691098367547
384,0.00551176169557016,0.00482779342626775
385,0.006080633520873057,0.0062419613036779125
386,0.006386631956996975,0.008933618539046046
387,0.005653646734202925,0.004305544418107128
388,0.006126185725286728,0.006024277956837284
389,0.005684313683887478,0.005876149568006973
390,0.005494084810450238,0.004691971890075572
391,0.006142210077046216,0.007854141832285964
392,0.005516171589479607,0.005159295195288774
393,0.005612173521382024,0.005273309630366085
394,0.0049405198796078275,0.0033663835125845205
395,0.005444929279818041,0.0038223168099682774
396,0.005057312944028482,0.00623051558960091
397,0.005695660970435082,0.006147823855501395
398,0.005850589463318274,0.0063122695226636855
399,0.005793629884090778,0.003681269375278064
400,0.005237350168136908,0.008537805807903915
401,0.0052730636025364284,0.004628723253876018
402,0.006334016030244112,0.00583783727456781
403,0.005559411869446884,0.004012598827387182
404,0.005652739377085605,0.004489596099567018
405,0.006024122927996734,0.007714334705913617
406,0.005923315517244776,0.009521385184367905
407,0.005585254823638619,0.0072671949445184
408,0.005048423357639941,0.005702862296997325
409,0.006090537294746189,0.00474888933587293
410,0.005421497216961867,0.005246703144333427
411,0.005968832971824468,0.006611090644109103
412,0.0053680828040306395,0.005890295989649707
413,0.006202251163049252,0.006084841797341488
414,0.0049516395892766265,0.007659935266008834
415,0.005339462925932355,0.004755213991213287
416,0.006112426032329337,0.005980813657848757
417,0.0055206460770492035,0.005385714576850868
418,0.005821888268978106,0.005187399856652109
419,0.005279459860466188,0.007591743547772223
420,0.005119618102476346,0.004155189866948382
421,0.005356635043801789,0.009935121521671269
422,0.005657495197774523,0.007110171623516242
423,0.006052263224289732,0.004252670354473727
424,0.005785018190195104,0.00460629133491438
425,0.005504515774877106,0.008530372422961804
426,0.005153034080313496,0.005815943325601441
427,0.005949268687340014,0.005925964097688658
428,0.004870579647775784,0.004394827159555319
429,0.0060078564729410516,0.004985916704283447
430,0.005425302298191628,0.006178213426756549
431,0.006144961072068712,0.009300361083851336
432,0.005880892815010296,0.00544636739614907
433,0.0051517277844525654,0.00392686053978216
434,0.0053111922189810696,0.004766627085110688
435,0.005734598684533358,0.005524655404164741
436,0.005560919490950308,0.0040213765262978205
437,0.0057374704926967815,0.0045278444617910234
438,0.004774122035594659,0.0038136840910425124
439,0.005532035993752357,0.0056597054572136455
440,0.006127247000768257,0.00341943655094689
441,0.00519455207525183,0.00922862912698016
442,0.00574151078908355,0.004949376608547185
443,0.005385271761920765,0.005188944199708332
444,0.005673085379475307,0.004587519657375451
445,0.0052668583529296336,0.004368320683012962
446,0.0055701913042023755,0.007695159217344204
447,0.006048704086200629,0.006113840900317434
448,0.00569242250821408,0.005397565187643787
449,0.005401358027740729,0.0038217929064721786
450,0.005877514703956386,0.005852705472308463
451,0.005212155189350259,0.004341733279904819
452,0.00497978594000388,0.005930928165723747
453,0.005532533234114841,0.006243057770988277
454,0.005721472881657691,0.0057168005261461425
455,0.005924108452617759,0.006643460723905932
456,0.005986849938855796,0.004965800435841671
457,0.0056991053242266155,0.005529997422306224
458,0.005529743850325717,0.004521210689315221
459,0.004643488137947052,0.0032943957817873786
460,0.005203066492374305,0.008641511252577744
461,0.005397294191729209,0.005831402406352259
462,0.006388701592776016,0.008735913071037514
463,0.005612006085998506,0.01036930856630853
464,0.005994930728911895,0.007431130172301087
465,0.006060301823981499,0.006862872698430293
466,0.0053092048860428264,0.004953394982090548
467,0.005680405349618823,0.0074501602609819
468,0.005898716456765275,0.006958482879998299
469,0.005998537117011583,0.006100856539541187
470,0.004759450164380864,0.0031106957826534053
471,0.005647808975848309,0.005881828442656957
472,0.005298213274080417,0.006292626803818775
473,0.004846035895741088,0.007343883852561864
474,0.0061709394786048305,0.005178040544404674
475,0.004935367176101523,0.00536714978229428
476,0.0054369558078452025,0.004048362026437999
477,0.005128318742144671,0.005250001243141428
478,0.0051901100271699325,0.003788983257856417
479,0.005570514092436261,0.006327938344682425
480,0.005623482203827225,0.006279657477249804
481,0.0055894377203263654,0.005296332421679499
482,0.00549800964945229,0.005613876415171088
483,0.005782099994573947,0.005596148718998201
484,0.00534928200463448,0.005246603602709597
485,0.005793784531283763,0.004597660596978622
486,0.005166914634150472,0.004861076276796416
487,0.0055095668184011876,0.006268910364627885
488,0.00570585698212797,0.0053053493813656405
489,0.0054785659783136405,0.009335951682624143
490,0.0057781307804893305,0.003960982545028311
491,0.005103630130551457,0.006135448780728191
492,0.0048700156369448295,0.006686851011049635
493,0.0056508076655455855,0.006511689789649084
494,0.005019884258839968,0.005548661328475825
495,0.005343596779850783,0.0061480215153029896
496,0.005230840949377389,0.004606596552917547
497,0.0053651353679701605,0.005027033130608164
498,0.005224815709218621,0.008626933829254679
499,0.005182518733670558,0.004253925517827696
500,0.005495123531044774,0.004853646168757256
