epoch,loss,val_loss
0,0.8895490597486496,0.8891053504943848
1,0.8890528124703301,0.8889965062141418
2,0.8890181639459398,0.8890647252003352
3,0.8890007735755708,0.8890052463610967
4,0.8889888332949745,0.8889645111560821
5,0.8889803706142637,0.8889685321648916
6,0.8889737546841303,0.8889549227555593
7,0.8889715902275509,0.8889566108385721
8,0.8889695835643344,0.8889828265110652
9,0.8889668000539144,0.8889631584088008
10,0.8889660006629097,0.8889622787634531
11,0.8889654993746016,0.8889815850257874
12,0.8889651721583472,0.888962922890981
13,0.888963584224383,0.8889617357651393
14,0.8889626112381617,0.8889514822165171
15,0.8889605262676875,0.8889568198919297
16,0.8889594537814458,0.8889488312005996
17,0.888959478020668,0.8889749970436096
18,0.8889596047666338,0.8889471584161123
19,0.8889586802456114,0.8889585406780243
20,0.888958446542422,0.888979776819547
21,0.888958753599061,0.8889558606147766
22,0.888957839316792,0.8889572281042735
23,0.8889568592045042,0.8889654386838277
24,0.8889566961261961,0.8889655423561732
25,0.888956738392512,0.8889446190595627
26,0.8889568925566144,0.8889502258300781
27,0.8889565865198771,0.8889504105250041
28,0.8889553164376153,0.8889464214245478
29,0.8889552032152812,0.8890124804973603
30,0.8889554029173321,0.8889537396033605
31,0.888955004506641,0.8889537967443466
32,0.888955992354287,0.88895805366834
33,0.8889546535147561,0.8889505689938864
34,0.8889542223744922,0.8889452596902847
35,0.8889542045593262,0.8889637496074041
36,0.8889548637072245,0.8889487312237422
37,0.8889550921122233,0.888946640253067
38,0.8889535868300332,0.8889435517787934
39,0.8889544679721196,0.8889529798825582
40,0.8889543348948161,0.8889457056125005
41,0.8889554446670744,0.8889441984494527
42,0.8889531506167517,0.8889508165518443
43,0.8889536576006147,0.8889523205359777
44,0.8889532546334796,0.8889433832565944
45,0.8889541659355163,0.8889496500094731
46,0.8889536218378279,0.8889584569136302
47,0.8889541504515542,0.8889523906310399
48,0.8889530065986845,0.8889636859496435
49,0.8889531873994403,0.8889428372383118
50,0.8889536108308368,0.8889539426565171
51,0.8889528616799248,0.8889497493902843
52,0.8889522769186232,0.8889494390090307
53,0.8889532711903254,0.8889558527469635
54,0.8889528390036688,0.8889453181028366
55,0.8889524461693233,0.8889428359270096
56,0.8889533716440201,0.8889704672495524
57,0.888952727927102,0.8889461008707682
58,0.888952715198199,0.8889505910873413
59,0.8889524272282918,0.8889870111544927
60,0.8889535988569259,0.8889446990887324
61,0.8889525575637818,0.8889556053479513
62,0.8889526595671972,0.8889402207136154
63,0.8889524743292067,0.8889738812446594
64,0.8889522280693054,0.8889570246140163
65,0.8889521349933412,0.8889435551961263
66,0.88895238354471,0.8889459927479426
67,0.8889522386391958,0.8889632425308227
68,0.8889525399340523,0.8889545952876409
69,0.8889517062107722,0.888944980541865
70,0.8889523650010427,0.8889476100206375
71,0.888953134086397,0.888943889538447
72,0.8889520287778643,0.8889496035178502
73,0.8889520522223578,0.8889476416508356
74,0.8889516916672389,0.8889441754420598
75,0.8889520712031258,0.8889438759088516
76,0.8889531626436445,0.8889447164932887
77,0.8889516734811995,0.888951036810875
78,0.8889524388578203,0.8889429412682851
79,0.8889528386063046,0.8889431711037954
80,0.888951574895117,0.8889443615277608
81,0.8889520553615358,0.8889880124727885
82,0.8889521798292795,0.8889603031873703
