epoch,loss,val_loss
0,0.5581442220211029,0.5562320562203725
1,0.5312375839485063,0.4452231054107348
2,0.4451684989002016,0.4450450422167778
3,0.4450572083923552,0.44494660196701685
4,0.4449991596870952,0.44486393185456596
5,0.44494480408562553,0.44484782781203586
6,0.444905680305428,0.44487511936823526
7,0.4448911759720908,0.4449121886094411
8,0.44487456203831566,0.4447954244017601
9,0.4448643292652236,0.4448898591399193
10,0.44485178322262237,0.44484155644973117
11,0.4448548195825683,0.44488814465204873
12,0.4448448866340849,0.4447799279292424
13,0.44483766870366204,0.4448638314604759
14,0.44483105901877085,0.44476133022705716
15,0.444833277563254,0.4447764658729235
16,0.44482490299145383,0.4447926125129064
17,0.44481890834702387,0.4447933345039686
18,0.4448143664068646,0.4448238035440445
19,0.44480692688624063,0.4448183035850525
20,0.44481204454104106,0.44487119708458583
21,0.4448084552751647,0.4447923748890559
22,0.4448038388490677,0.444792745689551
23,0.44480444500843686,0.444766733666261
24,0.444802762541506,0.4448193200826645
25,0.4447983818915155,0.44480693153540296
26,0.44480388206243515,0.4447697330713272
27,0.4447951838771502,0.4447766689856847
28,0.44479615282350116,0.44485181440909705
29,0.444796281920539,0.44476952226956684
30,0.44479646661546496,0.4447514081199964
31,0.4447890678445498,0.4448929715553919
32,0.44479300501611496,0.4447771819035212
33,0.44479355510075885,0.44479868882894513
34,0.4447884991433885,0.44475309904416405
35,0.4447882495986091,0.4447565852801005
36,0.4447865958081351,0.44475795501470566
37,0.4447897345026334,0.4448217788736025
38,0.44478862399525115,0.44474354286988577
39,0.4447885100113021,0.4447601496179899
40,0.4447862379749616,0.44475224979718525
41,0.4447884953154458,0.4447549044489861
42,0.4447890714539422,0.4447648102839788
43,0.44478509479761125,0.4450606398185094
44,0.4447861498792966,0.4447694826722145
45,0.4447849764956368,0.44479090599219007
46,0.4447826219068633,0.4447618381381035
47,0.44478220459487705,0.4448109260002772
48,0.44477980307737985,0.44486184215545654
49,0.444779076675574,0.444725594719251
50,0.4447801921566327,0.44475351574023564
51,0.4447801253332032,0.4447586659391721
52,0.4447820480664571,0.4448033084869385
53,0.4447774179842737,0.44486704051494597
54,0.4447811497781012,0.44479965819915135
55,0.44477998414966796,0.4447487969994545
56,0.4447776047653622,0.4447397293051084
57,0.44477686237626607,0.44473488799730937
58,0.44477821368641324,0.4447327503760656
59,0.4447754677534103,0.444727576315403
60,0.4447763126095136,0.4448092131813367
61,0.44477322983079487,0.44473301887512207
62,0.444779747472869,0.4447337583502134
63,0.4447740647262997,0.444744018693765
64,0.4447779013382064,0.4449323474764824
65,0.44477579103575815,0.44473177975416184
66,0.44477678677770827,0.44472266827027
67,0.4447755262520578,0.4447487825155258
68,0.44477557765775255,0.444780654946963
69,0.4447768086128765,0.4447873346209526
70,0.44477132124371,0.4448019608259201
71,0.4447778939869669,0.4447615839242935
72,0.44477132446898354,0.4447891138792038
73,0.4447761144042015,0.4447427749236425
74,0.44477301677068076,0.4447915257414182
75,0.44477932008769777,0.4447277750968933
76,0.4447775691284074,0.444893902917703
77,0.4447761308285925,0.44481785279512404
78,0.44476931173933876,0.44474868828058245
79,0.44477651163604526,0.44473080678780874
80,0.444776209142473,0.4447386254072189
81,0.4447736920383241,0.4447488064169884
82,0.44477643942832945,0.44478613418340684
83,0.4447784302632014,0.44472987111409507
84,0.4447795682085885,0.44474490054448446
85,0.4447757613990042,0.44474093814690907
86,0.44477766553560893,0.44475029603640237
