epoch,loss,val_loss
0,0.889741280582216,0.8890818781852722
1,0.8072847089105182,0.7781650737524033
2,0.778163433710734,0.778057041366895
3,0.7440404143068525,0.5560769975980123
4,0.5560407396554947,0.5560173124074936
5,0.5559868093596564,0.5560283919175466
6,0.5559545107550091,0.5559929216305415
7,0.555933319012324,0.5558807193040848
8,0.555912603603469,0.555867768128713
9,0.5559047243065304,0.555869573990504
10,0.555890135023329,0.5558460827668508
11,0.5558870700200399,0.5560072164535522
12,0.55587690615654,0.5559444212118785
13,0.5558729620244768,0.5558624812761943
14,0.5558686110575994,0.5558687988917033
15,0.5558684168524213,0.5558538400332133
16,0.5558630377584034,0.5558493212461472
17,0.5558626338905759,0.555841419061025
18,0.5558560038142734,0.5558181546529134
19,0.5558525259229872,0.5558192972342173
20,0.5558455344571007,0.5559156893889109
21,0.5558418321874407,0.5558267668088277
22,0.5558432867924372,0.5558159739176433
23,0.5558385917478138,0.5558565558989843
24,0.55584095829063,0.5557982403039933
25,0.5558348885244794,0.5558386328220367
26,0.5558370145691766,0.5558062347173691
27,0.5558327457242542,0.555801275451978
28,0.5558333946069082,0.5559229646921158
29,0.5558333789507548,0.5558316241900126
30,0.5558288866413964,0.5558363690773646
31,0.555832791712549,0.5558115700483323
32,0.5558312705490325,0.5558134495417277
33,0.5558302187522253,0.5558112382491429
34,0.5558291305700938,0.5558161646922429
35,0.5558298982381821,0.5557965524196625
36,0.5558272902038363,0.5558525676727295
37,0.5558241276476118,0.5560297789971034
38,0.5558239684502284,0.555795916279157
39,0.5558232816192838,0.5558289383252462
40,0.5558258532153235,0.5558307719230652
41,0.5558241561253866,0.5557927813132604
42,0.5558275647825665,0.5558254041274389
43,0.5558219140238232,0.555795816063881
44,0.555825104382303,0.5557917586565018
45,0.5558215510977639,0.5557846739292145
46,0.5558242333067788,0.5557928211291631
47,0.5558232881095674,0.5558166171709696
48,0.5558227441045973,0.5557869058847428
49,0.5558252596325345,0.555800272544225
50,0.555821485095554,0.5557854687770207
51,0.5558210493988461,0.5557820032040278
52,0.5558277319272359,0.555812526623408
53,0.5558210076093674,0.555815090139707
54,0.555821711089876,0.5558278475205104
55,0.5558188314040502,0.5558291922410329
56,0.5558225645224253,0.5557940109173457
57,0.5558210470146603,0.5557992809216181
58,0.5558204097880257,0.5558068847258886
59,0.5558200076288647,0.555796921491623
60,0.5558198320998086,0.5558032569090525
61,0.5558210249079598,0.555884685198466
62,0.5558174155420728,0.5557943425973256
63,0.5558201377656725,0.5557896147966385
64,0.5558196999761793,0.5558344788153966
65,0.5558183481958178,0.5558261082172394
66,0.5558295251395967,0.5558020302851995
67,0.5558216852876875,0.5558092914422353
68,0.5558199536667929,0.5558134789864222
69,0.555819368481636,0.5558120366334915
70,0.5558209230502447,0.5557896521091461
71,0.5558182275957532,0.5558754957119624
