epoch,loss,val_loss
0,0.32605557034698895,0.2454519267851853
1,0.18146957477910533,0.14026076296651654
2,0.14022575055273603,0.1426137085083722
3,0.13804365316931483,0.13810900738720078
4,0.13754993114027855,0.13693715341465626
5,0.13834138753281222,0.13250910467229307
6,0.13834409519648858,0.1381974220275879
7,0.1368714914285689,0.1356560007361041
8,0.13625899685039033,0.13878487756780122
9,0.1375112822182554,0.13453404567753507
10,0.1376779579239593,0.13563758118964597
11,0.1354378642831489,0.13428466792358784
12,0.13429178369881437,0.1344930125545966
13,0.13543255351704184,0.13423491195843928
14,0.13483755668099645,0.141658571837639
15,0.13384744020210182,0.13256678804931626
16,0.13269820009216035,0.1306120923704864
17,0.13306091097202138,0.13259427080073505
18,0.13143009654016233,0.12873386767499542
19,0.13029287733155476,0.12782163898024676
20,0.13009684737459076,0.1267963095840828
21,0.1297534931418326,0.1258076777844892
22,0.12903227994172312,0.12766191409202476
23,0.1281871288169107,0.1247531125570435
24,0.1277607528122066,0.1270322727705422
25,0.12760487071973242,0.13058534894953022
26,0.12721970964738313,0.12938692793544107
27,0.12643166483461046,0.12543427716020344
28,0.12622939427491192,0.12526182337548664
29,0.12551049349440946,0.12587173238996455
30,0.12466725604318314,0.1303213416894967
31,0.12494253625960754,0.13306775934341486
32,0.12505577914982582,0.12487946524804468
33,0.12425101309609737,0.12009162379350828
34,0.12470780957421715,0.1303213978599354
35,0.12406333106801473,0.1248332628452505
36,0.12449023525098817,0.12232569728602362
37,0.12439724851807625,0.12303474993572144
38,0.12399561965851474,0.12078802673338715
39,0.1237864821172542,0.12449554776171577
40,0.12315026966394853,0.11946158042293697
41,0.12281840749317222,0.119685533908567
42,0.12282828091205263,0.12267502936539729
43,0.12167156531775503,0.12269772694467464
44,0.12225345540627969,0.12093690944498886
45,0.12152500906817729,0.11733351404989623
46,0.12058991863489818,0.11717524257765667
47,0.12036598339784059,0.12239579865804505
48,0.12084372330912584,0.11997399335078772
49,0.12107276225940501,0.11936215283650531
50,0.12034890459452888,0.11843826936965113
51,0.12066381216215954,0.11888398686989896
52,0.12015726373528691,0.121960025736452
53,0.12029534686121533,0.11912737699150569
54,0.11880575673435803,0.11658070056501485
55,0.11923624408378494,0.11714686594474193
56,0.12004174549076006,0.11489757820787445
57,0.11829294251511804,0.11616473901361203
58,0.11797678347328584,0.11559206964161421
59,0.11830652980424232,0.11402667412018343
60,0.11835661828279685,0.11435119331400509
61,0.11788822295401784,0.11789413219304563
62,0.11724867964153,0.1148937134029551
63,0.11752085860291545,0.11622913895085184
64,0.11743957487692078,0.11527327745682439
65,0.11658850986120417,0.11402094655838554
66,0.11733378981538624,0.11403805150370383
67,0.11690814005468579,0.11268065248240423
68,0.11648449922899166,0.11416902957629668
69,0.1154469179777171,0.1139979346904495
70,0.11592118971520286,0.11426772309530411
71,0.11557799400828725,0.11507018414438476
72,0.11525960876751574,0.11465472731542287
73,0.11515469324114702,0.11578894999898505
74,0.11518080378893754,0.11076278855175885
75,0.11461413352133082,0.11658654337853264
76,0.11463409265894875,0.11188935480229763
77,0.11459342483505547,0.11405296599596809
78,0.11459241964393478,0.11525858824612498
79,0.1144321136873403,0.10987764055345975
80,0.11401834944300324,0.11068577349962168
81,0.1135126794014665,0.11202452043637387
82,0.1133947254632779,0.11161466979001955
83,0.1127462849157939,0.11038220342727938
84,0.11254097162771949,0.11160517318707898
85,0.11244277282358169,0.11182962679660688
86,0.11280276220467546,0.11003551836218906
87,0.11149912252783965,0.11007379790460772
88,0.11107324723371689,0.11239310990851417
89,0.11162355496621817,0.10963542571242814
90,0.11144821233541179,0.10932189611910645
91,0.11133373921497358,0.1092060803484992
92,0.11128143285163682,0.10819738593478793
93,0.11148654020649733,0.1092383905469007
94,0.11123762520954764,0.11166401421496881
95,0.11159024212798245,0.10997437282326472
96,0.11161819688803096,0.10699997049033783
97,0.11108309752661452,0.10846460893479688
98,0.11118477192535389,0.11028839158513175
99,0.11021238733991254,0.10966264858736047
100,0.11000372072477801,0.10762214264299517
101,0.11006755589676513,0.10785152615527986
102,0.1096769438313542,0.11190692076625651
103,0.11122480216179248,0.11104296347171938
104,0.10931400519957264,0.11021645220133293
105,0.10967988146544932,0.10477158349615999
106,0.10948322713375092,0.10497339118063309
107,0.10961658343803778,0.1091239362037737
108,0.10915431303145598,0.10859922029742503
109,0.10906518616979356,0.10929240860286056
110,0.1089292024757317,0.10599365682233104
111,0.10915606175895504,0.10771439196255232
112,0.10914330526912432,0.11200417301249298
113,0.10982010105280854,0.10856670763963965
114,0.11016074347374537,0.11099723991133044
115,0.11006765521401696,0.11274950739052132
116,0.10923146810248602,0.107404389075388
117,0.10927601397442493,0.10998913893900994
118,0.109488584321561,0.106046670102518
119,0.10883837360903609,0.10900960923205612
120,0.10867530505041138,0.11093800048025555
121,0.10776993115957406,0.10722926702429765
122,0.10854229102317664,0.10630919293874629
123,0.10769050763689166,0.1035679980065753
124,0.1072640685404805,0.10527046955092836
125,0.10709193585623654,0.10872239353695345
126,0.10724811464381351,0.10584409853653731
127,0.10722751475626426,0.1051118181931662
128,0.1067791083108464,0.10523250053365492
129,0.10658226803028517,0.1056322020602772
130,0.10606362306766753,0.10351949690855104
131,0.10529056393044839,0.10701215110172319
132,0.1062352569143978,0.10454408414573677
133,0.10526307504907025,0.10313510591930165
134,0.1047663652002335,0.10352850037361565
135,0.10484149203085595,0.09968892190290796
136,0.10388479888034191,0.10266726925651577
137,0.10452290468042989,0.10182677308169517
138,0.10402780386815064,0.10862436758291091
139,0.1056231347104009,0.09863136087756695
140,0.1221281134044762,0.11728595138395877
141,0.11020387115655281,0.10957293596997822
142,0.10996415318071032,0.11091248896311096
143,0.11078014133645477,0.11048770902918001
144,0.11266878839555404,0.10970118800626558
145,0.11266879073316625,0.10945417622035192
146,0.11237171010600387,0.1096951782515224
147,0.11241076721978797,0.11077204687725209
148,0.1119912212951292,0.11204314323020151
149,0.11277573557494641,0.11037411154986557
150,0.11349876536477765,0.10893584033966817
151,0.1116639632675097,0.11145747415927233
152,0.11129812852179499,0.10582422581519682
153,0.10978823866275289,0.107196012242817
154,0.10969441756308317,0.1070609264951949
155,0.10710172442128237,0.1027435387683931
156,0.10723681241976653,0.10533691790975165
157,0.10898978296491645,0.1067579926389263
158,0.10912413321000686,0.10442215975171107
159,0.10823481781281633,0.10998637797847544
160,0.10884105577933893,0.10469891964189632
161,0.10736218266945473,0.10298685368441557
162,0.1068786626709975,0.1064300922281458
163,0.10699124142920656,0.10659297923803705
164,0.10830832240309456,0.10492872041021639
165,0.10728715263086734,0.10830719153313724
166,0.10634629541544986,0.10534006609466007
167,0.1052151301311408,0.10342027057600285
168,0.10422371333237175,0.10597897093998887
169,0.10533837041408896,0.10331431914476683
170,0.10620390184872823,0.10378789454228124
171,0.10548012930271532,0.1034078521811313
172,0.10595675874695026,0.10423828987220939
173,0.10427696275994551,0.10107671777587664
174,0.10281224333220344,0.10271326859423563
175,0.10387391182813618,0.10244724971272387
176,0.10327009614899481,0.09938086590478998
177,0.10301470696675978,0.102700126434558
178,0.1032507681577421,0.10137757395512491
179,0.10360903310761463,0.10382046740452135
180,0.10534888317437767,0.10461983624507615
181,0.10480267436598702,0.10353261886286566
182,0.10519350512469891,0.10371764976863515
183,0.10525878940185578,0.10276770875763498
184,0.10422789502879984,0.10173843075369132
185,0.10361795993350584,0.10235749573197625
186,0.10344857797860432,0.10244129776319558
187,0.10446030811833248,0.10463474480980668
188,0.10451889088709387,0.10353760190172842
189,0.10464557566993433,0.1036335593229123
190,0.10412237324493585,0.1034146665574155
191,0.10465310055682127,0.10134482883569662
192,0.10411587350374217,0.1013462087867198
193,0.10426872169716563,0.10535304215990283
194,0.10510338527514494,0.10166378693262611
195,0.10370036367353776,0.1014175488074746
196,0.10241524087522717,0.10240049993041565
197,0.102543034555791,0.09928601466254541
198,0.10169604984071139,0.10268996710629565
199,0.10338197652396443,0.10236914971021563
200,0.10317365671519181,0.10172986622014757
201,0.10333303226043376,0.10234106224450712
202,0.10354413468238832,0.10022780039269057
203,0.10181148097121553,0.10286028626144826
204,0.10174338493368132,0.10065194835038098
205,0.10229660860068507,0.1010902387037838
206,0.1022233587773822,0.10045560102412902
207,0.10181625301150872,0.10181448188181834
208,0.10158161251998539,0.10088504082284391
209,0.10010178536653137,0.0991685309086433
210,0.0989550355104186,0.09806235842612566
211,0.09803800692232392,0.09799358269292346
212,0.09797979604235466,0.09766654048670721
213,0.09803523825441333,0.09636530635882853
214,0.09864541644946657,0.09818531398756257
215,0.0984760250666921,0.09922166686172831
216,0.09850155676511838,0.09834422770337788
217,0.09723595901430368,0.09567549052018298
218,0.09634299027464754,0.09728897738710764
219,0.0966241746235618,0.09635349176677081
220,0.09800323703699261,0.09575676041836803
221,0.09561334588497186,0.09257280825980554
222,0.0954310582499567,0.0947833808863737
223,0.09627110085827555,0.0970268209465583
224,0.09662113365509527,0.09417133731289745
225,0.0956332708041159,0.09398338435057495
226,0.0947818080310246,0.09293149264666069
227,0.09311081265076268,0.0914274381492772
228,0.09333936608642887,0.09326508197266
229,0.09332701288681808,0.0912968731987354
230,0.09112951920913469,0.09203721939247239
231,0.09011774491086948,0.08644030756819125
232,0.08698975097694747,0.08268566762450745
233,0.08774303855578439,0.0920295945906037
234,0.08604705667228912,0.08791808422945951
235,0.08948919138641094,0.08838116655151206
236,0.08623094696381824,0.08468417601326177
237,0.08257784972266613,0.08042579691713028
238,0.08875672211892885,0.0943558326765789
239,0.08039806715899901,0.07824107176891065
240,0.07948775580979223,0.07799347278080593
241,0.08183227843500013,0.07353053956741692
242,0.07949729986506686,0.08007641212210564
243,0.08055301870909526,0.07642488417986724
244,0.07743192636977425,0.07495727056627116
245,0.07804048473803069,0.08332814638456587
246,0.07882816353135352,0.07879193807822
247,0.07824820487780108,0.0744442075796737
248,0.07775436633740732,0.07863270604855072
249,0.07864881443867772,0.07763508672296013
250,0.07815464183860879,0.07530436124402703
251,0.07674322326590927,0.07632535430525549
252,0.07676699139225444,0.07395286594929898
253,0.07469330330511077,0.07277844910051941
254,0.07557429650651036,0.07804253687398492
255,0.07597430493328258,0.07510049786380453
256,0.07507338173401584,0.07185535507178156
257,0.07279463409394812,0.07037618952702611
258,0.07184138622947878,0.07102756280137407
259,0.07089900269621996,0.07058963677077756
260,0.07037066391927542,0.06699832775810147
261,0.06861160301136598,0.06625775897018346
262,0.06800754987846891,0.06619294371746992
263,0.06720505540015743,0.0673933323757942
264,0.06648485536436193,0.06365938575816324
265,0.06559797759792454,0.06324191271506056
266,0.065327355685792,0.0642607153379362
267,0.06454151861524458,0.06501895186345033
268,0.06445186480069809,0.06141090461280088
269,0.06399260255709874,0.06224737376939055
270,0.06330028058087035,0.06060139481463391
271,0.06316272773110657,0.061796998259653325
272,0.0631256384029091,0.05961749911155396
273,0.06232181110744663,0.06267740873247973
274,0.06194921328033284,0.06408135530016229
275,0.06222058575061395,0.0598135051665197
276,0.06100213552991168,0.058778722130273776
277,0.06074797626075556,0.05763447324685817
278,0.060151594779569564,0.05811721847143433
279,0.05964411085815453,0.058242891104370004
280,0.058692824168444915,0.05682722243297354
281,0.059185644230551476,0.0578480156398751
282,0.05913653850501819,0.05717907478443355
283,0.05944610010686634,0.05572553712877591
284,0.05826937860335044,0.057832782086934646
285,0.058419229370429454,0.056195917335686574
286,0.05727866812974667,0.05893743972881346
287,0.05744475920310171,0.05514745038199726
288,0.057152221000177875,0.05690269063990607
289,0.057580151140308684,0.06017547343058575
290,0.05700122917608487,0.05565049854454885
291,0.056422526996544035,0.0569064122548984
292,0.05735113361268211,0.05614210828409575
293,0.0572841919788854,0.05584582426212581
294,0.057019582709117375,0.057576712270891374
295,0.05719992064005084,0.055547785840122925
296,0.057939809244528094,0.05744535946996549
297,0.05723632407411159,0.05524397414139433
298,0.05731270739214597,0.05670180374311008
299,0.05742793242565448,0.056370221469448416
300,0.05781623136719687,0.054515256486897784
301,0.057995044939714274,0.055086485612270114
302,0.058674784258103296,0.05903729277750405
303,0.058179016517613716,0.055562936269399586
304,0.05907828560907492,0.056120060507763816
305,0.058459754735469625,0.057190912486816264
306,0.05873964177213794,0.058408100501984805
307,0.059503758851763344,0.05786847284073988
308,0.07089696525723385,0.17336436913252443
309,0.06520905601922318,0.05527917588542744
310,0.0550208062835806,0.053116289056373
311,0.05679159615036967,0.05538193328451621
312,0.0653392262191033,0.06515920624113403
313,0.08853727247682121,0.09167723521743125
314,0.08581587411373925,0.07882469365021895
315,0.08447620369267644,0.08337680643222985
316,0.08493149107535013,0.08314944185675273
317,0.08695877022999558,0.08407724175334635
318,0.08701448907389296,0.08453965159434451
319,0.08758734329808339,0.08649064015946994
320,0.08819503909487614,0.08597878203819187
321,0.08909569211381611,0.08724989556217155
322,0.08938917565009863,0.08740624949782969
323,0.08977327627136553,0.08846248900951507
324,0.09148108649501602,0.09084403510745717
325,0.09335799978600799,0.09828984275189741
326,0.10649785305336892,0.13385269038773184
327,0.16696580477076756,0.10474305549943738
328,0.09990133544345269,0.09375622248146227
329,0.09616129460046999,0.09464172947778415
330,0.09417298091627616,0.09101217786392643
331,0.0928708778636204,0.08663449308525509
332,0.09122681543886138,0.08781415619244233
333,0.08964713809372996,0.08671997981800182
334,0.08818248436033582,0.08799802487526433
335,0.08841148160284848,0.08598438761510901
336,0.08896860708709625,0.0839409715427643
337,0.08905330434185471,0.08544245768329621
338,0.08862114877408024,0.08936716890184543
339,0.12920743254550118,0.1555031347658188
340,0.13026468226199242,0.12420470980249622
341,0.12204806337789666,0.12154452986103771
342,0.1217996478944326,0.12073654943714014
343,0.12332792470245052,0.1229251368234453
344,0.12445943710579575,0.12352374530652421
345,0.12666214012997232,0.12604860025263245
346,0.1261145625111582,0.12554761505117545
347,0.12541779290607794,0.1253538149649361
348,0.12615377611691336,0.12532235048093848
349,0.12518415927922696,0.1226155016903531
350,0.12341729249301955,0.12126867593675499
351,0.12237420445866436,0.12161019413299042
352,0.12139745757912847,0.11943834243840652
353,0.12019947638435902,0.11715109078853075
354,0.12002341010325628,0.1185342359702796
355,0.11864688843012237,0.11853545193208327
356,0.11765647057196696,0.11937276736760384
357,0.11754724747843022,0.11777424332468926
358,0.11648393862491413,0.12054560269981082
359,0.11652426414197678,0.1157342126944353
360,0.11632717129209344,0.11467158979050457
361,0.11494186938071041,0.1132993330942333
362,0.11533372109825853,0.11190050465790606
363,0.11334985619385561,0.11047786123162663
364,0.11418019607067585,0.11310490328986153
365,0.11354686574434204,0.11390428460293524
366,0.11362616507579192,0.1094889821868387
367,0.11289073777892035,0.11124872540924242
368,0.1121630609887157,0.11015280850684445
369,0.11231201607808411,0.11401673735669964
370,0.11288533229038393,0.11245268067578773
371,0.11236516406817688,0.1118791023153156
372,0.1126054392801486,0.11300155262285645
373,0.1125006596807191,0.11386197845980042
374,0.11239712071909512,0.1133586183578458
375,0.11162639479580924,0.11173103593919065
376,0.11129078661485446,0.11174649430619701
377,0.11185998565180125,0.11105295460621202
378,0.11352546704556349,0.11129715544154725
379,0.1135323699042618,0.11509980569463503
380,0.1135013417052708,0.11163826186824428
381,0.1123764282710356,0.1132874206684665
382,0.11251947306078687,0.11292063533060176
383,0.11437337952170917,0.11617278707549623
384,0.11470142962763921,0.11427654771703195
385,0.1140304015402933,0.1112392282535358
386,0.11383693413637716,0.11273815261160378
387,0.11570385551388315,0.11445227601721988
388,0.11539242117941903,0.1139691358736489
389,0.11620266002407081,0.11575104534367266
390,0.11674508241583689,0.11513834093251187
391,0.11679568437399339,0.11444367372505101
392,0.11598817668825412,0.11493710188552349
393,0.1161479428172302,0.11714616815993988
394,0.11541018661239641,0.11549345218674253
395,0.11629367342812838,0.11814385823664368
396,0.11741430913027433,0.1149613062227064
397,0.11726691371364464,0.11492339878592231
398,0.11813100914267613,0.11893151802229147
399,0.1178675354104772,0.115213801859398
400,0.11771101801455926,0.11554518597819434
401,0.11693968223951322,0.11472877400214972
402,0.11731841941650728,0.11672105105636434
403,0.11917064797511394,0.117270028999262
404,0.1198997380022856,0.11982249893136351
405,0.12013647189552931,0.11735327577699144
406,0.12144139338787988,0.12103561621862034
407,0.12247266808002115,0.1229847178462931
408,0.12262175586833943,0.12209489718726421
409,0.12217857794676848,0.12109459836650478
410,0.12111947587508855,0.1204836111054142
411,0.12185837959142612,0.12307732219454239
412,0.12238910445849673,0.1212324207529555
