epoch,loss,val_loss
0,0.5285791789019709,0.4467095189318309
1,0.67231139319788,0.5570702826350156
2,0.5570796926738739,0.5572154025473405
3,0.6560673456668705,0.6675096247874689
4,0.814401345865669,0.889494280602528
5,0.8891814534198303,0.8891715820353997
6,0.8891064523581746,0.8890680630036303
7,0.8890863617021192,0.8890646498639072
8,0.8890886579889354,0.8890739814268136
9,0.8890832190109681,0.8890923746184581
10,0.8890658226124847,0.8890425882652598
11,0.8890478046864859,0.8890833114042384
12,0.889067212912802,0.8890528644628708
13,0.889056058344098,0.8890804519904347
14,0.8890549545848072,0.8890449203857264
15,0.8890479580201416,0.8897643883928374
16,0.8890385182732066,0.8890418813250188
17,0.8890425213636187,0.8890303562553379
18,0.8890415161193954,0.8890534117427424
19,0.8890158833443755,0.8890263134853525
20,0.8890389873477637,0.8890323610188035
