epoch,loss,val_loss
0,1.1937984602184095,0.6684079522535273
1,0.7590488175573051,0.8902413728541186
2,0.889578811281971,0.8891657877246671
3,0.8891285672021968,0.8893113190103225
4,0.8891044296941737,0.8890657002431391
5,0.8890863243511583,0.8890579795485284
6,0.88908136024426,0.8890694960992034
7,0.8892497530049117,0.8891044801732028
8,0.8890517873264159,0.8890389035822229
9,0.8890725835797217,0.8890537937633647
10,0.8890605147089675,0.8890785436621162
11,0.8890466914923337,0.8895807430652166
12,0.8890378335393763,0.889031795143835
13,0.8890212115398257,0.8890341795709978
14,0.8890289330124052,0.8890258922063113
15,0.8890923968097528,0.8894393982841076
16,0.8890273978915784,0.8890272353411819
17,0.8890074639456458,0.8890150374546114
18,0.8890216526911842,0.8890129532940108
19,0.8890326401387613,0.8890338795410748
20,0.8890142188556719,0.8890311459624543
