epoch,loss,val_loss
0,0.09485842659337358,0.03672986620011
1,0.03429287248091317,0.029108889813006765
2,0.0434510308575575,0.031936613018009964
3,0.030260383311308797,0.02392169956805009
4,0.025911496330821918,0.023613482264676737
5,0.025088446634548737,0.025848426546768947
6,0.024283236421409674,0.026474950129184882
7,0.023112063664725492,0.021020513556351005
8,0.021977517100834634,0.01938690278288382
9,0.021218913384382632,0.019168827289690858
10,0.02083340588599966,0.018249264671867313
11,0.020492179578778382,0.019885914252764206
12,0.019942327740453673,0.019856393052839195
13,0.020037379771425372,0.01889578139015123
14,0.01987258122635078,0.022332793337420016
15,0.019480895876309228,0.02129802298586421
16,0.019077796556886597,0.020090816286122592
17,0.01833804841107197,0.01857315807483353
18,0.01777185983775668,0.021638453591168897
19,0.017417465951633754,0.01584372371478056
20,0.01747068449138594,0.015801146943716704
21,0.01732376517223914,0.016481374852904747
22,0.017315765493984635,0.0183080640257355
23,0.01710998732878263,0.019008959218553816
24,0.017147767997326795,0.016533341499248705
25,0.017057858711075274,0.016831054962161033
26,0.01703952584535153,0.01724979957924765
27,0.016788117671327294,0.01710360774651172
28,0.016740694565411416,0.01543291485716058
29,0.016931257206690916,0.016681071169548978
30,0.01661490274939284,0.01615654707804786
31,0.01660158482847213,0.016823726621978084
32,0.016764118909513934,0.016229543624833587
33,0.016316099573749257,0.01615396846339878
34,0.015985618597116592,0.015384712086702664
35,0.015270702966063443,0.0162090491405124
36,0.015275317419333434,0.0182187489845623
37,0.015383130306242197,0.01513789564001952
38,0.015088292229955506,0.014650975869667114
39,0.015086128222792785,0.016200333357384415
40,0.015198383908740886,0.015348082492611645
41,0.01505175939268144,0.016720399161058584
42,0.015064154913531271,0.014833016229513309
43,0.014718136039444826,0.01531491338672335
44,0.014731577760865176,0.01612455025995622
45,0.01463751912067729,0.013729861456272559
46,0.014480986478460895,0.013393059926674276
47,0.014425087085897232,0.013995658193540544
48,0.014152503350239517,0.014958000805532733
49,0.014299625253414815,0.013413691409736781
50,0.014099892085489332,0.013603523670659782
51,0.01403582471221454,0.01502083413606388
52,0.013789159533744943,0.01722387768232351
53,0.013933224114143689,0.01889818782696454
54,0.013812779406651588,0.01561279285603586
55,0.013703057081961583,0.013772363188648879
56,0.013564107347031881,0.01262375056231594
57,0.013722726259486895,0.014588709671471231
58,0.013562373338749597,0.012415979523322643
59,0.013422133970046027,0.015680236436118416
60,0.013511774444789756,0.012774166097112884
61,0.01351652678712196,0.01309359043925925
62,0.013485987738846239,0.012565836579008957
63,0.013467854450742856,0.013842319562264782
64,0.013563758543313207,0.01326364957555485
65,0.013341838270949487,0.012773630636030882
66,0.013341068585999432,0.0144853486812382
67,0.013074119456237213,0.013698854323636876
68,0.013319858258987252,0.014345743147366734
69,0.013265077212359198,0.012925933375302392
70,0.013058347000946734,0.013195887779505214
71,0.013281402741769392,0.012588606026887062
72,0.013328040595646365,0.011971028641640385
73,0.012999338900994101,0.012539389267476855
74,0.013222497188599407,0.012713486626405581
75,0.013002903607738656,0.013003140826339377
76,0.013058343581409674,0.012971731429238968
77,0.013111549521817525,0.01234466758525901
78,0.012987362850711006,0.014772731530095104
79,0.013101427703893956,0.012877812208343054
80,0.013063783345236432,0.012936424392256137
81,0.012920408503429058,0.015427417951506308
82,0.01300591323386673,0.01205774689946168
83,0.012945195577731652,0.013614865788846513
84,0.012915780976239369,0.012878678260394457
85,0.013070331247918579,0.013733321223687514
86,0.012972592631966262,0.01438536294411329
87,0.012833161244161643,0.013011450018907965
88,0.01262207909495686,0.013311602985576607
89,0.01279303713132058,0.012048931941571955
90,0.012910157431875444,0.013962654268884656
91,0.0126116360093717,0.012052403468357946
92,0.01283525463259939,0.013567585656568775
