epoch,loss,val_loss
0,0.9221274998665291,0.8892971315761776
1,0.8893850351978531,0.8892015104438078
2,0.8892002484120961,0.8891659338776793
3,0.8891476012117424,0.88910375299559
4,0.8891364254061204,0.8890691046840107
5,0.8890991102149863,0.8890730341133549
6,0.8890765673827403,0.8890356196994836
7,1.0955824263874703,1.0
8,1.0,1.0
9,1.0,1.0
10,1.0,1.0
11,1.0,1.0
12,1.0,1.0
13,1.0,1.0
14,1.0,1.0
15,1.0,1.0
16,1.0,1.0
17,1.0,1.0
18,1.0,1.0
19,1.0,1.0
20,1.0,1.0
21,1.0,1.0
22,1.0,1.0
23,1.0,1.0
24,1.0,1.0
25,1.0,1.0
26,1.0,1.0
