epoch,loss,val_loss
0,0.10642619854272761,0.05324162490493166
1,0.03729838385267542,0.03232172150321616
2,0.02557440475758375,0.02794997662145213
3,0.02811303198784658,0.020802959053540074
4,0.024610216793316018,0.021177498193045676
5,0.021950818156461147,0.022494041125458848
6,0.019105929380118382,0.02421364074881143
7,0.018231041840178316,0.023868136306254707
8,0.017968847543504824,0.015213466873356967
9,0.017517321394069304,0.015068900685768343
10,0.016990698025036187,0.01816987351298318
11,0.016455772940267847,0.01219399481238577
12,0.0162652277727905,0.016966096341624153
13,0.015940092868537335,0.016063722919198564
14,0.015305394295230352,0.016730588447209108
15,0.015116136659960974,0.012364155572694288
16,0.014659042500328826,0.013753880607341375
17,0.014227734638832609,0.012466169954380366
18,0.013809063893850513,0.011648409549627268
19,0.013762148604529756,0.014354359206582476
20,0.013951503747714197,0.011799280699089582
21,0.013654078834843287,0.017951493837073628
22,0.013745504213452168,0.01533464502275661
23,0.013145828524135804,0.016209263428711426
24,0.013120623460063641,0.012252548281712718
25,0.013294583890383654,0.012745615583374902
26,0.01282182049503021,0.010325465625511683
27,0.013021503212858037,0.013252092356794618
28,0.012657163501046823,0.012266888060863325
29,0.012385857233795353,0.01186769537433801
30,0.012636142394804071,0.012809077709571902
31,0.012631457806828532,0.010263631181850289
32,0.012296115896339813,0.013138192841729627
33,0.012615366761477393,0.010929837956689139
34,0.01161503178235699,0.011855911956299897
35,0.012069417297872238,0.01493693117801575
36,0.012058052499407616,0.014043097313245314
37,0.011651236203598658,0.012478553102781668
38,0.011853128820356875,0.01300165733034541
39,0.011824212361144417,0.013396242484490273
40,0.01205809619514726,0.01055556430283337
41,0.011890548250559014,0.013040142893813087
42,0.011560238705046185,0.012046638437493103
43,0.011396401139719773,0.012002884730523931
44,0.011686446341526976,0.012019831565121028
45,0.011337490612345484,0.011294639361617037
46,0.011117136884886381,0.009560237611771607
47,0.011330867647197285,0.009535054422772112
48,0.011143842003626512,0.02870796445570206
49,0.011068217350770727,0.010567466887270203
50,0.010937665334121119,0.010409713343403463
51,0.010832436474148327,0.013012636889956035
52,0.010915109743599471,0.011362746428946477
53,0.010749234718945944,0.01332232591479263
54,0.01121506747572902,0.010889412777855394
55,0.010881709034101166,0.009316204545987784
56,0.010660877826012414,0.0234038538006808
57,0.010884430926496916,0.012216301949120016
58,0.01098436385494972,0.04777139431045787
59,0.010932719495250109,0.013491267898785977
60,0.010647270530087214,0.010206631094241556
61,0.01082089480923389,0.010464320371330627
62,0.010688221335265981,0.014757225000279843
63,0.010248830798538541,0.018778115571542336
64,0.010835891270140719,0.011150980674482294
65,0.010535072963885572,0.009240467415067146
66,0.010517605689315054,0.01053956088040433
67,0.010695225941115438,0.010194746714447103
68,0.010373332154543901,0.009952117010687189
69,0.010704119195451767,0.014650849725891953
70,0.010475235073082128,0.012390416676874589
71,0.010474031056334168,0.011012341419136666
72,0.010276287460046241,0.011490828746316574
73,0.01038143112192097,0.01021286728078278
74,0.010239143732656423,0.009636429036504975
75,0.010209491232852383,0.01140740567078639
76,0.010601220544438307,0.010537681521697578
77,0.010263295916622244,0.01086123843380212
78,0.010212572698379706,0.010837287010235439
79,0.010155152680958882,0.009460763256891566
80,0.010028122177093979,0.01089147694005276
81,0.010213953793044224,0.009131571107706841
82,0.010146189106665607,0.009197124387225593
83,0.010234890702157166,0.009840171917161064
84,0.010064553528998686,0.010329807261895398
85,0.009888349228764127,0.009375857099744584
86,0.010108077185106954,0.009278199882918756
87,0.010106409015766558,0.009272547906620509
88,0.009949051742524808,0.010271996745206114
89,0.009866109150147902,0.01010271820268711
90,0.009967238822615205,0.011748096191442466
91,0.00986423251443243,0.009531188014401035
92,0.009869545234088372,0.009752650775421486
93,0.009702762250887733,0.00885434347522552
94,0.009765617266590726,0.00970206997589215
95,0.010210464711625294,0.009645848156563667
96,0.009779450092331205,0.010164846745283429
97,0.010013294525405956,0.010570295652914754
98,0.009735760414495047,0.01122193109481191
99,0.010033167732180727,0.008399054257437878
100,0.009834016688365052,0.015392642378439094
101,0.009861354467581712,0.010178280731441851
102,0.009893699934335861,0.010275604389178999
103,0.009761513070404737,0.013382267143236577
104,0.009579171866859816,0.009264114892815117
105,0.009750621423719555,0.00928605862436007
106,0.009725471104778451,0.008137774444529063
107,0.009669626303495549,0.01169218289334879
108,0.00962676771885014,0.01041248446680654
109,0.009626954154495056,0.008614746622209672
110,0.009627470091631795,0.010847490498019929
111,0.00939026881499433,0.010861453221716272
112,0.009594613700229843,0.009303305478749108
113,0.009818699905009515,0.009682600799449851
114,0.009639461404301213,0.009354823102045504
115,0.009550670681596072,0.009965771371031341
116,0.00951641978238804,0.011171883731954449
117,0.009428400753317412,0.009864073313567985
118,0.00966714414329008,0.009676089217591713
119,0.009674614574907483,0.011044712550220817
120,0.009533932724262742,0.010160724550062027
121,0.009547957671530617,0.012969330616263687
122,0.009287227391747038,0.009933165257108321
123,0.009677226867416115,0.009961099625978194
124,0.009452267312736757,0.009359624909875361
125,0.009714857914647487,0.01020151327948867
126,0.009425622869313872,0.009371326339506684
