epoch,loss,val_loss
0,0.16581939806793553,0.037681912970491796
1,0.032850397213745955,0.02787754270420418
2,0.02640228877269324,0.02066500217371175
3,0.023235592537182725,0.021220205650615023
4,0.02168332770215571,0.03182419461631644
5,0.020744855874754834,0.017954795456501617
6,0.01951876989039554,0.018331076032562694
7,0.019045656443611107,0.016637550143955984
8,0.017816474904909254,0.018284512676650027
9,0.01814473634941254,0.015610624293236031
10,0.017222050696844002,0.02037113460944189
11,0.01728982259292895,0.01609492254457813
12,0.016817171887810397,0.01613173821816191
13,0.016774708617386443,0.06804847073064914
14,0.016987862303757442,0.01486625897063468
15,0.016467638858431957,0.014873225422780467
16,0.016186229793154254,0.015032309730286842
17,0.015988257837907683,0.015285007657765116
18,0.0159493231638373,0.015855213511044214
19,0.015809999131291087,0.016529699261936974
20,0.015842836891370077,0.017039949328035035
21,0.015450680587838753,0.02911085640230391
22,0.015742029320269604,0.014271338514945792
23,0.015343285585172636,0.014419445379208126
24,0.015551072349128923,0.014959272345072772
25,0.01542874701636695,0.015104577201170847
26,0.015546493600935065,0.016869401524847054
27,0.015038633909606995,0.014699384723493452
28,0.015128781284570455,0.021102153748698026
29,0.015214079213014648,0.014871552512975525
30,0.015009613025933283,0.01553941239973056
31,0.014985703229974182,0.014041929243317939
32,0.015025795229386003,0.016552105599611157
33,0.014849206535269076,0.015781712679262528
34,0.01471857729963328,0.01553883597413597
35,0.014683148701734624,0.015492176331197514
36,0.014756858505848859,0.016567781663782113
37,0.014528531970763838,0.013280078533976827
38,0.014615927173648336,0.014781269033501427
39,0.014261845771204302,0.015550006055619939
40,0.014004769848755191,0.012588437300949534
41,0.013826422406140024,0.012303906389285392
42,0.013776162208044389,0.017270885087500583
43,0.013731713718731322,0.013746210792863157
44,0.013663903161235624,0.01291620625187867
45,0.013768411140726954,0.013707107843207637
46,0.013607391334026301,0.012170274249072872
47,0.013518256706901408,0.013746586196761704
48,0.013461770069898049,0.012772069043898859
49,0.013646310770258747,0.013377943948467069
50,0.013464963212021881,0.013839183236620652
51,0.013445120556339856,0.013789605709918024
52,0.013434515997450547,0.013098808313637548
53,0.013335878608538828,0.01290465217280103
54,0.013426992875392807,0.013352955219754261
55,0.013347994706012693,0.012937105009804098
56,0.013220924219983499,0.015503963829521477
57,0.013528374010381351,0.013269491392168991
58,0.013384530234352788,0.012432590147179541
59,0.013288593690884566,0.013969966736466121
60,0.013067101921441247,0.012995994615182044
61,0.013323389049973041,0.01211463325445898
62,0.013134729700671402,0.013943704583457164
63,0.012649206476774014,0.012706884147382814
64,0.012544512129034128,0.012012113394894266
65,0.012681252325155472,0.01328497004124493
66,0.012569002118411386,0.01219428292646021
67,0.012350642809510455,0.012075659673488247
68,0.012341162392948558,0.011717003849298779
69,0.012436092992966611,0.012679647537861159
70,0.01220029586569675,0.012771640948691532
71,0.012257678121455746,0.011493467592925771
72,0.012232123801539587,0.011880953035487299
73,0.012179519881306935,0.011505877042722566
74,0.012144557490910205,0.013724517578697484
75,0.012060344524498813,0.013132596308815374
76,0.012088686833672398,0.012004447767189477
77,0.012183558130894959,0.011243324619999644
78,0.012129001462859466,0.011503938667973711
79,0.012154965039107455,0.01158342382772853
80,0.012106767479569456,0.011236944854080829
81,0.01220398079563731,0.012680440811867482
82,0.01208438682942478,0.012250582214500486
83,0.012008299530594664,0.01231552406732713
84,0.0119862354576326,0.012481781614570744
85,0.012105998597083762,0.013204561918227031
86,0.011963786664285735,0.011749731365859576
87,0.012041735018009307,0.011795266714803099
88,0.012008738036914888,0.012346888579619282
89,0.011978815004184289,0.012840552930450234
90,0.012052118783614799,0.012275712098704457
91,0.011964618969664977,0.012691782288318678
92,0.011887995285905744,0.011879347714787618
93,0.01191911556373427,0.011641458588909213
94,0.011854204637416028,0.011112407362961168
95,0.01184390917112089,0.013097179314797208
96,0.01190588368965648,0.011790494674539269
97,0.011779122159216398,0.01369958707668764
98,0.01196457669286932,0.012212433628557489
99,0.011806143971225537,0.012577667749809727
100,0.01181327233279163,0.01115616056341184
101,0.01169464620119285,0.012008592409510813
102,0.011776499774133255,0.01138461177239994
103,0.011775860687994997,0.011704532807237059
104,0.011769603212493018,0.012760448232312356
105,0.011827814635037142,0.01170570843889144
106,0.011648733468095272,0.011082884999363609
107,0.011757983167537378,0.012464885383090681
108,0.01167457142689661,0.011405197788448168
109,0.011789116014624833,0.011991381612405943
110,0.011578626699249547,0.01069486610156883
111,0.011872009531656666,0.012223871657439966
112,0.011724872145594057,0.011745733889365563
113,0.011595818608941644,0.01117722536781819
114,0.011582859498578114,0.010835308273072487
115,0.011726814930266036,0.012295928751287826
116,0.01151720917983263,0.01162399583177726
117,0.011654030425624894,0.010642939931003867
118,0.01172883466802396,0.012038839215580454
119,0.011639095222815215,0.011732820096078593
120,0.011778987660576437,0.010616645220528393
121,0.011641736745814039,0.012901762859985748
122,0.011648403501398187,0.010887955328611114
123,0.01168164174450595,0.011281154540139511
124,0.01155477748425957,0.011216092366744137
125,0.011680670542440725,0.011027361503212861
126,0.011650520708025469,0.0105556331557021
127,0.011446112194099179,0.011439756285819233
128,0.011616859556113754,0.011719588053066502
129,0.011625441587338515,0.011025652431521895
130,0.011463212330701397,0.010574316154203792
131,0.011538654566667746,0.011385155668407051
132,0.011406007812436142,0.010656888064016849
133,0.011475223542874887,0.010889875887397234
134,0.011337236060403927,0.01196692750282078
135,0.01146263190595779,0.012680299103528329
136,0.01152745625313962,0.013720394858137384
137,0.011368880905310559,0.011003739212623213
138,0.011395686994930062,0.01111868530609026
139,0.011489892458796325,0.013103714626080128
140,0.01140768769651633,0.011214691281335822
141,0.01147003954781855,0.010874567258526547
142,0.011276198989075009,0.011641089622332417
143,0.01133585788505271,0.012666825022505842
144,0.011319249076780773,0.011678620835916167
145,0.011311106531799495,0.010800589163747286
146,0.011293917595370446,0.011790899623008508
