epoch,loss,val_loss
0,0.07275858693094955,0.04374336848727328
1,0.03861048467786077,0.03431434626709531
2,0.03254326415197763,0.028191215071453876
3,0.026574404837057728,0.021368680610437563
4,0.024639903430559933,0.023857389276645213
5,0.023673270286172048,0.02227400275280355
6,0.021410132866132598,0.025502601858510637
7,0.020889634389209887,0.019886948334442725
8,0.020053413116041093,0.019938855691019747
9,0.01965567652685217,0.02355499607819235
10,0.018492546048084698,0.016787476386541846
11,0.01782839273580725,0.023287473010037987
12,0.017400186171299008,0.016607130200738035
13,0.017021555959481467,0.014586638135748859
14,0.016820442418719304,0.0173374966360192
15,0.016423748659697583,0.01645086346363049
16,0.01597637097737538,0.01613807351413031
17,0.015899382622971404,0.01582666048460621
18,0.015669098555086972,0.013386998591102732
19,0.01540082760380478,0.01872034255766906
20,0.015604753501645635,0.015249145236910478
21,0.015111236264919746,0.016676093221769123
22,0.015156374798179943,0.01718650009540484
23,0.014812913474638603,0.0224674986085263
24,0.014671276001672215,0.013852612025408988
25,0.014434155076655898,0.016523219626351046
26,0.014505132402219305,0.014413222588544893
27,0.013969412350652166,0.014946236004665428
28,0.013899582871796358,0.01546447746381276
29,0.013945069892853837,0.01604758367212766
30,0.013729831682306886,0.011314042947629704
31,0.013501754668233158,0.012160247310808815
32,0.01355527808017726,0.012244927743176193
33,0.013373592358542232,0.013662889049651286
34,0.013169475801776315,0.012696111033198362
35,0.01322800744793471,0.013062531511252428
36,0.013340840712810362,0.012668824782571374
37,0.013204185790512078,0.01177634824424827
38,0.0131950601062836,0.013195884834901942
39,0.013115191163021815,0.0140187727132561
40,0.013170087323904315,0.012266135386871498
41,0.012937180010181138,0.013143889522140028
42,0.012988855420738148,0.013045431445103523
43,0.013013901541564135,0.012433985610080923
44,0.012998647155711845,0.013852536500243321
45,0.012939050958137646,0.013338752999994652
46,0.01297880494348448,0.011830962426624441
47,0.012895030882178974,0.011804121670793704
48,0.012714939791057265,0.012089674417917452
49,0.012589613226836043,0.013551338360438854
50,0.012635991576049685,0.013085214597560088
