epoch,loss,val_loss
0,0.10431639953794372,0.029031706978199415
1,0.028472013820119244,0.024316288543915668
2,0.026061144423978434,0.02308356917884904
3,0.02382046065296648,0.1764157681484991
4,0.021859298155935944,0.021670997470019188
5,0.13983594283121623,0.027007920602601265
6,0.02357335155850432,0.018517766867160716
7,0.019768887973596737,0.01805547022158527
8,0.01769634170963084,0.025518479589736708
9,0.017025474574184254,0.014448978686215684
10,0.016578636324790133,0.0194083436337377
11,0.015868835998134767,0.012187077198732198
12,0.015520644166391716,0.012334620986282897
13,0.015210534426880785,0.015409322029242329
14,0.014810652845773778,0.01864007008469777
15,0.014445189621422732,0.022343261752275245
16,0.014157341391223235,0.011456137350382518
17,0.013963982961418224,0.013861578759705218
18,0.013558764960742912,0.018896156647185663
19,0.013525850756423098,0.012982704362549374
20,0.013594083442206186,0.011573464108932138
21,0.01284671124203796,0.011962996052394105
22,0.01288759320660875,0.018307181819925834
23,0.012830895806642347,0.013586725226903832
24,0.012530262200362527,0.011671974600372757
25,0.012209871941477414,0.013426201327860519
26,0.012598510071663791,0.013213618115507326
27,0.011831130862269522,0.009801142207477452
28,0.012072672654956344,0.00967446978200107
29,0.011858490118788504,0.010730983253161096
30,0.012103829535785824,0.01160287055718182
31,0.01153459945236834,0.011790254073704397
32,0.011962200897159134,0.009371531599851872
33,0.011649608740508952,0.012153358324971456
34,0.011265107340310762,0.0143811868279844
35,0.011327013085024647,0.013020197186697134
36,0.011617132090511545,0.013211017069842372
37,0.011407271713188059,0.012698473886570309
38,0.011469284379004926,0.010262258577209197
39,0.011578991922256018,0.011266550996666338
40,0.01121362039731889,0.010396920493970304
41,0.011136577133053636,0.013293589809592958
42,0.011055161285907649,0.012577896633498845
43,0.011094838365934204,0.011633101028612225
44,0.010687512819321583,0.009104272865210948
45,0.010728052209824278,0.00985381236590199
46,0.010800684200812656,0.009382682106775191
47,0.010903966779668204,0.014565299120921702
48,0.010775341010076305,0.01017531214946133
49,0.010730191649931584,0.01181105341061557
50,0.01089794807118015,0.013902530786255219
51,0.010706925284669202,0.012828471642522958
52,0.010831846060163281,0.010297004404266723
53,0.010619774525871793,0.012135076037916753
54,0.010271848801339582,0.011088308818417658
55,0.010263027079037767,0.009524554789605556
56,0.010526114498234972,0.009422341228809727
57,0.010501752860227613,0.01081402572919744
58,0.010258424117137928,0.010538829910096059
59,0.010307206969489903,0.014704570411115102
60,0.010180187648006593,0.01013619925970842
61,0.010225034610215783,0.009247373586372062
62,0.010321633873931275,0.010775796280436104
63,0.01033107682466293,0.010194360022828733
64,0.00996558121129492,0.011805324759751401
