epoch,loss,val_loss
0,0.4114010073572135,0.3846458262148671
1,0.38356687834889863,0.38939616326375
2,0.3755585612010041,0.3726692805044653
3,0.3707100331461687,0.3731060636001209
4,0.36506707441034936,0.3582902210805015
5,0.3601090036493411,0.3463492136045808
6,0.351782490243967,0.34755316875351633
7,0.3518847841843903,0.3443092897640219
8,0.3511457420843873,0.34608250460054524
9,0.3504838637596698,0.357418026442874
10,0.35021492232569307,0.3605673748061896
11,0.35049389060333574,0.34676622769309484
12,0.3541163680412405,0.3461538934411265
13,0.3520126168807443,0.3570343068409079
14,0.3507561474311933,0.34142771494981333
15,0.3535886671391132,0.3498531050021571
16,0.35150421516810487,0.3486543539220551
17,0.35383665808242004,0.34766871493306795
18,0.3568850216462458,0.3469253804214187
19,0.35093575825007983,0.34083163597118976
20,0.3505441865248741,0.3538641337108311
21,0.34764771968674224,0.3435129021436282
22,0.3468577694728506,0.3408603058758926
23,0.3461004793524837,0.3463905567881058
24,0.3456241577017984,0.3431609268487676
25,0.34550964557152575,0.3446237350672178
26,0.34121318343732,0.32830683182522175
27,0.3401281130995205,0.3348337832217905
28,0.33930482213600555,0.3305181952835823
29,0.33911427720595033,0.33584460063933763
30,0.33814853844311027,0.33098866364197554
31,0.3380294986289563,0.3347816568370776
32,0.337601188808489,0.33348621453298954
33,0.3379516091039903,0.3357120157581855
34,0.33843453630483405,0.3272098398575561
35,0.3372721079525521,0.33863832429345425
36,0.33733021853853473,0.33936668130339087
37,0.3375152981788706,0.33975845467131627
38,0.3374670473255699,0.3367360382684122
39,0.3369202182310329,0.33061175652865643
40,0.3369356804816938,0.3295579711894116
41,0.3390539465405101,0.3340106025491066
42,0.3398553855437264,0.33638503782939233
43,0.3403550610065365,0.34180849569466704
44,0.34171507708269727,0.341294571522097
45,0.34539760419314236,0.3407164737523402
46,0.3420009792929025,0.33164348419764517
47,0.34139124639362073,0.3358160423933754
48,0.341326208393589,0.3321588661318796
49,0.3408144296442481,0.3332283309739503
50,0.3403762011564702,0.3326997418359404
51,0.33660348233797377,0.3298193000039437
52,0.32534865223520476,0.31848807535306994
53,0.3220539336010135,0.31166316297760893
54,0.32218799784148244,0.32241947626681805
55,0.32200611933922885,0.3221938758030028
56,0.32065955740358715,0.3129533739215103
57,0.32121480097004074,0.31125621608184284
58,0.3205826639992108,0.31344075999042603
59,0.32133103536961555,0.31358931283595154
60,0.3209209614883748,0.3209507898401819
61,0.3201124173232453,0.3111770420137502
62,0.3209635410859859,0.31414187803052973
63,0.32705990163137394,0.32160424140606136
64,0.3288172445089506,0.3249601360936756
65,0.3264310119701899,0.3226381420748104
66,0.3252012333441838,0.3156653860938201
67,0.32546707498226807,0.3221567619383194
68,0.32649757833682375,0.3170038601464424
69,0.32535245248692024,0.3229492943919166
70,0.32572464427823644,0.3302766732465779
71,0.32683928430580694,0.3176433881296355
72,0.3313043636741112,0.3307408257060476
73,0.3287999278052057,0.3288377969163369
74,0.3285922048022326,0.3296098583616793
75,0.32882386477564357,0.32587540293172673
76,0.3293835100361245,0.322544304423193
77,0.3298411512052079,0.3283718788280389
78,0.3309793619217156,0.32319575676366674
79,0.3304331685892112,0.32922201178491634
80,0.3305046440189262,0.32478342522244424
81,0.33091782507517165,0.32849201688215124
82,0.3309492713970532,0.3286697012919936
83,0.3354241925118257,0.33075922192460266
84,0.3271324642741089,0.31919461569874513
85,0.3047074582055509,0.2812766933015415
86,0.29453374547578637,0.29278194417422837
87,0.2941923069415523,0.2914199505380598
88,0.29649959935499226,0.28786625416145234
89,0.29474746727709955,0.2846230300997502
90,0.3118098617957936,0.30198261813917027
91,0.2997095520994503,0.28671988866041287
92,0.2974097809399203,0.2922985170392324
93,0.2980196726002949,0.28885898326289117
94,0.2957211473940326,0.2957793353941371
95,0.2965648331337695,0.2867803561965029
96,0.2969717760350731,0.29184527464663784
97,0.2987844011814093,0.2931060010262992
98,0.2966667796037704,0.2957381427687929
99,0.2925636287894752,0.2857693993113788
100,0.29489093415325973,0.2928234855008577
101,0.29450626013209397,0.28901646542638515
102,0.2949192676839116,0.28544290911850256
103,0.29588661048945475,0.2909447858205628
104,0.29734002808622606,0.2887979273602731
105,0.29588584008989194,0.29673141462768077
106,0.29847450645790874,0.2999597905408047
107,0.29699692997238714,0.2980391979981993
108,0.2973272259489333,0.2894828830152491
109,0.29862971849840797,0.2945274278968455
110,0.297435517014145,0.3037604971155936
111,0.2978615456109615,0.2930686153653765
112,0.2962051609830319,0.2871067941471076
113,0.29681393828132835,0.29068423363055973
114,0.2968082506921318,0.28499396254720893
115,0.29497523207387194,0.2854560582583216
116,0.3101900049703394,0.2916765419065058
117,0.29828364206410996,0.28746836281424915
118,0.3019382442823417,0.28939813420164745
119,0.2988805607092276,0.2936092626829738
120,0.2912089968387553,0.28068406967521187
121,0.28663886808079303,0.28212804907687367
122,0.2937934074333484,0.3287229489038192
123,0.2953184161433499,0.2795942887875539
124,0.2886138158968741,0.2895586739963872
125,0.2863364279520311,0.27721088608372557
126,0.28606447556631553,0.2787941245989905
127,0.28523521742029345,0.2733804201729296
128,0.28427605780003834,0.2685461881987298
129,0.2816582154408157,0.2630792133092598
130,0.2744996157957972,0.27288619941063724
131,0.2709160273273786,0.26121620541025353
132,0.28827872748771827,0.27024851178407855
133,0.27163531547255937,0.2670353520499879
134,0.2740729260954449,0.26415516938881883
135,0.2753974881848033,0.27043573200796756
136,0.277444605543602,0.2714500293406146
137,0.2765653291426831,0.27537399582747124
138,0.2767153417201732,0.2636144271601159
139,0.2766384917626278,0.26889044636215104
140,0.2765880941445355,0.27280782747663845
141,0.27511604709459914,0.26270080732965245
142,0.2770121092829916,0.26516684151203873
143,0.2770935766291704,0.275416244559384
144,0.2775000701580259,0.27669845151567235
145,0.2776116066747051,0.2684850761491949
146,0.27733978463543785,0.26981277286347766
147,0.2767252809495377,0.2645402259025032
148,0.2782344547011774,0.2736008292932913
149,0.2771887389226831,0.2804108715036203
150,0.27848185198925,0.26742400210747685
151,0.2783557062568091,0.2671438676217643
152,0.28389117034743255,0.2913591948050444
153,0.2797334352336961,0.2706425187619728
154,0.27635992399687104,0.2796331746966799
155,0.27641798354548325,0.2707698511366968
156,0.2789262992729672,0.2754500142953578
157,0.2770571721543511,0.25535597583395153
158,0.2773952502474415,0.27208582594720226
159,0.2776688305701283,0.2728965940937435
160,0.2782382798328293,0.2724248620886547
161,0.2809883313928005,0.26610727842247384
162,0.27987790992148487,0.2650602990386518
163,0.28041394120104596,0.2671715445763592
164,0.28097752939096743,0.2809888980488845
165,0.2816319550565488,0.2760362784130515
166,0.2872650363533903,0.30301499964806067
167,0.28953274424901776,0.27837774996670006
168,0.28857862673920215,0.28418259209149827
169,0.28733226190582456,0.28003158168639364
170,0.28304719051523364,0.27922400359384825
171,0.2815520635796346,0.2755539079079876
172,0.28039922966338177,0.2719373338471366
173,0.2806879846270469,0.2736708934653342
174,0.281776419018122,0.2819467166875325
175,0.28189277815685376,0.2740568982726867
176,0.28039597075798817,0.2725265238672236
177,0.28211528646181244,0.27177073335497043
178,0.2814616523147058,0.27751472517083553
179,0.2816931382446981,0.27811346765851636
180,0.2799097321105661,0.28088240891742067
181,0.2969214492421642,0.2911414916273545
182,0.2970523884613737,0.29969710056341436
183,0.295394240478746,0.2867439913298073
184,0.29391689239133845,0.28901403187976266
185,0.2928530109151424,0.2820493899691547
186,0.29292288057797916,0.2896317627454425
187,0.2929981783729234,0.29524154727065666
188,0.29022776798533495,0.2844001687622108
189,0.29097664459860867,0.28126654649284194
190,0.2927019343935519,0.28187285062593087
191,0.291299259610218,0.2834553262593714
192,0.2900332199911372,0.2904983229682308
193,0.28910800147292426,0.28856369855959957
194,0.28855928962679506,0.27970916437368837
195,0.28935950685092965,0.2841873928292962
196,0.2885914594292355,0.2765125327735504
197,0.29031822697030935,0.28777293309322377
198,0.2877960778522692,0.2943052461851556
199,0.2876956510029251,0.27254435305366764
200,0.28609838994513215,0.27775919163965673
201,0.2873707553155893,0.28129834480048543
202,0.28372189128022496,0.2902924857780796
203,0.28628967396265786,0.284252578970383
204,0.2871384708364185,0.27850671069609806
205,0.28836061197111934,0.2789833816187346
206,0.28488550108554456,0.2751517419092469
207,0.2879082624890583,0.2846956874031482
208,0.287026062095575,0.28144082672241266
209,0.2894606615761392,0.28677293602979925
210,0.2890737233169788,0.28657065280775623
211,0.2866929647721928,0.2815988982109546
212,0.28543383186812593,0.27280951368357126
213,0.2909747825222288,0.28700261762999324
214,0.2758970258476065,0.26739569203582636
215,0.2685249310573466,0.26404888252856323
216,0.26928454542831837,0.2651610533988372
217,0.2731447001304224,0.263120942964456
218,0.2742247892726811,0.26807298012013125
219,0.2724631340633765,0.2593413694587484
220,0.27391856812018095,0.2681485012514721
221,0.2714228625926707,0.267840902085086
222,0.26824819489860896,0.26638695758185993
223,0.2678393703445399,0.25747336266119836
224,0.26680702728619105,0.26696004876727275
225,0.26595803922850736,0.2690417896471065
226,0.2671106957393489,0.25840262939893266
227,0.26695820031692086,0.2519978388038412
228,0.2766930196764801,0.2659921908682034
229,0.2759575297852024,0.2690302897024173
230,0.276243090126321,0.26593558076877905
231,0.27392159070637967,0.2660650501958291
232,0.2765969921329277,0.2660146246075442
233,0.2754649472155636,0.275517276590418
234,0.2763390794015236,0.2808024189725295
235,0.2768198012751784,0.27496203169191363
236,0.2757515557658234,0.28592334880001824
237,0.2763653766545508,0.27464246463498077
238,0.27784534302249037,0.27731021839446124
239,0.2791813892259491,0.26975203022631306
240,0.2745443040893661,0.2599599654091656
241,0.27530386985289296,0.2679722245956088
242,0.27504062650205613,0.26995360434361115
243,0.2741787406466276,0.27271929932515643
244,0.2733605356245256,0.26164690750903186
245,0.2773667047028061,0.2756030511790218
246,0.2749361062971808,0.278916292762841
247,0.27629265094177424,0.2631646116112007
248,0.2775576260271404,0.2677524731315866
249,0.27856257707357024,0.28202678177920304
250,0.278889692179281,0.2735678868834297
251,0.2792526892930579,0.27141516755063794
252,0.28050047670194,0.27362797876794975
253,0.2783133555099451,0.2647783958838978
254,0.2788559758632208,0.2690120589138018
255,0.28005649788464476,0.27202788176457526
256,0.27934323834906,0.27346607576982185
257,0.2786180590637487,0.2783417601106011
258,0.2895608870305127,0.2839025789320516
259,0.2869953718557537,0.2862370360551524
260,0.29147325652084954,0.2851069870139542
261,0.29197375890281463,0.28575691416118687
262,0.28678713553100466,0.27493340069841193
263,0.28233262115149954,0.2825226952640109
264,0.28109001159536945,0.2815591497339408
265,0.2802421485753559,0.27880597394474305
266,0.2811257973206129,0.2675676801563156
267,0.2798989128252919,0.27896217005687524
268,0.2792391715218409,0.26769506005127786
269,0.27926243989051674,0.2735263714427165
270,0.2784887073899535,0.28187289510007535
271,0.2783845711311848,0.2694227292592731
272,0.2788645347519268,0.26624286591700896
273,0.27868836740259645,0.26707520485865194
274,0.2759612394268993,0.2759637167146569
275,0.27593490017427624,0.2805361153106569
276,0.27853264400570227,0.27799693674390114
277,0.27840779943288946,0.26690456224715703
278,0.27621969532111373,0.2788765050276773
279,0.27668490678631813,0.2622852464748257
280,0.2763274738626133,0.26921478418402534
281,0.28143311883036276,0.27858889325218306
282,0.2767689006803609,0.26276838044388234
283,0.2786510239253275,0.2805036679733524
284,0.2757294362903737,0.2760398963432474
285,0.2758855401224894,0.26111198484239
286,0.2762533582919698,0.2741314439895403
287,0.27782410119982553,0.2715806606113205
288,0.2762547086397235,0.273307565155703
289,0.2765946333690418,0.2866149740653802
290,0.2770053675497989,0.27203290844255296
291,0.2767430994090893,0.2724282897320806
292,0.2791730651139117,0.258244390939763
293,0.2784789352417945,0.2796241042057924
294,0.27833913322940146,0.2693583992822206
295,0.2789377061148389,0.27097471306525356
296,0.27826528785992966,0.2778618225758717
297,0.2817334341708657,0.3021039983997123
298,0.2797780749674657,0.2675260179385766
299,0.2794293587317141,0.2738398659765579
300,0.2796753244124633,0.27834009931326475
301,0.279294262177867,0.2648515434378513
302,0.2823166585148429,0.28149254180802635
303,0.2809227086561952,0.2877475850242936
304,0.28426303263667296,0.2810025023150933
305,0.28072168584540785,0.27225220350411905
306,0.28203703200728963,0.2772856786341392
307,0.28392693544510933,0.28461562511059085
308,0.29289348407698385,0.286007126897644
309,0.29547810942518243,0.29488997630063435
310,0.29028446864869767,0.28802998185792866
311,0.2855591173294923,0.28489986029119124
312,0.2831800668407306,0.27762253688914434
313,0.2832265301323909,0.2783906656804758
314,0.28466820527764436,0.275253372979898
315,0.28509512873326276,0.27141250470607603
316,0.28354765960483624,0.27631511172278245
317,0.2845915285297197,0.27908944930725427
318,0.28512669416914266,0.283663535009902
319,0.28387346447741,0.27479403440700145
320,0.28711927879294996,0.2859062430667143
321,0.28515110812860905,0.28836882013854026
322,0.286349736737738,0.2870742532570906
323,0.28572494711140267,0.2914398496980825
324,0.28592569074280066,0.2831973530757869
325,0.2865098590294806,0.2763776225350274
326,0.285607949753912,0.27261760206371194
327,0.28832706168806144,0.2748701961530224
