epoch,loss,val_loss
0,0.30624132927020997,0.2933869077933579
1,0.29134538963592177,0.28666984237917825
2,0.2897582550982746,0.28972071178396447
3,0.28641686733481025,0.28149966665355536
4,0.284323746566657,0.28320303219706666
5,0.28355467031665854,0.28506865412818644
6,0.2831206594118841,0.2817445971126104
7,0.28272811243768403,0.28008264955812995
8,0.2824759095716324,0.2814128309343273
9,0.282197981324193,0.2802317074748528
10,0.2821483105104909,0.279141148795515
11,0.28171723451110436,0.2811797777461213
12,0.28150498050990536,0.2798919712419154
13,0.2815232463986326,0.2797212280870838
14,0.28117996719990185,0.2801215579100286
15,0.28107335608753803,0.2800008670909561
16,0.2810467371465064,0.2791052262048748
17,0.28108859758039684,0.2789043833026534
18,0.2810891668548624,0.2806460281648195
19,0.2810559788102909,0.28049884473078635
20,0.28078147973880185,0.2808056955874595
21,0.28087393047692205,0.27860100720219755
22,0.28009028487605414,0.2776076276964128
23,0.2798697571900246,0.2780699045348245
24,0.2795695973525914,0.2800061569306682
25,0.27969042287529516,0.27797239710669736
26,0.27953112274229386,0.27814175308185773
27,0.27935436331898905,0.27740270052851457
28,0.2786157931222784,0.2766921075736229
29,0.2781445418534468,0.27806573874178886
30,0.27755215104588804,0.27550108269739226
31,0.2769385536549519,0.27552118402545467
32,0.27631401284646284,0.2745215997027365
33,0.2762413324983574,0.274186596697361
34,0.2764537945520983,0.27747412508735786
35,0.27664350429244094,0.27510267230232655
36,0.27698146162317505,0.2753704066682133
37,0.28334594852894285,0.27691236903946864
38,0.2791704240831449,0.2799629005395776
39,0.2777681249686725,0.2780634000268973
40,0.2779796499374201,0.27600944900865587
41,0.2781073184843489,0.27877422701340815
42,0.2794097993967293,0.2770098909638997
43,0.28090943758479586,0.2788606127369046
44,0.2823754737408663,0.2798755987270132
45,0.28202161370359774,0.27985108976115664
46,0.2824034885562258,0.28053494959779607
47,0.281936699042829,0.2821171694077908
48,0.2834188181361119,0.28183909138212915
