epoch,loss,val_loss
0,0.4884230293929577,0.46044291788339614
1,0.45369916027784346,0.4458401608467102
2,0.4420559569001198,0.4355700156092644
3,0.4378530528843403,0.430617320895195
4,0.40619941329956055,0.35953435945510864
5,0.366403578966856,0.36106823539733884
6,0.3671129327118397,0.36855029648542403
7,0.36833971175551417,0.36130313020944593
8,0.37014644318819045,0.3599722680449486
9,0.37183423298597335,0.3643534025549889
10,0.3735567533075809,0.36516240125894545
11,0.37484993851184845,0.36968588852882384
12,0.3758647595345974,0.3698214863538742
13,0.37681632885336874,0.3681531910300255
14,0.37634410691261294,0.3768449999690056
15,0.37766022893786433,0.3723695638179779
16,0.37673871019482613,0.37238833993673326
17,0.3794387794435024,0.3719340604543686
18,0.3779369370937347,0.3698034021258354
19,0.37784944686293603,0.37805511671304703
20,0.3770685038566589,0.37834407544136045
21,0.37799330878257753,0.37093298095464705
22,0.37867911317944525,0.3757538751959801
23,0.37970229297876357,0.37294927787780763
24,0.38053605404496194,0.3750046364665031
25,0.38071527993679044,0.37907539558410647
26,0.3818702235519886,0.3718325509428978
27,0.3819186370074749,0.37554002517461776
28,0.38067224916815756,0.37801609617471693
29,0.3824025679528713,0.37612468338012695
30,0.38273262792825696,0.37669617021083834
31,0.3838674286007881,0.3808249770998955
32,0.38515443938970567,0.3780504153966904
33,0.38483863562345505,0.38105601704120634
34,0.38559725326299665,0.378582339823246
35,0.3859381107091904,0.3789716505408287
36,0.3874564142823219,0.38903650134801865
37,0.38895207378268243,0.3907539029121399
38,0.3876516382098198,0.38388961070775984
39,0.3894934679269791,0.38473144483566285
40,0.39067275789380074,0.3899483461380005
41,0.39041678377985956,0.3924408791065216
42,0.3910850566923618,0.38396293514966967
43,0.3916610181927681,0.3887816801071167
44,0.39276344153285025,0.38735176318883896
45,0.39383729121088984,0.38752108269929886
46,0.39542065128684045,0.39515431988239286
47,0.39724937760829926,0.3986394383311272
48,0.3975289417207241,0.3955342245101929
49,0.3987767907381058,0.4014192586541176
50,0.399069057315588,0.4009319350719452
51,0.4010360554754734,0.39647058218717574
52,0.4018521152436733,0.3967114132642746
53,0.40211837181448934,0.3987319204211235
54,0.40374334138631823,0.40056182926893236
55,0.4046511217057705,0.4024342024922371
56,0.4047431058883667,0.4050977979898453
57,0.40683603784441946,0.4036394733786583
58,0.4074896909892559,0.4029391307234764
59,0.4079354889392853,0.4005074760913849
60,0.40889184311032295,0.404337030172348
61,0.4097621887028217,0.40261445474624635
62,0.4098918655514717,0.4109893831014633
63,0.4123269219398499,0.41136924213171006
64,0.41170322516560554,0.41310021245479583
65,0.41271363669633865,0.40569149017333983
66,0.41404630410671234,0.40775781744718553
67,0.41537208172678947,0.4131104954481125
68,0.4151065151393414,0.41997085011005403
69,0.41661863070726396,0.41344887000322345
70,0.4191969747543335,0.41726387482881544
71,0.41887434473633767,0.41711144578456877
72,0.4177315158247948,0.41789920103549955
73,0.419008338868618,0.4138604148030281
74,0.4194166101515293,0.4124730216264725
75,0.42053077307343484,0.41774043965339663
76,0.4212905045747757,0.415546942293644
77,0.4216249962449074,0.41867826932668684
78,0.42302196514606477,0.4238563859462738
79,0.4228522096276283,0.41712333846092225
80,0.4235364445745945,0.4182835354804993
81,0.42413390922546385,0.4220062399506569
82,0.424314260751009,0.4199988454580307
83,0.42461449843645094,0.4201104199886322
84,0.42535021471977236,0.419573884665966
85,0.4248295645713806,0.41997445493936536
86,0.42599706700444223,0.42671879929304124
87,0.4277559381425381,0.4237056481838226
88,0.4281946071088314,0.42431584161520003
89,0.4285231203734875,0.4274195596575737
90,0.4298752051591873,0.4300481293797493
91,0.4303489644229412,0.426166389644146
92,0.4302136334776878,0.4240526205301285
93,0.4305579691529274,0.4310305088758469
94,0.4322223207950592,0.4287703770399094
95,0.43279746940732,0.42945633906126024
96,0.43314101120829585,0.42916642808914185
97,0.43448463851213454,0.43220625329017637
98,0.434210010766983,0.4298697647452354
99,0.43370876398682595,0.43129170387983323
100,0.4349606046080589,0.428861160159111
101,0.43603852012753486,0.4283713236451149
102,0.4356342582702637,0.4324749790430069
103,0.4354323281645775,0.43019119042158127
104,0.4368943811357021,0.43510887414217
105,0.43675314554572103,0.43500400829315183
106,0.4377862876951695,0.4311573126912117
107,0.4358951164484024,0.4314641556739807
108,0.43601662722229956,0.4341840099096298
109,0.43697681921720505,0.4362895969748497
110,0.43784091171622275,0.43121914637088776
111,0.4383426859080791,0.4341783871054649
112,0.4373288049697876,0.43317469251155855
113,0.4379644629359245,0.4311829926967621
114,0.43728567400574686,0.4354674580693245
115,0.4371251240670681,0.43581795239448545
116,0.43717921343445776,0.4362298835515976
117,0.4373769882321358,0.4318750969171524
118,0.4360063562989235,0.43329133856296537
119,0.4361056101322174,0.42632305681705474
120,0.43572054827213286,0.4299291764497757
121,0.4361415360271931,0.4300527423620224
122,0.4354360211789608,0.4304665634036064
123,0.4345567312240601,0.4349350215792656
124,0.43419641160964967,0.4307998603582382
125,0.4336138514876366,0.43335757583379747
126,0.434342334061861,0.43171820539236067
127,0.43435353255271913,0.42976573276519775
128,0.433572195649147,0.43430910831689834
129,0.43255048233270643,0.4347703458666801
130,0.4341269583106041,0.42858799678087234
131,0.4335504755973816,0.4283255422115326
132,0.4343013489842415,0.4308348426222801
133,0.43342964732646944,0.4312542219161987
134,0.4331597401499748,0.4223088507652283
135,0.4320512141883373,0.4339441172480583
136,0.4318052459359169,0.42775773429870606
137,0.4313269326090813,0.428491878926754
138,0.4322607545554638,0.4256626225709915
139,0.4329937030375004,0.4324651396870613
140,0.43304870468378065,0.4325690723657608
141,0.4325285575389862,0.4312644346356392
142,0.4335032210946083,0.432871819794178
143,0.431781057447195,0.4275420114994049
144,0.43199860402941703,0.4272063809633255
145,0.43282724705338477,0.42624143028259276
146,0.43148665618896487,0.4265119951367378
147,0.4313011512756348,0.42880905598402025
148,0.43169673955440524,0.42629731631278994
149,0.4317396422624588,0.4282091073989868
150,0.4333416001796722,0.43039441710710524
151,0.4332137266397476,0.4340470652580261
152,0.4326329284906387,0.4282707217335701
153,0.43114787378907204,0.4272325258255005
154,0.4310035189986229,0.42833512926101686
155,0.430303287178278,0.4254480227231979
156,0.4309956388473511,0.4296278112530708
157,0.4305198527574539,0.43079625672101973
158,0.4310058205425739,0.4264744518995285
159,0.42947267174720766,0.4284443905353546
160,0.43055919706821444,0.42191502815485
161,0.4298354339301586,0.42544486409425736
162,0.4312424357533455,0.42715541034936905
163,0.4323761417269707,0.4273404464125633
164,0.43186487364768983,0.42422431659698484
165,0.43049414578080175,0.4227609888315201
166,0.43023155945539476,0.42977787846326826
167,0.4308232815563679,0.43765131890773773
168,0.431383112847805,0.42548053568601607
169,0.4305063036084175,0.426404524743557
170,0.4312162051200867,0.42571102738380434
171,0.4302206286787987,0.42575670218467715
172,0.43143970108032226,0.4258416125178337
173,0.43127180138230325,0.4283935508131981
174,0.42991031336784363,0.4242278263568878
175,0.42973701333999637,0.42458126002550123
176,0.43002717387676237,0.42621058082580565
177,0.4306299059689045,0.42368661212921144
178,0.4298973051309586,0.4252164045572281
179,0.43048963141441343,0.42443551003932956
180,0.42975789871811865,0.42789541697502137
181,0.4294884018301964,0.4253014132976532
182,0.42881475150585174,0.4237097492814064
183,0.42876484248042107,0.4262393947839737
184,0.4283865060210228,0.42929785352945327
185,0.4288072091937065,0.42493190747499465
186,0.4282408929169178,0.4271072737574577
187,0.4277842789888382,0.4244181531071663
188,0.42770713606476785,0.4242123129963875
189,0.42775112375617025,0.42825347423553467
190,0.42802352461218834,0.4232051314115524
191,0.42749529629945754,0.4220990693569183
192,0.426546242505312,0.4274772750735283
193,0.4275418795645237,0.4216368724703789
194,0.4273189831376076,0.4226512075662613
195,0.42742132952809336,0.4214846714735031
196,0.42692540600895884,0.4260909835100174
197,0.42652089899778367,0.4242658072710037
198,0.42680020999908447,0.4216414438486099
199,0.42636870780587194,0.42192332178354264
200,0.4267520326077938,0.4221583487987518
201,0.42626802691817284,0.4225251544713974
202,0.4254072017967701,0.4187414485216141
203,0.4257050621211529,0.417823080599308
204,0.4249268342554569,0.4211437575817108
205,0.4248775032162666,0.4223629873394966
206,0.4255137519538403,0.4177005521655083
207,0.4249911580979824,0.41987102258205417
208,0.42555027607083323,0.41930730354785917
209,0.42426940619945525,0.4194462959766388
210,0.42441943287849426,0.4203498900532722
211,0.4241779593229294,0.42045364779233935
212,0.4267212196588516,0.4216062147021294
213,0.4266360712945461,0.4217328376770019
214,0.4261025460958481,0.41959290897846224
215,0.42588442876935007,0.4234048498272896
216,0.4277488352358341,0.4212370899915695
217,0.42650729313492775,0.42114195162057877
218,0.42670201179385187,0.4235486360192299
219,0.42759287759661674,0.41956194847822187
220,0.42633824253082275,0.422953000664711
221,0.42621935495734214,0.4192925824522972
222,0.4255220499038696,0.41970110255479814
223,0.42534364622831344,0.4193943831920624
224,0.42454811635613443,0.4205565685033798
225,0.42536215522885323,0.4210276175141335
226,0.42545899194478987,0.419485612988472
227,0.4253166311979294,0.4177877982854843
228,0.4254649288058281,0.4230331225991249
229,0.4254199299812317,0.4254677655696869
230,0.4252098985314369,0.42076946544647215
231,0.4248820675313473,0.4230870055556297
232,0.42550436478853226,0.4199283209443092
233,0.4263681646287441,0.4200894186496735
234,0.4259821812212467,0.4206583307385445
235,0.42637339419126513,0.42209534025192263
236,0.4260125378072262,0.42167487418651584
237,0.4261099483072758,0.4205089538097382
238,0.42590071305632593,0.4219681879281998
239,0.42607988277077674,0.4194581640958786
240,0.42689021688699724,0.42623806565999983
241,0.42622183993458745,0.4211615090370178
242,0.42656455516815184,0.42471617710590365
243,0.4262776953577995,0.4217846400141716
244,0.42631258925795557,0.422087962448597
245,0.42600743696093557,0.4199275839328766
246,0.42598390972614286,0.4194697238206863
247,0.4266886755526066,0.4221026285886765
248,0.4260715482831001,0.4236745339632034
249,0.42634782537817956,0.4205292744040489
250,0.426783914655447,0.4192853191494942
251,0.42706234630942347,0.4243753694295883
252,0.4272656876146793,0.426613901078701
253,0.42669911330938337,0.42134133768081666
254,0.4270571332871914,0.42139456260204317
255,0.42733046373724937,0.4225123651623726
256,0.4271922131180763,0.4241603128314018
257,0.4274042751789093,0.4257326092123985
258,0.42655247497558596,0.4232666275501251
259,0.4267098624408245,0.42455691409111024
260,0.4271076799929142,0.422023000061512
261,0.42739271399378775,0.4265898411273956
262,0.4280398289561272,0.42350304454565046
263,0.42792515259981156,0.4256780897974968
264,0.42788174498081205,0.4237855241894722
265,0.42807555773854256,0.4290251679420471
266,0.42890897279977797,0.4266641454696655
267,0.4290479147732258,0.426853969335556
268,0.42886485216021536,0.42073559349775314
269,0.42924505183100703,0.4218269931077957
270,0.42942713180184366,0.42399068355560304
271,0.43007524728775026,0.4312830059528351
272,0.43019492518901825,0.42451125812530516
273,0.4297002832591534,0.42552636516094205
274,0.42986986666917804,0.42635104793310163
275,0.43007609993219376,0.425067119538784
276,0.43045737221837044,0.42791743022203443
277,0.4311350089907646,0.42856701707839967
278,0.4306613176763058,0.42777954232692716
279,0.43128015178442003,0.42534643000364303
280,0.43093714040517805,0.4256324601173401
281,0.4317006294429302,0.4293312569260597
282,0.431679178237915,0.42419215899705887
283,0.4313732502162457,0.4259600485563278
284,0.4320549769997597,0.42680878794193267
285,0.4320405221283436,0.4266968125104904
286,0.432381649851799,0.4314647200107574
287,0.4319947411715984,0.4286716520190239
288,0.4327038510143757,0.42670225048065186
289,0.4325798568427563,0.42726372373104093
290,0.4324870499074459,0.42855157965421675
291,0.43223946607112884,0.42943892657756805
292,0.4325499953627586,0.4268550312519073
293,0.4323915874361992,0.4297197450995445
294,0.43246179696917536,0.4262951609492302
295,0.43206842002272605,0.42661661314964294
296,0.43239052885770796,0.4296815497279167
297,0.43244909566640855,0.4284635866880417
298,0.43249229156970975,0.42889222729206083
299,0.43294029504060744,0.42878467655181884
300,0.433281360834837,0.425537440598011
301,0.4328543775975704,0.4298811045885086
302,0.43258608981966973,0.42697472089529037
303,0.432977260351181,0.4350103663802147
304,0.43324263828992843,0.4281426399350166
305,0.4337516796886921,0.4296987023353577
306,0.4332142489850521,0.42963530629873276
307,0.43387789630889895,0.4310687822699547
308,0.43158378663659097,0.42058071720600126
309,0.4207847634851932,0.4121778982877731
310,0.4212155236005783,0.4174665117263794
311,0.42058554518222807,0.4198181775212288
312,0.42053577637672424,0.4190642369389534
313,0.4201696166098118,0.417102777838707
314,0.4206798852682114,0.4201603820919991
315,0.42066458487510683,0.41483511847257615
316,0.4211606743037701,0.4211663398742676
317,0.42015679469704625,0.4126652101874351
318,0.41969012063741684,0.4166304235458374
319,0.4199055868685245,0.41582255852222444
320,0.42025458574295044,0.4158122938275337
321,0.4216399028301239,0.4131666188240051
322,0.41997490391135217,0.4137944236397743
323,0.41950638708472254,0.42302717769145964
324,0.4193680379986763,0.41239450830221175
325,0.420406845420599,0.41300602012872695
326,0.41986515909433364,0.414405962228775
327,0.4193379060328007,0.4166768099665642
328,0.4196701568365097,0.4176216965317726
329,0.4201654411256313,0.41646719026565554
330,0.4196956023871899,0.4153710289001465
331,0.4201731746196747,0.41449109715223315
332,0.420064473927021,0.4135898232460022
333,0.4195492421090603,0.4138239347934723
334,0.42063327181339266,0.4168004543185234
335,0.42021375155448915,0.417070652782917
336,0.4205800508260727,0.4170155146121979
337,0.4203076429069042,0.41466369062662123
338,0.4207797826230526,0.4178307385444641
339,0.42066164353489877,0.42078701162338256
340,0.4203922609090805,0.418665825843811
341,0.4206319019794464,0.4135174834132195
342,0.42051273223757746,0.4141779911518097
343,0.4207916575372219,0.41436560183763504
344,0.4202212177217007,0.4134647082686424
345,0.42083167225122453,0.41283806574344634
346,0.4204108999967575,0.41546288496255873
347,0.4207409681379795,0.41865241414308546
348,0.42059912022948265,0.41308888334035876
349,0.42110115858912467,0.4151130024790764
350,0.42033973285555837,0.4156389685869217
351,0.42107935827970505,0.4151381121277809
352,0.42118054220080375,0.41297356301546095
353,0.42094942528009416,0.4177651453614235
354,0.42116964027285575,0.41522507518529894
355,0.42092012107372284,0.41820001530647277
356,0.4206049335598946,0.42189163333177565
357,0.42126270908117297,0.4160992628335953
358,0.42118814849853514,0.41486376333236696
359,0.42080808144807813,0.4135536980628967
360,0.4208563196361065,0.4168144179582596
361,0.4209081399738789,0.41486880540847776
362,0.4211962580084801,0.4132678341269493
363,0.420866601318121,0.4227631320357323
364,0.4207500367760658,0.41770309150218965
365,0.42119516906142235,0.41809380280971525
366,0.4207785274684429,0.4149196049571037
367,0.42103525429964067,0.416130289375782
368,0.42110731825232506,0.4127706337571144
369,0.4204323455095291,0.4150303246974945
370,0.42052342000603676,0.4224079610705376
371,0.42120919755101205,0.4222412220239639
372,0.42065017083287237,0.4141173381209374
373,0.42102912813425064,0.41504067224264146
374,0.42110888797044754,0.4146818149089813
375,0.42130520144104955,0.4186643971800804
376,0.42136537685990333,0.41610494774580004
377,0.42120833963155746,0.4177985236644745
378,0.4210256229043007,0.4157067772746086
379,0.4215142067074776,0.4171863368153572
380,0.4215461165010929,0.41480259311199186
381,0.4213122841715813,0.4162279830574989
382,0.4218192736506462,0.4141442465782166
383,0.4213880613446236,0.41456604450941087
384,0.4215770247578621,0.42060007095336915
385,0.4214077343046665,0.41875843542814256
386,0.4216345019638538,0.4167754241228104
387,0.42070693331956865,0.418637712597847
388,0.4211961092948914,0.4207098267674446
389,0.4207365240752697,0.4151098987460136
390,0.42155628255009653,0.4154767523407936
391,0.4206599245071411,0.4157829013466835
392,0.42221203657984735,0.41689945805072787
393,0.4220539172887802,0.41272725570201874
394,0.4214999090731144,0.4208378026485443
395,0.42169948282837866,0.42151138436794283
396,0.4218229858279228,0.4224557708501816
397,0.4217409764230251,0.4151093117594719
398,0.42176722797751426,0.4166529538035393
399,0.4219763118326664,0.41462256348133086
400,0.421981767386198,0.4220245397686958
401,0.42207056283950806,0.4160471087694168
402,0.42183085426688194,0.42459269416332246
403,0.4214254752099514,0.41468815314769747
404,0.421520947933197,0.41779261237382886
405,0.42175817799568177,0.4169178579449654
406,0.42178081831336023,0.41998280596733095
407,0.42228823563456536,0.4253095305562019
408,0.42171001687645915,0.41271436804533007
409,0.42152327159047126,0.4161552630662918
410,0.4222870975732803,0.42317684304714204
411,0.4222147827744484,0.4143933772444725
412,0.42184296011924743,0.41841317868232725
413,0.4222331678271294,0.42410113602876665
414,0.422013042896986,0.4160989061594009
415,0.4224169482290745,0.4172462352514267
416,0.42169288128614424,0.4161557128429413
417,0.42154304349422456,0.41551290357112886
418,0.4217923868000507,0.4222628319859505
419,0.4218507202267647,0.4178108698129654
420,0.42204019710421564,0.41587402153015135
421,0.42143085995316504,0.41852280229330063
422,0.42155844980478285,0.41499921625852587
423,0.4216574419438839,0.4172571886181831
424,0.421808588385582,0.4167573004364967
425,0.42205841892957685,0.41806304043531417
426,0.42200574654340745,0.42151316958665846
427,0.42177232283353805,0.4200290770530701
428,0.4220126827657223,0.4164408826828003
429,0.4223153553903103,0.41615994638204573
430,0.42191132554411886,0.4185230220556259
431,0.42224780389666555,0.4148021450042725
432,0.4223457446694374,0.4222323980927467
433,0.422188510119915,0.4192475972771645
434,0.4225255244970322,0.4148520096540451
435,0.42201028755307196,0.4176418778896332
436,0.4221094487607479,0.417040457546711
437,0.4219458963572979,0.416904477417469
438,0.42223376819491387,0.4195533499121666
439,0.42200377830863,0.41995933002233504
440,0.4221473128199577,0.4231031473875046
441,0.4223234514296055,0.4166761785149574
442,0.42213821947574615,0.41954731380939486
443,0.42238116353750227,0.4193665554523468
444,0.4218591006994247,0.4190867055654526
445,0.42203179919719697,0.4171491386294365
446,0.42203792560100556,0.41690455222129824
447,0.42230470457673075,0.41929866099357604
448,0.4220327800512314,0.41640741044282914
449,0.42213893359899524,0.4143001185059547
450,0.42247803127765654,0.41855391472578046
451,0.4224829307794571,0.4211868109703064
452,0.4225848397910595,0.41732923036813735
453,0.42258432671427726,0.4167949286699295
454,0.4226162684261799,0.42002785658836367
455,0.42281582710146903,0.4156014324426651
456,0.42215535444021224,0.4159966294169426
457,0.4222274976968765,0.4147452049851418
458,0.42261054396629333,0.4209743043780327
459,0.4220708974301815,0.4182647753357887
460,0.42179851680994035,0.4160994879603386
461,0.42246852192282675,0.4181844581365585
462,0.4215890972316265,0.4189981484413147
463,0.4215229890346527,0.4191176378130913
464,0.4217666004896164,0.41530048459768293
465,0.4222454911470413,0.42086192125082017
466,0.42302524119615553,0.41876877135038376
467,0.4225911715626717,0.4190327176451683
468,0.4228774336874485,0.4206723695397377
469,0.4230879776477814,0.41761894673109057
470,0.42231686651706696,0.41643390274047853
471,0.4223397959470749,0.4158523489832878
472,0.4221967533826828,0.4194379604458809
473,0.4225602754056454,0.4254396593570709
474,0.4230453701913357,0.4179463011622429
475,0.42268076491355894,0.4175435339808464
476,0.42287218922376635,0.42360592645406725
477,0.42223292019963266,0.41960361719131467
478,0.42277287489175797,0.42029214805364606
479,0.42269091933965686,0.42151460909843447
480,0.4230716313421726,0.4231784553527832
481,0.4229251585304737,0.41928644663095477
482,0.4230340239405632,0.41894599682092665
483,0.42291200590133665,0.4192113346457481
484,0.4227934700846672,0.41686934196949005
485,0.4225288561284542,0.41678352600336077
486,0.4223569813072681,0.4214385581612587
487,0.4230064062178135,0.4179254643321037
488,0.42301856034994123,0.41767828112840655
489,0.4224599268436432,0.4217322310805321
490,0.42286184030771257,0.4218240242600441
491,0.4223573424220085,0.4156006209254265
492,0.42237687438726423,0.41655812537670134
493,0.4229078358411789,0.41514210706949234
494,0.4225202503800392,0.41478233015537264
495,0.4221680878698826,0.41831822544336317
496,0.42263932892680167,0.4170179897546768
497,0.422587670058012,0.41801732635498046
498,0.4224493415057659,0.41850966346263885
499,0.42231158590316775,0.4187001408934593
500,0.422806652367115,0.42089479517936706
