epoch,loss,val_loss
0,0.1128143685720861,0.04871668581664562
1,0.048907509610056875,0.04841876669228077
2,0.04871864198893309,0.04957780019193888
3,0.04864152146875858,0.048413563936948775
4,0.048630178183317184,0.048467577710747715
5,0.048581098701804874,0.04834868178516626
6,0.04851056460291147,0.04840214757621288
7,0.048491774097085,0.0484883536323905
8,0.04850029769167304,0.0481379581540823
9,0.048446061566472055,0.04812438288331032
10,0.04845883958414197,0.048708175264298915
11,0.04845738868415356,0.04813943485915661
12,0.04840690095350146,0.04845351686328649
13,0.048379451062530276,0.04830834206938744
14,0.04837071588635445,0.04813970251381397
15,0.048359538309276105,0.04822752661257982
16,0.04836464802920818,0.048137017384171484
17,0.04834030847251415,0.048349273435771466
18,0.04830110618844628,0.04845330569148064
19,0.04828623519837856,0.04779787947237492
20,0.04831454234942794,0.04804295948892832
21,0.04826285031065345,0.048329924158751966
22,0.048254336405545474,0.04804579720646143
23,0.048238924875855446,0.048318665988743306
24,0.048227403253316876,0.04800937300920487
25,0.048230452563613656,0.048190241545438765
26,0.04820315339788794,0.04827401587367058
27,0.04818756689503789,0.04823978418111801
28,0.048212788455188275,0.04879799848794937
29,0.04822902136668563,0.04794329481571913
30,0.048173647552728655,0.04811816095560789
31,0.04818720606341958,0.04800679962337017
32,0.048160078678280115,0.04794974608719349
33,0.048144509021192786,0.04783620920032263
34,0.04815489865094423,0.047934900127351285
35,0.04815220662951469,0.048020336017012596
36,0.04816288228705525,0.047820200599730016
37,0.04814364061504602,0.0480224340558052
38,0.048140920236706734,0.048127426482737067
39,0.048139667250216005,0.048099515095353124
40,0.04815551895275712,0.047939228720963
41,0.04811271904036403,0.047906422406435015
42,0.04812691584229469,0.047846130438148976
43,0.048098312001675365,0.048211762689054014
44,0.04813426674157381,0.04797534412145615
45,0.048143878433853385,0.04798712550848722
46,0.04808774846047163,0.04803025031834841
47,0.04812439595907927,0.048404900752007964
48,0.048103349193930625,0.047905928641557696
49,0.04811044891923666,0.047916989363729956
50,0.04808163356035948,0.04794880624860525
51,0.048107625000178816,0.04853995934128761
52,0.04809400546178222,0.04811982811242342
53,0.048083336900919676,0.0479556367918849
54,0.048075240090489385,0.048097284123301505
55,0.048083571549504996,0.04786337883770466
56,0.04807694848626852,0.048784583419561385
57,0.04808386141061783,0.047797842472791674
58,0.048093804489821194,0.047992947049438954
59,0.04806961207091808,0.04780288269370794
60,0.048087273973971605,0.04775555676221847
61,0.04808808809146285,0.04784471897035837
62,0.04804180585965514,0.04801017927378416
63,0.04805886510759592,0.048169684648513796
64,0.048091506976634266,0.04846766770631075
65,0.048057022277265785,0.0478813675865531
66,0.048107036158442494,0.0484160236492753
67,0.048032660596072675,0.047794455491006374
68,0.04806717663258314,0.047830287501215936
69,0.048062763657420876,0.04810173392295838
70,0.04806571801006794,0.04785984257608652
71,0.04805120013281703,0.04779657388478518
72,0.048036365039646624,0.04792609812319279
73,0.04805542844906449,0.047786819718778135
74,0.04804513461887836,0.0484638537466526
75,0.04805053287371993,0.048058293223381045
76,0.04805198557302356,0.04777934526652098
77,0.048037642493844034,0.04834740509092808
78,0.04805677775293589,0.04789495462179184
79,0.048040978480130433,0.04812280870974064
80,0.04807397684082389,0.047906878679990765
81,0.04804800967872143,0.04844260970503092
82,0.04803124587237835,0.04806961958855391
83,0.0480492364577949,0.048826027631759646
84,0.04805674753710627,0.04791206575930119
85,0.04802374985069036,0.0484911622107029
86,0.048060337476432326,0.04830257198959589
87,0.04802427232265472,0.04776493728905916
88,0.04803432459384203,0.04792898035794497
89,0.048039014812558886,0.04795456863194704
90,0.04805750165879726,0.048238431237638
91,0.0480300356708467,0.047932038247585296
92,0.04803206865116954,0.0478111187890172
93,0.0480192333124578,0.048922140635550025
94,0.04805511596426368,0.04803435170650482
95,0.04801561978086829,0.048138352282345295
96,0.04802116643637419,0.0478366312161088
97,0.04803755289688706,0.047830059260129926
98,0.048028984397649764,0.047996217608451845
99,0.04803592560812831,0.047918661534786224
100,0.04800058436766267,0.04802679985016584
101,0.04803341305628419,0.047879888631403446
102,0.048028074976056816,0.0480393989905715
103,0.04802115545421839,0.04790224733948707
104,0.04802438706532121,0.047952009826898574
105,0.048027008049190044,0.04785145869106054
106,0.04800901144742966,0.047915689587593076
107,0.04801278768107295,0.047805691339075564
108,0.04802427285164595,0.04823574707657099
109,0.04805823112279177,0.04772927236557007
110,0.0479793147072196,0.04782766146212816
111,0.04803848786279559,0.04847329510003328
112,0.048019308544695376,0.048005322493612765
113,0.04802409653365612,0.04814498694986105
114,0.048011887587606904,0.04814419090747833
115,0.0480141541659832,0.047821291156113145
116,0.048033812295645475,0.047806888923048976
117,0.048019618533551696,0.04794949262589216
118,0.04802758925780654,0.0481256649941206
119,0.04799879091233015,0.048019910112023355
120,0.047991843868047,0.04801665941625834
121,0.04803883432596922,0.047871126689016816
122,0.04800087421759963,0.047764062814414504
123,0.048025554146617654,0.04809865187108517
124,0.04802133165672422,0.047811503045260904
125,0.04801533475145697,0.0478902423158288
126,0.04805369069427252,0.04774385222792626
127,0.04802130783349275,0.04785270655155182
128,0.04801387694105506,0.04941657911986112
129,0.04803422688692808,0.04788963091373444
130,0.04800199721008539,0.047770132973790166
131,0.04799253921210766,0.04766627628356218
132,0.048019468933343884,0.04773007058352232
133,0.0480353862196207,0.047872282460331914
134,0.047996974922716616,0.047755195900797846
135,0.04801633859425783,0.04782862589508295
136,0.04799299163371325,0.04784850683808327
137,0.048050737515091896,0.047818291522562506
138,0.048014738123863934,0.047918288871645925
139,0.047994300559163094,0.04805533088743687
140,0.048009554196149114,0.04789033142477274
141,0.0480170441493392,0.04792445294559002
142,0.04798554403334856,0.047790689557790755
143,0.048012619867920873,0.04782425386458635
144,0.048020853396505116,0.047829735934734344
145,0.0480223382934928,0.047807127043604854
146,0.04799388084188104,0.047911352589726446
147,0.0480000009983778,0.04787807035446167
148,0.04804117205739021,0.04784664183109999
149,0.04801556669920683,0.04779939594864845
150,0.0479851280041039,0.048628244832158087
151,0.04802185915410519,0.04777872695028782
152,0.04798377664387226,0.04772582864016294
153,0.04800549490749836,0.04945653353631496
154,0.04800812999159098,0.04801302769780159
155,0.04801255590468645,0.04774023377150297
156,0.048029881794005636,0.04790975824743509
157,0.04801545825973153,0.047824395813047885
158,0.04800702804327011,0.0483450687751174
159,0.04797796132043004,0.04818074223399162
160,0.048019126143306494,0.04797368244081736
161,0.04800677101314068,0.049019111439585684
162,0.04798995216563344,0.04857114578038454
163,0.04800781304761768,0.04860196878015995
164,0.04800508918613195,0.04812569854408503
165,0.048002988524734974,0.04784326519817114
166,0.04802271831408143,0.047858695164322854
167,0.04798138849809766,0.047962838463485244
168,0.0480264834985137,0.04783893489837646
169,0.048000169705599546,0.04820683454722166
170,0.048003548495471476,0.04791663258522749
171,0.04800226913020015,0.04788727281242609
172,0.04801856360211969,0.04949913168698549
173,0.04799216257035732,0.0478473925665021
174,0.048014064386487004,0.04802624866366387
175,0.047977920319885015,0.04812936259061098
176,0.04798446103557944,0.04792404741793871
177,0.04801462073251605,0.04778730253875255
178,0.0479994008988142,0.04803622208535671
179,0.04800395512208343,0.047938307024538516
180,0.047992546558380124,0.04779036881029606
181,0.048001423101872207,0.047852714024484155
182,0.04798236256465316,0.048067858688533305
183,0.048028586827218535,0.04778037984669208
184,0.04797166519612074,0.04865008454024792
185,0.048003995444625615,0.047739930406212806
186,0.04798821747675538,0.0479534465894103
187,0.048026744950562715,0.047984828688204285
188,0.047979288097471,0.048156732954084874
189,0.04801210118085146,0.04772576843202114
190,0.0479981529340148,0.047775062337517736
191,0.04799979554861784,0.048313451416790484
192,0.047991876017302273,0.04782477842271328
193,0.04799737748876214,0.0478953280672431
194,0.04799010320007801,0.04789404970407486
195,0.04798784798383713,0.04784152162075043
196,0.04802620830386877,0.048013178370893
197,0.047969487205147744,0.04776764684170485
198,0.047992773413658145,0.048069374710321425
199,0.048008749708533284,0.04779114193469286
200,0.04800026784464717,0.047758823275566104
201,0.04799902437254786,0.04784089278429746
202,0.04798008168116212,0.0479685558155179
203,0.047988879416137935,0.048079761765897275
204,0.04799929853901267,0.048005841203033923
205,0.04801140946522355,0.04791238994151354
206,0.04799611919373274,0.04798856366425753
207,0.04799686609581113,0.04793376231193543
208,0.04801857673004269,0.047928111404180525
209,0.04796779274940491,0.04824829701334238
210,0.04802008293569088,0.048949975319206716
211,0.04799601947143674,0.047825829073786734
212,0.04800312947109341,0.04822914570569992
213,0.04799027475342155,0.047689036391675474
214,0.04801399241760373,0.04776399978995323
215,0.047972436934709546,0.04770609985291958
216,0.04799997416883707,0.04803048923611641
217,0.04801193718239665,0.04787679517269135
218,0.04796517027169466,0.04800070535391569
219,0.04798189781978726,0.0478646981343627
220,0.04800919607281685,0.04767098202556372
221,0.048009293619543314,0.047786099068820476
222,0.047982721656560895,0.047882285505533216
223,0.04799330736324191,0.047704739041626455
224,0.04797730593755841,0.04787976083159447
225,0.04801701086014509,0.048715360894799234
226,0.04796384387463331,0.04871265780925751
227,0.04802657239511609,0.04770328290015459
228,0.047971034239977596,0.04774886631220579
229,0.04799095806851983,0.04798546634614467
230,0.047982698902487755,0.04775923110544682
231,0.048010688442736864,0.0480169083327055
232,0.04798946001753211,0.04817069730162621
233,0.04799732356145978,0.04801800183951855
234,0.0479943883344531,0.048960435070097445
235,0.04796707670018077,0.04779208472371101
236,0.04798094533756375,0.04785643000900745
237,0.04801402163133025,0.0481746988594532
238,0.04800691209733486,0.04803559889644384
239,0.0479727818146348,0.047884518258273605
240,0.04799731810763478,0.0477955209761858
241,0.04799095640331507,0.04779282046854496
242,0.04799708472564816,0.04767661895602941
243,0.04799409228935838,0.04769969133287668
244,0.04801036346703768,0.04770808260142803
245,0.0479820958301425,0.048056652680039405
246,0.047984884772449735,0.04769150667637587
247,0.04797514962404966,0.0478267660215497
248,0.04797768697887659,0.0477590266764164
249,0.047991674404591324,0.048599346928298474
250,0.0479901307746768,0.047976314395666124
251,0.04799324535951018,0.047991686388850215
252,0.047980439145118,0.04780280232429504
253,0.04798180620372296,0.04799415145814419
254,0.04797394885867834,0.0478580160215497
255,0.047977267540991304,0.04808154317736626
256,0.047988565791398284,0.04785534980148077
257,0.047981631603091955,0.047774196714162824
258,0.047995226580649614,0.047719135276973246
259,0.04799526766315103,0.04792222936451435
260,0.04798094942048192,0.047755887269973755
261,0.04796950056776404,0.047854921579360964
262,0.048006701067090034,0.047792800888419154
263,0.04798403663188219,0.04774586196988821
264,0.04800195776298642,0.048064200296998025
265,0.04797345973923802,0.047817359700798985
266,0.04798906306177378,0.04794587361812592
267,0.047990178618580105,0.04790694098174572
268,0.047982209715992215,0.04778360465168953
269,0.0479930799305439,0.047725395523011686
270,0.048002628788352014,0.047837418250739575
271,0.04795962223410606,0.04781284224241972
272,0.04798375419527292,0.04799744584411383
273,0.04797658264264464,0.04793581073731184
274,0.0479878023006022,0.04778506100922823
275,0.04797246291488409,0.04807853554934263
276,0.04797626722231507,0.047745890341699126
277,0.047984055124223234,0.047711019217967984
278,0.04800209904834628,0.047827340990304945
279,0.04800070882216096,0.04771945073455572
280,0.047984564289450644,0.048564741991460325
281,0.04796894447505474,0.04787203785777092
282,0.04799148580059409,0.04768944378942251
283,0.047983762849122286,0.04778126757591963
284,0.047978213798254725,0.04792633263766766
285,0.047980879340320824,0.04794042087346315
286,0.04796746449545026,0.047907209500670435
287,0.04800091972202063,0.047967120617628096
288,0.04796953878179193,0.0478595789372921
289,0.04799621315672994,0.047781667552888395
290,0.047956969063729045,0.048845051810145375
291,0.048001416709274054,0.04776416264474392
292,0.047971182562410834,0.04776170313358307
293,0.04797841649875045,0.04779292184859514
294,0.047978004094213246,0.04798362449556589
295,0.04801397646591067,0.04815926549583673
296,0.04797395826131105,0.047876618832349775
297,0.04797595001757145,0.04855778180062771
298,0.04797904021665454,0.048116174407303335
299,0.047960487578064204,0.047746627256274224
300,0.047957816444337366,0.047743960700929164
301,0.048001583106815814,0.04781157973408699
302,0.04797898387536406,0.04783439453691244
303,0.0479788239300251,0.047721912249922754
304,0.047988329090178014,0.0477128916233778
305,0.0479658827111125,0.04781240206956863
306,0.04797368818894029,0.04773925503343344
307,0.04796425641700625,0.04781482820212841
308,0.048005606148391965,0.0477976653650403
309,0.04800785152986646,0.0479143133610487
310,0.04796848651021719,0.04804925560206175
311,0.048013859048485756,0.048083695560693744
312,0.047949200589209796,0.047782857246696946
313,0.04803348612040281,0.04771752364933491
314,0.047939597271382806,0.047889420308172705
315,0.047975326359272,0.04790205606818199
316,0.04800016504526138,0.04811396932601929
317,0.04795716316998005,0.04827793257683516
318,0.047987116057425734,0.04799035192281008
319,0.04798790566623211,0.04825463792681694
320,0.04798372457176447,0.04773149871826172
321,0.04797580372169614,0.04777474200725555
322,0.0479702238664031,0.04778860180079937
323,0.04795912592858076,0.047812722273170946
324,0.047961995255202054,0.04774297381937504
325,0.047983142536133526,0.04777586971968412
326,0.04796688226982951,0.047729193821549415
327,0.04798742953315377,0.04797968299686909
328,0.04797021523863077,0.04779862044006586
329,0.04796843732148409,0.047987382233142854
330,0.04795884424448013,0.04774374882131815
331,0.04797369757667184,0.0477714407145977
332,0.047981728080660105,0.04768489941209555
333,0.047963078171014785,0.048178434260189536
334,0.04798304521292448,0.047837464787065985
335,0.04796105954796076,0.04810517057031393
336,0.04799281854182482,0.04781335403770209
337,0.04798680657893419,0.04774605242162943
338,0.04796520019695163,0.04813614252954721
339,0.04796513034403324,0.047773977339267734
340,0.04798371045663953,0.04768304016441107
341,0.04795240085199475,0.04772728780657053
342,0.04797916267439723,0.047844710990786556
343,0.047965457532554864,0.04796551369130611
344,0.04796749122068286,0.047685410879552366
345,0.04796914293244481,0.047776391819119454
346,0.04797301879152656,0.04782376735657454
347,0.047996561985462906,0.0476665847748518
348,0.04797212833538651,0.04778129332512617
349,0.047999564219266176,0.04769391974061728
350,0.04797218646854162,0.04766909032315016
351,0.047976931549608706,0.04775602616369724
352,0.047979665845632555,0.04838771503418684
353,0.04796040177717805,0.04798167495429516
354,0.0479757727868855,0.048189217492938044
355,0.04797371209412813,0.047746995471417905
356,0.04798876332119107,0.047734743595123294
357,0.047990811761468646,0.04792341399937868
358,0.04794737400114536,0.0479777010679245
359,0.0479788349494338,0.047717509783804415
360,0.04798603530228138,0.04770517817139625
361,0.04794228496402502,0.047841190345585344
362,0.04795002803206444,0.04762921565771103
363,0.047968746330589056,0.047983937405049804
364,0.04800426649302244,0.048061446815729145
365,0.04795554565265775,0.04843296874314547
366,0.04797419800236821,0.04774479045718908
367,0.0479676179997623,0.04773377821594477
368,0.04798739347606897,0.04784174283593893
369,0.047961035188287496,0.04831316968053579
370,0.04794109892472625,0.04822704448550939
371,0.04797932910174131,0.04803562352061272
372,0.047948859594762326,0.048270112477242944
373,0.04798396608233452,0.04772432257980108
374,0.04797109858691692,0.04805021969974041
375,0.04798429696261883,0.04782767930626869
376,0.04795787039026618,0.04785464938730002
377,0.047943918526172635,0.04776860302686691
378,0.04800423651188612,0.0485263674557209
379,0.047952495221048594,0.048062581814825533
380,0.047987058844417334,0.047933811396360396
381,0.04795236727967858,0.04789479468762874
382,0.04799432971701026,0.04774901067465544
383,0.04798181160911918,0.04772693213075399
384,0.04797169628739357,0.047792885288596154
385,0.0479788310341537,0.048168247930705545
386,0.04797552550584078,0.04789542642980814
387,0.047952494502067566,0.047906027004122734
388,0.04797693884372711,0.047722374729812146
389,0.04797649092227221,0.047776898771524426
390,0.047973559834063054,0.047778045006096365
391,0.047965080983936786,0.04809896163642406
392,0.04799021204933524,0.04777973246574402
393,0.047991498958319424,0.047945631213486196
394,0.04794106311351061,0.04787026890367269
395,0.04798176734521985,0.04796931290626526
396,0.04799861697107553,0.047885799467563626
397,0.047941348869353535,0.047697118297219274
398,0.04796757466346026,0.04783328451961279
399,0.04796914292126894,0.04823721542209387
400,0.04795210800692439,0.047786042384803294
401,0.04797712536901236,0.048208999633789065
402,0.0479856132902205,0.04777205209434032
403,0.047962780732661484,0.04776730781793594
404,0.04795988649874926,0.047694780834019186
405,0.047985968604683876,0.04792039605230093
406,0.04796477619931102,0.04834976332634688
407,0.04796052518859505,0.04786606117337942
408,0.04799705348536372,0.047751028910279276
409,0.04796500153467059,0.04807417158037424
410,0.047963853791356086,0.04809538789093495
411,0.047966936122626064,0.04829844512790442
412,0.047943683438003065,0.04772234847396612
413,0.04798122930899262,0.04778072896599769
414,0.04796846904605627,0.04768735948204994
415,0.0479640474319458,0.047855517387390134
416,0.04793396564200521,0.04775457726418972
417,0.04798418292030692,0.047799741752445696
418,0.04798199838027358,0.04800110647827387
419,0.047952101442962886,0.04793419989198446
420,0.04796304947882891,0.04978704909980297
421,0.04795698691159487,0.04787274598330259
422,0.04796507852524519,0.047771034494042394
423,0.04796403485536575,0.04769706582278013
424,0.04796204110980034,0.047827482745051386
425,0.04797505007684231,0.048135593548417094
426,0.04800442913547158,0.04778841307014227
427,0.04794185433536768,0.04832162107527256
428,0.04799470567330718,0.048002165108919144
429,0.04795594687387347,0.04781999503821135
430,0.04795474733784795,0.04782712326943874
431,0.04796385972201824,0.04803911795467138
432,0.04797114271298051,0.04766333767026663
433,0.04794453194364905,0.0478770519644022
434,0.04795948849618435,0.0477604718208313
435,0.04796276057139039,0.04793602000176907
436,0.04799171371012926,0.04817958977073431
437,0.04795047824829817,0.048262667007744314
438,0.047976192630827426,0.04813614568859339
439,0.04795577111840248,0.048100824259221554
440,0.04794420787319541,0.04778415709733963
441,0.04797626541182399,0.04781998701393604
442,0.047939538095146415,0.04769869142770767
443,0.047949812553822996,0.0478271135315299
444,0.04800033663958311,0.04766561698913574
445,0.0479380012601614,0.048105592407286166
446,0.04795780494436622,0.0480070124194026
447,0.04796645637974143,0.04780335473269224
448,0.04797426030784845,0.04779567429423332
449,0.0479592347741127,0.04765577580779791
450,0.04794292920082808,0.0479503455683589
451,0.04797071975469589,0.0481427892446518
452,0.04796601654216647,0.047794082313776014
453,0.047951247356832025,0.047912796385586265
454,0.04795907203480601,0.04855396043509245
455,0.048000311192125084,0.04776468387246132
456,0.047931802608072754,0.04778509394079447
457,0.04798227498680353,0.04779113990813494
458,0.04794988381490111,0.047745991110801696
459,0.04797756474837661,0.047706051640212535
460,0.04796034102141857,0.04806339992582798
461,0.047973729398101565,0.04797652247548103
462,0.047945592869073156,0.04801074194163084
463,0.047992281317710876,0.04817887111008167
464,0.04794268177449703,0.047738699682056907
465,0.04794961471483111,0.04778287167847157
466,0.04796973508968949,0.048387602895498275
467,0.047977232325822114,0.04788683554530144
468,0.04795008546113968,0.04785074041038752
469,0.04797538665682077,0.04818310171365738
470,0.04796426581963897,0.048228710614144805
471,0.04795485588535667,0.04792378728091717
472,0.04796363420039415,0.048364108562469484
473,0.047977579902857545,0.04780016952753067
474,0.04794676645100117,0.04776277722418308
475,0.047967187188565734,0.04795269726216793
476,0.047974274065345525,0.04811388240754604
477,0.047944783929735425,0.04782822005450726
478,0.047952701393514874,0.04785082768648863
479,0.04796999604254961,0.04773318313062191
480,0.0479757169187069,0.04786668830364942
481,0.04792971187457442,0.047747855812311175
482,0.04800061639398336,0.04832521489262581
483,0.047964694682508704,0.04775089058279991
484,0.04797992856428027,0.04855150625109673
485,0.04795291728526354,0.0479623671323061
486,0.04794144798070192,0.04781513816863298
487,0.04797621803730726,0.047706625297665596
488,0.047960149239748714,0.04774333044886589
489,0.047985818728804586,0.04798328849673271
490,0.04796015839651227,0.04801248145848513
491,0.04795378604158759,0.04793979647755623
492,0.04793960876762867,0.04775372758507729
493,0.047969269149005414,0.04770449674874544
494,0.04796705204248428,0.04776960671693087
495,0.047969467762857675,0.047755711764097215
496,0.04794596022740007,0.047672519020736215
497,0.04797033686935902,0.04784870131313801
498,0.04793603543937206,0.04769964499026537
499,0.04796821515262127,0.04770446125417948
500,0.04796476847678423,0.048141858026385306
