epoch,loss,val_loss
0,0.5597907639474129,0.5183877038880418
1,0.5087322647646844,0.49491173153612306
2,0.48237274833720367,0.4763649242688279
3,0.4796169108624081,0.48614085412157176
4,0.4791840422305939,0.4790639029587924
5,0.4783692329431133,0.48404357916930574
6,0.47916443380329915,0.48340606708270695
7,0.47904228476835764,0.474102642090187
8,0.47857864372593034,0.47972583730764623
9,0.47824281604169944,0.4822291657269801
10,0.4778715598997738,0.47449007047003616
11,0.47867278355679255,0.47775821887609426
12,0.4782868356679936,0.48206131570717436
13,0.47902560867756294,0.47581869067408106
14,0.4778444979140322,0.4748273822813403
15,0.4780410273398141,0.4770030826447795
16,0.47763617664313524,0.47737598849641305
17,0.4774886889518689,0.4770442866959154
18,0.4779187339744408,0.47786411414865254
19,0.47780888366232294,0.47407988374780835
20,0.4777376719539781,0.4782173009067421
21,0.47710073008525855,0.47772642988902714
22,0.4777927799381131,0.48066225633813153
23,0.4771919344350112,0.47824445731449805
24,0.47768532854618784,0.4740894908686746
25,0.4772944434536256,0.47458111870542885
26,0.477728426563654,0.4746573120943655
27,0.47736384555828465,0.4757607791399335
28,0.47741619751846,0.48005872252143644
29,0.4773201604160092,0.4742959372716902
30,0.47722795690230424,0.47535048376977584
31,0.47738991241803846,0.4743827072625661
32,0.4772927828496404,0.4777905926190687
33,0.4769869701539298,0.48844327207804666
34,0.47728799347826045,0.4810647567191647
35,0.4772772276096588,0.4755672500795893
36,0.4775686556224724,0.47303801702060566
37,0.47743291733600346,0.4750188197455448
38,0.4771798579312629,0.4767858424380528
39,0.47696537771623293,0.4749882012582145
40,0.4773216658978344,0.47706893037037296
41,0.47738454954849063,0.4745002497155175
42,0.4771713275822709,0.4755920233365204
43,0.4774938937094953,0.47831005159098045
44,0.47765677877896123,0.4746866877048902
45,0.4771927858976056,0.47497246600834514
46,0.4770736866693893,0.4756150000097249
47,0.47735592151145567,0.47271527852142714
48,0.47735874451321664,0.4757551011506647
49,0.4774532294888005,0.4768623268641914
50,0.47714345805126607,0.4802071306069441
51,0.4774435348838544,0.4801381891556584
52,0.47738997662048355,0.4749509227633382
53,0.47727089310340365,0.4763217363286037
54,0.47687587618446653,0.4729447751978578
55,0.47745557297333824,0.47710801662190655
56,0.47741467580139685,0.47688341916971727
57,0.47725249631561156,0.4772216912179644
58,0.47704331188512555,0.47506138407158494
59,0.4769113103119875,0.4767045976848422
60,0.4772996787639926,0.47329613371166357
61,0.47766832789357044,0.4779214023979235
62,0.476823165000295,0.473832173689012
63,0.47710623368799543,0.47672306686851484
64,0.47703825759230184,0.47900925220329177
65,0.4775316203288514,0.4740491771001748
66,0.47677076327429113,0.4781532731457028
67,0.47658023236990926,0.47234699508761835
68,0.47673285318364345,0.47556172107841055
69,0.4765352280639249,0.47651386500910314
70,0.47742393225741137,0.4747340069009078
71,0.47670397188642516,0.4760720348066482
72,0.47688823785903833,0.47557002578839225
73,0.4767945464566457,0.47423077841019573
74,0.4767269723468738,0.47638469816853707
75,0.47691595343520027,0.4761978422880361
76,0.4767705733946664,0.47840561698343026
77,0.47626532995395904,0.47281953132613586
78,0.4768610643706829,0.4732306732751294
79,0.4769382644995606,0.4732538123909846
80,0.4771645046728883,0.47470003585224557
81,0.4765381526937492,0.47376791964672454
82,0.4765622768756583,0.4745643656839041
83,0.47745225003821484,0.47315594198765865
84,0.47655360600788244,0.475064253280176
85,0.47669139030358965,0.47641552941198884
86,0.4763881155102849,0.4726594684391202
87,0.47682253038473454,0.4725652474912961
88,0.4771190664703421,0.47480221425536684
89,0.47687324047755664,0.47821821287662475
90,0.4770058373824584,0.47397438752528903
91,0.4766301646006765,0.4825238060461976
92,0.4768439683911326,0.47555512460367644
93,0.4767654843086438,0.47600504116176523
94,0.47655510861906025,0.4760254328892564
95,0.4765274654522979,0.47377656737743823
96,0.47641541431847806,0.47313704279904867
97,0.4771234322008755,0.47494357749055294
98,0.4773976144721087,0.4750598022198244
99,0.4765617352285736,0.47485142012421505
100,0.47701577126360434,0.4745320480643245
101,0.47714507240328574,0.4774191313215194
102,0.4766120420490428,0.4751492848336085
103,0.4768988367298143,0.4731160574008276
104,0.4766318120782991,0.474862050591441
