epoch,loss,val_loss
0,0.10791693666949868,0.049180597200989724
1,0.04882472053915262,0.04875536619126797
2,0.04868430220335722,0.048060105599462985
3,0.04862342094630003,0.04829021576792002
4,0.048571823053061965,0.04836074323952198
5,0.04857070306688547,0.04842049245536327
6,0.048559905465692284,0.04836369317770004
7,0.04847133083641529,0.04907482782006264
8,0.04852148178592324,0.04826645049452782
9,0.04846882555633783,0.04826285009086132
10,0.04848083745315671,0.04812362508475781
11,0.04839868035167456,0.04818461089581251
12,0.04845329576730728,0.04855366088449955
13,0.04844137296080589,0.048343651212751866
14,0.04834727483987808,0.0480346444696188
15,0.048357849430292844,0.0484910638704896
16,0.04835257116705179,0.04798916041851044
17,0.048332134775817395,0.04801283936202526
18,0.04834506483376026,0.04862769201397896
19,0.04829122683778405,0.04801660495251417
20,0.048315805461257695,0.048399683505296706
21,0.048329711224883797,0.04801373524218798
22,0.04828575609996915,0.047981474779546264
23,0.04828682829067111,0.04798257683217526
24,0.04826511447876692,0.04809613238275051
25,0.0482223260179162,0.04813007244467735
26,0.04825477756559849,0.04797855869680643
27,0.04823167921602726,0.048233174994587895
28,0.048249702580273154,0.04795715514570475
29,0.04820087732002139,0.048799746014177796
30,0.04822578587755561,0.04794788151979446
31,0.048210904315114024,0.04833470274507999
32,0.04821896521747112,0.04800617554783821
33,0.04819469796493649,0.04828879564255476
34,0.048193155962973834,0.04849590592086315
35,0.04819127234816551,0.04814992600679398
36,0.04820689534023404,0.04794019870460033
37,0.04815616588294506,0.0481634797975421
38,0.04817557047307491,0.04795401705056429
39,0.048157633125782015,0.047982442535459996
40,0.04816393508389592,0.0487789004445076
41,0.048146172799170016,0.048048807948827744
42,0.048139527723193166,0.04814421985298395
43,0.04815693663805723,0.047871205523610114
44,0.04814367710798979,0.04785053092986345
45,0.04812819580733776,0.04787610320746899
46,0.048126830253750086,0.04833740391582251
47,0.04812875625863671,0.04802801170200109
48,0.04812306341528892,0.04794858508557081
49,0.0481274029687047,0.04795797840505838
50,0.04810604055598378,0.0478394997343421
51,0.04811232607811689,0.04795714241266251
52,0.04811590917780995,0.04792364425957203
53,0.04811490812525153,0.047880552880465985
54,0.048130218718200925,0.04801716814935207
55,0.04808341789990664,0.047945696987211704
56,0.04807385274022818,0.04937001343071461
57,0.04810086070001125,0.04789359154552221
58,0.04809995134547353,0.047824392907321454
59,0.048087362408638,0.04777411933988333
60,0.048094196185469625,0.048590664491057395
61,0.048075072966516016,0.04784457262605429
62,0.04809933765232563,0.04789811634272337
63,0.04806885199248791,0.04783806947618723
64,0.04808695265650749,0.047892452575266364
65,0.04809355778247118,0.04789926837384701
66,0.048071810755878686,0.04799765913188458
67,0.04807210457324982,0.04781962989270687
68,0.04806656302139163,0.047850060023367405
69,0.048063199631869793,0.04774162327498198
70,0.04807702833786607,0.04796601690351963
71,0.048065154932439326,0.048022267408668995
72,0.04806828251853585,0.047772319443523885
73,0.048069472774863245,0.04778133834153414
74,0.04805678627640009,0.04791338124126196
75,0.04805831906199455,0.048226870760321616
76,0.048063145391643046,0.048233292691409586
77,0.04805538750439882,0.04782374271005392
78,0.048041630253195765,0.04793691584467888
79,0.04805034797266126,0.047906329311430455
80,0.048019612107425926,0.04800739249587059
81,0.04806262012198567,0.04802838752418757
82,0.048067429158836605,0.04784764101356268
83,0.04804123877733946,0.04784702188521624
84,0.048032956536859274,0.047953156121075154
85,0.048035194154828785,0.04787477340549231
86,0.04805430314317346,0.048075856387615204
87,0.048054627683013676,0.04786673305183649
88,0.04804901590943336,0.048122899621725085
89,0.048033596381545064,0.0477665938436985
90,0.048035248059779406,0.04782321944087744
91,0.048011098351329565,0.04778347276896238
92,0.04801880432665348,0.04791621448844671
93,0.04803984807431698,0.047937445104122164
94,0.04805884178355336,0.04799620446562767
95,0.04805792332440615,0.04784393834322691
96,0.04804526995122433,0.047869370251894
97,0.04801863122358918,0.0479966963082552
98,0.048044975657016036,0.047721371114254
99,0.048034633304923774,0.048661613889038564
100,0.04800984444469213,0.048035947620868685
101,0.04801430715247989,0.0481696770042181
102,0.04803211935982108,0.04835936916619539
103,0.04806172525510192,0.04816394809633493
104,0.048017947420477866,0.047873917661607264
105,0.04803497087582946,0.047825886704027654
106,0.048016399402171374,0.04804837676137686
107,0.048038806185126307,0.04775918154418469
108,0.048028132755309344,0.04791760730743408
109,0.04803882297500968,0.0479858420714736
110,0.0480301718711853,0.0481330478861928
111,0.04801094919815659,0.04784683435410261
112,0.04803723277151584,0.04834444894641638
113,0.04801927945017815,0.04795125290006399
114,0.048044916320592164,0.047909260362386706
115,0.04801884304359555,0.048282822258770466
116,0.04801068641990423,0.04779192662239075
117,0.04805348870158196,0.04814135817438364
118,0.04800944813340902,0.04820571123808622
119,0.048021167144179346,0.047822756290435794
120,0.04801546336710453,0.048002035409212114
121,0.048015616707503796,0.048163024201989174
122,0.04803650774806738,0.04800090903788805
123,0.048013256411999466,0.04783473134785891
124,0.048058307096362114,0.04780720962584019
125,0.047991735260933636,0.04791420570760965
126,0.04804830995947123,0.047740361772477626
127,0.048048049908131364,0.04787311042100191
128,0.04800877815485,0.04829610348492861
129,0.04804416044801474,0.047826371029019356
130,0.04803596015274525,0.047977596625685695
131,0.04798765682429075,0.04782806175202131
132,0.04805864962562919,0.047866916678845885
133,0.048012844946235415,0.047707049429416656
134,0.04800827615708113,0.047776932001113895
135,0.048040442444384095,0.04808182426542044
136,0.048016408797353506,0.0478485756367445
137,0.04800514246150851,0.047766155771911144
138,0.04802568143233657,0.047926819384098054
139,0.04802766302973032,0.04820648366957903
140,0.04801985092833638,0.04823762872070074
141,0.04801072706282139,0.04806698502600193
142,0.0480397619009018,0.04776944667845964
143,0.04802906800061464,0.04776551849395037
144,0.0480436900742352,0.04794867228716612
145,0.04798460786789656,0.047880458146333696
146,0.048001632556319236,0.047746045865118505
147,0.048054186668246984,0.047939955681562424
148,0.04798251765593886,0.04788354687392712
149,0.048034801326692106,0.047865787237882616
150,0.04802067582681775,0.047679364904761316
151,0.04801691009476781,0.04773698116838932
152,0.04802292512729764,0.04774584078788757
153,0.04799223944544792,0.04813230468332767
154,0.04802213706448674,0.04800649788975716
155,0.047996630668640135,0.048150979191064834
156,0.048033954005688426,0.04808347170054913
157,0.04800390015542507,0.04787965113669634
158,0.048000444088131186,0.04798290556669235
159,0.04801658928394317,0.04794608253985643
160,0.048005379460752014,0.0481518753990531
161,0.04802739404141903,0.048679791368544105
162,0.048026360172778365,0.04783969384431839
163,0.04801235666126013,0.04791133641451597
164,0.04801466161757707,0.04784375074505806
165,0.04799659688398242,0.047728467263281345
166,0.048012279711663726,0.04771573889255524
167,0.04800608053058386,0.04785969067364931
168,0.04801413565501571,0.047857654139399526
169,0.0480043311342597,0.04812980718165636
170,0.04800258729606867,0.04777578952163458
171,0.047981250803917644,0.047965770356357094
172,0.048029588054865596,0.047795178703963756
173,0.04798618200421333,0.047954464487731455
174,0.04800323937088251,0.048294945217669014
175,0.04800217178463936,0.047854787647724155
176,0.047986259870231154,0.04771615043282509
177,0.04799077413603663,0.047777848824858665
178,0.04800528255850077,0.04782123827934265
179,0.04796745152771473,0.047800361052155495
180,0.04801746391505003,0.0478337914198637
181,0.04798950249329209,0.048024533443152904
182,0.04801076249778271,0.047751243256032465
183,0.047982414208352565,0.04778747525811195
184,0.04799182274192572,0.04785380171984434
185,0.048000255212187766,0.04784704665094614
186,0.04800818003341555,0.047979446686804296
187,0.047984501577913764,0.04812440875172615
188,0.04800087885186076,0.04794436537474394
189,0.04800564561039209,0.04777932585775852
190,0.04801567978039384,0.04785574904829264
191,0.047991193562746046,0.04772116079926491
192,0.04799488129839301,0.047711262851953505
193,0.04798154197260737,0.04781680839508772
194,0.04800155401229858,0.048028954528272154
195,0.04800824799761176,0.0479091452807188
196,0.04794787604734302,0.047917158231139186
197,0.047998123425990344,0.047904244527220724
198,0.04798984790965915,0.04812151808291674
199,0.0480079232044518,0.047786488234996795
200,0.047982465863227845,0.04823997473716736
201,0.0479822455830872,0.047786066852509974
202,0.04801689603552222,0.04789623506367206
203,0.047949143987149,0.04789726006239653
204,0.04799950160086155,0.04835707064718008
205,0.0479712955839932,0.04775881762802601
206,0.04798420383781195,0.04795162519812584
207,0.048020146407186985,0.04802663918584585
208,0.047965985540300606,0.04780006016790867
209,0.04800261825695634,0.04781480627506971
210,0.047969163063913585,0.04780389910936356
211,0.047981159675866365,0.04782344894856214
212,0.04800277046486735,0.047773557506501675
213,0.047944082152098416,0.0478291238322854
214,0.04797920233383775,0.047783947937190534
215,0.04799716128408909,0.04791001497209072
216,0.04800678830966353,0.04778410190343857
217,0.04794802976027131,0.047856780521571635
218,0.04800559900701046,0.047777455136179925
219,0.0479677199497819,0.04792898090928793
220,0.04799217011034489,0.04781159155070782
221,0.04797761933878064,0.04771821200847626
222,0.047989172168076036,0.047830959931015965
223,0.04799190690368414,0.04776413328945637
224,0.04797838059440255,0.04802992042899132
225,0.04798603984713554,0.04775499853491783
226,0.047964505687355996,0.0479763422831893
227,0.0480055823251605,0.047892000369727614
228,0.047945248324424025,0.047824309542775154
229,0.047983472775667904,0.04787393418699503
230,0.047985394038259986,0.04816409720480442
231,0.04796226103231311,0.0479984393119812
232,0.04797807235643268,0.04795294078439474
233,0.04795782451331616,0.04769643020629883
234,0.04797068865969777,0.04788569381088018
235,0.04801619331538677,0.04796262896060944
236,0.04796113885939121,0.047750082425773145
237,0.04798850477859378,0.04781650052219629
238,0.0479818245023489,0.048085628598928454
239,0.047977635316550735,0.047773695304989816
240,0.04797376194223762,0.04769787058979273
241,0.04798311473801732,0.047764278657734395
242,0.04796876857057214,0.04772399337589741
243,0.04796374376118183,0.04789167687296867
244,0.04800079384446144,0.04791711526364088
245,0.04795675655454397,0.047790740333497526
246,0.04797411495447159,0.04777442417293787
247,0.047988017208874224,0.04777584590762854
248,0.04795970511808991,0.047736766539514065
249,0.04794880479574203,0.0479851339161396
250,0.04796422022208571,0.047685126498341564
251,0.04798437299579382,0.04806082820892334
252,0.04795176444575191,0.04833822384476662
253,0.04796703748777509,0.04796498980373144
254,0.04798272143676877,0.047724163174629214
255,0.04796839512884617,0.04778960617631674
256,0.047987567540258166,0.047762213699519634
257,0.04797190771996975,0.048150483496487144
258,0.04798084474727511,0.04825047950446606
259,0.04794938931241632,0.0478882095515728
260,0.0479802427329123,0.047801515504717826
261,0.047963836908340454,0.04770613335072994
262,0.04797123005613685,0.04779483646154404
263,0.04796236421912908,0.047785834319889545
264,0.04799781851843,0.047712535217404366
265,0.04802643756940961,0.04781240305304527
266,0.047961905799806116,0.04776495113223791
267,0.04798124279454351,0.047722444869577885
268,0.04796651016175747,0.04838508585840463
269,0.04796268157288432,0.04783221881836653
270,0.04796336241438985,0.04791687183082104
271,0.04798889761418104,0.048084596008062364
272,0.04795011793076992,0.04783613015711308
273,0.04794581536203623,0.04785477285832167
274,0.04794824680685997,0.04773868627846241
275,0.04796923777461052,0.047798147901892664
276,0.04798297031968832,0.04789035809785128
277,0.048001514196395874,0.0478142618983984
278,0.048002224128693344,0.048009236343204975
279,0.047962181132286785,0.048325049474835395
280,0.047965405628085135,0.04771504221856594
281,0.04796412941813469,0.04838966211676598
282,0.0479798886962235,0.04797912166267634
283,0.04794865894690156,0.048076755359768866
284,0.047973661560565234,0.04851118283718824
285,0.04795474658533931,0.04775776105374098
286,0.04796889163926244,0.04770282849669456
287,0.04797377869859338,0.04778731769323349
288,0.04796271587535739,0.04773711746186018
289,0.04797326010465622,0.048159779958426956
290,0.04795762798190117,0.04787297211587429
291,0.048005915336310864,0.04796216619759798
292,0.047928887467831374,0.04787716421484947
293,0.047960217013955114,0.048094973616302016
294,0.04797394889220595,0.047962296165525914
295,0.04793915525823832,0.04775169464945793
296,0.04800767853856087,0.04775563202053308
297,0.047943647298961875,0.04789603790640831
298,0.04799859818443656,0.047994220867753026
299,0.04793918515369296,0.048597469329833984
300,0.047963370263576506,0.047780234761536124
301,0.04797093277424574,0.04777537754923105
302,0.047961950719356536,0.04769948661327362
303,0.04798012894019484,0.047733053520321846
304,0.0479546161852777,0.0477528692483902
305,0.04796728648990393,0.047785160839557646
306,0.048005979262292386,0.047759019173681735
307,0.04791453671082854,0.047770041555166246
308,0.04798562065511942,0.04775505767762661
309,0.04797281850129366,0.047819923996925355
310,0.04797013572603464,0.04831785652786493
311,0.04795789300277829,0.04806469882279635
312,0.04797121968865395,0.04780816666781902
313,0.04798115219175816,0.04781782545149326
314,0.047947626456618306,0.047764911256730554
315,0.04797322552651167,0.047685345314443114
316,0.047981976836919786,0.048067937083542345
317,0.04795528434216976,0.048131644174456596
318,0.04797866593673825,0.048385380737483503
319,0.04795582390576601,0.0480451899394393
320,0.04795979204028845,0.0476993694677949
321,0.04797489494457841,0.047947900593280794
322,0.047953677088022235,0.047699957236647605
323,0.04794939459860325,0.04817902148514986
324,0.04796769271418452,0.047794073343276976
325,0.047949386674910784,0.04818162477761507
326,0.04797065791115165,0.047752715341746806
327,0.04798362971842289,0.04774555747956038
328,0.04796972497180104,0.04764880370348692
329,0.047967803455889226,0.047696472354233264
330,0.04795792599767446,0.047763779163360595
331,0.04794561966881156,0.04811095329374075
332,0.04802623928338289,0.04851432953029871
333,0.04793899887800217,0.04771386828273535
334,0.04799387464672327,0.04775834596157074
335,0.04795254613086581,0.047809408821165564
336,0.04796057184785604,0.04771562497317791
337,0.047964525122195484,0.047973151452839376
338,0.04796132271364331,0.04780863177031278
339,0.04798245732113719,0.047787235379219056
340,0.047957696609199046,0.04775704935193062
341,0.047959152784198524,0.04770418994128704
342,0.0479683269970119,0.047786043249070646
343,0.04798304473981261,0.04772642806172371
344,0.0479730605147779,0.04781427926570177
345,0.04796021892130375,0.04778802316635847
346,0.04794168559834361,0.04777073633670807
347,0.04797211818024516,0.04789392757415772
348,0.04799125045537948,0.047816022254526615
349,0.04795259383320809,0.04885480649769306
350,0.047954295217990876,0.04881253103166819
351,0.047985193967819216,0.047917143277823926
352,0.04796047170087695,0.04780804143846035
353,0.04796443973109126,0.047860656596720216
354,0.047970138620585204,0.047703206546604635
355,0.04796444898843765,0.04771097181737423
356,0.047979251887649295,0.04811374770104885
357,0.04794898902624845,0.04829473681747913
358,0.04795995477959514,0.04795797243714332
359,0.047967987842857836,0.047715533845126626
360,0.047972753904759885,0.04776108701527119
361,0.0479555956274271,0.04811086682230234
362,0.04796739659458399,0.047740553811192514
363,0.047967297323048115,0.04772489729523659
364,0.04797997780516744,0.0478374739959836
365,0.04794324008002877,0.04864080338925123
366,0.04798147926107049,0.04774673593044281
367,0.047965662192553285,0.0479184982329607
368,0.04796865747496486,0.04786791141331196
369,0.04797604913637042,0.048459144972264764
370,0.04796535930782556,0.04821486404538155
371,0.047972390238195654,0.04790636533498764
372,0.04795178328454495,0.04809445524215698
373,0.047971773628145455,0.04769321247935295
374,0.04797593802213669,0.048087559148669246
375,0.047980580929666755,0.0480560664832592
376,0.04796435890346765,0.047706743143498896
377,0.047970619432628155,0.04799727337062359
378,0.04795732505992055,0.047934517443180086
379,0.047975466802716256,0.047891505427658555
380,0.047966128829866644,0.04837407403439283
381,0.047995573181658986,0.047883383087813855
382,0.047946384094655514,0.0489181502237916
383,0.04796696023270488,0.04788524308800697
384,0.04796841231361031,0.04781495374441147
385,0.04798424282297492,0.04875231549888849
386,0.04794921479746699,0.047941414803266524
387,0.047979905590415,0.047953922256827354
388,0.04795848111063242,0.04817618410289288
389,0.04795628545805812,0.0479793161675334
390,0.047969398096203805,0.04847082940489054
391,0.047966067731380464,0.048041296780109405
392,0.04794602346420288,0.04781116766482592
393,0.04795149891451001,0.04781767911463976
394,0.04799264514818788,0.04785932127386332
395,0.047947113022208214,0.04779934135079384
396,0.04796449263393879,0.047767211124300955
397,0.0479689224511385,0.04772572656720877
398,0.04796212266385555,0.047776620149612425
399,0.047992204681038854,0.04772596877068281
400,0.04796898552402854,0.04799458537250757
401,0.04793997128680348,0.047754246920347215
402,0.04797908942773938,0.047700206682085994
403,0.047945319168269634,0.0478460790142417
404,0.04796358296275139,0.04768961218744516
405,0.047979673773050305,0.04793125123530626
406,0.047965676069259645,0.047681519508361817
407,0.047955337028950454,0.04793840140104294
408,0.04799061683565378,0.04841773089021444
409,0.04795301027223468,0.04792260464280844
410,0.04795255396515131,0.04785881942510605
411,0.0480083240494132,0.047887074291706085
412,0.04796200263500214,0.04787608259916305
413,0.04796951075643301,0.04766731783002615
414,0.04795626547560096,0.047942337073385716
415,0.047937262579798696,0.047786579214036465
416,0.047995318479835986,0.047708087489008906
417,0.047956275768578055,0.047770506016910075
418,0.047959793772548436,0.047879461973905565
419,0.047952867701649665,0.0483619179725647
420,0.047985490757972,0.04774568892270327
421,0.04796420382335782,0.04789749100804329
422,0.047964187420904636,0.047808748900890354
423,0.04796832167357206,0.04769418929517269
424,0.04797983062639832,0.04809618990123272
425,0.047955367505550385,0.04803579271584749
426,0.04798238795623183,0.04779518663138151
427,0.04793307152017951,0.047729770824313164
428,0.04797765455394983,0.04827394091337919
429,0.047956428572535514,0.04783220800757408
430,0.04799661680683494,0.047748881377279756
431,0.04795110760256648,0.047811366334557535
432,0.047952943850308655,0.04769342976808548
433,0.04796519660577178,0.04832348298281431
434,0.04797284632921219,0.048205513574182984
435,0.04796172685176134,0.047694547414779666
436,0.04793465787917375,0.047929010406136514
437,0.04797054436057806,0.047893362887203694
438,0.04795433957874775,0.04795996414870024
439,0.04797305284067988,0.04803641352802515
440,0.0479607279971242,0.047747043140232565
441,0.047986487284302715,0.047768086835742
442,0.04795403750613332,0.04854371899366379
443,0.04795089335739613,0.04839774165302515
444,0.04797781830281019,0.04802518402040005
445,0.047976453363895416,0.047770083472132685
446,0.04793264751508832,0.047966143816709515
447,0.04797042393684387,0.04816826517134905
448,0.04797578276693821,0.047669799715280535
449,0.047969657439738515,0.047925922662019727
450,0.047956801902502774,0.04784206673502922
451,0.047956259481608865,0.04790653287619352
452,0.04800252176821232,0.048281121969223025
453,0.04794906790181994,0.047752326548099515
454,0.04796013176813722,0.04788494005799294
455,0.047963525529950854,0.048041481077671054
456,0.047964667938649654,0.04799505162984133
457,0.04795904191583395,0.04788862843811512
458,0.04795561389997602,0.04786362475156784
459,0.04794542461261153,0.04766220738738775
460,0.047963732466101645,0.04773382773250341
461,0.04797636491432786,0.047825082637369634
462,0.0479583236426115,0.04779102294147015
463,0.04794878655299544,0.0478483647853136
464,0.04800256410986185,0.04813272950798273
465,0.047943950179964306,0.047716604240238665
466,0.0479707493185997,0.04812247202545404
467,0.04798556734248996,0.04803893336653709
468,0.0479353692010045,0.04785480239242315
469,0.04796569048985839,0.04770747534930706
470,0.04796962543576956,0.04793685548007488
471,0.047957348026335236,0.04772404759377241
472,0.047943302419036625,0.04800099034607411
473,0.04799862449243665,0.047718654468655586
474,0.04795510760322213,0.048101987689733505
475,0.047955112144351004,0.0479814905077219
476,0.047986346613615755,0.04786274496465921
477,0.04794937662035227,0.047892872340977194
478,0.04795983371138573,0.048118045829236504
479,0.04793704092130065,0.04787623429298401
480,0.04797089748457074,0.04774657003581524
481,0.04796844808012247,0.04779123307019472
482,0.047947888646274806,0.048012735188007354
483,0.04797330664470792,0.048872697018086914
484,0.04796798677742481,0.04776902917772532
485,0.047967658270150426,0.04784843631833792
486,0.04795824112743139,0.0478182413354516
487,0.047974461872130635,0.047701158471405505
488,0.04798916791006923,0.04776074790209532
489,0.04795763267204165,0.04795862137526274
490,0.04795192591845989,0.04799927495419979
491,0.04796821879222989,0.04770707678049803
492,0.04793981581926346,0.047867252103984355
493,0.04796126881241798,0.04821244689822197
494,0.04796489133313298,0.047633590526878836
495,0.04795821046084166,0.04782428865134716
496,0.047977363646030426,0.04770622113347053
497,0.047969754572957754,0.04797964992374182
498,0.04795475406199694,0.04823876038938761
499,0.04795928464829922,0.04794505439698696
500,0.0479612880833447,0.047743136756122115
501,0.0479668177254498,0.04782359355688095
502,0.047946244534105065,0.04781379567831755
503,0.04795729279145598,0.047967762388288974
504,0.04796173751354218,0.04781389780342579
505,0.047974028069525956,0.04785077304393053
506,0.0479333585165441,0.04777834156900644
507,0.04798721572011709,0.047755440287292006
508,0.04795033387467265,0.04860461764782667
509,0.04794893418997526,0.047869039982557295
510,0.047962951723486184,0.04770211610198021
511,0.047974398989230393,0.04793590728193522
512,0.04796706020832062,0.047814359903335574
513,0.047990201126784086,0.04795072747021913
514,0.047950542744249106,0.04778615039587021
515,0.04795663788542152,0.04776245813816786
516,0.047958968438208106,0.047858551621437075
517,0.04798805047571659,0.04778085375577212
518,0.04797237764671445,0.04771461690962315
519,0.04795481676608324,0.04796480316668749
520,0.04797486584633589,0.04788099501281977
521,0.047973311308771374,0.04855936925113201
522,0.04797536352276802,0.0478944003880024
523,0.047958659902215005,0.04776942951232195
524,0.04797238615900278,0.047806363470852375
525,0.04795888811349869,0.047809366583824155
526,0.047946834150701764,0.04813994210213423
527,0.04795502549409866,0.047834835693240166
528,0.04795904440805316,0.047771659553050995
529,0.04796008167788386,0.047972117312252524
530,0.047953011877834795,0.04788452117145062
531,0.047989804308861496,0.04850418111681938
532,0.047945833522826435,0.04794807690382004
533,0.04795132015272975,0.04787717931717634
534,0.04797078026458621,0.04769545205682516
535,0.04798354433849454,0.04770700199157
536,0.04794769074395299,0.04787614706903696
537,0.04795104955136776,0.047794046372175214
538,0.04796150454878807,0.047878495797514915
539,0.04797090556100011,0.04855360807478428
540,0.04796419537439942,0.04775127419084311
541,0.04793884589150548,0.04771534934639931
542,0.048006978929042814,0.04773898353427648
543,0.04795813788101077,0.04871208203583956
544,0.04795715844631195,0.04803175566345453
545,0.04796475964039564,0.04771418306976557
546,0.04797538634389639,0.047769477762281895
547,0.04795532431453466,0.04784879018366337
548,0.04793730381131172,0.04774958265572787
549,0.04797127124667168,0.04800779098272324
550,0.04795997394621372,0.04767414297908545
551,0.04796963717415929,0.04781501374393701
552,0.04796517986804247,0.04782646199315786
553,0.04797900054603815,0.047950959891080856
554,0.04794931079074741,0.048066999956965444
555,0.047955033719539644,0.04788467863202095
556,0.047970366511493924,0.04785340736806393
557,0.047949718195945026,0.0479032165184617
558,0.0479814084880054,0.04788929042965174
559,0.047957216899842024,0.04771531581878662
560,0.04794192191213369,0.04773379245400429
561,0.047969789765775206,0.04794972809404135
562,0.04797345420345664,0.047836294688284396
563,0.04795565627142787,0.047888671368360516
564,0.04798692713305354,0.04789434836059809
565,0.04795988865569234,0.047985271245241164
566,0.047931518267840145,0.048214139938354494
567,0.04796776260435581,0.04907005225121975
568,0.0479635846875608,0.04766158179193735
569,0.04792941555380821,0.04792360473424196
570,0.04798389885947108,0.047716590113937855
571,0.04793932243064046,0.04785321615636349
572,0.047963438130915165,0.04777115422487259
573,0.047958487998694184,0.04772590239346027
574,0.04797798276692629,0.04770455187559128
575,0.04795763975009322,0.04770376326143742
576,0.047958073187619445,0.047718935497105125
577,0.04796154377609491,0.04809318741410971
578,0.047954513926059004,0.04817038305103779
579,0.047964419800788166,0.048474927723407744
580,0.04793107544258237,0.04768320034444332
581,0.04797495890781284,0.04799061105400324
582,0.04795693196356297,0.04776181560009718
583,0.04795737819001079,0.04782224528491497
584,0.047947221327573064,0.047833246581256386
585,0.0479812442921102,0.047696901381015774
586,0.04793228637427092,0.04783858827501535
587,0.04798097386956215,0.04802338672429323
588,0.04796427952498197,0.047934234894812106
589,0.04795811140537262,0.04795415481179953
590,0.0479590273052454,0.0477073549926281
591,0.04798939930647612,0.04776512895524502
592,0.04794833232089877,0.04802424641698599
593,0.04799825659394264,0.047778036378324035
594,0.047956218641251325,0.04825893449783325
