epoch,loss,val_loss
0,0.5187267922549892,0.4268428859930859
1,0.29629383086086175,0.22754346192965097
2,0.22549343160945448,0.23761225240665246
3,0.23622857917436688,0.23658561753586888
4,0.2359775479236762,0.23072865485392316
5,0.23381888336367268,0.23579084617986204
6,0.23516029083161807,0.23661145779591616
7,0.23367667585897217,0.2189129377996818
8,0.23248782007695198,0.22421572032225065
9,0.2301043242061262,0.21762054211856252
10,0.22793046758472205,0.23537019654908514
11,0.22766695684380384,0.21792952297659682
12,0.2279481864471039,0.22161853710967155
13,0.23060247647485954,0.22578512544978202
14,0.23082115863271946,0.2268642390583478
15,0.23282475973204744,0.22040606262463702
16,0.2356184439228879,0.21675208583768182
17,0.23629193077032135,0.22316619596240458
18,0.23393034404940266,0.2316351633022033
19,0.23403953497620414,0.22507291521815306
20,0.23270410771588151,0.2272215340559936
21,0.23132196142018843,0.219275482557567
22,0.2282603526120182,0.22101608278625295
23,0.2555992527307271,0.364081854413792
24,0.34353290268366665,0.31587849852600336
25,0.3233918607425537,0.3028975450555076
26,0.3064225587984927,0.2907090220003497
27,0.2947744681097144,0.27787989954263465
28,0.2859386472726802,0.266805209331185
29,0.27617823271204434,0.26363757080982875
30,0.26565547242796395,0.248560621334797
31,0.26194356370577326,0.24504982376060996
32,0.2502011332711537,0.24163698843123882
33,0.24101947267635834,0.22977027320541918
34,0.23312420876239606,0.21917845324069943
35,0.22278735912937245,0.21091587816812715
36,0.2131064812914073,0.2040675157341509
37,0.20359128433094323,0.19017446349244843
38,0.20016986621226623,0.19332743690723309
39,0.1976557180023403,0.17801789483077524
40,0.1968673354656481,0.18493146716889755
41,0.187015319351765,0.16471529349202516
42,0.1738929792160658,0.15735371044492194
43,0.1607855892093252,0.148215333630508
44,0.1466635622792869,0.13015600382082088
45,0.13445899209125245,0.12513947878518064
46,0.12921509898895267,0.1066998977863892
47,0.12617847225148615,0.10664636039578641
48,0.11986161732851125,0.11419429141372418
49,0.12246838160794225,0.10558156892598475
50,0.121319049801067,0.1307317681945772
51,0.12319417908597145,0.11123403053563133
52,0.11913799414400765,0.09215232577607117
53,0.11768851823193564,0.09313290267477095
54,0.12064740471512103,0.09630235351604463
55,0.1228689624221443,0.09193069763899132
56,0.1185033739738756,0.12388151947588269
57,0.12176274167869588,0.11100229752656504
58,0.11945817138043811,0.1278149192739681
59,0.12155557283275514,0.09768830079235424
60,0.12074899922707956,0.10502838769129344
61,0.1194896286191176,0.1077499060223398
62,0.12238807392885073,0.10658462713130741
63,0.11922248102706685,0.10376711320881779
64,0.12067485873480971,0.11451243713862706
65,0.12318830928213591,0.10447024519319316
66,0.12486572678891017,0.09130295059381269
67,0.12236976124447503,0.11889706136278026
68,0.12827136337483147,0.10134883817717515
69,0.12388855045874246,0.1065562600718301
70,0.12552814109088611,0.14510263717823735
71,0.12714436106222995,0.0923145344155975
72,0.13250624305076547,0.1157297157545022
73,0.1276236829622615,0.11177898505915783
74,0.12605474807387537,0.11270162531401853
75,0.13145355353776594,0.12368820134282771
76,0.13269663702169482,0.1255986224668837
77,0.13685194754319416,0.16161100325287095
78,0.1457041748683992,0.10853476152588461
79,0.14120192446416135,0.11650696669682425
80,0.14562077667835138,0.1473111191201417
81,0.21622529846253535,0.4103696936919356
82,0.22357187439783585,0.11343885992301574
83,0.12761044329840787,0.1029179519381971
84,0.13045464075512167,0.11584056866220724
85,0.13496545405625154,0.11860632257802146
86,0.13576278111917509,0.10798579642009622
87,0.13539821774565536,0.13567434186035005
88,0.13817559573337804,0.13707487632086077
89,0.13617526914337746,0.1286528436518506
90,0.13951133657321274,0.13193139864900683
91,0.1389577803875712,0.11410189258271347
92,0.13783104789795445,0.13299519101182777
93,0.14020421036737238,0.13112955470440796
94,0.1413931189675173,0.12699274687006798
95,0.1415212924758212,0.12430602551423948
96,0.14109216476503988,0.13508388124870896
97,0.14084758250404605,0.13141492745988276
98,0.1414323669346831,0.12771074482678615
99,0.14333014090141233,0.14405368805378557
100,0.14039634034442577,0.14008209750867776
101,0.14094786499913553,0.13238636687127453
102,0.14021795544681026,0.1331015729243208
103,0.13647004982514632,0.11512688427410826
104,0.13493184750671866,0.13522462039927186
105,0.13274666268548233,0.11007855993114124
106,0.133315095992135,0.12449126060237636
107,0.1328016654264441,0.11844237037032443
108,0.13137287350831559,0.12852662268382128
109,0.1314996008773883,0.12437238087899682
110,0.13303951235960046,0.1034921444041012
111,0.12923443571721716,0.10391662708515244
112,0.1286798689862807,0.10534103203567823
113,0.12832692635359524,0.1282203027768312
114,0.1299698336316432,0.1147029854374884
115,0.1304243580459786,0.12692264164632572
116,0.1291900966033566,0.11255523907028038
117,0.12692939878093729,0.12090106312576579
118,0.1284222888881616,0.11274528292308385
119,0.1263036867417544,0.10747639559085856
120,0.12666536177055154,0.10791504072597297
121,0.12446312691501195,0.11831785465025393
122,0.12482723141376444,0.13042308637709155
123,0.12361912257808576,0.1257718728815559
124,0.12610675544023134,0.10776313867099471
125,0.12640163815802902,0.11025517672629646
126,0.12624481001453433,0.10645819260152946
127,0.12708855388488033,0.10485154683183476
128,0.12689711568619516,0.11048452607293531
129,0.12670948825699152,0.114392449636815
130,0.12487334652031831,0.10394313739761181
131,0.12336083325586444,0.1375229245238447
132,0.12470136606674209,0.12552925096361678
133,0.1260830055800178,0.11354658952028429
134,0.12462023004806108,0.09193486723851857
135,0.12417577707069478,0.1120818989041196
136,0.1235038760474784,0.10995061222196284
137,0.12336018798555687,0.11137574438914222
138,0.12175833451435816,0.11163142808634367
139,0.12333983212983389,0.12175001218127
140,0.12185239341619203,0.12108563896395037
141,0.12390427180617261,0.10963784782149798
142,0.1220197582916676,0.10569379222891702
143,0.11895120364846848,0.11833055556737822
144,0.11967340098332158,0.10461924556163511
145,0.12108238478847068,0.1022409305164639
146,0.11986666222770723,0.11165999384169138
147,0.11922783624949597,0.08718119211489042
148,0.1181033762301401,0.09799157341776067
149,0.11825132004315142,0.105423811046905
150,0.12041225703023702,0.12436879191609378
151,0.11926441586953844,0.11572555896562202
152,0.11860296335949791,0.09487897003600235
153,0.118908740321009,0.08879003515900734
154,0.11864967214808667,0.11119489890435783
155,0.11917944333488516,0.09569616014786188
156,0.11673763441108018,0.1192297917491541
157,0.119613053711901,0.10185702663170793
158,0.11948032003286169,0.09223963047400552
159,0.11710492870826229,0.09966218325690952
160,0.117316657336329,0.09576799532350068
161,0.11854771854613515,0.11311077185992471
162,0.11971567262062352,0.0914482163572603
163,0.11901929418591382,0.10319576257194416
164,0.11853066596874802,0.10005226544888828
165,0.11990149030022675,0.12141818345628014
166,0.11904912333277394,0.08918019721391827
167,0.1176428132527452,0.09990869681244303
168,0.11877051875930277,0.09725317131395686
169,0.11695045520730918,0.09979950757175331
170,0.11751749557699803,0.12280356612324056
171,0.11832101940274906,0.11791425572315727
172,0.11768194533092417,0.11282972001192038
173,0.11657358527922039,0.09890972393040781
174,0.11533334491242894,0.09810801157352957
175,0.1193177525004704,0.1137447649614493
176,0.11805907599359965,0.10248211085878683
177,0.11829270185124006,0.11102014569523021
178,0.1207582875669336,0.0963250599101762
179,0.11647565052699414,0.11320847042357723
180,0.1194310546052351,0.114000689588199
181,0.11728498804793179,0.10345510267538637
182,0.11706820131837131,0.11026645594680036
183,0.11737776780538231,0.1180595500599049
184,0.11944800398820977,0.1053564492333754
185,0.11784594591787394,0.12022530391000817
186,0.11834500759816188,0.10211065402158905
187,0.11961803408108836,0.09833121925721794
188,0.11936933284909795,0.10972630042044686
189,0.11653313819738886,0.10951225333145122
190,0.11606106978299902,0.096914388639257
191,0.11525797952029058,0.09227188059732307
192,0.11886405603264828,0.10064069191089463
193,0.11607478533705456,0.10785207534010427
194,0.11821087695163884,0.11236955020826636
195,0.11857481633158896,0.0948674767303862
196,0.11639660838946736,0.10149779176632061
197,0.11549485440877416,0.11549280324528889
198,0.11645831505683876,0.09919191933374473
199,0.11524120864155386,0.09009017161995572
200,0.11679629914516168,0.10610038471932287
201,0.11410692102200598,0.1129003608130336
202,0.11937119961559153,0.10202800027949657
203,0.11913913972884249,0.09609332897104235
204,0.12044538233837158,0.10287176073773602
205,0.12036005353077138,0.09998498739999584
206,0.11564364887589364,0.1105200001159896
207,0.11492173195325976,0.103844288186756
208,0.11558469658275303,0.10320072421758497
209,0.1146014823312525,0.10178921971508341
210,0.11579563183118875,0.10190366864815978
211,0.11773747523768628,0.10360374098207034
212,0.11948239118706504,0.09821687064235758
213,0.1186745097424439,0.10049988794557298
214,0.11669058681165667,0.1060932881912568
215,0.11492976573088186,0.10180968775369091
216,0.11573148079567866,0.10580920148714378
217,0.11369643609920184,0.11742914818527196
218,0.1161899391850598,0.10274302376685598
219,0.11892798478803712,0.10778728178639814
220,0.11784327757968414,0.09285862386320742
221,0.11762128291810922,0.1028184271031651
222,0.11455783651148577,0.08978330242229242
223,0.11584484718924613,0.09543561668450568
224,0.11529678999365187,0.11223984354461566
225,0.11728221237611809,0.10419999583438333
226,0.11600724001415819,0.1007831024965999
227,0.11667536435831936,0.12007338137916439
228,0.11613415581859844,0.1009027485477708
229,0.11971439200518229,0.09026842431151312
230,0.11716805184059007,0.09787004260491836
231,0.12185384159525045,0.10113706314479072
232,0.11752336349138777,0.11283794093080271
233,0.11844584240103892,0.10298198213375923
234,0.11876998078539598,0.10633407762507896
235,0.11711561018757397,0.10690157341270251
236,0.11736679897546101,0.09141912417164354
237,0.11429816315309416,0.10442957200327536
238,0.1143817510172951,0.09246574658033127
239,0.11936886605324981,0.09916583972012047
240,0.11601212482860715,0.09364624614897166
241,0.11881465790309399,0.09436221724198197
242,0.11427162312191548,0.1071510546632705
243,0.11815047331100745,0.11482832293248872
244,0.11634945345939778,0.09705659212587193
245,0.1177145132004357,0.09944385303082952
246,0.11813688468482854,0.10954878884996122
247,0.11475983880561509,0.11687398835393323
248,0.11566311062323294,0.10979172516240787
249,0.11810041261281518,0.09749586881971209
250,0.11634280270249914,0.09654338278564395
251,0.11730629938403718,0.12021522981356521
252,0.11742465547044023,0.09740728359807639
253,0.11688009346370026,0.11338429501090543
254,0.11900248420800713,0.0977345265348125
255,0.11692369000600587,0.11800581345594861
256,0.1172979298880775,0.10667766277820177
257,0.11467865903636248,0.08834936613277271
258,0.11757532780845578,0.11433742656986264
259,0.11864164500213642,0.10321703252706739
260,0.12062372316678556,0.1239451330093389
261,0.11856025361495433,0.10841640931184403
262,0.11790643969802357,0.10192921741820736
263,0.11478938882966502,0.08715233188519445
264,0.11584990910834356,0.10020979602645491
265,0.11872798476895269,0.10857681041523144
266,0.1212940803772921,0.10121973999132768
267,0.11885773755020375,0.09449582255571116
268,0.11749080106389703,0.1028534949484451
269,0.1179018079710426,0.10207256740334002
270,0.11933590366030863,0.10746035851896892
271,0.11579318852018682,0.09273437514677703
272,0.11759571971998607,0.09168511347723177
273,0.117970651378937,0.11077475698919116
274,0.11902954637837543,0.11424827846774174
275,0.114820110831234,0.09333301287941229
276,0.11634347347511376,0.12674453562888557
277,0.1204071293721239,0.1011507154898843
278,0.12075054722069074,0.10694618635438236
279,0.11726879663795209,0.11032672361092202
280,0.11819017361655987,0.10442878851621473
281,0.11613407885308841,0.09564153973568869
282,0.12063683518212286,0.11730896275205319
283,0.11993694247054063,0.0978180173587498
284,0.12119586374178874,0.11702309474172608
285,0.12038249958702606,0.12033670624363771
286,0.12056730703103076,0.12287851202506764
287,0.11935655560960873,0.1301677089416802
288,0.12234336479033212,0.1229478646872452
289,0.11917592631243497,0.11030093746314203
290,0.1177899674977735,0.12618670905422016
291,0.11759246820561606,0.09580776364422729
292,0.12411016456300406,0.1339697731510334
293,0.12330534173954401,0.09218449213475154
294,0.12347885358372895,0.11710299602059182
295,0.12183142645503406,0.10941977410826423
296,0.12245109021592197,0.09963896375181831
297,0.11905244439482975,0.12507590530374055
298,0.12398767434685921,0.12346441329889817
299,0.12271994709087124,0.12310380682102225
300,0.11970102366247623,0.11618836965020848
301,0.12087593582286824,0.09746273712864427
302,0.12292701429683718,0.10968981607395924
303,0.11870118245321641,0.09527698569087975
304,0.12169065226694281,0.09446534589697454
305,0.12025431935771477,0.12650243910918954
306,0.1216988646411162,0.10783732269068073
307,0.1217190116855333,0.10454595474130823
308,0.12331171390666759,0.12132735292838141
309,0.12456383981364523,0.11964087902723379
310,0.12130200434371913,0.09440668118969135
311,0.12288825223140484,0.13142796252996036
312,0.1257287931563757,0.0972235774255307
313,0.12282858796709542,0.10639646115412181
314,0.12427913915696476,0.10911378651951464
315,0.12572054163240892,0.1209064696245807
316,0.12702096068113447,0.1147035520697261
317,0.1247503914498835,0.12572307550093276
318,0.12228064043975943,0.10556222085606516
319,0.12593285305549107,0.1390838101682648
320,0.1246602334391823,0.09910013979475801
321,0.12455691727433654,0.11256711621310829
322,0.1290053017913914,0.10345666922611238
323,0.1255268300894639,0.13146726998199887
324,0.12831081886836093,0.09667806704870434
325,0.12358558544521328,0.10106915762999345
326,0.12326052768541564,0.12284705940789845
327,0.12361701922736866,0.11902552666091129
328,0.12870921241007835,0.12213417941788189
329,0.1281582473856892,0.14646081632295743
330,0.1295887978671552,0.11108978544880108
331,0.13338768433371512,0.12227658104760118
332,0.1340023523492874,0.10085839821700515
333,0.1268081923709999,0.11915687445754033
334,0.12679351707228081,0.11754297852610263
335,0.1362755044395451,0.11171592025772831
336,0.1327316098147445,0.12184961970480954
337,0.1317606663478793,0.12692036910751436
338,0.13101739262779363,0.1343213960928247
339,0.1323816039912897,0.13014933836794126
340,0.13779521232945838,0.10521050949522898
341,0.13263637147289958,0.10950315613725944
342,0.13436129211271694,0.1547782943534776
343,0.13181661393681018,0.12044230714475629
344,0.1440091377033366,0.1293282569889582
345,0.14175567892100885,0.12508183225530664
346,0.141664755409308,0.11890355694007008
347,0.14883569676539213,0.14217724118913924
348,0.14854867888285483,0.14623075731880758
349,0.16272099156507389,0.10455247937409823
350,0.3365671712931969,0.24820239832529234
351,0.190945825893149,0.10651237078910751
352,0.12079711338813356,0.11324168668784959
353,0.11754035234129687,0.10717077439190745
354,0.11643148236554399,0.09811756269449122
355,0.11462383663399424,0.10037678196120657
356,0.11359287972608917,0.1043669140846972
357,0.1129769818346611,0.08750307562025213
358,0.11277844771433124,0.10728977127816608
359,0.11384523747493323,0.0897476609440516
360,0.11546544548716667,0.10591318109017615
361,0.11484000836011413,0.1008924717978878
362,0.11521123786219399,0.09656845532422378
363,0.11924071903589914,0.09576149949334979
364,0.11793176439418782,0.10660303366424159
365,0.12005202378407656,0.10104335912730436
366,0.11949843380281584,0.10084331507229297
367,0.11987334432052099,0.10263108765528535
368,0.12002300139037159,0.09040056197553425
369,0.11712342443511926,0.10269898095042478
370,0.11841044981154701,0.09609373614791819
371,0.1202950815109612,0.1150440795327983
372,0.11917064624200527,0.09922658419787837
373,0.11862863778031701,0.09969883110453599
374,0.11878263557271705,0.11256956872431048
375,0.11876734762752561,0.10145153843848463
376,0.11944298422951206,0.10699043184777556
377,0.12036631630657674,0.11350952356395141
378,0.11965866177249775,0.10196187510651308
379,0.11960303546677677,0.11600143565916131
380,0.12195955611449733,0.10107854960137874
381,0.12102776187524902,0.10434337953530434
382,0.12119433556874688,0.10835756600232414
383,0.12004108091505121,0.102807913375423
384,0.12046511749700486,0.10592194477826851
385,0.12053796543265513,0.10636538761390789
386,0.12033499651949564,0.09942375632751242
387,0.12279901818203316,0.10296892763160305
388,0.12221278170411058,0.10703603165913682
389,0.1246587088752946,0.11259760039593163
390,0.12255404200211323,0.11695250517144011
391,0.12347161740386228,0.1089826161019804
392,0.12415673007234204,0.10609832474257688
393,0.12441427585222929,0.12852559411558656
394,0.12471051775901723,0.10188952102469194
395,0.12340621470356826,0.09918795477219614
396,0.12384012679187514,0.10717781786031391
397,0.12549858322615723,0.10041538797665885
398,0.12518168052287695,0.09906412822201013
399,0.12673330318918236,0.11568095055779981
400,0.12750298486982317,0.11213510082453937
401,0.12790414490859858,0.11955091683598325
402,0.12826255119914154,0.10934369073741156
403,0.1293067631217168,0.11798604131450594
404,0.12930168205802198,0.10464938050216827
405,0.13224709713511426,0.1128535634987262
406,0.13018567097201336,0.1157570565038529
407,0.13009989157700233,0.10324173908160254
408,0.13118884708884238,0.11789266360539946
409,0.13220049809220788,0.1179113327080844
410,0.13047510757446765,0.12153330710499703
411,0.1320401492009727,0.10993739290437834
412,0.1319590983249777,0.13739146708548305
413,0.13187059158567999,0.13210425006068402
414,0.13161090529746383,0.12042934370492515
415,0.13069507486814502,0.1204402688787787
416,0.1303199106018892,0.11195755574702276
417,0.13126270849701407,0.12582351257929014
418,0.1315253682130818,0.11720171943012898
419,0.13150021916241955,0.11636723185159507
420,0.13232690891583,0.12098495205298312
421,0.1321327221407879,0.12170401250836223
422,0.13261248661185818,0.11808059354560434
423,0.13364705426706303,0.11795634651099403
424,0.1318378930510901,0.11820321981725301
425,0.1321757271689334,0.11215998843347547
426,0.1332930365144063,0.12093808256154373
427,0.13402114253488184,0.12542245844004185
428,0.133953786659822,0.1122244523857274
429,0.13260827977046502,0.11094579065913936
430,0.1326583246205398,0.12167337725575551
431,0.13294281503505748,0.11561422083518029
432,0.13165549655481398,0.12713811831179808
433,0.1340726484164155,0.10762886431923793
434,0.1353642960055936,0.1262097637732855
435,0.1342852733832755,0.11483270811371288
436,0.1329685708018039,0.120634089193903
437,0.13502272406368138,0.12093923580498327
438,0.13326593724300537,0.11893915871912415
439,0.13392410420185086,0.11823340870539975
440,0.13253681780956536,0.11186006136573763
441,0.1335675969040937,0.11608656739261833
442,0.13409501233463475,0.11738512622105765
