epoch,loss,val_loss
0,0.3571465889827239,0.31555559918366743
1,0.31535786491551465,0.31564049019339335
2,0.3156928590638079,0.3157057443658668
3,0.31501057522474146,0.316356766830774
4,0.3150249174792322,0.31583950798532207
5,0.31510720201295245,0.3159368656805019
6,0.31516365052984774,0.31610152412326487
7,0.31531543952288577,0.31524691714860364
8,0.31524408608079435,0.3158276375109696
9,0.3152946331303754,0.3156332181679892
10,0.3151332939342915,0.3160201041079358
11,0.315121316211782,0.31565806584839945
12,0.3151602775549336,0.31511863026453363
13,0.3149426936102714,0.3159190171002024
14,0.3150612665094632,0.3148545030072249
15,0.3148522968534276,0.3149462907730169
16,0.3146547123515825,0.3157966359214888
17,0.3147094878289911,0.3155532803654012
18,0.3147454032366224,0.31645199548285496
19,0.3146930107776877,0.31555670339852315
20,0.3145574598456268,0.3153052601930939
21,0.31452958128578085,0.31559336721755993
22,0.31467733319571833,0.3144890933923112
23,0.3144782628896806,0.3160536811167364
24,0.3147283832398917,0.3152887535876144
25,0.3148301513456136,0.31503883091219786
26,0.3149216708829172,0.3152204166271598
27,0.31498150027198474,0.3153436895233491
28,0.31509223376675477,0.31546757215576654
29,0.3148470229501252,0.315119619762794
30,0.3147534787726345,0.31583314484842384
31,0.3149265805594355,0.31545335376648426
32,0.3148900724048142,0.31501822673437063
33,0.31479483703486355,0.31645536401559726
34,0.31519140313855176,0.31596503270923765
35,0.3152231467094162,0.3158182484386658
36,0.3153616345400433,0.31605154351164433
37,0.31559076559819954,0.31619341423310154
38,0.3159020091656396,0.3177329793443055
39,0.3162127774205806,0.31926805620694026
40,0.32390699961440833,0.3235302468689766
41,0.32335456156378073,0.3231904363199398
42,0.32290047527455407,0.3239102372054331
43,0.3231343629715635,0.32465721237537143
44,0.323333826032188,0.32359373084936166
45,0.32364481773307857,0.3236020454150443
46,0.32369279804275475,0.323071421063031
47,0.3235413843302799,0.3237900999510674
48,0.3231045480945604,0.32283921063463805
49,0.32322870141310656,0.3245461880455077
50,0.3235457659982663,0.32285936448455516
51,0.3232224410672268,0.3245717448424239
52,0.3237667204283601,0.32341829779680636
53,0.3235392049252749,0.32336224362712823
54,0.3236177779620976,0.3247974096270368
55,0.3237434511752628,0.3233049986582623
56,0.3237455246164549,0.3236878617080818
57,0.3238231983902357,0.3229420216608537
58,0.32373180261237633,0.3233251601998601
59,0.32398222576228264,0.32445165839549023
60,0.32401798118790276,0.32429612974247407
61,0.3242445198132647,0.3242037806721682
62,0.3241411838099825,0.3238126355169698
63,0.32444116662589195,0.32377990435782433
64,0.32427624969793073,0.32454403456309316
65,0.32458967175319803,0.32415238462664897
66,0.3246125682628603,0.3254279338570213
67,0.3246756520845907,0.3253315836544007
68,0.32467038212396165,0.32500581197505307
69,0.32461045285780654,0.3251315206642121
70,0.3245829385247448,0.32600633845897575
71,0.3245481350343767,0.32491486234371364
72,0.3243792224749863,0.32365294825212165
73,0.32423018947017374,0.32457601259614693
74,0.3243566229879904,0.32494414047923914
75,0.3244965167092286,0.32546020193935477
76,0.3245299931743639,0.32541028716569825
77,0.32493425491187783,0.3253203242805499
78,0.3242413872223106,0.3229205332925777
79,0.3219571704510972,0.3222287629849344
80,0.32151300086677786,0.32169508174261713
81,0.3208450460009914,0.32132770703266056
82,0.3204914456148513,0.3216105982743574
83,0.3202901889594625,0.3210556424783738
84,0.3195341121759727,0.3196913512466268
85,0.31924038354774936,0.32038510871291065
86,0.3191657547089312,0.319897833144279
87,0.3189649908757991,0.3196127470920852
88,0.3184953096339838,0.3187696636193553
89,0.31809565148574653,0.318667560909899
90,0.3177962965197224,0.31921634127421933
91,0.31827039026813825,0.31913698342905894
92,0.3180995711105333,0.31918403482757035
93,0.3178136439965688,0.3186505127348294
94,0.3175346061503954,0.318212280169
95,0.315351476236213,0.31183543446126094
96,0.3058492207436634,0.3091408178010322
97,0.30891588630436134,0.3097553708794179
98,0.31062297929200433,0.31229346872975533
99,0.3097051134426817,0.3089918983010862
100,0.3097474257008349,0.30996015152784434
101,0.3089112855738206,0.30626051063225224
102,0.30276251850511243,0.29928161915400503
103,0.29970279590879606,0.2993950090873119
104,0.29964330578021864,0.30081948602679404
105,0.29997127877770186,0.2991881889909294
106,0.3011800814137089,0.2992115826379058
107,0.2895453521173349,0.28113093273603923
108,0.2804044904432994,0.28372964848659127
109,0.28301321512027133,0.2872148061372581
110,0.29008729321112353,0.29137766048394514
111,0.2930607562966579,0.2916961376744175
112,0.29375844501810583,0.29256855620581423
113,0.29433638383921007,0.29611036583675393
114,0.29428183370166355,0.29636471656804586
115,0.2944196068959461,0.2960003520573042
116,0.29512072081188506,0.2963491552395433
117,0.2948378042923175,0.29530090956868577
118,0.29455745945588574,0.29616777080198675
119,0.295098070141604,0.2936924309738057
120,0.2951639111307885,0.2982737876904133
121,0.29546883770173116,0.29408530621615186
122,0.29457733887943816,0.29433679587745065
123,0.29414072524395873,0.29316688581254413
124,0.29447375171237905,0.2941889162362798
125,0.29470532202272776,0.29591634323866045
126,0.2943421430367646,0.2941511665495155
127,0.2941740499459487,0.2956304681423431
128,0.29369775568552725,0.29461330601147245
129,0.2942850478142381,0.2939657814736054
130,0.2941717799904821,0.2954764346156237
131,0.29373002329842746,0.2977162404801776
132,0.2937407672024078,0.2943554375476506
133,0.29359495069244973,0.2950291127178174
134,0.29378156165043706,0.29317677665528297
135,0.2934901467878089,0.2929703778136689
136,0.2933601642088543,0.2938188572708979
137,0.2935313003049861,0.29504340049687955
138,0.2936743066179381,0.29699774097060255
139,0.2936551352675489,0.2935203702175062
140,0.2937573442499129,0.29326063686218806
141,0.2934006802279124,0.29459644417736414
142,0.2928079880303521,0.29660011963196975
143,0.2930640032132276,0.29436621996673334
144,0.29325240356125515,0.29691266985323456
145,0.29279878920168995,0.2926080645824288
146,0.2927074163770981,0.2962154700423002
147,0.2929103666548725,0.29725790127300333
148,0.29240750375506785,0.29463732854155167
149,0.2922417179143114,0.2932641146073872
150,0.29258149962345187,0.2943902804377329
151,0.2928720138651385,0.29369791613005236
152,0.2920177196331924,0.2926894969938304
153,0.2919404125042099,0.2938831510182526
154,0.29175311675984605,0.293964695558834
155,0.2919336905677637,0.2913405652486535
156,0.2923366828478402,0.29306577878762347
157,0.29196702030827576,0.29446632902548836
158,0.2925212065474116,0.29371587796858567
159,0.2917687491023188,0.2944115812889497
160,0.2919158958178535,0.2930542753734453
161,0.29218075245166186,0.29573251675129314
162,0.29244844168781947,0.2935863497601594
163,0.2920846417248487,0.2935350088501127
164,0.29181064647450433,0.29175133882024296
165,0.29182312337995814,0.2932104061886186
166,0.29152555348013615,0.29146219464202705
167,0.29120147497438603,0.2948624721030692
168,0.2911057105000547,0.2959162098691514
169,0.290868329439613,0.2892989431814406
170,0.29020447749123396,0.2915104426261282
171,0.28982285290456217,0.2927747297776244
172,0.28948146520520474,0.29143899801498147
173,0.28898477771108766,0.2902777985314638
174,0.28950370768372485,0.2928726156583995
175,0.28973962782288815,0.29015875547159914
176,0.28887765527629167,0.28890273057294813
177,0.2889399728138479,0.2886713757087795
178,0.2892788290429554,0.2903690875611535
179,0.28918163007874187,0.2894202900996054
180,0.2895701735925903,0.2911608313705005
181,0.2893987489189747,0.2899877845817602
182,0.28996866783030406,0.29061230471403277
183,0.2893162478360055,0.29042704301079897
184,0.2891891180968685,0.2900336933070125
185,0.2891634182869006,0.2912947286417283
186,0.28906461343967277,0.29073982233594703
187,0.28944029558381495,0.2889462539127895
188,0.28910619730381465,0.28912378724108745
189,0.2889579021625763,0.2899944293705986
190,0.2893821190325,0.2895953187155931
191,0.2896543115996819,0.28909802020489933
192,0.28886650562834304,0.290102417156653
193,0.28914487813945583,0.29264296171414916
194,0.2884776087568628,0.28959961944710294
195,0.2887908949864378,0.2906928341644621
196,0.28865232090536447,0.2897612878724921
197,0.28864430749921394,0.28915599315488255
198,0.28817831512263636,0.29080488957941014
199,0.28878866849566914,0.29281529657183997
200,0.2887726349057816,0.28813044401069465
201,0.28860820109228624,0.29118274802661076
202,0.28881082419964144,0.2885207556182226
203,0.28811410853235747,0.29054263097711125
204,0.2886179558140673,0.29192090733087056
205,0.2879545508171443,0.29008309553717665
206,0.2886007260694969,0.28849380800313806
207,0.2880698043784554,0.2895043307905039
208,0.28869307833276303,0.28993008458059233
209,0.28858763844275076,0.2917743719461497
210,0.28834113159435065,0.28986202652000875
211,0.28881136647803035,0.291104662460705
212,0.28862976154787456,0.28995727885870265
213,0.28846562813988313,0.28988089247209026
214,0.28832184115378595,0.28802368287129393
215,0.2868166904417064,0.28902394529770187
216,0.28193489331707394,0.27012298945940283
217,0.27370796075684845,0.2773686165332606
218,0.2762749843495927,0.27647311800845326
219,0.2760127067303867,0.2761241559941842
220,0.2758307587936056,0.2760477354654479
221,0.2762309301742833,0.2768368112377605
222,0.27616701501426844,0.27751812944519494
223,0.27613840387950983,0.2758717457069218
224,0.2761725209218611,0.27693162877303745
225,0.27581492607756486,0.2766395160765185
226,0.27626154256715096,0.276343745715334
227,0.27617129091497994,0.27670263803042855
228,0.2761558415673429,0.2774176159381114
229,0.2761792967931258,0.2764468387227973
230,0.2760946985712345,0.2762992501305894
231,0.2757737856033704,0.27761472598153397
232,0.2761749231653343,0.27733251804099274
233,0.2761619473568541,0.2762795419629954
234,0.2760642886542969,0.27613210968596785
235,0.27603789723272043,0.27658388110343735
236,0.2761706889962121,0.27746187657376586
237,0.27633255683808783,0.27712267477303487
238,0.275901327649657,0.27719528281556965
239,0.2758371634699172,0.27753837313723545
240,0.2756414521488545,0.27710735512090273
241,0.27610040837816957,0.2773317281030348
242,0.2761828758948141,0.27711193606951334
243,0.2761649547470845,0.27692676372620284
244,0.2760708819357135,0.2782073203347853
245,0.27662799253071146,0.27638260100474954
246,0.27570609685828645,0.2762365947112194
247,0.27606337209590237,0.2764860485234219
248,0.27607072569983754,0.2763245544898388
249,0.2764109632820725,0.2755428544394878
250,0.276254671714384,0.27722351184819005
251,0.2760294800420269,0.27821806501288443
252,0.275981052733249,0.2767680819780693
253,0.275995973381493,0.2767160056539662
254,0.27611584470069095,0.2767442141048722
255,0.2758757359356427,0.2765234986933179
256,0.27583886373290817,0.2775269761128791
257,0.2760784748813612,0.27791174712290234
258,0.27555631459664576,0.2768801783800313
259,0.27615541786098363,0.276272297822874
260,0.275875420462218,0.27608412711189406
261,0.27569836237543016,0.2769066530861249
262,0.2758505297281283,0.27785017779471843
263,0.2760501064175515,0.27781280160138433
264,0.2758043670087314,0.27690259548934687
265,0.27585476779227824,0.2775100980839018
266,0.2756858102137522,0.27789617225751223
267,0.27573096103591027,0.2762757804253577
268,0.2759549483108959,0.2797706625126626
269,0.27563981707695484,0.27574130041258677
270,0.2759912396363503,0.2758648239117301
271,0.2764199119356039,0.2774803540254072
272,0.27575570466421206,0.2767639554737117
273,0.27622465032348625,0.27727122399029813
274,0.27622226492273244,0.2767593223416344
275,0.27576389691407543,0.2784364170673426
276,0.2756428830712724,0.2770184624849009
277,0.2757870420146522,0.275700574950995
278,0.275751984466037,0.2780966227837407
279,0.2756768713930814,0.27563807578800037
280,0.2756465629612704,0.27789015666932315
281,0.27589895950852156,0.2767506065148487
282,0.2756013847607598,0.2759636330529283
283,0.2757582238359417,0.2767646149353616
284,0.2755189818991936,0.2770904002692065
285,0.27556091843010616,0.2772766775095096
286,0.27603544559862786,0.27679061897881124
287,0.27584401689630617,0.2759335008468229
288,0.2760859652877235,0.27582610457923906
289,0.2756109071149529,0.27774459976282473
290,0.27582912084510286,0.2772161416774108
291,0.2761326642940751,0.2775537950981294
292,0.27562901452124167,0.275829644822284
293,0.2751730203235464,0.275746212456296
294,0.27554203147034373,0.2775866171578864
295,0.2753462936881063,0.27661975659577037
296,0.27531729227037643,0.27576145410961117
297,0.27490244282306814,0.27426145438049004
298,0.27457482730456106,0.2747887147159772
299,0.2748207206980025,0.27534530731101814
300,0.27419227843495203,0.2742700762958534
301,0.2735590725946579,0.2734959070359804
302,0.2734550128428103,0.2734176114542614
303,0.2724113934796205,0.27112202321626866
304,0.2702165447550712,0.2690335161096013
305,0.2672809666985993,0.26608067594509754
306,0.26756540067690454,0.2662490755554815
307,0.2687171790763724,0.26862633835168553
308,0.26953934820340597,0.2704170367547444
309,0.26936098724770413,0.26899537132448725
310,0.2695233639743593,0.2677225316826904
311,0.26951975325386013,0.27108856253531755
312,0.2711579053522014,0.2697086958266095
313,0.27003297265723264,0.27065470085524157
314,0.27072026051110404,0.2690653449663894
315,0.26997982077509,0.26887740230080454
316,0.2697020585802819,0.2689127877836822
317,0.2687249024220698,0.2689303251802216
318,0.26983128850765936,0.27401241837708895
319,0.2697481406297234,0.26854976275443276
320,0.2696904237452838,0.27346452215617345
321,0.2698084515907305,0.27084790741776327
322,0.26941549492706596,0.268984806859879
323,0.2696316292007669,0.27078171752998936
324,0.26918572345845326,0.27197776366710286
325,0.2699331959767593,0.27061264018139314
326,0.2697279230474854,0.2701776001452459
327,0.2698849713523611,0.27067349200749263
328,0.27002932857290257,0.27044099783370507
329,0.269986052974332,0.2700604335614425
330,0.2704808212143721,0.2713726153384068
331,0.2702659106285547,0.2701535157759357
332,0.27059256162741585,0.27231274575771264
333,0.269840048830048,0.2712658326881743
334,0.27006879996219507,0.270657921505426
335,0.2700332020648378,0.2718528279918522
336,0.26968095649918206,0.26967414130398676
337,0.26981268405652253,0.2731136882291032
338,0.26933155831792277,0.27112065822521153
339,0.26919043077219973,0.2685549456535029
340,0.26958325478456,0.270385186704671
341,0.2696050490907056,0.2703998139644102
342,0.2696035026872663,0.2697785448726934
343,0.2702629175915611,0.26982969292619613
344,0.26973862389175535,0.2708905860252426
345,0.2704565595451305,0.2713249991188486
346,0.27050170166601095,0.2699787541929906
347,0.2695362389349728,0.27167497347120045
348,0.2699876670166552,0.2702255113536952
349,0.2701254704718491,0.27208388595009003
350,0.2699777204796469,0.2692241918621989
351,0.2696433095075339,0.2700989280240029
352,0.26934002394036805,0.2698551415691436
353,0.26961318784051663,0.26927931041066444
354,0.26892747510846954,0.270360159869258
355,0.2693543368153911,0.2699535615865697
356,0.26946383702764504,0.2723619934368435
357,0.2692178385875684,0.26940452542094234
358,0.26978655923589717,0.27024969770245977
359,0.26949936370078703,0.26932161919413916
360,0.26964825897408334,0.26952762309029615
361,0.26992076039790724,0.2705404032330487
362,0.26995094007939746,0.2704854486091173
363,0.27028949244273937,0.27276075162705044
364,0.2703845357890133,0.27075637935792357
365,0.2702767787148341,0.2715924770674935
366,0.26979273345044474,0.27099997443812235
367,0.27047275125289516,0.27110591001555784
368,0.27030951139642945,0.27093709351372885
369,0.27036999523949373,0.27042854750777384
370,0.2701633640175624,0.2712319259603097
371,0.2706940189170704,0.2706017844561243
372,0.2702756392881929,0.2723791901766078
373,0.2707895392196165,0.27011487475980805
374,0.2703192866534638,0.27233422959801146
375,0.2702536319704841,0.27090656048167666
376,0.2703668538281481,0.2703661427619237
377,0.27028485877717806,0.2700764093468673
378,0.26997462318812626,0.27098249016592796
379,0.27038039455858826,0.2712878252731691
380,0.27005548707301097,0.27058187204735806
381,0.27022247991973547,0.2727996463745527
382,0.27013092938301375,0.2709888426473786
383,0.26997123653892513,0.2703462477711683
384,0.2700426879999258,0.2708248676116201
385,0.2701682775116844,0.26977047945160326
386,0.2702514291119328,0.2711650739293825
387,0.27045169324397467,0.27318385542144713
388,0.27012400289209815,0.2712355989730537
389,0.2703192985529522,0.2706655837954173
390,0.27053973555183713,0.2706489925814503
391,0.2699089130992703,0.2717774957183222
392,0.2702846338125251,0.27063338558506383
393,0.27025400670312294,0.2710066968964702
394,0.27024410013481676,0.2708189702918422
395,0.2700904914253145,0.2706446505924238
396,0.2704468630939174,0.2713770817233148
397,0.2698558431556471,0.27136807405958047
398,0.2699896025297929,0.2715918332479465
399,0.27035485111552177,0.2713392817466016
400,0.2701418346090378,0.2699800588149392
401,0.26995669913401515,0.2712805137779173
402,0.2699220952429741,0.27120160449652003
403,0.2698511869715844,0.27083521959060936
404,0.26982829984810525,0.2711738070800912
405,0.2698499868146712,0.2716574589027226
406,0.26972641628518473,0.2715031903916301
407,0.2698923005796165,0.27103405121799146
408,0.2700348787313457,0.271143292524538
409,0.2699383484254733,0.2709921486469922
410,0.26987503648256894,0.27069881478443614
411,0.269742493047941,0.2715039601007031
412,0.26979395574469456,0.2704743982043526
413,0.2699584585073278,0.2705697156988737
414,0.270029148889436,0.2699524200070817
415,0.26957956693179125,0.2708041185502848
416,0.27015721613911986,0.27062262141902144
417,0.2697707117675877,0.2715600853890251
418,0.2700432193555611,0.27085331598651063
419,0.2696362292464021,0.2714750929996548
420,0.2695352097840713,0.2712430153174389
421,0.2698412250033576,0.2720297504078241
422,0.26970837302773976,0.2706074877903042
423,0.26972218424224736,0.2721757512442597
424,0.2697672789617122,0.27188201426236575
425,0.2699025780808249,0.27055795684797895
426,0.26996048104515274,0.2707305172577371
427,0.26954261662600804,0.2707978061149698
428,0.269569870861743,0.2702691907382143
429,0.2698084144628972,0.27037745811803754
430,0.26990332495537306,0.270366501777588
431,0.2702369692978813,0.2705276202125256
432,0.26954022376871795,0.2708900547465096
433,0.26994744716859836,0.2699536448543055
434,0.2698573231053867,0.271067175570208
435,0.2701900951701293,0.27093100925317976
436,0.27017041600698666,0.2705079561838882
437,0.2702538941523059,0.2707562293113454
438,0.2701357259369678,0.27035341713498123
439,0.2699854426103816,0.2705987008331136
440,0.26992822605238065,0.2710810028481126
441,0.27010013741388217,0.2720042096881671
442,0.2704754172743177,0.27112642747968224
443,0.270435574314863,0.27145783516160127
444,0.27009986949076564,0.2708675841364977
445,0.2699163476233002,0.270876474049304
446,0.2704613201207013,0.271138727394445
447,0.2701969493648036,0.2704924411113185
448,0.2702732572821881,0.27155795306461294
449,0.27049271332965097,0.27095924972923324
450,0.27015488835976276,0.27093134217123016
451,0.2705809562909994,0.27086661173870175
452,0.27031746736580997,0.27120431666075007
453,0.27037313277367875,0.2705722202230083
454,0.2702914946418491,0.2705555137632019
455,0.2695689875599768,0.27001882960171614
456,0.27061289376158604,0.26983504356035776
457,0.2697829670554919,0.2701332262278356
458,0.2699623224880103,0.2712450793811253
459,0.27017261465485815,0.27021051014184766
460,0.26954155501058635,0.27210777487544063
461,0.2700418667386857,0.27205254016377933
462,0.27016772785418325,0.2747209783887524
463,0.2701908996660742,0.2704419353954794
464,0.2699692360729241,0.27082706585632316
465,0.26999860481440213,0.2703198562740056
466,0.270374180029908,0.2703383933538137
467,0.2700408239254086,0.2709756932135351
468,0.269946866297274,0.2709144090420633
469,0.2704521692711577,0.2708509009046261
470,0.2701949329017926,0.271105704327785
471,0.2705514944678874,0.2710057935944296
472,0.2704691821746498,0.2700570946193249
473,0.27001891306025994,0.2720291486573012
474,0.27069391565714523,0.2724605783784869
475,0.2702859034128993,0.2705376046138574
476,0.27042176569108484,0.27061793616228247
477,0.2700793810432954,0.2711294767841544
478,0.26993950618375884,0.27111862880937115
479,0.2704818794171778,0.2714418665150911
480,0.27044946941540393,0.2708967767697013
481,0.27028601152671994,0.27063949277952326
482,0.2705688188425738,0.27109402354627304
483,0.26999182849050424,0.2705717657434724
484,0.27051016762197544,0.2726789482861122
485,0.27081396936965313,0.27202602651708224
486,0.27051062775935103,0.2712384940557999
487,0.27009978715917,0.2717157535743036
488,0.2701586096359195,0.271494101730029
489,0.2699709776803839,0.2699488619814356
490,0.27021335510255623,0.2708853106260676
491,0.2696524890218612,0.2709489416069371
492,0.26994458456143294,0.2703374776909835
493,0.26943171602620974,0.26979931571536303
494,0.27014054568837303,0.27036903112915056
495,0.26965094597743666,0.2713831333353845
496,0.27004711964219025,0.2705109029561399
497,0.2701497609011656,0.270672130803471
498,0.2700867895170939,0.272512849899569
499,0.27030334391182276,0.27034848537987016
500,0.2703340524951998,0.271373316222227
