epoch,loss,val_loss
0,0.08811124831996858,0.0372787009999156
1,0.03613721698150039,0.03470847464352846
2,0.03353772318735719,0.03312559453770518
3,0.030356454430148005,0.027307742860168217
4,0.027951922507956625,0.028217979855835438
5,0.027650466246530413,0.026406211342662574
6,0.027443834772333503,0.026348274786025284
7,0.027286241190508008,0.025926063399761914
8,0.027423213491216302,0.02650110664591193
9,0.02729343405738473,0.026114683259278536
10,0.027164959963411093,0.02560370398685336
11,0.027329089362174274,0.026457870408892633
12,0.027184027560055255,0.03261313851922751
13,0.027204368989914657,0.028011796087026596
14,0.0271100237891078,0.026761524867266417
15,0.026996144944801927,0.027954188358038663
16,0.027067031633108855,0.02686655155941844
17,0.026895679496228696,0.026104628022760153
18,0.026997468046844005,0.025536943417042494
19,0.026952430406585334,0.02610646151006222
20,0.02684862813167274,0.02676901788264513
21,0.027035613609477878,0.02677410139515996
22,0.02694245110079646,0.02638276256620884
23,0.0267489904910326,0.026198308665305377
24,0.02681398616731167,0.02572544877231121
25,0.026890594171360135,0.02654174829646945
26,0.026871164651587606,0.025756308514624834
27,0.02685055843181908,0.025885585967451333
28,0.026932320050895214,0.025714971877634524
29,0.026664607234299184,0.02617525301501155
30,0.02674266935698688,0.025720334012061356
31,0.026921972818672656,0.026518658626824617
32,0.026799782156944275,0.026125573970377444
33,0.02674778288975358,0.025630983252078295
34,0.026639413556084037,0.026023898258805276
35,0.026737561641260982,0.026011336356401443
36,0.02659346529468894,0.02586205790564418
37,0.026716232225298883,0.028171630166471003
38,0.026748348576948047,0.026312950775027277
39,0.02665457049943507,0.026782328587025405
40,0.026733073964715005,0.02546584664285183
41,0.026667454212903976,0.02622509006410837
42,0.026631486998870968,0.029807221680879594
43,0.02669537931866944,0.02660906605795026
44,0.02653838835656643,0.025872992429882287
45,0.02666609755344689,0.026268023286014797
46,0.026578599009662866,0.02590462037175894
47,0.02654373640008271,0.025661950539797543
48,0.026658965403214097,0.025438810549676418
49,0.02648894420824945,0.027965936299413442
50,0.02655475557409227,0.025440290175378324
51,0.026598377272486685,0.025579802878201007
52,0.026542649511247872,0.02546502734348178
53,0.026565917372703553,0.02582608634233475
54,0.02645669756270945,0.0255957816131413
55,0.02659980097785592,0.02768617321550846
56,0.026499122047796846,0.025579102091491224
57,0.02651051157526672,0.027329800423234702
58,0.026542316256091,0.025869156714528798
59,0.026363579124212264,0.025477678399533032
60,0.0265379262175411,0.025390785418450832
61,0.02648410383053124,0.025986453045159577
62,0.026532865028828383,0.02570794892311096
63,0.02651514219492674,0.025710335325449706
64,0.02642635734193027,0.025762900177389383
65,0.026365656657144427,0.02577928326651454
66,0.026439391860738397,0.025859240137040614
67,0.02644917239435017,0.02583427679166198
68,0.026361103100702166,0.026570059671998023
69,0.026380682995542883,0.025698605183511972
70,0.02660908753424883,0.025431370440870522
71,0.02638992727175355,0.025996004916727544
72,0.026458004819229244,0.025718245562165974
73,0.026567039761692286,0.025762792248278855
74,0.026428471431136132,0.02552487139031291
75,0.026369690299034118,0.027589325204491616
76,0.026594082927331328,0.026075867988169195
77,0.026280406447127463,0.026231947790831326
78,0.026492942253127694,0.02643614213913679
79,0.026366500910371543,0.025538592867553233
80,0.02653341582044959,0.025353315208107234
81,0.02642201093956828,0.025621659263968467
82,0.026361070185899733,0.026224648270756008
83,0.02656425954774022,0.026066099092364313
84,0.02629134463891387,0.02627102480083704
85,0.02652705711685121,0.03151952548325062
86,0.02639276706799865,0.033681105479598045
87,0.02638627455942333,0.025414015632122755
88,0.02643679377436638,0.025930036008358002
89,0.02642137804813683,0.025608255110681058
90,0.026609105136245488,0.025482275549322368
91,0.026368513038381933,0.02543826649710536
92,0.02644368267990649,0.025699196990579366
93,0.026394201073795556,0.025510229729115964
94,0.02637933461368084,0.02554331374540925
95,0.026357891611754895,0.026088496297597887
96,0.026356312181800602,0.025445540588349105
97,0.026313927587121724,0.0256336857303977
98,0.026362970031797887,0.02552939695492387
99,0.026412952067330478,0.02564627581834793
100,0.026211880154907705,0.026298412911593915
101,0.02647900956682861,0.025405694048851728
102,0.026296089759096503,0.025572165586054324
103,0.0262767254114151,0.026153129912912847
104,0.0263039845302701,0.0269245327077806
105,0.026359775038436055,0.025369824580848216
106,0.026370295133441687,0.025739877931773663
107,0.02627922933921218,0.025973064471036197
108,0.02633872439712286,0.02526905934885144
109,0.026275853952392937,0.02545445282384753
110,0.02648832662962377,0.025439535602927207
111,0.026286962298676372,0.025302782159298657
112,0.026328267104923725,0.025537105597555638
113,0.02628470378369093,0.025715350218117237
114,0.02643010805360973,0.025649759169667958
115,0.026336366934701802,0.025373507536947726
116,0.026267411287873983,0.026073901902884247
117,0.026294059520587325,0.02610948966443539
118,0.0262519766241312,0.025508562359958888
119,0.026404903765767814,0.025494938410818575
120,0.026255760706961156,0.025537515189498664
121,0.02624866825900972,0.025697468128055335
122,0.026302517805248497,0.027672408789396287
123,0.02627942439727485,0.02534488855674863
124,0.026387341108173132,0.02576155783608556
125,0.026314668515697123,0.025705237571150064
126,0.02632273100875318,0.025518264811486006
127,0.02620241302624345,0.026366556651890277
128,0.02632345866598189,0.02609835419803858
129,0.026308309849351643,0.026839511293917893
130,0.02626349663361907,0.025399244111031293
131,0.02633884293958545,0.02547862919420004
132,0.026247111612930894,0.025289794202893973
133,0.02640618464909494,0.02561550822854042
134,0.026313644720241426,0.025734093774110078
135,0.0262945706397295,0.02548451054468751
136,0.02630345113389194,0.025853450272232296
137,0.026284491328522563,0.025489134449511765
138,0.026248042879626156,0.025701036147773266
139,0.026319859774783252,0.02594840821996331
140,0.026233909483999014,0.025384240951389074
141,0.026206239333376288,0.025485668390989303
142,0.026292194347828625,0.02553083885088563
143,0.026251760328188538,0.025386938598006965
144,0.026291104599833488,0.025385638035833834
145,0.02640189693123102,0.025393188301473857
146,0.026172931257635354,0.025574491523206233
147,0.02626425292901695,0.0253597826436162
148,0.026316237213090062,0.02606150982528925
149,0.026232766814529896,0.025727746564894915
150,0.026262009333819152,0.025350779429078103
151,0.026259443992748856,0.02567880355194211
152,0.026298079781234263,0.025909700658172368
153,0.026239810544997452,0.02530643244460225
154,0.026316014053300023,0.025900521416217088
155,0.0262476095110178,0.025812123235315086
156,0.026394899237900973,0.025381714642047883
157,0.026333036310970784,0.0253175865188241
158,0.026240532901138067,0.02595201887562871
159,0.026229324463754894,0.025390160214155914
160,0.026418027095496656,0.02556349754333496
161,0.026174787433817983,0.026737780801951886
162,0.02625320300087333,0.02623937326297164
163,0.026247956631705163,0.025415197867900134
164,0.026397747883573176,0.025354537796229124
165,0.0261163080483675,0.026584112245589493
166,0.026267568225041033,0.025580994598567487
167,0.026238680763170125,0.025388599682599305
168,0.026313634825870395,0.025925020918250084
169,0.02620129825361073,0.025834291964769364
170,0.026200698690488935,0.025673151057213545
171,0.026225252470001577,0.025911489013582468
172,0.026261292748153208,0.025378996677696705
173,0.026234467469155788,0.025385043125599624
174,0.02621146419271827,0.025246577251702547
175,0.02615256480500102,0.025439525816589596
176,0.026305881297215818,0.025415824223309756
177,0.026212391065433622,0.02534461620822549
178,0.026224786745384334,0.025409173458814622
179,0.026194575557485222,0.025307980712503196
180,0.026353954147547484,0.02563488593697548
181,0.026236265733838082,0.025846408784389496
182,0.026165371362119914,0.026478919453918934
183,0.026228848958387972,0.025466700807213784
184,0.02631498247385025,0.025427227426320316
185,0.026233441971242426,0.026724395889788866
186,0.0262958962097764,0.026888866174966098
187,0.026159375835210084,0.025648188766092064
188,0.026279297033324836,0.025507266018539667
189,0.026296886013820766,0.02593604200333357
190,0.02619756326638162,0.025602140609174966
191,0.02628138316422701,0.025312421426177026
192,0.026223259510472417,0.02537096567824483
193,0.02625300619378686,0.025709221228957177
194,0.02613937658444047,0.025272814262658358
195,0.0264089911878109,0.02532514601573348
196,0.026151498613879085,0.026540102254599334
197,0.02618770657479763,0.025828422129154205
198,0.026298138638958336,0.02816785051673651
199,0.026249512223526835,0.02552672474458814
200,0.026231923172250392,0.025398870918899776
201,0.026248766597360373,0.025676892179995775
202,0.026254972415044903,0.025718922078609468
203,0.026196257039904594,0.025318830844014883
204,0.026214639235287905,0.025402206756174564
205,0.026132419403642415,0.02540915820002556
206,0.026296338936313987,0.029042208522558212
207,0.02620405419357121,0.025860425990074872
208,0.026204601481556893,0.02535768936574459
209,0.02612813120149076,0.025445426519960165
210,0.02618428086489439,0.025228084586560725
211,0.026242526181042194,0.025514071244746448
212,0.026212707554921506,0.026215276010334493
213,0.026201024375855923,0.025642581231892107
214,0.02625195303745568,0.02644691701233387
215,0.026170271588489412,0.025445667754858733
216,0.026181249767541884,0.025300158962607382
217,0.026264642108231782,0.025491062462329864
218,0.026261063508689404,0.025708014246076345
219,0.02618126778677106,0.025310544334352016
220,0.02615195050276816,0.02534037224575877
221,0.026279075287282468,0.02527639837935567
222,0.026244694095104933,0.025741210829466583
223,0.02626162677630782,0.025987380053848028
224,0.026295899786055087,0.02583128522709012
225,0.02622916125319898,0.025234107907861472
226,0.026282821023836733,0.02559518250823021
227,0.02613090298138559,0.02535164339467883
228,0.026268270142376423,0.025745157673954962
229,0.02617943965084851,0.025571481235325336
230,0.02611086970195174,0.025959078043699263
231,0.026213207453489304,0.026868629951030017
232,0.026264712033793332,0.025292286798357964
233,0.026170292671769856,0.02578209626674652
234,0.026315697899088265,0.025551481515169144
235,0.026164311392232777,0.026185761258006097
236,0.026150643343105913,0.025511643081903457
237,0.026418257635086775,0.025798366107046604
238,0.026179894054308532,0.02541266414523125
239,0.026158169984817504,0.02723246606811881
240,0.02624247700162232,0.02544209686294198
241,0.026130018703639506,0.025663993645459415
242,0.02619758707843721,0.025294829223304987
243,0.02618400428816676,0.025437016710639
244,0.026091401116922496,0.025441091421991587
245,0.026269554410129785,0.025289538811892272
246,0.02612544526346028,0.02717933352664113
247,0.0262077514603734,0.025454579949378966
248,0.026234552651643754,0.025374636970460416
249,0.026104761680588125,0.025375466000288723
250,0.02615940710902214,0.025569738090038298
251,0.026240497456863524,0.02632697173207998
252,0.026152820942923427,0.02739840464666486
253,0.026219562539830803,0.02529966573789716
254,0.026242208736017347,0.025393628507852553
255,0.026158077515661717,0.025469267915934325
256,0.026159767692908644,0.025357243705540895
257,0.02616118948161602,0.025303759329020976
258,0.026163419861346484,0.02541087209433317
259,0.026229560259729622,0.025596092991530896
260,0.026116495897993447,0.025482083477079868
261,0.02621208380535245,0.025524655155837538
262,0.0262405996453017,0.025400161363184452
263,0.026235951187089084,0.025412481691688298
264,0.026151548124849797,0.02524567762762308
265,0.026194275939837097,0.02546454444527626
266,0.026113160610198975,0.026107282023876906
267,0.026249276854097843,0.0252694268040359
268,0.026242092516273262,0.02595554221794009
269,0.02618038239888847,0.025427618857473137
270,0.026167613374069334,0.0265315807685256
271,0.0262302806340158,0.026183581538498403
272,0.02616051851771772,0.025292944185435772
273,0.02616623330116272,0.025395297046750785
274,0.02619329547137022,0.025865915481001138
275,0.02617736834101379,0.02944583059474826
276,0.026259558521211146,0.02522907701134682
277,0.026244994938373567,0.025223467268049717
278,0.026128745768219233,0.02542032281681895
279,0.026145160974934696,0.025454705949872734
280,0.02617077878676355,0.026077710807323455
281,0.02625813776999712,0.025332735639065504
282,0.02627074577473104,0.02552153281867504
283,0.026166668236255644,0.025566971085965635
284,0.02620431334897876,0.02552098497748375
285,0.026189936354756357,0.02602028313651681
286,0.026199394227936865,0.025315785471349956
287,0.026102516947314143,0.025537641942501067
288,0.02631396159902215,0.025503876488655805
289,0.026098406745120883,0.025477222263813017
290,0.026266127927228808,0.025458252251148224
291,0.02617352366261184,0.02546339862421155
292,0.026177952406927944,0.025459344737231732
293,0.026262490034103393,0.025568230286240577
294,0.0261640550121665,0.02530107808113098
295,0.026133350746706127,0.0253504796102643
296,0.026359847782179712,0.02533052175119519
297,0.02612399233877659,0.02539520635455847
298,0.02615848769620061,0.025349229756742715
299,0.02622518683038652,0.025292130656540394
300,0.02618241585418582,0.025659177929162977
301,0.02619529198296368,0.025447247333824634
302,0.026273001616820692,0.025898825719952584
303,0.026279971070587636,0.02557749467343092
304,0.026145731441676617,0.02536828391626477
305,0.02609427171573043,0.025281433891505004
306,0.026220093371346592,0.025340547412633897
307,0.026129240894690157,0.025274679467082024
308,0.02611873162910342,0.02526108045503497
309,0.026293904641643166,0.0253428667858243
310,0.02636111127398908,0.02530631473660469
311,0.0263102161064744,0.025372528817504646
312,0.026183448664844036,0.026059951040893793
313,0.026217296866700053,0.0253185258731246
314,0.026220242956653237,0.025220007929950952
315,0.026169325506314636,0.025323892395943404
316,0.026121970396488906,0.025318484246730805
317,0.026219620183110238,0.025283743720501663
318,0.02617792391590774,0.02540479812026024
319,0.026152330461889504,0.025909969817847014
320,0.02617591942474246,0.025275083020329474
321,0.026127712847664953,0.025381257224828004
322,0.026320873910561204,0.026713339377194643
323,0.0262618416082114,0.02566346437856555
324,0.026117063000798225,0.02545902444794774
325,0.02619527127407491,0.02541148753091693
326,0.026120623277500272,0.025504148043692113
327,0.026237579591572285,0.025360311567783355
328,0.026181682284921407,0.025302051495760678
329,0.02621403338201344,0.025860549710690975
330,0.026195028429850935,0.0321068140566349
331,0.02624548706971109,0.026122685421258212
332,0.02622623310983181,0.02522453774884343
333,0.026117015397176147,0.02574502070248127
334,0.026228960724547504,0.0255345738530159
335,0.026123912857845426,0.025416644655168057
336,0.02622075462527573,0.02526924239099026
337,0.02610205445624888,0.025453175444155932
338,0.026140838565304875,0.026092836853116752
339,0.026248765425756573,0.02535751546919346
340,0.026262148458510638,0.02975019755959511
341,0.026241302836686374,0.02535960879921913
342,0.02607406139373779,0.0260055923871696
343,0.02610874625109136,0.025507652293890716
344,0.02630538292042911,0.02571327878534794
345,0.026157916314899922,0.02567547981441021
346,0.026269528914242984,0.02557022910192609
347,0.02607887559570372,0.02574564864113927
348,0.026480436561629177,0.025770303174853324
349,0.026217191895470022,0.02585494079440832
350,0.026152755811810494,0.0277980614900589
351,0.02620392003841698,0.025557309426367282
352,0.026258560793474318,0.025448576830327512
353,0.0261667114906013,0.025317149091511965
354,0.026198408477008342,0.02664923221617937
355,0.026263821575790644,0.025690080035477878
356,0.02619702989049256,0.025920197542756797
357,0.026254684519022704,0.02540771659091115
358,0.026096947614103555,0.025369716111570597
359,0.026242893056944012,0.02539750350639224
360,0.0263021576795727,0.026150872413069008
361,0.026135060446336865,0.025532268710434437
362,0.026263039896264672,0.02543829820305109
363,0.026132876178249716,0.025289756059646607
364,0.02631541578285396,0.025483561292290687
365,0.026156430454924703,0.025621939361095428
366,0.02622204245813191,0.025347742199897765
367,0.026065245851874353,0.025324219975620507
368,0.02626384388282895,0.025427745871245862
369,0.02615861410088837,0.02540735688433051
370,0.026150140583515166,0.025355704586952924
371,0.026192707244306803,0.02580074404552579
372,0.026183727646246553,0.02975581203773618
373,0.026145441895350813,0.02548711382970214
374,0.026236007809638976,0.02574230645224452
375,0.02620087091065943,0.025828946746885777
376,0.02616370292566717,0.02542270252481103
377,0.026091125819832087,0.026149152021855117
378,0.02621133465319872,0.02538459939882159
379,0.026156142653897405,0.025872034024447203
380,0.026180506801232694,0.025349784392863513
381,0.02622284775041044,0.025301889739930628
382,0.026133280726149677,0.02549092446267605
383,0.026265400944277643,0.026113847251981497
384,0.02609275960177183,0.02541383808851242
385,0.02619889553450048,0.026513416100293397
386,0.026164037764072418,0.0252817026861012
387,0.026200958702713252,0.025884253170341254
388,0.026122345907613635,0.025432694476097823
389,0.026253622405231,0.025455994140356777
390,0.026120475959032774,0.025421009931713343
391,0.026125823238864542,0.025528085969388485
392,0.026153680872172118,0.025459551371634005
393,0.02619541403464973,0.025299680050462483
394,0.026124781457707285,0.02634599867090583
395,0.026200289955362676,0.025495909180492164
396,0.02619439563341439,0.025362490955740214
397,0.02622445961833,0.02556157072633505
398,0.026112231438979505,0.025748306304216383
399,0.026323637409135698,0.025257182970643045
400,0.02608735315129161,0.025296802077442407
401,0.026255917079746723,0.02589831781759858
402,0.0261811230443418,0.02547203778848052
403,0.02615205448307097,0.025594233486801385
404,0.026295145021751523,0.025613043032586574
405,0.026087170038372277,0.02550047267600894
406,0.026115369979292154,0.025747904494404793
407,0.026174156429246066,0.02584665057808161
408,0.026194571197032928,0.026660804860293864
409,0.0261236684191972,0.02534645304083824
410,0.026179433749988674,0.026081096172332764
411,0.026215068936347962,0.025599299423396588
412,0.02620530596189201,0.025465864673256875
413,0.02623838168941438,0.025363932620733977
414,0.026090514892712236,0.02557263557240367
415,0.026181644087657333,0.025583997897803783
416,0.026196980653330683,0.025461477685719727
417,0.026095398981124163,0.026053838811814785
418,0.02616403551027179,0.02556317672505975
419,0.02621612960845232,0.02578961017727852
420,0.026216894196346402,0.02580561663210392
421,0.026099355407059193,0.02546087647974491
422,0.02623051606491208,0.026127502676099538
423,0.02613821860589087,0.027220870800316335
424,0.02615056108497083,0.025412295151501892
425,0.02621450419165194,0.025454463481903077
426,0.02616277927905321,0.025387636650353672
427,0.02619586249627173,0.025471967816352845
428,0.026161866324022412,0.025731024079024792
429,0.026211631359532476,0.025461131609976293
430,0.026164361407980324,0.025606369562447072
431,0.026160583771765233,0.02537493057176471
432,0.026155810248106717,0.026718168508261444
433,0.026134658951312305,0.025272203758358956
434,0.026216236418113114,0.025469722360372545
435,0.026124417021870613,0.025284780446439982
436,0.02632671805098653,0.025905528604984282
437,0.026150766890496016,0.02545350670441985
438,0.026130285585299135,0.025315674863755702
439,0.026170520110055804,0.025316160321235657
440,0.026192345259711147,0.02565909841656685
441,0.026197957791388036,0.025433528531342744
442,0.0261463092379272,0.02610809324681759
443,0.026182246569544078,0.025284579712897538
444,0.02616656090132892,0.0252880688495934
445,0.02613168560154736,0.025546233776956796
446,0.02612530315667391,0.025230779718607665
447,0.026278279099613427,0.025332841787487268
448,0.02608437385596335,0.025277256019413472
449,0.02622067002207041,0.02622883939743042
450,0.026222561461851,0.025324035953730346
451,0.02611315730214119,0.025615348864346743
452,0.026269526906311513,0.02775788715481758
453,0.02612511479854584,0.025449902202934027
454,0.026126496179029346,0.02539329529553652
455,0.02620565266162157,0.025346974905580282
456,0.026175128553062678,0.02555515082925558
457,0.026123725945129992,0.025421603202819824
458,0.02626925884746015,0.025298970803618433
459,0.026112420834600924,0.025692891240119933
460,0.026091500671580434,0.026200759410858154
461,0.026249373978003858,0.025313687440007924
462,0.02612208252027631,0.02539936563000083
463,0.02617554452829063,0.025299426022917033
464,0.026220717867836356,0.02555105818808079
465,0.02613144888728857,0.025472983878105877
466,0.0262018925473094,0.025352153692394495
467,0.02607939424365759,0.025517371483147144
468,0.02626329328492284,0.025337163243442772
469,0.026175365993753075,0.02541309641301632
470,0.02622523465566337,0.02527568681165576
471,0.026157068736851214,0.025658339850604533
472,0.0261555363163352,0.02558175090700388
473,0.026190337888896464,0.02528642889857292
474,0.026171478806063533,0.02535768770426512
475,0.026140687238425015,0.025324106499552728
476,0.026155741587281227,0.025566742904484272
477,0.026217951774597167,0.025322727780789138
478,0.026169776640832424,0.02578430873528123
479,0.026161463426426054,0.026234300553798676
480,0.026195376753807068,0.025597679194062948
481,0.026155366139486432,0.025438857030123472
482,0.026123364221304655,0.025401970025151967
483,0.02617367100343108,0.025487423565238716
484,0.02619738279096782,0.02536360603943467
485,0.02617537144199014,0.025438527267426254
486,0.02614509090408683,0.02531690062209964
487,0.026303954001516104,0.02535282741487026
488,0.02618520849943161,0.02572715736925602
489,0.026191929791122674,0.026158529054373502
490,0.026154816890135407,0.02548221616819501
491,0.026143359187990427,0.02545463614910841
492,0.026199570577591657,0.025759822104126216
493,0.026164320878684522,0.025330308828502894
494,0.02625519650429487,0.025789995010942222
495,0.026135915845632553,0.025331968177109955
496,0.026362942930310964,0.025387804701924324
497,0.026167242854833603,0.02562464341521263
498,0.026114494532346724,0.02549079229682684
499,0.026201188391074538,0.025794125590473414
500,0.026181170342490078,0.02545322837308049
