epoch,loss,val_loss
0,0.4155338569354114,0.40149898082622165
1,0.4068938074014586,0.4018566169007851
2,0.4004217096096616,0.39719221841873237
3,0.3945589281493325,0.3884755093347514
4,0.3920946012111642,0.3873995741691806
5,0.39227826246101444,0.3909001854601084
6,0.3915471963172822,0.3918364186984973
7,0.3907315597665892,0.3889713564831748
8,0.39119691770371673,nan
9,0.39417971022802895,nan
10,0.39114996724075274,0.38941267640341226
11,0.38864440672558914,nan
12,0.38819768935370386,nan
13,0.38831399544011697,nan
14,0.38900861708377243,nan
15,0.38773487984919375,nan
16,0.387238950992795,nan
17,0.386591459992077,nan
