epoch,loss,val_loss
0,0.13369804512646843,0.05533135849644372
1,0.02603042671616248,0.018604740628350786
2,0.01742987176790524,0.012945555426891901
3,0.013238802897839916,0.013153520602388889
4,0.013176338001564562,0.013136799870633712
5,0.012041746253083697,0.008116741035495251
6,0.011523678217814278,0.011494659105699507
7,0.010344753916699924,0.010726630840606358
8,0.010566665436797065,0.009649571235679038
9,0.010065405750736523,0.013967306493548493
10,0.010645305231432442,0.006217712620986242
11,0.009748535943764755,0.011409981303422726
12,0.00988177951884275,0.00841078389033193
13,0.01012625701358463,0.00917410736516906
14,0.009409990953765423,0.013602161989492182
15,0.008952201238359145,0.009018139056596779
16,0.010126477204744133,0.00935771016237909
17,0.007704795196579455,0.009064494699810138
18,0.008984562917910279,0.008008753382119378
19,0.009283580208498,0.006918076674609012
20,0.009164002884237422,0.01022279130378716
21,0.009797570877987669,0.010054136863847181
22,0.009130586410774369,0.010584826010037521
23,0.008244679012945552,0.006077938317302864
24,0.008314688917812256,0.005919735056907526
25,0.007980104793960469,0.005129812016639191
26,0.008130902571672146,0.007203557132357392
27,0.00840542025303544,0.006493334942177562
28,0.008020780510458944,0.007670367928993636
29,0.008449824029791187,0.013627950251308264
30,0.007989229517523571,0.007729919626573784
31,0.008451811748919347,0.005727465199078738
32,0.00815893115652956,0.010915650590672066
33,0.00915513868736986,0.006971105765227902
34,0.007621023284872885,0.00551555691736779
35,0.008935992345608455,0.0047388403406682785
36,0.00782144402902347,0.010823475113160608
37,0.00929049236367164,0.00637950437899088
38,0.008041452483938848,0.007376830624276809
39,0.0074110877340760745,0.009059883221901583
40,0.007855431251633588,0.007690815407203564
41,0.009203073500523821,0.006315082210191799
42,0.00801883758470821,0.005029891607305292
43,0.008363260838428704,0.012751571751025453
44,0.006807931044848441,0.005056203066958695
45,0.007017471103018506,0.007259546962493903
46,0.0077857030425324955,0.009045910563587483
47,0.008800472463216844,0.005344303548277224
48,0.007692981708730064,0.008352218891163934
49,0.00896866732326483,0.007140031314859991
50,0.007567628864388761,0.00822505529421575
51,0.008026125452233305,0.010725913306914312
52,0.00851803378880971,0.0056499756204483305
53,0.007118469790286041,0.00780760408096139
54,0.007127378763687566,0.0035983741108104646
55,0.008416863816357006,0.007595007744086311
56,0.007882214517970618,0.005897149615630731
57,0.007961106442323,0.012924310255092998
58,0.007692849925003773,0.00596856948351392
59,0.007699950693192319,0.007641933027040375
60,0.007364586019310817,0.00680858678836449
61,0.008101409088710784,0.00948992461971674
62,0.006838793299800391,0.006881977983507098
63,0.006159640149865523,0.005976301866371094
64,0.007084816859437258,0.004946269853527186
65,0.0068227826142318836,0.005498278652330318
66,0.007345499716223411,0.008032029232226354
67,0.008228561347558928,0.005537862621171322
68,0.007090076286201294,0.004978307537902103
69,0.007212588677185027,0.01065282502903323
70,0.00804841062409519,0.005851663603875918
71,0.007477676486417794,0.007900343250833164
72,0.007213855047987924,0.00692953625414594
73,0.00762215329220237,0.005419324347697898
74,0.006974613001152462,0.008024405661585205
75,0.008168662231576314,0.008162152502485849
76,0.007041348269760913,0.006709493034766971
77,0.007265875393489032,0.008248747815616905
78,0.0068214724697790545,0.007643384367577444
79,0.007302658945537187,0.007347530500129771
80,0.006475747746082661,0.005666926862258867
81,0.006593645651185279,0.009527359744379533
82,0.007733994573957736,0.00463615578908735
83,0.007652684212304937,0.005911774369178674
84,0.007045186132558888,0.005532024385614854
85,0.007457493772848601,0.0055281868771941715
86,0.006968661361905507,0.005514289409395575
87,0.006478340835679028,0.006330899090815597
88,0.007745726631755541,0.006968820864891879
89,0.007120993425998893,0.008035592587433913
90,0.006981372391971812,0.006614112254046933
91,0.0067214179258469,0.005656451271330878
92,0.006038870879182433,0.00716289473203582
93,0.00647162821794898,0.006994272393322217
94,0.007063371511429346,0.007224833414152605
95,0.007337509585971788,0.011834835659362664
96,0.0067009510397784515,0.007307277978769112
97,0.006646526897762367,0.00950572673516567
98,0.006780264939242553,0.005976909100450722
99,0.007240590339487077,0.007792847571731343
100,0.00800382733388955,0.005988983297022243
101,0.0069769698245969,0.0046792324256054885
102,0.007391617068634491,0.011491234681841747
103,0.006764039527892852,0.007075870342717315
104,0.006346112288583776,0.005129000865181742
105,0.006970172272630327,0.005148313445610236
106,0.006364985435775263,0.006863318268656613
107,0.007550024791050413,0.006836104666154123
108,0.007177962945010379,0.006471637288004089
109,0.006380758563735538,0.00873532164297945
110,0.0071635330298753215,0.008350046082887131
111,0.007040184367240386,0.011751496130872544
112,0.006650141491513732,0.005424544551125312
113,0.007181270220551452,0.0076073427337656225
114,0.005683496766585967,0.006324558359686206
115,0.006847141555966072,0.007057733597100111
116,0.005626442434033937,0.007475429870211758
117,0.00651160465487518,0.0061034153674265346
118,0.006652745117487715,0.003954379928122615
119,0.0070340804635457025,0.005285126033614683
120,0.006424431481657715,0.0065354938904042545
121,0.0063360755514765945,0.007424145405884206
122,0.006797296549122837,0.006470661455634526
123,0.006476875393559112,0.010001575522824546
124,0.006804090470531963,0.00987317832664608
125,0.00656623713034529,0.007195114750185748
126,0.006434003837860013,0.007169826499068111
127,0.006355185584491975,0.008980935185871307
128,0.006200905553240934,0.007816709871694222
129,0.00641331001552273,0.004959720618737643
130,0.00658447087498949,0.008594073476483008
131,0.005638631655358903,0.0035560669617443665
132,0.006709087274702106,0.00818218225091343
133,0.006693313212999754,0.007904490267441864
134,0.006846205480742923,0.006469890154418906
135,0.0065858804614846705,0.007445132448437205
136,0.007255638603304924,0.006161505518144477
137,0.006740404698766208,0.007537907527152511
138,0.006807224769934381,0.01177991797005274
139,0.006598363000751405,0.00421907926447272
140,0.006023756718150616,0.005083877406205803
141,0.005949648181188682,0.007011485140514873
142,0.005488722254041967,0.00457290622119769
143,0.005685312664050677,0.007273159893972016
144,0.0068922197522720595,0.0044152862532027565
145,0.006815372355863732,0.006013858961580937
146,0.006541902163653351,0.006671182920416816
147,0.00647876036002023,0.005232412444137995
148,0.006224615199079694,0.00519053744712305
149,0.006263133991665269,0.005562526802366986
150,0.00602423667125657,0.009727360841677758
151,0.0063483584018946765,0.004317363982119001
152,0.006681491716781246,0.008326352741157646
153,0.005809484297211627,0.008434960371634579
154,0.005864062391930252,0.008630827935919719
155,0.006121713798202807,0.008862588364239884
156,0.006191002184541511,0.006101595306946898
157,0.006209247209839701,0.004130189232976597
158,0.0069433089926746565,0.005806380399556474
159,0.006657204550071556,0.011091634647328269
160,0.005981172273158104,0.005253526487629552
161,0.006193573129170542,0.007655055135350319
162,0.006438961950689852,0.004890618238292323
163,0.005309073306485374,0.004389571283239028
164,0.005433282525137925,0.005040400654545029
165,0.006377155299493514,0.008384821200691863
166,0.005910961323497381,0.007837572638548163
167,0.005823301136412536,0.0068953386382967965
168,0.0064406938690634115,0.005683495377535154
169,0.0068212612575816395,0.009234128511071958
170,0.005642806836902696,0.005446299679736124
171,0.005324935603743162,0.0052269302869411135
172,0.005684319098083992,0.0034462043457982833
173,0.005916157261569717,0.007634370428257885
174,0.005782921841519949,0.006874862303788279
175,0.006520728768537388,0.008402375946881363
176,0.006182917880808576,0.004735770203825895
177,0.005873068161089149,0.004793047959362792
178,0.005166497421458358,0.00449120896907366
179,0.00547299359329149,0.0048745482125052714
180,0.005305411571601062,0.00432279361073801
181,0.005486293313957805,0.005241933244191575
182,0.005104779509074098,0.005721264315920499
183,0.005108481314931091,0.0063678983943691245
184,0.005556953803663679,0.00650287932079012
185,0.006102614183660796,0.0068875645289540105
186,0.00586524932765492,0.005791777012033216
187,0.006290892771405014,0.004622824403700649
188,0.005672665865277406,0.006758385381257807
189,0.006125984220973236,0.005483357694467505
190,0.0058547461697225755,0.004039856917816549
191,0.0058275625503493205,0.007938956599256234
192,0.0059265729224534155,0.0035833101085627535
193,0.005964165643251372,0.0036141130475631686
194,0.005418360130664119,0.007091020000547218
195,0.005422402592785329,0.005038503030404719
196,0.006086066541493499,0.004928094351071726
197,0.005391698442682397,0.0041464248630964295
198,0.005679984621202601,0.004951871298665171
199,0.005977330594989869,0.003937502602231413
200,0.005200441754281634,0.0034892021392816833
201,0.005928588661939936,0.004192582478977581
202,0.006110450128565351,0.005575353052575897
203,0.005748084365601668,0.007226935213309696
204,0.005773261597426199,0.004628318565182429
205,0.005466305296406519,0.004806198226030689
206,0.0053915885750012256,0.0068886346990814475
207,0.004862631051737866,0.004085666927286286
208,0.005794945237640705,0.004685944507461579
209,0.006186339472659486,0.0044792954282189745
210,0.005452053976240758,0.007157745385937975
211,0.005992655709425329,0.005399374365909488
212,0.006394402564802526,0.005135629962668141
213,0.005111693139214048,0.004262698261874368
214,0.005369563738135792,0.0036386999688622114
215,0.006076128034257619,0.009064176987971295
216,0.005661946046985031,0.004778541039437314
217,0.0057862927364058896,0.0035563146455864694
218,0.006101292102961696,0.007990860458148823
219,0.006074833645981154,0.004607229754872673
220,0.005685371549358572,0.006726956440043219
221,0.006484835636247393,0.006046123617426466
222,0.00537737616835509,0.0038924808762805874
223,0.005465508949720293,0.006373153793630679
224,0.006535119372423735,0.004075043994805466
225,0.005572573943558684,0.004690599119497997
226,0.00588828201141792,0.006231645590771981
227,0.006267250616488298,0.0068700469963417195
228,0.0059008079083661714,0.00563817569028936
229,0.005337904736349027,0.006303677951730347
230,0.005853130245677305,0.007568761843441153
231,0.006587801469701359,0.005475948990676214
232,0.005362926675717709,0.0058390960856631174
233,0.005571620096806154,0.006231014922205374
234,0.005311941578824201,0.004739605252364182
235,0.006002515519717537,0.004845254349609765
236,0.00557977315769877,0.006524738421973837
237,0.005792451307097886,0.0038292641428408773
238,0.004964831874327664,0.008945483253458729
239,0.005720362587508817,0.005945608905945105
240,0.005238110338785141,0.006302983382453623
241,0.005832651260883647,0.0043780925990932786
242,0.005434277422110484,0.004135620172393538
243,0.0056087762070112495,0.005766483134389417
244,0.006077545857951075,0.007984306286188356
245,0.005679768972846268,0.004352916187908862
246,0.005705442974905221,0.005856658775291766
247,0.005505367977467241,0.0065069308768349226
248,0.005532867899317172,0.007593738602072989
249,0.005618594747653111,0.005823581056829598
250,0.006004516856274385,0.009694959430263658
251,0.005820873551994568,0.0049339514637355645
252,0.005952975028462494,0.005470833879319955
253,0.005014915996380776,0.006258919659778535
254,0.006024766430950357,0.007142169429717002
255,0.005449917071761725,0.0072895405441375585
256,0.005635004018624719,0.007261843703563701
257,0.005642457944743014,0.0044013177376937326
258,0.0052362099771189104,0.0036004545920893796
259,0.005443194657742834,0.004996833784745355
260,0.005711675732680183,0.006201501801204239
261,0.005783653043736841,0.0050258753698498556
262,0.005154624833430586,0.0048605628835732715
263,0.0050523471445303786,0.004610023111025579
264,0.006113379248522139,0.004294227076960462
265,0.005307341272906243,0.005484148749351008
266,0.005556064024794665,0.006210884546100999
267,0.0049560982974054075,0.006556899522761238
268,0.005486123035472038,0.005581669492136919
269,0.005611699661701548,0.004578059759533478
270,0.00597687260529546,0.007010669914613042
271,0.005365055754034818,0.005462908222036467
272,0.004851135266792151,0.004291959908873948
273,0.005098856956721079,0.005447016125905086
274,0.005810479213447153,0.004440688132290047
275,0.006220385032094759,0.005443994962149421
276,0.004781307488066449,0.006722223453573595
277,0.004928016473895027,0.004473697756517799
278,0.005375873783400817,0.004790577331106542
279,0.0049674229897025655,0.006577213284145709
280,0.005463536291626646,0.006336878125512445
281,0.004740640676456044,0.005890887334645853
282,0.0056153953512408416,0.004717194491037371
283,0.004924038400706782,0.005011992951327289
284,0.005448251453263285,0.0038463528098607613
285,0.005238732777451791,0.005114794182117026
286,0.004845669395740715,0.005351675782005737
287,0.004962682055657823,0.003503813384976988
288,0.005178590350561767,0.0061150278246299246
289,0.005401299218926355,0.0032228467274448397
290,0.005260973634067283,0.00949837999372804
291,0.005492738943895419,0.008251215053403246
292,0.0055901352232389095,0.004438992129563815
293,0.005362727578809793,0.005117708263990793
294,0.006032368206946874,0.006155520866109733
295,0.005376574202745164,0.003987846649071788
296,0.0048992812712985775,0.003821096808451868
297,0.00517828509032497,0.005920381395509371
298,0.005412686506094937,0.0048350411828904285
299,0.005702398760582236,0.0041117846643097915
300,0.005808700929112214,0.006291430026378068
301,0.00579120884749958,0.005416735070268752
302,0.005181047634287126,0.00770083633225761
303,0.005201835597070197,0.003799511402354362
304,0.004932707839393817,0.005277688991742969
305,0.005725512406409091,0.004653198510737709
306,0.004931389033678267,0.004135518275817302
307,0.005174536729133952,0.007106071038152538
308,0.005418704259473619,0.0037375510096529408
309,0.005508739001331308,0.006785694584353358
310,0.005468448881971107,0.00471594495126932
311,0.005425635664772203,0.00584311472272593
312,0.005979836513891334,0.004709091728469379
313,0.004756536953773597,0.007404107245048412
314,0.005167816928085342,0.0046078199627291
315,0.005300247971676469,0.003319210336479669
316,0.005098485620692372,0.003819139810476008
317,0.005518053692831046,0.005738567214697341
318,0.00518981891553581,0.006598912616096431
319,0.005426871817842644,0.004329579897392497
320,0.0046625688946027935,0.0057775401672011725
321,0.00558124384604585,0.007211869844583164
322,0.005353225569939055,0.006130516362224354
323,0.00552785326373115,0.007751381053018142
324,0.004989099190503413,0.004718421631284652
325,0.0055608406684716505,0.008188270036816221
326,0.005496727079145616,0.00436067604037162
327,0.004602027236023169,0.0038333126050129757
328,0.005523661654691944,0.005763171506412004
329,0.004768642104066295,0.004209887002607265
330,0.005318788544209354,0.005235770102752036
331,0.004946725072170184,0.005242351353633047
332,0.005314054451402661,0.004084744839285866
333,0.004011006689247795,0.0044448989922740885
334,0.005263098866770343,0.004865764575953806
335,0.005085785564840685,0.005634810922530663
336,0.005430045696221095,0.006443997990228265
337,0.004896636253489341,0.004562810812389512
338,0.004741800040733233,0.0051796382793681825
339,0.0043058949346794825,0.0037556247787157567
340,0.005203526586571115,0.00728865461710667
341,0.0056905974995986605,0.005564336538911689
342,0.005403182585165351,0.005352197190704031
343,0.005063182707663051,0.004885649217047156
344,0.005222807294498536,0.0056498566081551885
345,0.0044077846590506965,0.005677598975848733
346,0.004973359632311012,0.0039042767086569824
347,0.0048822496829146475,0.006631982198533409
348,0.0047805828910929965,0.004067921417272093
349,0.005204424154471984,0.007033085834599544
350,0.005645858935920967,0.004971068443975984
351,0.004958509672362414,0.004695966695718343
352,0.004505186857801559,0.004773382283453172
353,0.005053507285561118,0.004731124678248835
354,0.005472872486646227,0.003190921826086697
355,0.0053326541633843235,0.004335728563271292
356,0.004988858273973484,0.00457080427245564
357,0.005081906258374256,0.005062301425982176
358,0.005423526782140457,0.0063277614312489015
359,0.005154305323809504,0.004043749919868329
360,0.005012579990247879,0.006431304930908504
361,0.005536837249080078,0.007121897544403103
362,0.00506483435474089,0.003972279884975225
363,0.004949459152353509,0.0036985879378421227
364,0.0049880834333196605,0.005604859206666721
365,0.004886628179118591,0.00404180342371222
366,0.004954289216890657,0.004519434766322022
367,0.004459218443114516,0.0035129938959699027
368,0.00486756375401566,0.0045696449232300205
369,0.005341916116696003,0.0043265905584801865
370,0.004689164315186572,0.005731897961551172
371,0.004954617552486785,0.004360631441266733
372,0.0051234923140276115,0.005594360900141634
373,0.005308641169739844,0.004711370617842218
374,0.005549730359316825,0.004780415656161219
375,0.004653590001842583,0.0065220584718020955
376,0.004965898316378871,0.004378145086875254
377,0.005585318386311279,0.0037655656386957736
378,0.004964330546121648,0.00430108639121279
379,0.00561333328841342,0.003901993700001027
380,0.004919996838175433,0.004046506962894029
381,0.004393942157762478,0.005752960842208615
382,0.0051413197020108966,0.006125602990259499
383,0.005106028519663141,0.006191048062911467
384,0.004486802410126643,0.0035491280925504997
385,0.004662128488554044,0.0038067907467631487
386,0.004866544973662795,0.007098920044989782
387,0.005156944039650708,0.005664226986414914
388,0.005038645265692417,0.0035267000966106308
389,0.004677190818060056,0.004323347892476967
390,0.004897648629045291,0.00697777521610554
391,0.004845754894093691,0.004481025423116588
392,0.004585301771545582,0.0035757383139805475
393,0.004682856786111704,0.006194538235790798
394,0.005336670224725319,0.004340060414884595
395,0.005267285731908449,0.0038314108274092027
396,0.004673253513033614,0.00555043490625618
397,0.00464189545425261,0.006356519744705759
398,0.005379632800548739,0.0036113248111117094
399,0.004855448799151972,0.0032632427187908467
400,0.004397936747316346,0.0038756204213309027
401,0.004486940506708731,0.0038125985627295634
402,0.00467919776004722,0.004889406844526647
403,0.004316031872529349,0.0032496497872261288
404,0.004199040750377357,0.004915464686739958
405,0.004484253999539655,0.004500432819092753
406,0.0050444840383771766,0.006557222199571137
407,0.004921976461646249,0.004349844973099189
408,0.004570965569255669,0.0036818000431751044
409,0.005204168153270859,0.0051332547302904005
410,0.004550163626769851,0.006833188791833553
411,0.005147595414527052,0.004218065732650477
412,0.004816970887607326,0.005257321960103846
413,0.004555563163235605,0.003478618504644181
414,0.004553786898720459,0.003961650692161699
415,0.004830633229810557,0.004399075118447018
416,0.004287944276829055,0.004903730187321048
417,0.005343778735975162,0.0037404693420182533
418,0.004629475868409045,0.00555979212468171
419,0.00507110531805165,0.004287564314772458
420,0.005119519467896624,0.009314659655817447
421,0.004995399480704203,0.003752135247361112
422,0.0048645725078265865,0.00896838600817118
423,0.005097678004053803,0.005778532711187732
424,0.004252214735146049,0.004867673793112258
425,0.004796741955480326,0.00616481267070161
426,0.0057411517351969995,0.004786839693249589
427,0.005200059002758169,0.005303814308166551
428,0.004706731012878682,0.005187198466047257
429,0.005568976911212162,0.004644861179473792
430,0.004591539208267292,0.003580803832409708
431,0.004857394986392872,0.005048330833190125
432,0.004597767192269597,0.005336622100752714
433,0.00485672234657327,0.004505401315871735
434,0.004836929622657156,0.00371625867173158
435,0.0046444009808223425,0.005900704795487325
436,0.004602499594029745,0.004443669753059474
437,0.005021930590709694,0.005601101184459352
438,0.005440815777270694,0.0033499934352587413
439,0.004490180295050073,0.0029765491786573873
440,0.004792563544737427,0.005147589606195453
441,0.005369210978586533,0.0038994225229033
442,0.005026582326143712,0.003362089841521471
443,0.00436145563659777,0.004434833551912136
444,0.005140160791018306,0.0049011274946569785
445,0.005399686603737678,0.004492200397604808
446,0.004925117347587486,0.004352583260302621
447,0.004818951928720837,0.005837957734196508
448,0.004179263493600044,0.003160592280666402
449,0.004763968978642965,0.0039032988500911463
450,0.005141297541223735,0.005112228224872837
451,0.0052003181072511825,0.006501082197528541
452,0.0052369100004092135,0.006405064156580343
453,0.004620421395862667,0.00559140179429759
454,0.00471776534851974,0.007675576052792376
455,0.004820276242156002,0.0043699755020962985
456,0.0047877654633324725,0.003503096919880199
457,0.004188878475584173,0.003969678436218516
458,0.0052799544933488035,0.00361181701601122
459,0.003979039523727465,0.004600631102152175
460,0.004955901068353878,0.004064410409266048
461,0.005227972265164689,0.004872696402526057
462,0.005376048181090596,0.0050004926460906094
463,0.004591870358303862,0.005294406831399747
464,0.004572712341423997,0.005382439331096415
465,0.004001930693732492,0.006443800775873774
466,0.005043588241831743,0.006346379000261344
467,0.00530290746248791,0.0041012594905617955
468,0.005112571257101796,0.004338616902565829
469,0.005104534874884613,0.003961223629306952
470,0.004975041193938959,0.006670649011267295
471,0.005137527858068665,0.003597033089916233
472,0.004734968189332488,0.00509083104314725
473,0.004709747714008377,0.003667547614493752
474,0.005118953200227631,0.004605910565113118
475,0.004923301196819414,0.0044451578922316895
476,0.0039686091160654816,0.003238293149522502
477,0.00516148889130227,0.005100504013738391
478,0.0048216718009306036,0.0037616908012932694
479,0.0045973070955602265,0.0034536920863129463
480,0.004247757025062294,0.0033409743591475624
481,0.0050905698526585155,0.005274789258631883
482,0.005081412210173869,0.003929532457572344
483,0.004652856355648396,0.0047375665486576336
484,0.004890752537417963,0.0037691132437464234
485,0.004143373944780243,0.0031200063908465307
486,0.0043090751207955505,0.004480984912422245
487,0.0048810990078175225,0.005428669430630101
488,0.005335197006973872,0.004836089335728933
489,0.005425017857313644,0.003970193599652861
490,0.004385244812805959,0.004833973585477286
491,0.0045917099570672365,0.004740165973974549
492,0.004839437527877601,0.006679160288522563
493,0.005373304701882223,0.0042425328042378745
494,0.004760439738911911,0.005005809388049212
495,0.005335520945867593,0.005971930889102565
496,0.004709400208410081,0.003987893981501848
497,0.004663797942244059,0.005911788623118457
498,0.005229582761427005,0.0042542843930952505
499,0.00484559196596526,0.003956659882415407
500,0.004512594843884077,0.005171876182028437
501,0.004467745843848927,0.00521349352942493
502,0.004848877325554272,0.002641934937126376
503,0.004639345524776027,0.005550461658074476
504,0.0049771448811531055,0.0066470978737477255
505,0.005106665580224493,0.004644707258755448
506,0.005076731791251527,0.003995529899333957
507,0.004769029437384153,0.006282530164518103
508,0.004755842459699263,0.004030352788400302
509,0.004832383155521991,0.004215527164522667
510,0.004370873426846552,0.009077661128269233
511,0.004666580732515027,0.004348434963584793
512,0.004903458303017773,0.005388264540265349
513,0.004434610203133344,0.003890031461156287
514,0.004874640630169524,0.005344396010158846
515,0.005253470000281609,0.005328438340317996
516,0.005259265775046349,0.0042937767931540225
517,0.005293911181038155,0.0053638686733239495
518,0.005205338983014851,0.003244432246741775
519,0.004646655435649325,0.007150919860980129
520,0.005059344004366925,0.0046446846085788
521,0.004794122331286613,0.004133477928513851
522,0.005322228497203937,0.0050784181895347546
523,0.005172641444422727,0.006973673096301524
524,0.0044824847353914146,0.005002874290774964
525,0.0049511757010197955,0.006073176230126793
526,0.005134299076558705,0.006443646945935492
527,0.004508532449896399,0.006176818649915959
528,0.005046332819308404,0.004111759243319847
529,0.004995124686664219,0.0030534935074298985
530,0.004786062761110147,0.006992604018607263
531,0.004299862071317878,0.004100949172520071
532,0.005084756597914517,0.004642730296884194
533,0.004573631426710322,0.004809845972882662
534,0.0038742169797000626,0.004188125833998351
535,0.004874460582102505,0.004549274930396744
536,0.004854488750189382,0.0034028039282245153
537,0.004601323031180119,0.004974518562266463
538,0.005014178259365207,0.004497295752720468
539,0.004167410580878355,0.004724351286038392
540,0.004124001412336781,0.003375708516951777
541,0.004156075486858233,0.0066603043218802635
542,0.004877143568057064,0.005706853241731002
543,0.005166710063395984,0.009172688916049186
544,0.004194919959170004,0.004610201637550965
545,0.004566392865308153,0.006495324808783717
546,0.004804712261719485,0.004638844715459265
547,0.004588662994560971,0.0063750260085420245
548,0.005226261461422377,0.005517918241284523
549,0.004299416825332367,0.007157795611201494
550,0.005151703553408277,0.0036476154980009338
551,0.004565339981035577,0.004198474712866846
552,0.004534574697161917,0.004328855412226426
553,0.004841497765934403,0.0032537791382921265
554,0.004664873716877036,0.006129349334181625
555,0.004353216659894837,0.0042273544121295475
556,0.004993439286494617,0.004235924889378385
557,0.005221658127589358,0.0046159503055293915
558,0.004044513601037732,0.004624376524439715
559,0.004259032914865402,0.0069964969293276865
560,0.00552334173021914,0.004869180667157496
561,0.005232078413911563,0.003442739416942906
562,0.0045528031649629324,0.004090745394921552
563,0.0045971706149270306,0.004280934925466752
564,0.00474827617511442,0.0044745872133126995
565,0.005065285235376869,0.005633875096235909
566,0.00459625985784952,0.004935684022159208
567,0.004557378307397333,0.005510405997871388
568,0.0044555923851060985,0.003914269609134218
569,0.005234035382923528,0.005381617357700052
570,0.0056509815784041685,0.006074575221808458
571,0.00504208879471257,0.004597836315570121
572,0.004917336144126493,0.004370495037123526
573,0.004593874483803312,0.0041970166224462955
574,0.0042851685232175385,0.00381785178841507
575,0.004350205172049842,0.005804448904529884
576,0.005064615654832811,0.006216058560118562
577,0.005424367710125359,0.005917597780755376
578,0.004692423653112893,0.005682743784413624
579,0.004374362701318598,0.0037911943378310647
580,0.004667244554176438,0.003196547438200172
581,0.004295088834673476,0.0037658577338346203
582,0.004334756304684142,0.004183418373999957
583,0.005166678532896984,0.006067746984842215
584,0.004938380854713509,0.005198637927693463
585,0.005027020202043632,0.006142854638729941
586,0.005158802658374564,0.004482438632720036
587,0.004727659727183195,0.003770391602876237
588,0.004675787218904449,0.004375136429818837
589,0.005279682516447937,0.00570510915166683
590,0.004567048627790882,0.003580771225093678
591,0.003947405442171138,0.0032658041787466834
592,0.004570558467201686,0.003977259646567509
593,0.004498815381539156,0.0037860532284617987
594,0.004745548143595767,0.00863123316561837
595,0.0048609724563124365,0.007549703046944119
596,0.004386546611182874,0.006232250305061723
597,0.004678822258564768,0.005428646778615799
598,0.004779770335504156,0.00504028484344353
599,0.004842964749743077,0.007315010301351265
600,0.004309170538459798,0.0038872692348463455
601,0.004885336220023229,0.0058283974907574875
602,0.004498492625875504,0.003530866292253101
