epoch,loss,val_loss
0,0.29050894457992793,0.1992895293395728
1,0.17947216223565032,0.14463022118397556
2,0.10284061601264871,0.09688906887312432
3,0.09242301390206309,0.08807946459317452
4,0.09102347721274999,0.09222260881994498
5,0.09048467678286665,0.08879511446442864
6,0.08809437806294453,0.09314850279098434
7,0.0843267018521885,0.08194665221501826
8,0.08423089939686987,0.08635364352904067
9,0.08446231915754714,0.08694774261142856
10,0.08519140228652936,0.08501235390965545
11,0.08498726729497158,0.08828711633194876
12,0.0856390671535052,0.08605276119925417
13,0.08611340553229518,0.08685188788711884
14,0.08631175918449506,0.08355473382979184
15,0.08685154244780159,0.09000344276898661
16,0.0863344403315815,0.08805805526456216
17,0.08725191383577174,0.08538016564585416
18,0.08830442401073534,0.08432482467301267
19,0.08794501673081796,0.08634466916652016
20,0.09342345476245804,0.1063294366484283
21,0.08853495894945401,0.08142591021725674
22,0.08479384499059307,0.0844602218307937
23,0.08566116744713437,0.08398878653169901
24,0.08671792462873135,0.09065443300586944
25,0.08757805947413881,0.08903342579809718
26,0.08917076675166234,0.08661213267856258
27,0.09012619567384346,0.0910597854979695
28,0.09095209852146874,0.08828980911996483
29,0.09105711685364051,0.08881209860096415
30,0.09094614543312554,0.09056680094988777
31,0.0923262418781539,0.09515611944395252
32,0.09378113127131162,0.09307974626346188
33,0.09753247719707725,0.10501286821423692
34,0.10661433337272691,0.1041469858884341
35,0.10417602627242593,0.10717819599345056
36,0.10596179487191135,0.10332775387645426
37,0.10634528774973585,0.10436989936239624
38,0.1082752607316136,0.10476340144143485
39,0.1083230946829422,0.10861905647152131
40,0.10857263694611861,0.1114148050605451
41,0.10824487743665465,0.10745810160461898
42,0.11103617795389428,0.11043404599603181
43,0.11060142298217872,0.10678793952727562
44,0.11142611596212208,0.11166061394522298
45,0.11059896825707788,0.11303749278293601
46,0.11295648966785625,0.11360906577877107
47,0.11219720225885427,0.11186366215430571
48,0.11031396072104775,0.11110779793599317
49,0.11423847793961028,0.11264605268589041
50,0.13064605516078565,0.0860318032452791
51,0.07209853764971812,0.06784743746858746
52,0.07664705990857595,0.07191028179866928
53,0.07301989199964405,0.07281637467567434
54,0.08244439505701728,0.0832795406079424
55,0.07220271196094254,0.06755928218000125
56,0.06777828408153556,0.07528090352029337
57,0.1028847628318482,0.13549211950003864
58,0.15095935475757177,0.19450163691883118
59,0.13564600884545144,0.09061687522006957
60,0.09201916963529053,0.08914780133383991
61,0.09183132995983108,0.0894989299498963
62,0.09072210460150842,0.09056370093207144
63,0.09090845678731216,0.0891673011027553
64,0.09147345945596409,0.08993296484568031
65,0.09136975176340575,0.09058569477549104
66,0.09117108135581684,0.09023060122153471
67,0.09211565630970527,0.09137835541788573
68,0.09216621748620657,0.09259787515311516
69,0.09186298337033232,0.09161289138594479
70,0.09123653002815853,0.09144599958019362
71,0.0901368835882889,0.08933458746585116
72,0.08976945084192865,0.0891327202767016
73,0.090072908848941,0.0876034705060951
74,0.08949424616164631,0.08756477179354161
75,0.0893095802399609,0.08734600802246943
76,0.08891190021491642,0.08669701428538527
77,0.0882404283237019,0.08892255223517166
78,0.08710428927060988,0.0853208506798876
79,0.08574143946200585,0.08348785596881311
80,0.08413478280518123,0.08365146428840595
81,0.08396872547235515,0.08329696114444789
82,0.08264105236656565,0.08237795360627471
83,0.08273978343011616,0.08340780917428663
84,0.08199639066601162,0.08097480971075083
85,0.08065162223282096,0.08040841937582607
86,0.08028565279597477,0.08037560655137828
87,0.0787211189822232,0.0769946909794068
88,0.07827883199613682,0.07850724397243339
89,0.07782939053345307,0.07758374217289023
90,0.07758443840116049,0.07612191016573368
91,0.07683414197582707,0.07594841637228922
92,0.07628092799130247,0.0740664276722951
93,0.07522752235154453,0.08130852350025734
94,0.07479040199469367,0.07235968566037297
95,0.07464913810364349,0.0722993989170021
96,0.07440992160071191,0.07403562745430757
97,0.07427702155664004,0.07330120091444879
98,0.07404564410227714,0.07126500381078886
99,0.07351852443328293,0.07355968944945952
100,0.07366067885780792,0.07166643010859614
101,0.0741235157958776,0.07554704041441501
102,0.07480841900983588,0.07209850430794372
103,0.07356027132726545,0.07233163569748825
104,0.0741135884868465,0.07195972004683354
105,0.0743300666843506,0.070576945982797
106,0.0738628118423273,0.0714691506835449
107,0.074077318716559,0.07449323574305992
108,0.07422743385566843,0.0721899227172301
109,0.07450790707465652,0.0738133243134432
110,0.07392079248982701,0.07441498765805714
111,0.07429491223798668,0.0754380199761257
112,0.07463900565946226,0.0731543302418401
113,0.0747996705437569,0.07254318792693429
114,0.07409937131545431,0.0731694896829674
115,0.07311302606614946,0.07392424033938569
116,0.07421692057574492,0.07180327746279144
117,0.07371501591530064,0.07213581398411727
118,0.07330481649832807,0.07511110473850532
119,0.07447734650233381,0.07556711942039801
120,0.0744770362044124,0.07153908794579679
121,0.07428168891210683,0.07407721793301103
122,0.07410205332346433,0.07276101554460947
123,0.07361148453379374,0.07138336877961185
124,0.07414829900724997,0.07169157839082504
125,0.07451018035638152,0.07118399228956536
126,0.07477021255313779,0.07010721060981784
127,0.07420092609098299,0.0737369481412416
128,0.07464018674771325,0.07519098505048462
129,0.07402864005937755,0.07713260210244884
130,0.07409469564285258,0.07298087375128279
131,0.07423339482489154,0.07353590428829193
132,0.07420580759704065,0.07294893718744322
133,0.07426137022441812,0.07766486592032162
134,0.07378072124853027,0.07222275316256563
135,0.07363478248740891,0.07248382547601245
136,0.07382468178534775,0.07145619558812881
137,0.07408017053646292,0.07570203551294866
138,0.07389148239859289,0.07355130712289272
139,0.07278075923385333,0.0690537467334293
140,0.07366990692448988,0.07514138003750966
141,0.07286997700331928,0.07223413755268963
142,0.07129450047539054,0.07434574465819391
143,0.0715348639895471,0.07141101225657828
144,0.07081875329365214,0.06821470043453629
145,0.06864378096120392,0.06101791409521284
146,0.06364526229796649,0.06362181790202456
147,0.06236178833368918,0.05893877135103108
148,0.060165607237177406,0.05854733990712625
149,0.06104998985271183,0.05991915041535222
150,0.06126443452561359,0.06387561670818381
151,0.061066174565506975,0.062430331964213354
152,0.06287833364705721,0.06139485969633782
153,0.06274281703918386,0.060896804049058326
154,0.0634468760397985,0.06416805790650534
155,0.06396054910372297,0.06954229605437831
156,0.06411266826438627,0.06291768905407534
157,0.06444961646293326,0.06627859106991549
158,0.06597682071788658,0.06269003725195364
159,0.06602388990225552,0.06479402114920195
160,0.06787480033940071,0.06780109632739705
161,0.06925814470900096,0.07168298503406045
162,0.07203408988039318,0.07187376650316375
163,0.07428442519738805,0.08210271401088258
164,0.07534034937757145,0.07495285918158438
165,0.07822052246744303,0.06956144970060335
166,0.07880327954209394,0.08855822129614634
167,0.08111101123307059,0.0815205890700021
168,0.08326866000378541,0.08444732033310204
169,0.08591994710957451,0.08590788342464413
170,0.08584479277552985,0.08835150461405775
171,0.11131535519620211,0.14020411253869297
172,0.10190072578998159,0.10990704997680087
173,0.09078739336926303,0.08484201923589021
174,0.08382218506196135,0.07880709942756625
175,0.08693164067832734,0.11467942402013757
176,0.07356733158766794,0.07405836578831959
177,0.07813772679024415,0.08346339902342918
178,0.0781486055461599,0.08554821912472702
179,0.09242504849124679,0.06974934229087716
180,0.06359984570418854,0.0657909981341887
181,0.0594005249976683,0.06876115775251822
182,0.05848225569285506,0.057616721976904206
183,0.05684935110364315,0.05469699570616588
184,0.05837207927192144,0.05574257254024237
185,0.06309746070761237,0.07237404299092838
186,0.1058334865563398,0.08462698315141609
187,0.07290163665688296,0.06739039009035622
188,0.07004279978603101,0.06481866138945344
189,0.06948997280884275,0.07431184914736363
190,0.07048058453396404,0.0714082008179192
191,0.07053119160359998,0.0681161131348164
192,0.07216693340487283,0.06898429262986217
193,0.07376692747380093,0.07324755851593936
194,0.07551805129040964,0.0750438144787758
195,0.07587231702501063,0.0729838730715915
196,0.08666422054153695,0.09191784272065949
197,0.08790598335049803,0.08709706244336025
198,0.08469158192749598,0.0831932019215921
199,0.0970811140861252,0.08835213055691572
200,0.09556681636890633,0.07411245262542858
201,0.06380007747444603,0.06361434271745825
202,0.06091099713953565,0.058946792944830614
203,0.060356932788265406,0.06245916928646126
204,0.061239467622588674,0.05485180490183473
205,0.060883811187389184,0.07589790279129498
206,0.08056124346367985,0.05919797430968981
207,0.059008805523459,0.05314432441800151
208,0.05856724645790579,0.056818846266219816
209,0.0578873501383334,0.057314483679672255
210,0.05803528659009962,0.05671059506068384
211,0.057464404875854795,0.0599106171601338
212,0.05834658868569169,0.0556440365330949
213,0.05812199318038522,0.05718910835842119
214,0.05708602046092256,0.054644507103862025
215,0.057265439026837915,0.05684240087396344
216,0.05809298283208331,0.057575882986576045
217,0.056905548769435724,0.05466660803394141
218,0.05742447409960482,0.054683803862229804
219,0.05762658831771377,0.056339253084153385
220,0.05747752705608293,0.0572283825768715
221,0.0575597753583027,0.055699438750508645
222,0.057951592202249956,0.052731889666843904
223,0.05759838053273211,0.05559998702172605
224,0.057310216922423156,0.057896503771419305
225,0.05780531652122855,0.06400779607663873
226,0.05738236701084699,0.055301402116983825
227,0.058517290413272464,0.055758815011760804
228,0.05990950497452446,0.058553776867693585
229,0.059589018967809625,0.059951203418770645
230,0.07440885672454449,0.0662991025300598
231,0.05812494488779923,0.05537488420318221
232,0.05809999986006011,0.052363192825780294
233,0.05681228063714733,0.05429930501597645
234,0.05805507249129619,0.054678425148729275
235,0.0562065824446418,0.0521766105527095
236,0.05699581615805483,0.054335694398434026
237,0.05666171409171834,0.05683000358122959
238,0.05706883124191222,0.06985384828007495
239,0.056667236523400485,0.05693393040392562
240,0.05874192275607186,0.05696754829389144
241,0.09479399371019703,0.09378277269892553
242,0.09028288820902888,0.09010328409492076
243,0.09451168347343647,0.0809766444676771
244,0.07900252539536459,0.0723597157802418
245,0.07052538706530198,0.06746719121615437
246,0.06766263198563092,0.06187928299512935
247,0.06414755413101779,0.06875376511238744
248,0.06275208385216056,0.05946010985979906
249,0.06372743881017946,0.06732761669953978
250,0.06337166334733926,0.05955104811239073
251,0.06331836388741942,0.06447952144853505
252,0.06394298283530654,0.06995500309573635
253,0.06918488191120582,0.06904229218612154
254,0.08378731877171545,0.07800398779931554
255,0.06454639348218576,0.07029189404920508
256,0.09031002721537074,0.061760840938965354
257,0.08342977549931367,0.07979420529003678
258,0.07836087733554802,0.08323617077828771
259,0.08845536509673183,0.08882310237344457
260,0.08368682867134933,0.08409903261401847
261,0.0811066598989528,0.08013779567679553
262,0.08186023993541201,0.08040468643795061
263,0.08255527947220108,0.08378764411879978
264,0.08956394305260633,0.12359496721176058
265,0.12025459213174886,0.13699296644308856
266,0.1167144665656854,0.0883829867454053
267,0.11576032964028805,0.09680657802059976
268,0.08101330326645256,0.07317508498078834
269,0.0788648051472543,0.08290901589600609
270,0.09582273717031634,0.1427858201367891
271,0.10588009879409933,0.08499970859844287
272,0.08314013784434154,0.06496101296444341
273,0.06396147920835694,0.05676966045572236
274,0.06035163529145775,0.057619735580922676
275,0.05809239774114556,0.06167635990522843
276,0.05885251679217263,0.0656029459621225
277,0.05731166187944792,0.05367015014037243
278,0.05809229966119039,0.05728736700344575
279,0.057633133410073395,0.06054514103760941
280,0.061918946380595224,0.06651640801610398
281,0.07907260179692369,0.10320899411506698
282,0.0904136521460341,0.0819829423054053
283,0.09725319868404803,0.0935344074124319
284,0.08321546687842082,0.07099742917513038
285,0.07367742924744801,0.06685837629620918
286,0.07343388667745555,0.0870920929119826
287,0.09421740611531228,0.0811964221675046
288,0.0828724062497572,0.08418391095128884
289,0.08667068289731332,0.08685342234801192
290,0.10044758794881362,0.07433311481855004
291,0.07349405647795215,0.07013229793488933
292,0.07263184964901014,0.07703016775688884
293,0.08804217888731702,0.1632681478993951
294,0.1218370248784693,0.10340037863722164
295,0.1002360481938584,0.0877099003181179
296,0.07156430381081469,0.06526184278145586
297,0.0798448239558106,0.20670325957656188
298,0.1557428890066467,0.1263724630426589
299,0.1282050901477476,0.11842573739899927
300,0.11689301925919039,0.09039017883876975
301,0.0883038084980824,0.09471292490317489
302,0.08540490936848233,0.08654297158216151
303,0.08435384686187589,0.0806851378526618
304,0.08361996679628592,0.08197958715959808
305,0.08405086452023779,0.08384491659659707
306,0.08400490885223749,0.0826346111713946
307,0.08375265073629735,0.08662754758286871
308,0.09490972168320756,0.10737577130122739
309,0.09935028157639894,0.13691833149568247
310,0.10917030840659504,0.09277797957857294
311,0.1077607419076774,0.11127116960409408
312,0.11946045326219379,0.1266892413008185
313,0.11161595973060381,0.09761211304280733
314,0.12209734470426417,0.11164200785786689
315,0.1178499639397569,0.10244278567413129
316,0.12219422121795057,0.1409299209619848
317,0.12716932212420218,0.12623472773450137
318,0.12858374223863478,0.08509579341455811
319,0.11546835271443585,0.10909320776892537
320,0.11944284178108144,0.10880067191235927
321,0.1271534261586283,0.14870327401203534
322,0.12376458271980571,0.11309132921996791
323,0.12831689107665817,0.10315166877754674
324,0.12102033727341514,0.13540899892938166
325,0.12426018239937717,0.12075094791642305
326,0.1291102188424193,0.10844544727640446
327,0.12906527554364705,0.1419636480680769
328,0.12179524900256206,0.10811094670382276
329,0.12794910691720213,0.12277549992138322
330,0.12774515689479457,0.12885934189726447
331,0.12866737753402988,0.1074305892978584
332,0.12483734169678627,0.1256665824644191
333,0.1220892361945195,0.10121270188004743
334,0.11939235797209992,0.14533706045847006
335,0.12433719152895857,0.13911718939267093
336,0.11943529833623355,0.13522883387019338
337,0.12200960906134616,0.13823750458698905
338,0.12149628674347909,0.10447841464602863
339,0.1184770961364301,0.13885167465143158
340,0.10956178894705719,0.09556365562360307
341,0.12343393404968828,0.10121177527362564
342,0.12106829359948779,0.11555732669633678
343,0.11958715688886878,0.107196165253162
344,0.12314204691196803,0.12781617599932715
345,0.11503013585218423,0.1118485906823658
346,0.11308486905577277,0.13883580386215247
347,0.10619146914350139,0.13011413484506
348,0.10229936163786123,0.12744573149139146
349,0.10313332461708075,0.08855136462149887
350,0.10507819513313109,0.10861278038939436
351,0.10302890175216489,0.09174448479299199
352,0.1053764453346876,0.08991321938401992
353,0.09759055661986009,0.0976453241616511
354,0.1065219673130819,0.10156518473762552
355,0.09951134323835563,0.091579155109958
356,0.13918600896958538,0.22259654224671618
357,0.20554036684006716,0.20398535522402228
358,0.2071899029074146,0.20455201153644165
359,0.2000220517317454,0.1916589660492109
360,0.1925211523433955,0.18510584246246667
361,0.18765089744262747,0.18962803989907562
362,0.18376098803097873,0.18465667946562583
363,0.1836117995228413,0.18158128304846566
364,0.18252075243172505,0.18219067072811895
365,0.18384882575459333,0.1837888755310024
366,0.18523024437691477,0.17873736905505927
367,0.1847502810182236,0.1814079154003485
368,0.1851349454298675,0.1884743309246807
369,0.1870245860694505,0.18424959772434776
370,0.18325255454468023,0.18120157784519933
371,0.1742467049667113,0.16524999090650463
372,0.16767361049624466,0.1684216957983297
373,0.16748266443193294,0.16577404417573888
374,0.16788682440440242,0.16241614391179
375,0.1676577762555447,0.17265410717773738
376,0.16785614202014928,0.1762011794001452
377,0.1691991205391981,0.1717425886697438
378,0.17038145529137527,0.16295549831549389
379,0.16654966268048202,0.16780191634053213
380,0.15597921491955682,0.09923028892998444
381,0.0897636607134466,0.08873272527247408
382,0.08762759011950519,0.08346421248040617
383,0.08852409113713687,0.08724294240632768
384,0.0893129154587154,0.08858382581911788
385,0.08571223245500374,0.08773106841727703
386,0.14624818571977954,0.14617118298207668
387,0.10352734116752514,0.07177248239317276
388,0.07318552035829431,0.08181795454639192
389,0.07472875900268793,0.07231496091294025
390,0.0768424523153084,0.07691027233766681
391,0.07970509198393753,0.07658007036197721
392,0.08101502748773538,0.08177593215747245
393,0.08449361036471326,0.0874482748152331
394,0.11933496630163215,0.1436309399937398
395,0.11862137513778669,0.08196815465236613
396,0.0714442376360047,0.06620901606641798
397,0.07494273965807556,0.07449180491109862
398,0.11500014042813811,0.13183933731694814
399,0.09957011828688886,0.1033418387962592
400,0.13170183602747298,0.11983340348821978
401,0.11441134518797068,0.12684975396885867
402,0.11048079836223242,0.09913396431925547
403,0.09711019102510789,0.09712498292221078
404,0.10572660667784542,0.08101193718288767
405,0.09941757350213093,0.13510134073463875
406,0.11342800116772465,0.09581166885105191
407,0.11238708347677707,0.0943773884823121
408,0.12252575352930908,0.10468437103370841
409,0.11138530971585132,0.10008030535907565
410,0.10798828869307642,0.09163072766425955
411,0.12550226621014132,0.11389871933089529
412,0.11562652473183845,0.094389175835941
413,0.10359273358679218,0.0955795412552385
414,0.11969045598467858,0.10781891554029513
415,0.1470005277463858,0.145346323870587
416,0.1272732009091299,0.10298781365085607
417,0.12846377217095437,0.11036873175435491
418,0.1282633577795814,0.11555989905192142
419,0.13952726140904198,0.14266028722135118
420,0.11201612311873219,0.15227962034183312
421,0.14840273453379801,0.10395692557613964
422,0.08796633310395656,0.07886095486152049
423,0.07048581279576015,0.06201820546833191
424,0.06674916620442956,0.07445399791896108
425,0.10547240451424957,0.07500356362857682
426,0.0713754760311376,0.05978129259306988
427,0.07148184339485342,0.11134747846232876
428,0.09207607190802895,0.08130980536177014
429,0.07127862842939645,0.06942599364971681
430,0.06780646237984693,0.058230667909417645
431,0.06378119781041602,0.06337736902174841
432,0.08569364185682495,0.1910231807449246
433,0.12483859096440099,0.14591630606455602
434,0.12766677084014855,0.143000452281597
435,0.0928791270931538,0.09297027598240287
436,0.0980717170027663,0.08499639852659008
437,0.06930174383161355,0.061142580826261804
438,0.07259833891924432,0.07792994494666805
439,0.07322390023604047,0.07117615998285251
440,0.07069823027496858,0.0705007009396378
441,0.0695911225476425,0.06348227641612127
442,0.06621942776802489,0.06629255763898238
443,0.06403999276262679,0.06425930179167472
444,0.06291791346880028,0.06261979366616649
445,0.06284631633882423,0.059500317423712486
446,0.08520769596481019,0.09007159302977003
447,0.09025388947434182,0.08422426357806528
448,0.08691753878992953,0.08590891405693075
449,0.10385390261201549,0.08959546397662858
450,0.07569721894119855,0.06956600384888163
451,0.06563510227468994,0.07494698211127317
452,0.06488363308717403,0.05987514927983284
453,0.06477203286832853,0.0621212450750672
454,0.06380243795506245,0.06310574543951249
455,0.06489736308975758,0.06578740039171435
456,0.06512658295037745,0.0609231965635457
457,0.06512458678736961,0.06654476104767283
458,0.08775590076524434,0.0890740925341774
459,0.07412647229018543,0.0622816631025043
460,0.06518068840558962,0.06466861332942392
461,0.06574825933433885,0.06818660084325776
462,0.06477619387316617,0.05935822920939917
463,0.0650327351334379,0.061731253375005984
464,0.06393798653164404,0.07468728106630629
465,0.06321831527117679,0.06189716565874776
466,0.06383832154138912,0.06629468585293219
467,0.06336121125925455,0.06216576995641205
468,0.06324432428321726,0.0636689672253926
469,0.06265094368863734,0.07713138542028516
470,0.06581187788709748,0.10168734381611928
471,0.10674472294485779,0.12538200803248076
472,0.0914131429412668,0.09270910538832974
473,0.07246349651744659,0.06619691659697136
474,0.07006857155127634,0.07106267169541323
475,0.06928306957967371,0.06320808378019574
476,0.06965095124882664,0.06765421068012102
477,0.07068929333332107,0.06546574488470379
478,0.07146773423007924,0.07361102828663357
479,0.07369278100498622,0.06652151548025076
480,0.07382839691671107,0.07686864938395835
481,0.08563071907722025,0.08249762215031915
482,0.07604314628943837,0.06442547399600661
483,0.06574809889373877,0.06656013811690749
484,0.06578049633494146,0.06296720337813637
485,0.06566176700929134,0.06616425440421045
486,0.06564552590644045,0.06780210327013045
487,0.06629061661988235,0.072675210212805
488,0.06493100545686974,0.06661337186547839
489,0.06482334689592285,0.070083565045598
490,0.064770659077451,0.06256991951493363
491,0.06421443075537205,0.06424693226367353
492,0.06353906344631308,0.06569238551896016
493,0.0630682236079475,0.05836221126467578
494,0.06356866314983387,0.0621288150825318
495,0.063899356481745,0.061129820560294056
496,0.09314017987055935,0.09434655678606259
497,0.09956183204268046,0.09652707054799432
498,0.0885831468122945,0.08220091824373488
499,0.08578628645562153,0.08417040885859055
500,0.08296025278482982,0.07340688630056456
