epoch,loss,val_loss
0,0.20874253026158404,0.10904597005885515
1,0.09695519585844328,0.09656860299508405
2,0.0952633710222231,0.0944498995849723
3,0.09512536411138652,0.09459964540546677
4,0.09509776999874653,0.0960226120117055
5,0.09505726391081806,0.09451222005752287
6,0.09501951323639003,0.0951595594128851
7,0.09509661348520232,0.09466608795436612
8,0.09495445122893194,0.0946880114671275
9,0.09497489936822515,0.09484206857461108
10,0.09502033550414345,0.09546028909691695
11,0.09487211300755481,0.09468205858260134
12,0.09489359467518892,0.09452748064601525
13,0.09481860632650095,0.09471342277484517
14,0.0948388307667274,0.09463542422254724
15,0.0948303957982696,0.09434283943442538
16,0.09481159291214508,0.09481359257317944
17,0.0947751139970325,0.09468344716618357
18,0.09483842055598418,0.09444125703497015
19,0.0948139475159746,0.09451035244335974
20,0.0947907316616828,0.09471884558613881
21,0.09476288899684028,0.09445913113071491
22,0.09474891714817234,0.09465302688664307
23,0.09473560505407415,0.0944630427972576
24,0.09473131464229975,0.09485174346224191
25,0.0946920794113982,0.09446204240244961
26,0.09471644897409957,0.09456425467719219
27,0.09468199239729597,0.09503271999374185
28,0.09471545567948945,0.09436246922685108
29,0.09469413114406412,0.09436062152990697
30,0.0946517064035844,0.09443736726737154
31,0.09465094179891759,0.0945198985953075
32,0.09462724908960046,0.09461897643960736
33,0.09467976788084188,0.09496567432416549
34,0.0946411073154254,0.09454234722992898
35,0.09465820361062777,0.09459006659327855
36,0.0946296106854217,0.0946554973333392
37,0.09460700782452175,0.0943428904065111
38,0.09463022325595886,0.09466090757802612
39,0.09461984573472604,0.0942670127822361
40,0.094591958107327,0.09450964505571781
41,0.09460525569334019,0.09448235266163486
42,0.09457064294617334,0.09449696995394383
43,0.09457825513468752,0.09443652843314075
44,0.09459907666063137,0.09425742135051676
45,0.09459279556509306,0.09450562278892266
46,0.09454826490996744,0.09447860128548358
47,0.0946061973222535,0.09426814294181288
48,0.09455958177312482,0.0946241789207086
49,0.09457944256724786,0.09539073395771404
50,0.09453844378808801,0.09459138244108224
51,0.0945362249087039,0.09432034729594026
52,0.09454338211747859,0.09427136263347745
53,0.0945742921315604,0.09470406940887552
54,0.09450325910314668,0.09439539817627152
55,0.09453651253327572,0.09443705707741423
56,0.09450212191882655,0.0946132227096298
57,0.09448006803052221,0.09446961026941592
58,0.09451764276166329,0.09449507527188608
59,0.09453314313475938,0.09429589644862425
60,0.09454017330249913,0.09464515691539295
61,0.09451435524210941,0.09422617737312626
62,0.09449130500987661,0.09430635046587277
63,0.09452070145131491,0.09432417778820153
64,0.09447760677201857,0.09436199369516161
65,0.09450935202536823,0.09443487820304465
66,0.09449177023937567,0.09431859002328803
67,0.09448505594409246,0.09430474223423493
68,0.09451369925749768,0.09441783574381116
69,0.09448681914096446,0.09431242949866646
70,0.0944885982008432,0.09427857911765529
71,0.09448809180852416,0.09437581491028124
72,0.09448523324527901,0.09449039811846206
73,0.09446112894349629,0.09430675901878323
74,0.09448540629707367,0.09442181621208469
75,0.09448190831201826,0.09430754646341351
76,0.09442184982801989,0.09435087771705501
77,0.09447087270678949,0.09449582522251329
78,0.0944624859080326,0.09435217278908818
79,0.09445793043187768,0.09428339026980073
80,0.09448336350986902,0.09424807430019319
81,0.094462952956998,0.09448680206956879
82,0.09444518205966596,0.09437535590864865
83,0.09444941123195594,0.09431239618569165
84,0.09447652319793126,0.09473552468990659
85,0.09444640033084045,0.09421089926665471
86,0.09446214631104545,0.09421253882954228
87,0.0944697508018175,0.09431793691256711
88,0.09442485541367321,0.09445807527112697
89,0.09445421861635028,0.09434740735187057
90,0.09443882512722275,0.09418897480125397
91,0.09443052117225173,0.09457228629722686
92,0.09444593583389248,0.09443194374453862
93,0.09443953111291313,0.09469958357130719
94,0.09442320339780727,0.09433477795914391
95,0.09442877879650663,0.09430552265756038
96,0.09443899213695983,0.09444118385815489
97,0.09443294708963207,0.09412818917182833
98,0.09446944461332904,0.09429306519859498
99,0.09442405908597078,0.09447127261332103
100,0.09443883489159276,0.09425151507475288
101,0.09443425647408175,0.09422041276424253
102,0.09444252399505852,0.09426742219369809
103,0.09442485736416494,0.09422310234739165
104,0.0944300354462114,0.09421765704910494
105,0.09444287033092014,0.09432630449086546
106,0.09444209732871643,0.09425340124186138
107,0.09443811770620868,0.09445615415038701
108,0.09442620163710473,0.09430664197351392
109,0.09442761648508856,0.09422313289065576
110,0.09441306400630209,0.09440771957834405
111,0.09443365692568245,0.0943178524393309
112,0.09442609506283256,0.09420929184652448
113,0.09445233572182134,0.0942502919563931
114,0.09442631485496017,0.09419201350320298
115,0.09443080551523289,0.09426952239299441
116,0.09442047401369333,0.09416232599737895
117,0.09440023844821943,0.09452586480502359
118,0.0944385327261796,0.0941651586469648
119,0.09442713382325583,0.0942378826527588
120,0.09442093221248864,0.09422876904611995
121,0.09444344776580564,0.0942888640649411
122,0.09441745726705836,0.0941735661479085
123,0.09442486925471982,0.09433916960890687
124,0.09441979557311506,0.09415573248053125
125,0.0944230268768174,0.09413707241027865
126,0.0944277481328574,0.09425599844839598
127,0.09443811848342752,0.09420657095564758
128,0.09439014913819486,0.09430120063279686
129,0.09440293113331048,0.09432018239524483
130,0.09444580988572847,0.09442332703340872
131,0.09440798647433733,0.09430158966836162
132,0.094439326930675,0.09423812406450721
133,0.09442875879428846,0.09414638404241206
134,0.09442255736814796,0.09427209727718967
135,0.09442026723179218,0.09424432172442197
136,0.0944567905853597,0.09419721460238911
137,0.09439380240323637,0.0942038768386408
138,0.09441665294680664,0.09430801857853839
139,0.0944077295573543,0.09421610510551562
140,0.09440938070964375,0.09421660839311702
141,0.09441371335924195,0.09422235370223317
142,0.09445647155042651,0.09423248399263681
143,0.09439440445005179,0.09416202400482444
144,0.09441849282033724,0.09427160428044545
145,0.09443246122661064,0.09434889677997264
146,0.0944146250071619,0.09451543703240115
147,0.0943951235442377,0.09422227347471061
148,0.09444647875251912,0.09447470050372754
149,0.09442559454283364,0.09421403164480649
150,0.09444189274744641,0.09426012433530218
151,0.09439562487123396,0.09438844351502225
152,0.09443730223688672,0.09428602651690722
153,0.09443034337376424,0.09425607651189828
154,0.09441901547171705,0.09410812250605322
155,0.09443159079808983,0.09451748411323296
156,0.09441154107427616,0.09441801271715217
157,0.09441122498145874,0.09427272702472457
158,0.09442863805736187,0.09426683652043437
159,0.094402188531977,0.09417717224655889
160,0.09441152083085214,0.09432642504678718
161,0.09441495508396273,0.09414524837281635
162,0.09441184315035384,0.09424869911987761
163,0.09440028507241624,0.0943978204323536
164,0.09443590590815178,0.09428963312127972
165,0.09439669556314234,0.09420741899284492
166,0.09440116271924534,0.09424162447899462
167,0.09442112085332782,0.09416582727629835
168,0.09440533016368353,0.09419489793638215
169,0.09440866184773014,0.09441392448302226
170,0.094416359324845,0.09436243666069848
171,0.09440490344374014,0.09426007282809187
172,0.09443402770373652,0.09423007617315723
173,0.09441535905908814,0.09413041964749605
174,0.09439658887273401,0.09419350416620792
175,0.09441217518360209,0.09416926758041887
176,0.09439163745867073,0.09416749541248594
177,0.09439082738521287,0.09612209254606746
178,0.09442719570595584,0.09421703161784957
179,0.09439282961410107,0.09423847114865763
180,0.09447030435732419,0.09426915921394338
181,0.09438452887223017,0.09416187802754525
182,0.09442980957629202,0.09417054216482551
183,0.09440020422081201,0.09415116206387789
184,0.09439706860138453,0.09415448044192255
185,0.09443003217355429,0.0941467877556794
186,0.09439236021561208,0.09426189426864896
187,0.09440498516189871,0.0946599734798603
188,0.09440130629330326,0.09416159421746526
189,0.09441148066858975,0.09415044605543789
190,0.09442305489838553,0.09437356145365933
191,0.09438916894612458,0.0946341246284174
192,0.09440061099809423,0.09450282847424991
193,0.09439152902622017,0.09427344521482629
194,0.09440565202459633,0.09442048253463589
195,0.09439331313057674,0.09418625312239143
196,0.09438656849100245,0.09433024911167308
197,0.0943957007885408,0.09430771143467481
198,0.09442531846636396,0.0941607188712732
199,0.09439271347497484,0.09426326642214264
200,0.09439448553095046,0.0941415051705459
201,0.09440138283000289,0.0944621960008436
202,0.09439726077097592,0.09426938927046596
203,0.09441844352798687,0.09417938009998228
204,0.09439453610973202,0.09422331619140381
205,0.09442431340031296,0.09473054208031957
206,0.09442732755621847,0.09416640065345787
207,0.0943659282863426,0.09421602214944579
208,0.09442666375772844,0.09417144421432182
209,0.09440391092932672,0.09435798727628653
210,0.09443242009952486,0.0942051051377121
211,0.09440282676860297,0.09424271945560082
212,0.09443896283491623,0.09431751367607358
213,0.09439041874975228,0.0942053857664471
214,0.09441798166345826,0.09437969646871608
215,0.09441548585296154,0.09414345038953313
216,0.09439856758851894,0.09437448744851017
217,0.09442241288286796,0.09417651957099421
218,0.09438517759684369,0.09416395371696003
219,0.09438691262027724,0.09423908272547898
220,0.09441571419747423,0.09432959057326004
221,0.09437292270499359,0.0944835719929592
222,0.0944429565247872,0.09410865142670972
223,0.09440198358145359,0.09419556998816078
224,0.0943976024554359,0.09448171040041765
225,0.09438264561738137,0.09432467697122103
226,0.09438540018517241,0.09422962523955666
227,0.09437536905935819,0.09418500697603353
228,0.09442022857036617,0.09429210934849734
229,0.09441562423662697,0.09413491527607992
230,0.09441123401625551,0.09416923509659311
231,0.09439503281510515,0.09414954284748508
232,0.09438742226143058,0.09419966909531637
233,0.09442757593570568,0.09423404320451154
234,0.09439097062277374,0.09462956689598058
235,0.09441947767274271,0.09435982478822227
236,0.09438963067367208,0.09412722325433213
237,0.0944043966464335,0.09421410202250861
238,0.09440469853788447,0.0942472851149379
239,0.09437111396190645,0.09426340298475763
240,0.09440296344000468,0.09418155531668719
241,0.09440905260417959,0.09417388958072888
242,0.09441129354645404,0.09435024124812026
243,0.0943830734599742,0.09437713705608952
244,0.09442176866671927,0.09446678535855466
245,0.09439487130247907,0.09430893963965828
246,0.09439669174851655,0.09423346065966841
247,0.09438672133212943,0.09418327005575658
248,0.0944027742571968,0.09414376209077632
249,0.0944419828899425,0.09420894360979806
250,0.09440161639170871,0.09427562105486312
251,0.0943821446715499,0.09434467782255412
252,0.09440798120949861,0.09416489888220766
253,0.09439676649850622,0.09426918761670919
254,0.0943954189945992,0.09432551801651598
255,0.09438455831721056,0.0942983623261798
256,0.0944054667844618,0.0943051485819617
257,0.09441497036926656,0.09420730546998902
258,0.09436901827021944,0.09416875871811312
259,0.0943947437164976,0.09418590739075368
260,0.09438481570767175,0.09433630887410165
261,0.0943771135702217,0.09417827699653916
262,0.09438363284908896,0.0942270314789891
263,0.09441707320779348,0.09417612329654648
264,0.09440274232273384,0.09427726855641194
265,0.0943800953360532,0.09430988114136077
266,0.0944090112805557,0.09419374266123338
267,0.09438357379832428,0.0941815224035857
268,0.09436662397760567,0.09412136039422456
269,0.09440664311261962,0.0940953543396474
270,0.09438561608822797,0.09420096746630431
271,0.09439373105990706,0.09440044658265907
272,0.09439859921030766,0.09420417321532754
273,0.0943882924576791,0.09421131277681809
274,0.09439184393980901,0.09435209609574
275,0.09440050766372281,0.0942848817795962
276,0.0944062976462902,0.09416855473568238
277,0.09438642268355707,0.09416525581617852
278,0.0943961670453981,0.09415261920809087
279,0.09441280992125435,0.09432579853940216
280,0.09441287391822782,0.09415965153884963
281,0.09439232391264323,0.09424597565334616
282,0.09440781338085279,0.09418113209195464
283,0.09437861777454924,0.09424973021084244
284,0.09440997114582218,0.09416879373054948
285,0.09436591782217785,0.09420137222041836
286,0.09438056467200735,0.09436685421401907
287,0.09438748906056087,0.09422751192088756
288,0.09439740553319598,0.09417786149877024
289,0.09440183754471376,0.09429075989957485
290,0.09440192191315878,0.09432672057668337
291,0.09436014257996773,0.09418773017206244
292,0.09442876388343403,0.09425045006512278
293,0.09439702451431589,0.09426062578231026
294,0.09437557223806088,0.0943086102028578
295,0.09439212483146207,0.09416164119081791
296,0.09439764634894429,0.09439083529252562
297,0.09437462017773915,0.09426423757915527
298,0.09438284362653653,0.09416065409179739
299,0.09442086500241506,0.09422159710077196
300,0.09437287360918131,0.09421747714727999
301,0.09437247835915628,0.09414194060317531
302,0.0944065252582518,0.0945208786671427
303,0.09437749071194114,0.09409722990423276
304,0.09443981115290111,0.09469597165097189
305,0.09435537930348699,0.09447125484248081
306,0.09440134463609932,0.09417490700543539
307,0.09436760023295832,0.09424126107060449
308,0.09441506635728214,0.09422574122307709
309,0.09438503758429433,0.09415029364490284
310,0.09440638001957576,0.09429281073803966
311,0.0944014837136038,0.0942945967486456
312,0.09440184310435963,0.09423560674442677
313,0.0943855564776275,0.09416249694909838
314,0.09439924460568493,0.09412963464914953
315,0.09438284391538798,0.09418644799006295
316,0.09439332025359384,0.09479094117338863
317,0.09439238858558863,0.09421646250992566
318,0.09438448354935379,0.09431902677902765
319,0.0943893083184362,0.09429233772908033
320,0.0943890663353707,0.09416595050196246
321,0.09440269878061174,0.09424320547220362
322,0.09437134380129983,0.09421987197675757
323,0.09437774189954086,0.09430089424751646
324,0.09440687090920792,0.09418489851627937
325,0.09438050894452323,0.09413073538863574
326,0.09438520158640296,0.09412294895562395
327,0.09438435680014814,0.09430052000726408
328,0.09439607640262321,0.09416178280477366
329,0.09438722858802497,0.09422674167668998
330,0.09440704643857374,0.09426300740420772
331,0.09440280427392438,0.0941439745411124
332,0.09439928951464016,0.09426498615374787
333,0.09438358043595184,0.09474431287611952
334,0.09439134371163939,0.09416556128998299
335,0.09440207295268654,0.09415104571250639
336,0.09437954320693664,0.09413918178901959
337,0.0944094529254831,0.09420677809590135
338,0.09437764567627514,0.0941843501664845
339,0.09439257893869155,0.09422905451449806
340,0.09439100542192837,0.09437492772666319
341,0.09437231416050955,0.09421333328371642
342,0.0944006487334089,0.09430819062402894
343,0.09438790051306752,0.094174986333243
344,0.09438141574152559,0.09412991403122069
345,0.0944249573395216,0.0942253362631459
346,0.09440055424325186,0.09427326665375302
347,0.09438767000068006,0.09443973725766014
348,0.09438481943296205,0.0947169922321635
349,0.09440742991418004,0.09413734181903909
350,0.09437846655635049,0.09416218756476818
351,0.09439741533627803,0.09416831296522409
352,0.09438711904781423,0.09424115451612902
353,0.09437755716266297,0.09421341458148813
354,0.09438337712026805,0.0941215739030488
355,0.09439862450714306,0.09429403529711944
356,0.09438506725261346,0.0943331210429309
357,0.09437021187288488,0.09469782630453547
358,0.09438178852069483,0.09424620735052541
359,0.09440123573017063,0.09438244830861088
360,0.09438987317786132,0.09437570382194813
361,0.09440383229919856,0.09423421262142313
362,0.094376802861357,0.09415359032982057
363,0.09439216137563677,0.0942651945877094
364,0.09439418790973633,0.09425337029284347
365,0.09440223521275296,0.09417451178947582
366,0.09438035242277369,0.0942099432283814
367,0.09439604907191629,0.09417352830695655
368,0.09438024259668937,0.09448438251851202
369,0.09438137987034498,0.09432012463707386
370,0.0944039127160367,0.09418634494035942
371,0.09436314903515325,0.09419340859648744
372,0.09444379380388225,0.09419703648823306
373,0.09436130775309962,0.09406773847746115
374,0.09440092640898401,0.09407669793293998
375,0.09437591169508908,0.09413606665246395
376,0.09440609252007363,0.0941308678172664
377,0.09436015729352439,0.0942225802128204
378,0.09441249263134124,0.09432619557831357
379,0.0943556244698741,0.09458995168850755
380,0.09440546294899105,0.09412273664053915
381,0.09436787038946227,0.09414742739419817
382,0.0943725390090264,0.09429418693142984
383,0.09439539208376913,0.09418994872209681
384,0.0943812189473332,0.09435872894718408
385,0.09437106785287769,0.09414093742101515
386,0.09435951812185353,0.09431200169891284
387,0.09439506312663988,0.0942632216951371
388,0.09437828682226052,0.09419995149995929
389,0.09438185006094207,0.09433920926104969
390,0.0943831303726426,0.09443599356730904
391,0.0944106024946812,0.09416383399606786
392,0.09439048744279513,0.09428150921871838
393,0.09436291989853247,0.09425727866043138
394,0.09437424486441959,0.0942113199274937
395,0.09438880455853652,0.09413429631924385
396,0.09441996720447529,0.09432588667030305
397,0.09436365792588841,0.0942656071628749
398,0.0944000707625104,0.09421414670835072
399,0.09435406071450309,0.09422212339873001
400,0.09440362118154788,0.09449256431449561
401,0.09439495456018608,0.094071153754217
402,0.0943986714618812,0.09428110252404269
403,0.0943852598242146,0.0941289162297087
404,0.09436854760316636,0.09411354155971388
405,0.0943679123295011,0.09416148896257803
406,0.09436816382679722,0.09434000259205029
407,0.09439389860565714,0.09430346617382535
408,0.09440185362808139,0.09420303879827614
409,0.09439657672310618,0.09418769007300239
410,0.09435177217129705,0.09415827201122172
411,0.09438256549535037,0.09426992508305652
412,0.09437445614882987,0.09413408288686598
413,0.09437990542069423,0.0941704937272309
414,0.09439466768603245,0.09419780534463505
415,0.09439675902708067,0.0942651283557526
416,0.0943775952523418,0.09422209703649417
417,0.0943955238238513,0.0942882538935568
418,0.09436689254989346,0.09418554254164353
419,0.0944139455451811,0.09416827728829237
420,0.09438645493962781,0.09419787531070288
421,0.09438168464435472,0.09418250767965437
422,0.09438387182154816,0.09428475066819526
423,0.09439661958330064,0.09412198692513152
424,0.09437383757494718,0.09429410037061975
425,0.09437752655334324,0.09412526170522469
426,0.09436848357343655,0.09420408146204493
427,0.09438659740294769,0.09414626100492364
428,0.09439222720398796,0.09429737369823192
429,0.09439222918723604,0.09428550471164339
430,0.09437089685282166,0.09420650584686432
431,0.09437791458803782,0.09416941494549365
432,0.09440162605780968,0.09431068600988238
433,0.09439190451523288,0.09411777298965131
434,0.09437625463322388,0.09420244032906658
435,0.09438142078600341,0.0941557855166689
436,0.0943610378258901,0.09430844377323502
437,0.09437003737981085,0.0941420995175321
438,0.09438181324876088,0.09417160906797332
439,0.0943783600654581,0.09416947338580145
440,0.09437327130104331,0.09425657887038229
441,0.09438771173822508,0.09411806579100022
442,0.09439469242600991,0.09418657396779628
443,0.09438422825232112,0.09418670367964065
444,0.09439596764558701,0.09417712740782404
445,0.09435724103443628,0.09419466887954285
446,0.09438604944877678,0.09423870842642171
447,0.09439974483087671,0.09423740882053089
448,0.094367764095108,0.094191065644691
449,0.09440490079940937,0.09432467543053269
450,0.09437427954148236,0.09415799562231988
451,0.09437609973738043,0.09416231715900275
452,0.09440815796573862,0.09418748158023596
453,0.09437662100108217,0.09447078393873683
454,0.09437945038139772,0.09413113388002813
455,0.09436198222420389,0.0942381073345137
456,0.09439416254441038,0.09420207018163511
457,0.09437490938950499,0.09436103952100358
458,0.09438857990357992,0.09415269721278828
459,0.09435207293116503,0.09411848094182025
460,0.09436976806901627,0.0940990689274544
461,0.09437978708987041,0.0945977816783074
462,0.09438461245154496,0.09422873688572114
463,0.09438607892651352,0.09441424809225733
464,0.09442636856346202,0.09410903854523481
465,0.09435623694214222,0.0944366354580554
466,0.09440517181353413,0.0943800250058016
467,0.09435607363982833,0.09426586708052477
468,0.09439066298407235,0.09420500745101529
469,0.09437474537846281,0.09425040733748379
470,0.09439030067502356,0.09523972716614686
471,0.09437313375415371,0.09453388858636534
472,0.09437582898530647,0.09420515050569103
473,0.09437647747466986,0.09518361006346668
474,0.09437391401337777,0.09409870236712171
475,0.09438002099105113,0.09416679735718135
476,0.09437752456116162,0.09423610555697541
477,0.09439546471948532,0.09426785291605515
478,0.0943812332886586,0.09439201678877848
479,0.09439831877724349,0.09418805121740395
480,0.0943838214750389,0.09410806774693205
481,0.09437345090708572,0.0943482286034368
482,0.09439396843028297,0.09417086490962857
483,0.09437131633063396,0.09418137217471237
484,0.09437667130590152,0.09413776859558748
485,0.09435337224452615,0.09423079555699838
486,0.0943809151828146,0.09416451443342497
487,0.09438482856602787,0.09436459060767173
488,0.09437125724413507,0.09413147660673558
489,0.09438260053868869,0.09419353486236476
490,0.09438719085568814,0.09421310640265834
491,0.09438855325182278,0.09455896154245995
492,0.09439352722012168,0.09415649994325713
493,0.0943747941050217,0.0941955965444528
494,0.09439541273813644,0.09437741333914254
495,0.09435412603066408,0.09421285578206287
496,0.0944056114007672,0.09419383359712791
497,0.0943689094685155,0.09416185165942892
498,0.09441123149699444,0.09414163060727417
499,0.09435609533346528,0.0941207262951272
500,0.09437068460061014,0.09434373770864724
