epoch,loss,val_loss
0,0.1734187346201935,0.06184908440123417
1,0.0552556497974695,0.048848948058478926
2,0.04839019759965362,0.04792262460880611
3,0.04808813309837445,0.048367248040983406
4,0.04816104083371867,0.04801317388463792
5,0.04821077549903036,0.04767704751245507
6,0.04806011817533431,0.04997368654399381
7,0.04802322974182862,0.047885511249844824
8,0.047988458812760884,0.04764084402110131
9,0.04796903153254593,0.04848093737354877
10,0.0480255857914043,0.0475394402460828
11,0.04789078973388548,0.047951091848307925
12,0.04791963288335682,0.04835168477485946
13,0.047950316699955774,0.0480759523914805
14,0.04790101077505868,0.04779103668531566
15,0.04787686082581393,0.047495966337638855
16,0.047797749582812084,0.048989400749801175
17,0.04784060699744619,0.04731638597849324
18,0.047829975961423896,0.04795109738184884
19,0.04784022718608427,0.04750998635447769
20,0.04780771616819522,0.049750760629855464
21,0.04783225845066096,0.04775907627314964
22,0.047809883331259094,0.04778607001773654
23,0.04777039211693047,0.04807106739508419
24,0.04780743308931137,0.04738803160830379
25,0.04778042458724394,0.04744217935552631
26,0.0477313790842593,0.0484813697042198
27,0.047719095865611454,0.04755671305880362
28,0.04774458301689127,0.047743776370642595
29,0.04773740639997948,0.04804478060592322
30,0.0476841276748289,0.04744585894559816
31,0.04766361727613768,0.0478636815632387
32,0.04767771688796919,0.04767983718448111
33,0.04769795676388091,0.0481530091451112
34,0.04765436900921053,0.04765503309320161
35,0.04766612829004737,0.04773473752855126
36,0.04766935773854919,0.04782657085931856
37,0.047679457773300384,0.047777086763915434
38,0.04761378473038677,0.0476929473719356
39,0.04763421521698542,0.047433836713445025
40,0.04763713603813966,0.04802170130935069
41,0.04763990904924443,0.04749813485940611
42,0.047594398501322424,0.04766629085285794
43,0.04760392135281643,0.047809248765152836
44,0.04757764927899952,0.047364349214576225
45,0.04755629822730923,0.04760663058746962
46,0.04755357551506812,0.04743927465817923
47,0.0475443085755328,0.04784722859076656
48,0.04752946587548934,0.047307177875323285
49,0.047545448425028634,0.047406407383335986
50,0.04762107846464852,0.047629216016985436
51,0.0474684991025858,0.04726019733965444
52,0.04756155804687028,0.048075342328885266
53,0.047477095379686945,0.047605573204834814
54,0.047532320177431205,0.04753311113075845
55,0.04751244143580647,0.04722286203924652
56,0.0474978273423265,0.04740640183509384
57,0.047474071920978175,0.04759797867278744
58,0.0474589865633862,0.047246934665218523
59,0.047501211433554534,0.04803115948329032
60,0.04746968334586881,0.0478665398811626
61,0.047458172641057284,0.04755981397927513
62,0.047479800022334505,0.04739195520342008
63,0.04747745438778905,0.04731523050340782
64,0.04745331870840131,0.04747572412748175
65,0.04742349353250411,0.047697501514333385
66,0.04747002854419174,0.04885768613409789
67,0.04748918871424324,0.047467457090858034
68,0.0475007602371734,0.04827076556556509
69,0.04742881347038906,0.04762094146509573
70,0.04740708575641318,0.047463403663347344
71,0.047419892908405245,0.04768029970558685
72,0.04744099226328347,0.04864257430009421
73,0.047434641381831386,0.04744140793817102
74,0.0473877633456513,0.04765723636572344
75,0.0474862459999361,0.04763046931401895
76,0.04741855541751873,0.04812505463139693
77,0.04739655330360269,0.047704360144243715
78,0.047425838388341794,0.047225595255630075
79,0.04742469365070526,0.04722355376126358
80,0.04738604939795084,0.047232768823993236
81,0.04744786502783009,0.04744723475969675
82,0.04740600782684047,0.047757377690726036
83,0.04736879725994871,0.047482316750495
84,0.04741301265605491,0.047392037224492034
85,0.04743266414008219,0.04749803940729542
86,0.04740289688336668,0.04717062631564622
87,0.047386430261982714,0.047321852887580035
88,0.04741672740625344,0.04730527087363937
89,0.047376681489945886,0.04731774995222558
90,0.04743611017356721,0.04746546155839994
91,0.04737036559823082,0.04721369827791002
92,0.04747879080516067,0.04758913921752405
93,0.04742435825099762,0.04794275033528069
94,0.04737528798867949,0.04767452319165149
95,0.04734553541425321,0.04757634941385596
96,0.04736767828667002,0.047448790225699464
97,0.04739918124874671,0.047350232128492
98,0.047364537424737695,0.04722539243165583
99,0.04741898555454495,0.04767851290699527
100,0.04729848467617584,0.04781717761186699
101,0.047411297392144766,0.04749736198368934
102,0.04742264877751672,0.047424362065313176
103,0.047328755304181604,0.047226064248214863
104,0.047358604544084325,0.04762468069215506
105,0.04740685094996608,0.04756139731879957
106,0.04738666682982807,0.04736328242609796
107,0.047328230687420814,0.047379495630418586
108,0.04736388704592852,0.04766853261024536
109,0.047326035213937384,0.047322430181145764
110,0.04734818934113812,0.047259093651102584
111,0.047381341759618716,0.04725182987602564
112,0.04733139625955209,0.04710375357069363
113,0.04741927951747041,0.047278442038568624
114,0.047294140725637035,0.04718877630339143
115,0.04734067743469914,0.04737692339538399
116,0.04737668283295622,0.047280636828483893
117,0.047339189097845104,0.04747896076671797
118,0.04733831005589329,0.04760917093260794
119,0.04735014714646063,0.047544294122927
120,0.04737144617957892,0.0480131591981146
121,0.04736365702339738,0.047434238886024035
122,0.04730638575335915,0.0473848866782465
123,0.047341189471532784,0.047531388164883816
124,0.04734893718795429,0.04717623243062818
125,0.04733505911773724,0.047642476818485345
126,0.047318434481211986,0.04724855655135371
127,0.04735147241773985,0.04718844515830867
128,0.047356006161545776,0.04722457629905598
129,0.0473339566700369,0.04720594507554618
130,0.04731578787388228,0.04750877502355975
131,0.04732099019860526,0.04728567018375777
132,0.0473019872843433,0.04757903336349584
133,0.04732934049041056,0.04720389812996562
134,0.04733692391736092,0.04761594789427571
135,0.04730826402328712,0.047556832864962886
136,0.047310849429844475,0.04863366826298487
137,0.04733902739463664,0.047222316268046446
138,0.04732069042589453,0.047502269146592016
139,0.047293405244342814,0.0473003500268369
140,0.04733722567629757,0.047371424884544926
141,0.04731989169357825,0.047463355419808895
142,0.04734350217403554,0.047105768573453506
143,0.047299019134730745,0.04819322381265632
144,0.047337624892818744,0.0479864189438022
145,0.04729542744567068,0.047632094046311205
146,0.047290360867727005,0.04717150611924956
147,0.047287128746604845,0.04749883885988591
148,0.04729175974847935,0.04763489191868028
149,0.04733571857154417,0.048095846065006206
150,0.047360356355147015,0.04726534678755826
151,0.04725396378988699,0.0471922380536583
152,0.04734731986999607,0.047445400629042636
153,0.0472910297136727,0.04721025290774753
154,0.04732900425839386,0.047529072448575974
155,0.04730459757083707,0.047240511467937604
156,0.047311854740079165,0.04736973585791727
157,0.047326146445566895,0.0473322115350447
158,0.04735561440900552,0.047115693725910165
159,0.04728639959621963,0.04724302896149251
160,0.04730401770900384,0.04752665482043938
161,0.04731762834596072,0.04753439851111094
162,0.04732397186467878,0.04746438547874777
163,0.04732432902502499,0.04719545410529967
164,0.04730361509028908,0.04723164166346627
165,0.04729290480027906,0.0472769393029181
166,0.04730118026764844,0.047145762537395094
167,0.04732313785228512,0.047781024325195036
168,0.04730216803090225,0.04719059292194687
169,0.04732162930774127,0.047176093339402564
170,0.047326810768158506,0.048142284016700454
171,0.04730363365420573,0.04746436786080028
172,0.0473053268418252,0.047388385055144186
173,0.047243986091167804,0.047458155761342775
174,0.047303488291948914,0.04740480814884757
175,0.047322129413819046,0.04740906160709984
176,0.047303957144002456,0.047660354930604644
177,0.04727200790048598,0.047499458245997744
178,0.047297782109057204,0.047219407880692
179,0.04725516340036472,0.04710951006744166
180,0.04735028000621439,0.047207634728446
181,0.04730447421042468,0.04727553024347034
182,0.047255811376048985,0.04732491915138481
183,0.04732034669416271,0.047471560561337056
184,0.04728421176538812,0.047205068600300076
185,0.047295608869690496,0.04726631350480108
186,0.047315711806194004,0.04752892664771148
187,0.047318388713147044,0.04731349114860807
188,0.04724688367764775,0.0471753970276632
189,0.04732642395140456,0.04724454316997867
190,0.047284135161686856,0.04748105990752613
191,0.04725482439448079,0.048128351572115965
192,0.047350148224442314,0.04745709511209588
193,0.047272101979699735,0.04730980214093177
194,0.04725146363917396,0.04726738953740934
195,0.04731007367908526,0.04731822800076469
196,0.04734330411574585,0.047476701635423384
197,0.0472917147844339,0.04727424252204944
198,0.04727432020693469,0.04756967906252832
199,0.04728655088290894,0.0474014398866078
200,0.047243996334971665,0.04751205977108315
201,0.04727793620418397,0.047170490208769185
202,0.04729537437442872,0.047136012311869
203,0.047298966505699494,0.04734957016175341
204,0.047256748572432644,0.047215246954887234
205,0.04728381206943311,0.04720483749116982
206,0.047287013819463534,0.04725743059859844
207,0.047277352561970215,0.049114402098362146
208,0.04732449179728159,0.04716279418534807
209,0.04723636652503035,0.04729391383661373
210,0.047320370198332434,0.04724052709239905
211,0.04736226336132708,0.047618076628648864
212,0.04726858531012476,0.0472788790530498
213,0.047271397980235275,0.04747167586304112
214,0.0472643192735412,0.04724861850231392
215,0.04723234610895602,0.04729574919334997
216,0.04734877038368885,0.047154277498409704
217,0.04723711690301899,0.047966053766722555
218,0.04727261060093947,0.04723304745630194
219,0.04730708674668408,0.04723441157998677
220,0.047287302472882514,0.04731003264731183
221,0.04727488016928557,0.04706908942397975
222,0.04726649083340054,0.04717608502144972
223,0.04732788074389398,0.04752206810894874
224,0.04725995989327284,0.047188644915607474
225,0.047337842018281714,0.04776503306232105
226,0.047294399316171756,0.04722350920479224
227,0.047249344584765096,0.0471895733449811
228,0.04725886608729307,0.048126259179169864
229,0.047235259041785715,0.047188483337388794
230,0.04731407291966853,0.04735245058443853
231,0.047221897323306894,0.04718795094136281
232,0.04729242460261718,0.047310832096962074
233,0.04725920838816799,0.047127826096697314
234,0.04728582897763268,0.04792790756441047
235,0.047327521085131656,0.04775721708572842
236,0.047192229508912914,0.04947020384852775
237,0.04732594049746375,0.04736932957781612
238,0.047264111840979846,0.04791662015238425
239,0.04728695395425689,0.04717798255848527
240,0.04733458596566836,0.047325947863691514
241,0.04727883280353914,0.04796961526479793
242,0.04735238807980153,0.04750477073048172
243,0.04731983672246801,0.047289095827817165
244,0.047195491806077634,0.047154310784922306
245,0.04735148042220053,0.04724374873932648
246,0.047208266575440326,0.04770591262001735
247,0.04727320211361066,0.04741469586022557
248,0.04724821038722849,0.047290679414322176
249,0.04727688697661808,0.0472286347573257
250,0.047278136187653655,0.047382904647393025
251,0.04730453305720664,0.04779904848809965
252,0.04725852312533547,0.0481594601541687
253,0.04728257441096645,0.04737941667896232
254,0.047283964574063045,0.04906022128220515
255,0.04725602751435469,0.047172680958787946
256,0.04727567925596599,0.04807466609019789
257,0.04731009932284018,0.04753648460605244
258,0.04725721641350612,0.04729677132832882
259,0.04726244193419135,0.04717121846332922
260,0.047264119636991044,0.047071173272574145
261,0.047268749510260416,0.04837714749569957
262,0.047248280621308696,0.04757716035986379
263,0.04731555080129136,0.04736063822268875
264,0.047269591198062344,0.04738378537129302
265,0.04724074485782477,0.04732394932336288
266,0.0472871574381892,0.04730188074479822
267,0.04727813363265839,0.047184116121061034
268,0.04724790878016219,0.04728754034123274
269,0.047282333878113876,0.04851696190395596
270,0.047251702958552674,0.04726137579569406
271,0.04726128347760005,0.04729815307290138
272,0.047338355865648135,0.04742062689285158
273,0.04719451569366179,0.04784298859883597
274,0.04728836482383317,0.04742623838848172
275,0.0472504448958581,0.047298952328495465
276,0.04728314842132451,0.04835896106067848
277,0.04724195420140509,0.047289999553253075
278,0.0472550135370877,0.04810245590609364
279,0.04726321392690392,0.047137547610731884
280,0.0472790865506009,0.047298366564084156
281,0.04723277545536308,0.04980651705269279
282,0.04731525203658284,0.047122269639511605
283,0.04726959523751581,0.04740019811533432
284,0.047258275150835846,0.04721053307192384
285,0.04729022169493133,0.04725466163177705
286,0.04731939117357933,0.04789856542857406
287,0.047254896433138065,0.047415029128165156
288,0.04723727493304953,0.04720512818730339
289,0.04723609861978095,0.049678394193125225
290,0.04726056737615336,0.04747909565927386
291,0.04732988683952035,0.04736337232996651
292,0.04726735766914537,0.04748600053041585
293,0.04728010274338827,0.047623124552836266
294,0.047236271218942416,0.047396375694045326
295,0.04730538813788875,0.0471836577515811
296,0.0473133702572587,0.04718005882418805
297,0.04724401528749773,0.04734876476692796
298,0.04726751388566528,0.047280886517021725
299,0.047259090201769896,0.047124848837046145
300,0.04728141377310006,0.04719100078095953
301,0.047269708848447445,0.047805802139505776
302,0.047302132185033374,0.04719042694218157
303,0.04728752220694205,0.04726958108717471
304,0.047237018946644595,0.047403169468033475
305,0.04730594470102391,0.04902498304973273
306,0.04724340619955608,0.047256790116229394
307,0.04722261196560711,0.04740078228907314
308,0.04727823475299836,0.04713150635714501
309,0.047207121090363444,0.0472890369376519
310,0.04723463821664846,0.04723678471045693
311,0.04725735256825086,0.0476764617245218
312,0.04730566348627412,0.04732733995498591
313,0.04721917970467814,0.04759940856975087
314,0.04725952389881575,0.04719571149139867
315,0.04722789620353783,0.04737600116404663
316,0.04726051563303248,0.047380797303301574
317,0.047205527534158964,0.04748344942986166
318,0.04725598906137817,0.04732966181934586
319,0.04724934579675003,0.04721150461998904
320,0.047211683582332874,0.04751117150545497
321,0.047280532695787796,0.04717564856267484
322,0.04720120324785237,0.04714743312280669
323,0.04726792976325698,0.04712392087517146
324,0.04726305122909357,0.04711804081757142
325,0.047246657289582474,0.04870864974765582
326,0.04724563747275171,0.047661559584226396
327,0.04727474031158441,0.04726774369872924
328,0.04727863537506472,0.047299920345326533
329,0.04722334556043339,0.04759011419391482
330,0.04724574759959889,0.04734543982625666
331,0.04724729401494959,0.04752439160220437
332,0.04725430686351397,0.047397518931831445
333,0.04724050308916447,0.0473168547329182
334,0.047259400664961974,0.047148912568777304
335,0.04731268982598774,0.04714662698409928
336,0.04719202133486692,0.047444555141037625
337,0.0472391524882935,0.04714796760640656
338,0.047279581445441254,0.04728551363041764
339,0.047227768875140366,0.04709991854751496
340,0.04728155977410569,0.04733751002690316
341,0.047255317654481516,0.04708929161446341
342,0.04727444990272288,0.04751587686758862
343,0.04722814497610124,0.047413217322790635
344,0.04726822278369293,0.04708832426212769
345,0.04723356855954293,0.047695702387294904
346,0.04726917749132327,0.04724737242358166
347,0.04727754504870263,0.04724065835963297
348,0.04719782605332484,0.04715762350299552
349,0.04722012376053918,0.04714381942068298
350,0.047248064974348226,0.047186302490114886
351,0.047274580535044866,0.04808506571879609
352,0.047228906154751685,0.047332453387829855
353,0.04728510866699506,0.04756588953081886
354,0.04725206101225387,0.04754538012884598
355,0.04726144307249074,0.047334318285206685
356,0.0472538622630705,0.047116166564335295
357,0.04722256114115294,0.04714076607925457
358,0.047228580797843034,0.04749805625783898
359,0.04722170655032713,0.047185938731835596
360,0.04730708113343691,0.04713755284436782
361,0.04723613183025262,0.04739436047664757
362,0.04720597187404057,0.04719010484129214
363,0.04726476082466632,0.047353325613084134
364,0.04725603611885215,0.047242095389630534
365,0.04717919280191215,0.04720841907405816
366,0.04728953053446697,0.04722946587047336
367,0.047247877593139566,0.04720973196103522
368,0.04721118337351927,0.04728122865273996
369,0.04724631083460687,0.04711116217047376
370,0.047215134311887286,0.047167430319415365
371,0.04728561907494478,0.04734176630191005
372,0.047258551907744244,0.04720268074214317
373,0.047179871945263005,0.04766174170887649
374,0.04721506427136733,0.04723555675245404
375,0.04726418553978848,0.0474759356663419
376,0.047225314014547354,0.047408717395568706
377,0.047254483643576775,0.04720742644737721
378,0.047214158695283455,0.04720008719327324
379,0.047222774742330484,0.04743456336557159
380,0.04733446339587513,0.047307568566245926
381,0.0471799154635623,0.04764136099848299
382,0.047257354280514585,0.0472664251694222
383,0.047272466173727545,0.04709020764188401
384,0.047310146646831724,0.047403726100498235
385,0.04716333137195316,0.04775360797038677
386,0.04730865108273584,0.04731464428619879
387,0.047194580368096116,0.04731061969955041
388,0.047240504180546476,0.04714462889950861
389,0.04727184658886479,0.04718846678380996
390,0.04718908608751855,0.04716749668956367
391,0.04733253420769072,0.04710550706513114
392,0.04717667409174924,0.04747315970761812
393,0.04730635472714043,0.04884965104751448
394,0.04721182431552193,0.047827591197807766
395,0.047204827236162004,0.04867736814689147
396,0.04725016029827076,0.047385530465450826
397,0.04724605611081032,0.04715940915195135
398,0.047216977997065826,0.04741870287597038
399,0.0472507361608515,0.04732281526502136
400,0.04722640370960525,0.04716649446886359
401,0.04722521778234808,0.04732200164339066
402,0.0472093506006719,0.0483269870587005
403,0.047257914232442993,0.04708382680177124
404,0.047207845709949944,0.04706210240533527
405,0.04725247859317574,0.047484308293040754
406,0.04724035197072368,0.04715469541305995
407,0.04724246655835761,0.047195183629230336
408,0.04728536371686619,0.047065560697874126
409,0.04720064045952188,0.04726180081691625
410,0.04724810987139205,0.047155458409553826
411,0.047194688109685475,0.04719064834262314
412,0.04737571819121841,0.047147021053363325
413,0.047153482514379216,0.04736574828895228
414,0.04723760260821437,0.04710655972279238
415,0.04720585979074597,0.047624801994898984
416,0.04722152026198941,0.04785068912965252
417,0.04726173228425659,0.04819984649379327
418,0.04722455101791951,0.04707518201424272
419,0.047317312664086585,0.047132680226402573
420,0.0472471345391729,0.04746301335171629
421,0.047258436813843334,0.04727984407671155
422,0.047164624524142724,0.04729103938850626
423,0.04727229120717537,0.04718855370332994
424,0.047221015394329546,0.047147406278370683
425,0.0472879828758639,0.047673038400315636
426,0.04717096856696238,0.047562862316406704
427,0.04731845728558697,0.047101974031566726
428,0.04717971926047314,0.04731047683305033
429,0.04721372804755597,0.047310798063627264
430,0.04724014793142236,0.04748175652505096
431,0.04721876592200389,0.0472502603968157
432,0.04728456366982915,0.0478808573184751
433,0.047222937946375325,0.047282059277806966
434,0.047195934135910514,0.04753267169939596
435,0.04724398038560729,0.04712974950494781
436,0.047259082666320576,0.047135010582189815
437,0.04721601614110666,0.04756776750052455
438,0.04727426255575949,0.047154364770759065
439,0.04722236478619343,0.047105752628505373
440,0.047218349825540226,0.047119586322024384
441,0.04721307098347363,0.04746549010523775
442,0.04727186347029621,0.04733015278144059
443,0.047213052933236105,0.047188080032815494
444,0.04723730637616724,0.047196720010103346
445,0.047246345645672885,0.047261985720097786
446,0.04723394903347647,0.047395124296410025
447,0.047296961252804665,0.04719416134135875
448,0.047166354875329684,0.047613946634220534
449,0.04723226383691736,0.0475642403180475
450,0.04724340007262979,0.047203098012879786
451,0.04723527738236361,0.047249332561371545
452,0.04730383923007764,0.047345205909192514
453,0.0472370096066182,0.04733625684747944
454,0.04724084155307971,0.0471698380830303
455,0.04723927077296064,0.047331963331330544
456,0.04726122531125681,0.047196921552130816
457,0.047268079205168234,0.04720515187097612
458,0.047248190320986545,0.047360614203828096
459,0.047178380682671384,0.04722873444338906
460,0.047254411268422454,0.04715462779918805
461,0.04730545859977448,0.04718499727717703
462,0.04719696226392051,0.04713168555037093
463,0.04721225192584246,0.04773475706647867
464,0.047235788838516514,0.047064066650647295
465,0.04721909523647514,0.0470841889017524
466,0.047244501221987555,0.047664516344490065
467,0.04720038360805153,0.0471976048033023
468,0.04728167822106565,0.04741795889110008
469,0.04722231214376186,0.047478255319637674
470,0.04725885619040873,0.04737400766035752
471,0.047208563858668486,0.047794351188117534
472,0.04726617216623182,0.04749006795937279
473,0.047196863890647124,0.04733830260226081
474,0.04729900870630019,0.047751181747914304
475,0.04722893819790616,0.04759006256027398
476,0.04719031389823539,0.047132819047125664
477,0.047216297212919645,0.0476737483959548
478,0.04722263633633117,0.04729401107345309
479,0.04724979369069556,0.047497426180996664
480,0.04721879015276901,0.047137314025915415
481,0.047244740329938924,0.04726741578203539
482,0.04723662116395817,0.0477199029786058
483,0.04727041146172275,0.047163273477610776
484,0.0471992708197672,0.04776713697808694
485,0.04726722913174082,0.04726206961410574
486,0.04721892068533303,0.0481307391244874
487,0.04722920039163934,0.047435542752329724
488,0.04723824799465809,0.04794059933443284
489,0.04723976497247303,0.0474131833012168
490,0.04721687453613579,0.047867192744902955
491,0.04722309895127797,0.04726883624963339
492,0.04725899086516205,0.047109590303784955
493,0.047251437709545444,0.047341638239543085
494,0.047234705572636676,0.04739458011588245
495,0.047205649676630726,0.04743736811223327
496,0.04722935986443818,0.04741888956682082
497,0.04726198197995349,0.0474976466493806
498,0.04727653372321102,0.047314762051828094
499,0.04719367743932086,0.047102448272488676
500,0.047232193602837154,0.04741327311981825
501,0.04726936398215479,0.04725567993855702
502,0.047189299291153126,0.047276689173343524
503,0.04725279972600422,0.04856073828421433
504,0.047231862811352325,0.04774086048566364
