epoch,loss,val_loss
0,0.3381163309680091,0.3349704450567563
1,0.3345694360335668,0.33424500475327173
2,0.33440094743172327,0.3342918260097504
3,0.33430585032701493,0.33414441941181816
4,0.33426864248514176,0.33412655429045357
5,0.3342343205279774,0.334366178492705
6,0.33419336074590683,0.3341117693980535
7,0.3341845488283369,0.33410942580302555
8,0.3341551467710071,0.33419162897268934
9,0.3341428185171551,0.33412202711900074
10,0.3341290781431728,0.3340349381566048
11,0.33412376507785585,0.33410880106687546
12,0.33411812926001017,0.3341252370476723
13,0.3341043344140053,0.3340467353463173
14,0.3341045688390732,0.3340684162378311
15,0.3341055386794938,0.33459085021416346
16,0.33409448334905834,0.3342521783312162
17,0.33408928487035966,0.3339798605640729
18,0.3340881276263131,0.33417386730511983
19,0.3340786933236652,0.3341184052626292
20,0.3340778912438287,0.33403944939374924
21,0.33406277537345885,0.3339778359731038
22,0.33406209026442635,0.3339879740277926
23,0.3340588736931483,0.3341259740193685
24,0.3340601670410898,0.33408635477224985
25,0.33404892660511865,0.3340403500596682
26,0.33404429059558444,0.33396569097042084
27,0.3340395819677247,0.33397381180524827
28,0.33404399942027196,0.3339853908022245
29,0.334032722334067,0.33395986998081206
30,0.3340374269551701,0.33418457357088727
31,0.3340362059738901,0.3339551951090495
32,0.3340280735095342,0.33392471704880394
33,0.33403599332438577,0.3339684846997261
34,0.33403578841023973,0.3339834329287211
35,0.33403128726614845,0.33399992100397746
36,0.33402827511231103,0.33396138670047126
37,0.3340365149312549,0.3340554782152176
38,0.33403114937411416,0.3339675605297089
39,0.33402727193964854,0.3339482678771019
40,0.3340321492155393,0.33397570566336315
41,0.33403675131003063,0.33395574961105984
42,0.33402509025070404,0.3339551816980044
43,0.3340315235853195,0.33396897558371225
44,0.3340209510260158,0.33407327310244245
45,0.33403170483642153,0.33394157709678013
46,0.33402699800332386,0.3339710403283437
47,0.3340239589942826,0.33410721490780515
48,0.33402678193648655,0.3343551118572553
49,0.33402385874589285,0.33396086486180626
50,0.3340252175397343,0.33434647105137505
51,0.3340191499657101,0.3339483414491018
52,0.3340190500418345,0.3339532572229703
