epoch,loss,val_loss
0,0.4472650484111574,0.44531835822264354
1,0.4453999399940173,0.44516077216466265
2,0.43881685747040644,0.3341890473167102
3,0.30527100689874753,0.22315432691574097
4,0.22329868281549878,0.22399182681242624
5,0.2232640392449167,0.22315440641840298
6,0.2232230097287231,0.22322453332940737
7,0.22319893886314499,0.22314913406968118
8,0.2231895805067486,0.2231904262204965
9,0.2231688167585267,0.22309330077966055
10,0.22316925155454212,0.22304638028144835
11,0.2231445578502284,0.22307075595855713
12,0.22314284554455016,0.22308644114931425
13,0.22312722222341433,0.22303973273436228
14,0.22313793182704184,0.22340487054983774
15,0.22312805094983842,0.22311125280459723
16,0.22311048614647652,0.22316840623815853
17,0.22310368944870101,0.22318739424149195
18,0.2231005924112267,0.2230535950164
19,0.2230930741959148,0.22300938093662262
20,0.22309120105372535,0.22352951995531717
21,0.22308763050370747,0.22299236517151197
22,0.22308805168337292,0.22319629713892936
23,0.22308393736018076,0.22300499393542608
24,0.2230702929496765,0.22310591291387877
25,0.2230826615360048,0.22303393798073132
26,0.22307593717839982,0.22300915480653444
27,0.22307467906011474,0.22303587434689204
28,0.22307401398817697,0.22304599826534588
29,0.223068074249559,0.2231409368813038
30,0.2230667498740885,0.22297473420699437
31,0.22307107307182417,0.22300930970907212
32,0.22307034498784278,0.2230045432547728
33,0.2230702303449313,0.22299990025162697
34,0.22306456064515642,0.22306475055217742
35,0.22307371146149105,0.22297925395766893
36,0.2230499966442585,0.22296795828143756
37,0.22306527001659077,0.22346440395712852
38,0.22305627738104927,0.22302738735079766
39,0.2230635057191054,0.22325871680180231
40,0.22305607097016442,0.22301170255740482
41,0.2230600797865126,0.22296674724419913
42,0.22305447687374222,0.2229817395408948
43,0.22305332526233462,0.2229624613126119
44,0.22305677239762411,0.22299901086091994
45,0.22305733338660663,0.2230535004635652
46,0.22304675704903074,0.22295717982451121
47,0.22305078848203022,0.22304470975200336
48,0.22305668669276768,0.22298308531443278
49,0.22305525427394443,0.22303186157345772
50,0.22305058444870843,0.2237758127748966
51,0.22305604600575235,0.22315373434623081
52,0.22304811267058056,0.22299232072631517
53,0.22304255232546064,0.22299785200754801
54,0.22304578152630064,0.22315360395113626
55,0.2230522543291251,0.22295307829976083
56,0.22304924475484425,0.22295361351966858
57,0.22304152935743332,0.22300441095232965
58,0.22304906597733498,0.22313263732194902
59,0.22305050100220575,0.22298558870951335
60,0.22305541566345427,0.22311718260248503
61,0.22305122849345208,0.22310276977221172
62,0.22304367849561904,0.2229830895761649
63,0.22304249183336894,0.22309372627735138
64,0.2230435417526298,0.22298727843165397
65,0.22304690071940422,0.22310532013575235
66,0.22304668513933817,0.22309064522385597
67,0.2230444019999769,0.22309631195664406
68,0.22304165613651275,0.2229701822201411
69,0.22303437688946723,0.22305184017618498
70,0.22303965619537566,0.2229481820265452
71,0.22303637405898835,0.22304736080765725
72,0.22303592544462947,0.2229758776227633
73,0.22303798783818882,0.22299196201562882
74,0.22304072787364324,0.22305362670620282
75,0.22303419110510084,0.22306933117906252
76,0.22304123500320647,0.22317288062969842
77,0.22302720482150715,0.22298080014189084
78,0.2230357286433379,0.22315675309300423
79,0.22303130360775525,0.2229554958343506
80,0.22303285371263823,0.22301707676053048
81,0.2230304237835937,0.22331181028485297
82,0.22302567584315935,0.22302151051163674
83,0.22302457277642357,0.22297646286090214
84,0.22301904174354342,0.22303026486436525
85,0.22302148082852363,0.222963617314895
86,0.22302253000272645,0.22305045729875564
87,0.22302394630511602,0.2229296827117602
88,0.2230335744586256,0.22296653512120246
89,0.223015684346358,0.22302620960275332
90,0.2230185205936432,0.22304671748479207
91,0.22301606394516096,0.22291431336601575
92,0.223017161147462,0.2229353398879369
93,0.22301718248261346,0.222943360298872
94,0.2230161027179824,0.2230639006793499
95,0.22302211078339154,0.22294942005475363
96,0.22301577688919175,0.2229216473599275
97,0.22301086409224405,0.22294906355937322
98,0.2230092947350608,0.22319479800264042
99,0.22301638138956495,0.22300118830800056
100,0.2230126508143213,0.22292663393417994
101,0.2230175331864092,0.22291403948267302
102,0.22302361214160918,0.22295521700382231
103,0.22301687071058485,0.22299638578295708
104,0.2230077199406094,0.22293138734499612
105,0.223009824971358,0.22302688711881638
106,0.22300797568427191,0.22322578161954879
107,0.22301579147908424,0.22294591331481933
108,0.22301212562123934,0.22302795664469402
109,0.2230121929910448,0.2229815355837345
110,0.22301625042160353,0.22295375355084737
111,0.22301382334364786,0.22293860847751298
112,0.2230107380847136,0.22300901478528976
113,0.22301156593031354,0.2229310341378053
114,0.2230148682627413,0.2230922683576743
115,0.2230068153904544,0.22293756655852
116,0.22301097732451228,0.22291630213459332
117,0.2230078399380048,0.22294825915495556
118,0.2230093037618531,0.22293372155229252
119,0.22301366081502702,0.22325651926795642
120,0.2230056352449788,0.22292404971520105
121,0.22300544638435046,0.22293796734015148
