epoch,loss,val_loss
0,0.7789420688019858,0.7782570068041483
1,0.7781833625634511,0.7782237140337626
2,0.778132040143013,0.7781095584233602
3,0.778109306414922,0.7781723239024481
4,0.7780887733168073,0.7781097498337428
5,0.7780775309536192,0.778017135977745
6,0.7780689449972576,0.7780230644941329
7,0.7780651673475901,0.7782342713276545
8,0.7780580345657137,0.7780751130580902
9,0.7780538084639443,0.7780338887770971
10,0.7780482399728563,0.7780391587018967
11,0.778046539346377,0.778033691128095
12,0.7780455194711685,0.7780296213229497
13,0.7780436217519973,0.7780098476012548
14,0.7780402171346876,0.7780641222000122
15,0.7780370166566637,0.7779979736804962
16,0.7780367965565788,0.7780414228836695
17,0.7780355083412595,0.778011505206426
18,0.7780344960822,0.7783511571884155
19,0.7780308553112878,0.7780568297704061
20,0.7780324088732401,0.778015369296074
21,0.7780295954545339,0.7780050917069117
22,0.7780277992222044,0.7780168913602828
23,0.7780281323194503,0.7779984826644262
24,0.7780278963512844,0.7780486065546671
25,0.7780249474048615,0.7779957536856333
26,0.7780228577984704,0.7780066863298416
27,0.7780226082801819,0.7780345433155695
28,0.7780212292406294,0.7780129403273265
29,0.7780217692984475,0.7780055054426194
30,0.7780219983259837,0.7779999086062114
31,0.7780202918450038,0.7780038517316182
32,0.7780245388481352,0.7780610945622126
33,0.7780211033158833,0.7780209767818451
34,0.7780194830232197,0.7780147947867712
35,0.7780188739697138,0.777994802236557
36,0.7780182326634725,0.7779980415105819
37,0.778018347647455,0.7779994558095932
38,0.7780186208486557,0.777996685663859
39,0.7780193227397071,0.778035929719607
40,0.7780171851581997,0.7780075219074885
41,0.7780194342931112,0.7780013455549876
42,0.778016562514835,0.7780014913876852
43,0.7780144563118617,0.7780109348694484
44,0.7780169781711367,0.7779902575413385
45,0.7780178706645966,0.7779849970340729
46,0.7780169997877545,0.7779993363618851
47,0.7780167054467731,0.7780319511493047
48,0.7780157317188051,0.7780096736749014
49,0.7780171624686983,0.7780419239600499
50,0.7780161625676685,0.7779924049774806
51,0.7780144875182046,0.7780008190075557
52,0.7780151805877685,0.7780213603576024
53,0.7780158839888043,0.7779917690356573
54,0.7780151685873667,0.7780106718540192
55,0.7780163653559155,0.7779882010221482
56,0.7780159721639421,0.7780010473330815
57,0.7780145885017183,0.7779904244740804
58,0.7780140369998084,0.7780850681463878
59,0.7780130536821154,0.7779970868031184
60,0.7780130724774467,0.7780100740591684
61,0.7780152757565181,0.7780484434366226
62,0.7780123782025443,0.7780028275251388
63,0.7780136833455827,0.7780002763271332
64,0.7780138399468528,0.7780003635088603
65,0.7780122554567125,0.7781324958006541
