epoch,loss,val_loss
0,0.44724698856804107,0.44521792177359265
1,0.4454655797282855,0.44551291908820473
2,0.4453587090571721,0.4453278870185216
3,0.44528038376569745,0.4451688447992007
4,0.44523386316166985,0.4451967292428017
5,0.44519658519824346,0.4451035807331403
6,0.4451685477958785,0.4452065695126851
7,0.44514435636997224,0.44524938666820524
8,0.44512757207287684,0.44505121652285257
9,0.4451185211406814,0.4450047101378441
10,0.4451059319641855,0.4450424077908198
11,0.4450996385216713,0.4451545685728391
12,0.44508720248937605,0.44508751142024994
13,0.44507590703169503,0.4450443011124929
14,0.44507619555128947,0.44503790855407716
15,0.4450694446100129,0.44525543918212257
16,0.44506104305055405,0.44500355909268063
17,0.4450549673769209,0.44504615463813146
18,0.4450571421318584,0.44498437561591464
19,0.4450482795635859,0.4450598791440328
20,0.44504143795702195,0.4449982827107112
21,0.445040181365278,0.44518704144159954
22,0.44503580310609603,0.4449525058865547
23,0.4450335823165046,0.4449486632943153
24,0.44503359681367877,0.44509848324457807
25,0.4450279709961679,0.4449732087850571
26,0.44502115135060416,0.44501319533586503
27,0.4450242273079024,0.4449649830659231
28,0.44502204071150886,0.4449587542414665
29,0.44501900262965094,0.44500454906622566
30,0.4450223287608888,0.44494573066631954
31,0.4450157539513376,0.444956978837649
32,0.44501457841528785,0.4449634529153506
33,0.4450130515164799,0.4449472476243973
34,0.44500865937603845,0.44499154363075893
35,0.4450181002020836,0.44494634129603705
36,0.4450176350341903,0.4449499194820722
37,0.44501396233505675,0.44501904567082723
38,0.4450092124276691,0.4450228026707967
39,0.4450135334134102,0.4449584969679515
40,0.4450126308666335,0.44496118545532226
41,0.44501409284273785,0.44497171835104626
42,0.44500676496161357,0.44494258844852447
43,0.44500802509652243,0.4449724216659864
44,0.44500820937421587,0.44494988131523133
45,0.44501097027460734,0.44496927577257156
46,0.4450091379351086,0.44496542104085285
47,0.44500735885567133,0.44499151690800987
48,0.44500496331850686,0.4449566518465678
49,0.445008299516307,0.44496096068620683
50,0.4450106693704923,0.445181863963604
51,0.445005070010821,0.44498028137286505
52,0.44500433083375296,0.4449336847662926
53,0.44500331201818255,0.4449931277434031
54,0.44500490264760123,0.44502156565586726
55,0.44499812746047973,0.4449969480832418
56,0.4450054503613048,0.44495076340436934
57,0.44500402669774164,0.44494629271825153
58,0.4450039933787452,0.4451013295253118
59,0.44500504461924234,0.444946173787117
60,0.4450009382300907,0.44493397855758665
61,0.4449978921877013,0.4450606971780459
62,0.44500031867292195,0.4449358928203583
63,0.44499937766128117,0.4449441837469737
64,0.4450000988112556,0.44493813935915627
65,0.4449961257312033,0.44499198319514593
66,0.44499369065629113,0.44498615529139834
67,0.4449972658024894,0.44493256632486977
68,0.4449971324271626,0.4449307209451993
69,0.4449965592490302,0.4449347928563754
70,0.4449959685338868,0.44524011393388113
71,0.4449912657207913,0.44498470971981685
72,0.44499089280764265,0.4450392146905263
73,0.44499250536494783,0.44499463905890785
74,0.44499609063069023,0.4449299904704094
75,0.4449957632886039,0.44497276564439137
76,0.444995180202855,0.44498111069202423
77,0.4449948058591949,0.44500013852119447
78,0.44499102636178334,0.4450024876197179
79,0.44499354386991924,0.44493503868579865
80,0.4449902478456497,0.4453528170585632
81,0.4449925615390142,0.44493656053145725
82,0.444991265045272,0.44493126875162126
83,0.44499340381887226,0.44495372907320657
84,0.44498734562264547,0.4452555048664411
85,0.44498997748560376,0.44494041200478873
86,0.4449910720653004,0.4449565899372101
87,0.444988729039828,0.4449467223485311
88,0.4449906427727805,0.44502125010887783
89,0.4449867138399018,0.44496309240659077
90,0.4449874195853869,0.44495582342147827
91,0.4449880181617207,0.44493542436758676
92,0.4449885565770997,0.4450050868391991
93,0.44498865721623104,0.4449220298727353
94,0.44498754812611474,0.44496007392803827
95,0.44498415989345974,0.44492831120888393
96,0.4449889414509137,0.4449734230240186
97,0.4449868659906917,0.4449183699886004
98,0.4449912787278493,0.44507480746507644
99,0.4449919953280025,0.44494290751218796
100,0.44498761232031714,0.4450523781379064
101,0.4449890543222427,0.4449321430325508
102,0.4449901578227679,0.4450047653913498
103,0.4449891826311747,0.4449336846868197
104,0.44498891562223436,0.44507086048523586
105,0.4449868478245205,0.4450358380476634
106,0.4449897339873844,0.4449293880065282
107,0.4449882294800546,0.44502137893438337
108,0.44498985849486455,0.4449700171550115
109,0.44499047090609867,0.44499311862389246
110,0.4449874408774906,0.44512447726726534
111,0.44498703067832523,0.4451537808179855
112,0.44498885452747344,0.4450074410835902
113,0.44498693414529167,0.44495291795333225
114,0.4449910821583536,0.44494863667090734
115,0.44498562994268204,0.4449509321053823
116,0.4449835134016143,0.44494742214679717
117,0.44498952616585624,0.4449251298904419
