epoch,loss,val_loss
0,0.5585456805891461,0.5565715107123057
1,0.5563591222498152,0.5563231338659922
2,0.5562799121141434,0.5563325057029724
3,0.5562085844808154,0.5560774542888005
4,0.5561643654240502,0.5560872677564621
5,0.556144471526146,0.5560620485544204
6,0.519729264524248,0.4450630484422048
7,0.4451410021848149,0.44532538932561877
8,0.44511885399288603,0.4450995027422905
9,0.4451161428756184,0.44510613385836284
10,0.4450992583500014,0.4450737197200457
11,0.4450926444000668,0.4450214864611626
12,0.4450882391267353,0.4450057093501091
13,0.4450848482582304,0.4450091013709704
14,0.4450845221479734,0.4451886859734853
15,0.4450777852402793,0.44515739067395527
16,0.445062986307674,0.44501173224051793
17,0.44506376405556997,0.44503789393107096
18,0.4450600895418061,0.4450381759206454
19,0.4450632207128737,0.44501406665643056
20,0.44504841805166667,0.4450026256640752
21,0.4450486045214865,0.4450680405497551
22,0.4450497356918123,0.4450381364027659
23,0.44504567847649257,0.44499656673272453
24,0.445045682768027,0.44502191708485284
25,0.44504963619179194,0.4449741747577985
26,0.44504320018159016,0.4449918178121249
27,0.44505098113748764,0.4449942760666211
28,0.4450445358157158,0.44498532537619273
29,0.4450378191272418,0.44497601222991945
30,0.44503783882988823,0.4450117812355359
31,0.44504493500789005,0.44500015127658843
32,0.4450343753695488,0.4450081392327944
33,0.4450365965101454,0.44496940020720166
34,0.4450358580350876,0.44511493744452796
35,0.44503509132067365,0.4450245908498764
36,0.4450392665995492,0.4450016196966171
37,0.4450332938035329,0.44498770918448766
38,0.4450349355671141,0.44513502238194147
39,0.445031513955858,0.44496164149045947
40,0.44502906465530395,0.4449735211730003
41,0.4450344083574083,0.4449784577886264
42,0.44503705873092014,0.4449774208863576
43,0.44503734499878356,0.44497888535261154
44,0.44502984435690773,0.4449935237367948
45,0.44503166468938193,0.44496520894765856
46,0.44502943819099,0.4449771916468938
47,0.44502711561653346,0.4449659772713979
48,0.4450303115381135,0.44498180782794955
49,0.4450298791527748,0.4450064147313436
50,0.44502959115637675,0.44498254591226577
51,0.44502528631687166,0.44498279082775116
52,0.44502753899494807,0.44497487342357633
53,0.44502568242284984,0.44495231862862905
54,0.4450246758725908,0.4453138733704885
55,0.4450255973206626,0.44498370705048246
56,0.44502461234728496,0.4449499021967252
57,0.44502698238690697,0.44500058233737944
58,0.4450211436417368,0.44495923606554666
59,0.4450305637717247,0.44505035400390625
60,0.4450279572606087,0.445022460103035
61,0.4450232062339783,0.44517660667498904
62,0.4450195302698347,0.4451305729349454
63,0.44502541587750116,0.4449940521717072
64,0.4450220104720857,0.44495375674962995
65,0.44502140050464206,0.4449926603833834
66,0.4450182817313406,0.4449729555050532
67,0.44501676145527097,0.44510935101906457
68,0.44501936660872565,0.44549743793408075
69,0.4450251964794265,0.445255201458931
70,0.44501878070831297,0.4449930383165677
71,0.4450179276333915,0.444974971930186
72,0.44502177503373885,0.44502018082141875
73,0.44501448246505526,0.444966290195783
74,0.4450170511073536,0.4449504095315933
75,0.44501490753889084,0.44505215958754224
76,0.445015426894029,0.4453186211585999
