epoch,loss,val_loss
0,0.6682501792245441,0.6672641445398331
1,0.667272224466006,0.6671768670876821
2,0.6672096874713898,0.6671415707270304
3,0.6671649794048733,0.6670662023623785
4,0.6671360016531415,0.6671041607062022
5,0.6671147709555096,0.6670900089343389
6,0.6671038933065202,0.6670234314600627
7,0.6670881549649769,0.6671815422773362
8,0.6670813479158614,0.6670434907674789
9,0.6670819043450885,0.667143893957138
10,0.6670723710457483,0.6671258461872737
11,0.6670626636081272,0.6670142112572988
12,0.667057416068183,0.6670166294177373
13,0.6670468116866217,0.6670189632972081
14,0.6670425371196534,0.6670418218771617
15,0.6670407531128989,0.6670610039234162
16,0.6670341848532358,0.6670564833084742
17,0.6670331308311886,0.6670288189649581
18,0.667034963634279,0.6670240931113561
19,0.6670264915095435,0.6670062180360158
20,0.66702684073978,0.6670317913691203
21,0.6670236846473482,0.6669953737656276
22,0.6670247060987684,0.6669853482643763
23,0.6670229899618361,0.6670132116874059
24,0.6670234278440476,0.6670016264120737
25,0.6670262565347883,0.6670774479707082
26,0.6670217524104648,0.6669990319013596
27,0.6670187961922751,0.6670484122832616
28,0.6670173239575492,0.6673843462864558
29,0.6670195920467377,0.6670206873019536
30,0.6670172275437249,0.6669811893304189
31,0.6670168724324969,0.6670106383562088
32,0.6670171808799108,0.6669793558518092
33,0.6670143490367465,0.6669720130761464
34,0.6670155829721027,0.6670196977059046
35,0.6670122065941493,0.6670134052435557
36,0.6670121272537444,0.6670025041500728
37,0.6670124547481537,0.6669792128006617
38,0.6670125596523285,0.6669742782910665
39,0.6670123675001992,0.6669683374166488
40,0.6670098018116422,0.6669842878977458
41,0.6670132550663418,0.6669810520410537
42,0.6670096076859369,0.6670141590833664
43,0.6670124389463001,0.6669962147871653
44,0.6670089250935448,0.6669854395786922
45,0.6670136239396202,0.6669719415505727
46,0.6670079233249029,0.6669863523244858
47,0.6670093749099307,0.6669650824864706
48,0.6670078454679913,0.667092646042506
49,0.6670079185432858,0.667068822145462
50,0.6670086461835437,0.6670075890620549
51,0.667008917119768,0.667085465947787
52,0.6670057217809889,0.6670074020226796
53,0.6670077744457457,0.666999816497167
54,0.667008391459783,0.6670575221379598
55,0.6670089543660481,0.6670152196089427
56,0.6670031480789185,0.6669825977484385
57,0.6670121874809265,0.6669600489934285
58,0.6670047185950809,0.6669824308554332
59,0.6670071900818083,0.6669764724175136
60,0.6670051577356126,0.6669796199798584
61,0.6670052895678414,0.6669960235754648
62,0.6670079590082169,0.6669882049957911
63,0.6670030698246426,0.6669631380240123
64,0.6670077860090468,0.6670347321033477
65,0.6670072445207172,0.6669871601661046
66,0.6670052873558469,0.6669740315675735
67,0.6670063865184784,0.6670063579479854
68,0.667004122628106,0.6671362827221553
69,0.6670038391219245,0.6670946027437846
70,0.6670031503968769,0.6670790073871613
71,0.6670053083631727,0.6672610930204391
72,0.6670033234357834,0.6669654015302658
73,0.6670043214956919,0.6670168660084407
74,0.667003188225958,0.6669602847099304
75,0.6670047348737717,0.6670333955685298
76,0.6670057336621814,0.6669662447373073
77,0.6670014591481951,0.6670091475645701
