epoch,loss,val_loss
0,0.4844010507912754,0.4201027894923324
1,0.41852906326071726,0.4153218720734543
2,0.4120104220106924,0.4228434214793328
3,0.42014016093110007,0.39030723484275653
4,0.4125633313001203,0.4267843050004557
5,0.4227898936811016,0.410450869243542
6,0.41186384897199657,0.40054148809591805
7,0.41206324220799523,0.44490289939795313
8,0.398232780581565,0.39476127954289586
9,0.3929265187822467,0.3787909206576298
10,0.3912646811690738,0.381149182568033
11,0.3886463076686211,0.39251004765140984
12,0.38822969708511296,0.3760711673497213
13,0.38803133368492126,0.37770915440715197
14,0.3851942402853383,0.3768467443047684
15,0.3837148862229072,0.37209534501596614
16,0.3840409802804462,0.3809460107745763
17,0.36912708435889535,0.34128495865011177
18,0.3548780097354421,0.3433633143024926
19,0.3290968476582488,0.33054470952420884
20,0.32417388014989695,0.30264403755117236
21,0.3208626134099244,0.3166108937506235
22,0.32527387032596516,0.3062319249126416
23,0.32582297292258816,0.314314905803977
24,0.32723235409799145,0.3286410980838062
25,0.32298275569884133,0.32624097879984854
26,0.32435013987511085,0.31634100871756027
27,0.32628586145041943,0.31271787322969447
28,0.3266002686380101,0.30989519596664383
29,0.32660319243403646,0.3218731673194747
30,0.32787534066860813,0.32136008849083764
31,0.3273239823863756,0.31108782210496816
32,0.329394278945111,0.3187000465938776
33,0.329929841639136,0.32966340585496356
34,0.3292915006573919,0.31775389323577036
35,0.33135487127313606,0.31506705420546016
36,0.32908295321283487,0.304600764727536
37,0.3249698208509494,0.316486645140042
38,0.3267133405073274,0.32587186198302304
39,0.3287316580756391,0.31633208676784547
40,0.32460097563590745,0.3304368526613797
41,0.32800819428799916,0.31578029909751126
42,0.325985430908813,0.32282525900789577
43,0.32474905312013663,0.3110385676162301
44,0.3217999521824572,0.29174991995213817
45,0.31564867776408373,0.3198681019052522
46,0.31660360614839883,0.2983690052401295
47,0.316666598085591,0.3109013760946074
48,0.31986245094872207,0.30753974293100617
49,0.31542061160889556,0.2954828288015081
50,0.31482951136396753,0.3047188729306517
51,0.31832073693223994,0.3056141622158704
52,0.325133107012982,0.305156014195181
53,0.32007910330280315,0.29781193879521917
54,0.31876314067535644,0.3170776619342903
55,0.3156315633218637,0.3064126012921804
56,0.3128200380457677,0.31565163202801366
57,0.3098124647669369,0.2961106951677056
58,0.31065828717059846,0.2960145288597625
59,0.3091684934451616,0.29163362183435376
60,0.3134039543586955,0.30301899931613346
61,0.3140278860485906,0.30937215227166215
62,0.31491373998703337,0.3087024032693259
63,0.3138145065064625,0.2994445540487249
64,0.3150821893954639,0.30523025895444633
65,0.317984679858271,0.29777081283698803
66,0.30806805609132076,0.29600192602920833
67,0.3069643933328984,0.2955334637469914
68,0.3089570926605083,0.3057760142536735
69,0.3149546435553965,0.29616612788722
70,0.3120498340502441,0.2975862058910123
71,0.30746017235646145,0.30603169418736154
72,0.31011177576798427,0.29955979906487107
73,0.31262410356462905,0.30479207380888684
74,0.3107979057980575,0.2911730554975105
75,0.31397902424768104,0.3033701559527238
76,0.3095986177023652,0.3066694035996766
77,0.3113646953345107,0.30836525039590057
78,0.31364387730590637,0.3055636668261714
79,0.3177692971343426,0.2954324712269684
80,0.3155373856961298,0.29894957005177886
81,0.3156669245873519,0.3016740032063757
82,0.3135339537803694,0.2958951400976625
83,0.3144290623166483,0.3005468440436903
84,0.31468132295482737,0.30149397870265504
85,0.3120401664127072,0.31249237126408363
86,0.31496139795040723,0.3026406935047896
87,0.3151666437693351,0.30536993806439305
88,0.3167094169474906,0.30961495374447734
89,0.31676045848692447,0.30588711933442336
90,0.3164345632782943,0.30497954690559886
91,0.31877692142645897,0.3095327897530987
92,0.31875370577466094,0.3080447155749977
93,0.3206311354843928,0.3055093737691053
94,0.3234400152683639,0.3152526491913348
95,0.32997959241163816,0.3231768875302719
96,0.3332857964493388,0.33140464772741535
97,0.33383675125672474,0.3477766710232823
98,0.3313376430055792,0.3245915206944557
99,0.32724701738853057,0.31742215634050946
100,0.32872332757611356,0.31659768840508284
101,0.3312919099958871,0.32279749813283065
102,0.3402693485089248,0.33384809163770246
103,0.3375493236702028,0.3285125102597894
104,0.33879663798210624,0.3378464500313212
105,0.3439995411464827,0.34019033687267136
106,0.3513634928005586,0.34273575412163887
107,0.3515821762746282,0.3347284542639235
108,0.34927782952356684,0.336848023940751
109,0.35305362248973404,0.34281444683635715
110,0.35494318297155186,0.3485737939518836
111,0.3537254739198372,0.35114837866555826
112,0.3592311492402681,0.3565825615092912
113,0.3585715194066747,0.35069031494757086
114,0.3591917825283574,0.347063016261091
115,0.35716706939595494,0.3446462127808614
116,0.35904427588605387,0.34507145960216173
117,0.360125103383232,0.3429035807135732
118,0.3605833330171571,0.36528748586691545
119,0.36401379097708697,0.35223545756223357
120,0.3658277942455834,0.36258517500915766
121,0.3662762864649915,0.3597668054401169
122,0.36663822566481424,0.35994746081454604
123,0.36473994002306015,0.3598542988958938
124,0.3630638618668397,0.35181210635210836
125,0.36318878940255234,0.35708847364385765
126,0.36468235107301045,0.3547698892800001
127,0.36381616364184804,0.3487803919304048
128,0.3628105824347213,0.3547085851736678
129,0.3624852832606275,0.3580016088513944
130,0.36186362316997217,0.3511898551009825
131,0.3658306447865008,0.3608346860664702
132,0.3694600155480283,0.36156790935814426
133,0.3698082313739615,0.3609002148342961
134,0.36967064533159316,0.36740178347292524
135,0.37102379077534786,0.3717247060225908
136,0.3739071598203539,0.3665593866297083
137,0.37410622153827233,0.3661940827460014
138,0.37490157073112035,0.358963588654007
139,0.3770075246727438,0.3641680927613446
140,0.3744059609447261,0.3663325826530863
141,0.3758876051167123,0.37647049217216594
142,0.3770885936481108,0.3669471828930003
143,0.3754238831125003,0.37275638287238655
144,0.37405006905539717,0.3835181935433807
145,0.3765738322842512,0.3748786199864385
146,0.37720123025105534,0.368033376399607
147,0.37893316761957563,0.3684085297979703
148,0.3773361081532914,0.37237102527174315
149,0.37995561372509584,0.3788506261880885
150,0.3771978349422665,0.3795987282245293
151,0.3784719689382161,0.37133102183654354
152,0.37991151249380134,0.37591757469508436
153,0.37909010415978667,0.3673699622607739
154,0.37791357780817886,0.3718443071879829
155,0.37918524232080325,0.3748114851627561
156,0.37870079284901625,0.37170734512307274
157,0.37919881526562427,0.37951116777821237
158,0.3807260530839245,0.37279913791447244
159,0.3801985323000297,0.3742844329495644
160,0.3804820668664005,0.37295410921466376
161,0.38149905647877025,0.37796827132248373
162,0.3810128458469606,0.37643130103621597
163,0.38123668526574006,0.36754952845087935
164,0.3803860615792987,0.38146478699809844
165,0.38202754266971023,0.3726635545656826
166,0.381536472043831,0.3777766528568027
167,0.3820127960708406,0.3744158558047655
168,0.3852850744049612,0.37189623414764467
169,0.3835856369335493,0.37161150334760157
170,0.3829950512789613,0.3776296410583189
171,0.38445951419768576,0.3777797925444033
172,0.3862139681141249,0.3757040736330901
173,0.38990712075305883,0.37870301587335126
174,0.3875783516420163,0.3816291611074178
175,0.38511739044690685,0.37467819214713977
176,0.3860076877782099,0.38352762018025344
177,0.3862193205850206,0.38404160274608734
178,0.38761723752644994,0.3796105620046253
179,0.38838857681535893,0.37350961017909723
180,0.37335712078521005,0.3596662366446681
181,0.3665052196867079,0.3599952602584059
182,0.36457030178545763,0.35456127554013583
183,0.363259984780368,0.35552055156409695
184,0.36409700334929734,0.3527012266271587
185,0.3640967167252831,0.35033000701040196
186,0.3641326843048457,0.36039577465689643
187,0.3649819483883756,0.36082097784496237
188,0.36447152786022374,0.3592699501537016
189,0.36528821215688656,0.35847281487607163
190,0.36502916131802887,0.35388244647347467
191,0.3665236331147256,0.35931776218180966
192,0.365680879635586,0.3627600552486263
193,0.3659120889471399,0.3650402155511475
194,0.3666635594970221,0.35682267028229764
195,0.3657287595559844,0.3571198393297459
196,0.3675474575121435,0.359029161243243
197,0.3692726997329558,0.36746334316886686
198,0.3716177182088939,0.3816175295691276
199,0.37110865178058666,0.360743565336399
200,0.36832015018621317,0.36066855945357584
201,0.36813363399532295,0.3781219150903381
202,0.36659606783795984,0.3593794650088734
203,0.36743881277662577,0.3677680238363963
204,0.3682661252461082,0.36702985415895245
205,0.3698508653709357,0.3678665360834247
206,0.3702145762366357,0.3607198549191972
207,0.3688657760834522,0.3600503835700682
208,0.3685754132952145,0.3666986408154609
209,0.36931843795984104,0.35906172885420573
210,0.3710135195871814,0.3581902407103857
211,0.37107714081553816,0.36209799164660633
212,0.3699904583650623,0.3610406967251905
213,0.3690287224013361,0.35890155541398155
214,0.3693700758435076,0.3612498677002697
215,0.369030482584624,0.3615213587186237
216,0.36700551789536845,0.3635711642165963
217,0.367516601614529,0.3566979657926236
218,0.36829173173025836,0.3583466520484452
219,0.3664226733165965,0.35754072233364165
220,0.36726270550541834,0.3699846246530432
221,0.3674761350396916,0.3573667542522313
222,0.36706864264466876,0.3556004297385182
223,0.3657854622025951,0.35689135572057873
224,0.3652069881665621,0.3571212769448522
225,0.36387442970733275,0.354315435453579
226,0.3649072923558317,0.36288132158055864
227,0.3646645889841586,0.3536465100020805
228,0.3640775474355661,0.3519000052088532
229,0.36442192048906424,0.3631300832826318
230,0.3662658873960364,0.35240390318156983
231,0.3658853846250011,0.3584847517058712
232,0.3647651209843626,0.3564220505759955
233,0.3659488493137413,0.3622291148790903
234,0.36701418599969954,0.35894044979689343
235,0.3650493666374807,0.35979252693779185
236,0.36618079935951675,0.3577305248570235
237,0.36549342481447733,0.3563585342529164
238,0.36563542330388926,0.3568036204355386
239,0.36526656168684973,0.3592882532723419
240,0.3657610146380919,0.3585385606574937
241,0.36511432361021506,0.36194657714891926
242,0.36654172617373326,0.3613103931591844
243,0.367840467263564,0.35918120678805326
244,0.3686844299761035,0.36448226543327156
245,0.37112463792736866,0.36201429762234344
246,0.36880297742063384,0.3608744215476014
247,0.36655126647840586,0.35886693021963223
248,0.36786509441624254,0.3576007165961503
249,0.3683245566775568,0.36976918858059205
250,0.3685656123929363,0.36369790669586494
251,0.36902171968937303,0.35827770471666964
252,0.3676050571109846,0.36082013778170924
253,0.3664751864141888,0.35523110625775856
254,0.3655559441907038,0.36580836511824955
255,0.36885494788249523,0.35712778083715463
256,0.3679038968136747,0.35578585360213916
257,0.3679362361451133,0.37064127105375677
258,0.37254113349601997,0.3672891813135561
259,0.3724291711259517,0.36456871044475825
260,0.3706993864689895,0.3619414030705838
261,0.3714275282206867,0.3643966351754099
262,0.37160064225240674,0.36833263320911563
263,0.3708567430170701,0.36059141340176704
264,0.37131624703975225,0.3658139963693852
265,0.36897657000475365,0.36117511082090725
266,0.366076403980156,0.3675418661020831
267,0.36681802457661555,0.3669276437189227
268,0.368034227670049,0.36161998916349736
269,0.3671991659892644,0.35312623761729545
270,0.36811502120620626,0.36919583383750615
271,0.3672241338079782,0.36565196100143155
272,0.36749433987527536,0.3635400546613225
273,0.36728309474879506,0.35627298142934466
274,0.3672768832634774,0.3602601516971272
275,0.3683726350656993,0.36436244504321913
276,0.3675634502101955,0.3530066306890233
277,0.3664995004399884,0.3704043690059349
278,0.3672037646948672,0.36838876860011915
279,0.3666095592968946,0.35704490754109436
280,0.36685181425200947,0.3539742140574256
281,0.36580288029021973,0.35554730285314845
282,0.3654521103742883,0.36070664533970387
283,0.36726873434133095,0.36804786477393775
284,0.3660350733523746,0.3603600601841355
285,0.36558501091268325,0.3570509462631304
286,0.3650764509213628,0.35594291873305633
287,0.36470826032112164,0.35038218716043323
288,0.3657114606538265,0.35454536622776794
289,0.3662866798522089,0.3629657489019016
290,0.36666495371446145,0.3519688893136022
291,0.36490955728468755,0.36189582664005004
292,0.36428798420680797,0.3563516044484976
293,0.36577524614038703,0.35335181906360663
294,0.3669085774085314,0.35226532762786394
295,0.3662414203921287,0.3608792315060074
296,0.3659188153741838,0.356554491743857
297,0.3656189810696075,0.35670898416047975
298,0.3646963406666863,0.3565681215901966
299,0.36418510058658016,0.35980693068011316
300,0.364595774992955,0.35314573153512346
301,0.3655870690715494,0.36177718773448947
302,0.36499198789981535,0.3564085674361159
303,0.36344040702763414,0.3594931356061982
304,0.3654765296492169,0.35564181537917966
305,0.364416788724496,0.35858601454025
306,0.3644499329806899,0.35703698031151493
307,0.3650650059600338,0.3511524365093168
308,0.36394000042685504,0.360475471923929
309,0.36442440281287847,0.35924236955093225
310,0.36501177882166697,0.35797834057646094
311,0.3648971964081795,0.3581029471442186
312,0.3646238879215041,0.3563648507928133
313,0.36479164924410035,0.35417756920455473
314,0.36571728904470263,0.3604310898679208
315,0.36465524634916624,0.35333183231368814
316,0.36447433232784654,0.35601698253788905
317,0.36478317714185354,0.35949338670311337
318,0.3635782160871416,0.3576422788632038
319,0.3630035313413583,0.3535281181476581
320,0.36463067041550706,0.35609527316823564
321,0.3641016660310286,0.35795264523520465
322,0.3643133169193443,0.3708604768965314
323,0.3645791282042039,0.3661699362316749
324,0.3639973858110815,0.3575949238667642
325,0.3642509938548985,0.3568799339511212
326,0.3632755106230148,0.36476123060122567
327,0.363669941381966,0.3572106327987978
328,0.36261350976572715,0.351697808988657
329,0.36436089747053063,0.3561928829717749
330,0.3638019716496662,0.3518265727098852
331,0.36412651381856626,0.3575141219850027
332,0.3637215350862506,0.3484858705382133
333,0.362620588734472,0.36071598045263314
334,0.3639582801136753,0.356302471568289
335,0.3640021202709082,0.3548035595298472
336,0.3642685819658444,0.36142871303641144
337,0.36346164819814986,0.3589471170492029
338,0.3640585514805395,0.3535878886692902
339,0.364119318058546,0.35816210435428486
340,0.36375458630250035,0.3596106197011687
341,0.36332244013282033,0.35736897858278716
342,0.36413033388787325,0.3512316650072232
343,0.36336541817866735,0.35747834419112745
344,0.3631052596749162,0.3517803760758515
345,0.3640520965381206,0.36166163883815156
346,0.3639527729851641,0.3531773331697851
347,0.3633856181975463,0.35814022420425534
348,0.3634342920365665,0.35624542223155825
349,0.364310533916064,0.3559356480954478
350,0.364756269504031,0.36373241872606826
351,0.36408995344436806,0.3535947392047063
352,0.3643835480336091,0.35786389434252935
353,0.3669122435110841,0.35971670507820175
354,0.36553266500349907,0.3524169266553215
355,0.36409021059957913,0.35589681896245096
356,0.364613629645295,0.3539527749911762
357,0.36492390969960237,0.35960654341619414
358,0.36516944937807,0.3558626380743901
359,0.36516677074247506,0.35968183198592374
360,0.3649828118338383,0.3584812430763395
361,0.36597727710823363,0.3583746666313629
362,0.36719877897597236,0.3535150548041855
363,0.3670783503402432,0.3584578498057145
364,0.3668309625008886,0.35757864984641796
365,0.3673587994848033,0.36419479627729684
366,0.3666471711737361,0.35711548372150503
367,0.3653710311193832,0.3584119890652591
368,0.36530880261954074,0.3535076117035716
369,0.36425429508745144,0.3649384719984872
370,0.3654302095147155,0.352872132055385
371,0.36509494762197675,0.35183564588227606
372,0.3631257643040231,0.3537763760093638
373,0.36439616267057917,0.3501127261577296
374,0.3628014562655982,0.3624611694274592
375,0.3632898935192018,0.35229569774682634
376,0.36404359161996724,0.35265588548678345
377,0.3626548140097579,0.355531318223467
378,0.3635343589085183,0.35604655331010976
379,0.36436686668988705,0.36099500110888916
380,0.3645467250991306,0.35868956474403557
381,0.3640718665078199,0.35629727740220035
382,0.36619293495571964,0.36244796831587117
383,0.36488100468254775,0.35140589712262627
384,0.3640875287836404,0.3564265304272252
385,0.3640328396638806,0.3552332006765334
386,0.36582793117903595,0.3531686184014875
387,0.3653708563672362,0.3567544065457023
388,0.3651949139021569,0.36383852677827005
389,0.3646433388324474,0.3578307611931001
390,0.36276297358204895,0.3511531894707548
391,0.3633067921864138,0.35227161690581005
392,0.365498898233727,0.3518739678347873
393,0.3641568928075542,0.35324374085914084
394,0.3631988785487952,0.35217847509843303
395,0.36384206283673776,0.35343953905937325
396,0.36435256606573874,0.3641767009516447
397,0.36367767614474017,0.35321513044147296
398,0.36389751678748095,0.3561105371321292
399,0.364905547252376,0.35948746356798517
400,0.36490746940687885,0.3701931297214556
401,0.36413482020941856,0.3536281377994459
402,0.3644130379080677,0.36328082378209814
403,0.3654270069800216,0.36166489037266847
404,0.3639521367020077,0.353261785918366
405,0.36544716405830413,0.36343631726978515
406,0.36403992295646365,0.3566662968145926
407,0.36487613224106535,0.3540184739168554
408,0.36401536126883866,0.3550818441604759
409,0.36337399090842,0.35762440577302285
410,0.36282615530357465,0.35728982829539535
411,0.3649784387897054,0.3561154525159566
412,0.36532260525188476,0.3571215512814631
413,0.3646845233192642,0.36893238704695697
414,0.36567730467906484,0.3575419655867985
415,0.36513157896429516,0.3538814290311267
416,0.3642115496474204,0.3628111416040299
417,0.3623053645082324,0.36164169503933064
418,0.3617120311676646,0.3497718839590815
419,0.3634692651810025,0.35399620791260616
420,0.36445657214481864,0.35667951189822444
421,0.36437981352388715,0.359204495715267
422,0.36484864640007203,0.3604489078226293
423,0.36441767613569515,0.37256229899958915
424,0.3659822713914249,0.3624318872696787
425,0.3649409184519717,0.35712091193108836
426,0.36393081031733754,0.36671312794312777
427,0.36441294219997006,0.35333755675882644
428,0.363658060046504,0.36776098721876044
429,0.3641842295059102,0.3578343252874117
430,0.3632682249319258,0.34816002125992207
431,0.36260800781867486,0.3593843768879289
432,0.36264631018745336,0.3580066771279571
433,0.36212980591183563,0.3481284830404626
434,0.36303406477355654,0.35421379829074046
435,0.361879510225819,0.35882489631377346
436,0.3622246596881812,0.3633413820071021
437,0.3616650780256418,0.35961725726876564
438,0.36227070316850996,0.3561010970877397
439,0.36220719154885445,0.3512308892294847
440,0.36237416593290916,0.359910316724145
441,0.36239053138630756,0.35695838450726886
442,0.363602312932388,0.3520554226500459
443,0.3623087710732941,0.37117713663929924
444,0.36270678526968314,0.35188615157459324
445,0.36286257498031804,0.35160642598874003
446,0.3632551269660846,0.3564280922617984
447,0.36306979595947797,0.3544832005826337
448,0.36338387572651,0.3564524528494762
449,0.3623480583719022,0.35020088123917675
450,0.36551014794339,0.3524249677547057
451,0.36392633671716723,0.3518838213011328
452,0.36526570514999895,0.3544059824830637
453,0.365731504645279,0.35943185982030496
454,0.36623318107436886,0.36165084004778514
455,0.3643043333296772,0.37005298652325264
456,0.36243103336182525,0.35322179296586864
457,0.36277991766742856,0.35298875529369034
458,0.3635459335135232,0.3507933305677882
459,0.3642017720081061,0.36106801705748054
460,0.3644410831679543,0.3553658355477295
461,0.3641850312026761,0.36784887156245644
462,0.3638601343480231,0.3584798508115707
463,0.3653584552421082,0.360527966915385
464,0.3666299268615236,0.35924355893880244
465,0.3681625214864691,0.36334718607407246
466,0.3667846566243328,0.36504741402338503
467,0.3680287193742206,0.36132841507280167
468,0.366616426528596,0.3563038709602115
469,0.3669322724465272,0.3664365659902297
470,0.3661842520693414,0.368463383171628
471,0.36545455196111515,0.3679131074928353
472,0.3668126903063388,0.3534389159391504
473,0.3624286461386273,0.36255084416860656
474,0.36366411041822744,0.35364930760982755
475,0.36359035705538584,0.3570835353496419
476,0.36291687157180763,0.3551707363966044
477,0.3633389826491773,0.3553769653861506
478,0.365351662015934,0.35181600815118913
479,0.36457447768401186,0.35398072105462663
480,0.36483513385795957,0.3592041225158613
481,0.36490325804808726,0.35683707442449225
482,0.364317226562378,0.3615795546567807
483,0.3630022671130254,0.36044415918597106
484,0.36376783629353765,0.35637815798843764
485,0.36486216133637583,0.35647146604902274
486,0.36483000330835413,0.3583318152903758
487,0.3638367042552939,0.3688046618202303
488,0.3636675404011012,0.3506254744322731
489,0.36435070577904666,0.3562376181159136
490,0.3641286024825274,0.36089207449576566
491,0.3658247415086539,0.3538578464557735
492,0.36499363586580535,0.34985042773275365
493,0.36425102117964975,0.3549477782368001
494,0.36482630813007444,0.3565330307786636
495,0.36377293669539007,0.3575280189467116
496,0.36417451047068305,0.35953262100185857
497,0.3642872004366988,0.36222943604792207
498,0.36475822007913383,0.36068653599333367
499,0.36413475025376735,0.35270175636520323
500,0.36464806553795276,0.3563209958403903
