epoch,loss,val_loss
0,0.09371499176524076,0.062360447240002156
1,0.07479267249272291,0.05595655121856954
2,0.05493479404834548,0.04895374982867597
3,0.04821816523085106,0.047198969711961775
4,0.046280456366057404,0.04521635833021968
5,0.04492943378631953,0.04398086173372627
6,0.043886992679777054,0.04365173981601764
7,0.042667260069315004,0.04411126864070985
8,0.0419727303920144,0.04171694513458841
9,0.041500042413151236,0.04155746145327427
10,0.040635339030396046,0.041186827415804816
11,0.040319870610090056,0.04092423137980183
12,0.03991376402412364,0.04132614983060856
13,0.039548740602680044,0.03984811498606197
14,0.03926873730411922,0.04012298172942339
15,0.0390928339575267,0.03867300178374097
16,0.03864778477270368,0.0384191867450395
17,0.03829562843050611,0.0389999496566103
18,0.03840446651836126,0.038917865374622336
19,0.037900577700174694,0.03915455632890257
20,0.037703683779220516,0.03850329753481194
21,0.03789001856753351,0.037988156742539525
22,0.037435952435432004,0.038041806249286665
23,0.037291541671758174,0.03804266353815022
24,0.03731186833215312,0.038055106860682975
25,0.037449885764594196,0.038609469422444344
26,0.03705041179221487,0.03953258497044456
27,0.03699764786625047,0.03805736038548115
28,0.036998455233855816,0.03783148982764303
29,0.03668243141014075,0.038565111830321804
30,0.04057709005454476,0.03789651034982887
31,0.036440506124965875,0.03766471206904054
32,0.036372487225041786,0.03787451183131447
33,0.03658566542043579,0.037297927206407296
34,0.036216900793268655,0.03747099490130191
35,0.03614574884672841,0.037583709921027025
36,0.03611281287352682,0.0381441926012756
37,0.03605275487918534,0.04196039674046666
38,0.03603603080003245,0.03715585188874204
39,0.035705550008447814,0.03661785131163288
40,0.03578937776410451,0.03698465731619075
41,0.03584782606260821,0.03690827042216396
42,0.03562866428818631,0.039410283135914874
43,0.03573919739918679,0.03748807561289053
44,0.03557397308298897,0.036641696972628424
45,0.035566512585350644,0.036549120691819516
46,0.03557167815074312,0.036768723779581444
47,0.035314877939240846,0.037622783058413926
48,0.035438267377166176,0.03663561758800468
49,0.0354250749202239,0.03709517186958676
50,0.035276089045923095,0.036976733121015834
51,0.035282573099327204,0.036792315160525835
52,0.035118989580988864,0.03681799801037234
53,0.035066966318495305,0.036696133022479815
54,0.03507251403243275,0.036329355729190396
55,0.03516402588396091,0.03629574398155939
56,0.03501171915089938,0.036555076153007966
57,0.03493004242887925,0.036988969513640925
58,0.035044357879424726,0.036395443191644464
59,0.034943041201772766,0.039278291678152256
60,0.03501409615883811,0.03826273718252198
61,0.034994458109383446,0.036937142362173575
62,0.034945995216449435,0.03592841139180671
63,0.035123063994255146,0.04164613961548735
64,0.03593737301116488,0.03608299265719911
65,0.0347904433698014,0.038015473882919294
66,0.03476682810529211,0.03690853260285361
67,0.034807489193637776,0.036460486614426794
68,0.03462225907341412,0.03693380986194071
69,0.034831713514677023,0.03647441730126254
70,0.03472573497874151,0.03649069765017409
71,0.0349549730717206,0.037388891833131085
72,0.034465817044212435,0.03604083142364751
73,0.034491199442635775,0.03787219092857441
74,0.034532661055235885,0.0360193696199584
75,0.034385861199372904,0.03720750777269448
76,0.03452929469477318,0.038267566370636545
77,0.03445592761182014,0.03626260141951069
78,0.03442707095272439,0.03998349808769977
79,0.03432427337953153,0.035874294480925634
80,0.03429830851645157,0.03664160967796061
81,0.034382042308169956,0.036265377758808254
82,0.03434902632782263,0.03601725557569059
83,0.034219209769736525,0.03618009645643879
84,0.03433777668671617,0.03690671968562666
85,0.03432773823391187,0.03616840783766935
86,0.0343204042176156,0.03612794765038009
87,0.03423672588504204,0.036764104357197805
88,0.03424789276895528,0.03587561732784271
89,0.034163794355627296,0.037112939278128525
90,0.034151442156242856,0.036538970255293984
91,0.03421562580476548,0.03683717716920086
92,0.034082311003762016,0.037121611984370625
93,0.034343042655765384,0.036558778222655616
94,0.03402556725962222,0.03600316443796316
95,0.03400264760458859,0.03683920079930653
96,0.034064251594058834,0.036482526063067164
97,0.034028822038301806,0.035826257384463975
98,0.03405573511674419,0.035976924888975415
99,0.03391276715525201,0.03662238910774144
100,0.033991188884580685,0.036465190809201735
101,0.03402023978836627,0.036810135464551516
102,0.03390072101159844,0.03657262563177148
103,nan,NA
