epoch,loss,val_loss
0,0.5079546516453095,0.5025915025491005
1,0.5027286994814335,0.5018558554352514
2,0.5020832750447785,0.5018348250480725
3,0.5027674661827419,0.5018366907529648
4,0.5032792040527392,0.5014992631464246
5,0.5015127269854144,0.5013116568738702
6,0.5026097266731641,0.5041728171541973
7,0.5013628592057435,0.5011196383999059
8,0.5014803214016609,0.5013126036288607
9,0.7570980232500898,0.9502177646808706
10,0.9501923460051436,0.9502034764479546
11,0.950155664164879,0.9501512822876549
12,0.9501336330872977,0.9501173517638508
13,0.9501270371512565,0.9502082060343957
14,0.9510084447055382,0.9501872369083352
15,0.9501529806038573,0.9501341863796978
16,0.950134359481709,0.950123528932908
17,0.9501299411718062,0.950121636913753
18,0.9501233047994047,0.9501201326134887
19,0.9501227874190036,0.950118234990721
20,0.9501176016224404,0.9501313904040917
21,0.9501203268728343,0.9501252868865735
22,0.9501132609850881,0.9501146836064629
23,0.9501104872119296,0.9501075610454564
24,0.9506237467931186,0.9501607459519464
25,0.9501416930707334,0.950179184152339
26,0.950124731293116,0.9502086594064254
27,0.9501406442373079,0.9501201668882893
