epoch,loss,val_loss
0,0.09624693535484094,0.0649340994595743
1,0.05950007007963388,0.05390883472313129
2,0.053749126838031916,0.051300431081836746
3,0.05182111490250475,0.058229723441218864
4,0.0559048840194258,0.048601728600901103
5,0.04702121374496883,0.04664491498492314
6,0.0448542739681173,0.045088415044024575
7,0.044793661021154806,0.04281805516352999
8,0.04260337882889298,0.04369877110110714
9,0.04215377112215993,0.042509744496362654
10,0.041419246369568924,0.040889898348201524
11,0.04089084595807231,0.04055234800704144
12,0.04038996485158504,0.04083306868619033
13,0.03976589924425913,0.04082511251176163
14,0.039667744359536954,0.039731303910265296
15,0.03931638497320118,0.04055804255725667
16,0.03929301758002842,0.039604428404407054
17,0.038689535567424604,0.039927933376199036
18,0.03869256692483386,0.04115251721543619
19,0.038369849445381445,0.0390161777217499
20,0.038342274107607946,0.039482872938769516
21,0.03786387985091333,0.038596155147804886
22,0.037758215879787706,0.03794762403247956
23,0.0374183466281183,0.03784707209800248
24,0.03732660840757881,0.03840033988748914
25,0.037119706284157644,0.03833988335912987
26,0.03692670619075041,0.037053646857730306
27,0.03678450768394279,0.03806147824029861
28,0.036514163428386724,0.037627897846645754
29,0.03704131763586876,0.03825674592760611
30,0.03637841460972436,0.03768827416131719
31,0.03623502747895086,0.03742424204779325
32,0.03605259732011423,0.037220157428804475
33,0.036046636999543774,0.037797308652203994
34,0.03591783189805191,0.03692743699475283
35,0.035812213463015094,0.036693231276315894
36,0.035676306123300534,0.03631976156556002
37,0.03558295226291763,0.03668035506434255
38,0.0355337787515397,0.03665399653249924
39,0.03545911345774273,0.036662847318503
40,0.03532625578726782,0.03651931409040614
41,0.03534985499649991,0.03686400998353589
42,0.0352352180760329,0.036661842768417004
43,0.03520174645904953,0.036812352292844276
44,0.035121955702889805,0.03625082024780577
45,0.03519890484256612,0.03745473916152081
46,0.034967182141257325,0.03716073616539294
47,0.03494311557401236,0.0359750299643366
48,0.03483614878678219,0.03599524420989408
49,0.03486235903664473,0.036849392335302864
50,0.034790237426967435,0.03833162554326617
51,0.03465225310547901,0.036070526386889956
52,0.03466923467226673,0.0362339300935124
53,0.034605953718128205,0.03707905397427277
54,0.03451001987882136,0.03585153205693833
55,0.03451395761249625,0.03575400483781347
56,0.03442418065489021,0.036440461504703356
57,0.03437531767182481,0.03590148195582348
58,0.03451041045113147,0.03623753813241368
59,0.03434167913626408,0.03660611140785618
60,0.03429338289682062,0.037773586190824035
61,0.03436960758214436,0.036168823462368306
62,0.03454403817083549,0.03683765413059457
63,0.034741486096714305,0.03588752499702423
64,0.03408729376396799,0.03873807307018024
65,0.03399843721741296,0.036122061196985
66,0.03410398370970821,0.03626465989146319
67,0.03403988882393564,0.03550702262443811
68,0.03406949414173833,0.035896064436433804
69,0.03385912331136591,0.03647174246976593
70,0.034280128870919226,0.03609978827448644
71,0.03395670657732428,0.03559493955135421
72,0.0339219570673373,0.03620019486806701
73,0.03381021954952624,0.035953886410150765
74,0.03375254116407505,0.036918536393714035
75,0.03377072231286693,0.035261867320165334
76,0.033759390583015386,0.03562338026549578
77,0.03376544110959718,0.03602148603653272
78,0.0336288438099429,0.03642016480019713
79,0.033675704960542674,0.03608776461223591
80,0.03366809471766952,0.03573152849446862
81,0.03367727495666277,0.03544380438477227
82,0.03358774675388855,0.03625049091205865
83,0.03369542126014811,0.0357660622764435
84,0.03348201843471857,0.03590190760011576
85,0.03357689112397341,0.03535533594199759
86,0.03335800666927249,0.03647176404296524
87,0.033477650453752214,0.03659442803212077
88,0.03335628146800222,0.03534734704970547
89,0.03338190179986675,0.03630730020225744
90,0.033247337154810645,0.035679550883749925
91,0.03327156996640438,0.035459612506106485
92,0.03334848811687002,0.03536916763177273
93,0.03318745372866405,0.035228297156227786
94,0.03319135469779071,0.03615973675018627
95,0.03313222045538511,0.03569899092826088
96,0.033140697607034475,0.03547334949958792
97,0.033086625157095186,0.03709082473947952
98,0.03300726044557581,0.03600015255791319
99,0.03330130908331518,0.035318024161885384
100,0.03303100857096245,0.03552459070613711
101,0.03298484668550454,0.03556972252474487
102,0.033010806506734255,0.036664805292955405
103,0.03305902724597582,0.03506770138494932
104,0.03298559080911727,0.037088638706357875
105,0.032994177717988946,0.035824278165001056
106,0.03294325091262358,0.03581444289235344
107,0.03317689715336846,0.036806978461756644
108,0.03315397292043577,0.03524198369796724
109,0.032874871139859374,0.03557942615109378
110,0.03283340814076709,0.035256589255127826
111,0.03291045646955448,0.0355524384281016
112,0.03273950488196501,0.03579217881838069
113,0.03290796602768842,0.035783575058997395
114,0.032809399628922674,0.03592645133463484
115,0.034918317630011166,0.03577034211453841
116,0.0326501516352298,0.035966773853900985
117,0.03269934248954269,0.03613228835825132
118,0.03279480746752783,0.035846378855828455
119,0.032717529447220874,0.035392796141532505
120,0.032768950281820995,0.03513844931128125
121,0.032694141003386024,0.036376647562012185
122,0.032647860604928934,0.03607428963616317
123,0.03289245007798652,0.03723791575972426
