epoch,loss,val_loss
0,0.4595738071967147,0.4535628654061565
1,0.453033477844523,0.4521877026584426
2,0.45873523227485874,0.45246508247571765
3,0.45211875526897977,0.4521397845966013
4,0.4519304081685097,0.452356700726742
5,0.5355815452730522,0.5523308077293179
6,0.5523880290407073,0.5517679403485883
7,0.5513769776553716,0.5514936603609297
8,0.5512721107763118,0.5514008931949326
9,0.5512594701861598,0.5512937452748823
10,0.5283941253315239,0.5011991078804008
11,0.5109936505465592,0.5516650792538448
12,0.5513979426476375,0.5511702270342733
13,0.49103329694463477,0.4020721085945803
14,0.4475126000444164,0.45183364034636125
15,0.4516747310488754,0.45148203747128995
16,0.4515153425266931,0.4514069607499404
17,0.45183487431047953,0.45169616219295816
18,0.45132383712586227,0.45124758894062617
19,0.4546348270713682,8.761204060229192
20,0.6200906785885262,0.4514354627762254
21,0.45141513511641346,0.45150133128277514
22,0.4513602350165123,0.45147543839136534
23,0.4513340035434865,0.4513857434889012
24,0.45130113393331184,0.4533027720528026
25,0.4839147012527815,0.5011786611776456
26,0.5012358554451095,0.5011582588305147
27,0.5016730670882352,0.5011547620625502
28,0.5011550620631795,0.5011060694976517
29,0.5011137839001063,0.5010187431557019
30,0.5011551096851321,0.5013550807932965
31,0.5011259136241789,0.5010384726906761
32,0.5010959732705013,0.50110903065205
33,0.5010721469973478,0.5009907627363176
