epoch,loss,val_loss
0,0.41745038588700295,0.40434072772832225
1,0.4058478384608773,0.4026825479832986
2,0.40524573009647397,0.40252714838293674
3,0.4023590594656511,0.4019062152921879
4,0.4021125407781333,0.40173542985125577
5,0.4036251198976708,0.44678966086005834
6,0.40566267162851105,0.40248155286714576
7,0.4030091457564238,0.4024608462779166
8,0.40225400299880393,0.4014571344893149
9,0.4015668855025995,0.4013454846934854
10,0.4016414243157939,0.40178543135194866
11,0.4015461117374488,0.40214879859557734
12,0.4788078588489895,0.5011722014236966
13,0.9722224777287081,1.0
14,1.0,1.0
15,1.0,1.0
16,1.0,1.0
17,1.0,1.0
18,1.0,1.0
19,1.0,1.0
20,1.0,1.0
21,1.0,1.0
22,1.0,1.0
23,1.0,1.0
24,1.0,1.0
25,1.0,1.0
26,1.0,1.0
27,1.0,1.0
28,1.0,1.0
29,1.0,1.0
