epoch,loss,val_loss
0,0.4634447704278367,0.45350029263559627
1,0.4524890138005128,0.4518119687809345
2,0.4525413974074724,0.45171371218286205
3,0.45723741156818876,0.45178761816089147
4,0.45195417757593626,0.4519435282177219
5,0.4516400521359953,0.45193803409309413
6,0.4529744549327903,0.4515841450007999
7,0.45150399773107486,0.4517437386284636
8,0.5630672244331899,0.4515177401400037
9,0.45130759174518165,0.45264603176987017
10,0.451287022758174,0.4513962756992049
11,0.45164561609077564,0.45101425121970945
12,0.4511426777457865,0.45105662052643114
13,0.45164554000391455,0.4516501227825317
14,1.3823425065762598,0.45116413330367316
15,0.4512131792996352,0.4510582309190822
16,0.45120531991231133,0.45110163696989364
17,0.45118012556826875,0.45113607566659936
18,0.4512086524864589,0.45121845192893717
19,0.45118645803495494,0.45170764215686915
20,0.4511810593446587,0.45116667061859567
21,0.4512003583096625,0.45107345227421286
22,0.4511761087840555,0.45101404245437016
23,0.451219463306661,0.4524808131987772
24,0.4513361598909005,0.45134900485700663
25,0.5372509397450217,0.754459725962341
26,0.751816605543413,0.7510571776590064
27,0.7510002703893451,0.750801048989483
28,0.7507786801895999,0.7507129914044615
29,0.7506990617863214,0.750564966894472
30,0.7506762505132953,0.750715632244237
31,0.7506303894689951,0.7506189938431717
32,0.7505647122887168,0.7510296567737327
33,0.7506977839423591,0.7505271210166146
34,0.7505378621235248,0.7505838643544739
35,0.7505389284825545,3.6859094484355577
36,1.6235778208971663,0.8503206668438487
37,0.8503085966023525,0.8503320998704034
38,0.8503238913296314,0.8502908061946671
39,0.8503240311392757,0.8507813466519084
40,0.8503215925778087,0.8503729296720689
41,0.8503100995507038,0.8502645398134728
42,0.8502958432099558,0.8503172387390718
