epoch,loss,val_loss
0,0.5603280652691596,0.5527187729896544
1,0.5247188943000515,0.5021798126855047
2,0.502578559732671,0.5018105870469214
3,0.5019801870121847,0.5017608389866547
4,0.5018025071965632,0.5016751093430539
5,0.5015862314943258,0.501424499815639
6,0.5015306553220354,0.501503088677026
7,0.6427822730799277,0.6515119295328861
8,0.6511715939824021,0.6515528339326467
9,0.658491520111009,0.70200534229508
10,0.7251057207974444,0.7512386972438121
11,0.7508058898974775,0.7506730973114755
12,0.750688727713354,0.7506086622862205
13,0.7506706636905516,0.7505845150740086
14,0.750645828978132,0.7505814086705593
15,0.750610295246371,0.7505451515731082
16,0.7505977706278706,0.7508165486108429
17,0.7505700802192822,0.7505167389135616
18,0.7505634588704049,0.7505130433829905
19,0.7505784373413003,0.7504971454791726
20,0.7506654664563585,1.1133059483445673
21,0.8679933750186986,0.8004622701871995
22,0.8005090675361608,0.8005147665686999
23,0.8004703346369929,0.8004484945759993
24,0.8004415513324957,0.8006458746283248
25,0.8005131942811566,0.8003737411556574
