epoch,loss,val_loss
0,0.6555181372562999,0.6518315276172741
1,0.6518941998913225,0.6515997077607723
2,0.6570230042468157,0.6756340164891761
3,0.6520006273691215,0.6509975717619372
4,0.6510618732638733,0.651173895742281
5,0.6510762977780102,0.6512375473171562
6,0.6510151377275742,0.651114779085096
7,0.6511188194989752,0.6509420686730207
8,0.651368209021154,0.6508253975313619
9,0.6507989141288684,0.6508796459789482
10,0.650795570627643,0.6507298330030536
11,0.6507660539845157,0.6507214680917494
12,0.6507573313454252,0.6506387484543131
13,0.6507513968518612,0.6506434423271883
14,0.6507446440234838,0.6508274469060218
15,0.6507067979121612,0.6508693761563933
16,0.6507114112849265,0.6506948579402695
17,0.6507005350099291,0.6507617496764525
18,0.6511349671169084,0.6508910366755091
19,0.6506786832925276,0.6507628202315302
20,0.6506569769442473,0.6509801148563713
21,0.6506565066419198,0.650630068633222
22,0.6506429018000102,0.6507402037095698
23,0.6506671287889506,0.6507656379164032
24,0.650630786621842,0.650759102243913
25,0.6506447809852541,0.6506432752978788
26,0.6513811341732281,0.6507724582514763
27,0.6507347797097537,0.6506591338344239
28,0.650876028300936,0.6505900321497848
29,0.6505960625512269,0.6506721616236202
30,0.6506386588849792,0.6507363178265442
31,0.6506597308234233,0.6513238197066243
32,0.6506182177397137,0.6506031321564875
33,0.6506167699637284,0.6507792388501197
34,0.651395410639472,0.6506811864313217
35,0.7051098448158039,0.6509375909178602
36,0.6508080987740607,0.6506260341124741
37,0.6506336703019473,0.6506040225629866
38,0.6506372967291195,0.6507948689921159
39,0.6506074908082168,0.650724329256682
40,0.6506332451474948,0.650590227892877
41,0.6506115611187633,0.6506173632221409
42,0.6505976349772641,0.650561989636313
43,0.6506096950051528,0.6506569684545672
44,0.650585938276339,0.6506222360178044
45,0.6505935297247581,0.6506481616150979
46,0.650587443314227,0.6506033143354292
47,0.6505953398850887,0.6511413022243959
48,0.6505872695190459,0.650580564169197
49,0.6505739908740035,0.6506177719356485
50,0.6505843254813842,0.6505548696404736
51,0.6505802697254189,0.6506738706687263
52,0.6505794817606682,0.6505744060164541
53,0.6505690326712886,0.6509932839806087
54,0.6505690291575699,0.6505337512377654
55,0.6505836481839854,0.6505199791288232
56,0.6505534630646328,0.6505217733119278
57,0.6505673762062796,0.650537978808653
58,0.6505698128750159,0.6505279247204576
59,0.6505739159275529,0.6505452355487358
60,0.6505541932429275,0.650511662293109
61,0.6505729834187679,0.6505266339443441
62,0.6505646449341707,0.6505414703610929
63,0.650558443795929,0.6506160380529074
64,0.6508361009416777,0.6518366004675934
65,0.6524358950545218,0.6506521396264399
66,0.6505319510681099,0.6505601003337743
67,0.65053710923412,0.6506158424659969
68,0.6505568401822357,0.6505303280266842
69,0.6505626000125418,0.6507003414019414
70,0.6505613419481857,0.6506606887281178
71,0.6505535560218009,0.6505410150344246
72,0.6505654876086551,0.6505442609034664
73,0.6505472941032049,0.6505289818581009
74,0.6505663270198652,0.6505763627847869
75,0.650553143523283,0.650878840511671
76,0.6505642223070399,0.6508355921878878
77,0.6505507184290338,0.6505072799508148
78,0.6505610114697009,0.6508587176683915
79,0.6505485151557849,0.6505192585439744
80,0.650541614979182,0.6505919464887353
81,0.6506077456520213,0.6506150934465995
82,0.650581139023945,0.6508495677874848
83,0.6505780240079143,0.6506372735114898
84,0.6505923054909394,0.6509446163953287
85,0.6505813580099908,0.6505846388996528
86,0.6505742603078853,0.6507413285165169
87,0.6505912030580192,0.6508208717337407
88,0.6507930222889873,0.6514190038755164
89,0.6515730141641299,0.6506141335534088
90,0.6505490248678468,0.6662227113142418
91,0.6509691167008057,0.6505956890394863
92,0.6505579951304421,0.6505386938088202
93,0.650555176737906,0.650567774576139
94,0.650557282549927,0.6505443994130372
95,0.6505997431533248,0.6505313839243388
96,0.650770225773659,0.6505435523635454
97,0.6505363320968607,0.6505391869788059
