epoch,loss,val_loss
0,0.656930358251548,0.6529551628801427
1,0.6530811766386616,0.6525416497261294
2,0.6527952455951784,0.6537164019591755
3,0.6526695941030025,0.6533772310607191
4,0.6525479232554504,0.6526832381194047
5,0.6525432291496734,0.6525196984151457
6,0.6523958616378446,0.6521680189421396
7,0.6523218744745597,0.6530632389686244
8,0.6522981467182767,0.6521350059852411
9,0.652296788416132,0.6522110522532877
10,0.6522076994926517,0.6526305008762824
11,0.6521679520752139,0.6526411024571648
12,0.652166182153857,0.6521544581015708
13,0.6521954319391919,0.6523382843280253
14,0.6520942297317979,0.6520163881571653
15,0.65206934673746,0.6522872597348897
16,0.6520739951479992,0.6521470516550334
17,0.6520317036303701,0.6520405628840917
18,0.6520417174891486,0.6519511060738387
19,0.6520039011088534,0.6536851067401044
20,0.6519722309234155,0.6519317882528376
21,0.6519531524856129,0.6518372906348842
22,0.6519836254562942,0.6518730903973354
23,0.6519616703404588,0.6518218169732958
24,0.6519060971992141,0.6524313798317543
25,0.6073231891157912,0.6023716294144282
26,0.6021780009933024,0.6020946766247525
27,0.6021706503540784,0.6023989003290313
28,0.6021698158149017,0.6023187271418702
29,0.6021612173544388,0.6027153188478266
30,0.6021602279935364,0.6021098739160202
31,0.6021157947987694,0.6020117334041643
32,0.6020984170579196,0.6024688427856483
33,0.6021112782353357,0.6019732334181925
34,0.602098078677458,0.602207689516006
35,0.6020880614756257,0.6020199011336486
36,0.602074401651503,0.6028210883992482
37,0.6020789745885413,0.6020418860184643
38,0.6020653587944402,0.6023711898486608
39,0.6020768843911182,0.602119073057293
40,0.602057931066984,0.6024109759638386
41,0.602050717028344,0.6019660900603453
42,0.602053229942214,0.6019924749511643
43,0.6020438756013635,0.6019787612683128
44,0.6020356807527184,0.6022860856269193
45,0.6020353258802265,0.6020154756292811
46,0.6020218213227286,0.6020156550939858
47,0.6020431642621581,0.6025117600230366
48,0.6020419982991955,0.6022172945308922
49,0.602036680175124,0.6020017135823631
50,0.6020202922881942,0.6020639096536944
51,0.6020066603925327,0.601915908599314
52,0.6019944981255455,0.6019552859419924
53,0.6020045964851745,0.6022065154080355
54,0.6020163512664091,0.6036511171840261
55,0.6019979291462588,0.6024708756442105
56,0.6019957251722057,0.6020781392495035
57,0.6019867814479669,0.601979811138314
58,0.6019861163853656,0.60194878134479
59,0.6019839052085224,0.6018935489595381
60,0.6020003367586687,0.6026248496164459
61,0.6019751108504738,0.601993732919764
62,0.6019693243439045,0.6021705768540243
63,0.6019796393536105,0.6024292782873433
64,0.6019788505341254,0.602610816553272
65,0.6019510677901084,0.6019799541894615
66,0.6019744021688305,0.6019102787261565
67,0.6019785164125471,0.6020108113809496
68,0.6019727760256051,0.6019138307488586
69,0.6019404271892118,0.6021045157394693
70,0.6019555385052717,0.601919222528822
71,0.601941285730063,0.6020459859010303
72,0.601948279115323,0.6020368354492093
73,0.601942456649233,0.6019128762758695
74,0.6019518165765645,0.6022399001026864
75,0.6019257667996715,0.602295637426542
76,0.6019373494972535,0.6027638542740872
77,0.6019370841891001,0.6021862064638446
78,0.6019255508271977,0.601884186474916
79,0.6019326669202001,0.6019581691207129
80,0.6019426215040641,0.602020797658499
81,0.6019183548385237,0.6019302649474322
82,0.601939972228625,0.6018872479351224
83,0.6019268494316159,0.6019126023903082
84,0.6019056369864517,0.6023393027835685
85,0.6019358581316304,0.6019942005869768
86,0.6019128038918201,0.6023374446272555
87,0.6019369529975107,0.6018627000210007
88,0.6019128267907129,0.6019501057511228
89,0.6018902697287839,0.6019656543104583
90,0.6019012511420992,0.601973261963345
91,0.6019173303739792,0.6021376272880705
92,0.6019186802664268,0.6031126827223425
93,0.6018843485984339,0.6021398080193967
94,0.6019048079887928,0.6019635569368935
95,0.6018863854450419,0.6023406510021787
96,0.6019076701373998,0.6018891575022903
97,0.6018864153921143,0.6020279681416363
98,0.6019146682666724,0.6018151306041121
99,0.6018983590756065,0.6019497703677668
100,0.6018924891701797,0.6021972300101155
101,0.6018980004120065,0.6018650280334813
102,0.6018886294473914,0.6018680046864834
103,0.6018870998590996,0.601846863643703
104,0.6018898399704681,0.6022004819389608
105,0.6019011536413608,0.6029291369483134
106,0.6018761343785355,0.6018650894129542
107,0.6018764451074146,0.60221241132793
108,0.6019004267188549,0.6018036172940181
109,0.60187707632771,0.6019180454332242
110,0.6019078503459824,0.6023264085388657
111,0.6019015295156136,0.6019570877475123
112,0.6018938908515626,0.6020263563018875
113,0.601869438770385,0.6018576040161455
114,0.6018657139056592,0.6018013206959953
115,0.6018661923835801,0.6018294309859832
116,0.6018751911230614,0.6021346162921442
117,0.6018982997012996,0.6019509267866168
118,0.6018839152107196,0.6019711779009911
119,0.601859356192841,0.6019262023066765
120,0.6018522254844304,0.6020810332546754
121,0.6018677736661479,0.601951082379883
122,0.6018708343699027,0.6018523585116006
123,0.6019039856401666,0.6018690207164281
124,0.6018619661041772,0.6020237570069268
125,0.6018577025179351,0.6018768112949343
126,0.6018627580387448,0.6023052288048321
127,0.6018727179203788,0.6019408369478457
128,0.6018521084168093,0.6018462399099365
129,0.6018678696902,0.6018807553771708
130,0.6018467946880884,0.6025994146432238
131,0.6018940349980768,0.6018515605488722
132,0.6018781240122003,0.601955087752851
133,0.601858337115204,0.601815689941198
134,0.6018541153573641,0.6020187504829899
