epoch,loss,val_loss
0,0.8032587655840647,0.8042482899968737
1,0.801816719572199,0.8016175545474732
2,0.8016705352899924,0.8037663675715255
3,0.8014988636787828,0.8013023856555853
4,0.8014718818091231,0.8013677528715015
5,0.8014147994037442,0.8013048859742972
6,0.7629166105301523,0.7520038027621381
7,0.7516303973038531,0.7518322905890699
8,0.7516489714540662,0.7519351189544715
9,0.7516008548514375,0.7514647243928081
10,0.7515642500551929,0.7530619044753517
11,0.7515390296964042,0.7513849942914901
12,0.7515132927119648,0.752179488118174
13,0.7514796720700125,0.7514033391221285
14,0.751499799896963,0.751362363043849
15,0.7514595097539172,0.751392199827483
16,0.7514458189162264,0.7518905545878352
17,0.7514454789951835,0.7521037396367075
18,0.7514258312072448,0.7513335756273483
19,0.7514071989558935,0.7513866944289385
20,0.751403261217211,0.7513280228704732
21,0.7513911220668331,0.7515021497795067
22,0.7513952505812401,0.7515008038090122
23,0.7513690383601748,0.7513304404526135
24,0.7513739993706935,0.7512947988273488
25,0.75132720218177,0.7517938837519946
26,0.7513413916274873,0.7514452937518988
27,0.7513350934688288,0.7512812676264098
28,0.7513153008654495,0.7513121204991494
29,0.7513228925113978,0.7518319111308153
30,0.7513294789220658,0.7518826388543652
31,0.7513072080895908,0.7512749409557277
32,0.7513147906640153,0.7512788718154945
33,0.7513011161661112,0.7512414019101903
34,0.751295845911288,0.7518010661264803
35,0.7512815207587289,0.7512660661642959
36,0.7512758011353218,0.7513222837270638
37,0.7512828508184588,0.7516712375373462
38,0.7512813092391901,0.7512483469309937
39,0.7512676048226115,0.7514477787775082
40,0.7512801429086337,0.7514415782675258
41,0.7512537445067677,0.7511895298366216
42,0.7512607636717209,0.7515268896117104
43,0.7512535016178995,0.7512378243299631
44,0.7512456006929382,0.751288162922445
45,0.7512576883998875,0.7512148132986821
46,0.751246661701525,0.7513752365526432
47,0.7512415523731687,0.7512052926177126
48,0.7512466407439383,0.7515742279755566
49,0.7512301403748456,0.7512522625272386
50,0.7512403313460562,0.7513556687470997
51,0.7512212487953036,0.751262908005537
52,0.7512413245682725,0.7511873497560657
53,0.7512338401390591,0.7512411386144369
54,0.7512576241845421,0.7512365873634963
55,0.7512302841979404,0.7517351040177547
56,0.7512260270248712,0.7512305571482731
57,0.751225331590808,0.7514031047264932
58,0.7512169474139379,0.7514456847465364
59,0.7512322859440617,0.7522399463073788
60,0.7512203840842385,0.7512447292100702
61,0.7512132092424699,0.7512738010427792
62,0.7512153290872108,0.7511902120213947
63,0.7512255293508171,0.751314164479968
64,0.7512131395818438,0.7511735247619099
65,0.7512079745685298,0.7514990012048196
66,0.7512075279127259,0.7512184003446594
67,0.7512010928403186,0.7511614917229777
68,0.7511895993284373,0.7514011129256217
69,0.7511989141316426,0.7511873609670634
70,0.7512002272039581,0.7516177380942825
71,0.7511822302803304,0.7516682952272685
72,0.751191950197282,0.7511685465760621
73,0.7511737589032399,0.7511782194189635
74,0.7512073904428532,0.7511588410467427
75,0.7511836983731563,0.7512070572110027
76,0.751191398694383,0.7512170087610818
77,0.7511755246714165,0.7511758179581787
78,0.7511850830545036,0.7512496962145008
79,0.7511721865999031,0.7516743027246915
80,0.7512008810115591,0.7511401276730426
81,0.7511798273425163,0.7511915703269447
82,0.7511898771513497,0.7512407025095843
83,0.7511679177521773,0.7512065963768781
84,0.7511815050183079,0.751119446340329
85,0.751180012563313,0.7511416658870044
86,0.7511588483849664,0.7512117353917351
87,0.7511869768565903,0.7511508216928904
88,0.7511710491775323,0.7512413690167089
89,0.7511627977896285,0.7514946836691636
90,0.7511612121353751,0.7511641483153066
91,0.751174211053232,0.7511722724135993
92,0.7511781053014512,0.7511332850302419
93,0.7511565192246727,0.7511287405236483
94,0.7511647411900748,0.7513246165019999
95,0.7511647072523208,0.7515195159994935
96,0.7511625595019948,0.7511533120429841
97,0.7511578371167282,0.7512574323649442
98,0.7511685716560154,0.7511134348791231
99,0.7511603911545768,0.7513465039783317
100,0.7511545641298489,0.7511113368252075
101,0.7511494736142554,0.7526326006162847
102,0.7511599067399353,0.7512295024270751
103,0.751156291871775,0.7513990216160531
104,0.7511469617416386,0.7511521721004553
105,0.7511559294785954,0.7511241149961505
106,0.7511482114655308,0.751610297571045
107,0.7511573421073356,0.7515789894844699
108,0.751148498708629,0.7511227943761177
109,0.7511413089556417,0.7512168734304366
110,0.7511522497443066,0.7513659070206635
111,0.7511375290804064,0.7511329864449892
112,0.7511644580528272,0.7515466076268748
113,0.7511496886212035,0.7511484680341431
114,0.7511537214838852,0.7511903364664272
115,0.7511451750079872,0.7512492444319997
116,0.7511460329138316,0.7512001867625613
117,0.7511404580703678,0.7512514471120337
118,0.7511624408977365,0.7511354127237874
119,0.7511413066656735,0.7511238611957276
120,0.7511481603234346,0.7511204762435136
