epoch,loss,val_loss
0,0.6083185796661249,0.6056001765260626
1,0.6037111940775611,0.6035149813585778
2,0.6033992361560777,0.603424193959674
3,0.603110751382389,0.6028539348772678
4,0.6030362806721735,0.6028822459003174
5,0.6028958100348455,0.6026205462498345
6,0.6028042840299128,0.6044026310035667
7,0.6027248801753222,0.60250867267992
8,0.6026366109981239,0.6025117225150021
9,0.6025926238296759,0.602351400071279
10,0.6025583905956052,0.6023323386833627
11,0.6024820351390503,0.6024597141642133
12,0.6024462345688938,0.6024310921616944
13,0.6024398124569331,0.6025125275474624
14,0.6024470370224849,0.602287525929529
15,0.6023950740834819,0.6026594783472956
16,0.6023992604836771,0.6022283297318679
17,0.6023297378322108,0.6022854221370025
18,0.6023149454638306,0.6025609557149428
19,0.60232052125941,0.6021805386981065
20,0.6022551585674077,0.6021498230195814
21,0.6022559974475058,0.6021333942046532
22,0.6022175602286826,0.6023273683955
23,0.602256777821008,0.6022334568257959
24,0.6021916585030033,0.6024378880969348
25,0.6022050923286462,0.60273275866402
26,0.602173937267719,0.6024503844251704
27,0.6021422935656088,0.6020968405543723
28,0.6021338825031084,0.6022399117573911
29,0.6021413538101653,0.6020764314507137
30,0.602119133745882,0.6020228240093581
31,0.602106598330832,0.6020300205528885
32,0.6020975375113632,0.6019736966779156
33,0.6020808062759322,0.6031182372244652
34,0.6020901458128445,0.6021891840634216
35,0.6020949943853746,0.6020590474824455
36,0.602070747120274,0.6025034845614847
37,0.6020728942158725,0.6019851553528835
38,0.602067239834865,0.6021991288691537
39,0.6020541971843748,0.6021274266704436
40,0.6020464531060612,0.6021353752678145
41,0.6020581250934695,0.6023741173389237
42,0.6020499492579494,0.6020373493802754
43,0.6020451348345793,0.6019483796124423
44,0.6020365733291383,0.6024282153427749
45,0.602037032664566,0.6022267844185936
46,0.6020140580411822,0.6020888004350308
47,0.6020172033885655,0.6021875842925041
48,0.6020228977907698,0.6021177152546109
49,0.6020122770462557,0.6019268346483595
50,0.6020141014141099,0.6020199771258731
51,0.6019940138197623,0.6024425108142881
52,0.6019854024146293,0.6023357105018483
53,0.6020025465795161,0.6021649899908685
54,0.602018404189335,0.6019512162019243
55,0.6020063257077312,0.601997935949425
56,0.6019887784161561,0.6019215909186427
57,0.6019791041124041,0.6023447227241383
58,0.6019896977622485,0.6019382754567243
59,0.6019846734175054,0.6020898927234243
60,0.6019900286977498,0.6019178503500321
61,0.6019812350267705,0.6019676225356961
62,0.6019748188815061,0.6018991273330991
63,0.6019579072237201,0.6019151441216765
64,0.6019712110481155,0.602125016513001
65,0.6019749960570443,0.6024919262594975
66,0.6019921023471357,0.6021447097693129
67,0.6019480913544996,0.6020481274973961
68,0.6019690405590289,0.6018998477949989
69,0.6019452998052243,0.601955940143642
70,0.6019621821730318,0.6019145703493217
71,0.601964896165511,0.6019052213829741
72,0.6019337094859845,0.602286499161874
73,0.6019533928066878,0.6019360617135949
74,0.6019290331809037,0.6019498867964922
75,0.6019400631410707,0.6019055401421066
76,0.6019555664842178,0.6020416422458204
77,0.6019302704452552,0.6019372196114684
78,0.6019756382704491,0.6022187746192327
79,0.6019366263090603,0.6018825527752008
80,0.6019351215727997,0.6019420861606266
81,0.601925342984387,0.6024761123337757
82,0.6019353221481366,0.6020019430380601
83,0.601931975323786,0.6022196058599883
84,0.6019390297043947,0.6021734955884682
85,0.6018902445344012,0.6018926158436475
86,0.6019194688303316,0.601880501458426
87,0.6019166127730557,0.6024890247408865
88,0.6019499702887532,0.6018718810590266
89,0.6019216511013556,0.6018955237220593
90,0.6019319001926364,0.6023756128091079
91,0.6019278388193384,0.6019488808239069
92,0.6019143928528412,0.6019023470783944
93,0.6019219066359283,0.6018849617494247
94,0.6019100808767245,0.6021628853109279
95,0.6019175288959964,0.6018965006466244
96,0.6019358872669985,0.6019705659698316
97,0.601921147485059,0.601969477526899
98,0.6019075933339346,0.6021778855962729
99,0.6019185824966978,0.6020348216108885
100,0.6019044589654617,0.6019089503856214
101,0.6018963611150715,0.6018767676045818
102,0.6019081079883037,0.6018663072704381
103,0.6018949981501637,0.6018407712503343
104,0.6019091604452045,0.6020505958692016
105,0.6018809378450825,0.6020164035094288
106,0.6019078784661287,0.6020599204908234
107,0.601884228316338,0.6018426591054381
108,0.6019167811602594,0.6018461520559438
109,0.6018908866578796,0.6020080312310022
110,0.6018923902582276,0.6018494080964744
111,0.6019041753083764,0.6018792415966763
112,0.6019029935396638,0.601832248643965
113,0.601890358284211,0.6018312718673025
114,0.6019328270325964,0.601848228249893
115,0.6018782310987787,0.6018529437315967
116,0.6018841405521055,0.6018396119030178
117,0.6018796208712228,0.6018981959328757
118,0.6019041033214959,0.6021417174386623
119,0.6018846579413418,0.60188943002715
120,0.6018715073215746,0.601822292361011
121,0.6018806588720587,0.6019141617247248
122,0.6018849195798667,0.601948653527584
123,0.6019090238020237,0.601859167136862
124,0.6018841377841074,0.6018541538685782
125,0.6018585266477354,0.6022616020503174
126,0.6018896963193379,0.6019299944932053
127,0.6018556899711786,0.6018762034754599
128,0.6018755088583122,0.6019329254739634
129,0.6018936037417764,0.60202337805154
130,0.6018640874611015,0.602222592392867
131,0.6018807564643013,0.6018781683581047
132,0.6018727741125529,0.6019057555766615
133,0.6018430074657076,0.6018371584989297
134,0.6018928820996863,0.6019737049604468
135,0.601859974323322,0.6019554995129777
136,0.6018618861666977,0.6021349410856923
137,0.6018814494774508,0.6020419869174437
138,0.6018770320996927,0.6018465355075618
139,0.601881708300648,0.601870186334804
140,0.6018769188925965,0.6020410157610702
