epoch,loss,val_loss
0,0.5627165808314307,0.5545670133074815
1,0.5541325548236264,0.5576918748117262
2,0.5537707791000782,0.5532423800037753
3,0.5011421556305452,0.45429640900408363
4,0.45420951034381546,0.45411512721561026
5,0.45407180620297466,0.45558861270731793
6,0.4540413048877255,0.4539782966188994
7,0.453834313658834,0.4560452610771946
8,0.453800675794002,0.45416791233472137
9,0.4536750958374969,0.453403697519681
10,0.45368206771417374,0.4533438307475807
11,0.4536117543468793,0.45345215517888887
12,0.4535657098029647,0.45538049863822405
13,0.45352509834969873,0.4536530716543458
14,0.45349029400561613,0.4537368498428288
15,0.45337426621465443,0.4531807926689129
16,0.4533972305106999,0.45341531558900555
17,0.4533733436099129,0.45345436012182877
18,0.4533733546156434,0.45372113881276793
19,0.45329505387137076,0.45323261767995565
20,0.4532891908342707,0.4531089595470476
21,0.45327896233061615,0.4530816200205469
22,0.45326815121110214,0.4539527620186581
23,0.4532153016584313,0.45357357735373544
24,0.45322222157618036,0.45319027396348804
25,0.4531970719441191,0.4535787731187219
26,0.45316759657404493,0.45331404604036224
27,0.4531848261141982,0.45307261831411355
28,0.4531578338395006,0.4530463628082654
29,0.4531884972198902,0.45332482557734544
30,0.4531500424050715,0.4539363206764013
31,0.453108137275197,0.4534741860909143
32,0.45309882091405607,0.45330314121530313
33,0.45309019493058994,0.4539789875594913
34,0.45307803463961727,0.4530506775337768
35,0.453057929567204,0.45295422078657976
36,0.45310097563722856,0.45318532383471505
37,0.45308086701311645,0.4533132155539084
38,0.453064266841879,0.453545181168516
39,0.45302347003923743,0.4534885650680911
40,0.4530855656905471,0.45332209461971784
41,0.4529964692420404,0.45299628016079035
42,0.4530133612130419,0.4528875425790735
43,0.45298510364101213,0.45300171171169423
44,0.45301567483302646,0.4532042275143616
45,0.4529903445388065,0.45294583061196964
46,0.453012584933558,0.45346848864117567
47,0.45300097777086484,0.45314310401604135
48,0.4529774504293922,0.45286449330024625
49,0.4530253506517229,0.4529977977571653
50,0.45298018687113206,0.4537710660296693
51,0.45299082483142644,0.4528996700684427
52,0.4529687991671387,0.4528800571822647
53,0.45294772442494596,0.4530093099875722
54,0.4529865996883305,0.45303864063459354
55,0.4529529423272161,0.452844376569942
56,0.45294367197013924,0.4529636498272567
57,0.45296043439307493,0.453087431754427
58,0.45295729070420293,0.45287726395775013
59,0.4529540157050229,0.45351754798191063
60,0.45294163862553377,0.45287780556134494
61,0.45291081286959994,0.45283623036024884
62,0.45292206325990864,0.4529867831589862
63,0.45292218314759036,0.45422104256916285
64,0.452946029343661,0.4538072455757605
65,0.4529148286166826,0.45347845622386884
66,0.45292668699629735,0.4529028417158955
67,0.45290228036187663,0.4528062840105582
68,0.4529202634948159,0.452983253395587
69,0.4528815891002123,0.4531207846352835
70,0.45290088150252644,0.4529072652975324
71,0.45292680645367334,0.4529626138157052
72,0.45286678965486027,0.4528001343050311
73,0.4528939076995312,0.45331560456131587
74,0.4529053891916433,0.452900779188123
75,0.4528760616475723,0.45356792097647786
76,0.45289983969283387,0.4528514335971908
77,0.4528453466510008,0.45289943704829916
78,0.45287166103477905,0.4534296323140857
79,0.4528496418822678,0.4527799969719302
80,0.45288037311410617,0.4528348754268722
81,0.4528550768720203,0.45288805892094786
82,0.45287305838825626,0.452968259041126
83,0.4528649199814493,0.45274491987512366
84,0.452842423587111,0.452837371456416
85,0.4528594601550477,0.45308657106631445
86,0.45284741803802764,0.45275017648713467
87,0.452857911416769,0.4528929316228436
88,0.45286124613142414,0.45343196974794564
89,0.4528598840701189,0.45304123475297214
90,0.45284120343204803,0.45327645087656254
91,0.4528824652820221,0.45277718148811286
92,0.45285361275370506,0.4537681093730643
93,0.45283689040600095,0.4527459355944735
94,0.45287554351999276,0.45281473838957603
95,0.4528481486676314,0.4527765880003756
96,0.4528389430019577,0.4527777201188705
97,0.4528319827403811,0.45271448713378337
98,0.45282730530885373,0.45284772722360217
99,0.45283067915017455,0.45317224546638374
100,0.45284861110985886,0.45345679361826136
101,0.4528287867234097,0.452790002447204
102,0.452840593590179,0.45282662732725404
103,0.45281608485654595,0.45304516479927615
104,0.45281263111205966,0.45289886834899484
105,0.45284135912779544,0.4528094113612589
106,0.45280756336599115,0.452757653778895
107,0.4528133078236809,0.4531439598825374
108,0.45281559356608375,0.4527539181945933
109,0.4528382112676001,0.45292340993289615
110,0.45281499174304735,0.45299282988011097
111,0.45278673342044756,0.45272213701278935
112,0.4528462634061871,0.45433935172504586
113,0.45280837690025155,0.4527314480126052
114,0.4528237919960088,0.4527662430596411
115,0.4528243283683949,0.45309068284022896
116,0.45284868924052746,0.45275860368170157
117,0.45277638600725817,0.45277796290056876
