epoch,loss,val_loss
0,0.36455875803206933,0.3814775318720796
1,0.3560881521110318,0.35479935792184647
2,0.35538495022693256,0.36124422360886416
3,0.35507998776769367,0.35890007353302267
4,0.31242997942836515,0.30482356230319285
5,0.3049585447852253,0.3045547614026602
6,0.3048468453432978,0.3044087645581579
7,0.30468503128456637,0.3043279608633027
8,0.30462285469554307,0.30413013843093856
9,0.30443171986916895,0.30549940092687866
10,0.3043124114172131,0.3041710511034831
11,0.30429971623527363,0.30462837225154377
12,0.30419411452260103,0.30393943172826365
13,0.3041097205122632,0.3052378040537349
14,0.30414929319243056,0.3043480318622021
15,0.30399618759979885,0.3054722460860354
16,0.30397171325197425,0.3037810510056782
17,0.3039030991230891,0.3037214584593146
18,0.3039154711990412,0.3038510323014508
19,0.30383528972829743,0.3035887831789684
20,0.3038327393056483,0.3042719987130934
21,0.30382022218628435,0.3036729937747454
22,0.3038021318776291,0.30351656434257923
23,0.3037487508121481,0.30513265884247964
24,0.303750426957613,0.3035475872290637
25,0.30367886894332435,0.3038064065405512
26,0.3036838171010714,0.3035026015625994
27,0.30364034416733593,0.30411881554511283
28,0.30367547876261136,0.3037048499282477
29,0.3036343343612624,0.30462744348398213
30,0.30357921471811716,0.3037159205370446
31,0.3036083688560653,0.30393186801716354
32,0.3036130062360259,0.3036267294185629
33,0.3035567793443702,0.3035689379234172
34,0.30351554667906605,0.30550407805750446
35,0.3035401734746381,0.304334524503121
36,0.3035510685014093,0.3034255146832383
37,0.3034671851867065,0.3035275138933073
38,0.30352077529717236,0.30334692303063554
39,0.3034856690890616,0.30393179193619757
40,0.30350328155046413,0.3034882095700162
41,0.3034866484294799,0.30426555284791196
42,0.30348446780197946,0.3049182153813005
43,0.30345163539499076,0.3045545821154384
44,0.30345581210088224,0.3041411528812153
45,0.30343999210278455,0.3035235361928679
46,0.30337312316431014,0.303533764764038
47,0.3034641470655242,0.30343292501960734
48,0.3033646225560089,0.3054156009227999
49,0.3034276171913896,0.30330573721204146
50,0.3033821662248906,0.30333796042958205
51,0.3034055525372979,0.30357495578879456
52,0.30334539855890086,0.30385915296840904
53,0.30341078843313285,0.3048634921350787
54,0.3034106807860921,0.30333837498506305
55,0.303362936781713,0.3034741887827369
56,0.3033443800898448,0.30376251845738433
57,0.30334711839282474,0.3046700414149992
58,0.30332512739359063,0.3033708267708866
59,0.3033634567472621,0.3034896408062123
60,0.30334484585067234,0.3032878412354377
61,0.30333386281907604,0.30362859551723187
62,0.30333957326565075,0.3033547239179351
63,0.30331142926555005,0.30327120361197973
64,0.30334527988483123,0.3036079779452189
65,0.3033109346982957,0.3032604331414102
66,0.3033341164573057,0.3033374509947471
67,0.3032886276546639,0.3035377506582672
68,0.3033114856478318,0.30325535464819253
69,0.30325399487360716,0.3036589912238251
70,0.3032850581492504,0.3036259633287898
71,0.30330194337143257,0.3040966353848318
72,0.3032731648533402,0.3034183283893405
73,0.30330563340900046,0.3032044568961075
74,0.3032700148076965,0.30404515572576307
75,0.3032585643315189,0.30326461618946443
76,0.30329398710031535,0.3039860748327695
77,0.30324357533707,0.3035969791430102
78,0.30330958389396273,0.3031879772471435
79,0.3032510213164323,0.30384488969523615
80,0.3032464875735045,0.3053020505692172
81,0.30324074030798087,0.3032633077713751
82,0.3032424953129916,0.30321205051306166
83,0.30326669129400685,0.3031950290238591
84,0.3032139024030105,0.3034046166292195
85,0.30324368798252044,0.30393793529671415
86,0.30322380018296413,0.3031766392752787
87,0.30319332606848204,0.30340365307502654
88,0.3032480550358028,0.30324372663983046
89,0.303216718168916,0.3032833194614344
90,0.3032188970724325,0.3037753424484736
91,0.30326005679558526,0.3032219258342724
92,0.30320620294949485,0.30336104405133363
93,0.3032412617107749,0.3041418378909232
94,0.3032298154331352,0.304518789792475
95,0.3032210570606385,0.3032456035945315
96,0.30326167754756456,0.3043154230632498
97,0.3031976880066082,0.3031424316519839
98,0.3031977892665073,0.303213736644158
99,0.30323471051694584,0.3039602475633692
100,0.3031958988666364,0.303201406336304
101,0.3031974983383984,0.30422504594544914
102,0.3031506154050368,0.3034259466616155
103,0.30319992534454293,0.3039815323672283
104,0.30317539205074506,0.30332962901657334
105,0.3031980393999735,0.3035338591848946
106,0.3031911364092935,0.303448987125463
107,0.30317815957586425,0.30315224083126624
108,0.30318294311069566,0.3032626822923608
109,0.3031737385304495,0.303613944059566
110,0.30319314200174097,0.30360527044490315
111,0.3031722475213766,0.3032554384644511
112,0.303151090247643,0.30305060105347453
113,0.3032155597940859,0.30309970625872645
114,0.30318458706408324,0.3033756121660285
115,0.3031625086512507,0.3032582662389533
116,0.3031951062520989,0.30315496074058873
117,0.3031519307732366,0.3031247610933432
118,0.303178419137799,0.3031053082079213
119,0.30315391655150387,0.30307085698946534
120,0.30321899587000456,0.3032918986848211
121,0.30314849532956367,0.3031485092994889
122,0.3031582973714153,0.30325258122780185
123,0.30318610812593144,0.3052581822014328
124,0.30315094975971374,0.303313997824198
125,0.3031406988174477,0.30308416506492764
126,0.30315747463429116,0.30513040047721296
127,0.30314539847815264,0.30306403888366357
128,0.30315629224595414,0.3040825151480161
129,0.30321169027917916,0.303063483539941
130,0.3031118090647241,0.30370950126470464
131,0.30318457652415576,0.30410055317003143
132,0.3031370417288377,0.30337039011879535
