epoch,loss,val_loss
0,0.5100301984618254,0.5046036044362165
1,0.5044275537030471,0.5040229988748914
2,0.5040648025469354,0.5033507454484035
3,0.5038844904977723,0.5033732840500162
4,0.5036065851190142,0.5036650513301121
5,0.5036093395641793,0.5035718139584544
6,0.5034527737653753,0.503114607079745
7,0.5033678599878787,0.5051354703181434
8,0.5033554262606671,0.5033219173883386
9,0.5032350713536097,0.5031586711814918
10,0.4784059675265418,0.45329899733178963
11,0.45342333181108757,0.4532318865247163
12,0.45337240965077874,0.4536240224063249
13,0.4533171643003719,0.4531422366279526
14,0.453246144273595,0.4530321643754803
15,0.4268247337062284,0.40364145654306816
16,0.40344735762987805,0.40329365546886736
17,0.40343230355513376,0.40333378652189267
18,0.40334628981947657,0.4032854099723305
19,0.40338223712508137,0.4032768096136988
20,0.40332902162477124,0.40319463279347856
21,0.40332039087678295,0.40321201973458376
22,0.40324643985208264,0.40365415579332015
23,0.4032786264703029,0.4034699131478151
24,0.40323420200115856,0.4032341075742215
25,0.40325441050038197,0.40469550567288554
26,0.40322982004139046,0.4033090527832656
27,0.40319806646734974,0.40376915455456114
28,0.40315367036604377,0.4040925144705524
29,0.40320054088246127,0.4038931976920618
30,0.4031406982983199,0.40351187123850024
31,0.40316412594611173,0.4030717839674086
32,0.4031538513524109,0.4030812812650174
33,0.4031290480663979,0.40330475672303
34,0.4031349655428959,0.4036714309054628
35,0.4030786437094602,0.4035545213494644
36,0.4030715197005672,0.40470967507244043
37,0.40308904911335197,0.40340183449738076
38,0.40306020664377723,0.4031757684410654
39,0.40306166424597745,0.4032761105532682
40,0.40305696873845276,0.40307267234283994
41,0.4030601464589494,0.40350589437165274
42,0.403010687006531,0.4036370541854177
43,0.40302534939732837,0.40294538128464746
44,0.4030118662170738,0.40304179947370333
45,0.4030144768781911,0.402923670418505
46,0.4030257284943387,0.4038187320267888
47,0.4029891715882462,0.4029427269995952
48,0.40299937136711766,0.40297492911147126
49,0.40297457581162066,0.40295328994838536
50,0.40302344054321704,0.40353819287148657
51,0.40296703247035365,0.4030177821148714
52,0.4029900004068411,0.40294106547944897
53,0.4029905427080597,0.40285396185465544
54,0.40294038066217364,0.4029205112835905
55,0.4029758936543744,0.40287701208005766
56,0.40297799054934313,0.4036619522139689
57,0.40297458215577114,0.4032712055347102
58,0.40294880718452275,0.4032226337096827
59,0.4029309253000446,0.40289926528930664
60,0.4029568002225262,0.4030557534534937
61,0.402950960731158,0.4028704045428236
62,0.4029543783938553,0.40291185476643865
63,0.40292345474710745,0.40289408734655263
64,0.4029424153671133,0.4028065746090844
65,0.4029172284984186,0.4030759147763548
66,0.40291583884903165,0.4040778032159687
67,0.4029224895543222,0.40292949348170465
68,0.40292800790270195,0.4034943998747369
69,0.40294183061589595,0.40380060344416807
70,0.40292056232248674,0.40288939376918614
71,0.4028930472483748,0.40334692848823206
72,0.40295135580272745,0.40308396422833426
73,0.4028822211998934,0.40314329869989723
74,0.4029429053023687,0.40287349215216434
75,0.40290387193100025,0.40307012426646116
76,0.402919181240168,0.40291053815455946
77,0.4028913595808914,0.4040071465241406
78,0.4028985577889334,0.40312509072329805
79,0.40291274068816585,0.4029721488284118
80,0.40288148398475776,0.40303047855497887
81,0.40290203989494744,0.402848540361111
82,0.4029075438302534,0.403067383872664
83,0.4028596721591636,0.40304349875331813
84,0.40288767576323353,0.4030127267239999
