epoch,loss,val_loss
0,0.13048149463232997,0.04811618003726664
1,0.035000760385172545,0.019771879284562515
2,0.018145508836019786,0.013645884472121145
3,0.013709992391253105,0.011977084838853591
4,0.012909054550692904,0.016667489469604127
5,0.011115348201988043,0.0042724044333434805
6,0.010916987070359653,0.007403396910913553
7,0.011201442569586561,0.015954938684108695
8,0.010571889678123508,0.005525583333329202
9,0.00974442700179462,0.018491328646147356
10,0.009637199185355355,0.009654454443671379
11,0.010202011216519702,0.006582427521081143
12,0.007781728013172198,0.006833355627577655
13,0.009744689049985376,0.010803139090814408
14,0.00992946104138351,0.00886304889626995
15,0.00839018673149513,0.014565371123202081
16,0.009886331660271013,0.007664210156073769
17,0.008623004092635373,0.011011219110072318
18,0.00919730446647948,0.008778310852050311
19,0.009915151083350575,0.011051211115075739
20,0.008831127234053411,0.013085940712364574
21,0.007811862319673625,0.00891646415865506
22,0.0076380105636869484,0.007601864555087631
23,0.009014473652275805,0.013531204012399737
24,0.009520228522614561,0.008814337717011959
25,0.007566545548071589,0.007343011355834653
26,0.007090951384083896,0.004107268487456848
27,0.008707465571284347,0.007220782475191703
28,0.009058754048053381,0.008018765076274536
29,0.008239474504155745,0.005163122945771668
30,0.007900228544933458,0.008714568744624517
31,0.008346586587293882,0.010516271983797426
32,0.008706729086547745,0.00775959646224905
33,0.008170180797143628,0.010400133182448295
34,0.008079528680825376,0.006897605002961388
35,0.007855188676441232,0.011216434397262057
36,0.008130421441943227,0.005930619999022468
37,0.007511436997307576,0.010488847957890195
38,0.009055226043664771,0.006211703971407619
39,0.00770034011603027,0.005804927884024033
40,0.008748842953636551,0.01167026310703396
41,0.0077505892913730485,0.00993278786031369
42,0.00842873318625955,0.005116458973408498
43,0.0075374721654792795,0.006683638420076519
44,0.008628421344795821,0.0054562800172819285
45,0.006602570838700655,0.006621179197001217
46,0.006998552522677139,0.009678710298355443
47,0.00778740773665727,0.007463586318211802
48,0.008040871993034816,0.009134465826332757
49,0.007840205270753835,0.007208313594844954
50,0.008231547122320933,0.00651996912972762
51,0.00860400295354423,0.005820061627778371
52,0.007191343859826727,0.006667331399156432
53,0.007000450837350697,0.008522541046101414
54,0.0076281300000139145,0.009319236839444456
55,0.006640532859329352,0.005858423049769702
56,0.0066068476167612435,0.005126674964233069
57,0.008592785624649485,0.007612546347228673
58,0.00787315491328595,0.009079169014493781
59,0.007792537751366391,0.010414691533137704
60,0.00773316155830629,0.00902697504898673
61,0.007628416023805267,0.005788420718060344
62,0.006213867845074039,0.010301708248932718
63,0.0069931950846345995,0.005418277521277377
64,0.007840490349636173,0.009598689187603291
65,0.007205829355879862,0.006012684208412244
66,0.0072169511157053,0.008346751414609877
67,0.007874135805802386,0.0072024694655675675
68,0.007304415925868231,0.0114342205582191
69,0.008321424133515061,0.005139875971809935
70,0.007228959363503314,0.006899875604151362
71,0.006337463305585629,0.008299531233544743
72,0.007408382936580319,0.005523156776036347
73,0.007687652694544554,0.011203696383067775
74,0.008017055228256511,0.009148573524214991
75,0.007603273051120876,0.008622297909090203
76,0.007208997700668627,0.01216923671568014
77,0.007720834451640467,0.008453176950781526
78,0.007120904618882381,0.006053846628620527
79,0.007894370613692643,0.008218199453495249
80,0.006580141172997451,0.007956582838235733
81,0.007446973244279927,0.009416892274114543
82,0.006743881860275199,0.007620453757719793
83,0.005757624365416892,0.0041106151989878
84,0.007087709486959495,0.006688545100043962
85,0.007253378093020051,0.007710511244145452
86,0.007193684808166919,0.0052448003295582635
87,0.006100467482799862,0.006714707457305365
88,0.006621019544562312,0.006246821571511952
89,0.0065869740479410615,0.005757890963646118
90,0.00742293913386387,0.004553323430424496
91,0.007062534390067269,0.004680682173264878
92,0.00704629079940886,0.007700781596658403
93,0.00640397563801526,0.010386774872871441
94,0.006353572001874292,0.006432974333239054
95,0.00620394295135842,0.006381860282933655
96,0.006549938743060036,0.007143625177313657
97,0.006016892584529873,0.006929878966887236
98,0.006434188108332157,0.007635595908736914
99,0.007128753231746777,0.00420067993734376
100,0.007883308988197042,0.0066022812028657335
101,0.005825193665402797,0.0041906740746130815
102,0.006793616587842563,0.008471315099263082
103,0.007118545114070171,0.007682304591566748
104,0.00731278205871862,0.005786506719696141
105,0.006599147777280791,0.006619605862027609
106,0.007035956667404143,0.0068748204501370746
107,0.007047439300303283,0.009867964521191585
108,0.006232907370698424,0.00903025915480168
109,0.0065700222389492614,0.0078012319818291966
110,0.007156401783950794,0.008492802474838876
111,0.0059985162836940975,0.005232064841401887
112,0.006032667580253477,0.004492119928982165
113,0.005621435111582125,0.00669391392844111
114,0.007158016467442383,0.007299020274850263
115,0.006643198024340832,0.005312187917274736
116,0.0066104146196312615,0.006365342825377726
117,0.006717417828015072,0.008405218281633946
118,0.006138549719324453,0.004056302207244976
119,0.0075634213872246454,0.008910747541918845
120,0.005954879072240199,0.00737454415642272
121,0.006686055006070001,0.007915585062554034
122,0.006499890954405677,0.0064840976471535645
123,0.0059484903018349865,0.006821076215877717
124,0.007319722756118827,0.0055009898808273915
125,0.00742209081569289,0.005759684822868318
126,0.005907527200202439,0.006820514656297551
127,0.006638019197366589,0.0038684716214070825
128,0.006425916034036683,0.008426644641614939
129,0.0067745226326113425,0.008701825651157156
130,0.006677762729109828,0.007334027771603525
131,0.006146047404668719,0.006017237059307456
132,0.006478211449215012,0.006242725024942159
133,0.006634617369040567,0.005987490644941625
134,0.006555240624193415,0.008021252095293557
135,0.007143837576590591,0.0076441005564749755
136,0.006630167852324858,0.009155941325891837
137,0.005784534935677182,0.005482675318386415
138,0.005947878465430884,0.00946502671404297
139,0.005975401636844368,0.006707913100046136
140,0.0063848908041245775,0.006437797832207926
141,0.0063656944974915955,0.0077625380004972995
142,0.006252933296000512,0.0070066568188092895
143,0.006069454918823969,0.004859645628600419
144,0.006562742254258298,0.0058585352057792485
145,0.006920307112722207,0.004301022860422237
146,0.005564138958350473,0.006722970126930333
147,0.006620856877926329,0.004371230064170183
148,0.006656204863785685,0.007830735984028279
149,0.00621987199861196,0.010989138668354515
150,0.005937824295990044,0.005061569114986751
151,0.005984463821091562,0.006135673750259553
152,0.006162860839207807,0.004898686021501706
153,0.006008603937103511,0.009373883094900268
154,0.006439578098462348,0.004646081683955846
155,0.006419543514037869,0.004824065634188402
156,0.006012167113715505,0.00579733614520932
157,0.005945148962296003,0.00429368750048888
158,0.005613699382030332,0.007094826353030263
159,0.006585215251121542,0.008140200578872976
160,0.0070933967887935375,0.007988421254127558
161,0.0066355185694530975,0.005734783832142578
162,0.005899560965800868,0.008973564101411022
163,0.006438211407430536,0.005319387394340964
164,0.005820078030731127,0.0066755392427696614
165,0.006520504518010044,0.007765744827487804
166,0.0059546461092683375,0.006052549226810801
167,0.006271150425916983,0.007723690768087837
168,0.005922209204574354,0.0047196282647938214
169,0.005768117379768641,0.004729334660456608
170,0.005456069555263118,0.0049612221088269235
171,0.006717446853304736,0.0066867889248381565
172,0.0059382711156762,0.010636199997839442
173,0.006784282800507732,0.009265388041622967
174,0.005727002428912317,0.004907553428570845
175,0.005777435224067024,0.0057169212794318
176,0.006219085517170415,0.0052985826080140155
177,0.006077681782284676,0.00753560556641294
178,0.005684388474450349,0.004806674508217666
179,0.006307480969655363,0.011695693385946816
180,0.006056541142215451,0.006577651168571839
181,0.005788507154598522,0.007751495549462636
182,0.006340827629566461,0.008790131306221331
183,0.006114432867951423,0.006913025384943788
184,0.006433431266734063,0.0047935520253940276
185,0.005495624481994424,0.0062528546203454135
186,0.005281909142150361,0.006620337977496747
187,0.0057091452432595355,0.00509924494279894
188,0.005854709102749098,0.004244433885371135
189,0.005901637360182621,0.004315414138126533
190,0.005825429018471482,0.006755565831198077
191,0.006051244575148381,0.006278253690763755
192,0.005743134782823036,0.004824459385905994
193,0.005900152587535814,0.005911016389110141
194,0.00632078045125616,0.007194061482056164
195,0.006171345808558154,0.008549843105504431
196,0.006184598668474707,0.006695810798776131
197,0.0055020572622302925,0.005137210962492693
198,0.0057038815880416155,0.0058366454227723845
199,0.005159428783061116,0.007862592174435636
200,0.005739925542011035,0.0055855836883928235
201,0.00565038368317688,0.007292703172631544
202,0.005820411552718247,0.005146965220564684
203,0.005756847862285271,0.004191575411835064
204,0.00506270358305079,0.005495571753343872
205,0.005856910295565601,0.007835919303920975
206,0.006036289397338264,0.004480819878313211
207,0.005454474543169182,0.007690651521995229
208,0.006119432245406488,0.007182000583844831
209,0.006200071009766343,0.006165226190788312
210,0.005477234078247359,0.004461498116969991
211,0.005711698847123795,0.007540041640703732
212,0.005542693772263152,0.004335457054073404
213,0.0064875647909738285,0.004069100135912341
214,0.006353713078911957,0.010635436635285074
215,0.006021718608310743,0.005132293239700437
216,0.005769397555046427,0.006555853897798292
217,0.005956456204671576,0.0044761207583194984
218,0.005594395418955887,0.004626030205280741
219,0.005243733819152752,0.005603445824691415
220,0.0057236193769539204,0.005492926665656004
221,0.005227792635113358,0.005039162814378997
222,0.005593594168029952,0.005759259242264535
223,0.006010388916017388,0.006418674150018732
224,0.006041912957921707,0.005306751830040256
225,0.0061010219872170545,0.006298663501128636
226,0.005733988801505771,0.004408823389445315
227,0.005049403236291522,0.0050028734436169
228,0.004969525419333451,0.005410949806532078
229,0.005840703572923069,0.005778679496666744
230,0.0057311909058117136,0.007395482069320959
231,0.005525668827927769,0.003574441539178049
232,0.0056225334037859126,0.004832150851947497
233,0.005280418948979109,0.00433234140554762
234,0.00589357870560196,0.00403227171149096
235,0.005539761986572305,0.006472625013296775
236,0.005893324981525475,0.007201759920153405
237,0.005095323641895414,0.009553257203216193
238,0.005711240249575763,0.006450812552850503
239,0.0055792874834916404,0.005923840981755985
240,0.005363229992721292,0.005164358664183468
241,0.005945814989706714,0.006235659642155328
242,0.0057745956617379956,0.004406666552946383
243,0.005742821542320581,0.004695298961689365
244,0.006070551149704182,0.005842854928198817
245,0.00534085504035819,0.005537176988768996
246,0.005850632929505198,0.007612620883907214
247,0.00583950420774573,0.00676883901847966
248,0.0058455081927559546,0.008242116549332356
249,0.005528417709514314,0.007614116474762618
250,0.005860362958209924,0.005101335164741705
251,0.005942249333569341,0.009681112896695133
252,0.0060163070596635435,0.004041039251487911
253,0.005210696679106701,0.004172373496895713
254,0.005404966115355223,0.004376015603474702
255,0.0058843853754467134,0.003813622239315566
256,0.005238614817277241,0.005322247934354956
257,0.006131848461905883,0.005124462550122294
258,0.005699173260430287,0.006432695492540487
259,0.005716680188858353,0.006083831729862807
260,0.005552569501117604,0.007399990805516632
261,0.005708347529554062,0.007167640831262673
262,0.0061061515602738045,0.008967157432716854
263,0.005463346530371409,0.005545113034305276
264,0.005795345749898846,0.005160474287156359
265,0.005109278562975278,0.005165735855051732
266,0.005163450712534628,0.0064081598717157726
267,0.005398497785360431,0.0035173888279649928
268,0.00602671991839043,0.004059967921933581
269,0.005529761258371287,0.007037794264511226
270,0.00548092253384464,0.007865365672909493
271,0.00502214062432993,0.00517099228045876
272,0.005457666607184274,0.004573784577097941
273,0.005388412144233128,0.004299183284618319
274,0.0055871734354305536,0.004160159295049938
275,0.005860829427518206,0.006656892305856016
276,0.0052312922074558505,0.007326670213004879
277,0.00563386527744742,0.006215984394278409
278,0.005852258777328515,0.004568350688064061
279,0.005826598606358984,0.005000302338738939
280,0.006025955457684043,0.007992159253634636
281,0.005720509561154691,0.006374340186126371
282,0.005105777241890397,0.005309082930444519
283,0.005395414901236228,0.005000858524654005
284,0.005125236327031837,0.004890094674762042
285,0.006160343070324662,0.005077264141570703
286,0.006217780607591698,0.005743354235885293
287,0.005044597640003023,0.004669998349414605
288,0.004812501460800676,0.007157215860326081
289,0.005439321983320494,0.0038493494826626995
290,0.0051116898746529724,0.00404758723496791
291,0.006087712125110475,0.006351571925566624
292,0.005627787927519992,0.006227118017529773
293,0.005766380629554349,0.005856912772758513
294,0.005539977513767368,0.006162374500911492
295,0.005438689416427787,0.004766400391125689
296,0.004807527549080938,0.0036325182902811194
297,0.005840033098651791,0.0032956526409275975
298,0.005212068828537489,0.0056227251671213474
299,0.005233502178601802,0.00423683329476536
300,0.0048956265968965185,0.0039313829400309825
301,0.005072793673737337,0.0061283264582610636
302,0.005026466599635804,0.003722574499170366
303,0.004926685445408205,0.004857746575501084
304,0.005856783723914258,0.007009159959926202
305,0.0055314002481909345,0.006581115125124978
306,0.0049759822982854,0.0038965985145134633
307,0.0050665731899154414,0.005634510421415389
308,0.005572113344244075,0.00445604170161728
309,0.0063334666722961105,0.005854296110990886
310,0.005644412529334682,0.005432861147414608
311,0.005371176015803788,0.0033069987578836476
312,0.005218898536816841,0.0032717971301739765
313,0.005212338233878799,0.008459976975730346
314,0.005448377547434998,0.009434743541797833
315,0.005056697700870969,0.005160711671136784
316,0.004887914013241877,0.0032250535255040746
317,0.004303125913521434,0.004783363025650182
318,0.004912730579325508,0.006506493040187771
319,0.005222793865698031,0.0054163557014941886
320,0.005611682547067257,0.004244293978962615
321,0.0047918072406412495,0.0035802662507105317
322,0.0043301372197929395,0.006333391794798147
323,0.004776930247770725,0.006507832549979885
324,0.005325723167074819,0.0074366240529894784
325,0.005409338621613975,0.0060949566962981
326,0.005403071473208185,0.007216940091844963
327,0.0053535092376927424,0.007618360070698404
328,0.004934456309681084,0.007058495807446004
329,0.0050553883780255545,0.004275087815883621
330,0.005047937477030587,0.006245525805580987
331,0.00552593688467528,0.006094833871242373
332,0.005266795270807511,0.0036941436066085676
333,0.005377735903890108,0.005180251221198239
334,0.0055075881627316085,0.006150483408091618
335,0.005265975345970599,0.00552442315679217
336,0.005656371220777319,0.0038052719799785534
337,0.004845418964049591,0.006488403655668013
338,0.0051104755763956115,0.004203670322064431
339,0.005198776621358852,0.004321091228415388
340,0.004700924901903676,0.004279209878633788
341,0.005258283143558597,0.004264841608162131
342,0.0054376284438494345,0.004924019197723883
343,0.005977807361144963,0.004483418986818738
344,0.004710364490479445,0.003349750807719054
345,0.005252538916028047,0.006936220015930607
346,0.004378173223731639,0.004644745871521703
347,0.0052530843876957365,0.006129521667448644
348,0.0053622013715048916,0.005842897030300716
349,0.004909641748900227,0.004113439843573129
350,0.00506110099530656,0.004999153987131866
351,0.005517600234679812,0.006521801406557318
352,0.005510893555713161,0.003989691757497796
353,0.00554958713990223,0.004662924632136052
354,0.005400976569069435,0.006308098441988065
355,0.004932749433536753,0.004109797977946034
356,0.0046374285853260176,0.0061891265015023
357,0.00498776466769578,0.005803413563808566
358,0.0059360366916361386,0.004869563881772399
359,0.005335510167725784,0.006772898745097532
360,0.005020418765226589,0.003708833903544704
361,0.005593431052017799,0.0051685097001069585
362,0.005018079631048427,0.00378536494028326
363,0.005587902902770671,0.00399900984714409
364,0.005536429368132215,0.00596152949562236
365,0.005604931959982137,0.008923674691042141
366,0.004989666023498608,0.004058794825776659
367,0.0044729335978589985,0.0043770855971874455
368,0.005071420086935598,0.0036176829488584867
369,0.0056997996351631774,0.005247292453577505
370,0.0057890581868426634,0.006988000088674917
371,0.005606873721114362,0.005640053678739113
372,0.0054734711139593165,0.006772310191863926
373,0.0049687351561155165,0.0028160705963251103
374,0.004823146554694282,0.0035169467026031124
375,0.004574609476868972,0.004231120277440209
376,0.0048068021661412125,0.00411582210037972
377,0.0054243018588819485,0.003645573565905477
378,0.004620028043565579,0.005614409093093053
379,0.004656620593525642,0.0034585557872504466
380,0.005362811996203235,0.005437749796330152
381,0.005559422054903494,0.006448910254088319
382,0.005555572673874936,0.003901656417340781
383,0.004396713311805559,0.00519499042598441
384,0.004892656023686322,0.0041362992824138314
385,0.004772776631909392,0.004292133529233175
386,0.004548001453744993,0.0067311535190993765
387,0.004853205790621884,0.004551293671678019
388,0.004812049554853732,0.003940305204535728
389,0.004467141448161293,0.003238044053076486
390,0.004257179086199321,0.004864802869623373
391,0.005265136907468263,0.0047957010305506465
392,0.005448073582190701,0.006947689242411078
393,0.0051190143063601905,0.0037639817079983436
394,0.004915856727142837,0.004499891766618229
395,0.005213130851645472,0.004370912661424587
396,0.004872310612865126,0.005918566470902528
397,0.00503942222713376,0.00565502579870098
398,0.005068374003267301,0.0043275651372028275
399,0.005760168984363363,0.005445809508934794
400,0.0048649441884483675,0.0033216935285861767
401,0.005261900610935172,0.005202032249323853
402,0.005114222140919468,0.004445682750204791
403,0.005302443461445012,0.004149116112813119
404,0.004818985819072872,0.004096759781836817
405,0.004954872080024412,0.004360892007975665
406,0.004894475173614592,0.004199344109105801
407,0.004974299618940083,0.0030709745712657684
408,0.004616703065078732,0.007538556807469386
409,0.0051101894748079284,0.0050362143900771735
410,0.005588194619187509,0.0037670464463673103
411,0.005210667867105541,0.003430619782194107
412,0.004719135857527431,0.005011699070540957
413,0.00477411365825132,0.004125337587962046
414,0.005444762928185793,0.006115885288619981
415,0.005059233001287398,0.004610784379758041
416,0.005878725989653225,0.004651996106035778
417,0.004661008108706533,0.0070725593200628226
418,0.005672789691723318,0.00400489266949317
419,0.004580432935681143,0.007163262095422894
420,0.0054526101071223744,0.007856575625521537
421,0.00575709269701434,0.004314410525955548
422,0.004746559690285793,0.006410888658620376
423,0.004770257724091696,0.003783345118278216
424,0.004590952311077421,0.00540708528277365
425,0.004680925602488648,0.0030885859423455944
426,0.004629112679870884,0.003955427127586709
427,0.004719355313995515,0.00402710678962948
428,0.005001463356791146,0.006550013582753613
429,0.0051131298187465,0.004104361380395298
430,0.005312028462994102,0.00656234578397816
431,0.004663855922471681,0.004102843406006706
432,0.0049751935882953935,0.004541501503558308
433,0.005242911735188505,0.003827176883562388
434,0.005198352753730427,0.004296931695786981
435,0.004889427082070397,0.0034201312734838795
436,0.0053087086586146165,0.005589191797803191
437,0.005133625904867183,0.010504776695721151
438,0.005105198900435689,0.00444397129832922
439,0.005389436706360861,0.0043675215858245756
440,0.005212611536946532,0.0046873511724473925
441,0.00498818388857546,0.00557423398066268
442,0.005150807185208709,0.004170751628034469
443,0.005399707114795963,0.005625468903701185
444,0.005596852028849636,0.004156541092697628
445,0.0056667350921973435,0.0036509269067463365
446,0.00484072683287113,0.004578756456628689
447,0.005613692270831572,0.004928340240078078
448,0.00522316647326867,0.00788256370050108
449,0.00577170449075662,0.007445052140792972
450,0.0045541666935180886,0.003981055167004548
451,0.00469374531384209,0.003336703531398499
452,0.0054559046068496046,0.0031011668375701346
453,0.0048628065033073575,0.005171149186628276
454,0.005336330191576206,0.003854216398941772
455,0.0050942060066019295,0.004945498542755771
456,0.005051820076347666,0.00509541594307949
457,0.0052581365735044515,0.007424942206006259
458,0.00475147399159117,0.0036112198015511767
459,0.005284120618134177,0.007847142995327076
460,0.005300117079909298,0.00613571704940866
461,0.004197174644408126,0.005476888098284284
462,0.004629907942619725,0.0038285914166435752
463,0.005149783389132878,0.003875205226407196
464,0.004834615120230218,0.006629575059352988
465,0.004326354323359255,0.003309319041494424
466,0.005273666797964413,0.0059088468492830845
467,0.0052199564783161675,0.003703088560799503
468,0.004655318430362107,0.0038587257086689676
469,0.004869922378780149,0.004678087840452144
470,0.005767067401505393,0.005560709822896483
471,0.005208006829021872,0.005371510293761058
472,0.005338715869456167,0.005704645834857305
473,0.004656859355860298,0.004244997970621677
474,0.005459951976095315,0.004577037903326604
475,0.0053545182814068205,0.005720355780978982
476,0.004927754052914679,0.003243993680913886
477,0.004408609989988092,0.0055459676333942
478,0.004834571687171874,0.006044544503401491
479,0.005085742501407969,0.008881154057041292
480,0.005376067855279985,0.004380086940017124
481,0.004801501904399865,0.005527302184331083
482,0.005080891418740523,0.0035929310572169713
483,0.00464719620743226,0.004355259371249574
484,0.0056537321600638665,0.005148980998814153
485,0.004996444834924812,0.004296643412859424
486,0.00407202134718843,0.0060093717909790725
487,0.004797548808207323,0.004790442881792572
488,0.004791736951656938,0.005282065506595251
489,0.005150976907767111,0.0032167567451791023
490,0.0051899428366215155,0.005093097498224374
491,0.005677754292264581,0.004200077154794921
492,0.004588513144125922,0.004645536475812674
493,0.004609290527631726,0.007992327294144088
494,0.0053491217158116895,0.005085674185458727
495,0.005336927865325905,0.002923816325614889
496,0.005258087257517399,0.006506702415027671
497,0.005221782404528134,0.004649641767405885
498,0.005104177344261373,0.004763389162090037
499,0.0046806883649992866,0.004837464941805192
500,0.005317094608870365,0.004178100980593343
