epoch,loss,val_loss
0,0.4349586814046382,0.4212399619530766
1,0.41838976673537687,0.413234490316123
2,0.4118683549235288,0.4072502689890346
3,0.4147439999438876,0.41358749723707305
4,0.41478080680663826,0.4138479855061518
5,0.4152466896162045,0.4157622399745067
6,0.41453873410785225,0.4094738232143864
7,0.4087408360043209,0.40657309051705987
8,0.40541545520249983,0.3986308479059749
9,0.37672305420386515,0.36580303010266885
10,0.36479007525385904,0.3618123152873228
11,0.3615093528509712,0.3591549613857796
12,0.360775889752866,0.3672785304763135
13,0.35916835467497127,0.35722529094286953
14,0.3598975186868251,0.352643457765455
15,0.35933530163898364,0.3574936977736858
