epoch,loss,val_loss
0,0.15386576853769957,0.06174746243064105
1,0.04597296591752844,0.030616884241093777
2,0.025277771082499043,0.02497694526976173
3,0.0243409678383137,0.023801357228817578
4,0.024196312172438124,0.026001105840658238
5,0.02412568312957228,0.02350971089189412
6,0.024142688271298493,0.025269607164336173
7,0.02411633949327788,0.02442735979140934
8,0.02404758329916415,0.02429060868466098
9,0.024035286488120172,0.024770051223279552
10,0.02402309868871856,0.02421547870733132
11,0.023867392962386044,0.0238105011008674
12,0.023945878995366567,0.023950687059052084
13,0.02404445609737405,0.025289650381658146
14,0.023970235016295235,0.02334585113284761
15,0.02399892920552255,0.024711651687863875
16,0.023936924887902968,0.023692307532151194
17,0.023824894091309452,0.02389017313912852
18,0.02380959421982892,0.02365116422647506
19,0.02394613794473221,0.02496367346292513
20,0.023812444477850536,0.024064930954149792
21,0.023890292963577354,0.023884617665454733
22,0.02381777013022956,0.02367087180602005
23,0.023735305056166497,0.024783623451109748
24,0.02382812204046382,0.023544727765088393
25,0.023765737869047957,0.024601965648693276
26,0.023823132425796787,0.02364329342019539
27,0.023673146811249157,0.02374124583283229
28,0.023745787600211673,0.024101464063129092
29,0.023809676579714154,0.023313104028754
30,0.02369243388461004,0.023554883225458574
31,0.02373078541471351,0.023541054896416398
32,0.023658235771782537,0.02661281950836494
33,0.023733957150994207,0.023183730799166725
34,0.023699930493833777,0.023027818985195167
35,0.02359096300255933,0.0237469326854693
36,0.023636506274074532,0.024447279577250073
37,0.023714966632032708,0.02319744565680729
38,0.023613186194289693,0.02358913828119718
39,0.02368187980888654,0.024257070312148583
40,0.02353674211173797,0.023366008796262383
41,0.02362117395966316,0.02405356058605374
42,0.02363767836624079,0.02459555317154529
43,0.023651998164765032,0.024843122053012288
44,0.02358372466151806,0.023299862482917995
45,0.023545717528695873,0.022969878416129144
46,0.02351430330580349,0.023437901979992966
47,0.023502834182944323,0.023675312782801692
48,0.023694022493116813,0.023994952207982492
49,0.02340212344846351,0.023420567870516426
50,0.023461107213011416,0.02483413960334816
51,0.023651737512813673,0.02324068915883951
52,0.023421755685902042,0.02370723285186733
53,0.02363983621533445,0.025148029958839576
54,0.02333965179153817,0.023609554712626064
55,0.02345338858720615,0.02310292257676702
56,0.023548959851187528,0.023009103794171287
57,0.023469057428441364,0.02556833936358731
58,0.023434146599982567,0.02365623469057992
59,0.023400054605816192,0.025567214537614805
60,0.023589955865413688,0.023851777993630686
61,0.023348727209908927,0.023362873374957124
62,0.023381633472611768,0.02282027304378333
63,0.02345526693753606,0.023309833942761832
64,0.023410648921226188,0.023338139842204814
65,0.02346871670880478,0.023437146905988995
66,0.023371844801852268,0.022986029404867513
67,0.023303550426854933,0.02286275143234534
68,0.023405823490316634,0.02374589434680077
69,0.023421054406703518,0.023898429846671874
70,0.023382751750562498,0.02286593139395059
71,0.02334700508875479,0.023513063070994242
72,0.02337190791961553,0.023185755545898225
73,0.02344324897310669,0.02335309942312474
74,0.023262524265620255,0.023348261641181166
75,0.02340993578720698,0.022914778849884763
76,0.02340880702573547,0.023005452703893325
77,0.023377918709012912,0.02343840507500832
78,0.02329077261859636,0.02321009195153179
79,0.023338523097068287,0.023166404225537885
80,0.02331415298048684,0.0244483586133185
81,0.023348783382581628,0.023442455038910508
82,0.02334677877513577,0.023318583970476345
83,0.023392663746744657,0.02282408391579033
84,0.023272451640908524,0.023245195536958765
85,0.023361242102305713,0.023145276181335137
86,0.02328531231677575,0.02313648387583909
87,0.023280633218902096,0.022919524763876185
88,0.023295384306880496,0.023395632019511996
89,0.023389000595241283,0.024053598181495255
90,0.023300056385217333,0.022919832683964424
91,0.02313992053830176,0.023978768653091523
92,0.023340689905023547,0.02324016349891461
93,0.02332579749275288,0.023102423427560335
94,0.023280152805346094,0.023283108961551606
95,0.023193084957937208,0.02412325807574375
96,0.023258713965150092,0.023127405927020353
97,0.023320611967570442,0.0230031430121473
98,0.02319788989677227,0.0232470864011085
99,0.02335737625525581,0.023487892894231623
100,0.023303253410888805,0.02314232755084864
101,0.023327875976933896,0.022781197694677863
102,0.023172412318535607,0.022935488705994485
103,0.023311503716914966,0.023298488660835337
104,0.02317375242322993,0.02421395157793891
105,0.023260022965457133,0.02304633179475166
106,0.023250777202901793,0.023153110759387172
107,0.023211594155098467,0.02476880546503398
108,0.023285361577114232,0.023081473059417136
109,0.023165755604448127,0.02270225371104013
110,0.023263257443547534,0.0229544252489459
111,0.023240549002232835,0.022996198619703374
112,0.023337592999134467,0.022854574136406583
113,0.023115480575505064,0.023177619794149895
114,0.023233073490331595,0.025151191426304353
115,0.023321405044205185,0.022921910544750065
116,0.02320042205192774,0.02286791749557314
117,0.023196243902863407,0.023039366698573212
118,0.023221649554112166,0.02273126629393639
119,0.023221898180760925,0.026582026986468468
120,0.023310376875412216,0.024153688296252286
121,0.0231635419333236,0.023062864747765786
122,0.023299101878591865,0.024142409754944957
123,0.023227401624927275,0.023393721968794114
124,0.023301028712785884,0.023271927912884936
125,0.023130091953930332,0.022900423267304945
126,0.023234592478195256,0.02282510803102412
127,0.023216195158112487,0.02472612293673813
128,0.02329080286759624,0.02286353938710812
129,0.023150090000135817,0.022840414622588335
130,0.023209259032363372,0.022962089272211553
131,0.023173546140863123,0.023476534986893494
132,0.023162671286675283,0.02285673956209595
133,0.02317940505544583,0.023042872645131416
134,0.02318750539545914,0.022834861967139294
135,0.023187996089297662,0.023161767937107735
136,0.023253658389617547,0.023767602839452034
137,0.023248639573409356,0.023047820173186302
138,0.02315426309876662,0.02278880505207353
139,0.023173648065222586,0.023067800547183735
140,0.023215539156378126,0.024226697352909627
141,0.023217070008740483,0.024448716366147562
142,0.02322007131671234,0.02307402740373043
143,0.023066898352272217,0.02277716627343019
144,0.023264749134205086,0.02316187559417504
145,0.023256041167629995,0.023183138211917104
146,0.02313671689584768,0.02266911738467621
147,0.023155287007163232,0.02308539849365661
148,0.02321842812719367,0.025288885521049
149,0.02313459167952279,0.0242791183883855
150,0.023190746988377555,0.02325334581792731
151,0.023182332409258415,0.026792132884452168
152,0.023139506823373592,0.024030020564865105
153,0.023207699749722994,0.023541800294074378
154,0.023170557007086364,0.02279347018136598
155,0.023213664156873877,0.02393568359791715
156,0.02309760661106363,0.023209875831770067
157,0.02320466864761784,0.022883548763681323
158,0.02320150091058964,0.022623758495512587
159,0.023175911473141585,0.02304185006764571
160,0.023143719216967992,0.022912340423925804
161,0.023149215091439745,0.022986975071426913
162,0.023144364621278814,0.02293137326871869
163,0.023201181545115107,0.02296905055930272
164,0.023125846741451538,0.022753935821807188
165,0.023101283159169504,0.02288147780071024
166,0.02318420498181495,0.023738367403633217
167,0.023200866799030325,0.022698504156370567
168,0.023216269010280392,0.02343025217575169
169,0.023140068634224832,0.02280367935560026
170,0.023176799223071143,0.022738676937186727
171,0.023127410685171563,0.02272108624870841
172,0.023143668902470625,0.023421559112342023
173,0.023192849515719142,0.02276778659520887
174,0.023119011421879228,0.023472792193317094
175,0.02314823226843902,0.02325185027117558
176,0.023131153401103523,0.022692212226323567
177,0.023088641345596236,0.022799991152080947
178,0.023184506130292357,0.02314842411191236
179,0.02319217176972438,0.022848563193804464
180,0.02307958588403144,0.023593678761747002
181,0.023173256094554822,0.022904346042092898
182,0.023123284327618177,0.023466175119227186
183,0.023101693683331436,0.023584148012272186
184,0.02313666750225041,0.024756906030739306
185,0.023061657946803968,0.022846753249604963
186,0.023223236526290384,0.023156725864007705
187,0.0230981915270527,0.02380552721498703
188,0.023115836642980336,0.023311341857653767
189,0.02317854137845534,0.02317150794234253
190,0.023147751679189865,0.023199799869741713
191,0.023147675082188762,0.022808893034624224
192,0.023059608155696226,0.022793166627541432
193,0.02315056683431617,0.022776953889249628
194,0.023115865892167096,0.02285121330710594
195,0.023245799490701047,0.023179808009677547
196,0.023127679510576597,0.022740770850239445
197,0.023123358181275006,0.0238921463316058
198,0.023099070000235172,0.02330106775399118
199,0.0231773199485265,0.023687720870644725
200,0.023098730449404695,0.02278917482903414
201,0.023093594926789845,0.022793284096205995
202,0.02312510024583478,0.023004658606958935
203,0.023130184889649696,0.02272776191893909
204,0.02312341770253998,0.02264909035046221
205,0.02312359234227313,0.023572682699257688
206,0.023231199863616176,0.022750146479743525
207,0.023132324153981764,0.0230758524960717
208,0.023059347792596316,0.024095060918318444
209,0.023188652970242224,0.023527949826458165
210,0.023124131106799072,0.022760366143301517
211,0.023180826806830323,0.02289281057777514
212,0.02315144959783597,0.022925888377094042
213,0.023075291710488086,0.02288241213556576
214,0.023133489853448624,0.02289925162234265
215,0.023085400216477953,0.023297211587511375
216,0.023137761426599717,0.02327569878138984
217,0.023173471050654097,0.022778806584610088
218,0.02310470018467362,0.024328940437008475
219,0.023101685307383966,0.023089583676481867
220,0.023168881539163067,0.02307096098703292
221,0.023052651623485805,0.0228165163810717
222,0.023046680567540424,0.02307054011155605
223,0.023180570320146594,0.02843052549721363
224,0.023110055196419847,0.023238524904837736
225,0.02310812400935365,0.02352487955803982
226,0.02320858427612997,0.023571229077458098
227,0.02306371792588088,0.023035429529816312
228,0.023082712642121896,0.0248903489797343
229,0.023133025955792953,0.02367967565785785
230,0.02309893425717819,0.023026023332056042
231,0.023173023090451408,0.022947324825055314
232,0.023094295143640396,0.022801241059012083
233,0.023170181060229226,0.022990071634455468
234,0.02308960594713307,0.02371916664292376
235,0.02311670413385216,0.022762793109655944
236,0.023145088956480642,0.02276814657821369
237,0.023185696216861455,0.023622605349830312
238,0.02312829803085799,0.02295764410411079
239,0.0230160163868841,0.022758197670048302
240,0.02314906433182988,0.022776703783197016
241,0.023072083053334677,0.02577758613229974
242,0.023171157738436563,0.02302072321424215
243,0.023081582489249994,0.0228837240846047
244,0.023088185138238085,0.022827678962060102
245,0.02308198591793994,0.02298323058573957
246,0.023085832111180114,0.02271825053391724
247,0.023129744726947125,0.027525783364308942
248,0.02310504397447351,0.023751051008595477
249,0.023086528835757125,0.02437321160462021
250,0.023284096963894215,0.02273183546507556
251,0.02310488706709241,0.022697990116293542
252,0.023057293938956766,0.022765437802615935
253,0.023085850955014652,0.02408643167439463
254,0.02314275262622739,0.02268195883227599
255,0.02311978708479187,0.023068619743518783
256,0.02314025255144953,0.022708294398629862
257,0.023072706260007445,0.022790583767931857
258,0.023081093148844278,0.023264531393101015
259,0.023123720576681443,0.022908239924564262
260,0.023084954682478516,0.022912846041671292
261,0.02309348102477338,0.02348295096440304
262,0.023048675784336434,0.022773088966720482
263,0.0231886275885381,0.02318757744954389
264,0.023086361407632115,0.022784786492927204
265,0.023070745266896547,0.022880456450776784
266,0.02301609932968347,0.023336946335051505
267,0.02317136269789353,0.023334124310040623
268,0.02305067719282697,0.022628772273165745
269,0.023135501244436685,0.022769582942245792
270,0.023108939489098094,0.022814167570837294
271,0.023163105481022076,0.02363935447847081
272,0.023078789663531607,0.022979432393538734
273,0.023128426443192837,0.02409155607876245
274,0.023016393393855826,0.024211688402337454
275,0.023024399346447916,0.024307338154824023
276,0.02309577762306356,0.022902223374915105
277,0.023124034024423642,0.024518785417526844
278,0.023090698092217022,0.022859533156408696
279,0.023169821814643585,0.02329866967995334
280,0.022971321600857828,0.02264274204268922
281,0.023198104070441473,0.022682525136676377
282,0.023029759777136605,0.022773114196962038
283,0.023096516849004108,0.022874351336540626
284,0.023058454159924167,0.022657479614536877
285,0.023198257688042834,0.02289541555243679
286,0.02300449561247294,0.02280818704653887
287,0.023064091864922684,0.023074512208952336
288,0.023089673686519468,0.0227980677408902
289,0.023084874148015307,0.022858843508734416
290,0.02312072853577866,0.02314374928716232
291,0.023075488355043503,0.022798779018476146
292,0.02315215602275922,0.023342285031818837
293,0.02308029298939341,0.022937611896535873
294,0.022957571615412127,0.023124033927729305
295,0.02317749695118359,0.022871118606360014
296,0.02308122892763546,0.022648042181084828
297,0.023059123011825562,0.022858429986810064
298,0.02310868929386687,0.024970669236148824
299,0.023047897961738107,0.023472187817155515
300,0.023041776774509203,0.022900805328608782
301,0.023154848134614152,0.023498814278109487
302,0.022962294287419766,0.022855162142754636
303,0.023120952843815733,0.022615416282707062
304,0.023033856517738767,0.022957140695959354
305,0.02301607987613415,0.02296114334103011
306,0.023239283894689725,0.02278679408626991
307,0.02297814822883057,0.0237578354120231
308,0.02304129878045629,0.023585482696754874
309,0.023095338396150335,0.02322774238284639
310,0.023124262669699178,0.022947739650978287
311,0.023053898289948582,0.022924866631697648
312,0.023089236845608523,0.023021540708175397
313,0.023056860510661876,0.022952938517048403
314,0.023083498015058792,0.022866073920852385
315,0.023042672743304647,0.02279313430101879
316,0.023156503127585593,0.022801453707814688
317,0.023009133579538498,0.022830774531285878
318,0.023160279059944916,0.023003852037505643
319,0.022994089267885896,0.023527633220886468
320,0.023059942431265502,0.02285286306676285
321,0.02312354946197818,0.02276983262196289
322,0.02301793474983945,0.02321613639528439
323,0.023054591768669138,0.023284892242140157
324,0.023054703596613105,0.02302013343492642
325,0.023057277773698266,0.02290036786868051
326,0.023047062835628563,0.023403202888468352
327,0.023149865089084128,0.02304544395545899
328,0.023013626869252735,0.02284374206099768
329,0.023084645661310278,0.023691271741204875
330,0.023047568612277126,0.02295282218772874
331,0.02314083650857091,0.022758831278124756
332,0.02297352955078812,0.023262476111926143
333,0.023137340859638797,0.02306533054446459
334,0.023074817471503972,0.022926959856733056
335,0.023042840385834852,0.02333103728663667
336,0.02301810282713575,0.023480807076007623
337,0.023071050937983582,0.023171522520076787
338,0.023154117452125134,0.022701522075198443
339,0.022976828303536492,0.024353447013726458
340,0.02306860621399183,0.026042272691815596
341,0.023080168382006345,0.023392374877948034
342,0.02312790902315093,0.02284327570287233
343,0.02296035314242331,0.022935801473076455
344,0.02312077483241197,0.02295569894392846
345,0.023310822430256603,0.02322050647394057
346,0.022952019237726332,0.02261576379466311
347,0.023026546793911667,0.02311696155524527
348,0.022992326656905867,0.022867388861590517
349,0.023076884195411044,0.022932208096865792
350,0.023025958734057505,0.02290162453523469
351,0.02301941439658284,0.023941041156355564
352,0.023087226943545442,0.023368719910824967
353,0.022972677680228253,0.022729789849955828
354,0.023130170220016337,0.025480538214120982
355,0.02308935245318855,0.02289688773159211
356,0.02298927906867888,0.0234414922116117
357,0.02306016443593563,0.024441662073229464
358,0.02307865093518004,0.023132672745090538
359,0.023050208771817213,0.02288748922992289
360,0.023005369243671376,0.022991301946124414
361,0.023117662802767412,0.022779932463190267
362,0.023038265715203555,0.023460497278440816
363,0.02300641745057919,0.022797126590546984
364,0.023031466016672452,0.022676281648634358
365,0.023083698453395057,0.022717512933788753
366,0.023055032386238294,0.022728451275529124
367,0.02299839136251014,0.02277528032389982
368,0.02302799546505979,0.022873780241011162
369,0.023116453547033664,0.02759534207296917
370,0.023092898528287404,0.023261029339427072
371,0.02308082630370947,0.02270875196542294
372,0.023003467756936208,0.022989338976878677
373,0.02315054111537054,0.02332551888504081
374,0.023001979519095685,0.023049692923957282
375,0.023051566290978095,0.022753560402516596
376,0.023126233646052062,0.02284336283114969
377,0.02292739659723499,0.02429396676777288
378,0.02302628043044409,0.02302226232366244
379,0.023085461551253555,0.02354368891628737
380,0.023066944569992504,0.02296731379632886
381,0.022977257282179083,0.02371101460368876
382,0.02307766269993701,0.02309653409789798
383,0.0230708529035167,0.022844761543875616
384,0.02295812314672531,0.022806868768622767
385,0.023006512677009632,0.02286833539846241
386,0.023053189413510353,0.022766827460857668
387,0.023050715948799722,0.02261737109865367
388,0.022996408173994575,0.02342897140801
389,0.023086389392721566,0.022786787683886624
390,0.023029940554218517,0.022972135864133523
391,0.023016376876466568,0.023184912326292155
392,0.02300659644318451,0.0238111229009203
393,0.023015577774896896,0.02265513057496337
394,0.023063797931775723,0.022708458212904792
395,0.02304828319502034,0.023174799550927428
396,0.023040282756661912,0.022942691082877255
397,0.023026533497811603,0.023998618935953
398,0.023055798811860366,0.022732263335395065
399,0.02304666456234136,0.023106193855028503
400,0.02306193788926736,0.023082776958065515
401,0.022981857807248186,0.02495680923625862
402,0.02318145467681612,0.022660694526833346
403,0.022998637778105305,0.02323651560321274
404,0.02300794700906574,0.02259344782977238
405,0.023109181304659537,0.023369929142408045
406,0.022989626085723667,0.022993932769949172
407,0.023080285121169355,0.02283265261566112
408,0.022985127140327896,0.02404621863280494
409,0.02300956423024384,0.022985990368705994
410,0.023148478108564678,0.023253966363965758
411,0.023065769790316656,0.022846916333229033
412,0.023041636476830708,0.023044066913808153
413,0.022997002457555153,0.023007926495118035
414,0.02302887039832312,0.02269881482264755
415,0.023013773437538784,0.02314617009664391
416,0.022995484671998415,0.022681579324574853
417,0.023050025236501778,0.02264810641955558
418,0.023133417972617393,0.023687738026973763
419,0.023031037630622003,0.023169156979848855
420,0.023015298632730684,0.023918812782830767
421,0.02303829613915212,0.02329674801232783
422,0.023060495601140624,0.022818419488401232
423,0.02302908662521987,0.022820280641376173
424,0.02309987898082208,0.02293310821021083
425,0.022995248164454526,0.022673227091414682
426,0.023043169693605935,0.025700392771950367
427,0.022999107685062192,0.02296077974740454
428,0.022993515302195584,0.026016490894127945
429,0.023070046999048795,0.022773805622014365
430,0.023067015392198076,0.023138587898923924
431,0.023018355093461625,0.02399155243954841
432,0.023023473305834666,0.022979769652860787
433,0.022981065322461126,0.022921718883415612
434,0.023091044529325526,0.022820554625157682
435,0.02295849226760588,0.02320025284387224
436,0.023033726801105634,0.02320767399555788
437,0.023039258254928696,0.0229564905298937
438,0.022982817004731804,0.02277422988759361
439,0.023005284249133392,0.022970325054031897
440,0.02306215371415436,0.023541003015794995
441,0.023047048777198906,0.02274441353876758
442,0.023187309230337565,0.023154573879647932
443,0.022889763426532945,0.022812118700866447
444,0.022994665390284035,0.0238891168487947
445,0.02304723565738431,0.02337826456618808
446,0.023054065899722437,0.022730615204633833
447,0.023047911805018105,0.022960173479195364
448,0.023052100675831213,0.02273642164585199
449,0.02312657162085545,0.02446304281678083
450,0.022891601128466457,0.02275498491883184
451,0.023049859545207756,0.02276092175109093
452,0.022965037657006037,0.0227402695693552
453,0.023176923228932514,0.02366000252034171
454,0.023009699202037687,0.022899142336379665
455,0.022988792474595288,0.022644740952018592
456,0.02303362867052702,0.023047630730266635
457,0.023008597247915968,0.02265786724466457
458,0.02302360425529768,0.022876484864983112
459,0.023095894313092044,0.023567721584331076
460,0.023019052977911195,0.023630482784892125
461,0.022989664980910905,0.02273648973016308
462,0.02303612054356163,0.024234244003068676
463,0.023020551385853787,0.022889651693315513
464,0.0229999194640836,0.02283043628698178
465,0.023145054381409232,0.022929077948889775
466,0.02289472402205213,0.022782580039060387
467,0.02305304862895339,0.02381778248507109
468,0.023040260723550067,0.02271607653006335
469,0.023036138847660866,0.023700466605922135
470,0.023030789503507572,0.02696001033380263
471,0.02300446535528397,0.023745641898843088
472,0.023035673473736078,0.023107309094332482
473,0.023015448868983417,0.02411694003338172
474,0.023020722940534376,0.027015115132212827
475,0.02304865325243472,0.024524747799044063
476,0.023101594268555025,0.022712914411334325
477,0.022944304337211365,0.023215814866272597
478,0.02297476777355734,0.023043422532674357
479,0.023149098524992032,0.022691773466807043
480,0.022991777047050372,0.022823546284658287
481,0.02300148279064422,0.022814091409673443
482,0.02306405511825419,0.022692974434831807
483,0.023007404854257615,0.022626729289565203
484,0.023122184101393897,0.02313524883772646
485,0.02293723671035253,0.022875878823172793
486,0.023026855279066914,0.022892504796715073
487,0.02305319358994492,0.02282709165843058
488,0.022979664038583862,0.022766035788155205
489,0.02308712747218988,0.023096435557060008
490,0.023001477828801728,0.022897220928965824
491,0.023077992833316994,0.023156655149647543
492,0.022946437041339973,0.022865421451104845
493,0.0230016323472027,0.02319253016566092
494,0.02310833311695561,0.022712164815006618
495,0.02294468686213906,0.022880374170963277
496,0.023108491531873256,0.022747720446916857
497,0.022990083680015434,0.02275980744090434
498,0.02305256095391026,0.02295402400548428
499,0.02296914054537944,0.023532832122239524
500,0.023101542439076493,0.024754249143113558
501,0.022992002698842235,0.022743756840947864
502,0.023037565025619322,0.022689943755341026
503,0.022932251432179498,0.02309689696675318
504,0.023018419137336224,0.022732003378051893
