epoch,loss,val_loss
0,0.5062136125266552,0.47341697549819944
1,0.4742193326950073,0.4682955369949341
2,0.4732503252625465,0.47008552980422974
3,0.47288023790717126,0.4674873897433281
4,0.47245140218734744,0.46775002098083496
5,0.47215265947580337,0.468484678208828
6,0.47283124780654906,0.4722296399474144
7,0.47314083608984947,0.4692492988705635
8,0.4733921539783478,0.46864689111709595
9,0.4736512589156628,0.4709422087073326
10,0.47354691836237905,0.4667370494008064
11,0.4736458582878113,0.4686054331660271
12,0.473790398478508,0.47006422841548917
13,0.4740739808380604,0.470086566567421
14,0.47482843670248986,0.4724505034089088
15,0.475285048186779,0.4722819254398346
16,0.47621820601820947,0.46942902559041977
17,0.4764019193649292,0.47370674622058867
18,0.4777769255042076,0.47434443736076354
19,0.477996944963932,0.47547814935445787
20,0.4793774006962776,0.47494077652692795
21,0.48039736518263815,0.47364268100261686
22,0.48035511520504953,0.4797146998047829
23,0.48179733142256737,0.4777104610800743
24,0.48267602470517157,0.4815434902906418
25,0.47811478236317634,0.4322787365317345
26,0.39002348530292513,0.3121673465371132
27,0.28800961256027224,0.2707160030603409
28,0.28391261944174767,0.2792291461825371
29,0.28314223043620584,0.2654713899195194
30,0.28344647532701495,0.2772678651511669
31,0.2825039174258709,0.2830017878115177
32,0.2833582466840744,0.2780702570080757
33,0.28247626657783986,0.26690086954832076
34,0.2823291067481041,0.27244436082243917
35,0.2811393129080534,0.2721455370783806
36,0.2812006174623966,0.26363713985681536
37,0.28017850217223167,0.28324844658374787
38,0.28067977812886236,0.2673461247384548
39,0.28064570419490337,0.26912248933315275
40,0.280801896199584,0.271443126142025
41,0.28110285350680353,0.27165901389718056
42,0.2815104494988918,0.2652054650783539
43,0.28194297471642493,0.269629568785429
44,0.292682698354125,0.29518452283740043
45,0.292692556604743,0.2873905356526375
46,0.28776158656179907,0.27623572915792466
47,0.2800660784691572,0.2687171286046505
48,0.2709362299442291,0.2560977146029472
49,0.26359518828988077,0.2571307029724121
50,0.2612792908847332,0.25374328368902205
51,0.26104623171687125,0.25406125470995905
52,0.261283439591527,0.2503212276697159
53,0.2629482851177454,0.25222693613171576
54,0.2622248807251453,0.24570439660549165
55,0.26322749599814416,0.26262120231986047
56,0.2621312085837126,0.2630195477902889
57,0.2634209934473038,0.24846523517370225
58,0.26212444293498993,0.25014727345108984
59,0.2629125912338495,0.2528342664539814
60,0.2618702575266361,0.24998143860697747
61,0.2612361600548029,0.25564149874448777
62,0.2607237685024738,0.25464356699585916
63,0.2605941021293402,0.2477328040599823
64,0.25934950867295264,0.2509948017299175
65,0.25909360986948016,0.24584839075803758
66,0.25811475911736487,0.25548770305514334
67,0.2589301603883505,0.24804388797283172
68,0.25911902023851874,0.25082360380887986
69,0.2593428546190262,0.2490442859530449
70,0.2616891671568155,0.26038769763708114
71,0.2621081854104996,0.2516356389820576
72,0.26151073645055295,0.255611591309309
73,0.2623220949620009,0.24547599941492082
74,0.26401215539872647,0.2506229563355446
75,0.2642031553089619,0.26163910749554636
76,0.26676850697398186,0.26081397277116775
77,0.26672552156448365,0.2589623159170151
78,0.26633170181512833,0.258240997672081
79,0.26511498329043387,0.2540370742380619
80,0.26578188452124596,0.26158010533452036
81,0.2657310503423214,0.25603643345832827
82,0.26558000971376894,0.2549060771167278
83,0.2645962733477354,0.249354277998209
84,0.2641838813126087,0.2545004470348358
85,0.26403512300550935,0.24877460277080535
86,0.2640758744180203,0.27101737722754476
87,0.2648815452605486,0.27065842059254647
88,0.2652909012138844,0.2543245495855808
89,0.2664237327426672,0.25876402428746226
90,0.26724535416066647,0.26329145580530167
91,0.26592056711018086,0.25779917487502096
92,0.26605407942831516,0.2541228405833244
93,0.2666055447012186,0.25511519718170167
94,0.26600500102341174,0.2667360090017319
95,0.2675480082631111,0.25815075078606603
96,0.26810829447209833,0.2544296833574772
97,0.26791063795983794,0.2533896440565586
98,0.26882103690505027,0.2669158497154713
99,0.26932555469870567,0.2530349668264389
100,0.2712629059702158,0.2613633411228657
101,0.2726931791305542,0.25965162727236746
102,0.27394982950389385,0.2639087332189083
103,0.27350250002741816,0.26243243303895
104,0.27196871012449264,0.2664620527923107
105,0.27268466612696646,0.2559975617527962
106,0.2717238536328077,0.26468978261947634
107,0.27010373459756376,0.25985626310110094
108,0.2700238254219294,0.25795689451694487
109,0.2701626633107662,0.2580447157621384
110,0.2682903625518084,0.2550171871483326
111,0.2693113606721163,0.25378874710202215
112,0.26917653273046016,0.25317086708545683
113,0.26849544717371465,0.26791895845532415
114,0.26854988242685796,0.25654556474089624
115,0.26808419896662233,0.27765255638957026
116,0.26790377916395663,0.2515579372346401
117,0.26759401220083234,0.2641600785553455
118,0.2674140095561743,0.25948791137337684
119,0.2683733093738556,0.25469571965932847
120,0.2686911332309246,0.2736630353033543
121,0.26980979523062704,0.2546873694062233
122,0.2704277362525463,0.2566230777800083
123,0.2703625737130642,0.2754549373984337
124,0.27001318767666815,0.2666317470669746
125,0.27180095583200453,0.2637881129384041
126,0.27126836267113685,0.2681200755238533
127,0.2723051079809666,0.25868960756063464
128,0.272850516051054,0.2652318620681763
129,0.2711962170600891,0.26224535647034647
130,0.27253679487109184,0.2630981154441833
131,0.2722939816117287,0.2677557221055031
132,0.2729275007247925,0.2666283724606037
133,0.27400073055922985,0.26527966234087946
134,0.27363482710719106,0.263763067394495
135,0.2740878365188837,0.2639082117974758
136,0.2754270263016224,0.26039839097857476
137,0.27422355505824086,0.2694728283882141
138,0.2753375728577375,0.26454971289634704
139,0.2750996196120977,0.2615483435988426
140,0.275384434312582,0.2656766350865364
141,0.275334651350975,0.2611871383786201
142,0.2748238075375557,0.2629683945775032
143,0.2753678449690342,0.26860675287246705
144,0.2746437370926142,0.26233761945366857
145,0.2749696893692017,0.2591259310245514
146,0.2746919505894184,0.2657583320736885
147,0.2759356406033039,0.2645483137965202
148,0.27514843505620956,0.27928165239095687
149,0.2742405807822943,0.2620138010382652
150,0.274437381207943,0.2630107095241547
151,0.2742127214223146,0.2597301416397095
152,0.2745661439448595,0.26396834874153136
153,0.2732197221517563,0.2652802474498749
154,0.27412587060034277,0.261559617459774
155,0.273312166556716,0.27302962508797646
156,0.27389489896595476,0.269141144990921
157,0.27450204838812353,0.26533385118842123
158,0.2735859765857458,0.2649057630598545
159,0.2736172706633806,0.2603769436776638
160,0.27496234759688376,0.26196001598238944
161,0.27455558225512505,0.2699729084968567
162,0.2745415175706148,0.26893171936273574
163,0.27430826157331467,0.2654769460260868
164,0.27631472435593607,0.27177308237552644
165,0.2763263759464025,0.27096897625923155
166,0.27667219811677934,0.267665146946907
167,0.2759000931680202,0.26973060122132303
168,0.2773072022199631,0.26974521148204805
169,0.27786660246551037,0.2730334928333759
170,0.27738732220232487,0.2752123691737652
171,0.27815771785378457,0.27301614850759504
172,0.2800127785205841,0.2683725509047508
173,0.2774055064469576,0.26865731057524683
174,0.27921361082792284,0.2671368339061737
175,0.27936152754724025,0.2630761022269726
176,0.28034418284893037,0.2687715300321579
177,0.27902191153168676,0.2874065424799919
178,0.27874178762733937,0.27018819865584376
179,0.2793711654692888,0.2827209374010563
180,0.27833940157294274,0.27564851504564286
181,0.27746038368344306,0.28544508400559426
182,0.27826371498405933,0.26545465394854545
183,0.2781033923625946,0.27018863260746
184,0.2778075740337372,0.26390273666381836
185,0.27829054437577727,0.26719663143157957
186,0.2795597518980503,0.27011606958508494
187,0.2778061537891626,0.2744092333614826
188,0.2787714611589909,0.2666469071209431
189,0.27885728706419466,0.27760205388069153
190,0.2808705688416958,0.26668017226457597
191,0.27880446149408816,0.2633002075254917
192,0.2807522777020931,0.2775541527271271
193,0.27798898711800574,0.2675782768428326
194,0.27837137822806834,0.2695256637632847
195,0.2780818222165108,0.26701610067486764
196,0.2779066520035267,0.27194177675247194
197,0.27880605748295784,0.2807146618962288
198,0.27925773929059505,0.26761141550540923
199,0.2788081131130457,0.26947050175070764
200,0.2796061558574438,0.26172329917550086
201,0.2791543524116278,0.264289582490921
202,0.27782522010803223,0.2796998676359653
203,0.2771890272647142,0.2722327308654785
204,0.2771621031910181,0.2624011632502079
205,0.2771758389919996,0.27259183597564696
206,0.27884639433026315,0.28289946967363355
207,0.278350041821599,0.27675721275806425
208,0.27697688204050064,0.26631266695261
209,0.2783936955332756,0.26299105006456375
210,0.27902246643602846,0.2674021558761597
211,0.2779895804822445,0.27454598221182824
212,0.27759099593758585,0.26637833896279334
213,0.27880696411430833,0.2708509389162064
214,0.2775947445034981,0.26272463384270667
215,0.27778852060437204,0.2743017252087593
216,0.27756717851758006,0.27380690547823905
217,0.27755424235761167,0.263907660394907
218,0.277718277066946,0.267058375954628
219,0.2783250848352909,0.2689357316493988
220,0.2782188307493925,0.2670007012784481
221,0.27786365781724454,0.2722524265348911
222,0.2782010788023472,0.2695943583548069
223,0.27688250614702703,0.28288347363471983
224,0.27788281959295275,0.2621778518557549
225,0.27666127295792103,0.26472141075134276
226,0.2770629441738129,0.27729551449418066
227,0.27822923167049884,0.26626628428697585
228,0.27688978853821755,0.26262857753038404
229,0.2775148578286171,0.2739057493507862
230,0.277595144957304,0.2843569156527519
231,0.2771836072057486,0.2651068579554558
232,0.2771084955185652,0.2694544371664524
233,0.27714470003545283,0.28152650386095046
234,0.27682345794141294,0.2614581577181816
235,0.27750720374286175,0.27070208597183226
236,0.2774394294172525,0.27201303815841676
237,0.2777125114798546,0.26655424484610557
238,0.27795550325512886,0.27509450817108155
239,0.27823740799725055,0.2815764309465885
240,0.2783616212457418,0.26694997656345365
241,0.27691469751298425,0.2749620923995972
242,0.27870411179959775,0.2729382940530777
243,0.2778929471373558,0.27422155818343164
244,0.2774644547253847,0.265373586833477
245,0.27858675384521486,0.2717671718895435
246,0.2777991774827242,0.2716583012640476
247,0.27748630827665327,0.27227793568372727
248,0.27690852215886114,0.2704676465988159
249,0.2771723768264055,0.2679191335439682
250,0.2766764306128025,0.2745962256789207
251,0.2768683728128672,0.2661858392059803
252,0.27729109618067743,0.2782761407196522
253,0.27754587602615355,0.2724626471102238
254,0.2774315923154354,0.26852706623077394
255,0.27752347803115845,0.2655768137574196
256,0.2781158736050129,0.2700003200173378
257,0.2782648161947727,0.25939765217900274
258,0.2801407698094845,0.2760015969276428
259,0.2801877634972334,0.2615244211554527
260,0.27778966368734836,0.2663434039950371
261,0.2787020198851824,0.2650200192928314
262,0.2798356760442257,0.2821625232100487
263,0.2795736680626869,0.2732223733663559
264,0.27889368358254435,0.2784488733112812
265,0.2784958371371031,0.26698618865013124
266,0.2787366608977318,0.26526126080751417
267,0.27963397002220153,0.2721815685927868
268,0.27916395220160484,0.26211401385068894
269,0.2783088274747133,0.2695119138658047
270,0.27776565138995646,0.2704156197011471
271,0.2785193489789963,0.26968841260671617
272,0.27879882605373857,0.2706373054087162
273,0.27933303701877593,0.2641037326157093
274,0.27852415293455124,0.26552991369366646
275,0.2790584542155266,0.2671025732159615
276,0.2779613983929157,0.26904140654206277
277,0.2799055864214897,0.2800969528257847
278,0.27787860149145127,0.2647956106960773
279,0.2782787040024996,0.2832429057955742
280,0.2784542543441057,0.27075217917561534
281,0.2799945000857115,0.270447585016489
282,0.2793489867001772,0.26858937078714373
283,0.2778096505254507,0.26616463416814806
284,0.2782823538482189,0.27369965904951093
285,0.2784960033595562,0.2619741260409355
286,0.2779050026088953,0.26514034205675124
287,0.2777520457059145,0.2728649736344814
288,0.27822067028284075,0.27475435131788256
289,0.27836890502274036,0.2837684608101845
290,0.27756685169041156,0.26529517585039136
291,0.2784134392738342,0.27234997045993803
292,0.2775564280599356,0.2619810080230236
293,0.27791069519519807,0.26758060961961744
294,0.27710921289026735,0.274836463034153
295,0.27814439998567103,0.26150167208909986
296,0.2774407609254122,0.2654131518602371
297,0.28020544417202475,0.27533780375123024
298,0.27933150927722455,0.27014168524742127
299,0.2767168053537607,0.27321227553486827
300,0.2786450584232807,0.262401696652174
301,0.27798570948839185,0.26791973772644995
302,0.2783756187558174,0.2801978769600391
303,0.27800822953879833,0.26805484744906427
304,0.27807955326139927,0.26087373024225236
305,0.27827411676943303,0.2660603012740612
306,0.27801011337339876,0.2649583286643028
307,0.2780004571974278,0.2703815161287785
308,0.27829227758944036,0.26396451112627983
309,0.27828070540726185,0.27098019459843636
310,0.2777972609400749,0.26599305084347724
311,0.27770725652575495,0.27547336664795874
312,0.2794428499937057,0.2711334918439388
313,0.2780397817492485,0.2757024245560169
314,0.27928891460597516,0.268041465729475
315,0.27932789896428584,0.26808748865127563
316,0.2780275344997644,0.2697152501642704
317,0.27839741931855677,0.27236744260787965
318,0.27890885511040686,0.27346620354056356
319,0.27834049600362776,0.27152686306834223
320,0.27908293060958383,0.2693275246620178
321,0.27814536641538146,0.2664296554327011
322,0.27843273705244065,0.2600156174898148
323,0.2788593349158764,0.26626365131139756
324,0.27828780730068686,0.27808213844895363
325,0.2795430786460638,0.26389763155579565
326,0.2776173157840967,0.268218506783247
327,0.277289783641696,0.2655601365864277
328,0.27963122890889647,0.2728692684471607
329,0.27824240384995935,0.2647843936383724
330,0.2770881940275431,0.26580816122889517
331,0.2794341612756252,0.2682172723710537
332,0.2771987732797861,0.2723457762300968
333,0.2775244370996952,0.26393643629550934
334,0.2773164183944464,0.2671203164458275
335,0.27738375729322434,0.25907830157876016
336,0.27781268940865994,0.2727395379245281
337,0.27830610577762127,0.2594110012352467
338,0.2760705213099718,0.27266076382994653
339,0.2783527317941189,0.2655886849164963
340,0.27763408786058424,0.272705855101347
341,0.2773296471685171,0.25995689862966537
342,0.2775117516517639,0.2643425160944462
343,0.2778285362124443,0.2720957035124302
344,0.277593278169632,0.2657648075222969
345,0.2776938466578722,0.2711600758433342
346,0.2778763519078493,0.28085677802562714
347,0.2777869551330805,0.26623235136270523
348,0.27786850975453853,0.25998345002532003
349,0.2776845397800207,0.2686768493652344
350,0.277373963996768,0.2731988114416599
351,0.2784329213202,0.2695846933722496
352,0.2801240965723991,0.2737819767594337
353,0.27767720441520216,0.2666637853384018
354,0.2786246051192284,0.2709601135253906
355,0.27725175096094606,0.26309132447838784
356,0.2776558327972889,0.27451660734415056
357,0.27768492622673513,0.26868230214715005
358,0.2764403382986784,0.2719243388175964
359,0.2772306256890297,0.26332417225837706
360,0.27632099922001363,0.2599636967778206
361,0.2767477482706308,0.2640058970451355
362,0.2773937916010618,0.2666226606965065
363,0.2778468722254038,0.2698694122135639
364,0.27632058975100515,0.2636886975765228
365,0.2784470468759537,0.26113058987259863
366,0.2776577968299389,0.269914393812418
