epoch,loss,val_loss
0,0.49032354741405737,0.4137681552238418
1,0.4090353821973213,0.4029006717268858
2,0.4031257338171677,0.39925215704501016
3,0.4012092540295626,0.3938096204329968
4,0.39601414253990397,0.3911416731466632
5,0.39741398258100424,0.39567168894475396
6,0.40067142931769806,0.39587394681676846
7,0.403057186459426,0.39913699318506035
8,0.4016308018787085,0.40099316963507503
9,0.4007508424256113,0.40090484526809017
10,0.40310421259141715,0.40566257352956603
11,0.4049411159309986,0.39705152651302617
12,0.40569457848421375,0.4052241647137149
13,0.40448466343007344,0.40188345453261554
14,0.40609399525760365,0.4108322570938844
15,0.406347729748874,0.4034036549000071
16,0.409250611968762,0.41042709456936477
17,0.40859448174842367,0.40090947801856036
18,0.40963540787549857,0.40725049045350814
19,0.4094040312463518,0.4070190397685655
20,0.41036356223211756,0.404680508549196
21,0.4121312095438413,0.40960086943749385
22,0.41378063401334086,0.41102353862312296
23,0.41369662632505066,0.41801283510351994
24,0.4152343533843684,0.4153151769562649
25,0.4161013008667241,0.41308438398445513
26,0.4180397016821717,0.41864457760317386
27,0.4184473749754236,0.41584526088212626
28,0.41772753521621087,0.4126790664056792
29,0.4188116698431148,0.41862637969602534
30,0.41914892473442256,0.4109656557452843
31,0.41955290793227235,0.4218249237111982
32,0.42077527818582455,0.41612926442160997
33,0.4212538438190738,0.41941509910066826
34,0.42179690124847297,0.4213957165617916
35,0.4240240208667407,0.4187509219093431
36,0.4242894393119743,0.42985867071422446
37,0.42646565946270887,0.42365119231008264
38,0.4269445321863417,0.4222850015467004
39,0.42789369742807337,0.4261326355268969
40,0.42965277157324233,0.4309110425152821
41,0.4300103189827825,0.42611733052368966
42,0.4308006262020458,0.4275581451663136
43,0.4308946252441864,0.42837245456590367
44,0.43215629831851243,0.42582831755945183
45,0.4323237240433788,0.42915418267926836
46,0.43676360379800117,0.43414567943907134
47,0.4389019858918255,0.43825737449181146
48,0.43843869663315643,0.4373663923697847
49,0.4391010351496949,0.43667466731837196
50,0.4401077381294188,0.43655751448574825
51,0.4410360624329198,0.4392625330090039
52,0.44136055652574124,0.44169726109756074
53,0.4426371010901739,0.4414053054379914
54,0.44360712295870863,0.4429489544079928
55,0.4431554527402974,0.4412488844804617
56,0.44268577260146436,0.4409305420670196
57,0.44481918430500167,0.4446011860005177
58,0.44633083445153493,0.4467681803214096
59,0.44816215466364945,0.4480553111310713
60,0.44973290238598046,0.4480733363877828
61,0.4502559685177379,0.448956969518151
62,0.45074842373927754,0.44718548387216533
63,0.45120653195129196,0.4497713805791912
64,0.45198966302663635,0.44872462821992937
65,0.4523765413497714,0.45003158958675604
66,0.4541252419841681,0.44987011603582033
67,0.4544461053476227,0.45186034572482203
68,0.4553036765994025,0.4534594294073518
69,0.455978118402181,0.4533302775748068
70,0.4561328575480357,0.45427208317070594
71,0.45677319091496416,0.4557867057180366
72,0.4566440358579016,0.454692390109114
73,0.45599938231148274,0.45240698514290195
74,0.45558458353110176,0.4565219099407552
75,0.45751151780160165,0.46327415123183074
76,0.45898788629339826,0.45762097702602594
77,0.46001316568820927,0.4588259550390066
78,0.4599409117829427,0.4562181851918003
79,0.4603182623226992,0.4629317601570151
80,0.46144271372937506,0.45636965671595
81,0.46173952775205773,0.46082372121083864
82,0.46266228287481515,0.45985880767245263
83,0.46296704472829286,0.4598112822980873
84,0.4641766929931885,0.4619972106652442
85,0.4661654824729535,0.4624351205036878
86,0.46689388647472696,0.4644252767383037
87,0.46889988520891784,0.46761835063751017
88,0.4701087970176251,0.46669538378328784
89,0.47154202662390454,0.46932790340781694
90,0.47371689681772045,0.472609366717033
91,0.4753043180565723,0.47583608903347335
92,0.47729279751105724,0.47706324773306585
93,0.4786546027140201,0.4783594002108794
94,0.4804076057992237,0.48089290047117295
95,0.4827790704725073,0.4892375100364747
96,0.48449279377468113,0.48370088613913104
97,0.4879048409774076,0.48437110174504705
98,0.4900294499840137,0.48068672495940207
99,0.47336311451046825,0.4588259158343294
100,0.4614556957307675,0.46173730565103593
101,0.46029711146656277,0.45658830124869737
102,0.4596415031805718,0.453031836054911
103,0.4590962744050259,0.4561107972725948
104,0.4597839097245585,0.45571935135759384
105,0.45912893084261874,0.45648940027195173
106,0.4594890659002422,0.4534526994967016
107,0.4591995151377946,0.454649251211202
108,0.45956961503975674,0.4577471283955586
109,0.4596466494260357,0.45670634387280046
110,0.4593467227786517,0.45532399764026166
111,0.45949812450582644,0.4536190670095414
112,0.4595129069707411,0.45552692327282823
113,0.4591471758530176,0.45736660323100464
114,0.45960005810014526,0.4554812109576718
115,0.4591593272309956,0.4573242368005875
116,0.4595483878643824,0.45504481221540904
117,0.4592055971260735,0.4557202789760274
118,0.4594338956573088,0.4561258461885305
119,0.4593063751466757,0.4572860929942769
120,0.45952039611062784,0.4562513026781229
121,0.45998540179456493,0.4564083893417055
122,0.4596951504747232,0.4584026017860001
123,0.4592211844923021,0.4546112751728717
124,0.4594159940655848,0.4574414337445156
125,0.45968531056630124,0.45699975600304493
126,0.45978769329521924,0.45545008070374154
127,0.459477574062691,0.45513289311216404
128,0.45948104833583053,0.45955769624636605
129,0.4598209469603767,0.4557662232078775
130,0.4601733721047043,0.4555316840790194
131,0.4595827807227166,0.4566247281946985
132,0.4599526992218317,0.456279705572399
133,0.4596482833282197,0.4553900344866809
134,0.4602749677325746,0.45448473047552707
135,0.46028299896930863,0.4558065677694644
136,0.46164945877485986,0.46010980793159373
137,0.4617781133724271,0.4580587430011907
138,0.4627355615242278,0.4613217296198143
139,0.46352045896580163,0.46105728418674297
140,0.4708970675261332,0.47267301807245005
141,0.45173891955275264,0.42934156803222373
142,0.4322600661753845,0.42836264019948334
143,0.43335486942524903,0.42762870679323206
144,0.4305928180559432,0.4247925963618363
145,0.43111844179485204,0.42415193835120807
146,0.4303784753032643,0.42577324414872003
147,0.42984499643333823,0.4237548046158468
148,0.42877411412849153,0.42633002699146594
149,0.43017096234093294,0.4240650196725145
150,0.4306370503216195,0.425669993966552
151,0.4304675729371148,0.4239911271707855
152,0.4309469066303763,0.4287046087242584
153,0.43220693669956717,0.4267003135959597
154,0.4312141313969946,0.4221565278438853
155,0.4314125750640376,0.42381715825294347
156,0.4311901133975761,0.4273557308864903
157,0.43279339875384654,0.42727655269030335
158,0.4324671590538193,0.4304559268268839
159,0.43338244969697837,0.4290270549392468
160,0.4361503559818642,0.43843063562262474
161,0.436215149833738,0.33478823376688066
162,0.31345815068965344,0.2917016484296525
163,0.3118835773954304,0.31147927152172683
164,0.30655682852880967,0.28286006937931923
165,0.2834361602453063,0.286627911170227
166,0.29402722354480226,0.2867331315082742
167,0.2956301002227086,0.282075917525013
168,0.2965616408684809,0.28684420069107075
169,0.2922695184512745,0.28036983086389927
170,0.2805142908023776,0.2594203484416105
171,0.2630230795571191,0.24739767012804964
172,0.2644296703193548,0.2507032580546799
173,0.26650371130487266,0.27085864792871744
174,0.26973030970896406,0.26134437368540675
175,0.2701875513510479,0.2655836572902336
176,0.2684152329667174,0.25713684515603075
177,0.2648394843093675,0.2508864381259182
178,0.2665302057066758,0.2562394564894284
179,0.2645692365278331,0.2499275430734817
180,0.2629751118662073,0.25026871208388535
181,0.2552883888634326,0.23835512326194905
182,0.2515265601422426,0.23328903070911583
183,0.24254858798628526,0.22467000163722986
184,0.23453762932263728,0.19331636403695607
185,0.1980069070231256,0.18760864700085733
186,0.19749702709474212,0.1578755096773355
187,0.20075016336335097,0.21178116288643395
188,0.17126327793630625,0.15769989711186408
189,0.16477162661769088,0.146774422096365
190,0.15636246656183245,0.14612289010535773
191,0.155748706853824,0.15592652874706436
192,0.16077549216315878,0.14100345706345102
193,0.16772065334338201,0.16083746269913293
194,0.18473575325657407,0.17923431583081234
195,0.17183121446791508,0.15265039269361472
196,0.16889281102043804,0.18891451667936857
197,0.18896138920986338,0.16300355277453993
198,0.19423730613542997,0.18433514911762988
199,0.17395380631482915,0.14130282339799335
200,0.17115384622740212,0.1777031643426428
201,0.17308421629526502,0.1469423360548557
202,0.1758736497502598,0.15816370571230062
203,0.17590170267155114,0.1592285280800987
204,0.16637606420118012,0.1698747765142939
205,0.17655909539247341,0.1734285969634609
206,0.1744680783873181,0.13853210560065018
207,0.17706802145863554,0.17883380669843638
208,0.17634574434547734,0.14949319842184644
209,0.17221856286064732,0.15062297050994486
210,0.1822678929059099,0.16340320275164386
211,0.17998319653103692,0.1771853687626892
212,0.17918021391758068,0.17209713738668478
213,0.17894001492411735,0.150380648956585
214,0.17482131284126956,0.14912003986930228
215,0.17877817879303443,0.1826195279007894
216,0.18283876393130533,0.15491563206219808
217,0.17780255309766155,0.164916779293051
218,0.1777760232742831,0.1677373378429583
219,0.1770566799957529,0.19215498661617872
220,0.1765234621884443,0.18607751154986613
221,0.18424344021645042,0.16667045022014285
222,0.17883838133348093,0.17743685697745426
223,0.18094044727526062,0.15530357909270254
224,0.17982298951801823,0.15945470812885335
225,0.17841550833087047,0.1635589577735002
226,0.1796107826779803,0.16580449826622629
227,0.1788111946778931,0.19271924431886697
228,0.18167558066648326,0.16095510676249392
229,0.17868597205993744,0.1662204086732207
230,0.17989497708143284,0.15258439871371518
231,0.17745183545460788,0.174818244402426
232,0.1818485374780919,0.16340917014099193
233,0.1754998533343009,0.1562869539491935
234,0.17744928591245646,0.15323019218657524
235,0.17635603430416225,0.15777928736861507
236,0.1813475558455225,0.19398738963518894
237,0.18000827807846595,0.15652440530636982
238,0.1786874907077838,0.16130688139943697
239,0.1773106292713347,0.1652072932018271
240,0.17722013966740371,0.16926329726140285
241,0.17693804193726534,0.15835075753545336
242,0.18043091424925028,0.1701525784152751
243,0.18305861536529752,0.1906787915894005
244,0.18135808403488157,0.16721356474618457
245,0.17773008328661907,0.1505432418953183
246,0.1759631929872893,0.15918730061564712
247,0.17929068788158312,0.16983837656682813
248,0.17823674436733186,0.15288846906567624
249,0.17383147442073607,0.16688904507026764
250,0.17528224476964308,0.17492316066251956
251,0.17887996414525686,0.1776472427621665
252,0.17869741003140152,0.1643676272829857
253,0.17739811194859284,0.19363421656112795
254,0.17535349942021985,0.148573253010698
255,0.17822121455967188,0.18063527743263352
256,0.17805592437760176,0.17636193648065288
257,0.1736543968952208,0.19647768507231955
258,0.17829375761785538,0.1621690382584265
259,0.17817702637112934,0.1578591924828431
260,0.17750378550769236,0.17575977432080042
261,0.17559333215411707,0.165365440506618
262,0.1771917273614815,0.1551727670677677
263,0.18131556731758355,0.17048315585433035
264,0.17886757144959475,0.1728099277854836
265,0.17540135961756695,0.17713848700246865
266,0.17735338017189378,0.17136562549768186
267,0.17766860865945336,0.15405135480301804
268,0.17707338369040607,0.1564128196224969
269,0.17492629974794158,0.17399223247922152
270,0.18280860668926643,0.17468307136474154
271,0.17669059082662897,0.17442415196626823
272,0.17922788001209186,0.16624483284869043
273,0.17790166695443413,0.16835050954387523
274,0.17930946154915112,0.16076723166529183
275,0.17661676075670413,0.16892642431740634
276,0.17659402245564687,0.1597916448227487
277,0.17730378689433784,0.18925046801132006
278,0.17929953133301127,0.18887137404710225
279,0.17663200203183177,0.17355540206252512
280,0.17615864595310318,0.16322003672351126
281,0.17953644836660002,0.19016278807650905
282,0.1753369395832141,0.1768085827623454
283,0.18243289791984116,0.19618339548967567
284,0.17840085200088515,0.1721241915989773
285,0.17791955588196068,0.17963542353546147
286,0.1787690789855605,0.15656520410562472
287,0.177287565685922,0.16267551177174505
288,0.17702123633711886,0.17482961763817415
289,0.17449354025139344,0.16109748306742355
290,0.1753592932756373,0.1714254485236274
291,0.1764160883400419,0.1514566724172764
292,0.17450797125351153,0.1591209942431152
293,0.17810803859996452,0.17770815793566846
294,0.17818790527464773,0.1643790218855246
295,0.17843019844199104,0.16108719037735453
296,0.1803033167870642,0.16157662838286532
297,0.17827556291229732,0.17828851563603726
298,0.17839158165326016,0.2036970037323425
299,0.17911946234271658,0.17863460128034697
300,0.1785625374918465,0.16537850693967995
301,0.1772249631339116,0.1525557473821555
302,0.17895662103346388,0.15656817676038734
303,0.17709448057308114,0.18181759400621045
304,0.1759264949169323,0.1602955706363177
305,0.17479939004771702,0.18256477630921525
306,0.17687236147823096,0.15415056296363655
307,0.17431225210094184,0.16886146254203035
308,0.17616502456277539,0.16396515089519992
309,0.18115864262235365,0.18171828383366848
310,0.17647589092926563,0.20368867998962373
311,0.17814989970196143,0.16910136647564747
312,0.179265980175536,0.14937851388862436
313,0.1751105142436665,0.15045039493527146
314,0.17667729754129155,0.16310701967010824
315,0.17508288083360898,0.17758767449411067
316,0.1796044075102497,0.14857384231355455
317,0.1792888098162971,0.16176314497274397
318,0.18207345476405348,0.1761896855712227
319,0.17942646644514404,0.1755663965982049
320,0.18528024095883838,0.16245489647885406
321,0.1887735972901265,0.18658876733284893
322,0.1772838482160488,0.15334021501297498
323,0.17772236177093798,0.1623221509043801
324,0.1811723074405264,0.16271665924366954
325,0.18165444121587934,0.14835116931895173
326,0.17944818684418168,0.18751737516485184
327,0.1883224417821611,0.15329886629682002
328,0.1774717385800864,0.15622461676017502
329,0.18048389741570783,0.1737617692469777
330,0.1799492940569134,0.16551374796919965
331,0.18227028073049528,0.15139639537119806
332,0.18233748950105938,0.17273926953668045
333,0.18058384323210788,0.16613241638580378
334,0.17557189942265244,0.16771093381920774
335,0.17707013799320515,0.16383002409583075
336,0.179167573163517,0.17574648928903316
337,0.17967067901686348,0.16571793664739273
338,0.1770284195915998,0.1766092856894251
339,0.17717950190421197,0.1905422892787064
340,0.18010868154782309,0.19092784284191797
341,0.18018319500420837,0.17396325204107496
342,0.17521437942933998,0.14811982907542154
343,0.17874924511051446,0.15908014073375754
344,0.17872611854413303,0.18462805784725117
345,0.17931861496024173,0.14771754126044084
346,0.18022857641605877,0.16344721181452612
347,0.17845316777069917,0.19629511755603363
348,0.18055341960049515,0.16956934967325263
349,0.18244612450190217,0.13798840910752228
350,0.1774619700815126,0.16608333443831547
351,0.17438193699948973,0.17189926705462896
352,0.17815855543932216,0.15741806230164115
353,0.17628603316455768,0.14486751192387584
354,0.1830614044236316,0.16865852818388524
355,0.17603394784051193,0.17514373627940716
356,0.17539593146098337,0.16058370019010867
357,0.17830745325840597,0.17737873512511318
358,0.18029229103134956,0.16968720625641862
359,0.17469467535865507,0.16787112672833632
360,0.17371335449077493,0.17705439147142887
361,0.18119180201291082,0.1685087437902344
362,0.1802854551266345,0.16669029671780383
363,0.17932121994926797,0.17348571157948525
364,0.17796696840022638,0.17660507571861594
365,0.17863033009205367,0.1753120236733244
366,0.18852115713590809,0.17127331667137843
367,0.1791081254104312,0.16557675380099623
368,0.1831353221885007,0.16304713952908745
369,0.18146843787691325,0.15513087764370276
370,0.1769699142385331,0.18525975030172384
371,0.1770342923969245,0.16412222072397512
372,0.17643878466969398,0.14090227675892333
373,0.1778293016424076,0.1602974680750136
374,0.1799424249258301,0.17387351387657002
375,0.17739180560776288,0.15319182700194292
376,0.17984297177236114,0.16360537974890518
377,0.1810985880913593,0.16230365734272437
378,0.17665632228979214,0.182341384288265
379,0.1756076968794732,0.1571693109697379
380,0.17973681773730904,0.15723367277094724
381,0.17959143230326183,0.15622107083973416
382,0.17366381532984604,0.15393406982984567
383,0.17977277779455086,0.18414710995054592
384,0.17829452598209472,0.1384358836061473
385,0.18013831042498946,0.18495346348361089
386,0.17970062091982394,0.17020010015196851
387,0.176669260470556,0.1844204326809081
388,0.17631336280090318,0.15934625723597873
389,0.17491627711239005,0.17087015212307302
390,0.17619004264008625,0.15431370516666434
391,0.17662695094382314,0.18242613550665315
392,0.17669931502701092,0.17456395682385561
393,0.17438350027028898,0.1682484342814072
394,0.17656471147787295,0.17179704459334233
395,0.17409149715430838,0.16551958169525266
396,0.17570600885930684,0.17268948824978028
397,0.17785892951144897,0.16192266916658274
398,0.1777100349851758,0.16583242618447866
399,0.17557541205822896,0.15018274931770365
400,0.1762692296297384,0.16942388315995535
401,0.1729136197041091,0.17769510996892796
402,0.1743536770427294,0.15609500685892547
403,0.17751027375244924,0.18480089693560603
404,0.1775113204605967,0.18615514130632954
405,0.17751838568690492,0.16552696114183924
406,0.1773848378772827,0.1822043102225538
407,0.1757990998134697,0.16610201828284468
408,0.17365389613149831,0.15096878217471293
409,0.17485074361292624,0.1488476302912829
410,0.17844345015559415,0.14512258103390777
411,0.17910182851257087,0.15963517869040914
412,0.17802001117729396,0.1758871107858463
413,0.17376170615204053,0.16347562007467048
414,0.1734408140480757,0.14481402059226914
415,0.1779674738884163,0.16821220282703903
416,0.17642198191632072,0.16747538699479192
417,0.1742057687072777,0.1662014944105736
418,0.17627204040153396,0.1558130086676821
419,0.17906095735949454,0.17735732429557377
420,0.17284353926264828,0.15514661669006022
421,0.179169927606638,0.1785499816344989
422,0.17908682758279376,0.16546508579213542
423,0.17587165524355405,0.15653461463211613
424,0.18046155969818847,0.1620776413034252
425,0.17953271496357967,0.172900102301429
426,0.1756789695629604,0.15477385110276942
427,0.1791392133725558,0.189540226009447
428,0.17591328055764122,0.1895174600927209
429,0.17693627172345824,0.1690017146036476
430,0.1743344149594788,0.1566443243286809
431,0.17759627749840673,0.17029739714500292
432,0.17778582591190636,0.16875752556498033
433,0.17664189828191404,0.15900808702081756
434,0.17499456700203034,0.1781742249744652
435,0.17645124685439803,0.166163788986032
436,0.17726602507315223,0.17895929569745586
437,0.17646453208070073,0.15638346825057864
438,0.17501806788701263,0.17906054227166512
439,0.17967385462253355,0.18264809719740813
440,0.17836593532318873,0.1869019034400957
441,0.17591814543482207,0.15113278190149879
442,0.1756997359834546,0.14308843631765655
443,0.17426417339697564,0.18382586831255648
444,0.17839788656839856,0.17867204253255886
445,0.17793158955388874,0.1697694060407029
446,0.17535283612765915,0.16441598362972942
447,0.1723809927594576,0.18952403568631734
448,0.17686691427464674,0.1514910610101132
449,0.1789102097980684,0.14816911798952462
450,0.17627319034406716,0.16649615954356956
451,0.17660666870965874,0.17310118707862213
452,0.17852394487425458,0.16794003013276707
453,0.1767909434065521,0.17289557346027262
454,0.1753093602539922,0.16012890641755045
455,0.1759285721555054,0.1798613606819948
456,0.1770153846725929,0.1731065845740876
457,0.17705479724775608,0.15551723211109397
458,0.1745230683130775,0.14524303910844422
459,0.176608536598251,0.17564795525791388
460,0.17936109602928543,0.16614884162277876
461,0.17760459964183734,0.1650226453118274
462,0.17642307381710118,0.1531054913538409
463,0.1756439347437518,0.16050909474093258
464,0.17702435291677213,0.15844334296984877
465,0.17607101914976195,0.16353399761546847
466,0.17703217016853648,0.1692912045379818
467,0.17478380262780133,0.16084986330528908
468,0.17623893397631313,0.16864676797718703
469,0.17815343360360666,0.16284340832741978
470,0.17737029355058104,0.15917447098173557
471,0.17290491323539312,0.1876800634081733
472,0.1793624013602686,0.158269481828613
473,0.17680868439024405,0.14286415849337225
474,0.17754581863518426,0.18987859130534135
475,0.17465973744769875,0.15273730369814992
476,0.1775769561266689,0.16099084143897718
477,0.17900748599806818,0.17919456348463664
478,0.17459722383438445,0.15900434827959256
479,0.17601354713674733,0.16646465132222946
480,0.1754801429336886,0.17174795294136702
481,0.17674928687041622,0.17204090271262937
482,0.1781536000575706,0.14141998326425523
483,0.1762248219145213,0.16165135034631156
484,0.17742677705826237,0.16440996960325155
485,0.1769288025253577,0.17912421063108358
486,0.18097721021756638,0.1769483513882367
487,0.17493925908143468,0.1596692391193116
488,0.17820589913665247,0.17403935454332625
489,0.17329723982690715,0.16411234055315685
490,0.1780528320406703,0.15173167099047752
491,0.1739053489137784,0.14506236677694784
492,0.17460120404907184,0.18796193877662573
493,0.17778005011922554,0.17142224601875547
494,0.17179977092101537,0.1430489260821157
495,0.17698844500166402,0.1719711073051114
496,0.17882823927389135,0.16378163467165133
497,0.17667680838591962,0.19461245852955356
498,0.17398013877835247,0.16432762982298085
499,0.17532026360305047,0.16661522139259596
500,0.17578947583766724,0.1760808989611082
