epoch,loss,val_loss
0,0.34940551230304245,0.3251854449792838
1,0.3291041497156012,0.3217265886543488
2,0.3210846619735614,0.3187541228608061
3,0.3198815680367293,0.3377536739433668
4,0.31885440418903205,0.32122354197662084
5,0.3133770580545699,0.30772179523931303
6,0.30781029333932985,0.3027172932238116
7,0.3062344476830759,0.3009412557051327
8,0.30611546201814566,0.30401324995314877
9,0.30593376780609244,0.30315684273709625
10,0.3054852285009208,0.3056413501900957
11,0.30488398520471,0.30119861108445706
12,0.304855646674248,0.3026807422160914
13,0.3048335605626293,0.3066193649005777
14,0.30500087661923264,0.306909807467423
15,0.30532696696637057,0.30222674166958635
16,0.30506419424983044,0.3002387710980007
17,0.3043106778812923,0.30526942769749105
18,0.3042903573369141,0.30483204824960225
19,0.30435109529182686,0.30392152150973806
20,0.30395237329028113,0.29827429638806535
21,0.301522705540192,0.2914921784245695
22,0.29323050903259135,0.2892080107328924
23,0.2893367099175922,0.2862958239822192
24,0.28790850980247523,0.2845148838638977
25,0.28844289753219776,0.2840372363741979
26,0.2877967167767785,0.28244764351336715
27,0.28612428171624193,0.28355780977758727
28,0.2865600562084922,0.2813932682786669
29,0.28659498024520447,0.2850542742738408
30,0.28665121754915784,0.2826907620621932
31,0.285599285559498,0.2796258369862045
32,0.2841270784233257,0.2781773209689448
33,0.28438774343255424,0.2903770640457156
34,0.2855675352944268,0.27999758855649215
35,0.28520483705851674,0.2832759470688422
36,0.28557575092636805,0.2813877033829783
37,0.2842106885320658,0.27928886906594486
38,0.29172019184612447,0.3070159782644511
39,0.30337602899467153,0.3006342880915918
40,0.29992553660218757,0.2971208694772449
41,0.2992200322455163,0.29841374294816175
42,0.2971128013065393,0.29603447383468134
43,0.2971075043427668,0.29965220277668836
44,0.29489938148277267,0.30095700720867585
45,0.2975600925531033,0.2927024268854671
46,0.2990281957445099,0.29116232494434785
47,0.274075932300491,0.2664026684512185
48,0.2717599968651502,0.27091860393063705
49,0.2746840809597719,0.2721556282316312
50,0.27523758284134164,0.28032438694583967
51,0.27633467816310725,0.2736677357481518
52,0.2785311571949963,0.2754946090310412
53,0.2815209517090155,0.2802486276781832
54,0.27948933567622486,0.2768477987330451
55,0.28403618208152787,0.28897789252397105
56,0.29230659187054464,0.2923526251842962
57,0.29519255505167513,0.2927004166517845
58,0.3003859664801118,0.30096898195587374
59,0.3044395916384282,0.3013558561701236
60,0.30321945828332797,0.30428597352216824
61,0.30369030347140097,0.2999460114770361
62,0.30180429610655274,0.2851898465908317
63,0.2944818557345038,0.29924641547235054
64,0.301432366541726,0.3027293604358313
65,0.2989557033820118,0.29757627196780506
66,0.29941664380635574,0.29396293455207073
67,0.2987396320779261,0.30038649076632656
68,0.2995394782887565,0.2962185506780221
69,0.29933278993975154,0.298904728141467
70,0.2979953462283293,0.2829719889370964
71,0.27914067394108316,0.26437093058179095
72,0.2589670799041299,0.25261463208422474
73,0.2599753569498908,0.25702756043485325
74,0.2643220219686687,0.26002226127774675
75,0.26814312296067117,0.27218872379885006
76,0.2698482095444803,0.2702516620742023
77,0.2738292935601384,0.274132382503954
78,0.2751911702237541,0.28373142143074886
79,0.2800618915332498,0.2827724060889013
80,0.27901231010349914,0.28592980720673195
81,0.2803770008978607,0.2761493464130629
82,0.28353901084759636,0.28099267957430707
83,0.2837048440540342,0.28701627168630933
84,0.2849267932246152,0.27978333621488
85,0.2863592723433634,0.2851902078293211
86,0.2858563812969209,0.2950719671989861
87,0.2881146564924841,0.2857686636738638
88,0.2789225605853218,0.26475104620208306
89,0.26986972954299904,0.26793769315390864
90,0.2701509456089932,0.268503263892625
91,0.2690452595593499,0.2644755954441821
92,0.2689707227271619,0.26553094344714917
93,0.2680883996283932,0.26292166684849017
94,0.2672470805200217,0.26419368928449777
95,0.2831484096185814,0.30383308603477555
96,0.3037089650734342,0.3002712503252014
97,0.3036593644560384,0.3004401853424221
98,0.30303641948268284,0.30115759169246237
99,0.30332499177907585,0.2981083052616563
100,0.3034322601285198,0.3014078739010262
101,0.3044556394088373,0.30137713480484984
102,0.30469243990169537,0.30341833451176214
103,0.3045890881396312,0.3042977361130545
104,0.30449623848013074,0.30392900215139895
105,0.3042088121437817,0.3029039985402513
106,0.30473833834286407,0.3045203198385502
107,0.3049419039754654,0.30079328655114584
108,0.30373897379060255,0.30510844828909367
109,0.30471248688886493,0.30814299088533037
110,0.3041792085094989,0.30133066575124495
111,0.304229436500324,0.3015449443080807
112,0.30455874881560474,0.30215588609534355
113,0.3039225374313472,0.30042274771427296
114,0.30424310567734436,0.3036623501410706
115,0.30416555201811946,0.30526622738204046
116,0.3041810980208105,0.3001208677946721
117,0.30468026111475666,0.30178418926065514
118,0.3042912425921499,0.30834449130244956
119,0.3035735886493366,0.30082891814428325
120,0.3037808989937738,0.30141550601234374
121,0.30358949256576984,0.3007417806933598
122,0.3038116189287149,0.302696796059138
123,0.3034628857966426,0.3023756305909853
124,0.30396324246049783,0.3000732349098058
125,0.30316266546742043,0.30174157442120747
126,0.303286727026498,0.30016296237542484
127,0.30330233013243985,0.2989663424083541
128,0.30357466906690295,0.2998215508747966
129,0.3034371609191338,0.3017147928241114
130,0.3034043036859861,0.302789093675158
131,0.3031613548501409,0.3001560051091186
132,0.3033810609178863,0.30234931815112775
133,0.3027352553239162,0.3019132075365265
134,0.30344159163826473,0.30206193226288885
135,0.3032779614988277,0.30172122117564165
136,0.3039348707746545,0.30068396726930435
137,0.30480409400473585,0.31339377080161646
138,0.3055564333780778,0.30491743560795154
139,0.3056230896311126,0.3082783642771118
140,0.30619048290282225,0.3062714635855397
141,0.2979317107479826,0.2913380412365756
142,0.29458826447395586,0.2867771384630414
143,0.28953952570375113,0.28522369456084207
144,0.29082095877324743,0.28793563288596075
145,0.2922756508183327,0.2921941826662494
146,0.30536915950304405,0.3048800356691996
147,0.3027341729171461,0.30635664097511967
148,0.30412093339730606,0.29317188202958455
149,0.29521759157534316,0.2904367844185306
150,0.29395777642798365,0.2895672343783051
151,0.29327309935641804,0.2886800659319126
152,0.2931951155169881,0.28976303520123603
153,0.29289942673094077,0.2913643968745113
154,0.29365290687095635,0.2910562236076655
155,0.29308494014872444,0.2924948895104588
156,0.29318065029516116,0.2877483042728835
157,0.2934824609272867,0.2967676932217102
158,0.29371524029831997,0.29249260309369146
159,0.2937643791881682,0.2898363039756066
160,0.2937187777041531,0.2918168822187275
161,0.2936754884193841,0.29328469082936587
162,0.2938983811856174,0.2900526355408079
163,0.2940924281029583,0.2892873803390324
164,0.29415494960536964,0.2907260475355335
165,0.29366918830134026,0.29115174070953287
166,0.2948741652815938,0.2939597828565099
167,0.29479061287465236,0.2905766254418839
168,0.2947566590839915,0.29292736005482
169,0.2949744960267862,0.2915848899800286
170,0.2954102837615352,0.2916873011682197
171,0.2943126883545368,0.29052411932454114
172,0.29428854866994086,0.29385414798380166
173,0.29538873400238397,0.2934085796127756
174,0.2953203826142158,0.29831151933583483
175,0.29568392121129566,0.29646973548296784
176,0.29859734053234405,0.29552641976698235
177,0.2977925374877634,0.2930200794666135
178,0.2969968406071099,0.29675543388232717
179,0.29692360678379487,0.28977641582065616
180,0.29552975975923973,0.29140218274980995
181,0.2965380062433265,0.292886705758916
182,0.2943069765405308,0.2900430261735946
183,0.2876950436346918,0.2817066374404654
184,0.2847435584516643,0.286039417772756
185,0.3024742028338732,0.30901424865508137
186,0.30883934035551824,0.30575289789531396
187,0.30745042297694325,0.30532214311322736
188,0.30665848802605405,0.30711319454561187
189,0.30740826646629854,0.30514813155147535
190,0.3066069184959554,0.306137451891741
191,0.3051667075505931,0.3023290784813423
192,0.3022517527190806,0.29769059341774273
193,0.2952611268841201,0.29011379389331954
194,0.29246741380217933,0.29455974349941716
195,0.29148362027845987,0.28910281672050564
196,0.29223947715964155,0.2890008468277923
197,0.29178986525673756,0.28809565156345396
198,0.29140794048492286,0.28956770495862216
199,0.2915638334614386,0.2906708600324444
200,0.2919706620460601,0.2912553925399434
