epoch,loss,val_loss
0,0.25701968807229797,0.1814624780073068
1,0.1791572725410751,0.17889046337346723
2,0.17859823126301205,0.1785502576672758
3,0.17832680584953653,0.1782688488264957
4,0.17825616755002407,0.17826864302111312
5,0.1781409632423513,0.1779578711775785
6,0.17807365519751747,0.17825477436808215
7,0.1780680363996328,0.1780117378168061
8,0.1780645829334343,0.17780110991509204
9,0.17797829600856555,0.1780445250287805
10,0.17803239175598684,0.17794609656697102
11,0.1779393750033695,0.1781323017359909
12,0.1779937443258665,0.17780587507592663
13,0.17798180211123993,0.1777040129725916
14,0.17791670334520196,0.17861855873322055
15,0.1779547941079624,0.17822036416444048
16,0.17792298632274142,0.17832088820936176
17,0.1779121393315512,0.17780116146346575
18,0.17784656837975665,0.17774447497647863
19,0.17791925371288778,0.17785586493167713
20,0.17784044524129156,0.17761474346775846
21,0.17785277879900402,0.17775624604703125
22,0.17786466049776375,0.17766904758014543
23,0.17782983299401356,0.1777193086205643
24,0.17783983835546996,0.1776747851975809
25,0.17783939747882785,0.17774636703583793
26,0.17782920416739348,0.1777257064876353
27,0.17776621991305425,0.17765925343618114
28,0.17780333475695906,0.17790639340501183
29,0.1777712243328468,0.17768528608233325
30,0.1777576280059479,0.1776736650583588
31,0.17777166975368794,0.17770758472330098
32,0.17778113310476193,0.17764401980385408
33,0.17777106176010615,0.17784385599531144
34,0.17776671343808362,0.17769844366653567
35,0.17776206777774267,0.17755642296906615
36,0.1777512306670586,0.1777136882365738
37,0.17774599925171938,0.17760184476623972
38,0.17775972246480504,0.17785939220236152
39,0.1777357333700815,0.17771514370484717
40,0.17774312422691965,0.17761481566841242
41,0.17770434591433795,0.17779277700228116
42,0.17768911636180634,0.177766067629361
43,0.17774088632503002,0.1777270495444654
44,0.1777334636409315,0.17775034020054312
45,0.17777566577819326,0.1776497333230423
46,0.17770357771242837,0.17753700508597148
47,0.17773685171354495,0.17762948923112842
48,0.1777349761921725,0.17755978492742086
49,0.17773276280989941,0.17774989775248937
50,0.17771482016209314,0.1775688153839337
51,0.17769255580233156,0.17765864568755865
52,0.17771511608891064,0.17764837896391078
53,0.1776709244024458,0.17758700736131647
54,0.177691274141665,0.1776773018002416
55,0.1777036471797122,0.17771825580118958
56,0.1776868200702347,0.17749577370231887
57,0.17768791735434322,0.1777351284201162
58,0.17768657246796632,0.17766891244648947
59,0.1777110555224853,0.17759633275967654
60,0.17768475733143535,0.17761746646385074
61,0.17767496334968044,0.1775718770727174
62,0.17768321864062744,0.17765211447450055
63,0.1776475986833576,0.17763241025859575
64,0.1776786097150436,0.1776200519740911
65,0.17766519163033181,0.17766494515051312
66,0.17764313617865626,0.1776109639123
67,0.1776460170221748,0.17760129930376536
68,0.17768226984402927,0.17779429189878462
69,0.17765940735928065,0.17759562113808194
70,0.17763956359250369,0.17759003061521872
71,0.1776748945256122,0.17758440223376207
72,0.17763010504767954,0.17760773947508013
73,0.17765861919982065,0.17756864219174764
74,0.17764066400931036,0.1775636094921484
75,0.17765334083569898,0.17757533142532808
76,0.17767171119209482,0.1777276889183621
77,0.1776410869235615,0.17764381277532962
78,0.17764417212501132,0.17763974461719192
79,0.1776684894740915,0.17760589135474075
80,0.17766310359767493,0.1776776096203615
81,0.1776188028623446,0.1777307417628891
82,0.17761777702281228,0.17772353365840926
83,0.17762627238206727,0.17764448248079281
84,0.17763453450420205,0.17761162503224803
85,0.1776719167054319,0.17760146432207058
86,0.17765048565529137,0.17761047554938175
87,0.17765201014771068,0.17760316173721696
88,0.17761674099903313,0.1776851153599529
89,0.17761307452722705,0.1776670927289159
90,0.17764840403692328,0.17767314422337577
91,0.17762430121810982,0.1775459227899726
92,0.17764493557427236,0.17780622320092374
93,0.17765456304061328,0.17777490058374293
94,0.1776360565071388,0.17750973042156531
95,0.17765140749043604,0.17765956964187954
96,0.17763639426083683,0.17753644708629282
97,0.17760903514522633,0.17777845624543215
98,0.17765175367144945,0.17765292391216275
99,0.17763035040464906,0.17756541541409285
100,0.17761312416798586,0.17751779932390543
101,0.1776531449169945,0.17764910456931018
102,0.17760940049763776,0.17750360777317867
103,0.1776432619630385,0.17755260923620086
104,0.1776243960864538,0.17759999884520353
105,0.1776433563191923,0.17752514734875996
106,0.17762689611656393,0.1775214495321099
107,0.17763509942020633,0.1775817220358747
108,0.17760903320962387,0.1776158251368162
109,0.17763365454358354,0.1776898748167124
110,0.17765752567375878,0.178154584005675
111,0.17764284622540577,0.17758144685247326
112,0.1776009125710963,0.17765195303153314
113,0.17763265377159218,0.17761058567919502
114,0.17763811557127132,0.17753003178944998
115,0.1776420840089746,0.1777587218508536
116,0.17762395504305212,0.17757596020258215
117,0.1776118695759754,0.1775915963073932
118,0.17760689367207405,0.17754910426433385
119,0.17761186921863342,0.17752647318751585
120,0.17762514373524296,0.17763140208389971
121,0.17764036571807998,0.17751681901097016
122,0.177610158425965,0.17765078410776752
123,0.17763535151902815,0.17753575277686026
124,0.17762844589092938,0.17760186866455033
125,0.17763989883289635,0.1775115651461489
126,0.17763520023233884,0.17751398078079947
127,0.177603862697272,0.17761056499163183
128,0.1776257187759371,0.17750901215501724
129,0.17761412172389926,0.17757474525810324
130,0.17764306334640195,0.17763407128527114
131,0.17763719728572383,0.17754951614560155
132,0.17765148628434593,0.17758227883593342
133,0.17762547855873664,0.17764581075407146
134,0.17759790859348196,0.17765736404656424
135,0.1776038405003784,0.17757887737244815
136,0.17763878718959533,0.17766161786352638
137,0.1776392659564003,0.17754402395628904
138,0.17763403771544914,0.17764359472676725
139,0.17762832870062212,0.1775090640915033
140,0.17761360460238682,0.17755295964282802
141,0.17762934626768723,0.17762538105037706
142,0.1776198150275899,0.17754905951380637
143,0.1776412757549831,0.17758528583616182
144,0.17760931855316262,0.17764849766747823
145,0.17764655702548632,0.17751792355513327
146,0.17763261787658877,0.17756499701724243
147,0.17763053515046048,0.1776329289766024
148,0.1776172924432442,0.17757950653781454
149,0.17765680302699788,0.17786626113194975
150,0.17761175298123813,0.17755679814431644
151,0.17763939972737616,0.17757272569796376
152,0.17761592462742262,0.17751495067350678
153,0.17762342964311678,0.17769967320639032
154,0.17760039747452183,0.17760999957077506
155,0.17762216614137927,0.17762349855269421
156,0.1776141712574555,0.17764269970445626
157,0.17763432495290046,0.17765493908545682
158,0.17763846171655054,0.17755263160558413
159,0.17762183318201968,0.17751512346581955
160,0.1776169308667465,0.1777528742447366
161,0.17763718977558624,0.17765362122064512
162,0.1776392433306963,0.17755439117750788
163,0.17761349386805825,0.17755507445514154
164,0.17762629914102698,0.17750421452211787
165,0.17758331435928337,0.17751191543516628
166,0.17760932267450696,0.17756024184147956
167,0.17762298653904293,0.17754609604096355
168,0.177642560643639,0.17758510670468106
169,0.17762591693398477,0.177560340339684
170,0.17764492836191975,0.1774866994832008
171,0.17763846627266097,0.17748093714418614
172,0.17760973708401862,0.17750321962556787
173,0.1776090871206195,0.1776262332627222
174,0.17760964244794694,0.17747776748960942
175,0.17761494862518723,0.1775000705527055
176,0.1776372992115722,0.1775958085845753
177,0.17760219457719348,0.17756304249532032
178,0.17760779208345093,0.1776037770716713
179,0.17763436136604976,0.17756405764427727
180,0.17761019577415918,0.17775797382902703
181,0.17760944399806997,0.17750599525204397
182,0.1776236106606601,0.17749482292120344
183,0.17762940135195576,0.17749208221307589
184,0.1775905315121777,0.1776852860470503
185,0.1776270799154191,0.1775116252094719
186,0.17761235906304024,0.1775402652177645
187,0.17763508575187503,0.1775326921583257
188,0.17763321082011688,0.17751207972429076
189,0.1776003194310301,0.17790978080236544
190,0.17760714030356334,0.1776941850628548
191,0.17761365900174986,0.1775221693040634
192,0.17761464372908564,0.1776815250386567
193,0.1776149942875385,0.17761313748246774
194,0.17758877070949708,0.17755053062418266
195,0.17761940775896243,0.17763240284917858
196,0.17763452852467934,0.17758300080719008
197,0.17760612950217333,0.17752151833384078
198,0.17762711097439415,0.17806477094364617
199,0.17759656705420843,0.17755935354644892
200,0.1776287491849477,0.17757466660067145
201,0.17758732088964335,0.17754958117205794
202,0.17758840597052272,0.17766347839169927
203,0.17763579446229813,0.17753723243746874
204,0.17763730950897735,0.17753487370243765
205,0.177622301323856,0.17748189681660217
206,0.1775905844821728,0.1776027102332089
207,0.17760717843195423,0.17749403595877333
208,0.1775952537687753,0.17753753502395273
209,0.1776103390682992,0.17756314239308132
210,0.17761617023453152,0.17753458313567486
211,0.17760605691410272,0.1776554841362969
212,0.17764197565692602,0.17753258560385024
213,0.17760450939099184,0.1775141543375759
214,0.17761553968671415,0.17779125466107756
215,0.1776464068167787,0.1775695304867783
216,0.1776148994251502,0.17752378439235236
217,0.17760798573898945,0.17752003812046624
218,0.17763216963274586,0.17768666855020607
219,0.17761988897356007,0.17763998454117644
220,0.1776015990072017,0.1775134185824511
221,0.17763082382919118,0.17750680731240462
222,0.1775995901972651,0.17760730464814117
223,0.1776245052425219,0.17752612039340981
224,0.17759465739476404,0.1775506577603725
225,0.17761655961223644,0.17757463330533813
226,0.1776160492921333,0.17748128029428886
227,0.17759844606562103,0.1776568996878054
228,0.17763612777304402,0.17751500559728167
229,0.17759328217005177,0.1775721597243409
230,0.17761973551899599,0.177543056792129
231,0.17762500071506515,0.17750090580571798
232,0.17761305446842973,0.17771854186349717
233,0.1776295426509363,0.17754112539229283
234,0.17761534996789327,0.17755082067346234
235,0.17760053546808893,0.1775059693778888
236,0.17761099255151697,0.17759427143629838
237,0.17761089324022084,0.17758879097268257
238,0.177595268342373,0.17762134217707867
239,0.1776027143132582,0.17770387592189596
240,0.17762123478307046,0.17757838215287877
241,0.1775971539407897,0.17768529718469803
242,0.17761935109047772,0.17757682382307752
243,0.17761036144386377,0.17756649440164723
244,0.17758686618982172,0.17755623647521213
245,0.17761720868823624,0.1775195058067671
246,0.17764420671571646,0.1777599326084238
247,0.17759907994267465,0.17749870271549134
248,0.177597810628174,0.17779571170776776
249,0.17763102080205456,0.17748829915284545
250,0.17760292786083443,0.1775341033935547
251,0.17760766907442482,0.17753428029044932
252,0.17759251923298092,0.17750562282886295
253,0.1776008247602567,0.17753619409585997
254,0.17759121098606992,0.17762729794892534
255,0.1776154848585407,0.177526261760385
256,0.17761981393174112,0.1776367082380364
257,0.17760138099880624,0.17752269513746274
258,0.17759332067365174,0.17761708819546282
259,0.1776045403963656,0.1775074430168757
260,0.17760938820507316,0.17758814177836785
261,0.17760338160774405,0.17754999985117187
262,0.1776242459730374,0.17758655582202543
263,0.17760165295988725,0.17762814543335664
264,0.17761999134013026,0.17752071095435001
265,0.1776312717097364,0.17753563619026916
266,0.17760638589505479,0.17753628379685163
267,0.1776173283322919,0.17754886589279867
268,0.17761243810708954,0.1776646417289996
269,0.1776030008181584,0.17772378563739788
270,0.17763126134086285,0.17761508702949547
271,0.17760662528441298,0.1775602903202376
272,0.17762489970639456,0.17749444441759596
273,0.17759445487714404,0.17750985084223578
274,0.1776136911684851,0.1775013287658285
275,0.1776143997597942,0.17756403979111018
276,0.17762857935816453,0.1775727917241034
277,0.1776120875069468,0.17761029706475484
278,0.17761932735105784,0.177569944085149
279,0.1775900127111579,0.17759021049940218
280,0.1776008108656088,0.1775768618933686
281,0.17760401823037533,0.17759705129672715
282,0.17760257849352157,0.1775740295554487
283,0.17760796819945318,0.17760582517570836
284,0.17761594377499784,0.17761150931596945
285,0.17760494789130968,0.17754425600041718
286,0.17761703836117432,0.17752079015278685
287,0.17764869808769532,0.1775101760803665
288,0.17758449389160774,0.17752433200708598
289,0.1776280045497427,0.17767124611887294
290,0.17763445633564065,0.17759493266209525
291,0.17759155177717492,0.17754214643350058
292,0.17761802036079952,0.17761757864007446
293,0.17759960418720422,0.17757012035871172
294,0.17759044189676107,0.17759831527273018
295,0.1776142059136733,0.17761768477115467
296,0.1776189194987718,0.17751837801114725
297,0.17759813807255548,0.17749052200151788
298,0.17760875246388544,0.1777435014496286
299,0.17762835780017192,0.1775066726139049
300,0.17761024138290915,0.1778739389229122
301,0.1775874109755603,0.17757405798173648
302,0.1776668699882585,0.17765305211860172
303,0.17759136137940423,0.17770717598221483
304,0.1776217385697708,0.17754956742347275
305,0.17760745768876765,0.17746974032698604
306,0.17760296931846156,0.17755186176714036
307,0.17762642822486702,0.17749415684988298
308,0.17762608548624814,0.17774730383314857
309,0.1776037396763345,0.17755179628200576
310,0.17759920455973974,0.17773485497733976
311,0.17760539709402026,0.17761845477425214
312,0.17762640208530006,0.17762072653683886
313,0.17759025755593721,0.17759427515276793
314,0.17761034080736357,0.1775782126654013
315,0.1776264862810298,0.1776027075517055
316,0.1776042749508203,0.17752839093285466
317,0.1776137736668404,0.1774847928755097
318,0.17762132798381847,0.1775920559382382
319,0.17760516435122317,0.17771790964027606
320,0.1776426619441389,0.17769566707565923
321,0.1775983687308576,0.1775858082000722
322,0.1776201761812329,0.17757791199595702
323,0.17763193265544616,0.17750492864880113
324,0.17757850770446226,0.1775869171310807
325,0.17761608434738302,0.17749997491241912
326,0.1776120217024184,0.1775224429467765
327,0.17758744050987618,0.177544177589966
328,0.1776222724208443,0.17751369280145218
329,0.17762825511199393,0.17756159413067862
330,0.17761254843643054,0.17752464304971433
331,0.17760907188593913,0.1775700755140964
332,0.17758679114204706,0.17757116518062027
333,0.1776327818965645,0.1775306805250865
334,0.1775532002976949,0.17750394454883042
335,0.17760311491745745,0.17752261684462134
336,0.1776057923440453,0.1776034927970326
337,0.1776286751734648,0.17764680013472203
338,0.17757862422773116,0.17779252222417938
339,0.17759699955118075,0.17769683392949243
340,0.17761303222984623,0.1775263543192947
341,0.1775853931427383,0.1782056121677513
342,0.1776388473898101,0.17754833201488926
343,0.17757174475111073,0.17769193045953738
344,0.17759341979436546,0.17766136975390007
345,0.17760160266400146,0.1774670602349475
346,0.17760873029677035,0.17747820770307704
347,0.17761492866763678,0.17797026307496294
348,0.17761219734196468,0.17751969478218782
349,0.17758327396772652,0.17759390292952357
350,0.1776066584457501,0.17756533338125993
351,0.17760434828335336,0.17747076102712536
352,0.17759518524844775,0.1776769732455146
353,0.1776321040187999,0.17751130342906915
354,0.17759755084054363,0.1775718201966199
355,0.17757692662693805,0.17778257643414372
356,0.17762037483360366,0.17754920993673584
357,0.1775982898237894,0.17750899013846336
358,0.17760906275585114,0.17749121826327308
359,0.1775996259791102,0.17765686218204138
360,0.17761310446057482,0.17756243851021133
361,0.17758179672783037,0.1775245347193309
362,0.17759649969524235,0.17756423042482905
363,0.17763193179782535,0.17754490534762463
364,0.1775976525460311,0.1775534336103072
365,0.17759627025190303,0.17751652685647512
366,0.17759392807166352,0.17752487237705616
367,0.17763878627837323,0.17760614154606047
368,0.17758544234873103,0.17752207740376855
369,0.17761981215694253,0.1776372100790373
370,0.17759037856384813,0.1775593653309505
371,0.1776138243141125,0.17747868605740164
372,0.1776044271606431,0.17754247460011524
373,0.1776104256105747,0.17754910185333303
374,0.17761027939218602,0.17753897382691797
375,0.17761338020948103,0.17747735547897095
376,0.17760404493573376,0.17756666036083082
377,0.17758209507861775,0.17752138588168814
378,0.17761559743318053,0.17752011276740395
379,0.17760159774459333,0.17766317652263505
380,0.17760680710002005,0.17750795573678277
381,0.17759125081183527,0.177488721513146
382,0.17760097624943982,0.1775280557096522
383,0.17760764151740133,0.17757144346892034
384,0.17762774613192328,0.17749050846463033
385,0.17757173445966126,0.17758455642020504
386,0.17760636121463433,0.17754477229566204
387,0.1776240439080506,0.17762382607245503
388,0.17761699016169488,0.17757743846363408
389,0.17760328014644025,0.17754438727647184
390,0.1776255185869958,0.1775445413100221
391,0.17763340918661402,0.17750919923692024
392,0.17761648541612687,0.1774800423923777
393,0.1775886524412081,0.1774999864146572
394,0.17760567051424778,0.17755500040801378
395,0.17759622045034032,0.17759001684311157
396,0.17758935857281316,0.17760315448069253
397,0.1776049375819931,0.17763681995558192
398,0.17763402960974153,0.1775859672673217
399,0.177620037806501,0.1775623055405756
400,0.17758751520030885,0.177526907896845
401,0.17760031854958652,0.17787454416644602
402,0.17761459143208466,0.17750576424288203
403,0.177583673952533,0.1775072430567
404,0.17761117085326109,0.17752761562555536
405,0.1776063275172842,0.17749903283442864
406,0.17760312776985787,0.17752022976562934
407,0.1776046340973924,0.17751119643943744
408,0.17759007940904128,0.17758935466467535
409,0.17761485320891884,0.17745573631684047
410,0.17759162410915041,0.17759793595761508
411,0.17763558316597644,0.17752718739652595
412,0.17759164232168076,0.17753844111334552
413,0.17760301103218376,0.17749904364276892
414,0.1775906632046143,0.17761947721501647
415,0.17760022995259456,0.17751976105530806
416,0.17759926291964323,0.17749482767263922
417,0.17760820892884385,0.177596841198587
418,0.17758327035261667,0.17762534994258594
419,0.17761735911730478,0.1774896840434801
420,0.17757548046983976,0.17756760994232632
421,0.1776015847492561,0.1774880352364625
422,0.17762736119717049,0.17748523705242747
423,0.17760848996045586,0.17751323139469927
424,0.17758717761932613,0.17755736835189193
425,0.17760468042678207,0.17751089715778876
426,0.17760712490807906,0.17764116327359908
427,0.1775794524333174,0.17750275112694422
428,0.17760561747874,0.17747875371831745
429,0.17760371224438068,0.17748876085362286
430,0.17762115081961302,0.17763247146273375
431,0.177600644624157,0.17750694009386467
432,0.17759085934367969,0.17746745287525248
433,0.17761883377838286,0.17755358660889123
434,0.1775823298165743,0.1777040319195298
435,0.17760007812989226,0.17756562514764263
436,0.1776079312979365,0.17755244887524357
437,0.17758408527103642,0.17774450014497506
438,0.17760668558587464,0.17760027702765477
439,0.17760101550941368,0.17756567599035758
440,0.17759274666329367,0.17754165021424795
441,0.1776363445486096,0.17776944590019444
442,0.17760348986450145,0.1775327152098458
443,0.17757391893892266,0.17750993602701126
444,0.17763221142389218,0.17754968775005536
445,0.1776017943243805,0.17756031475955328
446,0.17758984539172443,0.17762830019608764
447,0.17760807938641496,0.17788120779637379
448,0.17759863088885658,0.17755714002423337
449,0.1775893484064334,0.17761608069114262
450,0.17761804879926663,0.17775050301954515
451,0.1776068472890831,0.17755824642663126
452,0.17760684541303762,0.17754241927646705
453,0.1776098764831309,0.17750772565673822
454,0.1775882557915936,0.17752984530735694
455,0.17761891714627032,0.17748800621036478
456,0.17756821706497983,0.17766665442072696
457,0.1776260667257934,0.1775164660051665
458,0.17757529035794267,0.1775626865845547
459,0.1775770739411755,0.17754005243812102
460,0.17759854509104356,0.17748198429476866
461,0.17759928952971046,0.1774995208915614
462,0.1775667310523377,0.17759972092149384
463,0.17763074249219743,0.17755320156617907
464,0.17760566072307712,0.1775541444321552
465,0.17761271099130407,0.17766435707800954
466,0.17759144151930234,0.1775138022726506
467,0.1776115023653856,0.17750000123349155
468,0.17762135404000562,0.17764550594476233
469,0.17760169828276365,0.17756966460899
470,0.17759566392591722,0.17752431031983953
471,0.1775985418332757,0.1774921018303899
472,0.17762812332426617,0.17752310119704554
473,0.17758496373081856,0.17753177106192286
474,0.17760311305332335,0.17749720109713388
475,0.17758207614544771,0.1775574094800377
476,0.17760377044348027,0.17761088937121108
477,0.17759538530040797,0.177511576072099
478,0.17760591197618955,0.17753614998042536
479,0.17760859746679508,0.17751495762424574
480,0.17759466529202214,0.17748855600087965
481,0.17759332783835874,0.17751585916213944
482,0.1776045849330896,0.17785517730248096
483,0.17760072408510533,0.1775905820169878
484,0.17761050075364054,0.17751727125591996
485,0.177584757473019,0.1776093439432045
486,0.17760025287608353,0.17770362397819028
487,0.17759872825859452,0.1775539808957334
488,0.17761341625337693,0.17754089927569844
489,0.1776064280673659,0.17754784983824629
490,0.17758749920925457,0.17757078051425945
491,0.17760700334628804,0.17769000488138612
492,0.17760448553245797,0.17754198609606525
493,0.1775976972614261,0.1775259835544118
494,0.1776380227278653,0.177574855693702
495,0.17763268534871315,0.1776351628688347
496,0.1775775659653685,0.17753013821455468
497,0.17761295020794696,0.1775748219514514
498,0.17759550257409504,0.177599418252683
499,0.17762621406980936,0.17756558765363956
500,0.17759999866298826,0.17753167856181806
501,0.1775975379166748,0.17747170321096467
502,0.17760752333844784,0.1775571167257327
503,0.17758678503149897,0.1777108414561709
504,0.17760161044810124,0.1776405955946342
505,0.17760807466950063,0.17758299177475773
506,0.17760517647107252,0.1775173448443695
507,0.1775985861496388,0.1776782065135998
508,0.1775827357928149,0.17757055803180777
509,0.17761346202888648,0.17751157270845883
