epoch,loss,val_loss
0,0.1629412340088259,0.06573486321175959
1,0.05529174073826704,0.048614501850400046
2,0.04871182041980917,0.04821101756160663
3,0.048472224322376585,0.04802934654413542
4,0.04855003065501957,0.050053596611392276
5,0.04839840035638015,0.048086325554154506
6,0.04842991203821307,0.04874950866399987
7,0.048454315864665205,0.04847146459195736
8,0.04838367359186288,0.0479304421049545
9,0.04838850713962073,0.04786533738780292
10,0.04838081417505363,0.04850773359531807
11,0.04836510332842604,0.04781614816222651
12,0.0483355920126526,0.04842444091721076
13,0.04832401358969122,0.0478435165497315
14,0.04832666697020861,0.04798791171727583
15,0.04826580637915312,0.04805531448534322
16,0.04837010578633404,0.047847030525732505
17,0.048256993390697306,0.04796948154900293
18,0.04822824616656244,0.04776533074912653
19,0.048245801455419575,0.04833293349662643
20,0.04821460652914498,0.047917434639038345
21,0.048191918956460335,0.0485226823695288
22,0.04821144068409339,0.04819093954002383
23,0.04824589153645848,0.04802256985435327
24,0.048134340803989706,0.04798182784689217
25,0.04829674361764287,0.04805801488573921
26,0.04816820695578718,0.048739349881952984
27,0.048158558389787866,0.04806168233584507
28,0.04813745881679108,0.04763738649073212
29,0.04814924677018169,0.04782177559844092
30,0.048190290454306825,0.04827039116889311
31,0.048105391629750104,0.04805851753707446
32,0.04816216826021337,0.04763975553063484
33,0.04817266648171471,0.048098296742804726
34,0.04812728981819269,0.047739567121812605
35,0.04812546199958643,0.04755061514379528
36,0.048088851285646494,0.04806573929179034
37,0.04807201959043622,0.04777956620124618
38,0.04809261280580985,0.047589871482523305
39,0.0480930852898366,0.047725193190410284
40,0.04805774720694372,0.047751665864644355
41,0.048130230101241504,0.04764090371465451
42,0.04803266167324528,0.047828170368923756
43,0.048136513569862774,0.047520851285860775
44,0.04806742489075451,0.047740530648660774
45,0.048034927177670196,0.04778509123578656
46,0.04804293653988141,0.04791197614005592
47,0.04803148653951762,0.04789037273748078
48,0.048075817637235,0.048471025134597674
49,0.04802294609825119,0.047796247821582205
50,0.048012918235661034,0.047782866068226675
51,0.04801577133826727,0.047459286129266774
52,0.0480386762439107,0.04760669308071782
53,0.048031445048313984,0.04810827907359126
54,0.04799982227438731,0.047965207450629634
55,0.047991477006716764,0.047785962899332596
56,0.04795522756242246,0.048045783008343786
57,0.048060947774146635,0.04763887075455036
58,0.0479818233896533,0.04782048215227019
59,0.04797625661439138,0.04816486116646754
60,0.047971922385277414,0.047375737681126844
61,0.04796440422004036,0.04888987729427105
62,0.04796093556167986,0.04788384107693075
63,0.0479680383033615,0.047756036325068564
64,0.04796796176788375,0.04775942640570925
65,0.04792836174708877,0.047665823314456755
66,0.047965255532386876,0.04804716288245797
67,0.04798200169057728,0.047643063253053106
68,0.04794420382743172,0.04759055815957372
69,0.047967426838268275,0.048019365506474794
70,0.047945102004168794,0.047677920425774505
71,0.04801917128008399,0.0475174626343055
72,0.047924051738326985,0.04738267965838373
73,0.04791043407385878,0.047473415031436976
74,0.04797155957510941,0.04805689487252792
75,0.04790847088613684,0.04763992734416558
76,0.04796405228300749,0.04751645357008882
77,0.04792111956501742,0.047438687005133914
78,0.04789009120008104,0.04761980286975363
79,0.04794931497493441,0.0475674820195246
80,0.04791348156414097,0.04780268342825618
81,0.04793229557758718,0.04770405657607563
82,0.04796349672709493,0.04770748811227852
83,0.04795002092042859,0.048270849591092374
84,0.04793486084857638,0.04782239384254303
85,0.04790844429758571,0.04779620064967837
86,0.04792634100974608,0.047823610311466216
87,0.04791990069715713,0.0474353036106793
88,0.047972442360044575,0.047775523140361806
89,0.04791126024422405,0.047715139360033396
90,0.047857955828893656,0.0474839156005601
91,0.04789821354238342,0.04763984363541213
92,0.047905846650274496,0.04759891116984086
93,0.047911167387858784,0.0474104799831774
94,0.04787626214552107,0.047573701858472164
95,0.04789137702921422,0.04786595280696876
96,0.047899416250417576,0.04749516343028683
97,0.047909565411621426,0.04803051359026971
98,0.04789710022342072,0.04794181776380307
99,0.04789700761610408,0.048150915057313025
100,0.04789773906596763,0.04806495687206006
101,0.04790768082484042,0.04763902319536302
102,0.047906129494953674,0.04754208966437047
103,0.0478854085474586,0.047643644337913224
104,0.047853527933633545,0.0475140149430927
105,0.0479096492082835,0.047740173380329466
106,0.047903807677203314,0.0474220048560665
107,0.04787550940871048,0.047489842615979334
108,0.04789875448048354,0.04750223718553371
109,0.04788760240939114,0.047385942450719254
110,0.047856339437661884,0.0478171830073857
111,0.04789029853232056,0.047810511317614705
112,0.04789046265238566,0.047983586286638
113,0.04789900493541892,0.04780524945534639
114,0.04784657817044623,0.0477118851512743
115,0.04787096835589342,0.04757608745219934
116,0.04792630494094258,0.04827887303251033
117,0.04782108330817295,0.047521516487352845
118,0.04790676684022618,0.047967077649084415
119,0.047863335249493655,0.04771020185181211
120,0.047860651013789605,0.04778076999270133
121,0.047884822627000084,0.047795226194707725
122,0.04786422216982914,0.0474777204609217
123,0.04788287277754733,0.04757013856542855
124,0.047839962293485624,0.04750785210441016
125,0.047888467080885164,0.04762879138191541
126,0.04783865483440429,0.04758086082709097
127,0.04791077522723507,0.0475561588803202
128,0.0478683385932393,0.04751635573061133
129,0.04785386459369532,0.047565546611872324
130,0.047841403403694485,0.048012221417867935
131,0.04782089906885588,0.04839730704775789
132,0.047870391141697825,0.047891972799515785
133,0.0478532944855879,0.04784323278110586
134,0.047922697805578084,0.0475754450979459
135,0.04781326232664436,0.047777812444549796
136,0.047862502120679815,0.04800614071685129
137,0.047826102503043734,0.04780722001608271
138,0.04791173109526726,0.04774430010162614
139,0.047843719353143264,0.0474022994662385
140,0.04782400906288786,0.047749149686349475
141,0.04783719585383769,0.04750200793364622
142,0.04789362196848572,0.0479048239663908
143,0.047816710928387886,0.047913050090188626
144,0.04786165670347844,0.047568919078204465
145,0.04783796944362436,0.04742921515392851
146,0.04782316845814116,0.04765880528447692
147,0.04783713591513966,0.04747752502065119
148,0.04788394310355807,0.047542991800972434
149,0.04781739880219758,0.04847568134261357
150,0.047830060865577936,0.047528790843288586
151,0.04788403016916984,0.04742395466938313
152,0.04780481387827518,0.04736063892243842
153,0.04783703561565034,0.04781054589966885
154,0.04786153335729726,0.04748917987082223
155,0.047883146258296254,0.04751438805221641
156,0.04787755814240015,0.047576448581780444
157,0.04783479508021481,0.047672284273045484
158,0.04782791150281962,0.048334949090170456
159,0.047815372945190525,0.04796923902746825
160,0.04784016297150365,0.04742095457195075
161,0.04782248235600676,0.04740414300756733
162,0.04786005434695724,0.04758238689392346
163,0.04782472128828494,0.04818299744166404
164,0.04784957041368903,0.047595439652481024
165,0.04785880177103585,0.047591355075608015
166,0.04780540707483112,0.047547041016290176
167,0.04787979332552708,0.04769700590977317
168,0.04781127809505877,0.04783281156398954
169,0.04789712061558226,0.04765763583941278
170,0.04783605854865835,0.04737096926422498
171,0.04781880494269779,0.04733117619968969
172,0.04782692738044395,0.047360458440734235
173,0.047813097056779885,0.04828086546157689
174,0.047821693478809824,0.047989012668965214
175,0.04781280020423371,0.04787368421946612
176,0.04782612722298448,0.04748668390819433
177,0.04781064124639221,0.0474458759936103
178,0.047859886210796544,0.047533125186826966
179,0.04778128219328469,0.047376391069249034
180,0.04784970878928399,0.04771847578501276
181,0.047807223614666154,0.04744543176558283
182,0.04786946831212891,0.047350286062737355
183,0.047859750189978754,0.04740746509637276
184,0.04782349298491155,0.047360770875665106
185,0.04780735879587688,0.04732714093079532
186,0.04780138988015029,0.04747099785884995
187,0.04782565506853706,0.0473694378828867
188,0.047842618115276125,0.04736580839871587
189,0.04782424673282976,0.047538988397963534
190,0.0478395110442101,0.047527870161810835
191,0.047799388993623924,0.047443934815232576
192,0.04781794050384799,0.04774062281409513
193,0.04783765313545879,0.047639119451667655
194,0.04782364916226404,0.047420085410059515
195,0.04780278395595934,0.04750368513608017
196,0.04782767320503656,0.04772115485185254
197,0.04782992834337145,0.047313620414152824
198,0.047839388825458656,0.04771191107724028
199,0.047829649001777504,0.04742502736566711
200,0.04780721809533093,0.04781212714188774
201,0.04784857918671649,0.048271045303281884
202,0.04782009662372814,0.04731018879939557
203,0.04778860492842068,0.04739464811877999
204,0.04780023185770401,0.0481118637032124
205,0.04782969283731915,0.04735908778165282
206,0.04780273689769859,0.04747208425985152
207,0.04783526917038153,0.04759120211512793
208,0.047784410044252636,0.047364867247780065
209,0.04783099888114809,0.04731750801290232
210,0.047861572560832635,0.047419071197509766
211,0.04779557282443615,0.04749199257678649
212,0.04781940723773095,0.047920685865752405
213,0.04776203086684712,0.04756951849342649
214,0.04778391336224335,0.04746727291298222
215,0.04783346974182787,0.04764739022154394
216,0.04781276869585363,0.047371804738373456
217,0.04777928279359356,0.04771418352849292
218,0.047771448949523405,0.04752265258306231
219,0.04781409613996911,0.04736862065752444
220,0.0478223079772259,0.047528995347525756
221,0.0478324417898758,0.047498278023746086
222,0.04781949892490983,0.04742298317530826
223,0.04780530949996365,0.047406903628957824
224,0.047823434082673394,0.047388575832145736
225,0.047793329813427404,0.047485109152754244
226,0.04785061698314474,0.04824047535053618
227,0.0477554189880864,0.04800851720733461
228,0.04784516491341868,0.047700004895358965
229,0.04778920049914081,0.0474792178946835
230,0.04784659919939679,0.0477032629986024
231,0.047775528920863605,0.04759223603576253
232,0.04783067718189988,0.047726104774686834
233,0.04778663190700609,0.04749521223068334
234,0.04780045518125173,0.04763060658022048
235,0.04778902442623273,0.04809707863028225
236,0.047828975137326125,0.047402537957329335
237,0.04780989207530184,0.047637753753597335
238,0.04783965153895539,0.04949931664103816
239,0.04782666178573791,0.04844501079796584
240,0.04781684729369809,0.047452753094015136
241,0.04778795719916244,0.04731084892808762
242,0.04785794420264739,0.04755530937817265
243,0.04778536385129556,0.04751403291693859
244,0.047866729144051705,0.04826168460954231
245,0.0477570272337875,0.04750003820377351
246,0.047808972353621235,0.04749044462349583
247,0.04784155606752257,0.04738304179104382
248,0.04777592133948381,0.04773045855741238
249,0.04784154266214447,0.04860738062111711
250,0.04785541034161186,0.04744344099824349
251,0.047812921856287674,0.04766799843381404
252,0.04781353338699851,0.04798907985410744
253,0.04776814097077776,0.047660833138546514
254,0.04781954069200566,0.04918980127727705
255,0.04777805472286441,0.04741468866086064
256,0.04785776482052427,0.04768037816867631
257,0.047783863275133676,0.04765219272802443
258,0.04779813563923916,0.04752177795257785
259,0.047845403786847075,0.04732851594058073
260,0.047797860890877446,0.04754935291392573
261,0.04777169092040094,0.04801162200566723
262,0.04790432557755943,0.04745806655140302
263,0.04778244136403903,0.04754176752193131
264,0.04778662605063499,0.047508990538623015
265,0.047780908514455475,0.04744917720507918
266,0.04783033491004172,0.047501622570039585
267,0.047788582508078666,0.04768017318404891
268,0.0478478846258765,0.047488174308318004
269,0.04778488974472444,0.0475540902353793
270,0.04781635562994415,0.0475668366650982
271,0.04779322595865704,0.04797495350797584
272,0.047835714039836434,0.04745478074867747
273,0.04778230965757866,0.047528238279710235
274,0.04779981287290231,0.04741434894641144
275,0.04785677286877548,0.04751749286263432
276,0.047817478060805864,0.047615031869621266
277,0.04780257957949459,0.04757412146876618
278,0.047824066903313894,0.047435681215530476
279,0.04776447128543289,0.047335567788220186
280,0.04782729695519034,0.04742120809411964
281,0.04778489201002306,0.04748025229268701
282,0.047825182705306356,0.047529032866305096
283,0.047781529868419784,0.047662165218364486
284,0.047822042482437564,0.047412330059626195
285,0.04782207830666637,0.04764751598710271
286,0.047772701082525966,0.047501010969825036
287,0.04781826315156883,0.0476331036728229
288,0.047829190653870354,0.04755948063375886
289,0.047778890292951355,0.04750682585491268
290,0.0477938112855745,0.04779999184709976
291,0.04782000829945143,0.047541987090481075
292,0.04779987116817764,0.047715800540145584
293,0.047762311838441984,0.04741394913786326
294,0.047832135986492004,0.04744696261818972
295,0.04778294185783455,0.047540213550166785
296,0.04786339595174198,0.047617396259709094
297,0.04779529451930208,0.04753983323821089
298,0.04776959428138691,0.04758483257872828
299,0.047868733517258906,0.047544713175137254
300,0.04775933312137333,0.047910705033541695
301,0.04782202095091582,0.047648256410454115
302,0.04783012513951171,0.048000663129155074
303,0.04777643124493148,0.04768420114738615
304,0.047799313560223655,0.047400923864273935
305,0.04784009873932653,0.047530801723569945
306,0.047791485007318425,0.047292620004045216
307,0.04783252847818635,0.047451929318426296
308,0.04775612361824589,0.047631596510403544
309,0.047901903582607104,0.04792714676995734
310,0.04774732205023567,0.04918720743287316
311,0.04782945792928183,0.04754576676155819
312,0.0477653675324159,0.04751733615269336
313,0.047800043289116426,0.04763676611961916
314,0.047808220571248505,0.047461152393960024
315,0.04779462398941799,0.047883094462890116
316,0.04781094240136534,0.04730568099872716
317,0.04775668974604914,0.04754364305906245
318,0.04783275337953917,0.048087980510592945
319,0.04778827057541419,0.04755155848821101
320,0.04777819471951243,0.04739092448718743
321,0.04782459508922932,0.04752494657634238
322,0.04778869402668684,0.047685538771330395
323,0.04785950854420662,0.04761338663881906
324,0.047783055361375226,0.04739144940566746
325,0.04776867491165526,0.047589687976475566
326,0.04785422087192917,0.047620986140388254
327,0.04776080223687703,0.04739246657609166
328,0.04775779811684803,0.04748260778800221
329,0.04781918679240993,0.04759808829158472
330,0.047772084572333826,0.047307646157339345
331,0.04780662273041146,0.047401153463613475
332,0.04781337721411995,0.04750654273889264
333,0.047814764349376135,0.04736198199080532
334,0.04775670546593907,0.047618371439797066
335,0.04781257777845411,0.04753843190062365
336,0.047771990139654774,0.047471682158119775
337,0.04780095769726247,0.047460918519449544
338,0.04779294888683564,0.047447623904048185
339,0.04786453526571476,0.04758428783433184
340,0.04775813198517904,0.047478940495005104
341,0.047802608184295714,0.047466911556801945
342,0.0478686240283225,0.047476880046911384
343,0.04771854056029009,0.04738962445755558
344,0.047806471629475385,0.04742993831344475
345,0.047777095204107375,0.04774682569436107
346,0.04778303600418224,0.04736172532041868
347,0.04781218578933095,0.04816229095786737
348,0.04782568967585758,0.047354315935550235
349,0.0477704717348918,0.047421544760054724
350,0.047842675814027784,0.04736445686158279
351,0.04774500299438989,0.047404684875665015
352,0.04778914766205703,0.04752018211435131
353,0.047802463816620525,0.048077811368432165
354,0.047801747208265806,0.047356132003996104
355,0.04783396447469608,0.04734104707389949
356,0.04779869963596161,0.04744787663160933
357,0.047780507230002274,0.04778252456817604
358,0.047779384171299406,0.04757122084232529
359,0.04779097460675612,0.04792605616025391
360,0.04779738976543335,0.04736728508203666
361,0.047822465556409,0.04805317916284223
362,0.04776388661170884,0.04735581599786237
363,0.047773050858651855,0.047421890275442594
364,0.047830494199756435,0.047345102065985314
365,0.04775124148810931,0.048226459757013236
366,0.047797178326128384,0.04738880647686276
367,0.04778877019231991,0.04767985861002191
368,0.04780795528076953,0.04735763775545799
369,0.047785747687431504,0.04741268521303195
370,0.047774562801572204,0.04759463892353809
371,0.047785116808475546,0.04734553513929115
372,0.047807110706157833,0.04770146239026233
373,0.047776973857771785,0.048187619128052236
374,0.04781885590818856,0.047340554652761276
375,0.0477735231473171,0.047601356322892974
376,0.047836448627414464,0.04759490088425994
377,0.04777350489518421,0.04752921905528697
378,0.04780333895859621,0.047420647545186656
379,0.04778185582386436,0.047603876178136995
380,0.04776214513692071,0.047569186857992905
381,0.04782241575264807,0.04835729338138063
382,0.04780574448651271,0.04735621418396052
383,0.04774100871814834,0.048168012381373436
384,0.04777012889335354,0.04755071088647514
385,0.047807186258862835,0.047393532815810054
386,0.04779983698737154,0.047972939863184655
387,0.0477654984305867,0.04733478749247943
388,0.04780047604168435,0.047520536587959565
389,0.04777938676915997,0.04753120731492885
390,0.04778647368656005,0.04740137471806104
391,0.047768926579025005,0.0482079616543102
392,0.047846681260174995,0.04790395754181749
393,0.04778047783778991,0.047421027772545525
394,0.04775391187551644,0.047336152915609435
395,0.04775311265609043,0.047434876332269484
396,0.047775771963992436,0.04749333854260139
397,0.04781795693210977,0.04739460843371262
398,0.04775864518045472,0.04768168740729829
399,0.047815810778648785,0.0479893814636408
400,0.047752464962623614,0.04748809091378206
401,0.0478054729101656,0.047477465370686575
402,0.04777026972215208,0.04760425007884713
403,0.047766887514983966,0.047588127327588936
404,0.04779187311158121,0.04752824801743175
405,0.047812698817580004,0.047679614030966794
406,0.04775744440068332,0.0479319861486542
407,0.047741289974583254,0.0473604299647723
408,0.047780189081561196,0.047505874920935526
409,0.0477884662083333,0.047398381599882994
410,0.04779889724188275,0.04774697675442947
411,0.04773390153385669,0.04736989951373017
412,0.04780072417912529,0.04817628609099624
413,0.04777402167556714,0.047395221792336704
414,0.04778286242772571,0.04749131321133585
415,0.04785239118322122,0.047486723415003686
416,0.04771101569012702,0.04748877990214397
417,0.04778805802806651,0.04796754617458519
418,0.04783242889005151,0.04762897361598649
419,0.047727831458155394,0.04755113168414878
420,0.04779503263348193,0.04829377808818852
421,0.04781017438460103,0.047995731572938564
422,0.0477175152255856,0.04768485158971916
423,0.04782853360989506,0.047605443552486894
424,0.04777329650560649,0.047584712583894954
425,0.04778950449207528,0.04748047725429694
426,0.0477781932997861,0.04760474156639678
427,0.04778336271273794,0.047531237232061485
428,0.04780803744444807,0.04742854912157283
429,0.047759618930775134,0.04757288646403117
430,0.04778653340305301,0.04746037359981641
431,0.04775884421654135,0.04743303463998986
432,0.047802126135011974,0.04741479645559484
433,0.047782381134535715,0.04747389792634623
434,0.04779208218268722,0.04749209602383801
435,0.04776308883288748,0.04738557287654254
436,0.04784446444848569,0.04744191673211905
437,0.047747881292664496,0.04751663989200886
438,0.047737014929564885,0.04735184055114798
439,0.047787981622332665,0.047309292382156566
440,0.04778362578116626,0.04751892756468285
441,0.04777191412613523,0.04740329711287851
442,0.047756504846082105,0.0473814485118772
443,0.04777351132869195,0.047602605552013
444,0.04778898330338246,0.047396524272260876
445,0.047766833774166836,0.04744903610631014
446,0.047833724412694276,0.04737696857686364
447,0.047776282207967286,0.04738771458309739
448,0.0477360315513525,0.04751495464077251
449,0.04784099309682083,0.04747345024494746
450,0.04773743597535585,0.047457060952642925
451,0.04778878049726626,0.04739747909467972
452,0.04778006547141829,0.047469916736098294
453,0.047772238056381956,0.04734905844513517
454,0.04777971614865039,0.04740061416968232
455,0.04775546366472641,0.04754002076261719
456,0.04778473033272237,0.04754573326415872
457,0.047789505367473756,0.04853599600113221
458,0.04776757988359949,0.047699306220638005
459,0.04779773187921274,0.04811472296775209
460,0.047799902188899616,0.04785362087244535
461,0.047764149302835936,0.047504975802634464
462,0.04775888166182322,0.04754201503771162
463,0.04780684738420696,0.04760573001311063
464,0.04779566704087538,0.047543245114670084
465,0.047770216835855105,0.04788887521912195
466,0.04779993294416856,0.04759454046166823
467,0.04774517787425064,0.0475724260840151
468,0.04782477151557767,0.047462467143473734
469,0.04774403957585939,0.04767458959024125
470,0.04782717535682351,0.04743741733979038
471,0.04775650729928568,0.04765157909446002
472,0.047754700702008865,0.04810035828159577
473,0.047795752655443335,0.04769902654590398
474,0.047744683065325665,0.047378845739466144
475,0.0478199945152808,0.04736166024718068
476,0.047780897569737496,0.04732264190102532
477,0.04784087049480292,0.04734931073460459
478,0.04771125306478971,0.047916187953871626
479,0.04779605998891034,0.048104724923068685
480,0.047738355734319185,0.04762109559382836
481,0.0478087704199209,0.04759285844626798
482,0.0477915681686828,0.04750778194326554
483,0.04776416659456573,0.04746371983502903
484,0.04779633452848876,0.04741618119101648
485,0.04779724737821673,0.04757249821204049
486,0.047784427243521256,0.04758986605320727
487,0.04772240044869739,0.04733170777716389
488,0.047799379086857136,0.04737166426199679
489,0.047781838466516964,0.04754174601918106
490,0.04775931580429129,0.04747421672720302
491,0.047808662968112814,0.04762823880323045
492,0.047723353180506405,0.04799108226260129
493,0.04775290980970888,0.04757701118219121
494,0.04776805378735256,0.0476591469265297
495,0.047769323402972484,0.0474283046210721
496,0.04775423713451963,0.04767895185381827
497,0.04776351070635504,0.04766399876515941
498,0.047763754159593885,0.04787038319531922
499,0.04775609546531144,0.04754343279618513
500,0.04776456419250266,0.04746900239335456
