epoch,loss,val_loss
0,0.08906483474187553,0.03851285606995225
1,0.036306280378252266,0.03412380331009626
2,0.03390854646079242,0.03376413471624255
3,0.033449420088902115,0.03291496017202735
4,0.03090783986635506,0.02862889890745282
5,0.028087812416255475,0.02867638759687543
6,0.027765125242993235,0.02669108034670353
7,0.027502743242308496,0.026318268328905107
8,0.02750491380877793,0.026603771381080152
9,0.027330034695565702,0.02621945247426629
10,0.02741104540973902,0.02562137284874916
11,0.02731519609503448,0.026241089437156917
12,0.027077737744897603,0.026488087590783835
13,0.027214104367420076,0.026592223212122918
14,0.027088492633774875,0.02762603810802102
15,0.027203951194882392,0.025806141655892133
16,0.027112309439107776,0.025744866024702787
17,0.027106329523026943,0.02673490622639656
18,0.027067575294524433,0.025952432207763197
19,0.026920176165178417,0.02606035929173231
20,0.027004263347014786,0.025879571735858916
21,0.026954014843329786,0.02544424195960164
22,0.02686704358458519,0.026556641235947608
23,0.02689357334189117,0.025862207148224115
24,0.02689145571179688,0.02650787780061364
25,0.02690996927767992,0.02721718518808484
26,0.026880731038749217,0.026603164095431567
27,0.02683264763280749,0.027561752285808323
28,0.026839798318222165,0.02734831828251481
29,0.02679402314685285,0.026603792645037174
30,0.02674352244846523,0.025723581291735173
31,0.0268653629925102,0.026137263271957634
32,0.02679117289185524,0.02789029558375478
33,0.02666597171500325,0.026086519438773395
34,0.026783113468438386,0.025681458577513694
35,0.026708114463835954,0.025531938645988704
36,0.026768454812467098,0.02713062984496355
37,0.02668270304054022,0.026457644749432803
38,0.026704166615381837,0.026647662308067085
39,0.026656456559896468,0.026302791509777306
40,0.026630889346823096,0.025749168489128352
41,0.026660582112148404,0.02577525329589844
42,0.026517458768561483,0.025503931723535062
43,0.02665549826435745,0.025448198333382608
44,0.026744037507101893,0.02574022713303566
45,0.02645512660034001,0.026270380053669214
46,0.026620780715718866,0.025635158509016036
47,0.026615535778924823,0.02641497588902712
48,0.026478727154433727,0.02673858344182372
49,0.02664213390275836,0.025930991355329752
50,0.02648809625953436,0.025321786642074583
51,0.02644759177789092,0.02689167442917824
52,0.026479636445641518,0.02572751608490944
53,0.026534348379820584,0.028560189012438057
54,0.02651609179750085,0.025755340445786715
55,0.026506384765729307,0.0254780213534832
56,0.02658568165451288,0.026215837869793177
57,0.026555427042767407,0.02693186020478606
58,0.026448159666731953,0.02572720140963793
59,0.026427783589810135,0.025465436644852162
60,0.026491035249084235,0.025725386302918197
61,0.026564488084986806,0.029231665782630444
62,0.02661731742694974,0.026336283177137376
63,0.026363158266991378,0.025820560205727816
64,0.026587921380996703,0.02548151233047247
65,0.026549407931044697,0.0254706825427711
66,0.026721727874130012,0.02555485750362277
67,0.026356967320665718,0.025930047068744896
68,0.026479622351005674,0.02570746797695756
69,0.02646656043641269,0.025451033029705285
70,0.026423476992174982,0.025548596695065498
71,0.026460814539343118,0.025601522400975227
72,0.02643104431219399,0.025790706161409615
73,0.02634922946803272,0.025646884858608245
74,0.02650380907021463,0.025465378940105438
75,0.026328201977536082,0.026546776328235863
76,0.026453956130892037,0.025461611665785314
77,0.026479971827939153,0.027824544761329888
78,0.026342317650094628,0.025559103574603795
79,0.026471367970108985,0.02568895386531949
80,0.026414500948041677,0.028028550006449222
81,0.02634695178642869,0.027700714096426965
82,0.02642120449990034,0.02562834982946515
83,0.02655058415606618,0.02567818633466959
84,0.026351702008396385,0.025503991339355707
85,0.02630001298710704,0.0256522674895823
86,0.02641305523365736,0.025481904953718184
87,0.026265092903748153,0.025345137022435665
88,0.026363120516762137,0.026598514441400767
89,0.026440656268969177,0.025490170534700155
90,0.026402401318773628,0.02699112081900239
91,0.02634404489211738,0.02651161617413163
92,0.026431386303156616,0.027871846094727516
93,0.02633962865918875,0.025481306601315735
94,0.02627182157151401,0.02548235488682985
95,0.026316955551505088,0.025706290137022733
96,0.026249549511820076,0.025524440325796604
97,0.02649935463629663,0.025901989914476873
98,0.026306929107755422,0.026066743027418852
99,0.026220732301473617,0.02568766529113054
100,0.02634018615819514,0.026690546117722987
101,0.026334581749513745,0.025395528350025415
102,0.0264228432495147,0.025413450915366412
103,0.02620374312438071,0.02539649859815836
104,0.026345657529309393,0.025408617977052926
105,0.02634213466197252,0.02591476482525468
106,0.026305188171565533,0.027004897385835648
107,0.02629386958293617,0.025460184559226037
108,0.026247521732002496,0.025521383218467236
109,0.02635081428475678,0.02607358345761895
110,0.02624014186114073,0.025195913940668106
111,0.026296603858470918,0.025688555132597685
112,0.026271913655102255,0.025654950235038994
113,0.026304674338549376,0.025839397370815278
114,0.02638564144447446,0.025464930638670922
115,0.026268181465566157,0.025512574937194585
116,0.026274628771468998,0.025459455717355015
117,0.02628720987588167,0.026340838365256785
118,0.026254700796678663,0.025743985000997782
119,0.026274061653763055,0.025670475512742996
120,0.026278089094907045,0.025420861158519985
121,0.026398302651941777,0.025446997430175543
122,0.026434955790638922,0.025403352957218885
123,0.026148929493501782,0.025282323338091373
124,0.026276918897405268,0.02569760772585869
125,0.026237317711114882,0.025674584828317165
126,0.026246432121843098,0.02580304615199566
127,0.02635369578935206,0.025528237983584404
128,0.02629509777203202,0.025720797438174486
129,0.02634211852774024,0.025324010998010637
130,0.02626183138974011,0.025488516479730605
131,0.026253809398040177,0.025622999474406244
132,0.02620713595300913,0.02543849668651819
133,0.026263494122773408,0.02565162229165435
134,0.02639750362932682,0.02550396494194865
135,0.026248634608462454,0.02625004120916128
136,0.02632111714966595,0.025484343741089106
137,0.02623194614611566,0.026438637476414444
138,0.026280232056975366,0.02610016056895256
139,0.02619956529699266,0.025702744528651237
140,0.026330204248428343,0.025392181366682053
141,0.02628247026912868,0.02571585722267628
142,0.026317968007177114,0.026484024066478012
143,0.026188373390585183,0.02607750479504466
144,0.026346106193959714,0.026064199168235064
145,0.026174696495756506,0.029989525597542525
146,0.02633761132322252,0.02601830418407917
147,0.026284568367525935,0.02576678263768554
148,0.026272194255143405,0.026280155967921017
149,0.02628654541261494,0.025391009997576475
150,0.026412725519388915,0.02560330129787326
151,0.026311131456866862,0.026488433942198752
152,0.026279997296631337,0.02699459197744727
153,0.026329522782936692,0.025773701179772616
154,0.02623219114728272,0.025754311449825765
155,0.026296013763174416,0.025705528330057858
156,0.026224654015153646,0.02559712081775069
157,0.02639623167179525,0.025288150247186423
158,0.026209939032793044,0.02561077271401882
159,0.02623476616665721,0.025416041191667318
160,0.026387171858921647,0.025781446043401955
161,0.026205474212765693,0.02560863922536373
162,0.026298168355599047,0.025408391121774912
163,0.02627836567349732,0.0254569256529212
164,0.026326227555051446,0.025388987693935633
165,0.02618313578888774,0.025524919394403697
166,0.02622158625908196,0.02538128235563636
167,0.02633107619173825,0.02654178000614047
168,0.026240841114893557,0.02574935332685709
169,0.026184387700632215,0.02601567303016782
170,0.026241103472188117,0.0260896339379251
171,0.026379114255309106,0.025273907527327538
172,0.026235754370689392,0.026045086562633515
173,0.02625847034715116,0.02529860731959343
174,0.026263187559321523,0.025629129353910686
175,0.026190372848883273,0.025619077540934086
176,0.026278555009514093,0.025804822947829962
177,0.02621989038772881,0.025633672039955854
178,0.026115420198068024,0.02568448295816779
179,0.026250922529026867,0.025384449172765017
180,0.026253390945494174,0.02601023330911994
181,0.026246353086084126,0.025491707805544137
182,0.02621185837686062,0.025850314777344466
183,0.026177003361284732,0.02534455208480358
184,0.026224833194166422,0.025442622877657414
185,0.02620243987813592,0.025262239933013915
186,0.026258374793455004,0.02635508930683136
187,0.026309311378747226,0.025642563343048097
188,0.026238403256982564,0.025493079151958226
189,0.026303254071623088,0.02572017125785351
190,0.026197349581867455,0.025431819200515748
191,0.026152717158198356,0.025500395324081184
192,0.026310273852199317,0.02541698704659939
193,0.026220562539994715,0.02536558610200882
194,0.026197846235707402,0.025446260865777733
195,0.0261627505030483,0.02672334861010313
196,0.026226000148802997,0.025397275034338238
197,0.02629903498850763,0.025477803081274033
198,0.02617022940889001,0.025599725253880025
199,0.026234574863687157,0.025556101955473424
200,0.02629908785969019,0.025531364634633066
201,0.026227466452866794,0.025292843721807002
202,0.026250220581889153,0.02554369082301855
203,0.026304930130019784,0.02531303834170103
204,0.02616516877897084,0.02558806583657861
205,0.026278454026207328,0.025467214863747357
206,0.026280242409557106,0.025230016592890023
207,0.026235674841329455,0.027340717408806087
208,0.02622607784345746,0.025557432800531386
209,0.026169917231425643,0.025271421164274215
210,0.026184972248971462,0.025287986848503353
211,0.02621439937874675,0.02538825146853924
212,0.026258419999852775,0.025362519115209578
213,0.02621881535835564,0.02532201313599944
214,0.0261574122980237,0.025494932755827905
215,0.02621451535448432,0.025328143157064914
216,0.026405281553044915,0.025400975976139308
217,0.02627158604376018,0.025484593406319617
218,0.02606470216996968,0.025634347178041934
219,0.02634481736086309,0.026461548261344434
220,0.026233670610934495,0.0253626351878047
221,0.026204643713310362,0.025576008461415767
222,0.026142971200868486,0.025579438019543887
223,0.0261790105458349,0.025387953884899617
224,0.026212389405816792,0.02552898868173361
225,0.02622354057431221,0.02577157520502806
226,0.026207823088392614,0.02788706538453698
227,0.02615834655612707,0.025381721649318935
228,0.026199668081477286,0.025343947317451238
229,0.026179339844733477,0.026573026061058044
230,0.026261030053719877,0.02545120722800493
231,0.026193004556000234,0.025692131999880075
232,0.026226109318435192,0.025900207184255123
233,0.026184895960614085,0.025283979270607233
234,0.02619597942009568,0.025360538508743046
235,0.02617703339830041,0.025441600084304808
236,0.026139865729957818,0.025599671009927986
237,0.026178765704855323,0.025574906159192324
238,0.026290356669574976,0.025458767175674437
239,0.026113891802728176,0.025458454359322785
240,0.0263043613191694,0.025541821379214524
241,0.026273534651845693,0.025600085407495497
242,0.02616563748382032,0.02549667688831687
243,0.026243801165372133,0.025941285833716392
244,0.026177657105028628,0.025481843151152133
245,0.026292839249596,0.025710982624441384
246,0.026192904941737653,0.02584964570403099
247,0.026160997454077007,0.025453291282057762
248,0.026225082753226162,0.025555651012808083
249,0.026145557278767228,0.025454434342682363
250,0.026290866304188965,0.026492954056710004
251,0.026206108588725328,0.02685220464318991
252,0.026067780509591104,0.025871312208473683
253,0.026261863764375448,0.025384813122451305
254,0.02617062250338495,0.025488781362771988
255,0.026115269782021642,0.025488298412412406
256,0.026269107228145003,0.025726094249635935
257,0.026140017902478576,0.026184535596519707
258,0.02628761362284422,0.025392677936702968
259,0.026138474602252246,0.02534847616031766
260,0.02622299032472074,0.025550832666456698
261,0.026164011223241686,0.025939950190484524
262,0.026233525590971113,0.02597225684300065
263,0.026290754035115244,0.025428622145205738
264,0.026161624141037464,0.02546218219026923
265,0.026259918086230755,0.02532948672771454
266,0.02620870742574334,0.029174736969172953
267,0.026191279750317334,0.025835334520787002
268,0.026272156992927193,0.027719543401151896
269,0.026184089178219436,0.02638136811554432
270,0.026133860608562827,0.02554285401850939
271,0.026161030899733304,0.025496231477707625
272,0.026165323784574868,0.02539329868555069
273,0.026250071845948696,0.02573408294096589
274,0.02622440178319812,0.02536528768390417
275,0.026134344944730402,0.025341760333627464
276,0.026312066677957772,0.025991224437952043
277,0.026143732745200397,0.025346595156937837
278,0.026201592372730374,0.026109354086220265
279,0.02620748875103891,0.025960802759975195
280,0.02629600581154227,0.025434144765138625
281,0.026144715597853065,0.02524680796638131
282,0.026238281153142452,0.02549300218001008
283,0.02619824087060988,0.025540256120264532
284,0.026392215818166732,0.025497027806937696
285,0.026131123153492808,0.02571773635596037
286,0.02613917736336589,0.025354880776256323
287,0.02622855339385569,0.02527703853696585
288,0.026165067456662656,0.02539682388305664
289,0.02621228207461536,0.02605551003664732
290,0.026215876108035444,0.0253708565980196
291,0.02618192100711167,0.026334735367447137
292,0.026191690530627965,0.02622943264245987
293,0.026128545584157108,0.02553293498978019
294,0.02623705312050879,0.025380741018801927
295,0.02614512492157519,0.025312796104699373
296,0.026237736217677592,0.02540163842961192
297,0.026248354777693748,0.02534569104760885
298,0.026191818568855524,0.025556137781590223
299,0.026192866375669838,0.02609172761440277
300,0.026168474923819303,0.025518405947834253
301,0.026137113461270928,0.02537598541378975
302,0.026305102284997703,0.02548617620021105
303,0.02612543286755681,0.025342971429228783
304,0.02614831376262009,0.02534271291643381
305,0.02620625529065728,0.026219342593103646
306,0.026137485463172197,0.025354422315955163
307,0.026272045720368623,0.025287389665842055
308,0.026211283640936018,0.02574912568554282
309,0.02612756171450019,0.0253085407987237
310,0.026263511382043362,0.02532689216732979
311,0.02620738155953586,0.025339117892086507
312,0.026299864867702128,0.025608397770673037
313,0.026123086063191296,0.02533003153279424
314,0.026198577446863054,0.025298698503524064
315,0.026207664523273708,0.025429610978811978
316,0.026287641029804944,0.025277191884815694
317,0.026186451323330404,0.025481757938861847
318,0.02614129871316254,0.0253390142172575
319,0.026198125559836628,0.025303822726011276
320,0.026193904120475054,0.025880537897348403
321,0.026233597211539745,0.025310862950980662
322,0.026266913102939726,0.02548818863555789
323,0.026128877414390444,0.025453920416533948
324,0.02614991674758494,0.025419408466666935
325,0.026140621369704603,0.025307971004396676
326,0.026146042928099633,0.025819791823625565
327,0.026214642280712724,0.025397941574454307
328,0.02614751443453133,0.02594169871881604
329,0.026149250067770483,0.025469044148921968
330,0.02612012436054647,0.02757924207672477
331,0.02632735538110137,0.025668117940425873
332,0.02611509773135185,0.02539296022057533
333,0.02612403278425336,0.02557856385782361
334,0.026331843899562956,0.025628557991236447
335,0.026089009096845986,0.025330082647502423
336,0.026227513451129197,0.025459534604102375
337,0.026222837541252375,0.025419471845030784
338,0.02613726248405874,0.025371009066700936
339,0.026197081711143256,0.02569809427112341
340,0.0262382891420275,0.026273074850440024
341,0.026218177447095512,0.025294216711074114
342,0.026180483030155303,0.025695248804986477
343,0.02621430288814008,0.026243387661874295
344,0.026140848055481912,0.026824933912605046
345,0.026187054878100753,0.025386029202491046
346,0.02619622477889061,0.025322180591523646
347,0.02616619403474033,0.026187114283442496
348,0.026285997863858938,0.025366006039083004
349,0.026119297014549375,0.025456142388284208
350,0.026311764046549797,0.0257690550647676
351,0.026257463278248905,0.025288631346076725
352,0.026186163667589427,0.025230856135487558
353,0.026145634319633244,0.026698709607124328
354,0.026126062911003826,0.025493627961724996
355,0.026169326204806567,0.027047974310815334
356,0.026177433455362917,0.025472389694303273
357,0.026234983207657932,0.025329900924116373
358,0.026173544252291323,0.02545584449917078
359,0.02612160457484424,0.025402219571173192
360,0.026169341046363117,0.02539392714947462
361,0.02608264577947557,0.0278646581992507
362,0.026222633954137563,0.02526894935965538
363,0.02625024993531406,0.025733424730598926
364,0.02612829446978867,0.02547803208604455
365,0.026165100092068315,0.025770295273512604
366,0.026170160070061683,0.02609266671165824
367,0.02620238909497857,0.025389705780893564
368,0.026205443216487764,0.02526715859770775
369,0.026135430213063957,0.02553194337710738
370,0.02615496098436415,0.026656700771301986
371,0.026143218614161013,0.025500214543193577
372,0.02614216244034469,0.025601478677242995
373,0.026216715797781943,0.025266670662909746
374,0.02624202079884708,0.025272209640592336
375,0.02617017030157149,0.025749973721802235
376,0.026096901059150697,0.025552643574774266
377,0.026275041192770004,0.02540715357661247
378,0.026210393445566298,0.026001646541059017
379,0.02621262237802148,0.02528130217641592
380,0.026194357488304378,0.02544844554364681
381,0.026192585298791527,0.02599629195034504
382,0.026191397143527865,0.025424098938703538
383,0.026227692782878877,0.0255414208881557
384,0.026168706713244318,0.0253622390627861
385,0.0261778317168355,0.025261321280151607
386,0.026148935977369548,0.02539697191491723
387,0.026097694108262657,0.02531787734478712
388,0.026346020519733428,0.02537139743939042
389,0.026144100142642856,0.025787858493626116
390,0.026204830966889858,0.025425734631717205
391,0.02618990992195904,0.028946388565003874
392,0.026212326137349008,0.025252333831042053
393,0.02618217584118247,0.02562079319730401
394,0.026154021356254817,0.025858418196439744
395,0.02609671245329082,0.02528062416240573
396,0.026202861435711385,0.025586181867867708
397,0.026132850496098398,0.02537874549627304
398,0.026306600540876388,0.025328082378953697
399,0.026086048260331153,0.02550049238651991
400,0.026140502715483308,0.02533701404556632
401,0.026208846263587476,0.025392480172216892
402,0.02626681375876069,0.028620509807020425
403,0.026170289054512977,0.02598115137591958
404,0.026171387607231734,0.02540603644773364
405,0.026201964251697064,0.02557831221446395
406,0.02615905993245542,0.02557482133060694
407,0.02611238800920546,0.025321465879678727
408,0.026187039678916335,0.025388202104717494
409,0.026175310000777243,0.025694475561380388
410,0.026290174793452026,0.025305986505001783
411,0.026272711731493474,0.025566766999661924
412,0.026118656976148485,0.025726233091205357
413,0.026119246093556286,0.025360951635986565
414,0.026312690835446118,0.025518663194030525
415,0.026111369466409087,0.026232165828347205
416,0.026267981169745325,0.028128624007105828
417,0.02618030847609043,0.02528229996934533
418,0.026107636503875254,0.025575215324759485
419,0.02622313696704805,0.02533938990160823
420,0.026135129740461706,0.025464785281568765
421,0.026156390001997352,0.025990373022854327
422,0.026167219445109368,0.02540009221062064
423,0.02618244316801429,0.025272498976439236
424,0.026211136143654584,0.025378672260791064
425,0.026144832774996758,0.025335708267986774
426,0.026308286720886826,0.02530589923262596
427,0.026136227186769247,0.025536444537341593
428,0.026182571737095713,0.025375030003488064
429,0.02616831200942397,0.025752635188400746
430,0.026139385223388673,0.027492912098765372
431,0.026186144286766647,0.02550600557029247
432,0.026194394178688525,0.025476373981684446
433,0.026160087464377285,0.025403423871845007
434,0.026169294368475676,0.025781450401991604
435,0.026356304068118334,0.025520211070775987
436,0.026136497255414726,0.025843162897974253
437,0.02626843683794141,0.025593059960752725
438,0.026187226708978415,0.02690352610126138
439,0.026102441033348443,0.025666421506553887
440,0.02626515026204288,0.025253785848617552
441,0.02622876092605293,0.025817291285842658
442,0.026233044674620034,0.025381526809185744
443,0.026099345494061708,0.02620585320517421
444,0.02629687017761171,0.025453299582004547
445,0.02608859325759113,0.02539080686122179
446,0.026216367296874522,0.025983888622373344
447,0.026278812546283007,0.025421793971210718
448,0.026158602366223933,0.02592900665849447
449,0.026098579470068217,0.025349341332912445
450,0.026229804215952755,0.02558098888769746
451,0.026174828151240944,0.025435258813202383
452,0.026121730353683235,0.025369281612336637
453,0.026238599510863422,0.025477022852748634
454,0.026156110698357226,0.02542702477052808
455,0.02612198245152831,0.025367651607841255
456,0.02621545362845063,0.025944951958954333
457,0.026194290079176424,0.025447362385690214
458,0.026241547655314206,0.025523706424981356
459,0.026128836633637548,0.025536407817155122
460,0.026167267560958864,0.02529912909120321
461,0.026146932171657682,0.025429905533790587
462,0.026114457350224256,0.025340443696826698
463,0.02628714869916439,0.025393413569778204
464,0.026197668140754103,0.02539524382352829
465,0.02609028726629913,0.025548909343779087
466,0.026186722002923487,0.025606928214430807
467,0.026297428047284483,0.025333781357854603
468,0.026167062187567352,0.0252686556391418
469,0.02615446244738996,0.02537994337826967
470,0.026247720686718823,0.02542915476858616
471,0.026057889787480235,0.025334651954472064
472,0.026339067295193672,0.026281253159046173
473,0.026114105163142085,0.025697128895670177
474,0.026139551242813468,0.025515344817191362
475,0.026247346395626665,0.025324089962989092
476,0.026149193996563555,0.025475194573402405
477,0.02622489824704826,0.025726344175636767
478,0.026212388770654797,0.02547771054506302
479,0.026135202515870332,0.0252905556820333
480,0.02626425664126873,0.02543423694372177
481,0.026187596052885054,0.026088233705610038
482,0.02620001608878374,0.025483940731734038
483,0.026195525331422685,0.025318679917603733
484,0.02613520073145628,0.025287391390651465
485,0.02619228989072144,0.025386643312871455
486,0.02626162402704358,0.025356902547180652
487,0.02619373417645693,0.02571804538369179
488,0.02617028120905161,0.025678969122469426
489,0.026164678033441306,0.025344407957047226
490,0.026130883764475584,0.02529319800063968
491,0.026206212235614656,0.025339502763003112
492,0.026352745696902276,0.025352155946195127
493,0.02610487423837185,0.025361596025526522
494,0.02614505404792726,0.025368168707937
495,0.02621207226999104,0.025312019415199758
496,0.026079164691269398,0.025308626621961594
497,0.026266007605940105,0.025458616565912962
498,0.026144380118697883,0.025318010088056325
499,0.02616501561179757,0.025334417257457973
500,0.02610624114610255,0.02539648162573576
