epoch,loss,val_loss
0,0.3820269708153155,0.337445732167883
1,0.336469210714078,0.3372383362068938
2,0.33509194634134154,0.3338086607424217
3,0.33463372617697923,0.3346782171218152
4,0.33487407889345183,0.33610255542286943
5,0.3334468332983607,0.3311290736262405
6,0.33351007573229136,0.3326305796898719
7,0.3335171083299567,0.328746593506579
8,0.3330686032700596,0.32951085924537704
9,0.30612252226216996,0.25050910720462016
10,0.20429582546631114,0.1861181091914143
11,0.17571204928733367,0.1810097764610021
12,0.15827679043288806,0.13819843866430875
13,0.14703659461342172,0.15765435340937048
14,0.145507616968416,0.13861103688720275
15,0.14338127479290697,0.14240659478149173
16,0.14317846412269428,0.14396556126925544
17,0.134051197876247,0.12277689673177068
18,0.12218211807733435,0.12351534168670379
19,0.126354503718545,0.12859313111772852
20,0.13149061450045363,0.13028046995660125
21,0.12684560691019137,0.13364564393365486
22,0.11668996235652031,0.10644294627322488
23,0.11341335241207116,0.10549530972621529
24,0.11970539934200634,0.11160715145441896
25,0.1155950992727737,0.12822597105153075
26,0.11788866519451523,0.11965156057827475
27,0.11737295997431048,0.11618873819814673
28,0.11835246079628893,0.11577113561961438
29,0.12086848561450256,0.13142185219531935
30,0.12011107417057268,0.11713170475416891
31,0.12394618832593342,0.10545018071862969
32,0.12199864741697682,0.1150390450043667
33,0.12428225581642154,0.12902351445867588
34,0.13141416039743678,0.13273518000918294
35,0.13221540516145605,0.1358197640154243
36,0.13167025252199954,0.1293459147473631
37,0.13330744711055362,0.13452586643956455
38,0.13364846689654863,0.1182308224424567
39,0.13453856841932765,0.12895973263148164
40,0.13389047293616332,0.13089660177596837
41,0.13812572946198742,0.15282315004031868
42,0.13889050585843868,0.13602462830205742
43,0.13841981873166362,0.1364749353305505
44,0.13585104513392268,0.14268296117282045
45,0.1333248877077461,0.1322873727475082
46,0.13545452867099325,0.1340210199497211
47,0.13000990138601343,0.1319168743742858
48,0.1266265417978489,0.13182927150023482
49,0.1251763760042991,0.11998053008562576
50,0.12232888006061006,0.12628675516233165
51,0.12095554499365062,0.12362428337053323
52,0.12565410231872143,0.12385613139021932
53,0.12530219516189073,0.1328579338404167
54,0.1251778410201212,0.138524422741068
55,0.1305593454199348,0.13206714534016228
56,0.13507255270695992,0.13410264824611895
57,0.13624084354054442,0.16851631211500612
58,0.1405497869695548,0.14684605756046834
59,0.14202209796122223,0.15372201900314703
60,0.1402180764666326,0.1483311556109125
61,0.142430785915358,0.14284784486774582
62,0.140885185539651,0.14590127540321546
63,0.13900590227019016,0.13901966432110946
64,0.1422389944364651,0.1424427910898272
65,0.14133889727490984,0.12567159768720265
66,0.1413625140192745,0.14712496739889377
67,0.14284069972227423,0.139350076500788
68,0.14306536344863433,0.14619966131218232
69,0.14374919802391176,0.14471688082746004
70,0.14433140969343133,0.1522709328707693
71,0.14117983690828537,0.1362422325522672
72,0.1412487744951515,0.14842459467704971
73,0.14116479795899609,0.13592239084705746
74,0.14125919226798223,0.12828064271805317
75,0.14299899871817692,0.14107368227855935
76,0.14008034073668038,0.1376035144198289
77,0.1396479112245768,0.1397581170382891
78,0.13851942995385969,0.143719412609876
79,0.14088246875482022,0.13406780811398633
80,0.13876725691292496,0.1342949761752548
81,0.13826974256814337,0.1364026286278358
82,0.1395479139688013,0.14434922475370723
83,0.13887255822571157,0.13590022405843238
84,0.13998381068988097,0.12977177356888012
85,0.14239684116247175,0.14024513421231777
86,0.14580225449898165,0.14640884818222547
87,0.1465254744275106,0.16026586177152446
88,0.1466653311787416,0.15866615318038282
89,0.14889005065667066,0.1473328201386904
90,0.14681885428101324,0.14859635439343402
91,0.14843646795462836,0.1458784181804006
92,0.14465868424514025,0.13976176440621702
93,0.14610542576733254,0.15797476038254427
94,0.14335016780596177,0.14203839597381188
95,0.14286821223289178,0.15289851743213378
96,0.14218005084460206,0.140951746135315
97,0.14182971731173716,0.13324916724412575
98,0.14068492085372897,0.13337439353318317
99,0.1420568152219891,0.13506344380628996
100,0.14217081100796813,0.14046648758057073
101,0.14190396746928743,0.13487392197632847
102,0.14234185800385132,0.13747764918027003
103,0.14347728491305925,0.1562095161500933
104,0.1431810427859104,0.13290021358015222
105,0.1459226550565635,0.1379718865961095
106,0.14585419680229383,0.14274650846255887
107,0.14599460019744176,0.13848652138471038
108,0.1498378419148312,0.14094484822667294
109,0.146777411674162,0.15418296599585707
110,0.14867482024083417,0.15183641496331277
111,0.1487634761317028,0.15608638046925333
112,0.1476165836663555,0.15065728661904865
113,0.14913859617093103,0.14876383799991932
114,0.1486395861057164,0.1598970026671651
115,0.14940287644485775,0.1569801887942753
116,0.14841823077066052,0.15291358147701506
117,0.1484629694702957,0.14273889049381935
118,0.14907145658902507,0.14033624359304359
119,0.1506285024769634,0.14346677414196726
120,0.14840179278279284,0.1380994817464015
121,0.14919981834806983,0.1448522420172251
122,0.1478521986146101,0.14091736313481923
123,0.1479487778197566,0.14446967690830262
124,0.1472639932210068,0.1441051316724674
125,0.14801069993457253,0.16968847665973977
126,0.14696434198869027,0.14436530185409108
127,0.14653597603575122,0.1554075281746574
128,0.14916694863475294,0.14961057234534902
129,0.1463746431884434,0.15158875065472716
130,0.1482454382067771,0.14050681085194203
131,0.14673430080727326,0.14566475474632154
132,0.14743320077812547,0.15173393869574087
133,0.1487029817410939,0.13664536165763003
134,0.14723716858479616,0.14792821714514903
135,0.1469703163061258,0.14544984524821145
136,0.14860883137459854,0.140208959461858
137,0.14682872405798314,0.1522688906060586
138,0.14782390050846134,0.14701333707867406
139,0.14724381530373026,0.15436552960687297
140,0.14828028781212968,0.14447902535818277
141,0.14501582832633259,0.14334045985644506
142,0.14734646873913412,0.1564152474502644
143,0.14662883349126288,0.15080228546706353
144,0.14763161282745196,0.14049023309841624
145,0.1457963030097439,0.14095980124790647
146,0.14600126250244255,0.14057035461926706
147,0.1453934873638155,0.14885480363795206
148,0.1469875717197629,0.1382382012839005
149,0.14572414792746569,0.15045833500615236
150,0.1474953919297738,0.1449219986220091
151,0.1450374139715537,0.15108826369541126
152,0.14293102513876654,0.14490971147378975
153,0.14559723710199055,0.14369504069049432
154,0.14424291300735503,0.15137957326991405
155,0.14267548864229407,0.14221830788967454
156,0.14391800112647118,0.13692781694921435
157,0.14853394908203685,0.15004027604280537
158,0.14667459075852074,0.14144356101868938
159,0.1483641694382512,0.15093511351823055
160,0.1485705267158534,0.1418137975866247
161,0.14795754460110178,0.14169319766120075
162,0.14795144387095763,0.14437319455931483
163,0.14601668885214436,0.15760933453159814
