epoch,loss,val_loss
0,0.019340293326251035,0.008666657529327621
1,0.00943268991545832,0.01003555814335793
2,0.009131054298314034,0.010607812192670022
3,0.008685492695316505,0.009807025351868965
4,0.008561920017680975,0.008783383542214227
5,0.00873172701454287,0.007844565296661173
6,0.008270120583610709,0.00798723930331229
7,0.008235452151600762,0.008443494858890403
8,0.008142374681829467,0.008235388574544016
9,0.008044558835328066,0.007887321208642967
10,0.008002415429954324,0.008482433640613006
11,0.008016985633695267,0.008291283202711169
12,0.007930027830280533,0.00917090893614455
13,0.007831206646980234,0.007556390720731567
14,0.007757284522922417,0.008223231832402072
15,0.0077660169268816736,0.008483303534722061
16,0.00773363357150976,0.007905509030774568
17,0.007714344606822458,0.007394799384896276
18,0.007678236933678603,0.008155963890180546
19,0.0076482837968553435,0.008333372326091708
20,0.007619368627675463,0.007780135956780046
21,0.007605326165800997,0.007757871379387142
22,0.007569902581214456,0.007219796470151498
23,0.007575744671395542,0.008351522575481506
24,0.007525963025226426,0.0075469442398261935
25,0.007486948879584722,0.007325670597312172
26,0.007523372127021629,0.0072657318457628305
27,0.007493537852415854,0.007738013875441945
28,0.007451901309835026,0.00789586238091622
29,0.007462145575977172,0.0077107420796644005
30,0.007478381566100556,0.0076332587314302805
31,0.0074267007763502224,0.007619128423389371
32,0.007419452107328071,0.00750753706963571
33,0.007403072189768973,0.0076929965479387245
34,0.007499770325852484,0.00732448868148454
35,0.007360459440365045,0.007426322265886343
36,0.0073776913982951265,0.007257677466786529
37,0.007371203531017802,0.007267419030201198
38,0.0073821273752779455,0.007616706264133637
39,0.007361238514100198,0.007232552231116123
40,0.007379886068687108,0.0073544079179022805
41,0.007330565697101075,0.007434578617993123
42,0.007356702353136723,0.007448152369281124
