epoch,loss,val_loss
0,0.020727178186759575,0.00966058696109441
1,0.009836473211264386,0.008899955365520257
2,0.00915581366110542,0.00897516149001441
3,0.008791546989519484,0.008691587151668356
4,0.008496919166117705,0.00827191616489411
5,0.008329493530173062,0.008962942074254044
6,0.00828888920476459,0.008522687699858367
7,0.008180477115978151,0.008379164700010426
8,0.008093609468165482,0.00856957492180557
9,0.00803718494914701,0.008195798561466908
10,0.00803526167326012,0.008095182620783894
11,0.00798418757260525,0.00794422941319367
12,0.007935309337244468,0.007477269176088699
13,0.007932861463760156,0.008023855673893361
14,0.007859215977381833,0.00773832352448338
15,0.00786042664445048,0.007919014980392554
16,0.007812299282279676,0.008302660255921687
17,0.007939572927849711,0.0074255519761488985
18,0.007769099335200346,0.007512206711780936
19,0.0077409755897664195,0.007656938967204863
20,0.007748596445448508,0.007745545331582834
21,0.007756093435055615,0.007486293525446585
22,0.007689231939778882,0.007840506465315228
23,0.007678558957855938,0.007693557273457867
24,0.007703772450789088,0.007834978807005781
25,0.007680929283091848,0.007715515125422709
26,0.007613490453955191,0.00849671177612271
27,0.007628805766943379,0.00774566729809562
28,0.007595919850061314,0.007598798543621529
29,0.007594099438297366,0.007206547636511012
30,0.007584352799606843,0.007603245539586094
31,0.007567697741027948,0.007329390481317753
32,0.007552203982549812,0.008981845887243822
33,0.0075426392101025615,0.0072678123536073684
34,0.007472248170159016,0.007588144021094881
35,0.007435304193143581,0.008076433135339846
36,0.007453376323709826,0.007342526271809863
37,0.0074315786275933925,0.00766632300374045
38,0.00743662631259702,0.007999473530568053
39,0.007412393472199239,0.007381656140126011
40,0.007368107139980426,0.007426241011573718
41,0.00738796362928306,0.007182815841979188
42,0.007378094273852514,0.0076615254995563336
43,0.007363837708404616,0.007822583265436198
44,0.0073344405276249474,0.007489033877184018
45,0.007334611881186114,0.007361785903868841
46,0.007331907356980524,0.007187264343543399
47,0.0073121910267520554,0.007407675145503605
48,0.0072858529895915985,0.007230895652063653
49,0.007315620925135532,0.0074403824109038705
50,0.007285785115254457,0.0076853032364849715
51,0.007257041762357415,0.007186270954905462
52,0.00726812177584671,0.0073004814773039986
53,0.007260820046218101,0.0073094710763127865
54,0.007253461003163905,0.007243559803933867
55,0.007245032413986405,0.007600156955476434
56,0.007244589866399592,0.007461127954958095
57,0.007248703212664009,0.007097267530276151
58,0.007249014990826296,0.007080733261207493
59,0.007240370614740717,0.007104545173514865
60,0.007226600378186116,0.007194322679496877
61,0.007250534740446516,0.007269813971728012
62,0.007221856711833186,0.0072319470077900965
63,0.007228141935435414,0.007418508386521349
64,0.007214059713293696,0.00733318549855878
65,0.007221972864241051,0.0074721561449004464
66,0.007195583182537782,0.007534418345680899
67,0.007194769434800765,0.0073346534817856236
68,0.007216265260603024,0.007356879571522066
69,0.007196437284529657,0.007384293388214803
70,0.007208268780252059,0.0071778832724498165
71,0.007187549319398344,0.007220059543589208
72,0.007182105133296082,0.007309327980332428
73,0.007211129326440932,0.006997234772696684
74,0.007185961252304438,0.007167626955724384
75,0.007160736921821396,0.007134634173398944
76,0.0071935479554308904,0.007136018311942259
77,0.007162775183858363,0.007248354619068484
78,0.007157263196028127,0.007176209250164609
79,0.00715819144065688,0.0072549613793530775
80,0.007162641933008458,0.007114601076324066
81,0.007175483103554656,0.0070605842664689935
82,0.007157405235964441,0.007257305277932074
83,0.007151691556993766,0.007205030464893091
84,0.007149465666206707,0.007110243671511302
85,0.00715860223385509,0.007015921414896809
86,0.007127097109711688,0.007196900003102074
87,0.007142255195282397,0.007039353988426865
88,0.0071440293186590806,0.007196189114412584
89,0.00713097135416705,0.006968792680669437
90,0.0071221199951674195,0.007007414768114871
91,0.007128186600603225,0.007200986828664249
92,0.007118282479112104,0.006989042929121786
93,0.007114870340794126,0.007512343107785096
94,0.007104001997090711,0.007163612655001154
95,0.007119089641921155,0.00704739957946184
96,0.007105496596145193,0.007169443300506909
97,0.007098227629686992,0.007346680237641258
98,0.007102133777637969,0.007119409049452091
99,0.007097872874292954,0.007082010401879661
100,0.007103898229260343,0.007789231198042557
101,0.007087217035608862,0.0070714558245933085
102,0.007068494329788153,0.0069292849082287136
103,0.00708184876319212,0.007112244972797392
104,0.007068482587082596,0.006914688888983454
105,0.007060031796040656,0.006996992106547131
106,0.007046600508156494,0.0070143698615301635
107,0.007056414529750376,0.007035306692770486
108,0.007060494708557629,0.007228951497932448
109,0.0070602010269576795,0.007118104601385206
110,0.007059943053427036,0.007388360448477434
111,0.007056018299152011,0.007052321230562834
112,0.0070300800536129155,0.007078414369448465
113,0.0070498297868808475,0.007152964135460907
114,0.0070484555012319166,0.007091597715859525
115,0.0070272872028204455,0.006876775147462675
116,0.007023793861021569,0.0071034843065121926
117,0.007020124096238851,0.006955892994546934
118,0.007030305947807053,0.006948477522500099
119,0.007012349482867745,0.007356637375886845
120,0.007027897063658369,0.006922058970494099
121,0.00702879641259329,0.0070254622900826165
122,0.007007904787361662,0.006891202969388764
123,0.00699907991265131,0.0068950012280021055
124,0.007020596437310712,0.0069405977616534935
125,0.007000937344774165,0.0070813969452461
126,0.007015222055173343,0.007040070925397849
127,0.007005805642297603,0.006850610599245312
128,0.0070008920451337005,0.006915531382334439
129,0.0070134517183628835,0.007245987155486277
130,0.007004092395791453,0.0070789636720535775
131,0.007008187355469767,0.006888649274800759
132,0.007006611168682631,0.007055869070401706
133,0.00701877508812926,0.007140295802114101
134,0.006987021704196135,0.007353887819308353
135,0.0070094911924069555,0.007170934494464628
136,0.006991228525771987,0.006828586661046551
137,0.006986555545466393,0.006844227758950321
138,0.006992007074634439,0.007045758773501103
139,0.006998401896259006,0.007172040257455028
140,0.00698609812543666,0.007025348553410905
141,0.006988621917567482,0.006938021173400264
142,0.006973444080935155,0.006831885327263816
143,0.006985747999329994,0.006886624426999252
144,0.006972024217321916,0.006965159320921889
145,0.006942121304318809,0.0069579602062018134
146,0.00698555365431821,0.0068236273426849105
147,0.0069639401398775645,0.006865314986769378
148,0.00695399602388653,0.00708770158518078
149,0.006949751320317234,0.007243783115212882
150,0.00696976806389426,0.00698586437902032
151,0.0069477623115582945,0.006998844275588433
152,0.006943876768587746,0.006887482448940907
153,0.006930793240307275,0.006801930895865555
154,0.006937058453113888,0.007037119777230707
155,0.006935355314072514,0.006829139427108593
156,0.006940256044235034,0.0069532117806375025
157,0.006930057599364463,0.00691841160439454
158,0.006929691034682841,0.006843396660088383
159,0.006931281509058441,0.007086126465655438
160,0.006924123451852192,0.006928907025134001
161,0.006936088306136521,0.007072946011659599
162,0.006934997672436345,0.00682323354136929
163,0.006931830908688971,0.006838164668040299
164,0.006923873603658361,0.006937188755896488
165,0.006915208628299032,0.006815208744017347
166,0.006929517524644197,0.0068329070775628685
167,0.006913376504754055,0.006964525396914843
168,0.00692807568522125,0.006912363835474102
169,0.006902534542681329,0.006829320284175148
170,0.006951934976283096,0.0069328286544080115
171,0.00690504964418752,0.006911080897723327
172,0.006912586999838768,0.006879928015246433
173,0.006907818847797475,0.006988392085086545
