epoch,loss,val_loss
0,0.01971667067321913,0.009688663039883373
1,0.009477843547947404,0.009591387852878488
2,0.008897733011111004,0.009321604216143156
3,0.010268968978756203,0.008415537821152074
4,0.008357591626828476,0.008414792593004686
5,0.00831219407405362,0.007956199702476302
6,0.008241023216417523,0.009275148807107367
7,0.008195534415772431,0.009607688779884917
8,0.00808913835951256,0.00839061106626804
9,0.00802030460023426,0.00813309217112199
10,0.007969177827637198,0.00769952991353371
11,0.007921102094392875,0.007816781161616443
12,0.007875172246955848,0.007421015754397542
13,0.007849662387282498,0.007795225742917794
14,0.007709845280202349,0.008031531078070772
15,0.007678431883635309,0.007381946425284109
16,0.007659607212992741,0.007563843078005402
17,0.007582569547275905,0.007585327373008722
18,0.007527989471652859,0.007156377025734328
19,0.007479763502128549,0.007761899369627829
20,0.007463526329151173,0.008151100013432817
21,0.007470941015613948,0.007499128999535189
22,0.007442815792544643,0.007675728281825855
23,0.007420383413423572,0.007845390780318168
24,0.007394794543353357,0.007207295926468026
25,0.007307766876965684,0.007340994908499807
26,0.0072655978550629444,0.007580161507405507
27,0.007251583207103089,0.007202388654248073
28,0.007216660793113117,0.007120218688377154
29,0.007254512340766737,0.006889252316798303
30,0.0071899794207505524,0.006960189289346374
31,0.0071730129643847755,0.006929521834611819
32,0.007190309790692869,0.007037402494872918
33,0.00715678044794632,0.007187164326662905
34,0.0071601719103139855,0.006947225937273159
35,0.007168745225461646,0.006940926702013678
36,0.007162726526367455,0.007547940487601325
37,0.007140890910258247,0.006986390025338745
38,0.007136890208365765,0.007489863880182022
39,0.0071382162065550675,0.007378431196987777
40,0.007108577012586477,0.007114975418313118
41,0.007102302194231656,0.006960447846678439
42,0.0071244722268114236,0.007070029369340493
43,0.007098933156245763,0.007334909890373943
44,0.007103824408120242,0.006956593494252221
45,0.007077672669554551,0.007161439321103226
46,0.0070777280868775825,0.006963157436577026
47,0.007079021691135849,0.0069002881091522516
48,0.007070836289472058,0.006913252527740029
49,0.007072368849261058,0.006771947213081139
50,0.0070644383213105556,0.007023753789218868
51,0.007089047245980548,0.007645733794544086
52,0.007073033752654684,0.006772083845497953
53,0.0070553360038414555,0.007533178010738222
54,0.007053643262485833,0.0069153314680508145
55,0.007072102788547003,0.007101340358499114
56,0.007030368153686646,0.006981231244488922
57,0.007026802384403662,0.0073818438540839085
58,0.007014932546683905,0.006999885588745695
59,0.007036678135036676,0.007216717055524993
60,0.007041593384475117,0.006961557850075271
61,0.007004938545316975,0.007222461250030595
62,0.007023539044023794,0.006852505201238113
63,0.007026033305922479,0.007092269869618321
64,0.007001761681604854,0.006909135714053146
65,0.0070156117717273475,0.0070020006158419195
66,0.007013639181711732,0.007023163008787866
67,0.007029611561061103,0.007171641357437183
68,0.007005525282846725,0.007030389325984433
69,0.006986053872386285,0.007085646886757526
