epoch,loss,val_loss
0,0.024330924908955314,0.009357127133137536
1,0.009651118124484916,0.010502292680329928
2,0.009216724977102237,0.0091650930744025
3,0.00901631108407623,0.009422003716766538
4,0.008837224925588784,0.008864591600692301
5,0.008747847356609231,0.009554233433443027
6,0.008662669857674592,0.008380077098480081
7,0.008637895519356472,0.008292414705562532
8,0.008559298774618734,0.009107806947701622
9,0.008504458049186786,0.008345529414417577
10,0.00852590407267429,0.008757918696416076
11,0.008468204708637173,0.008405946971612888
12,0.010214519064204777,0.007705727320802271
13,0.008074054348228001,0.00834039048460444
14,0.008060014240247585,0.0077942712685421444
15,0.008082047977735499,0.007918947002395212
16,0.008028241349136324,0.008139660868507165
17,0.00803886424156176,0.008713610452731549
18,0.008014721518273695,0.008538231513377455
19,0.007981102517170309,0.007879298761320618
20,0.007966718542237489,0.008823637896570985
21,0.007918794438121827,0.008230108772369828
22,0.007929218288076098,0.008913278341681579
23,0.007897020574735084,0.007925957851296767
24,0.007871105904250029,0.008417476414617327
25,0.007889141819185345,0.007792168523811229
26,0.007794085631319066,0.007821075909911995
27,0.007831725727488838,0.007650272279201311
28,0.007795783948013536,0.0075483968187927755
29,0.007789979426094143,0.007844818687117278
30,0.007790166815293144,0.008114329279023719
31,0.007795924808300473,0.007771617341463087
32,0.007763081273695006,0.007527782970452427
33,0.007759301319046969,0.007707314136398785
34,0.007776241543431387,0.007622176603813917
35,0.007721166664953161,0.007931957438717557
36,0.0077310005732439645,0.0075393944266933955
37,0.007722686560543568,0.008120175525453636
38,0.007693998953898574,0.007759289677132374
39,0.00773368276778879,0.007530684933694953
40,0.0076726732827372785,0.008117936521990424
41,0.007646811086857958,0.007626868475912596
42,0.007639992874387802,0.007452558474638326
43,0.007643955902901075,0.007461053289926007
44,0.007647673723594623,0.007434001196148082
45,0.007595362738748066,0.007668080396728391
46,0.007601533856859069,0.007705612937751094
47,0.007606649261503239,0.007714350591355903
48,0.007599984672257713,0.007481922121445831
49,0.00759259239057926,0.007746815399518676
50,0.007607245434249777,0.0075038079047580215
51,0.007580075228174852,0.007531934333433658
52,0.007588760560748614,0.00736130317141563
53,0.007547191090038666,0.007626257919089374
54,0.007495338486439769,0.007358849092985205
55,0.00749399208317635,0.0072400733879386045
56,0.0075029673807245475,0.007526361003111373
57,0.007500439053830153,0.007603217367655956
58,0.007473989059083605,0.007595379225373564
59,0.007512994497097733,0.0076047043172785865
60,0.00746403854067972,0.008014429676538292
61,0.007475711153234329,0.007493668209724406
62,0.007482328123173087,0.008069081041296347
63,0.007456571882976019,0.007382552376104791
64,0.007491045294743437,0.00747325404803673
65,0.007475149130072995,0.007748247801370124
66,0.0074659304083379875,0.007344559786226554
67,0.007457156531978442,0.007646575602922339
68,0.007454185563145989,0.007424355948819934
69,0.00744117664870397,0.0074631772216677515
70,0.007438539994139527,0.007366883943767909
71,0.007462472265142517,0.008153568690286824
72,0.007448839019722017,0.007517952300035036
73,0.00745281411611677,0.007562787212875138
74,0.0074402867336608525,0.007510379237578095
75,0.007446117417275783,0.007412058888719632
