epoch,loss,val_loss
0,0.01981134111675573,0.008696277602286848
1,0.009522775888573988,0.009045174275120494
2,0.008934587488552082,0.008785687422578596
3,0.00856399172137301,0.008205767159602112
4,0.008213295576743744,0.008936732870159166
5,0.008112725102814865,0.008254459204970312
6,0.007971185328149057,0.008300260129493312
7,0.007826095626790895,0.008407893379406065
8,0.007783995679735481,0.007636272538887804
9,0.007637776163483717,0.007408463327958256
10,0.007614588886090693,0.007180071986342778
11,0.007585442079868936,0.007838195322714653
12,0.007508340927301848,0.0071504890509689265
13,0.0074826990114218676,0.00691662189174009
14,0.00741998719006024,0.007894736619448988
15,0.007425290136455384,0.007945375995382333
16,0.007420313439570976,0.007265027681545865
17,0.007350676262876719,0.007509406443879415
18,0.007322821288687506,0.007761296643771546
19,0.00732162670104282,0.0070787915056363376
20,0.007302839888969196,0.007006628068843417
21,0.007270291757772188,0.00714096143083744
22,0.007226246367137727,0.007081692667664133
23,0.007131566898766024,0.007145440259084069
24,0.007121171475423989,0.007584096433100275
25,0.007115880725957683,0.007213436993342771
26,0.007140532502941091,0.006810548649199547
27,0.007102404283639064,0.008461267746541252
28,0.0070845329224490635,0.006920406545417628
29,0.007068040857806397,0.0068885573017279204
30,0.007041943479096446,0.006989579768643412
31,0.007008645928279419,0.007184714284348799
32,0.007028474222663438,0.007056263115525097
33,0.007019506119160291,0.006792286400759486
34,0.0069391085924810315,0.006717496978179101
35,0.006943445888367238,0.0066648827743238164
36,0.006925343754080915,0.006733964539130701
37,0.006925527087291899,0.006964273943517256
38,0.006944912282001832,0.006904598088616103
39,0.006901338237763895,0.0068622902123530215
40,0.006891051681903043,0.006854579375164755
41,0.006922405185718146,0.006723995628551795
42,0.006889679974498902,0.006915874632477538
43,0.006890537503147989,0.006561744281740179
44,0.006876887289140123,0.006901361800674765
45,0.006862871075307063,0.006718460068097408
46,0.0068690544796200645,0.006837914117540304
47,0.006856197983818931,0.006684577801535207
48,0.006832349788771455,0.006603574643036346
49,0.006851937065652575,0.006737968598540974
50,0.006819388039850478,0.006746346765560637
51,0.006850005670258807,0.007116591325838572
52,0.006805980242819113,0.00707416068300346
53,0.006833221938658667,0.006676373703326688
54,0.006836309339785076,0.006872440916636298
55,0.0068196472779835935,0.006953994897205762
56,0.00680977734620931,0.006724847828225225
57,0.006795624353446168,0.006569416735959112
58,0.006780051134369062,0.006902046438778009
59,0.006773903241531518,0.006689065370810387
60,0.006777514179056533,0.006903903113294476
61,0.006747277084209945,0.0068907115707825635
62,0.0067646670246386134,0.006818781253736161
63,0.00675961703591164,0.006807210846866479
