epoch,loss,val_loss
0,0.6712824202974093,0.6672459104516666
1,0.6668553748450242,0.6668767860746265
2,0.666822743249232,0.6667463656690517
3,0.6667781263371748,0.666699138941895
4,0.6667643380863055,0.6667084193702962
5,0.6667558070177991,0.6669073169639625
6,0.6667454550672701,0.6666930538549021
7,0.6667396897454699,0.6668488650404786
8,0.6667362394907594,0.6667306583513397
9,0.5984465429089677,0.5555896922317392
10,0.5556315384767043,0.5555866249146
11,0.5556319342033955,0.5556066732844407
12,0.5556305474450638,0.5555939722297801
13,0.5556319448257556,0.5556125604780968
14,0.5556180110826312,0.5556328785034919
15,0.4751208640967406,0.44451270822259986
16,0.4445348239817767,0.44448450262434136
17,0.4445231153304242,0.4445261715067823
18,0.44452333290698004,0.44451619644023055
19,0.44452380423456794,0.44450587365526717
20,0.44451696340196956,0.44492099335412527
21,0.4445193355888954,0.4445238167387676
22,0.4445137253988304,0.4446425523710606
23,0.44451975406341876,0.44460765564116295
24,0.444521420027873,0.44449827472861886
25,0.44450787955463456,0.4444921339563933
26,0.4445108061335426,0.444492612213414
27,0.44450795907521834,0.44448698815281873
28,0.44450589332712964,0.4446806245642915
29,0.44450874363345383,0.4445036301541861
30,0.4445071472211619,0.444551603862133
31,0.44450343022578603,0.4444853577513257
32,0.4445059703561997,0.4444840206106011
33,0.4445032050220507,0.44453032135076026
34,0.4445025613871776,0.44448594468698904
35,0.44450417123794606,0.444572030595751
36,0.44450388459080753,0.4445189083924069
37,0.44450166862814394,0.44448324876742684
38,0.4445062127015654,0.44450518873430067
39,0.4445010059513534,0.44460664595622873
40,0.4445018215574709,0.4445413167068444
41,0.44450208268207425,0.4444809388729834
42,0.4445005376015918,0.44448214353757814
43,0.4444994421720937,0.444486860986383
44,0.4445026104021987,0.4445280663872475
45,0.44449980446824744,0.44449502016711173
46,0.444499867574106,0.44450352935873844
47,0.4444989885162287,0.44452560016002607
48,0.44449818222104437,0.44448450330469214
49,0.4444965387247827,0.44455707271400813
50,0.4444995895129676,0.4445335767996814
51,0.44449879480054155,0.4446047855074293
52,0.44449680307174905,0.4444842162558222
53,0.4444954677962873,0.4444829928076297
54,0.44449757456817346,0.44448828861376194
55,0.44449544886165054,0.4444906782423592
56,0.4444930758460607,0.4444809098397532
57,0.44449281468517127,0.4445192234096101
58,0.4444941414199905,0.4444929529360447
59,0.4444928148314989,0.4445639902101853
60,0.44449527839588465,0.44448055336552283
61,0.4444967893875525,0.4444890315272376
62,0.4444916224597526,0.44465694758791485
63,0.4444941722477895,0.4445362128779551
64,0.44449237683584497,0.444557195413793
65,0.44449211813176087,0.444500506752478
66,0.4444926194608503,0.4445797983825059
67,0.44449170574699093,0.4444914923116528
68,0.4444924474797455,0.44449097321879477
69,0.4444908745855764,0.44457581887765796
70,0.4444909859621967,0.4444752631500992
71,0.4444888878891131,0.44450439396626307
72,0.4444914695643452,0.4444770267968142
73,0.44448882376645504,0.44447578129638216
74,0.4444887021338854,0.44453230835959573
75,0.444491156132152,0.4444764588074412
76,0.44449020723655663,0.44447829809141515
77,0.44448780493217155,0.44449306785616627
78,0.4444899210654759,0.44448569067950283
79,0.44448986394879514,0.44450538041573895
80,0.44448806008061276,0.44447593848699374
81,0.444489041156453,0.4444858603530723
82,0.4444881723568916,0.44449035887682703
83,0.44448919608585385,0.44450281348181125
84,0.44448743292238785,0.4444767577476596
85,0.4444883158849645,0.44447911917127986
86,0.44448837755397264,0.44447343546166906
87,0.44448936631142155,0.44447757938955323
88,0.44448766243194165,0.4445254019413042
89,0.44448891182137074,0.4445846478637336
90,0.4444873605627861,0.4444863373381328
91,0.44448687864044717,0.44447526307614804
92,0.44448749145462074,0.444482488874762
93,0.44448621319802506,0.4445003062264795
94,0.44448699087689014,0.444478009578312
95,0.4444883301521051,0.4444767731147132
96,0.4444866121912537,0.4444801899103018
97,0.4444856577770165,0.44447611607333865
98,0.44448732320388434,0.44447692014443374
99,0.44448707838238705,0.44453337216199773
100,0.444487054091607,0.44464609117129306
101,0.4444861344441822,0.44447570912003814
102,0.44448675176453667,0.44451275058183126
103,0.4444872985072522,0.44447726886858124
104,0.44448745679075036,0.44451593696035757
105,0.4444845862285022,0.4444907558023486
106,0.44448781655713215,0.4444776155220959
