epoch,loss,val_loss
0,0.3380431141963895,0.3335060782527214
1,0.3336827605097014,0.33339911372430864
2,0.33363444129616493,0.33345461610529026
3,0.3335325813405786,0.33340125915134516
4,0.3335350545976904,0.3334071289368954
5,0.3335005521653601,0.3336268055675639
6,0.3334934447045043,0.3334306419635233
7,0.3334835483598235,0.33337415530723025
8,0.3334657867968826,0.33337565218248677
9,0.3334602455507934,0.3334161736533305
10,0.3334622427544478,0.3333930857424109
11,0.3334646539702246,0.3334741518603957
12,0.3334405144251314,0.333401363111903
13,0.3334423401272885,0.33357020748164457
14,0.3334409967308408,0.3333815124874967
15,0.3334374889954054,0.33338237864799597
16,0.33343088416757194,0.33342664354196555
17,0.3334395755709241,0.3333850957323836
18,0.3334334791467854,0.33349275673293594
19,0.3334317640249265,0.333491829207754
20,0.33342195693772997,0.333473593292402
21,0.3334192839942907,0.33340504561405326
22,0.33342247394517355,0.33339772703629866
23,0.2928194975020279,0.22238760369439278
24,0.2223215531364782,0.22235912872898964
25,0.22231250125403798,0.22226786403443027
26,0.22231029595317583,0.22245939006432705
27,0.22231057996424786,0.22227283493608754
28,0.22230613537586216,0.2224801942890986
29,0.22230485850504036,0.22229386171691176
30,0.22230502437726266,0.22227481589571713
31,0.22230009443020535,0.22232214548155924
32,0.2222998550719347,0.222275733008574
33,0.22230203336371498,0.2224854121728807
34,0.22229662329166366,0.2222646177332691
35,0.22230260937175814,0.2222901250011572
36,0.22230107835785665,0.2222818400294846
37,0.2222908486561693,0.22232618845130314
38,0.2222968195834664,0.22229612803192944
39,0.22229911493892363,0.22229544908621768
40,0.22229543504588312,0.22311850670105765
41,0.22229555653823857,0.22233311656686863
42,0.22229541207796794,0.22231981407471982
43,0.2222979021292313,0.2222639403922978
44,0.2222981807506349,0.2222891679029015
45,0.222293409396888,0.222294591289596
46,0.2222967674513908,0.22227047849677634
47,0.2222935330362365,0.22239356180722306
48,0.2222949352066929,0.22226980683525502
49,0.22229170945543553,0.22227160780512664
50,0.22229423743947316,0.2223015228882617
51,0.22228838854192073,0.22228408422570667
52,0.2222880939988095,0.22235462073208972
53,0.2222911047934066,0.2222690826831917
54,0.2222888388503934,0.22240368197336977
55,0.2222885445096166,0.22227875395093308
56,0.2222907943139944,0.2222989882118353
57,0.22228946982536338,0.22234074934096845
58,0.22228851433910868,0.22226603485958157
59,0.22228668505429128,0.22227161939327533
60,0.22228396109910958,0.22226371410171092
61,0.22228312244520798,0.22226332807659216
62,0.22228490978467946,0.22226370266146458
63,0.22228729701929134,0.22227228920601733
64,0.2222832275317125,0.22227350564363874
65,0.2222829636828911,0.22226143820262131
66,0.22228264889746321,0.22226071161016933
67,0.22228232096049497,0.2222609819756548
68,0.2222818666976267,0.22227645807763188
69,0.22228171209835046,0.2222596843988073
70,0.2222803064385127,0.2222648403410876
71,0.22228130256085576,0.22229134308788973
72,0.22227833413599413,0.22227444219086365
73,0.2222833196177373,0.22233837053882277
74,0.222280397804929,0.22232143752480263
75,0.22228090137902337,0.2222610420609822
76,0.22227829710130073,0.2222655710452248
77,0.22227966702465907,0.22229685316754333
78,0.22227929398072163,0.22226409172597653
79,0.2222810151118734,0.2222796573384524
80,0.22227854001955288,0.22231560510677972
81,0.222280323942018,0.22229669963011967
82,0.22227817352091714,0.22226185391913572
83,0.22227944246539635,0.22225885593122052
84,0.22227932953675664,0.22226000005938576
85,0.22227863502128378,0.2222665707245654
86,0.22227937829323932,0.22230464961037744
87,0.22227652274968773,0.22226327063871673
88,0.22227965264589933,0.2222833921314765
89,0.22227818190734375,0.2222643669352638
90,0.22227776119333723,0.2222879062293481
91,0.2222776883326324,0.22228368877181345
92,0.22227672950135186,0.22226242780981229
93,0.22227628856376333,0.22225880987443047
94,0.22227752399152556,0.2222720120739996
95,0.22227569437737238,0.22226278449110595
96,0.22227624569154433,0.22226372307938322
97,0.2222737693804843,0.22226070726923552
98,0.22227500937220906,0.22227143684480682
99,0.22227452826591285,0.22226920618164925
100,0.22227570984175687,0.22233316308215592
101,0.22227596610836198,0.22227928199927802
102,0.22227494763989752,0.2222576512518355
103,0.22227515608340087,0.22225678573471144
104,0.22227629572849233,0.22226529894188676
105,0.22227752682302424,0.22226773802163288
106,0.22227474840497694,0.2223827716434564
107,0.2222744240895188,0.22228422965068675
108,0.22227446636577813,0.22230365530728702
109,0.2222754064237372,0.22225842351653144
110,0.2222747612908794,0.22225892109699344
111,0.222274816583395,0.22225944510760437
112,0.22227520089100977,0.22227850147423614
113,0.22227528860002432,0.2222920088481075
114,0.22227535172875892,0.22226379553674172
115,0.2222747173624195,0.2222619418692648
116,0.22227343289814058,0.22226036633954155
117,0.22227086846984742,0.22227905939885464
118,0.22227500450119517,0.22225816847372884
119,0.22227421024609226,0.22228106575331677
120,0.22227203725819533,0.22225713113845133
121,0.22227280246706765,0.22225838930671918
122,0.2222732227671366,0.22225799679608263
123,0.22227362779509788,0.2222972312872818
