epoch,loss,val_loss
0,0.019963645797037084,0.012801372464607578
1,0.01026196988001386,0.010161041100012605
2,0.010152810107269705,0.008916336028991502
3,0.00942971994194829,0.011196649844571024
4,0.009376064640368916,0.009590401232852682
5,0.009285906965201401,0.009161396979102426
6,0.009171990387320817,0.00933809350602902
7,0.009156641949977527,0.010264624260070158
8,0.009083774287947639,0.00944906204809474
9,0.00895545054725308,0.009409705209534236
10,0.008984717998665829,0.008915438502564767
11,0.008930176303440045,0.008752610929606126
12,0.008884084307709069,0.00887339082650526
13,0.008876074277021999,0.008551615350891283
14,0.008802242021901163,0.0094984937944535
15,0.008808283823134583,0.008854818738830593
16,0.008743774530641837,0.008706467041731916
17,0.008555730026418636,0.008686899952590466
18,0.008498679156547059,0.008313496345215044
19,0.00838998535664036,0.00819422724904035
20,0.008348865806780337,0.009007610874735835
21,0.008305293077112207,0.008620082894363267
22,0.008232619240515179,0.008272350563323379
23,0.00819142336636609,0.008471206071146443
24,0.008157482250961752,0.008148426077243117
25,0.008129188938040011,0.00818464946182024
26,0.008138625915259205,0.008109546463853373
27,0.008091621303557443,0.00807256358479226
28,0.008079176235030619,0.008303875024557558
29,0.008107826592870836,0.008370601878531517
30,0.008119052555322078,0.008268670464586235
31,0.008050063630370445,0.008300939063650207
32,0.008080548939328676,0.007912080176636836
33,0.008060668346019581,0.007920658297457781
34,0.00804455877493341,0.007986043159741326
35,0.008036140958424684,0.008250947625239936
36,0.00801863226108709,0.007839820032971668
37,0.008021735744768122,0.007999249033990406
38,0.00801922780023822,0.007780530709061522
39,0.0080018374900217,0.007939434818757083
40,0.008002195922254731,0.00777843590922857
41,0.007996154129260868,0.007802251727082224
42,0.007986472139512384,0.008707080102957804
43,0.007997835228868612,0.007729622384269835
44,0.00798411709530773,0.008004545171747432
45,0.00798281398887472,0.007863948692708615
46,0.007976669402851053,0.008009089397788787
47,0.00798727359657943,0.007922872837179944
48,0.007981569223519351,0.007939154399147549
49,0.007981534333674382,0.007968601081797635
50,0.007944219870971363,0.007970275578294736
51,0.0079459375160573,0.008012400038780705
52,0.007964279796407098,0.007973820329978877
53,0.007900230109602039,0.007825909576450404
54,0.007854596803396468,0.007781700024533805
55,0.00783789159837037,0.00800146234358104
56,0.007849304882742198,0.008369551591168414
57,0.007818971483223951,0.007680906558053443
58,0.00783498170850869,0.007584491769827107
59,0.007745152869259225,0.007817542695535102
60,0.007725683516185887,0.00789704644895406
61,0.00771937345735198,0.007636571508686685
62,0.007720578688963197,0.00770227450174892
63,0.007710531939458204,0.00764565611808161
64,0.007710042670269559,0.007904254963099216
65,0.007710783331931068,0.007648970087569568
66,0.007693806623714147,0.007845827311314365
67,0.007673089286090036,0.0077914196711320145
68,0.0076838646728407236,0.007707127698329705
69,0.0076974177788848635,0.007622674623129903
70,0.007672493438205121,0.0077245622388001705
71,0.007691188403348983,0.007848851100331353
72,0.007668186547811362,0.007788776072024116
73,0.00767444091153147,0.007555593289989544
74,0.007664323430584546,0.0075715873020680315
75,0.007648311384444061,0.007605452791420239
76,0.007666939220280495,0.007821787951084284
77,0.007662363114248282,0.00766152304507071
78,0.007675798599869184,0.00771868597813154
79,0.007663159739570278,0.007527400534969775
80,0.007656915367129186,0.007901408747023447
81,0.007666811281362458,0.007713730976207381
82,0.007646720687434038,0.00779721620411753
83,0.007662672396675355,0.007507881460937836
84,0.007655030753645627,0.00757131956647111
85,0.007645249142073645,0.0077124412640670395
86,0.007634743579899775,0.00760029091663825
87,0.007636860490594268,0.0076312767651403515
88,0.007633977782709565,0.007553746198620601
89,0.00764434964631192,0.007865885536304257
90,0.007638810614839285,0.00760204300524727
91,0.0076388786196350455,0.007686605304017404
92,0.0076401571842003345,0.007580148555319895
93,0.007640358478775903,0.007804813426884617
94,0.007647119880180756,0.007523174487775372
95,0.0076489587141451675,0.007682821109761523
96,0.007624221283469805,0.00756625833160824
97,0.007649491899720956,0.007675930732172491
98,0.0076181528639264326,0.007727413922871831
99,0.007623160663578081,0.008016828837441673
100,0.007617272178468626,0.0077582747980527045
101,0.007623585180235527,0.007492960134645919
102,0.007647108914606519,0.007584639207434566
103,0.00762294686064062,0.007626610405040586
104,0.007636904280386817,0.007606802873831085
105,0.007631456213792315,0.007722216080088474
106,0.007627645330843642,0.007658035062234988
107,0.007619615891588119,0.007740827372052682
108,0.007628018023555332,0.0077041459651132375
109,0.007605031726593225,0.007490248554305314
110,0.007609278366507639,0.007474811102446196
111,0.007610129559486132,0.007703121148151514
112,0.007622407186343086,0.0075982755609318876
113,0.007611994078564453,0.007503506225110875
114,0.007616121425998759,0.0074616532271298075
115,0.007617626581170198,0.007630878915229151
116,0.007605176028709989,0.007529898839205429
117,0.007615622232686257,0.007499463457808306
118,0.007595308093829548,0.0077455818029143675
119,0.007615995780364421,0.00784494076201475
120,0.007609170738275499,0.007683542218734106
121,0.007590902223909458,0.007477172612496848
122,0.007597605870114139,0.007584951882465527
123,0.007608716576901068,0.007511565559277907
124,0.007595204264649302,0.007645849492077348
125,0.007612398007324529,0.00749840611249911
126,0.007603717532527147,0.0076083031582366446
127,0.007610472072846386,0.007750042784663273
128,0.007597275128350274,0.007555368846795399
129,0.007596143877173144,0.007554029378457637
130,0.007602399096297279,0.007533572784280658
131,0.007588315305157858,0.007733918636316253
132,0.00760444748416393,0.007695082651344925
133,0.007595347415761012,0.007659812317352289
134,0.00759240548379182,0.007585937161895241
