epoch,loss,val_loss
0,0.6689947059913963,0.666754025916012
1,0.666869017747994,0.6667114573140298
2,0.6668087936482952,0.6672296333845437
3,0.6667848480271397,0.6671616665778621
4,0.6667692171147022,0.6667117231241231
5,0.6667542331454831,0.6667163851539195
6,0.6667503067154413,0.6666935985200754
7,0.6667415279067734,0.6667706420344691
8,0.6667371545866457,0.6667344261339817
9,0.6667271994924099,0.6666867071286621
10,0.6667374635438168,0.6666975527188322
11,0.6667173254139817,0.666696375090786
12,0.6667209512507974,0.6666980671527664
13,0.6667209603475639,0.666713493515185
14,0.6667161435040689,0.6667371374205975
15,0.6667124159557498,0.6667079194899528
16,0.6667127165166339,0.6666895102330532
17,0.666711071876177,0.6666921315654631
18,0.666709134996973,0.6667128593690934
19,0.6667095438923617,0.6667402526580962
20,0.6667065700149226,0.6666954870259496
21,0.6667099941412779,0.6667226104227544
22,0.6667057668316653,0.666697892184293
23,0.6667053386289187,0.6667137584674447
24,0.6667066389514045,0.6666852754635492
25,0.6667019554861305,0.66670555979679
26,0.6667068216305968,0.6666917216393256
27,0.6667021733659908,0.6666846101396433
28,0.6667046680547749,0.6667335081041303
29,0.66670442673883,0.6666986931938096
30,0.666701241103626,0.6666909386443145
31,0.6667021529739939,0.6666946171531014
32,0.6667006425076857,0.6666924261869331
33,0.6667040455376205,0.6667031555554411
34,0.666701519001477,0.6666864215588155
35,0.6666998338894023,0.6666875852248805
36,0.6667015075753011,0.6667012750362936
37,0.6667003899256969,0.6667133871142386
38,0.6667000089477259,0.666697632763581
39,0.6667021278624382,0.6667296659266091
40,0.6667004983935133,0.6666885460280899
41,0.6666996351173267,0.666686647257793
42,0.6667008368623236,0.6666899117879181
43,0.6667021683403666,0.6667123689249195
44,0.6666976122266665,0.6666905121531144
45,0.6667002667083715,0.6666948079175452
46,0.6666990802508643,0.6666902404860883
47,0.6667029251602485,0.6667016528676225
