epoch,loss,val_loss
0,0.020593450745933425,0.013863825328444724
1,0.009906938269364028,0.009243020220259874
2,0.009444022802174193,0.009741364619590657
3,0.009012680405765932,0.008800668851068017
4,0.008929259319185404,0.009359594406305856
5,0.00871566381738868,0.009180127402707454
6,0.008609503377100052,0.008046084158030101
7,0.008408955916694513,0.008052961013416203
8,0.008430403307128782,0.008421074377636312
9,0.00843482148867209,0.007999546503504882
10,0.008275275788068305,0.010063041471610442
11,0.008210398488176528,0.00824529261954554
12,0.008217714478259143,0.00799815731987394
13,0.007997977065496794,0.00835867908878007
14,0.00789842069828716,0.008104240451072789
15,0.007822476591356254,0.009020280849105371
16,0.007794670891037798,0.007794648141278966
17,0.007723476960982188,0.008691809743772221
18,0.007690776716426954,0.00786369300930398
19,0.007649438369724767,0.007459366544572724
20,0.0076442773786702806,0.0077143977384635295
21,0.007613546782522655,0.007665718105568484
22,0.007571675663430405,0.007439743021674103
23,0.007574102771111947,0.007420327296947353
24,0.00753557484440829,0.007770756437967788
25,0.007528341958204546,0.007496272914675492
26,0.007496292142243365,0.007334349716715422
27,0.007487254219818403,0.007203362968105536
28,0.007467116102505952,0.007462468036166196
29,0.0074599743088780614,0.007695667755561269
30,0.007510870647488636,0.007163846708612318
31,0.007444427991777828,0.007509530762039476
32,0.007424044286966635,0.007589071176983138
33,0.00743434084656136,0.007147822033142482
34,0.007407959346312631,0.007492971187341894
35,0.007412665766757264,0.007147300667441439
36,0.007394697362835929,0.007291735702473902
37,0.007395885760250215,0.007293765509394794
38,0.0073951669626189966,0.007444053511632139
39,0.007366894767607036,0.007496113710974346
40,0.007387476348175567,0.007162724555962287
41,0.007381109655756529,0.007241431041793995
42,0.007353522400059219,0.007299563298163654
43,0.007363863419753224,0.007319411003116343
44,0.007359495107950991,0.007452351892501042
45,0.007343839506387614,0.0072968865102318765
46,0.007422329228540684,0.008525528570650972
47,0.007294983080634144,0.007196390748754254
48,0.007314018846678598,0.007365584844681746
49,0.007322104193951409,0.007134680008566557
50,0.007337524573766579,0.007225401742989313
51,0.007293449772869652,0.0076080663859955135
52,0.0072874847644584136,0.007244669869727
53,0.007276957306312875,0.007155669752332768
54,0.007290170789799304,0.007283198246940342
55,0.007243357137908732,0.007493864034508209
56,0.007267312400202107,0.007222217481315284
57,0.007253404126903187,0.00708443962069917
58,0.007263568649839431,0.007478841086826461
59,0.007255855966165621,0.007326007339521022
60,0.007227000564061328,0.007347879561112625
61,0.007232775646907539,0.007720021782419818
62,0.007225863518016937,0.00726242595035629
63,0.007235112140955176,0.0070571330886694695
64,0.007228937398086326,0.007119409887642408
65,0.007226678527472275,0.007298627389460876
66,0.007204001255631354,0.007223755379135792
67,0.007215853261496087,0.007083402139137016
68,0.0072431284974463234,0.007740613262148264
69,0.007224619219549238,0.0071840158404860984
70,0.007207800160144266,0.0074183396546738615
71,0.007188324499961462,0.007066428940049916
72,0.007203322192729076,0.007026065681730548
73,0.007202613458320467,0.007646836899220943
74,0.007183149554989743,0.00707765573580234
75,0.007181949366621965,0.007012367289670496
76,0.007192676468837235,0.007107265945986172
77,0.0071960301976035914,0.007023910363493649
78,0.00718955981727234,0.00732357701513149
79,0.0071959088062920895,0.007122856074431102
80,0.007192427915899246,0.007054508850671739
81,0.007177905339211609,0.007055832110530242
82,0.007190686957305108,0.00708378635753621
83,0.00718908475184684,0.0074801620253114485
84,0.007188903987313025,0.00751276889413817
85,0.007190046930920242,0.007513939684243046
86,0.007176132330085519,0.007142077234317144
87,0.007179360699032167,0.007154776440660652
88,0.007167552528798295,0.007264622612844773
89,0.007178109215381407,0.007280164502708995
90,0.007186572669377072,0.007177905556248968
91,0.007168129517946474,0.007273764264014163
92,0.007170800907264875,0.0070831409766438135
93,0.007161827124919997,0.007070980278114158
94,0.007145459727321031,0.007251812603380115
95,0.007162595107644909,0.006985318908010316
96,0.007143505748023484,0.007146298092681332
97,0.007143204688809543,0.0070631503152936035
98,0.007124283107847843,0.00696183652281946
99,0.007130353836784263,0.007213381076088318
100,0.007113850458533909,0.0071189577645037515
101,0.007119463274139511,0.007084578098659923
102,0.007097901372885759,0.007283503409687698
103,0.007089859330411757,0.006993796275443312
104,0.007096099905933256,0.007192502309459611
105,0.007075172524723335,0.006966302124667848
106,0.007082755422166807,0.007122034564263028
107,0.00706549619160614,0.007026219952195217
108,0.007071813307105743,0.007108121773657891
109,0.007052934727496681,0.00690497474204148
110,0.007060678538853609,0.007007729687101714
111,0.007049391232231263,0.0072289753788458205
112,0.007041364662720269,0.006971230276076877
113,0.007151948317565529,0.007160271790165168
114,0.007036051580659743,0.006981549691408873
115,0.007037725937025406,0.006855119756716431
116,0.007037362424313781,0.006994350449119697
117,0.007023544926598886,0.007108039799014629
118,0.0070312195701931575,0.006926360352440892
119,0.007040487022120681,0.006960959004113455
120,0.007036454088703323,0.006990864957745185
121,0.007020369031043917,0.007420639348477495
122,0.007028608368519009,0.006916107917227609
123,0.007040084204381932,0.0068599681238234785
124,0.007026760939963633,0.007016665738528922
125,0.007044052076879418,0.006968240861875691
126,0.007019476167373455,0.0068858163620786695
127,0.007022912427002812,0.006944014168074054
128,0.007031048514821362,0.006916928736183321
129,0.0070122753448282555,0.006979520485803448
130,0.007034280244958647,0.007149575096751487
131,0.007002229229479478,0.007208464223494009
132,0.007019976137552278,0.006868338031883793
133,0.0070285752166227115,0.006841431773514961
134,0.006991326966584147,0.006919559290535545
135,0.006993031326349427,0.007114955072265775
136,0.006976045782098496,0.007012197780642409
137,0.006969009090739391,0.007119111081229398
138,0.0069757913691101585,0.006894235800785329
139,0.006941978094833815,0.007066902740125916
140,0.006955409492204861,0.006753092672832995
141,0.006969780915840119,0.006798692177241626
142,0.006959151174340211,0.0070011915019701785
143,0.00694984663061553,0.006785762223135449
144,0.006959452401155486,0.006804595636689189
145,0.006973285185102973,0.00701599566233587
146,0.00695212736407663,0.00690023223025997
147,0.006949951875113729,0.006791721622022817
148,0.006941972597595118,0.0070741998651076485
149,0.0069523799721275285,0.006791637633596697
150,0.006932235925378663,0.006987706970691533
151,0.0069401716154699625,0.007253918242606129
152,0.006929408966469932,0.006797517885548749
153,0.0069453285689876154,0.007041063714569097
154,0.006923898298916181,0.0068994760751336
155,0.006924424490568927,0.006821970228410832
156,0.0069256285971940924,0.006845037983476228
157,0.0069416484916756125,0.006878509087067458
158,0.006930858146900314,0.0070147447593084935
159,0.006935265330471965,0.007206711591343873
160,0.006927227104712213,0.00712484657745947
