epoch,loss,val_loss
0,0.117123545426317,0.11184938024202588
1,0.11171209363705636,0.11168576948548073
2,0.11154978505652673,0.11148924517720273
3,0.1114368689519743,0.11117453835812159
4,0.1113969455007285,0.11122282862515366
5,0.11135388130392576,0.1113453251922101
6,0.1113271958513372,0.11125443999657855
7,0.11129786523773862,0.11154920733892
8,0.11130420556931998,0.1120237792137243
9,0.11128793399056697,0.11144796190575394
10,0.11126999722613032,0.11122017585240286
11,0.11126796357348746,0.11117038019833435
12,0.1112564737723525,0.11120702095570102
13,0.11125292859410371,0.11115787393106125
14,0.11125121979342076,0.11145356536725023
15,0.11124305464484607,0.11117913044489938
16,0.11123100552549701,0.11119898123199827
17,0.11123539128366997,0.11136235130336089
18,0.11122098636342667,0.11124454874628531
19,0.11122139516267682,0.11121993953033948
20,0.1112207346941121,0.11115958968329961
21,0.11121820838199575,0.11117932049571433
22,0.11121333325070605,0.11127440497537996
23,0.11121091352978398,0.11120865105029668
24,0.1112102049946654,0.1111717952244335
25,0.11121467360671417,0.11124507875803387
26,0.11120206527100844,0.11116662449931389
27,0.11120925686738864,0.11116584390032085
28,0.11120617044389147,0.1111928685575206
29,0.11120205924574172,0.11123732008945854
30,0.11120295111438558,0.11129858279346533
31,0.1111960130039912,0.1112041366085521
32,0.11120150067770321,0.11125894230663333
33,0.1111967272428304,0.11116003194088972
