epoch,loss,val_loss
0,0.6689001306844309,0.6668630190877701
1,0.6668725038462673,0.666960444107245
2,0.6668164550668833,0.6667090155054854
3,0.6667892287456867,0.6667073444752184
4,0.666772703504842,0.6666932776015686
5,0.6667582027741217,0.6667647913726921
6,0.6667524376779262,0.666701638077388
7,0.6667429930683139,0.6667531111104317
8,0.6667358827195582,0.6667412845727527
9,0.6667318307735456,0.666690827066786
10,0.6667280108297838,0.6669379141727098
11,0.6667254295560653,0.6667039436678732
12,0.6667207384352141,0.6667669757719963
13,0.6667183180855959,0.6668205938327402
14,0.6667182451497552,0.6667334236223112
15,0.6667204822656349,0.6667474558868124
16,0.6667108107551234,0.6666868471330212
17,0.6667133636617923,0.6666989388300231
18,0.6667140487677284,0.666705720803282
19,0.6667134744101111,0.6667439590316848
20,0.6667078876671744,0.6666965677187993
21,0.666709559273722,0.6667301155201555
22,0.6667084776696207,0.6666856489761296
23,0.6667099121914977,0.6666860555596742
24,0.6667086646100627,0.666685307883743
25,0.6667063906764175,0.6667824995724794
26,0.6667065462696172,0.6666927339421312
27,0.6667071077141177,0.6666852384288021
28,0.6667045590142692,0.6667360083341007
29,0.6667066816853814,0.6667304892989601
30,0.6667032436614515,0.6666939423042847
31,0.6667054045481329,0.6666963340626757
32,0.6667047060218632,0.6666873420438458
33,0.666701926155133,0.6666944268915257
34,0.6667037312456047,0.6666903357056175
35,0.6667024350202923,0.6667653893122898
36,0.666702131444507,0.6667401051994589
37,0.6667008054661739,0.6666895020984243
38,0.666700626346963,0.6667043756314602
39,0.6667009330330979,0.666739465107693
40,0.6667012653230171,0.6667229831366622
41,0.666700372348239,0.6667163641517866
42,0.6666999823350301,0.666689003490041
43,0.6666994284885226,0.6667098132019895
44,0.6666987013057034,0.6666843068806764
45,0.6666987216984891,0.6667134731934029
46,0.6666982821673811,0.6667044030525549
47,0.6666997198201171,0.6667062386093897
48,0.666697774678727,0.666735405040438
49,0.666698720904928,0.6667090068384081
50,0.5846947838268355,0.5555913525242959
51,0.5555992627094637,0.5555840276015308
52,0.5555996867945274,0.5556665737634853
53,0.5555981195152372,0.5555945160962807
54,0.5556005766345024,0.5555868861397206
55,0.5555981650503429,0.55565188259404
56,0.555599596592027,0.5555822967891362
57,0.555596123515729,0.555588985761401
58,0.5555966532659027,0.555595704136652
59,0.555594919893321,0.5557295978808817
60,0.5555948796015562,0.5555882960336084
61,0.5555957491426161,0.5556049871089737
62,0.555596172689699,0.5555802366573817
63,0.5555934260121248,0.5555876648159832
64,0.5555961465077034,0.555647949397416
65,0.5555935270704784,0.5555901083993556
66,0.5555947912196711,0.5555847327407477
67,0.5555954901024912,0.5555815378726269
68,0.5555929640120355,0.5555829558419826
69,0.5555944927318275,0.5555830607639057
70,0.5555939817739072,0.5555813912126621
71,0.5555949556887654,0.5555962596578574
72,0.5555943388740497,0.5555888959550976
73,0.5555943588771544,0.5556149139297807
74,0.5555942638446592,0.5556670064961644
75,0.555594807806361,0.555652840350461
76,0.5555923814024867,0.5555877071752146
77,0.5555939595265865,0.5555858101205849
78,0.5555925788067343,0.5556083723569922
79,0.5555945478646055,0.5555872993788707
80,0.5555941252483398,0.5556215800955041
81,0.5555925852632928,0.5556173570990267
82,0.5555940719030465,0.5555899965260224
