epoch,loss,val_loss
0,0.5592793582792395,0.5556254099379698
1,0.5558064931781045,0.5558171024097698
2,0.5557495813812694,0.5556988481552371
3,0.5557063786787639,0.5558922440183369
4,0.5556988660489438,0.5556191174327292
5,0.5556779810297844,0.5558418553165407
6,0.5556627672796547,0.5556021743909301
7,0.5556512896855369,0.5558946831646392
8,0.5556453635753147,0.5559618857303269
9,0.5556419636872824,0.5555969593542681
10,0.5556298223163532,0.5557228903320823
11,0.5556262957953695,0.5556091940432565
12,0.555624741807045,0.5556083957255626
13,0.5556216369659879,0.5555930290565302
14,0.5556202027075795,0.5556091319538523
15,0.5556166392607607,0.5556134107390941
16,0.5556153010161498,0.5555902268691335
17,0.555616333657687,0.5555927533961408
18,0.5556140801176163,0.5556729962453061
19,0.5556101543123263,0.555586190170449
20,0.5556112855968253,0.5555830470089876
21,0.5556087133465121,0.5555921205515897
22,0.5556132182944511,0.5555906970802666
23,0.5556081976185477,0.5556194246850593
24,0.5556083232954394,0.5556354480996617
25,0.5556090355346979,0.5555909818514405
26,0.5556053711794029,0.5555789609405006
27,0.5556062922790603,0.5555865323868934
28,0.555603871962573,0.5557981644019891
29,0.5556096588556682,0.5556151416106496
30,0.5556019166468773,0.5556011806054979
31,0.5556059199647889,0.5555862339791234
32,0.5556049632298192,0.5555954439468479
33,0.5556023503635328,0.5555986614440275
34,0.5556023518441633,0.5556341151149929
35,0.5556026283402665,0.5555817304710596
36,0.5556000463999883,0.5556001051779716
37,0.5556034889289156,0.5556007960594026
38,0.5556014200408965,0.5555880837050029
39,0.5556026828995664,0.5555929765216174
40,0.5556017400195746,0.5555826616642197
41,0.5556006274918317,0.5555807213037837
42,0.5556005285025745,0.5556631992235964
43,0.5556022415557313,0.555608311273324
44,0.5556001824215724,0.5555848858196741
45,0.5555993217272204,0.5555854240363053
46,0.5555992665084601,0.5556397771421201
