epoch,loss,val_loss
0,0.8898773258540246,0.888920933141306
1,0.888949980558892,0.8889973031675845
2,0.8889414730937019,0.8889272823227251
3,0.8889340377927065,0.8889118870493792
4,0.8889261645382595,0.8889221642212596
5,0.8889203919111216,0.8889241917553374
6,0.8889182608169023,0.8889311151232376
7,0.8889153839219417,0.8889223148745875
8,0.8889128669732156,0.8889154845668423
9,0.8889112391190219,0.8889052333370332
10,0.8889116027348852,0.8888991605850958
11,0.8889082197309308,0.8889105148705891
12,0.8889081046401132,0.8889005925164329
13,0.8889070934168382,0.8889025439399644
14,0.8889059069474986,0.8889163498842982
15,0.8889060103186963,0.8889009054777935
16,0.8889047329866072,0.8889017063985687
17,0.8889059138197696,0.8888969580233836
18,0.888903759646016,0.8889369100554113
19,0.8889024461516775,0.8888969541187618
20,0.8889023568373976,0.888899927813717
21,0.8889022657663974,0.8888961511569342
22,0.8889021792201156,0.888906731558201
23,0.8889012831200003,0.8888949642110403
24,0.8889019964115554,0.888895703397377
25,0.8889010312392797,0.8888944425890523
26,0.8889012778451063,0.8889010563677653
27,0.8889019934542386,0.8888962527066839
28,0.8889014854757222,0.8888951247146645
29,0.8889015917269316,0.888901119433325
30,0.8889013060401914,0.8889001641912436
31,0.8889013418837541,0.8889073515352481
32,0.8889005620182574,0.888895313763441
33,0.8889008773736137,0.8889057220951203
34,0.8889005220238807,0.8888977497742134
35,0.8889007088523092,0.8889068146201576
36,0.8889010105491059,0.8888967565508101
37,0.8889006982567693,0.8888946311941218
38,0.8889000310209464,0.8888965782693243
39,0.8889000112623786,0.888897899451386
40,0.8888999589520279,0.8889111603164199
41,0.8888997863154069,0.8888972895316983
42,0.8888994772596323,0.8888950597855353
43,0.8889010981334855,0.8889008216171643
44,0.8889004582928759,0.8889352927728563
45,0.8888997287301622,0.8888967090149967
