epoch,loss,val_loss
0,0.1569951058482285,0.061773983057479546
1,0.05620727609458873,0.048554486344438326
2,0.04831642532895366,0.04775854093687875
3,0.048041597635542554,0.04844768940461557
4,0.04801159495447608,0.04868741119140796
5,0.04809885004536806,0.04952134708296905
6,0.048016384194830626,0.04749586636343149
7,0.04790105947332798,0.048494836596306046
8,0.04782078596953151,0.048226733889721846
9,0.0478692157439691,0.0474567311774019
10,0.04791490035019904,0.04780616685336466
11,0.047851563512468984,0.048279652714541134
12,0.04790254355483442,0.04836824059121799
13,0.04785209027477067,0.04811686002770652
14,0.047870788033858094,0.04786542643393789
15,0.047760427312301595,0.0478969242485518
16,0.04775948019372188,0.04764558887954481
17,0.04777034890534971,0.047974126526663975
18,0.047765530084522605,0.04766561934502462
19,0.04775799895755107,0.04917957074499168
20,0.04776268848608867,0.04785466389091069
21,0.04777351074921284,0.04822737251679636
22,0.047710791481830044,0.04804320425830117
23,0.047721705800718925,0.04789273301470252
24,0.04771706902032657,0.04745670086935739
25,0.047656838476157586,0.04766341222666245
26,0.04768737791170129,0.04822135414419536
27,0.04765518239403752,0.04927076578387239
28,0.04763381271589574,0.047742744726911715
29,0.047670991561240814,0.04800211833150441
30,0.047649004433354694,0.04765768455901575
31,0.04763555722675926,0.047626864297378696
32,0.047617132774741056,0.047860363005839096
33,0.04766930155694294,0.04803026562237608
34,0.04753824075211962,0.04763546560162527
35,0.047664412515435954,0.0475041329149148
36,0.047610678648253045,0.04858067279480156
37,0.047556373115768914,0.047489719052270535
38,0.0475894600438843,0.04810418249729024
39,0.04757809415638304,0.04732500590037057
40,0.0475626992244872,0.04777353342795993
41,0.04755069936761896,0.04824012497935412
42,0.04755345751627458,0.04741039090652398
43,0.047572103505440465,0.04801520287414282
44,0.04749634564012217,0.04823166562425121
45,0.04757821847566312,0.04730605757144745
46,0.04748753083499072,0.04822899021602279
47,0.04756880112492638,0.048345541250733946
48,0.04749213101760708,0.047466420242893666
49,0.04750671609045028,0.04765523777541064
50,0.04749223136817284,0.04901964666105766
51,0.0475112156738504,0.04785879164487241
52,0.04751464792882367,0.04747995758324791
53,0.04747710130411944,0.04741049325056874
54,0.04744038431288051,0.047787983076324966
55,0.047504199656853666,0.047410984583134336
56,0.04750668070168137,0.04740766498488804
57,0.04744746161700725,0.04767561834761263
58,0.047487320771498934,0.047726102978955506
59,0.04744553434060251,0.047766322336191255
60,0.047479745469612186,0.04752152594836942
61,0.047473991329935815,0.047407306304411714
62,0.04746326796567554,0.04742590360925625
63,0.04744836877135159,0.0474007220581562
64,0.047423930362248116,0.04758680855889159
65,0.047449356297866334,0.04754019737972833
66,0.04741826591839036,0.04780473479238098
67,0.04742822020376424,0.047761690168514344
68,0.04742486622008822,0.04716616506440581
69,0.047422985560435664,0.04727636277675629
70,0.04738568821006256,0.04752042699067162
71,0.04746581396485547,0.047599072587965224
72,0.04738128767590776,0.04731605682983677
73,0.04740401407291325,0.04727174710385331
74,0.04744472259210406,0.047492827035210315
75,0.047424136085523594,0.047619510303826995
76,0.04737141789596001,0.04720759377671493
77,0.04740644965937241,0.04839201350626554
78,0.047382472446270224,0.04763204101605404
79,0.04742221464421585,0.04710859770062596
80,0.04742204270911493,0.047366244414117076
81,0.04739337016513451,0.04711661107350073
82,0.047365008076901534,0.047338548074487445
83,0.04740267918317867,0.04825142663980716
84,0.04740195926412833,0.04725307967416772
85,0.04730973356246329,0.048098355114177725
86,0.04742303029816452,0.047813666312592935
87,0.04737905829811363,0.04770324035491074
88,0.04744468198167525,0.04736611586072921
89,0.04732905526896365,0.047635815196744834
90,0.047388527464928575,0.0471557077011586
91,0.047360461083152214,0.04789120073547115
92,0.04735370721968768,0.04725213271537068
93,0.047369715752456784,0.04793044286702878
94,0.0473576576696883,0.04720095298660959
95,0.04733067592955846,0.047374627952064784
96,0.04734511263549423,0.04887315939050447
97,0.047356105382017476,0.047503229071869095
98,0.04740691436774773,0.04728661542251154
99,0.04735852251325151,0.04727047863515607
100,0.04733835338509912,0.04717865199638618
101,0.04735673077368765,0.047443297736481975
102,0.047321248162302564,0.04721451613643363
103,0.0473696693143756,0.047542555103315176
104,0.04735845041503723,0.04710124548004195
105,0.0473371110082292,0.047244025187033224
106,0.04729570728167594,0.047356017116213185
107,0.04744086610964782,0.049321207076005326
108,0.04732758164268842,0.04734866922366967
109,0.04734786308491878,0.04753971106616079
110,0.04737641626029468,0.04724551772297417
111,0.047312079205942284,0.04726763988162178
112,0.04738421085849702,0.04727651515788889
113,0.04727785935629901,0.04725014758255883
114,0.047362293272341,0.047815642104246714
115,0.04736785854486157,0.04726306085005085
116,0.04734072950836137,0.048952307322760125
117,0.04733631659230644,0.047157050796211845
118,0.04738852274950317,0.0481461362373716
119,0.0473172698321817,0.04732617402438959
120,0.04730443330816657,0.047326987992969194
121,0.047326470629202665,0.047124695864924314
122,0.04731861788252418,0.04779848125899224
123,0.047308660193467786,0.04716753414534356
124,0.047340637002941326,0.047565096632034266
125,0.047280366759565616,0.04732973406998398
126,0.047361819159915504,0.047458379728618154
127,0.04733058375319083,0.04730767625859617
128,0.0472786365781161,0.04806444636048439
129,0.047359296746796176,0.047328853795941456
130,0.047306507331528344,0.047288577018662896
131,0.04732155917639688,0.04725188168608117
132,0.04730104231577125,0.047496013866697794
133,0.04727479706196,0.04731929309272164
134,0.04734541132128972,0.047252217329738645
135,0.04732120914800133,0.0471697762967238
136,0.0472960281330976,0.047218689475952404
137,0.04730952221849601,0.04811119390820648
138,0.04735334535880531,0.04713665343815168
139,0.04728853971445017,0.04715743506563961
140,0.047273978059419054,0.04711304051065031
141,0.047293589156356265,0.04738388802406349
142,0.04732010582779094,0.04787623621788002
143,0.047281861863583685,0.04720949179889089
144,0.047319976103713184,0.047395578314327495
145,0.04730047574854917,0.047215805489690454
146,0.047309792111460254,0.047427694877020095
147,0.04733181577012074,0.04707390593325141
148,0.04728596855690487,0.04747580122658373
149,0.047277617173717555,0.04734213564077417
150,0.04730812930535498,0.04800528133230691
151,0.04732861059407393,0.04816414686338866
152,0.04727066624209845,0.047130000781217894
153,0.04725435640898159,0.04774466613285543
154,0.04728514197722471,0.04725970326384034
155,0.04726855246890649,0.04769200432366429
156,0.047323345936995616,0.04716823957772263
157,0.04728771829240614,0.04907008672416822
158,0.047267913629265905,0.04720761783379876
159,0.047342884978897375,0.04724021189814491
160,0.047245293087381825,0.04734722880356972
161,0.04726860514707226,0.04739975542618049
162,0.047292086320350785,0.04732126513850341
163,0.04734334920932778,0.04763387282097443
164,0.04725532795635345,0.04740348592071243
165,0.0472808541457573,0.04716795712603578
166,0.04725881844913836,0.047388858331665805
167,0.04727498026375624,0.047188703835175184
168,0.047290096617788435,0.04720685175004773
169,0.0472431228571325,0.04724299482230888
170,0.04726030355055841,0.04767439689049122
171,0.04730222324172942,0.047148306446110254
172,0.047283671660829696,0.04771082382869701
173,0.04727337912743469,0.047672533472057584
174,0.047362821781151684,0.0471202893551636
175,0.047203782423258685,0.04734594821812322
176,0.04729227881601674,0.04723816607573791
177,0.04727463490611834,0.04721478580687586
178,0.04726707750557662,0.047369993884989664
179,0.04724488379828316,0.04729014657431921
180,0.04726469326469538,0.04762942034342483
181,0.04728777209173242,0.04729041951431377
182,0.047309284087279434,0.04739712407752201
183,0.047281791989823324,0.04747169938794063
184,0.04723843587614554,0.04720265238642128
185,0.047273752682333844,0.047366597766869634
186,0.047266383459575644,0.047372377991394064
187,0.047323860923389645,0.04714200264629456
188,0.04722573740823235,0.047384831692726476
189,0.04729583644740683,0.047661375845381854
190,0.04726515598982263,0.04715680551804138
191,0.04724021073725584,0.047505422788594966
192,0.04726974693365949,0.04712250740535634
193,0.04726547284943642,0.04718985704921227
194,0.04728592129395925,0.04751481322223216
195,0.04728503028998415,0.04740977025904708
196,0.04727845718945674,0.04712111004808331
197,0.047327983709012006,0.04734139272321277
198,0.047210742994178115,0.04713041679941018
199,0.04726793317438411,0.047388087869890114
200,0.047234056901624445,0.04738268829535196
201,0.047303692250848295,0.04802694551840766
202,0.047263378596050946,0.04721125725130444
203,0.04727484686203379,0.04774401522437794
204,0.04727866276235079,0.04724854161490957
205,0.04727347892263143,0.04718597693737793
206,0.04727965910330141,0.047119929795554044
207,0.047292316067430805,0.04709744983262308
208,0.047198176488196915,0.048106013808249484
209,0.04728775570164624,0.04715598243176231
210,0.04727595349063547,0.04755061220057197
211,0.0472055954931618,0.0474149329057103
212,0.047283557777424795,0.04717287792285409
213,0.047272605613040794,0.047151673696905774
214,0.047272977349962546,0.04847532458421087
215,0.04727637372482166,0.04733444762363995
216,0.04727152372441656,0.04713843438271566
217,0.047284185575197736,0.047137086465660755
218,0.04735796988236723,0.04723320922857678
219,0.04719650943865546,0.04707964728185767
220,0.04721797459113369,0.047704608071574846
221,0.0472906934876117,0.04718429034527306
222,0.04727913937765917,0.047412395192091165
223,0.04729161401548022,0.0475928801352242
224,0.04725422536869415,0.04748029025725803
225,0.04727517419772373,0.04719263634805427
226,0.04724412255560895,0.04720857498936514
227,0.0472315089043072,0.04729236648862721
228,0.04721253917222734,0.0472638222735137
229,0.04739282629657373,0.047429336850908485
230,0.047186285229049905,0.04736907818393624
231,0.04722016522114416,0.04716712329904207
232,0.04729421767923567,0.04761734585135869
233,0.047264956220758145,0.047365888044673246
234,0.04723348474348906,0.0471010659310464
235,0.04722649880724369,0.04715999398136478
236,0.047305095584975254,0.04739301554394126
237,0.047239511238811586,0.04714513229589906
238,0.04724299522797219,0.047372608735933956
239,0.047273018552983506,0.047470345822675265
240,0.047255976762857844,0.047446962892891575
241,0.04720899622163755,0.047430455652319174
242,0.04731483905346131,0.04911541545965019
243,0.047243729157806585,0.047633986261503475
244,0.04722892949067289,0.047114196717856716
245,0.04728529385799508,0.04711582980338475
246,0.047234501143237004,0.047668913554256134
247,0.04721695999596283,0.047292454055001064
248,0.04732044695241512,0.04715423105136089
249,0.04718681500940252,0.04718518838721556
250,0.04728585362083001,0.04742284029745736
251,0.047224114142018825,0.0477579499123693
252,0.04722887227873055,0.04708142973182704
253,0.047259790904754455,0.04718441529686092
254,0.04724407414619109,0.047121887716399274
255,0.047262893202040884,0.04768651302524599
256,0.04722681663465871,0.04714639736861343
257,0.047222146892445166,0.04711802915361987
258,0.04729388300016773,0.047723410149776005
259,0.047230205067591985,0.047116457769131224
260,0.04722272824171445,0.04712388748281004
261,0.0472732354357517,0.04722914417533773
262,0.047244164747276086,0.047068968679882354
263,0.04722245013137325,0.04760984701252209
264,0.047241635757575125,0.04746716596838895
265,0.04728376698776258,0.04734775427531895
266,0.047234466096920835,0.04766725360371037
267,0.04723427842090503,0.04716289105759706
268,0.04723180526291295,0.04719889827290198
269,0.04724660553455019,0.047223227494047115
270,0.047232693098455694,0.04731391938351794
271,0.04726720267652179,0.04715273846543579
272,0.04719632900328183,0.04713268698014513
273,0.04722335948485979,0.04790386977151989
274,0.04720840636167309,0.04712095330950775
275,0.04730849409495279,0.04721323152579185
276,0.04722871399558277,0.048077435662709736
277,0.04721629735138967,0.04726166438073179
278,0.04731930842955145,0.04738449104771242
279,0.04715577763863366,0.047264716578404926
280,0.047243298993979714,0.047467129088897074
281,0.04724704587815715,0.04716999959950383
282,0.04721377210931288,0.0473519983630107
283,0.047230411127364515,0.0471281592470271
284,0.047229373480657116,0.04736920363536574
285,0.047209646796984826,0.047081930358506795
286,0.04722713803549369,0.04843895972927631
287,0.04719540439129209,0.04733131101447574
288,0.04727025514246701,0.047079717068570566
289,0.04729013228647524,0.04717018902478203
290,0.04721151805705399,0.047122993954143474
291,0.0472403692094971,0.04720420686744194
292,0.04723619225380613,0.0474045641085202
293,0.04726431714586741,0.047132180358306006
294,0.04723819770472799,0.047126820644668076
295,0.04732568031824607,0.04717162703094091
296,0.047151887988884575,0.04721707790419636
297,0.04725251148650639,0.04900710282357734
298,0.04723900102144427,0.04729903162102014
299,0.04722889398130105,0.04730728315667271
300,0.0472197917734476,0.04733328965228659
301,0.047201207053544615,0.0473096610885628
302,0.04728265794859134,0.047536681361361195
303,0.04721232862632385,0.04736073106680221
304,0.047251162714035295,0.04756043926057801
305,0.04728552877611155,0.04721929067076899
306,0.04715411533876289,0.047538489094496525
307,0.04724004527004503,0.04821718604419301
308,0.04726328834486332,0.04762518633195238
309,0.04724998140840126,0.04729960256071663
310,0.04717005625200405,0.0471165892098396
311,0.04722850138900711,0.047481866978291175
312,0.04722470373248787,0.048076912601961334
313,0.04722961296977328,0.04761344076802435
314,0.04724781387906185,0.04754014419951868
315,0.0472686313045063,0.04716631445530935
316,0.04729892034753621,0.04719278803234883
317,0.0472434877181987,0.047581849336012574
318,0.04724928855800705,0.047794407064531766
319,0.04720163386282351,0.04716298766228375
320,0.04726037865640115,0.0472588993361971
321,0.04725737985875681,0.04771973910405585
322,0.04719042908296073,0.04723699381773455
323,0.04730179207585603,0.0471580411971274
324,0.04721544835147717,0.04712280245011212
325,0.04724932165085364,0.047074677968058136
326,0.04723443812299832,0.04777943985073606
327,0.047237976247982254,0.04722890276652956
328,0.0471841079368294,0.04712389469817104
329,0.047272085439232135,0.04743985011997238
330,0.04721247367888427,0.0470766503343266
331,0.047248135516635904,0.04722590813297123
332,0.04723096569385126,0.047086196118743755
333,0.04722064923492077,0.04728501162770327
334,0.047264369807655006,0.04724701463399953
335,0.04726059947290914,0.04732828717840499
336,0.04726384316893409,0.04717643652772847
337,0.047229421468709204,0.04787001719414576
338,0.04725451597707163,0.04774616987112948
339,0.047216686867564604,0.047135144148695254
340,0.0472133440731598,0.047489744258990135
341,0.04720895307705843,0.04712847806366297
342,0.047282121410008246,0.04810780688426395
343,0.04720351082100857,0.04713970341299967
344,0.0472305351548153,0.047155312023580594
345,0.0472664624291787,0.04755107318098938
346,0.04718934348989114,0.04732401342952261
347,0.04728257833875055,0.04724141941262496
348,0.047202035698363724,0.047408917782079917
349,0.0471952556149303,0.04799442340479465
350,0.04725053066538154,0.04712904035315894
351,0.04722853037986538,0.04740020861200865
352,0.047235736409001215,0.0471184003066151
353,0.04724000463579341,0.04737165058950505
354,0.04724835221179955,0.04707007272420385
355,0.04722374891616601,0.04714351959508897
356,0.047261114712420414,0.04774771265291566
357,0.04718908339852004,0.04716448855440073
358,0.04734445654814668,0.04707972162889042
359,0.047167252591378585,0.047107248992645186
360,0.047224946465971564,0.047413966955871405
361,0.047248537352176115,0.047319406730247086
362,0.04721615860144869,0.0474443183513542
363,0.047206314990846376,0.04743154897062724
364,0.04731019454405939,0.04706971323221992
365,0.04715482788912351,0.04719817243228301
366,0.04724398720190584,0.04720874425044376
367,0.047199846954821205,0.04718125196675099
368,0.04725612683458437,0.047195595592824886
369,0.04724424980807123,0.04718023176351305
370,0.04725178774091885,0.04716344204185135
371,0.04720830230368413,0.04721674150783619
372,0.04721705030521853,0.04710200042026478
373,0.047238998657031406,0.04711688356951832
374,0.04723803195611036,0.04711456708580655
375,0.04727166655401198,0.047309880213254815
376,0.047244973858888394,0.04724174929046217
377,0.047240421516920546,0.04705914003214407
378,0.047308141105085445,0.04724501136575709
379,0.04720236771076703,0.04717634419521762
380,0.04728975234408792,0.04726872230926271
381,0.047222101852464546,0.047311239847185674
382,0.04720594065128375,0.04752229863003002
383,0.04722701311171007,0.04713021247591103
384,0.04721579469031662,0.047275074187963145
385,0.047295278946248936,0.0476850094604464
386,0.04726517258091367,0.04721510348563695
387,0.047202164587154566,0.047665888224540966
388,0.047213960636993776,0.04711129227337069
389,0.047237196700464334,0.04712075687762594
390,0.04721233767005418,0.04744298546483127
391,0.04720198133920165,0.048205787296853105
392,0.04726703419870467,0.04713543624144515
393,0.04719361966009811,0.04709721545688073
394,0.04725272611802002,0.04704296677693101
395,0.047210563877992016,0.04715099675255962
396,0.04725214259789812,0.04724334884837752
397,0.04719797758717569,0.04726651861628586
398,0.04724453448754944,0.04775226234966314
399,0.04718767004988367,0.047753889345943976
400,0.047253480411881356,0.047149082876583114
401,0.04727937743740736,0.04715454492544507
402,0.047231262290685014,0.0471241689142319
403,0.04722273262064282,0.047300665964973
404,0.04723598973469721,0.04716143873538572
405,0.04720291731020006,0.04733980059235606
406,0.04721427213945549,0.04725421700206157
407,0.047210512117004035,0.04713234340664714
408,0.04723055535506049,0.04772981051605521
409,0.047267440049875556,0.04709149389906295
410,0.047278643437593484,0.04721992830698097
411,0.04716834245170716,0.04726230282257087
412,0.04720659401092074,0.047174888609334435
413,0.047230772251229014,0.04713851094669306
414,0.04727609474197042,0.047187155020006456
415,0.04724506691521068,0.04716033403832986
416,0.047227860901126566,0.04731753041883953
417,0.04721473631330674,0.04714113687942041
418,0.0472320561959065,0.04713053517367018
419,0.04725970878011936,0.047090661753889325
420,0.047208832608138344,0.047183095385638765
421,0.047208251651945254,0.04840977113890949
422,0.04720941172104231,0.04733059697599983
423,0.04722296728117527,0.0484422241861696
424,0.04727513810767115,0.047136375323326075
425,0.047196949558923666,0.047189347340116
426,0.04719280249191274,0.04730791389507013
427,0.04719813037470138,0.047524313156470224
428,0.04727319328428554,0.0473047415883925
429,0.047224920872840095,0.047099183045251215
430,0.04720680094618115,0.04718276616347617
431,0.047209721432327274,0.04732121413995548
432,0.04721545280485178,0.047207915413045656
433,0.04720569900173745,0.047671216645152344
434,0.04727390518845271,0.04740141018719399
435,0.04718546724046687,0.04738001268718688
436,0.04724098960433504,0.04717982174930087
437,0.04720681593518892,0.04748929673019317
438,0.04722768837194458,0.047170955643657635
439,0.04730600274974208,0.04712359162654666
440,0.047201058703015365,0.04720250670904707
441,0.04718079505790528,0.04741345384197152
442,0.04722445190911718,0.047198424199574
443,0.04722634036031415,0.0470675436843072
444,0.04721030308087047,0.04769351635930946
445,0.047251417326162476,0.04731499900616523
446,0.04717448666739426,0.04718809021194337
447,0.047267826017942265,0.0473415487590698
448,0.047216792049691925,0.04731844051284591
449,0.0472402696078606,0.04718434836806607
450,0.047286282714119825,0.04790938779382416
451,0.04718705737661067,0.04714778202402846
452,0.047232440345995816,0.04775083585162283
453,0.04721126767198483,0.04726617328746167
454,0.04721582958625137,0.047610174805725665
455,0.04725263402652111,0.047186944222088016
456,0.047291513319483856,0.04708804719696952
457,0.04711736936708816,0.04761319513996474
458,0.04726001084279671,0.04712612077523237
459,0.0471996305068191,0.04719323749582694
460,0.047164633907347944,0.0476715437503386
461,0.047222870054374116,0.047119781871832724
462,0.04722556031102852,0.04715238192545775
463,0.047277972715602315,0.04772832967934876
464,0.047185619521758065,0.047952102586897506
465,0.0472020522492538,0.04705707710045195
466,0.04721287759445268,0.047265408076963375
467,0.04722251001146915,0.04736471416659494
468,0.04719914487309212,0.047324104803513616
469,0.04725767447085356,0.04725440644204099
470,0.047207286669243634,0.04722439231029061
471,0.047178998995992205,0.047494696401759406
472,0.047239600720225004,0.047242316942964845
473,0.047198260606502555,0.047191672224107466
474,0.047245044218038296,0.04751495826157323
475,0.04722606314035009,0.0474755119799909
476,0.04722571007305865,0.04714002958024781
477,0.047217652225475325,0.04742074159180544
478,0.0472161377282094,0.047765800110472406
479,0.0471586123403671,0.04713549770432471
480,0.04728776392051213,0.047211488283988336
481,0.04721685083989474,0.0472991063943884
482,0.047152071799651134,0.047511062834003165
483,0.04724447533702679,0.04709398913496389
484,0.04722524575775952,0.049409960970670665
485,0.04723052120061039,0.04731744036501848
486,0.04724479461614367,0.047224787158719556
487,0.047208850519905844,0.047365588269063404
488,0.04720546684259896,0.04715969074214643
489,0.047202043544998365,0.047220907279164566
490,0.04724407076782031,0.047129208488123756
491,0.04725549432138602,0.04718622196856783
492,0.047210222955861636,0.04742130445464916
493,0.04720136490788201,0.047248935187272224
494,0.04722923650849256,0.04712431232467729
495,0.047202898083711795,0.04736692660974064
496,0.047252851728198056,0.04726152921473312
497,0.047190743980171396,0.047190465180066594
498,0.04720837445698863,0.047267002233648825
499,0.04724927187609158,0.04739892098173534
500,0.04715154563440836,0.04725972896452108
