epoch,loss,val_loss
0,0.17848027610092712,0.08890754691874218
1,0.0641610848618378,0.05020497638758657
2,0.04864834643733635,0.048415586649313065
3,0.04817555699018027,0.0484331652592653
4,0.04811532283239037,0.0483183259175298
5,0.04812640142139438,0.048061183150254934
6,0.04805640447036111,0.047656116979204015
7,0.04800020739567175,0.0499432270327655
8,0.04800105057388759,0.04822429650019922
9,0.04793307796674524,0.048179477426769604
10,0.04796392784761391,0.04822933570067997
11,0.04790577102604387,0.0480372197308593
12,0.04789916370108688,0.048209122005017986
13,0.04796620284309157,0.04781577853455069
14,0.04784657808689238,0.0478301626036933
15,0.047862661128445304,0.048613144362664354
16,0.04794231754430621,0.048269224747862514
17,0.047858827313382944,0.04860696755496648
18,0.047860139330251995,0.04782336679505568
19,0.04783463711402923,0.04762703577834222
20,0.04787869731650697,0.04868551845285209
21,0.047769878783243166,0.047392208702515315
22,0.04778662154065381,0.04740378765746563
23,0.04779330073155278,0.04823216041160458
24,0.04773457116521091,0.04838789455245683
25,0.04774744878951118,0.04990048903233909
26,0.047780045125779394,0.047675537399730065
27,0.0476726290779553,0.04771004708361795
28,0.04782454628381226,0.0475591451617659
29,0.04765149521575176,0.04743242481960117
30,0.04769579672681199,0.04753983072530781
31,0.04767657207588641,0.04758973115056918
32,0.04767842097676915,0.04753184859253519
33,0.04771565742713275,0.04755530589875407
34,0.047642432784529135,0.04753319180813848
35,0.047653032209185195,0.0474755473481969
36,0.04766764597063489,0.04747007778406896
37,0.04763253985626473,0.04751359731041265
38,0.04761686489182553,0.04766477480377846
39,0.04766827083671455,0.04776472371033354
40,0.04759747626708089,0.04742715637410543
41,0.04759820427992742,0.04761191299618843
42,0.04763484322023001,0.04770924533763643
43,0.04760464826981417,0.047851440932634035
44,0.04762499141309568,0.04754330435710435
45,0.04753438147495119,0.0473696648157198
46,0.04763217773035371,0.0509986122004282
47,0.04756259075779137,0.04837078059822815
48,0.04761083103376899,0.047822805099489184
49,0.04764517251369383,0.047781313695278146
50,0.04761212860062111,0.04733278194843735
51,0.047542285333446364,0.047527950274704384
52,0.04758240941980427,0.047632006356447064
53,0.04755218333298926,0.048855521167086725
54,0.04759170732749023,0.048334930615459924
55,0.04752788612310835,0.04719346310375898
56,0.047491151324326665,0.047366985241164346
57,0.04754109815400329,0.04758323219493796
58,0.04753633315483634,0.04751141833607475
59,0.047527876154755615,0.047518460466669785
60,0.047637667185325416,0.04812687661883957
61,0.0474917376183158,0.04742850749014679
62,0.047486454864843285,0.04786389340200383
63,0.04751466618155499,0.04745044243458038
64,0.047552467997578216,0.04741317226647766
65,0.04752213085929362,0.04738515147082243
66,0.047510961006633004,0.047301723150611395
67,0.04746374533735782,0.04726875751575524
68,0.04752173426030256,0.04749093225318424
69,0.047539685500694887,0.04707710702198645
70,0.04749040542651328,0.047389966936307155
71,0.047482152529757654,0.04757360612713359
72,0.047478160103984014,0.047389020468531017
73,0.04747260334811432,0.047424412996235475
74,0.04754596950112582,0.0473805729567346
75,0.04749425365436944,0.04722627915365544
76,0.04752515024430365,0.047630600963484704
77,0.04747304569432537,0.04789589967316968
78,0.04748703998407062,0.05052376070134077
79,0.04747816991004393,0.04817572360139431
80,0.047445130538192395,0.04757721166713744
81,0.04750405073457723,0.047495907856167634
82,0.04742187538819252,0.04738401393711143
83,0.047506698427333245,0.047536059705380294
84,0.04748200763800114,0.04748146791355104
85,0.04743351943368058,0.04759145477211842
86,0.047496100305486545,0.04726354616099488
87,0.047452176150550945,0.048430249118485036
88,0.047455372384114326,0.047548979594303854
89,0.04752700262778192,0.047332893692445074
90,0.04745352677226686,0.047206476604199916
91,0.04750494301902781,0.047323700378707007
92,0.04742297515731683,0.04731701997174178
93,0.047410302885549725,0.04751779428656024
94,0.04752739891112089,0.04807510204619089
95,0.04735967661622617,0.047365617548022196
96,0.047474274824229744,0.048433296041358806
97,0.04748254386242107,0.04786134119591754
98,0.04739004943808682,0.04818663261566185
99,0.04750031167916733,0.04729558909113424
100,0.04746081902653718,0.04768255197434983
101,0.047394496550281745,0.04756060928318006
102,0.047421905853086525,0.04767681712368481
103,0.047429482922327224,0.048031695034199094
104,0.04741053866277591,0.047779804176482615
105,0.047498754375308254,0.04758166694674044
106,0.047395206548624946,0.04727347986368373
107,0.04742847647008707,0.04768656421490984
108,0.04743153433785212,0.04732457118810117
109,0.04741875286981594,0.047543975059310566
110,0.0474201058723229,0.04718257612956728
111,0.047450096814704835,0.047358483743531174
112,0.04744463542150222,0.04772752703659254
113,0.047423381068044716,0.04730481621474851
114,0.047367284068469996,0.047815592690490794
115,0.04741934487085453,0.04751261877338531
116,0.04747465799907319,0.047229334517972336
117,0.047361161640222124,0.047330959255335925
118,0.04741861892314695,0.047447471764018055
119,0.04739055415387634,0.04759353486896031
120,0.04743676420619829,0.04722474954710669
121,0.04738482632648221,0.04725483701738581
122,0.047409882952126385,0.04749841183635694
123,0.047385029027239976,0.04723671539124298
124,0.04737806470125175,0.04797253058819011
125,0.04738033758245593,0.047312577796810334
126,0.04738866552103052,0.047582238348055375
127,0.04739600532858682,0.04741062993961427
128,0.04737954801298398,0.04733266633800756
129,0.047474141854295535,0.047103313621848046
130,0.047330158837824515,0.047382538301698224
131,0.04739718674737915,0.04727114625892587
132,0.047349841876638876,0.048696467607343114
133,0.04748052109083493,0.04731103611467575
134,0.047387854059894596,0.047296870144079683
135,0.04737691625619202,0.04731809921509747
136,0.047396946564423954,0.04716892816543861
137,0.047339472410490184,0.04792825541302456
138,0.04740178102938582,0.04900259546341629
139,0.04736371107137413,0.047291805407571906
140,0.04742576322591991,0.047206159645798836
141,0.04744271057948982,0.047487641825107674
142,0.0473466976378247,0.04762333938183047
143,0.0474173555807244,0.047192734249388975
144,0.04737279576351412,0.04738864451117561
145,0.04735541644005133,0.04800787139110614
146,0.04740515197191736,0.0472745591776053
147,0.04734459577007688,0.04722913021211466
148,0.04737294830685611,0.047689994531018395
149,0.04737650233504774,0.047172058711817816
150,0.04739090149476231,0.04831028533562865
151,0.047413097046833816,0.04955352116567278
152,0.04735468701272608,0.047580577206710425
153,0.04737860381418614,0.04730457155108922
154,0.04737175367534351,0.04734752265164583
155,0.04732360069801529,0.04734093515053921
156,0.04740147595163539,0.047254325708796306
157,0.047346031434720846,0.04738276924323452
158,0.04737625020942528,0.04743209627369491
159,0.04735199699132182,0.0472629464333605
160,0.04739358231907697,0.047490158783538
161,0.04732411825876061,0.047419693961963
162,0.047385954955439395,0.047535418990731895
163,0.047436669632661445,0.04751685162052077
164,0.04732001171730977,0.047207609706961834
165,0.04731117845546427,0.04724443664490565
166,0.047399926419964704,0.04739130461542928
167,0.04737703915801551,0.0471711734687614
168,0.047379988834535855,0.047240826744518606
169,0.04736351664903924,0.04736505869273229
170,0.04733621361825487,0.04730119270690803
171,0.04732480578922587,0.047360215606586896
172,0.04741453053764731,0.04730642422586797
173,0.04731108007921304,0.04717563231488147
174,0.04732058255923547,0.047150915013751175
175,0.04733442043443378,0.04713306337265678
176,0.04741102617105944,0.047275540607833635
177,0.047339496645722075,0.04844335154369297
178,0.047294107513676444,0.04750278986102498
179,0.047361217364728404,0.04729246715379213
180,0.0473490415526618,0.047422554646784056
181,0.04732764339436301,0.04771166203077515
182,0.0473553733312064,0.04755883353108859
183,0.04733242642441147,0.04732731985547172
184,0.04738893228427445,0.04735720714211652
185,0.047311281724322994,0.047355801493352855
186,0.047296896628993786,0.0474161472915427
187,0.04735608070904164,0.047130919981162755
188,0.0473476427880456,0.04741912622125297
189,0.047339730137448424,0.04749779646661965
190,0.04733753373338688,0.04712362815026891
191,0.04733274250085072,0.04722022116419454
192,0.047363739043807716,0.04750786771984578
193,0.0473227926837407,0.047255355044434934
194,0.047277932982150314,0.04715586214928337
195,0.0473254232866158,0.04726534905448709
196,0.04729384935344104,0.047167516550918026
197,0.047352688842647365,0.04721955692758688
198,0.04732981914703509,0.047164900935510054
199,0.04733205718590582,0.04750072366566101
200,0.0472940329438467,0.04725697222323801
201,0.04735361617936981,0.04853716723756143
202,0.04728984361667808,0.04721838188517159
203,0.04729952763387863,0.04775945629980401
204,0.047379176500889894,0.047284529165856556
205,0.04728696769107875,0.04720827618403611
206,0.04734805073264501,0.04711943647244265
207,0.04726640203987047,0.047254958167237
208,0.04732779499670441,0.04765138116201361
209,0.04728642189436012,0.04718948516409606
210,0.047346021277274636,0.0476069823113265
211,0.04740795699193133,0.04716407960161696
212,0.047283548598202295,0.04723093100039152
213,0.047279762376626906,0.04735342174733165
214,0.04736749217253652,0.047559693352787535
215,0.04726734377003069,0.0472280436181467
216,0.04731451182795181,0.04711209877960872
217,0.04730935576710579,0.047187756414759696
218,0.047354850457976765,0.04791576395306704
219,0.04727212163053161,0.04750510254594032
220,0.04730378228167502,0.047176102080750675
221,0.04733146934492363,0.04728879628448667
222,0.04730545098838999,0.047402531082059045
223,0.047348970158709036,0.04737112360058945
224,0.04733171713032978,0.047258018421181186
225,0.047292761946860835,0.04714169584055914
226,0.04729649538455678,0.04766883189189406
227,0.04727655501186038,0.04718541539764442
228,0.047305845077053536,0.04723687930401611
229,0.04732876907971551,0.0471489511447905
230,0.04731398542894782,0.04715555642555808
231,0.04735021518437649,0.047953012054631726
232,0.04728685025509884,0.04716821616455242
233,0.047325899382289364,0.04719951292227927
234,0.047322834116056096,0.04725376180804613
235,0.047280144265039174,0.047242099344259936
236,0.047265275030863654,0.04716573322475568
237,0.04733675888938298,0.04715682694948651
238,0.04728292096123326,0.047309146795624715
239,0.04734211804108511,0.047402416633026
240,0.047334246252545065,0.04726138766252251
241,0.04730993867825738,0.04716094137531806
242,0.04729434743606978,0.04747973275448077
243,0.047316402313020305,0.0473043535260488
244,0.04729376197885647,0.047139022496382646
245,0.047321664580374026,0.047189591339279933
246,0.04729660249037518,0.04823218408351633
247,0.047298605179341195,0.04733579026589548
248,0.047300729911021,0.04719769460132203
249,0.04727439276373786,0.047395805271831945
250,0.04730559010758436,0.04778020212686993
251,0.04725403017509613,0.047183974177797856
252,0.047341307933381996,0.04740062355995178
253,0.04744093725941688,0.04712594406357316
254,0.047235828775951234,0.049009026469987685
255,0.0472678920874993,0.04775925426087515
256,0.04727218628412099,0.047859250108440186
257,0.04730162937804568,0.04725355938100495
258,0.047291242476585484,0.04732678162011934
259,0.04735149178418705,0.04779453423012404
260,0.04724326227560079,0.04764640630585242
261,0.04730769366526204,0.04715528387955633
262,0.04730824990083369,0.04818591243501432
263,0.04730198525047179,0.047272621250425445
264,0.04728581944255711,0.04753503888763117
265,0.047268880255740706,0.04707317854606362
266,0.04729905119277448,0.04725856419826175
267,0.047265039216414347,0.04731926524860236
268,0.04730092852319078,0.0472263531684405
269,0.047244260489619036,0.04717544087553551
270,0.0473735868725345,0.047309244785166765
271,0.04733620098323749,0.04715919264995779
272,0.04722395174497133,0.04730233378067389
273,0.047297146192176356,0.047191231322622526
274,0.047315871502331595,0.04729824138903768
275,0.047301134827147,0.04724934176433811
276,0.047353519354578405,0.047187746611983175
277,0.04723434877856601,0.04753667809768935
278,0.04732424199735995,0.047977621857467935
279,0.047286284664611544,0.047242282380385955
280,0.04730057328802457,0.048866962077538614
281,0.04731132275313973,0.047306885623800164
282,0.047251205260066584,0.04726445924523033
283,0.047274905081978326,0.04744371033222918
284,0.04738416469586696,0.04736258217443042
285,0.04724522136288772,0.04742344917807413
286,0.04731113439519628,0.0472201807123051
287,0.04722174867052588,0.04737576245732353
288,0.047305796917775075,0.048262107314655134
289,0.047384157592205885,0.04737945177372554
290,0.04727091197874382,0.04766981813530331
291,0.04728422573746013,0.04736891741428492
292,0.04724561936444611,0.04708367843113269
293,0.047282160384108506,0.047234404629247814
294,0.04738356254780464,0.04771413028698882
295,0.04727893849785665,0.04724967021909678
296,0.04726483980022508,0.04717889537221819
297,0.0473326195022471,0.04711692620600973
298,0.04733224154757462,0.04733895496321929
299,0.04727612643224968,0.04726275020435558
300,0.047231339425932495,0.04856970624288143
301,0.047304118372243846,0.047842373958279415
302,0.0472557217234092,0.04789978019369806
303,0.04727444778696048,0.04718731195263817
304,0.04729761428934493,0.047193933737000426
305,0.04724555805647116,0.0471882201443061
306,0.0473012049599803,0.0471870493240825
307,0.0472724042701826,0.047430148008613955
308,0.047265883381787444,0.0472506557333253
309,0.04729485968135291,0.047201552305549926
310,0.04731903144037076,0.04762339946573516
311,0.04725341848153576,0.047583851689838856
312,0.04726745696555225,0.047615689729011805
313,0.04736764868088573,0.047228707895917786
314,0.04728830326571882,0.04902888684523981
315,0.04725418051334022,0.04752804308941539
316,0.047298932139822045,0.04717180716210496
317,0.04724113680392528,0.04721847823699723
318,0.04731475079743315,0.04727251036202898
319,0.04730857200444126,0.04746255972191115
320,0.04727844477182241,0.04711319357391973
321,0.04727854748382319,0.04738577826047094
322,0.04730668600550372,0.047161255267043706
323,0.04736145827130114,0.04717821172999414
324,0.04720638890852698,0.04719499376879589
325,0.04734934938790129,0.047401878382972405
326,0.04723275420244792,0.04776168665198143
327,0.047305469378102406,0.047227110163894526
328,0.04726409813691434,0.04716369775201076
329,0.04726724312167993,0.047161704983382874
330,0.04732712884571293,0.047337790129334326
331,0.047282346614378155,0.04718261790456693
332,0.04723425621210004,0.04757222507057834
333,0.04733601545722936,0.04736274899510577
334,0.04729571596210857,0.04993334402283911
335,0.047303518048114626,0.04728371693202145
336,0.04724850834493967,0.04720055574188105
337,0.047294245038232166,0.048324225186690065
338,0.047288016238205915,0.04745820073532889
339,0.04725360440062009,0.04790298606621156
340,0.04728426717870908,0.0472225855209739
341,0.047331971333002584,0.047099043951085356
342,0.04727583815701764,0.04718429461744891
343,0.04726007254533678,0.04753513794742237
344,0.047267021675356666,0.047195028375478454
345,0.0473520084292435,0.04718882220649494
346,0.04726297447352196,0.04714603061128434
347,0.04727420619399332,0.04729589169819993
348,0.047263608061724145,0.047246410354866035
349,0.04734759318748776,0.04715196573085077
350,0.047265854658935666,0.04775803561462788
351,0.0472881472814712,0.04711356495919431
352,0.04727247555544384,0.04722505745543395
353,0.04727021725230413,0.04716911647930424
354,0.047284646111605266,0.04783861982123816
355,0.04726168074065166,0.04716931894750885
356,0.047246400348776633,0.047539827667453106
357,0.047293379943040635,0.04718654261991652
358,0.04732045469184717,0.04706329062886848
359,0.047238344969830925,0.04709261352080196
360,0.04730545948419592,0.04791449331152881
361,0.04724773304979149,0.04722808446108871
362,0.047301218485374816,0.04787353834030002
363,0.04734825763217122,0.04734876117982917
364,0.04722972591366652,0.047227757632285476
365,0.04726195088673314,0.04710707380697308
366,0.04728359050697369,0.047397116829818314
367,0.04730142108637461,0.047262909374513676
368,0.04727456079189964,0.04755196660086689
369,0.04723706051594109,0.04709738437101045
370,0.04731450981790308,0.047260023677029195
371,0.04730965890776482,0.04717448292022252
372,0.0472952616940752,0.047081426547541806
373,0.04720737480020209,0.0471479532638919
374,0.04735914562686647,0.04715204349738834
375,0.04728002431128713,0.04756568497210012
376,0.04722709064003375,0.04721691793723189
377,0.047315426788729825,0.047283071292462835
378,0.04726805915232662,0.04723742556917733
379,0.04728074974680452,0.04735475670378699
380,0.047237328785977105,0.04724577486503284
381,0.04726363512889135,0.04703295376113577
382,0.04726633290015012,0.04710214938189255
383,0.047290273307026814,0.047173599755919254
384,0.04728821792202793,0.04744136145877951
385,0.04732597859309827,0.04707780780583832
386,0.047232337179872914,0.04739076703281128
387,0.047246361737974064,0.04709313070400079
388,0.04729619609574667,0.0474152801398132
389,0.04729116231286459,0.04721171599125523
390,0.04732767266662811,0.04732422291021132
391,0.04721975556130318,0.047410368863507905
392,0.047322016254031686,0.04722321829108055
393,0.04728130198163476,0.047081407888747616
394,0.047236500924332535,0.047469417887262784
395,0.04725135862678408,0.047440955534448
396,0.04730222685237249,0.047808078588842874
397,0.04729479795945682,0.04728989700633142
398,0.04731559601100943,0.047260132183827276
399,0.04724128773178366,0.047108830271057944
400,0.047277287524238196,0.04715944956267736
401,0.047248578352703276,0.04752354633177747
402,0.04730176401557587,0.047204548838506465
403,0.04725800709818288,0.04771844996249666
404,0.04723191193247633,0.04713494864299058
405,0.04731242500132413,0.0471844466310509
406,0.04723591158846967,0.04719551030514084
407,0.04726389054652694,0.047528111485392446
408,0.0472789441929947,0.047254269426628276
409,0.04726105389430178,0.047149626360272645
410,0.047274782806992245,0.04725867491906425
411,0.04726056314760642,0.047175091803779545
412,0.04725696368933582,0.04720685179709165
413,0.047259382188891905,0.04761450122321508
414,0.04730675493975242,0.04730794100412818
415,0.047245807552652105,0.047102563674161074
416,0.04726884261720615,0.047265752082677366
417,0.04727675356447315,0.04725307112687577
418,0.04721928784381047,0.04728213932597458
419,0.0472807206398101,0.04728836191916616
420,0.04724768501260488,0.047149922863389905
421,0.047264237035747815,0.047353320632309265
422,0.04729123471333064,0.047185121379034106
423,0.047226168154228886,0.047375094812972016
424,0.04728868873052889,0.04712052710924736
425,0.04726775331671337,0.047190965933176884
426,0.04727397618784036,0.047197846673728915
427,0.04728839222600849,0.04731523631333176
428,0.04722502951522906,0.04746052458729439
429,0.047254320720938756,0.04717114505423461
430,0.04738560469923831,0.04717877154380389
431,0.047203562325901456,0.047953712809081145
432,0.047263301419113564,0.047235282445245594
433,0.04730131107715251,0.0470960506582787
434,0.047230225071299085,0.04876309239556212
435,0.047273483381961745,0.04709833160325026
436,0.0472704941268376,0.04715569539035317
437,0.04727918550306611,0.04777911818794312
438,0.04722262059541629,0.04730159118065894
439,0.04731307980819619,0.04755887256577999
440,0.04724945979629108,0.04713707198789483
441,0.04721859426384302,0.04851931470557283
442,0.047326435576930795,0.04712986217219244
443,0.047237420526089716,0.047127288414110985
444,0.04729214130188349,0.04722777012244584
445,0.04723602386979129,0.04711921634806736
446,0.0473678945842907,0.0471895340486079
447,0.04718839167375311,0.04750512567684701
448,0.047253565487565756,0.04769362889718332
449,0.04727136429479654,0.0473284775798445
450,0.04729313810737871,0.04736722266594067
451,0.04722072543959013,0.047159208865408454
452,0.04722919835925674,0.04718611826612993
453,0.04729733565639106,0.04743545331007962
454,0.047263762303929535,0.04734342663468765
455,0.04726319301495258,0.04738734673705737
456,0.04729373219886796,0.04733590728470257
457,0.04725902272964553,0.04710924219642931
458,0.04728536612296896,0.04727582318889126
459,0.04721856638074493,0.047120902061039006
460,0.04728894279473167,0.047277864359830814
461,0.047306625590883764,0.0476354274725293
462,0.0472248138027559,0.04742997369619458
463,0.047224418007784326,0.04717314543221631
464,0.04727085652522189,0.047243987693030155
465,0.047295523003386936,0.047387965541000714
466,0.047293198530932216,0.04725823496727842
467,0.04720361755012894,0.04774018332373936
468,0.047278800800585635,0.04727613268495076
469,0.04726749046636428,0.04746163081915809
470,0.047286196024440744,0.047350510155110256
471,0.04725361141941244,0.04723345408041174
472,0.04726699919705625,0.0474454242950739
473,0.0472459110880284,0.04724408302753105
474,0.04728353001195178,0.04761048202015512
475,0.04730070167653662,0.047094252813187
476,0.04725035338503994,0.04727981006983894
477,0.04723828494084253,0.047059408341252905
478,0.047232928019550015,0.04726152285792363
479,0.04724530887892016,0.04725610898497449
480,0.047268054966958496,0.04708126472822304
481,0.04729052306972533,0.04726491485970079
482,0.04731646720781553,0.04724143514587546
483,0.04724592679469801,0.04737395766737335
484,0.047271116385809615,0.047147597238456726
485,0.047259176546018376,0.04827268177315581
486,0.047250622868549814,0.047163373134271686
487,0.04725609063435134,0.047431938573659266
488,0.04727693666055572,0.047206995139911404
489,0.04726288764983964,0.04785598015034867
490,0.04724672629827742,0.047347331024124195
491,0.04731061776056231,0.0483699407584336
492,0.04727457422795866,0.04746953707009013
493,0.047249436805800474,0.047942961756531045
494,0.04727967463278894,0.047220376062176786
495,0.04728226419940269,0.047300885177872364
496,0.04721725023508691,0.047381957097606765
497,0.047207955521145026,0.04734696963862255
498,0.047294600793033194,0.04716583403105235
499,0.047241154846718175,0.04718483791002252
500,0.047248606813504256,0.04725183520374942
