epoch,loss,val_loss
0,0.1405330790604333,0.07808964086171671
1,0.0740791942885549,0.07540760184002374
2,0.07282669389312216,0.07322941215939661
3,0.0726403173753064,0.07286126591153472
4,0.07266199865417895,0.07320226765963254
5,0.07244713881092486,0.07278134087549012
6,0.07244229595438181,0.0723943017664253
7,0.07236019869466766,0.07253686013472015
8,0.07236414293436219,0.07269323628980905
9,0.0723546942164429,0.07287512442072076
10,0.07232861252997419,0.07197130904860072
11,0.0722990836159026,0.07278516712791824
12,0.07219439066297335,0.07245753316801179
13,0.07216285928774127,0.07351702785129705
14,0.07223761300865314,0.07271476268133217
15,0.07206568025129971,0.07164080625057409
16,0.07223152261164835,0.07186654888111113
17,0.07206448947461389,0.07207825218328079
18,0.0720959132571491,0.07239669449656802
19,0.07214129833782987,0.07157064382142689
20,0.07202325009113307,0.07223671202525062
21,0.0720586489400656,0.0720485357483871
22,0.0719775400257749,0.07162434990564104
23,0.07207164489965645,0.07189413190664225
24,0.07195985342839734,0.07158787998987542
25,0.07199818334228796,0.07156945904386072
26,0.07190703007457354,0.07183870668475234
27,0.07195153802061538,0.072370473845276
28,0.07192413545519614,0.07425312482661493
29,0.07189612835645676,0.07371668206511658
30,0.07191520989786902,0.07167368660362668
31,0.07189214161390976,0.07216388569305332
32,0.07185399717838167,0.07268696663505747
33,0.07186562536086301,0.07247352896474343
34,0.07183994301598516,0.07215894585226874
35,0.07180592095215829,0.07223305522501704
36,0.07183634935261057,0.07189459078478455
37,0.07177931198077522,0.07173086568160422
38,0.07181310542910505,0.07212691465958707
39,0.07178677173910572,0.07222033249715604
40,0.07174182324100742,0.0719224506755372
41,0.07181041894091976,0.07176471003511334
42,0.07175590681265012,0.0720216143573469
43,0.07174298281875922,0.07157139194910227
44,0.07176632284046076,0.07144748104328985
45,0.07168953671312923,0.07142590904268771
46,0.07176061187811988,0.07132054180871246
47,0.07170039915340505,0.07200747631907746
48,0.07175248967919895,0.0716952309600462
49,0.07167004135181959,0.07148996341294346
50,0.07174115273639929,0.0718319144485123
51,0.07169563601688325,0.07433055482963548
52,0.07163422916242354,0.07187010750656722
53,0.07168248995578737,0.07172304140764046
54,0.07167770785929488,0.07170241326093674
55,0.07169516486444062,0.07178685451904054
56,0.07160183076830887,0.07194576109006072
57,0.07162768603097812,0.07213103344874205
58,0.07164737861826838,0.07248626108962716
59,0.07166596489856474,0.07246367874442826
60,0.07161596813778892,0.07204577836613064
61,0.07158346139162565,0.07249114288409676
62,0.07163424680022884,0.07135672896112526
63,0.07159305756969704,0.07231418276242411
64,0.07164330549424977,0.07291772222438946
65,0.07157205308465173,0.07189571886854841
66,0.07161609503886492,0.07129350850313032
67,0.07157550123836592,0.07210128189262294
68,0.07165635188670753,0.07200735249948388
69,0.07150962899962394,0.07128386557008115
70,0.0715751809021123,0.07163604723485135
71,0.07156497691806367,0.07154419387807598
72,0.07158955616309202,0.07152153920285233
73,0.0715107117667139,0.07131705877695295
74,0.07153064467245154,0.0715157916297476
75,0.07153529345060138,0.07241068351734503
76,0.07156069953438285,0.0716969503035391
77,0.07156209879629999,0.0719100167679335
78,0.07155621368333781,0.07132463315362148
79,0.07160149957779215,0.071895986886573
80,0.07150717354197202,0.07169507074022068
81,0.07150491335980898,0.0727497692783705
82,0.07154094973961703,0.07183668170868174
83,0.07154777100522645,0.07124285615727764
84,0.07150185113544945,0.07242086725552062
85,0.0715427047444238,0.07144460497804768
86,0.07150344511004184,0.07155175320069058
87,0.0715675988851739,0.0715398135600169
88,0.07152314676488522,0.07141084258680562
89,0.07151353966108234,0.07143869804954943
90,0.07146135196208858,0.07118161502511085
91,0.0714897835354725,0.07159265695873357
92,0.07149936915706578,0.07119415317615752
93,0.07157806156993769,0.0714504693729631
94,0.07147227362584439,0.07177762686618219
95,0.07150407687579985,0.0714578938089023
96,0.07149755665890986,0.07203582478444596
97,0.07145507576213561,0.07139526831534498
98,0.07154555022299623,0.07150878708430322
99,0.07146037289564558,0.07106845076148116
100,0.07156777837508016,0.07199146508606005
101,0.07143283295902988,0.07145818918590575
102,0.07155075190450362,0.07160963930760017
103,0.07146453739796801,0.07128989675332922
104,0.07150494909400848,0.07148378779310453
105,0.07142246924310947,0.07141374677843058
106,0.07153442223741711,0.07117387777651589
107,0.07149566503928052,0.07151703746443953
108,0.07141534891500652,0.07145690088819685
109,0.07149301442227585,0.07147931589229707
110,0.07151468596357903,0.07138640477653554
111,0.0713974747994392,0.07165874836006406
112,0.07147882650974843,0.07156369559343348
113,0.07145343196513555,0.07213071153896854
114,0.07143930790366695,0.07230811780752304
115,0.07149026695070125,0.07368752568513273
116,0.07141712557473819,0.07156659777393093
117,0.07144867393860428,0.07183522728713554
118,0.07149499694375303,0.07149758463359387
119,0.07145028418416885,0.07114111086987282
120,0.07147393974778558,0.07115633788076836
121,0.07144469784782659,0.07175809602475862
122,0.07148045264512039,0.07140329994126013
123,0.07139474207119977,0.07119496530120356
124,0.07146542721229206,0.07250345040821334
125,0.07142510012590246,0.07187064508330474
126,0.07143715412901651,0.07122079121873617
127,0.07150390639686756,0.07117235067799606
128,0.07139851045247605,0.0715049870000548
129,0.07142957884499686,0.07141104245289348
130,0.07145156162224418,0.07203505387575304
131,0.07141640385706648,0.07231706270878957
132,0.07139959558248997,0.07124127267074096
133,0.07146599960865543,0.07153440364463741
134,0.07141958155649171,0.07183077198695083
135,0.07141955875807243,0.0720098323667247
136,0.07141618073272477,0.07158955415356508
137,0.07146203134366744,0.07112983307244745
138,0.07137722825165466,0.07102302178422955
139,0.07142690940202473,0.07245790736710075
140,0.07142526451215374,0.07174461905939332
141,0.07144009645024745,0.07181148258079764
142,0.07142085677606883,0.07172179550238265
143,0.07140361436968036,0.07159791611011515
144,0.07143010820845049,0.07142014419858439
145,0.07143885679811025,0.07158531621392543
146,0.07142899815532133,0.07104946915780641
147,0.0713905542672014,0.07219189299592467
148,0.0714398325234056,0.07134654799854087
149,0.07138020858216247,0.07265340055808743
150,0.07140321241651508,0.0713027337420476
151,0.07144319332189125,0.07112527005345029
152,0.07140502424465477,0.07184108999435038
153,0.07135632584135024,0.07193585172965947
154,0.07143156555333106,0.07135983246607204
155,0.07142939674053833,0.07150141846009286
156,0.07138164087439136,0.07139048344898902
157,0.07141627838833631,0.0725436159942502
158,0.07137568287110681,0.07197711260984899
159,0.07144964087328655,0.0713527841345005
160,0.07138819388038725,0.0711172775386729
161,0.07138387167261992,0.07124360167401554
162,0.07142512182251727,0.07109112297820594
163,0.07143746099943261,0.07405989753536663
164,0.07141440588650372,0.07184200769183009
165,0.07135740364734218,0.07144770740686483
166,0.07142350252131097,0.07119153211247572
167,0.07139671006076913,0.07119118307306245
168,0.0714139050925426,0.07186953774590894
169,0.07140784540610443,0.07138476806568554
170,0.07142714078096654,0.0727238374532163
171,0.07142834480908468,0.071522210942965
172,0.07140534958667416,0.07106416810659696
173,0.07137996058979576,0.07158193771963338
174,0.0714181876725716,0.0719394696363334
175,0.07137522907506266,0.07140794781572535
176,0.07145412034577699,0.07118692440175596
177,0.07138221251438086,0.07124634016519846
178,0.07138411277573076,0.07123944060413877
179,0.0714062474054589,0.07127839667338881
180,0.07135767807110513,0.0716170656899815
181,0.07140478352121979,0.07127755100602885
182,0.07137141162328584,0.07125883158399256
183,0.07140019461274337,0.07124132294892889
184,0.07135862906833441,0.0712518238513227
185,0.07136391725042741,0.07159301193156106
186,0.07144787692897421,0.07126072688350173
187,0.07137687357036854,0.07127452824020725
188,0.0713618037660869,0.0723955630962079
189,0.07143537615903085,0.07209076097304179
190,0.0714022958194085,0.07118867058380439
191,0.07138783569268281,0.07171040258260816
192,0.07135892719280519,0.07147569910291621
193,0.07140147016583968,0.07390478886693316
194,0.0713645723506177,0.07116818117549689
195,0.07143274405234151,0.07153563226125517
196,0.07140053596070631,0.07157477243688037
197,0.07132982801226118,0.0715458138942154
198,0.07138637674869679,0.07124135913158272
199,0.07138054009130913,0.07181667185431874
200,0.07138343766438875,0.0715308151756955
201,0.0713874314912408,0.07114725286507098
202,0.07136239226666286,0.0711484871563614
203,0.07135354702790483,0.07138824916864439
204,0.07140824653142742,0.0713481752300413
205,0.07137654891474356,0.07120183906455442
206,0.07137741301831105,0.07124613554179433
207,0.0714046094420669,0.07125803333690248
208,0.07137167847735419,0.071737372831698
209,0.07135641019192816,0.07128674913294784
210,0.07131873453847415,0.07139301782248993
211,0.07139125619706013,0.07135524032688931
212,0.07137175481751573,0.07165194646217923
213,0.07133474502620175,0.0714743893884634
214,0.07141155803458486,0.07130614572866939
215,0.07131535296650718,0.07134005557319359
216,0.07135992579989964,0.07114688540502336
217,0.07139250742707798,0.07117507965454645
218,0.07135555621305054,0.07147984593024664
219,0.0713685621156824,0.0720080026758404
220,0.07138424145160534,0.07154657431799498
221,0.07128242037142161,0.07160046252097872
222,0.07139931134968924,0.07256489148879484
223,0.07137045461973317,0.07131933867225707
224,0.07134843822553766,0.07195558101997285
225,0.07132614824733288,0.0715503981359003
226,0.07139426677358998,0.071386118402562
227,0.07132097917626039,0.0712527944496888
228,0.07134286589997944,0.07182212483840565
229,0.07135732846258641,0.07180400870170006
230,0.0713607225236561,0.07145393631570247
231,0.07138968827865488,0.07119654602979052
232,0.07129311722686156,0.07111027796812291
233,0.07141539522355123,0.07570943589768452
234,0.07135368490086899,0.0712317877758556
235,0.07132095833726639,0.07185707097224768
236,0.0713505309453304,0.07140505532627513
237,0.07133893635895232,0.07189221334391536
238,0.07129633174144583,0.07126509694892681
239,0.07135037415259653,0.0715178337004021
240,0.07131204900326583,0.07150314200813598
241,0.07136183264378687,0.07139910856921934
242,0.07133473943082168,0.07139416880488113
243,0.07136526517867804,0.07113676949829781
244,0.07133983834672698,0.07188179743812136
245,0.07134332450078451,0.07304350425501743
246,0.07135964796649848,0.07153813613265542
247,0.07133317027660868,0.07230023832752089
248,0.07134424099068848,0.07157426438020173
249,0.07132381753181573,0.07109706334610953
250,0.07137334634133762,0.07189539700581883
251,0.07135771391846293,0.07228528156629584
252,0.07133287872276384,0.07188963466680418
253,0.0713543046614249,0.07141334628767165
254,0.07131181790721978,0.07138812080931269
255,0.07130996542547247,0.07130963229460328
256,0.07134973766992418,0.0713574540196391
257,0.0713407877716515,0.07118838550353859
258,0.07135308914178376,0.0711390306995248
259,0.07134475618850984,0.07119836933446289
260,0.07133555559398268,0.07130076636831499
261,0.07132090181767417,0.07175727523187059
262,0.0713242356904405,0.07137455048529107
263,0.07134083737667611,0.07124392682981942
264,0.07133467361438188,0.07124678323070364
265,0.07132669870587562,0.07118934482900571
266,0.0713340333855743,0.07123643391263608
267,0.07127958027233514,0.07155352937911756
268,0.07135797947121086,0.07153849877658187
269,0.07130278044526907,0.07264000053305088
270,0.07132698554429505,0.07199475908947442
271,0.07129866132835785,0.07188375480620053
272,0.07139902215876835,0.07136781803011047
273,0.07132534768810565,0.07125451232893973
274,0.07135040211162978,0.07169822311791832
275,0.07132310858614248,0.07103920864983629
276,0.07128653471335042,0.07133909331924254
277,0.07132338628851824,0.0713636895322668
278,0.07134856930155929,0.07171281218975664
279,0.07132980338841986,0.07156451162900526
280,0.07134090854729012,0.07120134443303404
281,0.07128311746078525,0.07106530299408755
282,0.07130580941597811,0.0711575260337357
283,0.07133726434384605,0.07132464466762053
284,0.07136954797460116,0.07153077863433178
285,0.07131684154307813,0.07151945839153093
286,0.07132904995366823,0.07147057869581133
287,0.0712893366706457,0.07121079118118195
288,0.07129400492988998,0.07218735983217431
289,0.0713685841041265,0.07183531554740719
290,0.07128011616919157,0.07120343173053571
291,0.07134989080883616,0.07142273878830102
292,0.07130115487271076,0.07161017480852477
293,0.07130400276929735,0.07121387854418419
294,0.07129880718344883,0.07138877973583804
295,0.07134592619171436,0.07114364013910858
296,0.07138923420120391,0.07137073629374756
297,0.0712575693305829,0.07132087267447196
298,0.0713371261328959,0.07152285910819399
299,0.07130963116479244,0.07125173957214265
300,0.07131778988406527,0.07114118125933593
301,0.07129738413148837,0.07138914421447733
302,0.07132482219287913,0.07166122542819171
303,0.07129857280581213,0.0723448500166564
304,0.07132469477067939,0.07112543008510014
305,0.07131340910347818,0.0714066988114494
306,0.07129038058274942,0.07134152174983895
307,0.07133807068010219,0.07149964276386606
308,0.07134189911716753,0.0710500040353991
309,0.0713187271146942,0.07150478165923091
310,0.07128065376044464,0.07178195708246803
311,0.07135842236981307,0.07125667014527527
312,0.07127700869640191,0.07120035946275083
313,0.07134337915028695,0.07165436142645394
314,0.07129477121406418,0.07153810076150917
315,0.07130911254542147,0.07100281993187406
316,0.07131360212324572,0.07244721731287151
317,0.07132119298588743,0.07146714575994458
318,0.07129464454228263,0.07121830949914107
319,0.07134361189903973,0.07143673647692002
320,0.07128204868363439,0.07100672919329641
321,0.07134571829014164,0.07145102102759322
322,0.07130033765241302,0.07139088796788345
323,0.07130840084970379,0.07112650818470057
324,0.07131557765422013,0.07130760341388745
325,0.07130835784210575,0.0714159132684886
326,0.0713217199908839,0.07178569420431201
327,0.07132727856770885,0.07129877006551273
328,0.07135347530043287,0.07143539016229859
329,0.0712672218317084,0.07114999771306339
330,0.07130914454539712,0.07242678620374005
331,0.07129953716167634,0.07107693372675068
332,0.07133432213279554,0.07126512955918309
333,0.07135992297689787,0.07225233369345917
334,0.07127144400307314,0.07187914336136973
335,0.07132377778645232,0.07167002527541595
336,0.07130249444064762,0.07132107439291412
337,0.07131577960009293,0.07152904884708897
338,0.07131418840383454,0.07126399468345349
339,0.07127825818735538,0.07121409375247
340,0.07134908937412104,0.07191359050036794
341,0.07129340653391861,0.0711482467207743
342,0.0712914739003618,0.07179528425411624
343,0.07130851679080301,0.07176481268494357
344,0.07131597528354727,0.07134920522723502
345,0.07133736286005624,0.07333544377111127
346,0.07128940437206452,0.07224568400029226
347,0.07131034443430383,0.07113058376401639
348,0.0712876058519363,0.07148524210292143
349,0.07138481265682874,0.07146078946793653
350,0.07127920789815348,0.07124914514119925
351,0.0712853436448353,0.07133853934181894
352,0.07131637613490807,0.07115825610830732
353,0.07128080777186666,0.0718742673591826
354,0.07131789834033862,0.07108218126416489
355,0.07133934697766098,0.07127428876313997
356,0.0713246645633694,0.07146962171077917
357,0.07130229926640562,0.07128589789676402
358,0.07131144269812498,0.07134098287939367
359,0.07135900241925086,0.07116604859234314
360,0.0712628817493967,0.07194993443251974
361,0.07131754634358424,0.07129569503977813
362,0.07130429032537863,0.0713229738499296
363,0.071264096610933,0.07190895493376791
364,0.07140374778033637,0.07107623337805506
365,0.07125265153048993,0.071132251888443
366,0.07129295865039555,0.0713607253714067
367,0.07130331194681896,0.07160140885644384
368,0.07127882250481182,0.07148355924198735
369,0.0712877791985381,0.07148170360638198
370,0.07131277369878751,0.07173780336587939
371,0.07129517551973093,0.07106911973776361
372,0.07133114448548268,0.07134684965002697
373,0.07130727842211913,0.0714042758144256
374,0.07128705816279403,0.07141907651921192
375,0.0713056191045651,0.07141478524646988
376,0.0713056188306029,0.07171639502518931
377,0.07130461009881861,0.07219481105374462
378,0.07131416700351581,0.07285976350519162
379,0.0713371952398599,0.07182427344001364
380,0.07130944861365641,0.07151947165791595
381,0.07133898144062284,0.07117394074480084
382,0.07127841736236923,0.07116876782492192
383,0.07130083913127963,0.07131441348565312
384,0.07131842168555748,0.07145270148928747
385,0.07130775525927734,0.0711701254242033
386,0.07131277799880285,0.07219519325029973
387,0.07132772575441501,0.07106958984764147
388,0.0712345412014414,0.07167035452992124
389,0.07137713356793737,0.07131973915125502
390,0.07126841065790251,0.07153192321286958
391,0.07126070302929714,0.07104846990381344
392,0.07133339408287803,0.07179126261653351
393,0.07131966988710191,0.071956513765626
394,0.07134426989072233,0.07145479526708892
395,0.07130402208661003,0.07123052232973012
396,0.07130668028224287,0.07120389356950464
397,0.07134943824115512,0.07111039359031367
398,0.07129936753440913,0.0711213366761392
399,0.07130570985156474,0.07105585928027236
400,0.07131104117972578,0.07161157327132989
401,0.07126617739103633,0.07164266210375758
402,0.0712908010134737,0.07181927125427605
403,0.07129307817235934,0.07122112907051757
404,0.07132896736002178,0.07121402974333835
405,0.0712928470346234,0.07111139920699662
406,0.071298491733847,0.07118584023349005
407,0.07130624637972537,0.07118095150004246
408,0.07128756313467864,0.07148879189000133
409,0.07129655187602618,0.07118362749337961
410,0.07132246959612047,0.07155233889747625
411,0.07128495282585101,0.0714196160247501
412,0.07130437659666979,0.07128647771894038
413,0.07135458288790225,0.071348382405578
414,0.07127178213793597,0.07142577821355028
415,0.0712683462410522,0.07168753134070557
416,0.0713244988162407,0.07150381941704084
417,0.07129612984917433,0.07136081587802545
418,0.07131737612670275,0.07166747994068201
419,0.071281654175094,0.07147966178270805
420,0.07133849545550956,0.07188620318929888
421,0.07129208986267006,0.07118227987916995
422,0.07127514232000669,0.07188097662759185
423,0.07129817510203873,0.07124761124483318
424,0.07131691289831885,0.07113772965879447
425,0.07129776990599483,0.07132822981996619
426,0.07128776956519349,0.07188471696018325
427,0.07131721779739827,0.07128158796816805
428,0.07130439671800196,0.07217655883074371
429,0.07129035499408472,0.07128610988842189
430,0.0712735042434564,0.07126675744341787
431,0.07129231199538774,0.07252314163411613
432,0.07130616887820233,0.0716359711648351
433,0.0712905158158496,0.07175909292655568
434,0.07130403499558961,0.07200849213841023
435,0.07128168819702978,0.07153650922458192
436,0.07128457220600282,0.07161653057716923
437,0.0713639291588494,0.07187277557300412
438,0.07127624762346514,0.07157720801815237
439,0.07126712083197136,0.07125227225043215
440,0.07127558844957611,0.07209176953585014
441,0.0713200142248262,0.07149322254505323
442,0.0712971331672274,0.07156700936117413
443,0.07129684864557523,0.07130579652166216
444,0.07128677952239554,0.0712258423595515
445,0.07128462583410274,0.07197702786022975
446,0.07129680641072926,0.07127994699984341
447,0.07128904267347498,0.07136221792792935
448,0.07130828384253428,0.07103954610762488
449,0.07129545652156444,0.07146717537409128
450,0.07130972485688569,0.07125599326561452
451,0.07130774322578566,0.07120497174261119
452,0.07131102752032802,0.0714538208699264
453,0.07133613585484781,0.07169948167799021
454,0.07125525061877892,0.07140812878191895
455,0.0713089183687592,0.07140017687192374
456,0.0713128686505113,0.07115744104301638
457,0.0712958791320749,0.07136760900221947
458,0.07126622356408886,0.07126981959676028
459,0.0712714262967773,0.0712945489146715
460,0.0713215575878807,0.07110903160418688
461,0.07132072656822624,0.07200863815097237
462,0.07130203648305816,0.07177471081360928
463,0.07130096711331516,0.07190012433158194
464,0.07128045117135623,0.07177214147471592
465,0.07128671455166513,0.07135814656492473
466,0.07130907896718533,0.0714679014734518
467,0.0712946008378677,0.0710610148174234
468,0.07132550858729463,0.0711495431629616
469,0.07127391108029561,0.07164682534941558
470,0.07127095557910075,0.07143511026274434
471,0.07126633300007486,0.07109552868822003
472,0.07130362906103893,0.07154434291320988
473,0.07130339709843854,0.07134645399891117
474,0.07130140678095018,0.0713668786571453
475,0.07127889675154483,0.07139823669251628
476,0.0712944452839194,0.07138786837164586
477,0.07131369581682791,0.07133053435452265
478,0.07131100158325487,0.07186561641772149
479,0.07129424757106032,0.07111386092704586
480,0.07134279516710938,0.07147508760842171
481,0.07124888207272088,0.0712556210070872
482,0.07128055334436617,0.07119775658154356
483,0.07132167313739264,0.07226909644719458
484,0.07127178963914002,0.07145369669162295
485,0.07128863365387174,0.07125810425560966
486,0.07133465282303347,0.07132214037870552
487,0.07129491773768247,0.0716179646875036
488,0.07133384541475134,0.07121921350096
489,0.0713356013248245,0.07130789644457547
490,0.07124352178794684,0.07113333278127608
491,0.07131298611180292,0.07152094940148476
492,0.07130392837962754,0.07143240347328202
493,0.07129494565055906,0.0714041831379061
494,0.07125720434146915,0.07149881651976396
495,0.07126053368492569,0.07131647666138556
496,0.07130332740186025,0.07111572359571705
497,0.0712574031129539,0.07133237724710659
498,0.07134078751257855,0.0712744482890677
499,0.07131331533693867,0.0711578116256041
500,0.07125326960707168,0.07130058294995714
