epoch,loss,val_loss
0,0.11936236246675253,0.04919177969545126
1,0.04889230467751622,0.050441833145916465
2,0.04875776423886418,0.0484953278452158
3,0.04869728690385818,0.048608092300593854
4,0.048650150157511236,0.048517422668635846
5,0.04865722782164812,0.04847405652701855
6,0.04862581070512533,0.048886452995240685
7,0.04854134418815374,0.04818145821988583
8,0.04854340283572674,0.04807010423392057
9,0.04850798499956727,0.04825809900462628
10,0.0484742933511734,0.04855941398441792
11,0.048474905885756016,0.048402024239301684
12,0.04844256879016757,0.0483278077468276
13,0.04845580717176199,0.049229495547711846
14,0.0484121745377779,0.04839356653392315
15,0.048406582832336426,0.04796555545181036
16,0.0484001014828682,0.04793375681340695
17,0.048368277173489335,0.048259968243539335
18,0.048352272190153596,0.048759534031152726
19,0.04836127313226461,0.04842393039911985
20,0.0483485064804554,0.0482607279792428
21,0.04832692664861679,0.048506127133965495
22,0.04831095210462809,0.048209571450948716
23,0.04832803478837013,0.04816156667470932
24,0.04832680800184608,0.04787461297959089
25,0.0482953242585063,0.04804270814359188
26,0.048268617991358044,0.048388664819300174
27,0.04827623058110476,0.04797748577594757
28,0.04827756337821484,0.048073353990912435
29,0.048248102594166994,0.048207252591848375
30,0.048268302153795954,0.04825739351660013
31,0.04824908147007227,0.048093697771430015
32,0.0482190759293735,0.047909290961921217
33,0.048219928063452246,0.04798120325803757
34,0.04823328742012382,0.04797083751112223
35,0.04818389294296503,0.04796727464348078
36,0.048241968896239995,0.048344692997634414
37,0.04821706041321158,0.048609440438449385
38,0.048227788753807545,0.047940929025411604
39,0.04819861840456724,0.047971047826111314
40,0.048205579578876494,0.0482377388626337
41,0.04821883703395724,0.0485086202993989
42,0.04815516259521246,0.048054137960076335
43,0.04817484342306853,0.04795820516347885
44,0.04818131205067039,0.04934673935174942
45,0.04818131157383323,0.04810255718231201
46,0.04815266240760684,0.048668631725013255
47,0.04816525537148118,0.04789380898326635
48,0.0481502293869853,0.04794586718827486
49,0.04815412725135684,0.047919075176119805
50,0.04814214586466551,0.04851740830391645
51,0.04816785490140319,0.04804787424951792
52,0.04814269194751978,0.048036141969263556
53,0.048156658824533224,0.047866198554635045
54,0.048146965336054566,0.04796547146141529
55,0.04813249232247472,0.047921485297381876
56,0.04810863441973925,0.04808746615052223
57,0.0481782520674169,0.048098084807395934
58,0.04810330360382795,0.04813403160125017
59,0.04813289836794138,0.04771849344670773
60,0.048128309439867734,0.047790230274200436
61,0.04811096752807498,0.04795081537216902
62,0.04811576142162084,0.04856898587197065
63,0.04811494175717235,0.048002312742173675
64,0.04809640556201339,0.04779607161879539
65,0.04809197698161006,0.048022063612937926
66,0.048104903686791656,0.0478971918746829
67,0.04810329973697662,0.04828027345985174
68,0.048101917766034605,0.04800857991725206
69,0.04809508037939668,0.047841046042740344
70,0.04808967775478959,0.04795427739620209
71,0.04809085177630186,0.04787129762768745
72,0.04808359499648213,0.048239132329821584
73,0.04810415065661073,0.047812899835407735
74,0.04811122677475214,0.04789859651774168
75,0.04809594532847405,0.04792407997697592
76,0.04811011931300163,0.04786555018275976
77,0.048095570981502536,0.047845649629831316
78,0.04811001789569855,0.04795677091181278
79,0.04805351297929883,0.04797753781080246
80,0.04807021539285779,0.04787193356454372
81,0.0480643017180264,0.047904957689344885
82,0.04810744239017367,0.047960161857306956
83,0.048078000944107774,0.048200017668306824
84,0.04808031668514013,0.04794337126612663
85,0.04805995890125632,0.04866612201184034
86,0.04808072013780475,0.04786341781169176
87,0.04807757430523634,0.04784639585018158
88,0.04807782592251897,0.04811923810094595
89,0.04806152838468552,0.04864561404287815
90,0.04809568174928427,0.048040631458163265
91,0.048067671235650776,0.04784212782979012
92,0.04806775499135256,0.048107249699532985
93,0.04805023737251759,0.04937783913314343
94,0.048090752344578505,0.047837779574096205
95,0.048084916960448025,0.048293490521609785
96,0.04803861927241087,0.048091868199408055
97,0.04805617617815733,0.04775207535177469
98,0.04805042040720582,0.04809614020586014
99,0.048063379567116496,0.04775294691324234
100,0.04805101775377989,0.048251341223716736
101,0.04807029696926474,0.04794104116410017
102,0.0480475649908185,0.048072942040860656
103,0.048035349629819396,0.04797124356776476
104,0.04807165265083313,0.04816919959336519
105,0.04801242634281516,0.04780662656575441
106,0.04805659321695566,0.048160703741014006
107,0.048043087881058454,0.04799667219817638
108,0.04804122270643711,0.04788908903300762
109,0.048086173452436924,0.047736542977392674
110,0.04798618578538299,0.0478914160951972
111,0.048059154100716116,0.04789800146967173
112,0.04804118560999632,0.047794494941830634
113,0.04803527808189392,0.04829041856527329
114,0.04804098103195429,0.0477756010144949
115,0.048063363417983056,0.047984137251973154
116,0.04802636275812983,0.047734828338027
117,0.048053778186440466,0.047746797136962414
118,0.04800962689146399,0.04839386858791113
119,0.04805350938439369,0.04802311808615923
120,0.0480229238383472,0.04789258848875761
121,0.04805252538248896,0.047952878668904304
122,0.04803792968019843,0.048475765496492386
123,0.04802341794967652,0.047930834226310254
124,0.04802663963288069,0.047896608978509905
125,0.04807675329223275,0.04780570788681507
126,0.04801606997102499,0.04788316725194454
127,0.048036297313869,0.04810063648223877
128,0.048051773168146614,0.04819096448272467
129,0.0480173556394875,0.047884644001722335
130,0.04803746559098363,0.04786040356755256
131,0.048049564342945814,0.04790580432116985
132,0.04802374016493559,0.04782527831196785
133,0.048036141742020845,0.04781410658359528
134,0.04803469815850258,0.04787995757907629
135,0.04802184430509806,0.04808454255759716
136,0.04803899971395731,0.04790538392215967
137,0.04801001688465476,0.04779304548352957
138,0.04799415137246251,0.047773522727191445
139,0.048060102440416815,0.04789379284530878
140,0.04803148156777024,0.04772096899151802
141,0.04803695170581341,0.047796089552342894
142,0.048053687628358606,0.04777225401252508
143,0.04799164442718029,0.04801898930966854
144,0.04803315682336688,0.04783828353136778
145,0.048021518118679524,0.04810701666772366
146,0.048003413893282415,0.04776295962184668
147,0.048034304041415454,0.04824241542071104
148,0.04802040171995759,0.04770131832361221
149,0.04800889553129673,0.047773629322648045
150,0.048001797500997784,0.04861471811681986
151,0.048018669307231907,0.047801380023360256
152,0.04801203952357173,0.04778119292855263
153,0.04802551570534706,0.047756241597235204
154,0.04800814425945282,0.04785415002703667
155,0.048021519135683775,0.04787048596888781
156,0.0480086577758193,0.04789059254527092
157,0.04800397396087647,0.04803333352506161
158,0.04804008189961314,0.0483788016885519
159,0.048001433338969945,0.04781940501183271
160,0.04802192040160298,0.047791568033397194
161,0.04800568323209882,0.04772076871991158
162,0.04799785844236612,0.04789907705038786
163,0.047995816260576245,0.04782998026907444
164,0.04801147305220366,0.04799034248292446
165,0.04803411338478327,0.0478229516223073
166,0.04803271675854921,0.04844483659416437
167,0.04799143553897738,0.04784179862588644
168,0.04799719140678644,0.04779179255664349
169,0.04801012422889471,0.04777438976615667
170,0.04801288121938706,0.04840626821666956
171,0.04799747053906322,0.047779119826853275
172,0.0480118502676487,0.048108738280832765
173,0.04800235888361931,0.047858934499323366
174,0.04801675628870725,0.048091900259256366
175,0.04799347416311502,0.04775697749853134
176,0.047997198984026906,0.04788175561279059
177,0.04800512471795082,0.0479738100990653
178,0.048014316137880084,0.04786782443523407
179,0.047988646507263186,0.04806900645792484
180,0.04798834184929728,0.048072421111166476
181,0.04803002348914742,0.047846892550587654
182,0.0479854064360261,0.047806670807302
183,0.04801832864806056,0.04768217273056507
184,0.04798981012776494,0.04793428476154804
185,0.04800804154574871,0.04785798332095146
186,0.04803601509705186,0.047895854786038396
187,0.04798711548745632,0.04791652359813452
188,0.04799119389429689,0.047938790544867514
189,0.04797773377969861,0.048058617904782296
190,0.04801419686898589,0.048547573290765283
191,0.04803961681574583,0.0480734503865242
192,0.047983849495649336,0.0481846194639802
193,0.04800625196099281,0.04774026697874069
194,0.047998728085309264,0.04784554117918015
195,0.0480005748718977,0.047949740819633005
196,0.0479906541928649,0.04790155223757028
197,0.04799616545438767,0.047940976046025756
198,0.047996279936283824,0.04833652950078249
199,0.04800311019271612,0.048212015330791474
200,0.04798155508935451,0.04782550182938576
201,0.04799704198911786,0.047733693331480025
202,0.0479965665563941,0.047914588250219825
203,0.048007407907396556,0.04863148079067468
204,0.04798603613674641,0.04812877430766821
205,0.048003700580447915,0.04789738142490387
206,0.04799090462550521,0.04832596904784441
207,0.04797474799305201,0.047798062048852445
208,0.04799181231111288,0.048504754304885864
209,0.047993895146995785,0.047768508143723014
210,0.04797591744363308,0.04803554480522871
211,0.047983720768243074,0.04771239689737558
212,0.04800718717649579,0.04778845284879207
213,0.04797984475269914,0.04768542435765266
214,0.04798730988055468,0.04785145604610443
215,0.047968991249799725,0.047869673825800416
216,0.04796896386519074,0.04783470369875431
217,0.048000650320202114,0.04781440647691488
218,0.04799963257834315,0.04784306325763464
219,0.0479974855594337,0.047769790306687356
220,0.047985697563737634,0.047725074857473376
221,0.048033440165221694,0.0478445176333189
222,0.047986131813377145,0.04804835750907659
223,0.0479765219502151,0.04780133167654276
224,0.047969998680055144,0.047906203977763656
225,0.048014802619814875,0.0476934816390276
226,0.04798996259644628,0.04783046947419643
227,0.04801575554907322,0.047894400984048846
228,0.04801007756590843,0.04774352309107781
229,0.04797399346530438,0.04785672948509455
230,0.04800542375445366,0.047908934317529205
231,0.0480043544434011,0.047929372869431976
232,0.047973221696913246,0.04768304108083248
233,0.047982852689921855,0.04780434438586235
234,0.047983781538903716,0.048002991504967216
235,0.04798179052770138,0.04771943993866443
236,0.04797711724787951,0.0479126153215766
237,0.048018880054354666,0.047845287576317785
238,0.04798088647797704,0.04778922495245934
239,0.04798050129413605,0.04819770824164152
240,0.04800514928624034,0.04819909981638193
241,0.047990844823420045,0.047909765228629116
242,0.04798299042508006,0.048069790937006474
243,0.0479969090372324,0.04781381323933601
244,0.047987979628145695,0.0478463668897748
245,0.04798796219006181,0.048060249306261536
246,0.04800699501112103,0.0480231378749013
247,0.04798377244919538,0.04779423738270998
248,0.04795444310829043,0.04846736637502909
249,0.047992303662002085,0.04806980245560408
250,0.04798508840054273,0.048064164958894255
251,0.04798811548948288,0.04780548343062401
252,0.04798476545140147,0.04792014031857252
253,0.04799267727136612,0.047765917897224425
254,0.047994133461266755,0.047796871811151505
255,0.0479847353361547,0.04780852010846138
256,0.048007820300757884,0.04795029727369547
257,0.04798573364317417,0.0477611663416028
258,0.04798183723911643,0.047763539709150794
259,0.047983847282826904,0.04803838227689266
260,0.04797668068483472,0.047755610667169095
261,0.04798165916278958,0.048135155700147154
262,0.04794959040358662,0.04820194468647242
263,0.047974138960242274,0.048373169042170046
264,0.04798492386564612,0.04786110128462315
265,0.047998215857893226,0.047816665172576905
266,0.04798962571844458,0.047887903206050395
267,0.047981541320681574,0.047759709663689136
268,0.04798106764256954,0.04773696994036436
269,0.0479988451115787,0.04800428856164217
270,0.047966905117034914,0.04775308559089899
271,0.0479735179618001,0.04786665570735931
272,0.0479888623021543,0.04780110309273004
273,0.047970980554819104,0.04797709365934134
274,0.047992411136627194,0.047936678111553194
275,0.047960215691477064,0.049269027136266234
276,0.04798120767995715,0.04877693042904139
277,0.04797630812600255,0.04785465030372143
278,0.04799331998825073,0.048125221513211726
279,0.04799300841987133,0.047733286336064336
280,0.04799259798973799,0.04772281173616648
281,0.04796785963699222,0.04794099906086922
282,0.04798179526999593,0.04830109733343124
283,0.04800488882511854,0.04782752864807844
284,0.047976433411240575,0.04789005918800831
285,0.04800439891964197,0.047852464079856875
286,0.047959828101098535,0.04883589240908623
287,0.047974453143775464,0.0478302589058876
288,0.04798714924231172,0.04801618250459433
289,0.047985354606062174,0.047950656168162825
290,0.04797456844896078,0.047998938843607904
291,0.04796631159633398,0.04775703063607216
292,0.048007212959229946,0.047716080255806446
293,0.047949847415089605,0.047853106297552586
294,0.04795909033343196,0.04785354836285114
295,0.04800695847347379,0.047768063850700856
296,0.047973879620432855,0.04802259013801813
297,0.047957819130271674,0.04784072875231504
298,0.04799933346733451,0.04819032669812441
299,0.0480030805952847,0.04823481094092131
300,0.0479904163479805,0.047787932246923445
301,0.04794057929888368,0.0479825581163168
302,0.04797159218788147,0.0476784989759326
303,0.0479993665702641,0.04821224503219128
304,0.047966137629002335,0.04791511285305023
305,0.04798758174479008,0.0477092497125268
306,0.04800375919789076,0.04788253355026245
307,0.047960781887173655,0.04775710173696279
308,0.04796337667480111,0.04814606848359108
309,0.04798982056230307,0.04772047208249569
310,0.047961268443614244,0.047878421887755394
311,0.0479697849676013,0.048313005097210406
312,0.0480150687918067,0.04775915594398975
313,0.04794716700166464,0.04785139975696802
314,0.04802199884131551,0.04771559268981218
315,0.047957321785390375,0.04795151031762362
316,0.04798822405934334,0.04794581462442875
317,0.0479651969447732,0.04769401129335165
318,0.047973588190972805,0.04798945263773203
319,0.04795948715880513,0.04771742732077837
320,0.047987839587032795,0.04791054079681635
321,0.04796241830661893,0.04774234266579151
322,0.047958942484110596,0.04798091933876276
323,0.04797153519839049,0.04796115604043007
324,0.04797736163437367,0.04795243761688471
325,0.04798782105743885,0.04798997561633587
326,0.047975998852401974,0.048967885129153725
327,0.047989474188536406,0.0480042822137475
328,0.04798719796165824,0.047863338708877566
329,0.047965436324477195,0.04790459474176168
330,0.04797666074335575,0.04785436242073774
331,0.04797727123647928,0.047764356516301634
332,0.0480192808099091,0.04776039677858353
333,0.04794931156188249,0.04986543321609497
334,0.047979231595993044,0.0476913318708539
335,0.047972010906785725,0.048060311421751975
336,0.04796276307478547,0.04772293398529291
337,0.047995392579585315,0.04840267512202263
338,0.0479462869130075,0.04879954008758068
339,0.04800100058689714,0.047978563241660596
340,0.04795859299227595,0.04794750833511353
341,0.04797980320081115,0.04819349385052919
342,0.04795504463464022,0.048141054578125474
343,0.04797623820230365,0.04784053187817335
344,0.04801954080164433,0.04806982695311308
345,0.04797454717755318,0.04806501645594835
346,0.04796362037956715,0.04788341907411814
347,0.047963882561773065,0.04774940193444491
348,0.04796535320207477,0.04780108143389225
349,0.04801618456467986,0.048221314415335656
350,0.0479537535533309,0.04798505255579948
351,0.04797853804752231,0.04779094979166985
352,0.04797082603350282,0.047753941193223
353,0.047960160180926324,0.04917904263734817
354,0.04799991339072585,0.04766891767084599
355,0.04800158052891493,0.047794001169502734
356,0.04794485948607326,0.048199144817888735
357,0.04795599911734462,0.04777752617746592
358,0.04798295225948095,0.04785819040983915
359,0.04799794486537576,0.04831624165177345
360,0.04795862173289061,0.04775987814366817
361,0.04798091159015894,0.047770860888063905
362,0.04798525922372937,0.048040225096046926
363,0.04796092585846782,0.048615491919219496
364,0.04795469281077385,0.04783292944729328
365,0.0479881627894938,0.04785044702142477
366,0.04796702921763062,0.048153151653707024
367,0.047965850912034515,0.047724193394184114
368,0.04798896474018693,0.04774239379912615
369,0.04796074541658163,0.04779702278971672
370,0.04798231821134687,0.047870021112263204
371,0.04796791364625096,0.048451340906322
372,0.047984205409884455,0.047857176326215264
373,0.047946385510265824,0.047846919044852255
374,0.04796232156082988,0.04776474023610353
375,0.04798019032925367,0.04781581632047892
376,0.0479450554549694,0.04782363089174032
377,0.04797945406660437,0.048219330541789535
378,0.0479755964577198,0.04769302852451801
379,0.04795029991492629,0.048099069878458973
380,0.047979551814496514,0.048296524055302145
381,0.0479709804803133,0.04803041609376669
382,0.0479613035954535,0.04814544296264649
383,0.04794973958283663,0.047773904979228975
384,0.047970613177865745,0.04768192743510008
385,0.047970433812588455,0.047774753019213675
386,0.04795941346883774,0.04771484472602606
387,0.047977681815624236,0.047752417467534544
388,0.047942029237747194,0.047850331127643586
389,0.04797009188681841,0.04801609560847282
390,0.04796110727638006,0.047707757271826266
391,0.04800742226466537,0.04787269581109285
392,0.047950473457574846,0.04798121040314436
393,0.04796999733522534,0.04779208993911743
394,0.047946623489260674,0.04773018160462379
395,0.047973682802170514,0.047846181988716124
396,0.04796042054891586,0.04772226731479168
397,0.04794010860100389,0.04787693206220865
398,0.04797607015445828,0.04781621699035168
399,0.04796339491009712,0.047717873193323615
400,0.04796365443989634,0.04803086194396019
401,0.04796884329617023,0.04774661146104336
402,0.04795414396747947,0.04773046889901161
403,0.04794927954301238,0.04800500939041376
404,0.0479967394284904,0.04788859685510397
405,0.047927623331546786,0.047945037886500355
406,0.047978420928120616,0.047973639652132985
407,0.04798142184689641,0.04790972183644772
408,0.047920154713094236,0.04775328452140093
409,0.04796223617717624,0.04812722521275282
410,0.047976436011493206,0.04773070208728313
411,0.047977880775928496,0.04802175161242485
412,0.047952511791139844,0.04793810643255711
413,0.04796605683118105,0.04769072686880827
414,0.04794313779473305,0.04781960224360227
415,0.04796015015617013,0.04764617297798395
416,0.04795923376083374,0.047851424433290955
417,0.047952819246798756,0.047938497446477414
418,0.0479548470787704,0.04781972619146108
419,0.04797417380660772,0.0482002609372139
420,0.047992617342621086,0.047923138670623304
421,0.04794454415887594,0.04778050159662962
422,0.047973493859171865,0.0478781173825264
423,0.047933947991579774,0.04766554665565491
424,0.04796416075527668,0.047761501722037795
425,0.04797698633745313,0.048382033877074716
426,0.04796494929865003,0.047736395388841626
427,0.04794926040619612,0.04766943171620369
428,0.04796821027249098,0.04786545490473509
429,0.04794572105631232,0.047783028520643714
430,0.047963603302836416,0.0480893836915493
431,0.04795461848005653,0.0477283506244421
432,0.04800063355267048,0.04778411644697189
433,0.04796122946590185,0.04796080130338669
434,0.04797729939222336,0.04788024701178074
435,0.04792223599925637,0.04788880913704634
436,0.047979809671640394,0.04803315982967615
437,0.04797472738847137,0.047908338502049445
438,0.047943683184683325,0.047833164744079115
439,0.04795046554133296,0.047807326264679435
440,0.04793333699554205,0.047678101286292074
441,0.04795678032562137,0.04781221992522478
442,0.047972111843526365,0.04791720379889011
443,0.04797737697511911,0.04765348223596811
444,0.04796823898330331,0.04786949605494738
445,0.047972849175333974,0.04792241282761097
446,0.04793478738516569,0.04816566045582295
447,0.04794982840493321,0.04767698858678341
448,0.047949002761393786,0.04768940126895905
449,0.04794688320532441,0.047846199721097944
450,0.04796137810498476,0.04788696344941854
451,0.047976063184440136,0.0477511091530323
452,0.04795842839032412,0.047705109268426894
453,0.04795490025356412,0.04833629666268825
454,0.047965063523501154,0.04777114544063807
455,0.04795027899742126,0.04784291423857212
456,0.047973794493824246,0.04769216945767402
457,0.04795882394909859,0.047962427489459517
458,0.04797141958028078,0.047730921857059
459,0.04795237280800939,0.0477249698266387
460,0.0479638120085001,0.0478459680005908
461,0.047972227446734905,0.04785805403441191
462,0.047920397330075505,0.048232580803334715
463,0.048007988825440405,0.047771586149930954
464,0.0479523168541491,0.0480940662175417
465,0.04798361884430051,0.04773016295582056
466,0.04794076830148697,0.047668657496571544
467,0.04799592347815633,0.047884265832602975
468,0.04795433795824647,0.04771749380230904
469,0.04795628763362765,0.0478591823130846
470,0.047970272533595565,0.048118757918477056
471,0.04795047818496823,0.04783033590763807
472,0.047932915154844526,0.04871586339920759
473,0.047979196131229404,0.047825288020074366
474,0.047922829356044534,0.04779488020390272
475,0.047952880758792164,0.04802665690332651
476,0.04797701631486416,0.04778591836243868
477,0.04796221190690994,0.04785030484199524
478,0.047942356701940296,0.04781758773326874
479,0.0479769686460495,0.0478048143684864
480,0.04794158633425832,0.047911853164434436
481,0.04794578577205539,0.048023875705897806
482,0.047968525011092424,0.04780809909850359
483,0.04797882353141904,0.04770138536393642
484,0.04796931320428848,0.05021416298300028
485,0.047930143300443886,0.048145598039031026
486,0.04796800526976586,0.04772738569974899
487,0.04795501264929771,0.04779007172584534
488,0.04793364339321852,0.04782826868444681
489,0.04798425180092454,0.04772231137007475
490,0.047971740279346704,0.04780074387788773
491,0.04794983786344528,0.047725311554968355
492,0.047956281803548335,0.04781875574588776
493,0.04793646699562669,0.0479185799062252
494,0.04796022179350257,0.047708644472062585
495,0.047957290332764385,0.047739807784557345
496,0.04796142339706421,0.04772731759399176
497,0.0479804707840085,0.04811381222307682
498,0.04796611299365759,0.047997958801686766
499,0.047961471870541575,0.048219402551651004
500,0.04796800661087036,0.04781589964777231
501,0.04796994546800852,0.04779110500216484
502,0.0479386504329741,0.0477418609932065
503,0.04795330897718668,0.047919943295419216
504,0.047961579758673906,0.04783468618988991
505,0.04796220435574651,0.04769507966935635
506,0.04795928291976452,0.04861685305088759
507,0.04797057022899389,0.04784517204761505
508,0.047950049199163916,0.047733124576509
509,0.04795106854662299,0.048076017037034034
510,0.047965912736952304,0.04805768300592899
511,0.047967035073786975,0.04776913252472877
512,0.04796545448154211,0.04794315332919359
513,0.047946018282324074,0.04808589241653681
514,0.04796390448138118,0.0477486439794302
515,0.04796327595412731,0.048245377272367475
