epoch,loss,val_loss
0,0.7995581248466918,0.7167300091499217
1,0.6990539173809268,0.6938327349069651
2,0.7193837501495767,0.7040422364022663
3,0.7137198728694618,0.8497035581715575
4,0.7341787569600043,0.7114046673277935
5,0.7061577009902202,0.7146271741945347
6,0.6979069620442333,0.683927839255841
7,0.6910659760760842,0.6756210698560174
8,0.6887081294275111,0.6900849816078451
9,0.6869762789407413,0.6778574529697129
10,0.6847472838956199,0.6742366772048005
11,0.6826486987270992,0.6778123568811093
12,0.6824449132338798,0.6833345800661721
13,0.6818090320753155,0.6798594494739102
14,0.6791291093702415,0.67186829840563
15,0.6786966123860135,0.6694971326071161
16,0.6786205863876403,0.6695371156568686
17,0.677163518316073,0.6691315517758608
18,0.6769423134845319,0.6868687272542278
19,0.6767973614086826,0.6632657019567
20,0.6749541841441398,0.6773070688546879
21,0.6809291534548659,0.8251026026498829
22,0.700822403557676,0.6963409358531166
23,0.6869039031193792,0.6833027234534721
24,0.6819095154174512,0.6793070591945016
25,0.6801904633843737,0.6799246373850244
26,0.6786783962226886,0.6787365526548971
27,0.677030528823344,0.6712738795833693
28,0.677372225349565,0.6741968565036108
29,0.6761836757977232,0.6741425102398728
30,0.6755706690531745,0.6721185605264406
31,0.6746527137968847,0.6832115195732749
32,0.6742833428007426,0.6694831539771645
33,0.6748943566608963,0.6675103907991603
34,0.6745178508434555,0.6688750599347049
35,0.6751687099321855,0.6677850367238226
36,0.6748494517078979,0.6741674661918616
37,0.6736164824377529,0.6917833645887608
38,0.6735211337903897,0.6661545982394711
39,0.6593549688228314,0.6242154286476036
40,0.6314405058261207,0.6230182217253224
41,0.6222658358829961,0.611559466938852
42,0.6195746954801462,0.6341035265854803
43,0.6172849208378582,0.5994967378869994
44,0.6166453974531423,0.6186796907444309
45,0.6164971509163709,0.6053787677209963
46,0.6362187860549974,0.6423881409576585
47,0.6368879371648022,0.6348837663455563
48,0.6331067762071851,0.6247870478699691
49,0.6272787527143241,0.6341959195948061
50,0.6242335840618963,0.6315789108635783
51,0.6292421247938172,0.6370215102406873
52,0.6305551277361899,0.6315710737701468
53,0.6357778052536608,0.634783248075276
54,0.6374811761194377,0.6316236978736371
55,0.636983362843188,0.6275635161734794
56,0.6439131097160845,0.6392102872139841
57,0.6271612130814224,0.6054497894661203
58,0.6132581298954958,0.6022756979657424
59,0.6098220359018857,0.5725383174612283
60,0.5809747849544176,0.5604880782169155
61,0.5842940390681763,0.5884799924932697
62,0.5863088894900468,0.5789423415227113
63,0.5983198971437703,0.5928600487999777
64,0.5959497210647848,0.594106134247761
65,0.5976982780045076,0.5879507689444964
66,0.5996916464371361,0.5912457166714469
67,0.6023816257941542,0.5944515736251716
68,0.599379319152672,0.5880783127463514
69,0.5957322604388451,0.5898761251425311
70,0.6011071343847412,0.5975081895690503
71,0.6092357618762531,0.6249011298428395
72,0.6245853372043271,0.607987138189099
73,0.6942612310941462,0.6188668079186164
74,0.6024977116109275,0.5760474219835924
75,0.5971363955240646,0.6041133075411524
76,0.5959566353882054,0.5863338541989263
77,0.5969749939837139,0.6179106283488948
78,0.5963616833972226,0.581109209896169
79,0.5970136142617983,0.5864282708024076
80,0.5953013880385293,0.5910243566758819
81,0.5951797453869733,0.6055482011802947
82,0.5979161834140285,0.5864658166831558
83,0.5980363165041049,0.5927053567642477
84,0.5984740041011719,0.5854002540047561
85,0.6428562209522315,0.603530571099897
86,0.6014955969427606,0.5926264136229901
87,0.5978245406235151,0.5950945847224511
88,0.5929544305117678,0.5790349768670224
89,0.5940236140736382,0.5788891477173675
90,0.5925966448230232,0.6232219996796693
91,0.5922877126329428,0.5847728850809533
92,0.5959434414224373,0.5849369447251992
93,0.6454053185731292,0.6318495616069815
94,0.6018355134829915,0.5844536417097018
95,0.593572850481307,0.5850107732163514
96,0.5916458968397715,0.5911574204700052
97,0.5912652071431387,0.5719679172526407
98,0.5915242053812547,0.5977640857518707
99,0.5941225741621402,0.5790349275532348
100,0.5925438760353221,0.5863516476790361
101,0.5937509351223111,0.597511225771791
102,0.5944076928374864,0.6043472950182849
103,0.6018921144300704,0.5895939057938396
104,0.5752218679594193,0.5826972850496221
105,0.5771225908939406,0.5583451241607635
106,0.5788927879110038,0.5769982519305966
107,0.5761609317825662,0.5616438530779487
108,0.5768542485199958,0.5771443340118795
109,0.5784552531967536,0.5806968566486002
110,0.5866124957478304,0.5783511282142543
111,0.6101542534016305,0.6172416124437019
112,0.609835856490665,0.5921941554701601
113,0.6108279263646864,0.6192838021075528
114,0.6128996792171213,0.614657806310488
115,0.6112997958735882,0.617579090026014
116,0.6106456208595936,0.6128148398558362
117,0.6099878570837655,0.6182960882465389
118,0.6149858645171665,0.6061410703523571
119,0.6140342848204213,0.6101098681234806
120,0.6133371233213529,0.6293415928931337
121,0.6128978365831238,0.6071007521889205
122,0.6096362106972556,0.6034773616171674
123,0.6077918272069414,0.600451125683235
124,0.6074313425141082,0.6050426209876174
125,0.6039469894840658,0.5993446142963283
126,0.603085920810223,0.5822154922850412
127,0.6022228505566632,0.5997627872529704
128,0.6016821009125546,0.6086536690816224
129,0.5982774567666004,0.5779346395592663
130,0.5980867948010862,0.5911027668330645
131,0.596946622268092,0.5730057063658781
132,0.5973261078413156,0.604398393793283
133,0.5953056885720157,0.5836118158032411
134,0.5966743882790172,0.5957183439428635
135,0.5973053152719847,0.5892588212415752
136,0.6062200398658582,0.6073567700625971
137,0.6131022670607773,0.6079744393654292
138,0.619180682180025,0.6100756312413957
139,0.6258019614133904,0.6117113767031525
140,0.6285517761389986,0.6284673216781376
141,0.6324331261318841,0.6251527477458602
142,0.6296702180144121,0.6176576012923385
143,0.6141509027968494,0.6254186413611779
144,0.6255889996993456,0.6377763492955687
145,0.6337794191438517,0.6313072546505044
146,0.6256336665017713,0.6105285074382479
147,0.6227051160401769,0.6124968293527966
148,0.6277654526187934,0.6152389042708661
149,0.6215649865371146,0.6287102106996851
150,0.6159074755428697,0.6398372350711943
151,0.6021346733045521,0.5956050631161647
152,0.5913937672746362,0.5804062504982892
153,0.588655285435996,0.5651512051673037
154,0.5637096009142012,0.5567447892092492
155,0.5721138230473589,0.5602464823856445
156,0.574617011250733,0.5708551038859299
157,0.5847239394863541,0.5764227779530688
158,0.5926886958886775,0.5737511355550438
159,0.5976767893448818,0.6067023887089509
160,0.6062161302049573,0.6129212356286436
161,0.6104156967106579,0.6111761463516419
162,0.6120592599078049,0.6295953903408998
163,0.6182739752040302,0.5943443462805383
164,0.6206885350527142,0.6197545261084798
165,0.6161813923328233,0.5862779967198715
166,0.6145443812096052,0.6248526506849227
167,0.6470303326178131,0.6582824198063095
168,0.6615180855841755,0.636018046216882
169,0.6374535179204888,0.6367443232152438
170,0.6114824038031671,0.5877523421065113
171,0.5963361370596859,0.603874279708023
172,0.6145745135671038,0.6348689822061098
173,0.6209547419389851,0.5961745662442699
174,0.6166078296127461,0.6703193861382536
175,0.6240838092031906,0.5552047089318544
176,0.6051233973053338,0.586053237142578
177,0.598370328533659,0.6048718898571093
178,0.6054352198561413,0.6343469855676228
179,0.6163866602235751,0.5812197970116147
180,0.5984877608091139,0.5959229232786016
181,0.5909658735104316,0.5473025728020032
182,0.5894553913153429,0.5551300636994716
183,0.5711523903121384,0.633045334066099
184,0.5914659161123631,0.5773200532325912
185,0.595476417738995,0.5928209723923841
186,0.6053852178305268,0.6025857213640552
187,0.6078542851203447,0.6010450995993972
188,0.6002280271644119,0.5927423943119343
189,0.6069261195669643,0.6027175348719557
190,0.609052148743642,0.6007846022626031
191,0.6049189457445027,0.6175071402572702
192,0.6088247181271478,0.6055406865023588
193,0.6017505430596338,0.5781193392640884
194,0.5937096399845455,0.581130160023212
195,0.6064038611918712,0.6311535688959526
196,0.5882242782939252,0.5790153831219993
197,0.595051995337867,0.6150472775254554
198,0.6019172028755303,0.5973363029575762
199,0.6024168927928241,0.5903164558318439
200,0.6071199197753918,0.6000132711976178
201,0.601846189366923,0.5766982269644643
202,0.6012929179888072,0.5904902919668237
203,0.5920794553083958,0.5638098213718741
204,0.5922948039240308,0.5989544935694998
205,0.5994415284930278,0.6130049923977329
206,0.6185044158848642,0.621426871503632
207,0.6541482692690109,0.618986975786812
208,0.6213201269638433,0.6157686600274896
209,0.609031326705508,0.596543564910294
210,0.6010204211985178,0.6049651511325174
211,0.5960998254225884,0.5814944523450608
212,0.5904515956719811,0.5841311209533002
213,0.5871960097830072,0.5902049449149699
214,0.5831893279219417,0.5745700140025735
215,0.5813874857102652,0.560317894124853
216,0.5829453807678535,0.5537565927408583
217,0.5806396091334539,0.5985546871702221
218,0.5809112384760504,0.5619092066761256
219,0.5821384022192513,0.5753780991168312
