epoch,loss,val_loss
0,0.4842836612148033,0.3297859828644232
1,0.3150300331670251,0.2929787174507746
2,0.3143346609355355,0.281787805543232
3,0.3175139200923632,0.30983463265696676
4,0.3126664249251803,0.29570151988752275
5,0.3126763118396672,0.2914168457021002
6,0.31139498711634483,0.29234859487532794
7,0.3143351919668689,0.30543332212791147
8,0.31310152210551706,0.29032311873134325
9,0.31285441288048976,0.3033711323869586
10,0.3110699806693461,0.28703547805088475
11,0.312272228163371,0.2858017007703232
12,0.3115302757371226,0.31488812456794224
13,0.31078460018595666,0.2913495072458976
14,0.31216887338124244,0.29912324595383677
15,0.3136774699290912,0.2865916921153652
16,0.3130089722997289,0.29680786160366956
17,0.31136082708716295,0.3009123436363364
18,0.3113370917922406,0.2843301201485466
19,0.31188989442596443,0.2850933586642303
20,0.3115610897159271,0.3002905052967992
21,0.30676507911651585,0.25134738099014287
22,0.2546302934078048,0.22126416694025441
23,0.24988520903001316,0.22375376173276199
24,0.24959470161659608,0.23300675416949893
25,0.24945977678577647,0.22830187695498208
26,0.25279204938128247,0.2360509244025672
27,0.25217820360982196,0.2336552752678895
28,0.24899858291193044,0.23973477962339979
29,0.2481322569833745,0.22151537349527672
30,0.2479528161146051,0.23248061187269237
31,0.2520156801582051,0.255891103560327
32,0.24778633734719863,0.23539447942741112
33,0.24706060633814936,0.227085611705169
34,0.25277746298176657,0.25717355723025254
35,0.24941238811056168,0.2187247472450391
36,0.2493336284943253,0.23396743945203366
37,0.24826044356040328,0.238189016452961
38,0.2502566150384392,0.24269519978341106
39,0.2508906062313611,0.2333110550120896
40,0.24960165177348903,0.21888181451173305
41,0.24956624138894512,0.2247797309119626
42,0.24629476613359894,0.2583796235355824
43,0.25043158697857676,0.23056294270530525
44,0.2479022970681099,0.2435693965268541
45,0.25022794398739395,0.23172410004088673
46,0.24942974385330446,0.2151197538396158
47,0.24947587988250633,0.24103730377973046
48,0.24979110680717387,0.24847532148923898
49,0.24880439977201105,0.23175869323766435
50,0.2486338772661119,0.23083505287029255
51,0.2481865776453713,0.2333093115883152
52,0.2513029202580261,0.23450550664177003
53,0.24834249201443218,0.22870035705195146
54,0.2453495118799832,0.22940657323487676
55,0.24847672336859356,0.2268789360195471
56,0.25019672585784003,0.2255536029228619
57,0.24882057425472812,0.24711560471842953
58,0.2507315618906907,0.24095282548342115
59,0.24886086419093503,0.2347096759835009
60,0.24904845746232568,0.2400928060890501
61,0.2500104068862714,0.23623307863822915
62,0.2522564767252168,0.23373869636729783
63,0.2538772144252725,0.22557498970267642
64,0.2507505159052588,0.24918888603538783
65,0.2495791915240433,0.2374014136081581
66,0.25008306518089685,0.2393509351254863
67,0.2505840190393243,0.241747073931899
68,0.24812924230189395,0.23111382786664939
69,0.2523769215226555,0.21738456645247806
70,0.2514467658497411,0.2567446820999874
71,0.247530281299157,0.22940164795998916
72,0.24646780084523323,0.24214343907914312
73,0.2486395018877651,0.23929286009155437
74,0.2506264162729319,0.23273104100525138
75,0.2515188938467573,0.22742744273561244
76,0.25110540231220047,0.24946288005520634
77,0.2487758235801593,0.2420765533620327
78,0.2508741126025172,0.24243204659402418
79,0.25006331555288824,0.23093358806159955
80,0.25122464044367054,0.2132358860529639
81,0.24844877076468724,0.2186674351674797
82,0.24949185255530168,0.23326147465520242
83,0.2511818255957744,0.22857469888305817
84,0.24789309226054015,0.22334177163637275
85,0.24628379179225912,0.24988242995903343
86,0.24876179364774587,0.22266427098206168
87,0.2488072765491503,0.23026798341637786
88,0.24841771715636057,0.22490307135206844
89,0.24918855725525854,0.21996895671615926
90,0.24782956229318515,0.22412834505626852
91,0.2488521670667623,0.23170204106521916
92,0.24889864426574485,0.22449147744770467
93,0.24992713764655866,0.2359764383681306
94,0.2474237384082223,0.22547509810688626
95,0.24692091740089192,0.2273756698172748
96,0.24840073115688213,0.21466051814329884
97,0.24727505672755865,0.22706144336317965
98,0.24870287122322712,0.22149405861084576
99,0.24621444102451265,0.22697824298948752
100,0.24859097855295345,0.2267963911398387
101,0.24893384678565186,0.24235113628589325
102,0.2457436429287454,0.22131688067416108
103,0.2467143435815604,0.22024763075201279
104,0.24741120722959098,0.22916480268005038
105,0.24662730934096871,0.21134250307121802
106,0.24675564528752367,0.23273609207591098
107,0.2483877732789068,0.2356474320528861
108,0.24756665183029908,0.23157914880805158
109,0.24864074035441044,0.24286963351354884
110,0.246181656322401,0.21899774098966726
111,0.24903604521261777,0.23106031980296024
112,0.24985494133565214,0.2204902864938235
113,0.24862972750746792,0.22613960422351895
114,0.24450043525645215,0.21845022196800654
115,0.24688760424442918,0.22757340694527653
116,0.24650978760494052,0.2367539329806287
117,0.24609951655849444,0.22415308807791487
118,0.24607787179865773,0.220651309855663
119,0.24748120752809713,0.2291103532206983
120,0.2469191227594407,0.24138532479845792
121,0.2450791836035452,0.22506937749581132
122,0.24659537031852885,0.2297053556566014
123,0.24662069029646744,0.22151362232483215
124,0.24602319581733884,0.23430366347644355
125,0.24357832489823036,0.21663585858720158
126,0.24350726883634746,0.22913769563087485
127,0.24849539281154653,0.21969521165329176
128,0.24371120244789543,0.22813130342322255
129,0.24819416539658537,0.22560376730133438
130,0.24423528871863628,0.22468401405836447
131,0.24807439891813848,0.23558290630264778
132,0.2471877404147859,0.2172288526656274
133,0.24742228042683284,0.22122687526766305
134,0.24668623345961468,0.24612407914430073
135,0.24559903299932578,0.22627375796376836
136,0.24899345695423641,0.23705139863761768
137,0.24751821030870833,0.23672601602373333
138,0.2451536550258903,0.21116404080671308
139,0.2460711253128403,0.22340969048857398
140,0.24680002247265953,0.24421470875142554
141,0.25098689307299876,0.23950022979906102
142,0.2490434187163917,0.21804524686214696
143,0.24974975717053402,0.23180164811288256
144,0.2563071302992043,0.23194311744105206
145,0.2557664948155443,0.23337349931302345
146,0.2525448147789109,0.22987795306334918
147,0.2516968958348251,0.25826569481632716
148,0.25032972127461645,0.2592735153359315
149,0.24981969757806405,0.22842463646733654
150,0.24945266766725682,0.22949784059932535
151,0.250271756252687,0.23081321170778654
152,0.2513123062596596,0.22076762118962173
153,0.24741175749881253,0.22180310760633015
154,0.2493989787834754,0.2181704990378455
155,0.2512404759398835,0.2254506364307651
156,0.2509687960660868,0.2241660248116565
157,0.24964441358446599,0.2451572540636867
158,0.2487078061919388,0.23951076667239196
159,0.25066827200621583,0.22381480764491907
160,0.251039173964074,0.23063266490014317
161,0.24879510736494087,0.2399115370887136
162,0.25335087408248286,0.22721633987028428
163,0.2506428564890468,0.2321206287504306
164,0.25061629361825716,0.2477757834194157
165,0.25203732812733914,0.2475923254711301
166,0.24910932408274414,0.2583865901366154
167,0.2484187601183394,0.21882078316234904
168,0.2509883628655568,0.22664995507215543
169,0.2539372066911265,0.23258409858813445
170,0.25249918827039897,0.2409007069620773
171,0.25460432618975737,0.21828262661398665
172,0.2534065829087392,0.23411339170934703
173,0.2530315785383205,0.27484723482060414
174,0.251656715134032,0.25319546822455485
175,0.252617995443346,0.22372951313236913
176,0.25460685281943474,0.22880561979727734
177,0.25140637439117136,0.23131129242304566
178,0.25280416900630565,0.2219478583321374
179,0.2550492310781685,0.2401033721483537
180,0.25281772992198615,0.23081193948942572
181,0.2559801029135362,0.23248121365965235
182,0.25418948513970935,0.25892070467551354
183,0.2550329046847345,0.24399147562785353
184,0.2591574931975075,0.23247652888201353
185,0.2561115251303769,0.22849824397378304
186,0.25186172343068736,0.21949348302024801
187,0.2563137267772153,0.2199350710647046
188,0.25698985285860143,0.2238942746553398
189,0.2544666174486029,0.22406229489186094
190,0.25428734454896756,0.22511657751002934
191,0.25393168913950626,0.2522452378891777
192,0.25284075649907056,0.22928406193018538
193,0.25357239307452434,0.23808686405009402
194,0.2563029113378498,0.22388777777322985
195,0.25513093846382573,0.2484783704626009
196,0.2571608995000203,0.2242174076047837
197,0.2557553081416053,0.23343599774396623
198,0.25572327647904,0.24273070583039924
199,0.259207427817836,0.26239354217187816
200,0.2571247732333893,0.23592465676047022
201,0.25385229873528375,0.24413581147777869
202,0.2606473758792858,0.2461582064411066
203,0.2612596969780109,0.26102236737493373
204,0.2584460529150535,0.23136086597591518
205,0.2594831868755617,0.23678488182228752
206,0.25756385483390526,0.24880921453938482
207,0.25651129964497493,0.2285565853553967
208,0.2595110353443315,0.24403860609123404
209,0.25973846196078415,0.26720452666379335
210,0.2554591819584322,0.2457498692320501
211,0.25352375508189867,0.23739575324557413
212,0.25772545861902,0.2374987260703623
213,0.260141794160426,0.2448105535682197
214,0.2574808958401863,0.23320526121499957
215,0.2559819241122211,0.22366626067608233
216,0.25501147372494515,0.2698402315354019
217,0.25428561214283046,0.23033144250693402
218,0.25454789038607367,0.2497189796657361
219,0.2568998117151978,0.2517196969080049
220,0.25532655674424337,0.2433544076610559
221,0.2566864248976601,0.23686434082016167
222,0.25372038521558593,0.2650047400233616
223,0.25476523359314357,0.22022298780864366
224,0.2542210749452643,0.22009673790775075
225,0.2570369382194274,0.2422130672866894
226,0.2585967350497639,0.223118147916264
227,0.2565031030101238,0.2379680055481384
228,0.2583712833680755,0.23923680621342067
229,0.25889690680275734,0.2391366847796065
230,0.2574282948783725,0.22990930603706827
231,0.25764821525857007,0.2435260989370137
232,0.2515853967627971,0.2259281429931195
233,0.2551050082779675,0.24055159200717063
234,0.2555798633132962,0.2609099436608738
235,0.25287361614245046,0.2671350254484627
236,0.2543517627102361,0.23781590126243338
237,0.2576275392949247,0.24546745140332085
238,0.2558994636094694,0.22733553110441346
239,0.2559903047328667,0.2535190555446049
240,0.25458222377696355,0.28367210755431355
241,0.2552403807043552,0.23368879764764558
242,0.2543292481413453,0.24309557507121263
243,0.25585019466183107,0.23114452555183462
244,0.25608184395001543,0.22703816703636281
245,0.2553146300290087,0.22357300425436277
246,0.2571236165441734,0.23394312393539626
247,0.2580534646077286,0.24697368819831544
248,0.2567021099088476,0.23293854745780174
249,0.25498026907086085,0.27279031078504146
250,0.255582319857408,0.263340572286503
251,0.25537062198329297,0.22368295275623587
252,0.2563414620914108,0.23400353563576332
253,0.2572791770315342,0.24626218685268486
254,0.2566088876061386,0.22930841822258746
255,0.25653155307301145,0.24226646632898752
256,0.25388036261471486,0.22291974129951397
257,0.25713376839271634,0.25681962430573824
258,0.2566757787039893,0.22287037637498644
259,0.2585895270097246,0.24131686968573302
260,0.2552709770414999,0.24501045918377645
261,0.2588523412533433,0.2599099286184597
262,0.2548626025108169,0.24662754058064432
263,0.2558394521892405,0.24738716106296843
264,0.25620696455645886,0.24383215696852284
265,0.25809678235490197,0.2474224011731747
266,0.25620723299210885,0.22724111530467542
267,0.25405377635152177,0.23331802664060275
268,0.25551415133991656,0.24601468690410438
269,0.2568827448688668,0.23807871576159928
270,0.25690427587760556,0.22508384785271232
271,0.2570518199637759,0.23448943395684235
272,0.25436066944686003,0.25297560613520825
273,0.25395508831123814,0.2365280788237741
274,0.25584341116172016,0.216998173880171
275,0.25373479648768377,0.2425356742722758
276,0.2583664152040493,0.24047683627742727
277,0.25789797184966484,0.2282960298263437
278,0.2579666959036819,0.24725498049992037
279,0.2559607940628301,0.24743535348485374
280,0.2580619424319057,0.23591983700223987
281,0.25775891106972415,0.23595780716711973
282,0.25663855244771683,0.22217898461167057
283,0.2591551958595971,0.2578258182904823
284,0.25718058435152397,0.24512841579687855
285,0.2571968401165558,0.2520919340176981
286,0.2577738610802411,0.23975647815532639
287,0.2565092607449779,0.23522386677557147
288,0.2563158321001226,0.2419725780625316
289,0.2562084796013023,0.22594996102438258
290,0.2540378485194104,0.24361617177942374
291,0.25289305595396233,0.2456363389889399
292,0.2556948412338002,0.2450471879356969
293,0.2572177879458623,0.22362133430351788
294,0.25290346143243786,0.24459408988627784
295,0.25720398420925805,0.25641229711261493
296,0.2568387986303235,0.23158297250885743
297,0.25703135285499673,0.24607072908367844
298,0.25818380303651073,0.22903223094037173
299,0.25856244287269414,0.2282963342185148
300,0.25779470721419284,0.23462363823776988
301,0.2560513463196418,0.24857722909249433
302,0.2554767022462632,0.24887367274494357
303,0.25591235453362843,0.25556366602434727
304,0.2582443073881064,0.25523966555661143
305,0.2571739939878806,0.2867861265635355
306,0.25820851161348235,0.2311140807271487
307,0.25525701616266616,0.21685106596710813
308,0.254193979545867,0.229257541488847
309,0.25928542068044697,0.2360951116388635
310,0.2625550366132807,0.25145668541863014
311,0.2582080161647858,0.24337198994358863
312,0.2555712335962978,0.23219687840315933
313,0.2582201027006412,0.24809757759681295
314,0.2576402306819172,0.24355696231150956
315,0.2542654099024898,0.240510516986553
316,0.2564920235016615,0.22939874521862272
317,0.25483079576153483,0.2364734576566376
318,0.2576506922932698,0.23476105087284915
319,0.25956146633200305,0.26542892800727125
320,0.2546004380067412,0.25459672938443156
321,0.25487642785947356,0.2258875368696253
322,0.25930770789627267,0.26376336574892834
323,0.2564667946964001,0.2301619248426937
324,0.2609168233825647,0.2428056874583624
325,0.2545643161901767,0.26486360138495185
326,0.25581646786392737,0.24538883832732739
327,0.25458415449739363,0.21874304856600457
328,0.2579482267375848,0.24905826803976602
329,0.2593751527351127,0.2308639835291342
330,0.2604696738471786,0.2388889599117146
331,0.2605615405080985,0.22674039713222616
332,0.259838826984191,0.2810700438366803
333,0.2622861726950702,0.2592757420866642
334,0.2610768272852401,0.2304505876477714
335,0.2568432782784856,0.24460142430307802
336,0.2602492522499006,0.24271305267973248
337,0.2557026872797619,0.2542347278134763
338,0.2607661772957795,0.24324625811485961
339,0.2615585708386713,0.23655187731966776
340,0.25726730236895473,0.23564578100905995
341,0.2598298890553445,0.2570253298206244
342,0.26178995520473003,0.2605689236983379
343,0.2610007586111251,0.2504553139354771
344,0.2582399690265747,0.23917684316731813
345,0.2578541752132919,0.24325879339947512
346,0.2559962943613863,0.21855306706337646
347,0.25757498862005596,0.24622719224303696
348,0.259418911850147,0.2268257388257439
349,0.257222613726882,0.24027780326806908
350,0.25901569324054174,0.2539954800989603
351,0.258633053104719,0.2522834425207472
352,0.2579179293900323,0.2683389688277767
353,0.2588319287980624,0.2636641117125532
354,0.26030849014596047,0.242879476111204
355,0.25532316979023817,0.26556464854479805
356,0.25843947624759356,0.24739208967339577
357,0.2588801344005082,0.25143313360765324
358,0.26162623943353863,0.2661929705572244
359,0.2575293295413518,0.2313341944926363
360,0.2575693546389464,0.250961608453582
361,0.2620251439839864,0.24596613649179175
362,0.25863286622578474,0.2354631820105965
363,0.2560160683693172,0.2575646038473087
364,0.25969748765087014,0.25968197965805645
365,0.2594436192937237,0.2601103133069531
366,0.2593815449872811,0.23877582211419032
367,0.2557392468015321,0.2563804243747915
368,0.2596446965232766,0.23617979620688345
369,0.26188693098348076,0.25515948597338756
370,0.257307263763787,0.24420297961600507
371,0.26218689943524337,0.2391672743377121
372,0.2596794555695941,0.23399727862246716
373,0.2584320453821038,0.23990325355375094
374,0.2610863068814369,0.2530217945865761
375,0.25650460216954196,0.2472418570242949
376,0.25726490267951363,0.25492773941640245
377,0.2628585747461781,0.2522997226617439
378,0.26278488751981044,0.2568930787157452
379,0.26211882283608373,0.2376950669245128
380,0.25958678767001564,0.27177959084752507
381,0.2608007266580629,0.25129607324665965
382,0.25537112104095777,0.25909431463610516
383,0.25967691141405136,0.2549763546783752
384,0.25608512010571477,0.26525498201522224
385,0.25989589858665957,0.281894547431235
386,0.2578449068640212,0.23883359895570436
387,0.2568853650155594,0.2464570342310057
388,0.2583539477222151,0.2653964672355466
389,0.26291673110903885,0.23767718600240648
390,0.26366917624938385,0.2534469664096832
391,0.25853162647200356,0.25383598542948227
392,0.25524784626366137,0.24139016442490321
393,0.25836430379063535,0.2559533638989935
394,0.25959305712778724,0.22934344209071977
395,0.2579886411324895,0.24094230195224914
396,0.25733422119919064,0.23363701794946087
397,0.26047380592486113,0.254884252607194
398,0.26014309665792174,0.2551813625095341
399,0.2589704671127496,0.270987154153045
400,0.2557394206165981,0.24836228595742924
401,0.26115209476245316,0.23166257887474426
402,0.25951856053214345,0.23177383252739037
403,0.25876049461772294,0.2612505206250603
404,0.26059138385938396,0.22524618551388853
405,0.2618340907023371,0.26933492210127913
406,0.2577673096457322,0.2473035389610354
407,0.26014288755848086,0.26117333990959063
408,0.2596500676223714,0.25181695242432783
409,0.26168840303957414,0.2663644742574135
410,0.259119399023161,0.26172673726410567
411,0.25912539387722794,0.2695772382948134
412,0.26091941929250073,0.24528158977567327
413,0.2633790249605958,0.24844270971182972
414,0.2583654636354614,0.2734893942304675
415,0.2575689410273317,0.24769088490552663
416,0.26310981310802617,0.2331601260690697
417,0.2602199395362428,0.25379085897287507
418,0.26089328537591466,0.25857670388855974
419,0.2586134656714954,0.23718670118125781
420,0.2584375902902994,0.22405825683428618
421,0.25790704306575946,0.24667228418738496
422,0.2612439043420233,0.24306235453363173
423,0.25923772411550683,0.24218676044074675
424,0.26235165562125756,0.22449501947668252
425,0.259901739072332,0.2636635424712762
426,0.2575823386744846,0.24730979230040376
427,0.2625634712670401,0.2298864647202248
428,0.25838053756183965,0.2624109639859451
429,0.2629135237742749,0.2404452585777614
430,0.2578989180614702,0.2687175867887212
431,0.26183909077564177,0.25750721558408823
432,0.2602050489693093,0.23732144173479428
433,0.26041595010851937,0.235562989323582
434,0.26052727881935334,0.2501690821708554
435,0.2605375596303478,0.24735714856532176
436,0.2596774774613239,0.2478055560724192
437,0.2558565656121394,0.24374625705551153
438,0.259485151174309,0.24134257514353022
439,0.2596199641569411,0.22989827227708487
440,0.2585122476967933,0.22002283697049016
441,0.26225486938790193,0.2557781398997303
442,0.2614422749468477,0.2570347954176928
443,0.2598418227678017,0.2683369311513885
444,0.2638502005663655,0.2525620502929618
445,0.2597852556215371,0.2671294022964832
446,0.25938126085112817,0.23755078642521074
447,0.2635307917841155,0.24516283037308648
448,0.26059864689890533,0.24287034624346077
449,0.26091197851278763,0.22791459779379722
450,0.25929601737458385,0.2604294544733934
451,0.261160111903333,0.23311467722529622
452,0.25807861134326393,0.21544552246971238
453,0.26095030588613116,0.2307870154301519
454,0.26096033037687133,0.2607088868127832
455,0.2629723895469411,0.2436726458751372
456,0.2630337984908858,0.2590429250993868
457,0.26168319952187297,0.2351490685539524
458,0.2592364755019939,0.255400890186852
459,0.2613697526059311,0.23598103112837984
460,0.26292458397923135,0.2500922911455258
461,0.2602374986100426,0.22761123080564918
462,0.26445344698915874,0.24154176889931586
463,0.2560631141985198,0.24414493217278765
464,0.2603114288303258,0.253075296740559
465,0.26202593014252673,0.2493511469912355
466,0.2603408650124522,0.26497159365319856
467,0.2577102458577236,0.24576715262121818
468,0.2621352081839517,0.24316400181976452
469,0.26164131823948045,0.2536150968761243
470,0.2591723977111644,0.2554358355852036
471,0.2606165774279923,0.24798799252374715
472,0.25895409191771446,0.2303021431500991
473,0.25757925155713524,0.2629788777302265
474,0.26152372970473203,0.22219008765661513
475,0.2626366806540898,0.24646197295681985
476,0.26045188100768435,0.2493857631621473
477,0.26266107879418005,0.23388222295002345
478,0.2606689398280614,0.2560708000953857
479,0.25929983193464906,0.2787373195744489
480,0.2631613390327836,0.22398148802171755
481,0.2595777887346937,0.23913214701950694
482,0.25731885152234374,0.23492381501178478
483,0.2574085649296796,0.2156210747779334
484,0.2599510911574738,0.2235348792769323
485,0.2642692340384301,0.2453911449134785
486,0.2628994695991397,0.23903047702511634
487,0.2620999184940413,0.23804565265907665
488,0.26126215386810636,0.25044302805496826
489,0.2657004580307331,0.24197494192086674
490,0.25841637020759145,0.2900371685176967
491,0.26708302811515916,0.22519465919587056
492,0.2608621169606431,0.24471252082279807
493,0.26113052042820056,0.2554411615236736
494,0.25964661839129544,0.2505808117084163
495,0.26154435093733097,0.2418144726211814
496,0.2597004816508751,0.27419465086562594
497,0.2597323159834115,0.23548794441704624
498,0.25617110972599183,0.24557695949309644
499,0.26056394777339015,0.2691068334470217
500,0.26262059434950114,0.26511346780228984
