epoch,loss,val_loss
0,0.15594700322174532,0.06171501947136121
1,0.05551967932451829,0.0481593189165643
2,0.04827614632739628,0.04797369210841906
3,0.04805197265091465,0.04793556074552303
4,0.04810220079509903,0.04860337132377801
5,0.048067990297393545,0.04874147313934381
6,0.0479556494277063,0.04777442600692739
7,0.04803914585106855,0.04757894953711351
8,0.04800630723097198,0.047759016447986496
9,0.047865377255171225,0.04787051555095645
10,0.04793991842310873,0.04914233864423979
11,0.04791663637419018,0.04800323310477957
12,0.0478061364441038,0.047712914580986455
13,0.04787116803729134,0.048005060217069094
14,0.04772576949835348,0.04744476302223311
15,0.04787050152002431,0.048024769410808535
16,0.04776591159623685,0.047604176423849794
17,0.04784199515198299,0.04762177418067687
18,0.04779039862618553,0.048192606331823186
19,0.047740591844792464,0.04804676880541051
20,0.0477849380370024,0.04805408616351065
21,0.04768752102865923,0.048001631820940464
22,0.04776892590699055,0.04754787429155754
23,0.04776202522510057,0.04748057939506179
24,0.04772518003444306,0.04747066952011768
25,0.04767027907192612,0.047575883887819914
26,0.04768435912375017,0.047228350909022526
27,0.04772566808916205,0.047752594506190155
28,0.04768734095509437,0.047907684468785516
29,0.047647975074003736,0.04783087153202357
30,0.04781211092234325,0.04753637184766022
31,0.04762269166424025,0.04751632087397218
32,0.04767234295421986,0.047669993756131665
33,0.04761113403000229,0.04756852597786201
34,0.04765247477651786,0.047496723850575975
35,0.047647452567049636,0.047718783583265645
36,0.04763158666138216,0.04723399612926176
37,0.047602928037361374,0.04758044400185511
38,0.04760650533000581,0.04744997330380408
39,0.04765966637201494,0.04798527660573103
40,0.04755290018187629,0.047695456056516754
41,0.04764731037322518,0.04746948032630365
42,0.047619560837662285,0.048594848621098564
43,0.047649891460411174,0.04814375830842175
44,0.04759400456750707,0.04755256755164315
45,0.04756636690827821,0.04779956675036836
46,0.04758618115265068,0.047466033391930874
47,0.0475113048440785,0.04789350711062092
48,0.04752139860152198,0.047515811535346765
49,0.0475988709133306,0.04751643988038483
50,0.04751634076952362,0.04791915919793433
51,0.047611906853535,0.04744003909833335
52,0.04754255165745743,0.04763869715129755
53,0.04754651710539937,0.04750027358473147
54,0.04750096655452995,0.04759899296025263
55,0.04753955031375138,0.047601643061793125
56,0.04750501347644676,0.04786918063566453
57,0.0475428085104167,0.04766468618479693
58,0.04749572600910275,0.04773817152584643
59,0.047548652113639386,0.047419785729946824
60,0.047521863408166345,0.04741933940371003
61,0.04755623142669003,0.04735309134907109
62,0.047484270019306364,0.04975068447163186
63,0.0474466822407157,0.04746573907929607
64,0.04749591439086899,0.047353751410530984
65,0.04754767063067114,0.047262047659297014
66,0.047532359955550954,0.04764189286232465
67,0.04746373513673278,0.04722537043274343
68,0.047435538280460474,0.049016213122440686
69,0.047507171548134705,0.04731408431361581
70,0.04750060183937839,0.047213160586502954
71,0.04742999908050521,0.04718098758874959
72,0.047488599518339315,0.04746479290260418
73,0.04743167609542156,0.047155455442846717
74,0.04751070662826705,0.04737210848266531
75,0.047437426813548324,0.047469823573434454
76,0.047528088657106525,0.04779313561442619
77,0.04743311126574243,0.04757020947094874
78,0.04746933891880903,0.04813190235887914
79,0.04746504726229335,0.04741951954663506
80,0.047502738975292204,0.048440671901511884
81,0.047429706928112526,0.04775958887250666
82,0.04747244993821799,0.0473457182703897
83,0.04741722154620883,0.047714854395803544
84,0.047473482119081784,0.04752634502153465
85,0.047472973130077575,0.047702806827560035
86,0.04738552275029637,0.047242957316544834
87,0.04744023340884492,0.04797432003300211
88,0.04752944831659706,0.04722593846159745
89,0.04741228029108067,0.04761067134840524
90,0.04742034102866737,0.04750502334162299
91,0.047452750232377404,0.04748092611462184
92,0.04737138168530451,0.04742773896305224
93,0.04747023726318428,0.04749593616778585
94,0.04750489630102873,0.047301204373799824
95,0.04733782165872155,0.047185618448017524
96,0.04746626689881205,0.047477155865038485
97,0.047402092280219216,0.047307928819753285
98,0.047388675973283875,0.04790971151772878
99,0.04741003304023108,0.04881408575983996
100,0.04746165138026841,0.047359889039465454
101,0.04737087794624978,0.04740090739943422
102,0.04743021325342994,0.04817720289447219
103,0.04744171563515084,0.04725689276017913
104,0.047402430188765436,0.04760132861436119
105,0.047391663834774236,0.047340967840182095
106,0.04743515386832037,0.04804448192114424
107,0.04734514142534763,0.047358057846116006
108,0.047459690399068916,0.04743086299972922
109,0.04739853248095436,0.047425924014555906
110,0.047434160420350986,0.04881419032376962
111,0.047327263856963286,0.04721910699072934
112,0.047369676534172823,0.04826068610611541
113,0.0473994606633862,0.047277965016175
114,0.04742588960140538,0.047367162773151894
115,0.047352659628450346,0.047146675889192836
116,0.04750015840178533,0.047161904087947314
117,0.047379832738618864,0.047179780133074445
118,0.04738390943754634,0.047193858069797714
119,0.047399603010569925,0.04770362939929623
120,0.04738942690813046,0.047415385465266295
121,0.04738664479373837,0.049653404469483464
122,0.047393802650195424,0.048051017847414924
123,0.047358356691676554,0.04817036854216407
124,0.047380544808056715,0.04726577081791792
125,0.04738122017102705,0.047789156295788414
126,0.04736992853323666,0.047427304186097446
127,0.04738045259595489,0.04839004729392967
128,0.04736003342965286,0.047678112551487614
129,0.04737167164897747,0.04719559257319337
130,0.047383419264087095,0.04736393556034085
131,0.04737885884916802,0.04742831837653455
132,0.047408548075792124,0.04804195066724316
133,0.047395001145468345,0.04755896627432545
134,0.047408435256968584,0.0473723031386392
135,0.0473258875230019,0.048862512013930076
136,0.04738302301797125,0.047115310650221835
137,0.04740885471393593,0.047448405959211945
138,0.047389972899898256,0.047291519248236234
139,0.04740536666894369,0.047206161909787415
140,0.0473563584352402,0.047686904604122594
141,0.0473621337667858,0.04752998230442252
142,0.047378809081850576,0.04720505491051979
143,0.04737445808869662,0.04716174540586987
144,0.04734506253167975,0.04757167535650984
145,0.047369333511169294,0.04765460028033042
146,0.04740476460723902,0.04797553815294554
147,0.047381440871398894,0.04755426434345761
148,0.047343350856078804,0.04722701623189045
149,0.04735426400020588,0.04784265766545084
150,0.047380354657447596,0.047328110846037365
151,0.04734015137219219,0.04744363685256869
152,0.04736006935294584,0.04848686245511909
153,0.04740268724719636,0.04771059121122112
154,0.04733647911591257,0.04820703353729884
155,0.04737079261447028,0.04727934285022183
156,0.047512109654186535,0.04788532306829022
157,0.047284569607661975,0.04764056535939015
158,0.04731832974725109,0.047517163121827306
159,0.04743183128309431,0.04743117780293078
160,0.04733488746850992,0.04749892928417781
161,0.047337811475963616,0.04729982288796881
162,0.04739391199089021,0.04834543775117294
163,0.04737243885479623,0.047654851912370136
164,0.04730387329221439,0.04724817081474374
165,0.04731955193727613,0.04728384227760213
166,0.047381175564323585,0.04739968389296212
167,0.047348556883758205,0.04719920099463722
168,0.04732845341868633,0.04718053863393385
169,0.047378959411161124,0.04759190446787588
170,0.047358283372543795,0.04748257464819662
171,0.04736674440016659,0.04715706355687475
172,0.04734013375820969,0.04765711089371224
173,0.0473642424582768,0.047571791484422726
174,0.047361263685184514,0.047536206999889204
175,0.04735869601321258,0.04728556670771872
176,0.0473071862187841,0.04733342620314061
177,0.047357682881654976,0.047637076273666375
178,0.04736722944725713,0.047268365145952757
179,0.04735475693115418,0.04793939370464977
180,0.04731478201572319,0.04794992512972598
181,0.04739934862475934,0.04739555770321069
182,0.04734451975598991,0.04722949199160913
183,0.04735196473971783,0.04729276642662009
184,0.04732902031793869,0.04751112587579424
185,0.04734836108714557,0.047358076725428556
186,0.047340102584587394,0.04757004178290115
187,0.04734546291254026,0.0476491729410596
188,0.04736643420051423,0.047217916126856205
189,0.0473407416520335,0.04727358337206547
190,0.047303901231891626,0.047257843461907936
191,0.04741084366608009,0.04751183781787553
192,0.04732405078365839,0.04725051537485413
193,0.04730683598045012,0.04744781982727002
194,0.04739545712874328,0.047570849144750446
195,0.047326393008565636,0.04748330401416924
196,0.04732785005863908,0.047716222718158105
197,0.04738985946912655,0.04972521758740496
198,0.04740970712944234,0.04735576790105478
199,0.047212936389122266,0.04829257658749654
200,0.04743782368799051,0.04729657318522446
201,0.04729823013849491,0.047213416628910036
202,0.04733550764298696,0.04750867457597295
203,0.047358203345804,0.04727630271637355
204,0.04731186902780327,0.04730628935977429
205,0.04734189514008214,0.04815722511524089
206,0.047338316571429,0.04724381990795448
207,0.04732200715223329,0.047557646924690083
208,0.04735365018492742,0.047209329000470576
209,0.0473700284475474,0.047466984490592744
210,0.047279747503755284,0.04884107853708629
211,0.04731129706322813,0.047249806017248104
212,0.047419005416804175,0.047069374357233296
213,0.04732103330745019,0.047634008330981754
214,0.047362006374364565,0.047326046632398464
215,0.04723803915655156,0.047244732342395804
216,0.04737593793272257,0.04760834058392396
217,0.04732928807280666,0.0475825289236389
218,0.047365405743451806,0.04732207246506976
219,0.04725334475741541,0.04721923051923866
220,0.0473560530016367,0.047174117015564454
221,0.04733978701587156,0.04714116183621919
222,0.04732354399677423,0.047148210238356615
223,0.047317733997099404,0.04763772212492262
224,0.047355635635120026,0.0471969838353387
225,0.04734813031270731,0.04717097818651534
226,0.04731853560452982,0.04753023962289589
227,0.04738228429379843,0.047268251237924774
228,0.047324878436853464,0.0472586082842939
229,0.04733763619971504,0.04799585311064216
230,0.04733235227892534,0.04733847014329616
231,0.04734351094827044,0.04717426413953916
232,0.047360007949679685,0.04739154388961965
233,0.04736412836493348,0.047601219366621386
234,0.04735462086574494,0.04717459360280184
235,0.04724930251370088,0.04741587701246978
236,0.04738107550558712,0.04735190701548189
237,0.04731351092940183,0.04734723709800061
238,0.04730903562441242,0.04711917069782492
239,0.04732467589094389,0.047134761440537534
240,0.047312419928556726,0.0476891505895822
241,0.047366301118910645,0.047150529288902183
242,0.04733054457064108,0.047211147797747495
243,0.04738520855139152,0.04889335708829391
244,0.047286281853521184,0.047336016411892334
245,0.04728715270340776,0.04721495039002483
246,0.047332941355715266,0.04761371686878219
247,0.04732706698534681,0.04764268420571968
248,0.047293095781708316,0.04728548376929036
249,0.04731549031371407,0.04714833065314658
250,0.047398923806173145,0.04799921900304453
251,0.047355333602221175,0.04725292973049814
252,0.047287234451344834,0.0475256148616959
253,0.04728089171282346,0.04930297023342553
254,0.04733934201341834,0.047430070436132545
255,0.047329179967919605,0.050923251262450654
256,0.04731817855883083,0.04732999600170161
257,0.04735144063068046,0.04786646737178292
258,0.04726564952229662,0.0471975580828107
259,0.04733483026252328,0.048824134367299814
260,0.04730780010255311,0.04740470754248755
261,0.047317189961779034,0.04722933872252256
262,0.047321261310999056,0.047376776788892384
263,0.047319815447218985,0.04820948354341237
264,0.04727423539330109,0.04737170753616843
265,0.04731779901100863,0.047411945078818934
266,0.04736985975532509,0.04738286451305003
267,0.047321679238840446,0.049548068593220154
268,0.04732355364054132,0.04712584310438375
269,0.04733605868816614,0.04708460055956148
270,0.04734561255843424,0.04710595627868844
271,0.0472486577019822,0.04712626779923876
272,0.04731552525729441,0.04711986053220475
273,0.04732733545936555,0.04758757550119413
274,0.04726396286212426,0.04736012067489955
275,0.0473406243351676,0.04730400978495685
276,0.04730183486458209,0.04714238341389064
277,0.04732194928218611,0.047280285598588156
278,0.04726951472538648,0.04736548785087906
279,0.04729242445372468,0.047211418250294866
280,0.04734529693165033,0.04752261013721705
281,0.04729451450983064,0.04742407863746502
282,0.04729537909134305,0.04745321904603853
283,0.04738411513104332,0.04731305829457345
284,0.04727723535975154,0.047539883732043015
285,0.04728014213140968,0.047117455996978724
286,0.047257599038936254,0.04734606095593372
287,0.04733191720313496,0.04716483061955308
288,0.04728933346333454,0.04728318179568721
289,0.047338066822130806,0.04715923947923844
290,0.04732070124889021,0.04729852508444812
291,0.04727855667495708,0.04731909748704864
292,0.047308731684200675,0.0473100768979977
293,0.04728429118017975,0.04723038405309348
294,0.04727035596799984,0.047799635011094146
295,0.047306792868627344,0.04746852747819606
296,0.04736680369809282,0.04712603489067861
297,0.04726111351532473,0.047271037334613
298,0.04728580519205613,0.047220502830835995
299,0.04735760895652975,0.047263520236855525
300,0.04726557676448858,0.04711611791798329
301,0.04733289313390196,0.047307717501411495
302,0.04732366162482545,0.04740543991927096
303,0.047287541644857656,0.04714643664146467
304,0.04731889171816176,0.04744479373015093
305,0.04730818871643951,0.04715839345610885
306,0.047332361942048456,0.04780296317721411
307,0.04728576113774384,0.04772901205138701
308,0.047248243250780635,0.04728722086598201
309,0.04734198872795065,0.047985579600909045
310,0.04732536627865619,0.04756325076980297
311,0.047298350745885016,0.04840617632197882
312,0.04728068990393175,0.047380165515236716
313,0.04729445526550571,0.04741601777081426
314,0.0473034711901566,0.04709548695452494
315,0.04730862365227095,0.04713009584227602
316,0.047264983182211666,0.047248833348949595
317,0.047322084472107465,0.04829342919089424
318,0.04728802307683835,0.04726452602701293
319,0.0473115413094596,0.04708240048308587
320,0.04733090975033722,0.047282581679940504
321,0.04739244648074503,0.047270620587239985
322,0.04723271376026763,0.04718717146185598
323,0.047372247867411274,0.04710356215192939
324,0.047309317546401566,0.04726381447304396
325,0.04722694714935564,0.04738219434302815
326,0.04733136968224121,0.04754967808182445
327,0.04731488191812254,0.047449337034805986
328,0.04730006159662152,0.04733810640265834
329,0.04731949767489418,0.048188963012612517
330,0.04729930524953264,0.05173048122705864
331,0.0472874156520259,0.04706772506213508
332,0.04730145857899452,0.04718790624669996
333,0.047334004754869104,0.04726856644982038
334,0.04728735409391155,0.047182323097970984
335,0.047356276839173476,0.04727965173765064
336,0.04731814523817872,0.04712151244118069
337,0.047307609259593875,0.04828413982229526
338,0.04725475137313302,0.04723363368527195
339,0.0472590014007952,0.0480480065838314
340,0.047356064773077584,0.04729560410108449
341,0.047303078521927486,0.047147154305262555
342,0.04728700993336934,0.04719892148319529
343,0.04730928573700831,0.04729984729494179
344,0.04731653784241655,0.047233711575299805
345,0.04724790644701674,0.04718761996681425
346,0.047368703046731714,0.04735521512325109
347,0.04729107441417843,0.04717328779299427
348,0.047311003764363216,0.04754667645930397
349,0.04723820260626902,0.0471673004370368
350,0.04734005908564412,0.047536273064252045
351,0.0472949460077343,0.04716291269191909
352,0.04738382421445837,0.04726407658999702
353,0.04726681847134225,0.04719231171561398
354,0.0473256402229853,0.04720328420094834
355,0.04733857752935444,0.04744084939748731
356,0.04734825292270151,0.04737155223537263
357,0.04723048708487233,0.04718991968524955
358,0.047336920826352664,0.047261242437946015
359,0.04728708943749646,0.04753541054046803
360,0.04729386209566101,0.04707307268254571
361,0.04728640999189384,0.04747806803779801
362,0.04727655247026544,0.047159366982958875
363,0.04731474596438267,0.04799200516214687
364,0.04728196945181377,0.04792736181379211
365,0.047280563888766114,0.04729640061343008
366,0.047273744262463085,0.047057584963074425
367,0.04732036965785267,0.04835921069335166
368,0.04726840368807792,0.04776262383446415
369,0.04737433632738966,0.04777708473808669
370,0.047235150560200646,0.047274551691741766
371,0.04730015553885417,0.04768531706298818
372,0.04725658414151362,0.047399230786520564
373,0.04732152791343909,0.04722639966253324
374,0.047242634118996936,0.04825157598954726
375,0.04733121494124595,0.047226500395323785
376,0.047281559177046774,0.04739975442355697
377,0.04728474629541143,0.047231812103583105
378,0.047321110408452396,0.04728368982590365
379,0.04734327858217138,0.047067664581297325
380,0.047261617528341654,0.04752452754148744
381,0.0473329515682517,0.04723861455423397
382,0.04727438413392868,0.04738022686638697
383,0.047298124339952646,0.048335203911224124
384,0.04729540488101262,0.04737713278492511
385,0.04731177262139978,0.047903229686083904
386,0.04737544956086256,0.047163142960139307
387,0.04736898461584565,0.047512438927425016
388,0.04722670862208501,0.04750070271935629
389,0.04735024180188835,0.04721343088615759
390,0.04727790725054882,0.047091764886734895
391,0.0472536632206014,0.05118075095487563
392,0.047348369684198394,0.0472515146553093
393,0.04729689048122254,0.047308359662660386
394,0.04729467587951991,0.04727657148416059
395,0.047284991141679666,0.04719879074520546
396,0.04727786169540015,0.047121099945401805
397,0.04735005396804649,0.04774678284750741
398,0.04730157134719461,0.04775025198660973
399,0.04730537370573893,0.04716832171346413
400,0.047252060718935646,0.047457887225835084
401,0.04730566643136773,0.04722943790580404
402,0.04728672397490457,0.04707033016910775
403,0.04727246080168622,0.04741874854385429
404,0.04729712165915947,0.04730365818459026
405,0.04731864391042174,0.04744582232778808
406,0.047302889843865166,0.04736077643478114
407,0.04727890920772446,0.04712369612579093
408,0.04729329875940613,0.047360260357114395
409,0.04729885419757723,0.047101255338683125
410,0.047301521238913354,0.04755692656762786
411,0.04729004418678421,0.04716601674963192
412,0.04728385698881081,0.04712814307273987
413,0.04731110748734406,0.047189031149118835
414,0.0472620861243001,0.04738013567469115
415,0.04733216373933305,0.04707124652583578
416,0.0472764066300637,0.047096587444090336
417,0.0473188639020653,0.04731611569059958
418,0.04736025488639859,0.04801553618912633
419,0.04729397465392268,0.04751520964957262
420,0.04732972105070175,0.047332468806474154
421,0.047309158877622215,0.047092803863436575
422,0.047267376661872404,0.04777859854963979
423,0.047292020104879096,0.047194956833439355
424,0.04731841186444155,0.047265951684143194
425,0.04736326047056299,0.04706176596781167
426,0.04723175594525086,0.047165110692581794
427,0.04725568850400398,0.047190743859419224
428,0.047321144132603174,0.047388983818378236
429,0.04731199069828581,0.04757856157767838
430,0.04726971301297061,0.04733925612074424
431,0.0473448837936806,0.04722121139751614
432,0.047274522766244595,0.04727757271987863
433,0.04729143545317421,0.04742762649280402
434,0.04730251648103734,0.04715040093251072
435,0.04732270447089137,0.04741109313697634
436,0.047280575466646754,0.047907727205245255
437,0.047316596998894914,0.047540330449332376
438,0.04730958098636495,0.04722527697999927
439,0.04727061574669669,0.0471460864435949
440,0.047322438303217425,0.047098884689779665
441,0.047312669746345466,0.048017805514250014
442,0.047293896248622194,0.04714544785768382
443,0.047274370403062524,0.04744527492475208
444,0.047302605704866725,0.04746522108458964
445,0.04731933464207571,0.047213585440131184
446,0.047268841116369774,0.04749144622269538
447,0.04739329036768916,0.04705527676791305
448,0.04724631408046333,0.04715601999633126
449,0.04725688919097447,0.04794976082590027
450,0.04730780590638268,0.04748013587381864
451,0.047297323628855074,0.04799543309959729
452,0.04725817500127496,0.047069637888444156
453,0.04726376774892818,0.04732850223085781
454,0.047378449807230896,0.04829829360851643
455,0.04723839989329556,0.04745485075259171
456,0.047274685806507684,0.04786269763380219
457,0.04730861373900843,0.04757897075686101
458,0.04730535784571005,0.047147581023006056
459,0.04729786043246682,0.04852118959390186
460,0.04736450959077413,0.04872502720287774
461,0.04726814002775365,0.04738063910048405
462,0.04730351414862011,0.04771484722160597
463,0.04725468470651707,0.047150251726842625
464,0.04731657277259657,0.04733867644852038
465,0.04726043855287522,0.04706607993924439
466,0.04727548373331555,0.04718548938890753
467,0.04731125228232045,0.04729166294682562
468,0.0473497279947229,0.04733088379983085
469,0.04722550144637946,0.04743259295750624
470,0.04731150182912485,0.047624800533597265
471,0.04728853381384048,0.04707290051356487
472,0.04728611231261163,0.047396650301158756
473,0.047322572888635235,0.04719777770146386
474,0.04728566816480135,0.04733797418278508
475,0.04736272959138373,0.04814469638767916
476,0.04726472359558614,0.04726644882075224
477,0.04727012678968916,0.047344050263572884
478,0.04727703821119502,0.047073954738376646
479,0.0473356438811115,0.04705941340435464
480,0.04723297948424193,0.04726269308127751
481,0.047312374767973175,0.04845079038683222
482,0.04728505047385117,0.04704375671488898
483,0.04729358973852593,0.04739400619771787
484,0.047309695505540816,0.04720021228305261
485,0.04731753663413769,0.047357723381496734
486,0.047268261725036835,0.04864359393292463
487,0.04730405251560309,0.047185885234079496
488,0.04733045152920804,0.04716383380302314
489,0.04728055112272334,0.04732614804732583
490,0.047242913396655324,0.04737927045470255
491,0.04728894473628985,0.04875845300370347
492,0.047283901364730895,0.047307322738249655
493,0.047311463057518384,0.047727538635858706
494,0.047259041150625375,0.04724751307019683
495,0.04727434117546518,0.04728255329187592
496,0.047238462288185755,0.047218184797615165
497,0.04733797586817059,0.04775772151414484
498,0.04726548927674572,0.04742377809445126
499,0.047305766216142,0.047234617314803475
500,0.047258549434639856,0.04743259184021317
501,0.047275219668003673,0.047439821252647875
502,0.047358348894176436,0.04728809089621128
503,0.047205931397615,0.0474346989402643
504,0.04732192805309376,0.04736280085514546
505,0.047302606739669587,0.04742529798055034
506,0.04725261752327664,0.047374717235541666
507,0.047319125729522925,0.047539448843358915
508,0.04733166990907406,0.047194649871870956
509,0.04726727817395179,0.04725092732374745
510,0.0472846148620478,0.047385112821303116
511,0.047303233938894684,0.047177666981999294
512,0.04732919948028146,0.04725396206812682
513,0.047263678602522896,0.047751209362694474
514,0.0473185493726191,0.04744379060973591
515,0.047270363370934834,0.04761400742084376
516,0.047323086709201004,0.04771228757081958
517,0.04728784270548849,0.04718823471615986
518,0.04730115704190769,0.04710056678919032
519,0.04724294693320156,0.047100379698466574
520,0.04729605767039134,0.04747894638009963
521,0.04733281999790697,0.04717461838318592
522,0.04728847684310399,0.04709973821347401
523,0.04727367928875484,0.0470831562612785
524,0.04730688508221809,0.04730239033040421
525,0.04729868067974905,0.04708392679362007
526,0.04725434679350407,0.04749072442197291
527,0.047289799081443026,0.04747516060602317
528,0.04729717662431401,0.0472362888646154
529,0.04726444611952697,0.04748829939323988
530,0.047251221641219206,0.047329983623270545
531,0.047289855568278895,0.047231797517028114
532,0.04731569265266307,0.04706613193453534
533,0.04729594953572579,0.047346002742024794
534,0.047271370752264175,0.04714722675583733
535,0.047247451681682436,0.04922897812352466
536,0.04731240099687561,0.047209021794861854
537,0.04727940444799541,0.04715550702356314
538,0.04731893614172745,0.04746633905685127
539,0.047273692602722,0.047188309851178244
540,0.0472879881570808,0.04731647806990401
541,0.0472775856025523,0.047249099299982014
542,0.0472913064646254,0.04724072169544853
543,0.0472740668931501,0.047411959488959224
544,0.047272875124840234,0.04715622893601491
545,0.04726341668126299,0.04712749721560312
546,0.04732306441254944,0.04724610665696949
547,0.04724670030164728,0.04719423238061598
548,0.047287610738421325,0.04717695453125563
549,0.04729572278585175,0.04862992583987933
550,0.04725291831143421,0.047106898097937375
551,0.04729535478017599,0.047559589800302116
552,0.04731060593849797,0.047175802613866544
553,0.04735439626290072,0.04714577644475351
554,0.047218130917834056,0.04724958079448815
555,0.04725470326447801,0.04733284330546809
556,0.047305421515120016,0.047137180591721
557,0.047302877389007715,0.047741620050891706
558,0.047281605525792456,0.04717005096852262
559,0.04729446712777102,0.04833457431952221
560,0.04736466322847598,0.047965753776474836
561,0.04723250931597871,0.04725790981441477
562,0.04731170344296739,0.04707959582463154
563,0.04728469459398044,0.04716658690428301
564,0.04727920533703576,0.04719954103984133
565,0.04725329534892889,0.0473717423986523
566,0.04727850732751649,0.04788522205323616
567,0.04728264057730361,0.047128150399830177
568,0.047289274771400776,0.04721016167782853
569,0.047266271928672214,0.047129581478772054
570,0.04727315604180503,0.04736821456638113
571,0.04732495680790868,0.04784107335270533
572,0.047344906045664416,0.047237357511328446
573,0.04725249256078097,0.047415544788317124
574,0.04728314060595729,0.0471847310115384
575,0.047295244899001436,0.04721416169579046
576,0.047288149352565846,0.04724910076422398
577,0.04726095941605614,0.04736403459955033
578,0.047247378987898166,0.047106298120382174
579,0.047249875907644,0.047083551124408665
580,0.04729806964876031,0.047191282756326704
581,0.04728897374501522,0.04723081810086754
582,0.04733947907640732,0.04724967782551036
