epoch,loss,val_loss
0,0.48052551268520005,0.45244273894766845
1,0.46107336477749583,0.4546165502727344
2,0.46187891843882506,0.7163979978301667
3,0.4549147473564984,0.4764563866090979
4,0.7957140326596962,1.0
5,1.0,1.0
6,1.0,1.0
7,1.0,1.0
8,1.0,1.0
9,1.0,1.0
10,1.0,1.0
11,1.0,1.0
12,1.0,1.0
13,1.0,1.0
14,1.0,1.0
15,1.0,1.0
16,1.0,1.0
17,1.0,1.0
18,1.0,1.0
19,1.0,1.0
20,1.0,1.0
