epoch,loss,val_loss
0,0.13454261485774174,0.12377503289305276
1,0.11843481221877294,0.11700314944717967
2,0.11476906442350632,0.11256291586488641
3,0.11213615094788051,0.11113519212019544
4,0.10915329472956307,0.1083263783974933
5,0.10706987622840976,0.10678205374206497
6,0.10558900255817484,0.1078845431481834
7,0.10454729059540088,0.10806330896077486
8,0.10384869734212393,0.10425971530771869
9,0.10300505610493386,0.10307461041670216
10,0.10232935900653922,0.10345592969347886
11,0.10197255135823305,0.10298998053890382
12,0.10130097732408658,0.1015234032374574
13,0.1010165437264232,0.10314868261651025
14,0.10070464427027917,0.10164139573846107
15,0.10051915165472311,0.10253253925520124
16,0.10021243782022538,0.10100211640229789
17,0.1000823665488692,0.10085619954761767
18,0.09989859534734749,0.10104501686608089
19,0.09968644044253838,0.10128063213968155
20,0.09951527469210722,0.10142693462491281
21,0.09949122699836903,0.10057001038131609
22,0.0993047533632433,0.10024601751806832
23,0.09913280536372114,0.10058991051115876
24,0.09904985235404518,0.09963162489293377
25,0.09898603157017416,0.10064325359133344
26,0.09885967377197412,0.1008024605496007
27,0.09876432206663095,0.1002376903335367
28,0.09866204370662078,0.09960589751516029
29,0.098645107974163,0.09955799774670102
30,0.09861380190959326,0.10066882552564552
31,0.10106679952931374,0.10000360311521166
32,0.09891273087509529,0.09916647183384207
33,0.09847026366019426,0.10017846429349885
34,0.09827677260777942,0.09955846906188691
35,0.09818290439666091,0.09975709177154916
36,0.0980788261373533,0.09921180481842175
37,0.09809974683305887,0.09970426856016136
38,0.098592064576527,0.099375496766497
39,0.09815657215081902,0.09917569815360006
40,0.09797217949947909,0.09972779214091106
41,0.09786989260633143,0.09982930802368485
42,0.09794777576723444,0.09948732846972487
43,0.09772350327160742,0.09975765759564022
44,0.09773561261158038,0.09894843693312073
45,0.09770262260634946,0.09923499701220742
46,0.09768673643873381,0.09977905202419754
47,0.0975641988800706,0.09957171517545711
48,0.09749931684836077,0.09977580055331775
49,0.09748797248347778,0.09919994138151629
50,0.09737635248088058,0.09882601242372256
51,0.0972810168611342,0.09886856976916047
52,0.09728328321660958,0.09925268790587766
53,0.09714376680527866,0.10241603546527259
54,0.09716917814053597,0.09874705796535098
55,0.09719423075410268,0.09957333354225267
56,0.09705446458333887,0.09832550673003856
57,0.09698751562740195,0.09904580199237625
58,0.09702074024465042,0.09838519889251408
59,0.09688140981174577,0.0987200390696005
60,0.09691670012766943,0.09889720852046197
61,0.0969102783875208,0.09826044628492173
62,0.09684651952466111,0.09867403037847272
63,0.09685063733356483,0.0984184284970621
64,0.09681531963871594,0.09851740442757116
65,0.09680042820744485,0.09810206265337688
66,0.09677061735618413,0.09851823458635885
67,0.09675644375934289,0.09819761742890232
68,0.09656475724240964,0.10056958709320928
69,0.09673632031978623,0.0981487645901478
70,0.09671728025707216,0.09806556628455865
71,0.0966405409048634,0.09893167250796653
72,0.09664012428066426,0.09810165697683583
73,0.09652561969636102,0.1005972248148744
74,0.09655012660053859,0.09785001593978704
75,0.09656501902150977,0.09820905916052043
76,0.09651445296916056,0.09866412641409278
77,0.09646350369894659,0.09772651441003645
78,0.09645252200210627,0.09773845287217059
79,0.09645442108394554,0.09825922072771448
80,0.09634210256354715,0.09808998361492566
81,0.09645449706052227,0.09891444158618916
82,0.09632820001270201,0.09905009787385949
83,0.0963067341365977,0.09811311641881651
84,0.09636340759457886,0.09857485349467109
85,0.09621178894661012,0.09727033858384351
86,0.09622006913232577,0.09793606270515808
87,0.09619232334983249,0.0978285621408576
88,0.09613141339520413,0.09946626905994944
89,0.09625470879983819,0.09900214757349673
90,0.09611510948723442,0.09800513367878079
91,0.0961670732098759,0.09777221390798543
92,0.09615905922286903,0.0987978334774834
93,0.09619940031960685,0.09841372158419183
94,0.09607919827217498,0.09774020789387833
95,0.09604011486824289,0.0978443488686903
96,0.09597226336594551,0.09755740378732924
97,0.0959674643903717,0.09743748615426792
98,0.09602230701918979,0.09762534647836882
99,0.09595831996363306,0.0973178605101346
100,0.09597262974724927,0.09753733377549333
101,0.09598830063189966,0.09799768252374257
102,0.09592548024910591,0.09759376122447183
103,0.0959258522939592,0.09806700598827729
104,0.09577365899570008,0.09895485524269765
105,0.09591434293165091,0.09885319626783783
