epoch,loss,val_loss
0,0.13605016989943625,0.11998052045002483
1,0.11824766624870084,0.12255002080102147
2,0.11294874903527877,0.11189242831123847
3,0.1097951454122405,0.11274275602232998
4,0.10774356295786121,0.10692169370325819
5,0.10621596844838586,0.10570320346281323
6,0.10505291779792175,0.10546172338962195
7,0.10418039598328392,0.10546842886719776
8,0.10355844635857094,0.10454202825533354
9,0.1026936175015644,0.10338924604288942
10,0.10237888059222193,0.10402516831923557
11,0.10217459314925974,0.10412960604829449
12,0.1019651945793154,0.10351841323218479
13,0.10131917037755316,0.10338399809091095
14,0.10126561552923698,0.10153981177936437
15,0.10088801757381205,0.10129143982742331
16,0.10064045761117021,0.10423743033127045
17,0.1003127990765862,0.1026367354024085
18,0.1002078629088079,0.10143754938201752
19,0.10003016610889748,0.10127795143332466
20,0.09987922924153333,0.10143748259241948
21,0.09982527006723099,0.10080523604942121
22,0.09953118827749662,0.10043823727366184
23,0.0994116505585716,0.10015823592813276
24,0.09916927821447778,0.1002682953841046
25,0.0991454736398395,0.09962429916458043
26,0.09901435401770617,0.10128608864934857
27,0.0988040999451374,0.09968176270186267
28,0.0986798006012544,0.09920034044784119
29,0.09855074678832715,0.10105526808703137
30,0.09851344241995186,0.09962222745444768
31,0.09835227832448687,0.09973924266100782
32,0.09823064636339375,0.09932240527563953
33,0.09824620572666601,0.10030817022413721
34,0.098200938595449,0.09981446364876466
35,0.098154198624554,0.09887040587080288
36,0.09800578003203536,0.09917460170666036
37,0.09794812132818168,0.09934741029317973
38,0.09790724546199986,0.09963728255052898
39,0.09787943036640925,0.10009092803555233
40,0.0977391129895138,0.09941071305439948
41,0.0980293749072931,0.10063305093699909
42,0.09772709951376493,0.09903270562961923
43,0.09760221062074748,0.09955033707558607
44,0.09759164290002383,0.100640154280844
45,0.09758467013834787,0.09898027649058488
46,0.09755452792065772,0.0993713526209328
47,0.09750438580361818,0.09912789710089671
48,0.09743823014207179,0.09864485015945054
49,0.09737742655330986,0.09911451709990807
50,0.09739584808097722,0.09956881892789739
51,0.09740212342227283,0.09940664000555989
52,0.09738699093175983,0.09912683276942615
53,0.09732711299038817,0.09865939859179575
54,0.09721664020026474,0.0990787877684806
55,0.09726522449692333,0.09839903590474523
56,0.09727236556751422,0.09900850565311017
57,0.09709022794972712,0.09851560814961927
58,0.09717382348256146,0.09848958868914953
59,0.09705289409001465,0.09862730904528598
60,0.09706482133643617,0.0986095966641981
61,0.09714049543941045,0.09851194876093078
62,0.09692855612362178,0.10128935050335842
63,0.09703844026034479,0.09845147752205266
64,0.0970276713660077,0.09801456053209281
65,0.09696479646091949,0.09882621635334282
66,0.09691703474795667,0.09890141254813023
67,0.09681530092113315,0.10014117609284143
68,0.09687150941623729,0.09897676904605782
69,0.09682489019185916,0.09884149995548906
70,0.09685720299272067,0.09823864576600082
71,0.09666562692266922,0.0982219057702793
72,0.09677915970598464,0.09921938223163533
73,0.09679585040950481,0.09853378402733871
74,0.09676944920949519,0.09788787277994865
75,0.09670095958074817,0.09890818219216017
76,0.09676267227626338,0.09830009527575435
77,0.09672050925135289,0.09841012056252588
78,0.09666278297679169,0.0985725801233992
79,0.09672033836906983,0.09816906153410318
80,0.0966566582857457,0.09918533537015661
81,0.0966866749921108,0.09913222500555985
82,0.09658234213416825,0.09844990753670316
83,0.09659881782799379,0.0986857540604944
84,0.09657596544541422,0.09839020541556888
85,0.09656500502490734,0.0985547612724852
86,0.09658236889659538,0.09801046483305043
87,0.09657439507864343,0.09809549397299247
88,0.09663215707952913,0.09867709952428622
89,0.09650443084243908,0.09896379208811336
90,0.09652892508400177,0.0979816066939783
91,0.09646418011715151,0.09824907744671024
92,0.09656887726483984,0.09788895315140585
93,0.09649891054299693,0.09881077383269067
94,0.09645427064568647,0.0979713361579567
