epoch,loss,val_loss
0,0.8919971322559271,0.889828058207851
1,0.8897687849110315,0.8894507362953497
2,0.889852694861749,0.8895322521073261
3,0.8898063228563188,0.8898127282188301
4,0.8898086242249923,0.8893715457176431
5,0.88968803345472,0.8892935442985079
6,0.8898141132011784,0.8894036316400258
7,0.889632582504363,0.8892655402672789
8,0.8895982699947744,0.8893029324323464
9,0.8895118858409632,0.889231758187153
10,0.8894926628320765,0.8891847109499291
11,0.8894948271101065,0.8891665760214147
12,0.8895358891749382,0.8891996615592196
13,0.8894711616421419,0.88918334106538
14,0.8602245764546772,0.7784736845083269
15,0.7788127735080161,0.7787291363286313
16,0.7788520456602775,0.7783600536626313
17,0.7788380727589864,0.7783071527797986
18,0.7787694767815294,0.7783207148952448
19,0.7788993442474341,0.7783179519307866
20,0.7788461583615299,0.7783617548134586
21,0.7786494341647988,0.778230611617667
22,0.7787008918082556,0.7783866512722414
23,0.7786412829398396,0.7782264063760403
24,0.7786666071579729,0.7783807110356702
25,0.7786122339707513,0.7782107162839064
26,0.7785676852556563,0.7784168105220461
27,0.778558346154343,0.7782535375499225
28,0.7784806956773296,0.7781588346149423
29,0.7785478523544793,0.7781909510448317
30,0.7785195722027606,0.7781725831877642
31,0.7785512134937133,0.7781633397871035
32,0.7785794864870534,0.7781762825092929
33,0.7785112443591031,0.7783837173549981
34,0.7785106034262683,0.7781345983365234
35,0.7784817964833454,0.7781853454821409
36,0.7784400566509888,0.7781283230616476
37,0.7784979457609181,0.77813105359709
38,0.7784367673732006,0.7783221938136041
39,0.7784711735088612,0.7784162416038994
40,0.7784394550162729,0.7781263386775373
41,0.7784298607891583,0.7781073959011567
42,0.7784787138310746,0.7781777518390378
43,0.7784393755602409,0.7781192093249898
44,0.7784116685008298,0.7781383664963528
45,0.7784334442479157,0.778114907174938
46,0.7784475638809836,0.7782391758595115
47,0.7783729002254669,0.778258648163102
48,0.7783994238999629,0.7781546385880405
49,0.7784111128907423,0.7781080086590545
50,0.7783968340308784,0.7786008901154595
51,0.7784129683748505,0.7781003445637724
52,0.7783978657224518,0.7781333359003029
53,0.7783542684316154,0.778114890529747
54,0.7783995369104514,0.7781034214015383
55,0.7783947177364668,0.778112525152028
56,0.7784061439906883,0.7781113716407638
57,0.778367988471756,0.7798925799870654
58,0.7783876622329053,0.7781112087147755
59,0.778364254925658,0.7780964385190994
60,0.7783576766611494,0.7835761423581968
61,0.7783674650266503,0.7780913671974684
62,0.7784519923833922,0.7782096467700406
63,0.7783141471639063,0.7781074142643473
64,0.7783640858912917,0.7780978787138441
65,0.7783578019651181,0.7781564599751707
66,0.778352203195967,0.778113216786455
67,0.7783720003040672,0.778104728150788
68,0.7783568409502096,0.7780961745671664
69,0.7783301895489394,0.7781347994560549
70,0.7784094412117133,0.7780968005531872
71,0.778350081481302,0.7780894163309137
72,0.7783512129890718,0.7780988919218135
73,0.7783494569618605,0.7780954062616862
74,0.7783183511661483,0.7780875402659637
75,0.7783675418299408,0.7780915364701161
76,0.7783055570139825,0.7780973960837618
77,0.7783478907977286,0.7781151297008384
78,0.778303880312651,0.778108958783785
79,0.7783247282257872,0.7786754015392399
80,0.7782846942019529,0.7780679620238018
81,0.7783480907594462,0.7781234814218818
82,0.7783291033984715,0.7781137581740142
83,0.7783162558960726,0.7781025490789957
84,0.7783005302004754,0.7781761998370732
85,0.7783124216432206,0.7780922614753824
86,0.778334326094012,0.7780936896535959
87,0.7782899345023723,0.7780696223543924
88,0.7783303852329835,0.7780718876148607
89,0.7782821208172539,0.7781149585445438
90,0.7782869950011113,0.7780624179446699
91,0.7783300295432015,0.7780629711736473
92,0.7783039069871759,0.7780824515229656
93,0.7782944499690253,0.778156189184369
94,0.7782906740204778,0.7780734712696651
95,0.778272134412346,0.7780748284940249
96,0.7782972383981261,0.7780775345278597
97,0.7782713114267555,0.7780815823051274
98,0.7783002565642506,0.7781777182362922
99,0.7783123204209844,0.7780582546402164
100,0.7782850558444296,0.7780575529486295
101,0.7782791964148477,0.7780607100306985
102,0.7783149576493504,0.7780997209299438
103,0.7782585597539474,0.7780655064014134
104,0.7783337628577861,0.7781096467739707
105,0.7782536897933363,0.7780840367159239
106,0.7782760888593069,0.7782077970808795
107,0.7782806712806624,0.7781097978206785
108,0.7782827283707462,0.7780517241264575
109,0.7782858980811288,0.7780646621489953
110,0.7782899026848578,0.7780722863611312
111,0.7782388511234084,0.7780684810489705
112,0.7782902574545022,0.7780507797378575
113,0.7782603770190181,0.7780870873198843
114,0.7782621652443408,0.7784849351666286
115,0.7782744517305973,0.7781509488503934
116,0.7782720040288864,0.778068378678916
117,0.7782778454008171,0.7781055932037789
118,0.77825380491742,0.7780846296434689
119,0.7782516318880255,0.778060520411825
120,0.7782752689626654,0.7786210027643286
121,0.7782774756956,0.7782465187504081
122,0.7782690003629159,0.7780684999942931
123,0.778231189722839,0.7780366985593804
124,0.7782744940249807,0.778048483742709
125,0.7782531623675409,0.77855580034702
126,0.7782418371131135,0.7780418625914598
127,0.7782186598493392,0.7790798845604637
128,0.7782687397809708,0.7781070892122107
129,0.7782398315795269,0.7780568931658192
130,0.7782628661679389,0.7780523910084395
131,0.7782509139436564,0.7782339322078563
132,0.7782412809871494,0.7782479334827906
133,0.7782375485106668,0.7780546465335771
134,0.7782721537853247,0.778061981179969
135,0.7782215515168542,0.7781217812176108
136,0.7782390227411015,0.7780615895186717
137,0.7782379231324872,0.778046832456463
138,0.7782552022743606,0.7780596920236891
139,0.7782511460238165,0.7782911581142717
140,0.7782490355586522,0.7780657065033969
141,0.7782414670371594,0.7780879317048203
142,0.7782323662771227,0.7780840840484673
143,0.7782371994267078,0.7780473145186115
