epoch,loss,val_loss
0,0.6751150174519776,0.6743493607418299
1,0.6717610462434253,0.671403668415022
2,0.6713608404855793,0.6710498289908987
3,0.6711467917147367,0.6713045165664491
4,0.6711025868136142,0.67094368534806
5,0.6710149136325994,0.6711462424902078
6,0.6709473649314726,0.6711321480504782
7,0.6709185788010921,0.6706351053341809
8,0.6708957305155011,0.6707375054607813
9,0.6708087071105809,0.6707281567178796
10,0.6707773382541131,0.6709315409087863
11,0.6707652906419689,0.6706410013713098
12,0.670720819529221,0.6706233131084742
13,0.6707133794010403,0.6705451068593071
14,0.6706680710242015,0.670524614456818
15,0.6706955884552019,0.6709604994898961
16,0.6706393979204799,0.6705927018118185
17,0.6706642606736296,0.6708214689156773
18,0.6706099688824987,0.6707854194169349
19,0.6706066753936906,0.6706404978034041
20,0.6705881128361514,0.6707578879964906
21,0.6706002698555363,0.6715633541899332
22,0.6705801086139225,0.6704867974394595
23,0.6705536255110662,0.6706255246282135
24,0.670551657689712,0.6716533573833897
25,0.670531183838741,0.6708591374325642
26,0.6705610089291114,0.6706350537941951
27,0.6705288718176899,0.6706774589446342
28,0.6705323581859565,0.6706498171036748
29,0.6705331746603802,0.6707646096578113
30,0.6705151218922055,0.6704893342101121
31,0.6705238627305372,0.6705602520758223
32,0.670527824271984,0.6705177495957405
33,0.6705044906380605,0.6706250585770633
34,0.6704935654202615,0.6704504805953801
35,0.6704814204119656,0.6710895357509444
36,0.6705117264006417,0.6704652834851079
37,0.6705029565272949,0.6704718860507257
38,0.6704634305732364,0.6704571423680892
39,0.6704837007843057,0.6705056020754262
40,0.6704797793191312,0.6706875491723459
41,0.6704728053130213,0.670403274970905
42,0.6704773281707497,0.670594443640899
43,0.6704593819204338,0.6704021118000346
44,0.6704694275616159,0.6703951946748559
45,0.6704729845966872,0.6708096697469808
46,0.6704547824881674,0.6704392407988109
47,0.6704588288214975,0.6705244486201694
48,0.6704490176276705,0.6703732173197114
49,0.6704464997837082,0.6703883278260103
50,0.6704421429696031,0.671158450282489
51,0.6704376070923023,0.6704696362664515
52,0.670426451605827,0.6704451547447833
53,0.670439738266676,0.6704612559404792
54,0.6704407623758896,0.6703668070517211
55,0.6704836325107263,0.6704216533631432
56,0.6704178716026585,0.6704060957794135
57,0.6704324270188925,0.6704010702095771
58,0.6704155182152498,0.6708693702305728
59,0.6704599142904405,0.67076652144106
60,0.6703918117358882,0.6704776538815482
61,0.670427696832824,0.6707565050305346
62,0.6704146994536944,0.6703712808928718
63,0.6704384709098371,0.6711668711494638
64,0.6704050288938098,0.6703600759106401
65,0.6704170177958108,0.6703707289938058
66,0.6704162493933511,0.6707898514439649
67,0.6704148800692526,0.6707630515079641
68,0.6704173581579854,0.6703837350311403
69,0.6703980296543163,0.6705356285139287
70,0.6704232701714793,0.6704992511943728
71,0.6704043865222,0.6704378067614144
72,0.6704096847057036,0.6704318815561557
73,0.6703991761493253,0.6705650737574503
74,0.670391033339701,0.6704587060410919
75,0.6703777825780227,0.6705023056555498
76,0.6703847686906667,0.6703912989949733
77,0.670385145767239,0.6709707803776932
78,0.6704047921538014,0.6706131176237116
79,0.6704021703638695,0.6704187410983733
80,0.6704041336011005,0.6707455269425601
81,0.6703971969309644,0.670699160231926
82,0.6703806275523996,0.670450214357514
83,0.6704082233469412,0.6703610039616797
84,0.6703815970272101,0.6704341721653995
