epoch,loss,val_loss
0,0.5616412648887922,0.5559030513176941
1,0.5559375282667062,0.5557313935565857
2,0.5559516501912442,0.5563152082736518
3,0.5558955861164802,0.5559519025206812
4,0.5558264766998716,0.5557221069409012
5,0.555831296392888,0.5559878417030296
6,0.5557931362058252,0.5558315954862255
7,0.5557976787130073,0.5558361132097221
8,0.5557850149711204,0.5557152792368879
9,0.5557866845318213,0.5557135816924398
10,0.5557809690917458,0.5557949279809312
11,0.5557728242513506,0.5557082284106439
12,0.5557585804517665,0.5556862009921414
13,0.5557617253018688,0.5557346912022525
14,0.5557521180271794,0.5556964841990011
15,0.5557578947094528,0.5564201346735964
16,0.5557651722166225,0.5557576164009269
17,0.555739116357361,0.5560326777944039
18,0.5557413809493215,0.5558449819492352
19,0.5557304028892777,0.555789890389831
20,0.5557320619770537,0.5556932998561133
21,0.5557296673384521,0.5557346962994577
22,0.5557299583508032,0.5559157033997981
23,0.5557221521632485,0.5556768031371706
24,0.5557298854221084,0.5556860733868982
25,0.555721908456146,0.5556764415810936
26,0.5557142297748954,0.5556804537725805
27,0.5557203135074434,0.55569392804761
28,0.5557126597223636,0.5557351707749582
29,0.5557276469513283,0.5557174398224373
30,0.5557251765210748,0.5556838877365402
31,0.5557129007230862,0.5557322231657792
32,0.5557136685899492,0.5556711527029825
33,0.555710081624178,0.5559439705357924
34,0.5557102089139558,0.5556996772691373
35,0.5557086529289201,0.5556855816036174
36,0.5557092050615737,0.5557358580410282
37,0.555701723376145,0.5556686565869192
38,0.5557143928979791,0.5557429124547202
39,0.5557014938296171,0.5557316626388534
40,0.5557069877038697,0.5556752439508442
41,0.5557077504151223,0.5556690713773176
42,0.5557120834413236,0.5556912633404195
43,0.5557044644100738,0.5557527658919295
44,0.5557051556314067,0.5556701634996786
45,0.5557050565345978,0.5556780399974421
46,0.5557004774269998,0.5557040928592185
47,0.5557010339402657,0.5556742151956889
48,0.5557002745881265,0.555682160493891
49,0.5557008701419675,0.5556827998405527
50,0.5557019141932803,0.5556878581328375
51,0.5556982390840056,0.5556698012999434
52,0.5556993478021005,0.5557652191593663
53,0.555703716934533,0.5556763614219806
54,0.5556959875230553,0.5556665981489836
55,0.5556964367533244,0.5556941413824494
56,0.5556974907573473,0.5558100233233996
57,0.5556996391055197,0.5556657500724783
58,0.5556935527537543,0.5556778340220773
59,0.5557007399541307,0.5556696244785099
60,0.5556907225114391,0.5556816307773699
61,0.5556998312111632,0.5557200366710129
62,0.5556945467654363,0.5556967772007443
63,0.5556955690844635,0.5556765173671169
64,0.5556949527654083,0.5557293900804366
65,0.5556985610868123,0.5557051960136922
66,0.5556917435044901,0.5557736203852998
67,0.55569351445347,0.5556870270422835
68,0.555700663318855,0.5557199455176495
69,0.5556922016576883,0.5556820816741551
70,0.5556957760712523,0.5556792975352343
71,0.5556934199328963,0.5556728758091811
72,0.555692692829352,0.555704753763698
73,0.5556955663177402,0.5556719114435122
74,0.5556947521848754,0.5557330232424188
75,0.5556897838866773,0.5556803523017544
76,0.5556939054823733,0.5557068175733402
77,0.5556919435652025,0.5556865858382339
