epoch,loss,val_loss
0,0.6779021746051636,0.6721349383784377
1,0.6720880316413442,0.6714243410702109
2,0.6715158256888448,0.6713644810871641
3,0.6712902167180911,0.6709475135432172
4,0.6712112239496203,0.6708397175634553
5,0.6710362027779463,0.6713790344126134
6,0.6710598644778034,0.6709383392790225
7,0.6709329295590808,0.6710639807493398
8,0.6709360147217142,0.6707970016444129
9,0.6708467844489742,0.6718119025769945
10,0.6707875751991215,0.6705852987199468
11,0.6707581367783396,0.6712925556691578
12,0.6707113212243816,0.6723020970206119
13,0.6707316151310649,0.6707257509174774
14,0.6706636391098295,0.6706430069298825
15,0.6706882019170503,0.6705436389635948
16,0.6706606578359776,0.6710237012612587
17,0.6706115727095628,0.6709902498274166
18,0.6706134582647778,0.6707936624827907
19,0.670592951058917,0.6705279551281974
20,0.6706039424374892,0.6705999575201549
21,0.6705407820930844,0.6704835939714033
22,0.6705485450996421,0.670493395579927
23,0.6705489674475369,0.6704396810373731
24,0.6705430178365813,0.6705527595675179
25,0.6705274081142133,0.6705384525691249
26,0.67052301056282,0.6704963523801668
27,0.670509277208095,0.6705216155726891
28,0.6704949030806618,0.6705554755922535
29,0.67048686593699,0.6706357483108857
30,0.6704732352117239,0.6703453766782832
31,0.6704739989456585,0.6704577803327788
32,0.6704689666207914,0.670773384626733
33,0.6704478083818798,0.6719195774117594
34,0.6704592895663049,0.6705189001774133
35,0.6704098379411534,0.6703659499119402
36,0.6704190130619552,0.6705972377707206
37,0.6704424863662993,0.6704964480769999
38,0.6704351096802853,0.6705647837799542
39,0.6704166423871604,0.6705155788678413
40,0.6704269707239591,0.6703565391932704
41,0.6704168398396987,0.670663008216413
42,0.6703881917910914,0.6704402986984319
43,0.6703809847831064,0.6703541400802879
44,0.6703841539496099,0.670768269829775
45,0.6703678739852832,0.6703011384365463
46,0.6703838804486646,0.6709464212694073
47,0.6703981864433194,0.6703284202027893
48,0.6703599065421337,0.6703191274818171
49,0.6703722156137653,0.6704112760354664
50,0.6703639007344643,0.6704227115088689
51,0.6703707243203588,0.6705390358370639
52,0.6703688270254027,0.6709694472573874
53,0.6703403562679475,0.6702719588108965
54,0.6703416329602588,0.6703058258018475
55,0.6703255804813202,0.670467257149469
56,0.6703221928789601,0.67050759148575
57,0.6703417557199465,0.6704397414513235
58,0.6703276667349939,0.6703434223426
59,0.6703315948052027,0.6702980872599194
60,0.6703318404925928,0.6712336290899261
61,0.6703323169546755,0.6704961418613321
62,0.6703156982215543,0.6710818109672108
63,0.6703271014352619,0.6702482178322149
64,0.6703164849758884,0.6708978497075224
65,0.6703021711417242,0.6703594022797122
66,0.6703024098608369,0.6706079629199437
67,0.6703254382267839,0.6706400622644935
68,0.670298711707893,0.6703626498478225
69,0.670323585038484,0.6703931222515521
70,0.670299707626504,0.6702597962640023
71,0.6702978689312589,0.670551696906719
72,0.6702908459748538,0.6702604439450915
73,0.6702775317729807,0.670201412776131
74,0.6703013835110311,0.6706956615850473
75,0.6702676986445403,0.670277166616468
76,0.6702854970201052,0.6706568586394694
77,0.6702789890607358,0.6702533871413451
78,0.67028816219139,0.6702801336063853
79,0.670279328565877,0.6704998561479145
80,0.6702954280609683,0.6702322899272977
81,0.6702571358694577,0.6702084371981895
82,0.6702664323892635,0.6702932950777157
83,0.6702483763976492,0.6702171736280748
84,0.6702484791560773,0.6709973972781189
85,0.6702874728884237,0.6702553472888835
86,0.6702441143328705,0.6703082149049981
87,0.6702838273201807,0.6703362359458422
88,0.6702644410474092,0.6702348107910732
89,0.670258838824094,0.670193123972679
90,0.6702770150890919,0.670233977305732
91,0.6702418955896355,0.6702707090253998
92,0.6702812968857542,0.6702636212550668
93,0.6702236662926861,0.6703717866804517
94,0.6702567920302435,0.6706026629103314
95,0.6702486866784627,0.6702321207209089
96,0.670226251798512,0.6702438195215173
97,0.6702512499818769,0.6702692238361055
98,0.6702633658908702,0.6702206478916654
99,0.6702397845845363,0.6704082358057619
100,0.6702498268902689,0.6701973516760846
101,0.6702486938317143,0.6701787617474638
102,0.6702361286983678,0.6703734834155942
103,0.6702337905111747,0.6703239693676875
104,0.6702297687577057,0.6702492322186469
105,0.6702365649642806,0.6701634667100311
106,0.6702442826782182,0.6702580793908764
107,0.6702109532885328,0.6705194226243827
108,0.6702441775435238,0.6704210703034467
109,0.6702097037034044,0.6702312208251838
110,0.6702089564518834,0.6702235290052703
111,0.6702492745166362,0.6707211648384238
112,0.6702163030596914,0.6702211931127773
113,0.6702285488224637,0.6705411522799642
114,0.6702113579834318,0.6701938231795558
115,0.6702053458831823,0.6701862135443855
116,0.6701765988971042,0.6706291539803069
117,0.6702193383365103,0.6703430600671403
118,0.6701934590158836,0.6702855932810997
119,0.6702247565721384,0.6702182395639582
120,0.6702042434427686,0.6702015329130456
121,0.6702199163805229,0.67019508609852
122,0.6702094965568831,0.6702018389441351
123,0.6702160304934766,0.6709609085867589
124,0.6702107607253841,0.670255727014107
125,0.6702263848548273,0.6702339550947904
