epoch,loss,val_loss
0,0.1319765982935336,0.1230088818113738
1,0.11509170782684036,0.10913285273837914
2,0.10951741989066384,0.10818404650970245
3,0.1076208765560939,0.10986899894647263
4,0.10606233894793823,0.10600412338120191
5,0.1052558365522641,0.10646824660931804
6,0.10437690988425086,0.10377047483776607
7,0.10417211269289264,0.10556105402964855
8,0.10347231654313921,0.10449388709906664
9,0.10323797117224855,0.10354940636310953
10,0.10305893376408579,0.10494674700928318
11,0.10290638396658587,0.10383200026753972
12,0.1024554543693065,0.10492435990060267
13,0.1023138464294838,0.10363707438345578
14,0.10212058945994822,0.10333944319713223
15,0.10176742189613314,0.1025215686663183
16,0.10165846266581946,0.10282844308942997
17,0.10138227573402382,0.1037464942082074
18,0.10138470311338338,0.10219899392175792
19,0.10103378637944704,0.10227978049085427
20,0.10099986664132417,0.1030337130634609
21,0.10091723765852093,0.10169260366409379
22,0.10076878449497702,0.10174290986418989
23,0.10062295197400319,0.10237186024288195
24,0.10056555851785881,0.1014345377619747
25,0.1004525806786355,0.1022082835924527
26,0.10033087572219376,0.10592077442941655
27,0.10021835289584895,0.10230204885701576
28,0.10013959383434384,0.10202099911114877
29,0.10009617681800738,0.10335880260555465
30,0.09999046415678021,0.10081520109389043
31,0.09989119132924341,0.1026165183406984
32,0.09976187307614297,0.10146459723292257
33,0.09987711828943163,0.10108874135851689
34,0.09968907561198308,0.1009331264941157
35,0.09960714610892517,0.10213392897931588
36,0.09953545605389248,0.10087863138758683
37,0.09950585546916099,0.1005024424602782
38,0.09934415090279068,0.10065808379098273
39,0.09916577102790076,0.10093560988787187
40,0.09926519889615948,0.10104569492511699
41,0.09919167437538899,0.1015808680824662
42,0.09918390734325393,0.10120588409696209
43,0.099118130894134,0.10269795096635687
44,0.0990879602274593,0.10023784974188545
45,0.0990991085453507,0.10061180664941359
46,0.09900603532045522,0.10004243202660128
47,0.09887316162985409,0.10081604993888096
48,0.0988556771035446,0.10022710911942623
49,0.09883110920583903,0.1055124851435598
50,0.09884587651587616,0.10013499794823982
51,0.09873283790302806,0.10050672584662783
52,0.09873993880816294,0.10015915138820003
53,0.09869498957650281,0.10012863761168142
54,0.09874372098090095,0.09986609805831459
55,0.0985794861246028,0.09970428387544089
56,0.10378516463034435,0.10326299952555786
57,0.09931274328301179,0.10131545222045052
58,0.09858149029937918,0.10003582894096909
59,0.09848814436934109,0.1026808513378423
60,0.09849979229163396,0.09983144582503463
61,0.09839335762138991,0.10041600463703944
62,0.09824085151193883,0.10015381737414743
63,0.09828024884836967,0.10266218894087778
64,0.09825779459016512,0.09929779986514446
65,0.09826081059733831,0.09973497782952638
66,0.0982751584714174,0.09951164952053501
67,0.09816587736697042,0.0994495944901934
68,0.0980956406579996,0.09986025400132022
69,0.09804614211810589,0.10014159444406598
70,0.09810883120543695,0.10082541690062337
71,0.09797019555648964,0.09997774402354943
72,0.09801447965523737,0.0992717459118705
73,0.09797102064256134,0.0999015817116684
74,0.09803034993388979,0.09890723747877313
75,0.09795602021259973,0.09954515679468612
76,0.09793588798477741,0.10066778492493082
77,0.09792614900871269,0.09889433391886807
78,0.09781285395919757,0.09983752674943912
79,0.09779285428293127,0.0997352600405287
80,0.09784064273810816,0.09996666137305955
81,0.09768884555406061,0.09916573977288659
82,0.09770503304963568,0.10000170111698783
83,0.0976547555584352,0.09906790042330069
84,0.09770042868617324,0.09931814720375265
85,0.09757200392997552,0.09878222176197864
86,0.09763305586374962,0.09870564206909316
87,0.09768740635969939,0.09858896019348687
88,0.09752936044893226,0.0989709483719599
89,0.09761656487761566,0.09905446439328337
90,0.0975559903269494,0.09885815293843905
91,0.09746957837033035,0.0992615647455454
92,0.0975759520929448,0.09944868354815727
93,0.09756099711119451,0.09958157737422732
94,0.0974500826837613,0.09907877991857161
95,0.0974660303629507,0.09991036710808991
96,0.09739720069435327,0.09877964844360737
97,0.09750084372019134,0.09861340987241247
98,0.09734000240918653,0.09908546695249959
99,0.09740932913159397,0.09948090998680985
100,0.0974327715491361,0.09919100563469739
101,0.09745852701331979,0.10096556484363221
102,0.09736640453216852,0.0988488911580231
103,0.09736020535146235,0.09964125227654606
104,0.09738870697173502,0.09916546825856108
105,0.09723407290789883,0.09982467048451107
106,0.09728170171752457,0.09929151547789025
107,0.097276308950836,0.09852393119533383
108,0.09724880376938923,0.09921739879615188
109,0.09715863251149592,0.0990215433166626
110,0.0971356770054701,0.09859846947468878
111,0.09706667405682852,0.09890527147500973
112,0.09715273429834059,0.10030634016536882
113,0.09709710799827066,0.09886553540130125
114,0.09709770778580941,0.09907031191013929
115,0.09712622554608157,0.09903601067291852
116,0.09707378970817429,0.10009096477908976
117,0.09701280471002345,0.09833671583097303
118,0.09711109478893645,0.0985222273994736
119,0.09708906180910973,0.09975401986948229
120,0.09701358832650284,0.09928427738407755
121,0.09707878490205768,0.09875166310568036
122,0.09707554033041518,0.09851667677727184
123,0.09700032857514329,0.09852088368720377
124,0.09695980717856527,0.09853900013657454
125,0.0970228955914197,0.0989375267416234
126,0.09700325229074946,0.09847788964864827
127,0.09698565965995519,0.09895996226428784
128,0.0969295479820713,0.09882529466109029
129,0.09693803646753686,0.09844245912726955
130,0.09694666090520737,0.09861233034575669
131,0.09691768785821915,0.0990281994751101
132,0.09695594968439995,0.09879979133405997
133,0.09692277455166297,0.09825821644014994
134,0.09684761612991155,0.09875727398920026
135,0.09688833320870954,0.09817213698191048
136,0.09685532287772562,0.0982913697368856
137,0.09688091080535485,0.09858244783763415
138,0.09673849054735574,0.09866526359607913
139,0.09682378824548206,0.0982464319717672
140,0.0967355489599105,0.09901298415161314
141,0.09670986772059599,0.09794200737634519
142,0.09667387532636651,0.09863330157553844
143,0.09678714558378344,0.09794820149289969
144,0.09670428442399463,0.09824010427246704
145,0.09675749512240724,0.10094678203466015
146,0.09680551937605858,0.0981717384607428
147,0.0966845615599661,0.09810399029528752
148,0.09675411648961413,0.09955069697104846
149,0.09669542802768882,0.09823808643232741
150,0.09670659272096317,0.09934385869949607
151,0.09670627080704466,0.09805739978563507
152,0.09670050456609489,0.09948060762717532
153,0.0966063015730833,0.10048499919872862
154,0.09671946163218965,0.09795553374332115
155,0.09659925264763804,0.10145058949123456
156,0.09671726868130327,0.09839521731240079
157,0.0966839547187128,0.09843462745870402
158,0.09675788498082684,0.09840358836389694
159,0.09665256417122348,0.09815589722192096
160,0.09662457274107598,0.09870815210189918
161,0.09671402588555002,0.0978515862593892
162,0.0965303875586234,0.0996441191231824
163,0.09664530449551613,0.09797163025533867
164,0.09655060949899975,0.09818213794079303
165,0.09654187151415951,0.09800148487673196
166,0.09653771352146014,0.1015732760272112
167,0.09656260448695372,0.0999453834043418
168,0.09654246209095514,0.09890460836387105
169,0.09649116278048282,0.09854115892721677
170,0.0966391687844123,0.10063427472118823
171,0.09654234817536554,0.09815988182602695
172,0.09656594669015602,0.09839847218555857
173,0.0965301323971289,0.09795312757908645
174,0.0964379996852888,0.09805827200583131
175,0.0964809062505052,0.097973974663288
176,0.09649029384914418,0.09833288517595284
177,0.09650095778538002,0.09821642696803025
178,0.09646739993283282,0.0982809277256983
179,0.09654821684093226,0.09848094182448366
180,0.09645729072603633,0.09798267625990474
181,0.09646932724959549,0.09864687211060214
