epoch,loss,val_loss
0,0.12984994526199964,0.12077127338551388
1,0.11199261685837711,0.10894750627708734
2,0.10757171531590015,0.10712306472173054
3,0.10591180479089642,0.10975920156351968
4,0.10476626173072254,0.1050987644838363
5,0.1039017556248493,0.10402798273612322
6,0.10315965838330067,0.10543995998576176
7,0.10272920231594991,0.10729442528016098
8,0.10217773364275899,0.10338542898692403
9,0.10192431471799902,0.1034889045007715
10,0.10175673038880016,0.1031659733180453
11,0.10132239410929163,0.10194708060663106
12,0.10121104515806424,0.10235827103995493
13,0.10096418590200143,0.10270020728068577
14,0.10077564035544756,0.10228751273285931
15,0.10052560138970348,0.10173091312258967
16,0.1004495540447702,0.10257995888657072
17,0.10027956570444828,0.10088957648866892
18,0.1001758359067103,0.1013588217270929
19,0.10005413513693412,0.1010727458623869
20,0.09997032682454578,0.10186381881374186
21,0.0999485245985578,0.10076848931145589
22,0.0997105912112608,0.1032625182987452
23,0.09984454590909385,0.10552012445800017
24,0.09959286030873711,0.10190451000585657
25,0.09949996165116146,0.10023243254861397
26,0.0993155759125377,0.10076669356653345
27,0.0992001806164932,0.10056306277229443
28,0.09914808647346635,0.10019728178192419
29,0.09912583610644625,0.1002948371114022
30,0.0990504383373013,0.10057068369810555
31,0.0990305202554107,0.10056336881166623
32,0.0988566633302925,0.10003245908489526
33,0.09874348777304968,0.09991434308196961
34,0.09878466825018511,0.10017296736351512
35,0.09869100343705256,0.09986360412702137
36,0.09864874532969475,0.09948556623762518
37,0.09850574346155817,0.10030548420050077
38,0.09860709911902268,0.0997138202849439
39,0.09857972223805576,0.09962195843903057
40,0.09847446480164834,0.1000807584272702
41,0.09842084937190393,0.09963487703882647
42,0.09843811729809661,0.09998013398215017
43,0.09831716431548737,0.10173350336242805
44,0.09829628204686597,0.10064739860477136
45,0.09836768699092087,0.10023916392692578
46,0.0982413489776021,0.09943717822511793
47,0.09815677287732959,0.09949643116894555
48,0.09818643904257168,0.09920205478715446
49,0.09818670264050147,0.09981589764770732
50,0.09827665801283406,0.10127643828571779
51,0.0980937392042325,0.0994330166081966
52,0.09809960490484017,0.0992899019278826
53,0.09812009887657426,0.09973718553582732
54,0.09806040780921502,0.09915313136251991
55,0.09802391068499755,0.09930637825386324
56,0.09801481076878178,0.10032715695977154
57,0.09785112534881461,0.09930188540408909
58,0.09788415960884865,0.09936530063275176
59,0.09790797087617666,0.09925224556714386
60,0.09775130482238198,0.09959511800639702
61,0.09783498753130333,0.09889219869540497
62,0.09783458022241288,0.09904987670449258
63,0.09765928111327501,0.09936390889103647
64,0.09758656598353507,0.09916025100340062
65,0.09768953222804813,0.099300310919048
66,0.09765192187004111,0.09931507588263465
67,0.09756702589845305,0.09968469104034022
68,0.09755534185454726,0.09944612338987535
69,0.09756093209862139,0.09898645241906175
70,0.09754873554146974,0.10002369841666321
71,0.09742289456514965,0.09971352902013138
72,0.09754104507679807,0.10036300633937399
73,0.09750024651336646,0.09910540347742867
74,0.09753486578578525,0.09872626874353917
75,0.09741546581948125,0.09933493746220072
76,0.0972858828545639,0.09964198977221321
77,0.09740764731083833,0.09868510033978495
78,0.09746945519588072,0.0990073431247148
79,0.09733249792708235,0.09923630069698136
80,0.09736328569964231,0.0987818307325076
81,0.09727853073721994,0.09852965619507925
82,0.09726933148647003,0.09883583587136878
83,0.09728774303327697,0.09944114946947034
84,0.09731422719192014,0.09936764426629979
85,0.09729723156816199,0.09984105367882584
86,0.09722252042547921,0.09922241750611792
87,0.09724806155703158,0.09874880245070486
88,0.09720138196676541,0.09842421752601099
89,0.09723653861470698,0.09893561875406515
90,0.09722166075679671,0.09833979334079389
91,0.09713053271014994,0.0985946217130314
92,0.09712351093039102,0.09885478958284001
93,0.09719337188861786,0.09859531654031083
94,0.09720973952050463,0.09949571793943014
95,0.09722143822266988,0.09851706370815448
96,0.0971423380708272,0.09897949637089984
97,0.09716274266783642,0.09874793535315254
98,0.09711713241595461,0.09845658373670368
99,0.09709932537288465,0.09849616727110354
100,0.09713595570555772,0.09877064960645043
101,0.09703852548597082,0.09893162148267064
102,0.09717214512055497,0.0982516931876604
103,0.09709760128254351,0.099606269579786
104,0.09705406589191376,0.09918185971808638
105,0.0970754288268344,0.09841536699114044
106,0.09706729218416316,0.09905849773438559
107,0.09706342355516931,0.09953930193689374
108,0.09704877237575192,0.09842481361801177
109,0.09710763411885526,0.09867318066915803
110,0.09696184772180033,0.09914093032805849
111,0.09693939968147595,0.09856737014015686
112,0.09704924665970574,0.09942585906779669
113,0.09699223418159801,0.09864083274593141
114,0.09697645238935611,0.09936010586717535
115,0.09700110151819405,0.09870387820595879
116,0.09696387194210777,0.09833858170092097
117,0.09707041311150115,0.09861146844716437
118,0.09698203729097246,0.09842922234201083
119,0.09692819238938985,0.0986056786136427
120,0.09699944349392048,0.09816959745441285
121,0.09700761225902747,0.0984620239425315
122,0.09693793343130253,0.09997418965586446
123,0.0970008362500745,0.09859715710466999
124,0.09689315669122958,0.09853716455346746
125,0.09687210698075926,0.09832871374886377
126,0.09690098843592185,0.09847457911916833
127,0.09688948971302512,0.09872033927493225
128,0.09685870003994519,0.09873567862036552
129,0.09686344405371389,0.09902763072734355
130,0.09694410249226743,0.09942454587013282
131,0.09692608259736948,0.10142123186391404
132,0.09684295374709927,0.0995472970706888
133,0.09683702637247392,0.10075302781087266
134,0.09686715191434613,0.09973843089291998
135,0.09690369072049158,0.10053066532761308
136,0.09678157752604917,0.09890250386473526
137,0.0969074174076599,0.09843579407651802
138,0.09680388610311198,0.09845663808973626
139,0.0968915446692515,0.09801709173048737
140,0.09684864889070612,0.09888556566724176
141,0.09681154921784688,0.09978528167920508
142,0.09680662288105928,0.09840569621206693
143,0.09692081098954407,0.09855593516310472
144,0.09684932007434659,0.09811704954919559
145,0.09677650772041382,0.09875041987153582
146,0.09682499486451268,0.09913670342804251
147,0.09685100029531304,0.09801307252146942
148,0.0967634810829395,0.09814635604473264
149,0.09674653153752227,0.09828597238461555
150,0.09677819872992471,0.09820869402557361
151,0.09682271497260228,0.10112079855351007
152,0.09671891536339196,0.09860813324776731
153,0.09684604725634308,0.09812909870013437
154,0.0967118092273655,0.09876842246025123
155,0.0968168707966528,0.09817539356626441
156,0.0967997787030431,0.09814789193631052
157,0.09680984328161267,0.09811483373297847
158,0.09671940843133583,0.09923887048588115
159,0.0966918257583687,0.09875548956863972
160,0.09675985003807076,0.09831943946739824
161,0.09672873689555467,0.09883030613433828
162,0.0966613172373183,0.09851930584543771
163,0.09675794644260748,0.09826130387550008
164,0.09676916481521802,0.09890292331337341
165,0.09672419265887466,0.09883914809636754
166,0.09677367429902924,0.09835793367000313
167,0.09670296885517922,0.09809206309539753
