epoch,loss,val_loss
0,0.1334034200889053,0.11589202368169034
1,0.11537153625454047,0.11347892497321131
2,0.11151718569967374,0.11082620623602704
3,0.1079055651618298,0.10723637065668135
4,0.10571638756858781,0.10571908930573025
5,0.10446271162531856,0.1046392045298682
6,0.10384839121218405,0.10378938793487656
7,0.10309138115126752,0.1051034456900146
8,0.10251898742179928,0.10318294717231137
9,0.10226831545368845,0.10500826658578985
10,0.10197320450833004,0.10266384383882722
11,0.10158430877146751,0.10230007247071389
12,0.10122629902588925,0.10536940625786062
13,0.10098890916092906,0.10225455931182113
14,0.10072050984222362,0.1012912196341925
15,0.1006488984172485,0.10257516024352938
16,0.1003987087230155,0.10064810627267742
17,0.10026483969298132,0.10162872062960238
18,0.10013199268499041,0.10171964397863659
19,0.10005355460844148,0.10013480065693661
20,0.09998117506778562,0.10124213684143785
21,0.09986922689749927,0.10093365020177962
22,0.09970770334858185,0.1007010527369246
23,0.09955169428073,0.10059988501527413
24,0.09960843101453935,0.10088547933429635
25,0.09940371950458685,0.10007573416368136
26,0.0992969462168997,0.10039812933824564
27,0.09930955517771575,0.10018625480195482
28,0.09913488495048917,0.099880080253042
29,0.09918768620511852,0.10243426107150591
30,0.09910001970811655,0.0998083369181386
31,0.09903788233966315,0.10101155249104057
32,0.09909026883102534,0.10108223318644265
33,0.09888716651480113,0.10330832001589131
34,0.09891931852097476,0.10040736704596229
35,0.09888654597082347,0.09962474873115831
36,0.09883078213769064,0.10133675983797108
37,0.09882142624435904,0.10101790962823898
38,0.09879694562025614,0.09951393010752323
39,0.09871110799071581,0.10003629901202515
40,0.09874898467615427,0.1010116630085777
41,0.09861234824258756,0.10127801497564327
42,0.09864104477328668,0.09975066250469669
43,0.09855405793737818,0.10002649546424434
44,0.09855241390482632,0.10037105882146045
45,0.09850922974389449,0.09972984426590835
46,0.09850673843695905,0.09988499086628845
47,0.09850249997377901,0.09994606072417664
48,0.09837504501284268,0.09952919618092738
49,0.09845435342075533,0.09999690605784496
50,0.09841923923454651,0.09958081021822121
51,0.09832954040085827,0.09933445516045518
52,0.09835588211003246,0.10092899040788605
53,0.09821121817106772,0.10010793582385867
54,0.09836284583598078,0.09984482876389712
55,0.09818474869846464,0.09945254323701452
56,0.0982016224815142,0.0992457565492262
57,0.09833135019308935,0.09902084599520757
58,0.09807298091966744,0.09899978775147107
59,0.09815369531904394,0.09907525558511529
60,0.09812292954163794,0.10110535464112448
61,0.0981800870952353,0.09884247528109566
62,0.09823494873521844,0.09903297159919591
63,0.09797397612307875,0.09936000612854712
64,0.09814916861965232,0.0995075903733524
65,0.09808040776274525,0.09910807689411955
66,0.09796351206435595,0.09918010642206894
67,0.09805218902799324,0.10068762924996032
68,0.09805166271840207,0.09920178291491237
69,0.09798134279170088,0.09947749882243125
70,0.09777129285523962,0.0991798283907039
71,0.09788545731519202,0.09877851337155397
72,0.09785997668431427,0.09954827597782746
73,0.09794928345438816,0.09892842931590402
74,0.09774707532221188,0.10072382163195472
75,0.09781162195597423,0.0990052096834396
76,0.0978647104662849,0.09940984915088279
77,0.0978354162036652,0.09968963925227847
78,0.09779798700618005,0.09855115276060161
79,0.09777926338511947,0.09912059452678734
80,0.0976610410631003,0.09912174154467596
81,0.0977791461233822,0.10025757623604788
82,0.097719949065057,0.10000259331957734
83,0.09770618114818067,0.09882649074490342
84,0.0976784223342829,0.09906331385854542
85,0.09765077200803052,0.09964620898560113
86,0.09769875400767518,0.09889439434465036
87,0.09755002618152703,0.0987166030072439
88,0.09764012301097859,0.09901393807587953
89,0.09767269649459162,0.09924416848406141
90,0.09764059291401202,0.09889093823571214
91,0.09751857349753551,0.0993621348553808
92,0.09755099340332168,0.09939695294424052
93,0.09756175561606159,0.09895008908487396
94,0.09759440163649508,0.09915133766511688
95,0.09760037230674022,0.09931699585359456
96,0.0974778741038277,0.09884362439738108
97,0.09753172018284528,0.09877126366053855
98,0.09746546011881008,0.09890988157115248
