epoch,loss,val_loss
0,0.3868060867389043,0.3600066163539887
1,0.3621781829198201,0.3618616437315941
2,0.36006348858277004,0.36000185066461565
3,0.36002440520127615,0.3600587741732597
4,0.36173337676127754,0.3600006418824196
5,0.36001315903663633,0.3600013267397881
6,0.3600219267606735,0.36001044780015945
7,0.3600958262284597,0.3606067457795143
8,0.36007750741640726,0.36006818908452987
9,0.36006450980901716,0.3600218158364296
10,0.36007767895857495,0.36001815187931063
11,0.36006371303399404,0.3600050306916237
12,0.3600574628512065,0.36000245428085326
13,0.3600644364953041,0.3600854573249817
14,0.3600574630498886,0.3600224042534828
15,0.360044805030028,0.3600525586605072
16,0.3600490308801333,0.36008116710186006
17,0.3600544741551081,0.3600094527006149
18,0.36004095671574277,0.3600087852478027
19,0.36004929318030676,0.3600202057361603
20,0.360046984732151,0.3600004304051399
21,0.3600388378103574,0.36000047677755354
22,0.360032915353775,0.36001018184423444
23,0.36003949417670567,0.360075760781765
24,0.3600343329509099,0.3601401982307434
25,0.3600370456576347,0.36000040638446806
26,0.3600392779707909,0.3600012357831001
27,0.36003312836090723,0.3600044493675232
28,0.36003888442118964,0.3600001180768013
29,0.36002738054593403,0.36001596415042875
30,0.3600299674073855,0.360003237247467
31,0.36003378649552664,0.3600002003312111
32,0.3600265389283498,0.3600019913315773
33,0.36002925380071005,0.3600261863470077
34,0.36002914955218634,0.3600024362802505
35,0.3600273901621501,0.36000025349855425
36,0.36003346397479374,0.3600086323618889
37,0.3600249259273211,0.36000033110380175
38,0.36002693051099777,0.3600064145326614
39,0.3600298624833425,0.36000424456596375
40,0.3600255252718925,0.360001680970192
41,0.36002485873301826,0.3600654444098473
42,0.36002553850412367,0.3600013926625252
43,0.3600253568092982,0.36000635659694674
44,0.3600259807308515,0.36000337052345277
45,0.36002607238292694,0.36000069218873976
46,0.36002172009150185,0.36001266199350357
47,0.3600233387152354,0.36002443009614943
48,0.3600264196395874,0.36000028425455094
