epoch,loss,val_loss
0,0.7834965661740473,0.7828060781622531
1,0.7813657861323321,0.7816001475567248
2,0.7810434609142985,0.7809677714816499
3,0.7808348270286474,0.780967474040558
4,0.7807420713115699,0.781006907331048
5,0.7806933231357609,0.7805465398865388
6,0.780647936652136,0.780505244663183
7,0.780627851597364,0.7805116297622436
8,0.7805983917381253,0.7805821164479346
9,0.780584373528438,0.7808066071386051
10,0.7805640752356208,0.7805048301756827
11,0.7805388127341498,0.7804133443107714
12,0.7805379458339765,0.7805367023467412
13,0.7805202553128954,0.7805278222769504
14,0.7804940576045419,0.7806161773598571
15,0.7804716612851801,0.7803765205669085
16,0.7804797342128577,0.7806284136292819
17,0.7804604644394463,0.7804099781628315
18,0.7804482781693088,0.7805479026198557
19,0.7804436629665228,0.7804957498619248
20,0.7804448639578944,0.7806166674630006
21,0.7804165101435004,0.7804643660286825
22,0.7804025051797717,0.7803105400851251
23,0.7804030200912224,0.780317504722693
24,0.7803887667494998,0.7804114937318475
25,0.7803711509047044,0.7804344967989689
26,0.7803681745277358,0.7803506984045454
27,0.7803775166911786,0.7806978909358233
28,0.7803419694196302,0.7803281678440875
29,0.78037347676371,0.7803769660541249
30,0.7803563404683688,0.7803099363147786
31,0.7803430240712597,0.780411159512314
32,0.7803373611563303,0.7804600622221575
33,0.7803232837360049,0.7803034597215944
34,0.7803250938919969,0.7803093548500294
35,0.7803327497413718,0.7803609019870964
36,0.7803288990112335,0.7802973863045639
37,0.780324003886259,0.7811014260235941
38,0.7803234866450814,0.7802785339290346
39,0.7803234727889844,0.7805487348604755
40,0.7803165997242971,0.7802714922086613
41,0.7803023975718845,0.7802658609659004
42,0.7803035617956142,0.7802672980559408
43,0.7803005054617244,0.7807986133199316
44,0.7803135159061769,0.7803229040544488
45,0.7803020013865821,0.7806992760551947
46,0.7803153028268209,0.7802766531360363
47,0.7802863128309414,0.7803237934765294
48,0.7803018397125279,0.7806046740562362
49,0.7802956045161794,0.7803868376936102
50,0.7802857604356167,0.7803423991511128
51,0.7802838689284957,0.7802884331984957
52,0.7802998288691202,0.780340958871178
53,0.7802808151451973,0.7802402173429704
54,0.7803048566311618,0.7803441093888797
55,0.7802696377832687,0.7803075260797606
56,0.7802655054417224,0.7802295350774765
57,0.7802833132363728,0.7804477315574141
58,0.7802710908197751,0.7803544479124845
59,0.7802799629049103,0.7802651613898669
60,0.7802678993538372,0.7802600622063537
61,0.7802963181241092,0.7802774536196951
62,0.7802667385180123,0.7803108679154042
63,0.7802724453573845,0.7803026385320185
64,0.780267318642096,0.7803086288792758
65,0.7802774688188773,0.7803984258417972
66,0.780262876637368,0.7802488980632898
67,0.7802833556427661,0.7803015539584434
68,0.780271427006426,0.780254257090682
69,0.780280775234968,0.7802691058836533
70,0.7802724512059575,0.7804142599950542
71,0.7802651956420781,0.7803345559106017
72,0.7802716873537026,0.7807890638929142
73,0.7802704958287445,0.780246512642243
74,0.7802516212120376,0.7802724127535103
75,0.7802553307130824,0.780267744002237
76,0.7802638683027582,0.7803097569613073
