epoch,loss,val_loss
0,0.7803156907245744,0.7778466564616608
1,0.7779521564460243,0.7778645801898202
2,0.7779737483024458,0.7778922437305807
3,0.7779391821709073,0.7779769137802248
4,0.7779390239916405,0.7778430424011831
5,0.7778986517890356,0.7778743527674649
6,0.7779031477281048,0.7779493416247338
7,0.7778913597347783,0.7778871722669664
8,0.7778887525901399,0.7779657944187354
9,0.7778883889949836,0.7778682984519387
10,0.7778818039361284,0.7778427255367578
11,0.7778801792752241,0.7778631393466845
12,0.7778749832400101,0.7778735470114879
13,0.7778740534064473,0.7778522666246148
14,0.7778739151081479,0.7778797483035301
15,0.777869166593869,0.7778572192055017
16,0.777873934877894,0.7778604562242428
17,0.7778661130144758,0.7778657176664221
18,0.7778666257945833,0.7779094331014984
19,0.7778611926166776,0.777908964134955
20,0.7778723867923165,0.7778434845659872
21,0.7778533914983594,0.7778699072330778
22,0.7778627205317975,0.777853647470285
23,0.7778646708393796,0.7778853994523682
24,0.7778668602943938,0.7778432491953191
25,0.7778588355637056,0.7779158831958414
26,0.7778612025867413,0.7778473723657892
27,0.7778592756675349,0.7778435111784151
28,0.777862025746657,0.7778514819058499
29,0.7778579319621498,0.777846032335623
30,0.7778582920057248,0.7778422389879328
31,0.777855826436464,0.7778398981922786
32,0.7778599168338551,0.7778679725952293
33,0.777855955598858,0.7778420660805092
34,0.7778564095422195,0.777867198865982
35,0.7778547287020434,0.7778383861302535
36,0.7778564762985382,0.7778668438411429
37,0.7778562450407043,0.7779186674483488
38,0.7778575211508796,0.7778379338230995
39,0.7778543544020543,0.7778759152241429
40,0.7778560156401048,0.7779013185543125
41,0.7778573003608434,0.7778359709826087
42,0.7778520477728599,0.7780082243878784
43,0.7778587283181769,0.7778649174004713
44,0.7778550908757784,0.7778386423677532
45,0.777855081713448,0.7778422693676545
46,0.7778516693896369,0.7778760489394064
47,0.7778547699946483,0.7778531427428479
48,0.777855129559026,0.777862116971318
49,0.777851661038195,0.7778516533934391
50,0.7778534536618781,0.7778402834737871
51,0.7778537506896337,0.7778384062540386
52,0.7778512529108239,0.7778354722090102
53,0.7778552837008094,0.7778563305075366
54,0.7778518189342819,0.7778338717670313
55,0.7778536301673832,0.7778354369355929
56,0.7778526343797133,0.777866959969392
57,0.7778535647796361,0.7778435159443257
58,0.7778527743723597,0.7778612505221567
59,0.777850414468657,0.7778370420346283
60,0.7778505877526944,0.7778557040293065
61,0.7778516166645294,0.7778646912161312
62,0.7778496698158444,0.7778377982951808
63,0.7778484849511366,0.7778328460455888
64,0.777851668819333,0.7778949554674167
65,0.777851223946012,0.777851229861594
66,0.7778499692399807,0.7778523946084805
67,0.777849259270006,0.7778338822596069
68,0.777849262510405,0.7778694749787173
69,0.7778479297251957,0.7783573396824571
70,0.7778484644008709,0.7778347880949723
71,0.7778465810128895,0.7779155769423112
72,0.7778502634402754,0.777837076825302
73,0.777846499246062,0.7778637766724487
74,0.7778468336299057,0.7778493769778058
75,0.7778476498227271,0.7778486032674895
76,0.7778458229271721,0.7778337473374842
77,0.7778467544708578,0.7778371095808798
78,0.7778467645903995,0.7778749224049942
79,0.7778472740421566,0.7778353475948847
80,0.7778467832400467,0.7778345398274759
81,0.7778498827821473,0.7778377275685006
82,0.7778448993831225,0.7778798008421328
83,0.7778455590216096,0.7778583172769684
