epoch,loss,val_loss
0,0.4539609479171535,0.4476190000483777
1,0.4507373031058572,0.4474954409709673
2,0.44963252574693074,0.4467460342379852
3,0.44786590072794685,0.459547606594263
4,0.45042305554081985,0.44711749318129906
5,0.44935322719479875,0.4488861377094972
6,0.4483918348296084,0.44861468649088476
7,0.4483764246950659,0.44655981106390474
8,0.4488456674032608,0.4466206732843345
9,0.4479392490747556,0.45734429601517784
10,0.44767642660522994,0.44626266522427976
11,0.4472609477380144,0.4461833748440525
12,0.4475415870923455,0.44726713372304816
13,0.4473564976749858,0.4460467859021213
14,0.44721339723272024,0.44662146113146783
15,0.44703027587000305,0.4456523317788657
16,0.446923707159561,0.4461036206441814
17,0.4464951289455618,0.4455117825498576
18,0.4463880594252808,0.4454044411229542
19,0.446526702072973,0.44548960853109515
20,0.4465249262470272,0.445489421974331
21,0.44610574606850434,0.44537943580074124
22,0.44609699617413334,0.4453236697963709
23,0.44604142053112916,0.4453368536395574
24,0.4458873063923202,0.44539365331170977
25,0.44582062404847367,0.4452924975350071
26,0.4458924741901951,0.44531977084613666
27,0.4458762404457253,0.4452398192301352
28,0.4458771881156804,0.445384614826271
29,0.4457722466390177,0.4452333540263887
30,0.4460413212343589,0.4453453380038895
31,0.4458435876799989,0.4457656638322604
32,0.44601222935305795,0.44529967523054675
33,0.44568436470410017,0.44537758502067415
34,0.44642803077326954,0.4454880649534808
35,0.44559802995690617,0.44512461848782986
36,0.4456669994978083,0.44566749158417857
37,0.44589422816671814,0.44511400303500637
38,0.4455351546496768,0.44515755922856437
39,0.4457506273015211,0.44563529301450727
40,0.4456495845472919,0.44513962500546306
41,0.4456524176494089,0.44518992240436117
42,0.44572976273716763,0.4451400944784139
43,0.4465126706380331,0.44525560009464377
44,0.4463396770775295,0.4451790725463569
45,0.44612015799907917,0.4453031917720707
46,0.44561799241349775,0.4451574392549307
47,0.44566354895752325,0.44557688764698905
48,0.44559211860975273,0.44521878880272786
49,0.44556706401382784,0.44513921044697097
50,0.4455613580182766,0.4450980359710586
51,0.4456424227605403,0.4453693522841131
52,0.44557458146373935,0.4451197702079723
53,0.44594365736800173,0.44541236895482766
54,0.4457559734572055,0.44521662667902456
55,0.4457124191608144,0.4610449880815904
56,0.44561285829431585,0.44509493953957907
57,0.4454579189121678,0.4450882062711128
58,0.4455636457377164,0.44520006458144423
59,0.44564487326348445,0.44510486541200256
60,0.44553027432361497,0.4450331962172978
61,0.4455940999981081,0.44509889029720123
62,0.4455821071221224,0.4452164684929165
63,0.4455202075691596,0.44514943763900033
64,0.44559679308371747,0.4456363435830505
65,0.44555613748799777,0.44512237695515944
66,0.4455643316886682,0.4450514873701825
67,0.44553819846646114,0.445094383470933
68,0.4455579677320176,0.4451259518921025
69,0.44550563288367445,0.44505861575724265
70,0.44560855714577524,0.44511866903653385
71,0.4455920603480435,0.445048482023441
72,0.44545190169318455,0.47357742268546565
73,0.4459464576557556,0.44515459555159376
74,0.44555483706556237,0.4450661677542387
75,0.4476094482210107,0.4453154097209
76,0.4464818088596198,0.4456402736820833
77,0.44601025749481193,0.44519282362045365
78,0.4462708233552512,0.44518625693404906
79,0.44606035046494724,0.445137755677627
80,0.4460977400004786,0.4451299662393711
