epoch,loss,val_loss
0,0.13421790146055737,0.12158947032638934
1,0.11561359847444723,0.1145375471261024
2,0.11050404601041985,0.11786592144525598
3,0.10891160016317455,0.10947790578994483
4,0.10753434636420796,0.10807130235172328
5,0.10630205915816646,0.10946579242078713
6,0.10483296700105178,0.10525643539848509
7,0.10383025011548253,0.10649906174271319
8,0.10328119652481857,0.10569313660912406
9,0.10266403100828879,0.10266024811255169
10,0.10244586085694528,0.10360269250792796
11,0.10198349729046732,0.10370074993696632
12,0.10171625326151948,0.10379305271065309
13,0.10154980160465803,0.10192791919765425
14,0.10143176052263254,0.101901834915536
15,0.10117310992620827,0.10258685007729246
16,0.10102115920378629,0.10163902910063906
17,0.10083523923467146,0.10196283263844574
18,0.10065911386764712,0.1019377036356483
19,0.1005788085415141,0.10111190797635368
20,0.10059189078218825,0.10203030321209303
21,0.10031922334045773,0.10161727554392148
22,0.10019568891435329,0.102119049722616
23,0.10005039108739427,0.10126005675734197
24,0.09987500595101029,0.10222764177301422
25,0.09993960521103346,0.10098216896771685
26,0.0997475908210779,0.10068997524812408
27,0.09969188377153786,0.1011228991421855
28,0.09972986977468798,0.10054198360848242
29,0.09957794461396384,0.10100095761575754
30,0.09953498242967299,0.10041781794235444
31,0.09943759595315385,0.10033856316683916
32,0.0995633143967148,0.10028387090507454
33,0.09937729309830866,0.10029707586947975
34,0.09938501299145984,0.10047899053856667
35,0.09927909023364098,0.1013264649689472
36,0.09912330946393916,0.09975427500128614
37,0.09922327162683232,0.10005565451886117
38,0.09898950906229748,0.1010150768937138
39,0.09906029925331576,0.10377103367982184
40,0.09893782013113078,0.10073249230517155
41,0.09890427818482651,0.10045038865533389
42,0.09894022334479959,0.10013015070545289
43,0.09886616131808285,0.10041911470484446
44,0.09882245896196669,0.10024029747295307
45,0.09876498582059408,0.1000328499611425
46,0.09876090423052314,0.09969715785832088
47,0.09871995213559445,0.10132624431308705
48,0.09874904513694507,0.10077775580158059
49,0.09869261209646604,0.099906600384068
50,0.09857386486192278,0.0999320984633315
51,0.09856111442324472,0.10064397126138068
52,0.09867410680546379,0.09987717278080459
53,0.09862327269766433,0.09985634403790446
54,0.09851686812056415,0.09932102420102117
55,0.0984968912857871,0.09949679715845515
56,0.09844198694153922,0.10232731655159602
57,0.09847727939940558,0.0997623747064705
58,0.09840760409185775,0.09976973472766806
59,0.09832316619350298,0.09973842276525588
60,0.09834404657644376,0.09928587336925565
61,0.09827805228225552,0.09931909218809142
62,0.0981727668340078,0.09957043976313408
63,0.0982234181379642,0.09939476931832963
64,0.09821076065231298,0.09992256296843845
65,0.09822183879166792,0.09955083150094192
66,0.09812953581458515,0.09989139656921558
67,0.09811488688389455,0.09998188201176547
68,0.09816524636120959,0.09990835380313774
69,0.09804891342443384,0.09916196010115887
70,0.09807005178656869,0.09918469113689841
71,0.09808551809619254,0.0989463344471917
72,0.0979341691303318,0.09995869972724016
73,0.09786482558312143,0.09943124216374696
74,0.09788761994901338,0.09882137686018908
75,0.09777521345061206,0.10000728217392985
76,0.09791019705224407,0.09949003775557184
77,0.09782212344084067,0.09883311247000226
78,0.09775319746730061,0.09942152355341319
79,0.09784803883471682,0.09906090921442083
80,0.09776355613901103,0.0991204047428581
81,0.09773717012181422,0.09998999376069445
82,0.09778596305371008,0.09928313138107468
83,0.09764075928577699,0.09954247884517418
84,0.09767122254068143,0.09939392786061875
85,0.09764684000796063,0.0990274326722878
86,0.09764280497426932,0.09854107427669458
87,0.097654218518104,0.09920585359174126
88,0.09755154301954884,0.0992679679575507
89,0.09763935740821171,0.09941161803313148
90,0.09757710462682519,0.09855271202028602
91,0.09751584067994154,0.09968288382907245
92,0.09753516784636924,0.09883677310518695
93,0.09750177066782321,0.10092089637198183
94,0.09755834847665208,0.09878226951337322
95,0.09731760694473823,0.09900881279581157
96,0.09755399349064511,0.09860934745073698
97,0.09745951200297956,0.09877068318434891
98,0.09741173708339958,0.10074260560933211
99,0.09743370318331218,0.09997344754869378
100,0.09743651696209568,0.09910614326731144
101,0.0973757503443386,0.0985513909336677
102,0.0973053597960407,0.09890208209170999
103,0.09736285817395214,0.09927065172631276
104,0.0972968766399191,0.10019183540336665
105,0.09737402517388091,0.09845631518036634
106,0.09728266840574393,0.10138871446157213
107,0.09733769506117153,0.0991140602013649
108,0.09724978748626756,0.0996837499416147
109,0.09731996907769415,0.0991279346762204
110,0.0972942022250081,0.09877995659261635
111,0.09723639149469168,0.09867292680218993
112,0.097261985532924,0.0991592101352838
113,0.09728240300505632,0.09895184296450246
114,0.09727081785218071,0.09842111335229321
115,0.09720623344382141,0.09938506463302096
116,0.0972707884287791,0.09880896098053946
117,0.09721788548804876,0.0991454630328778
118,0.09717541136625968,0.09882552328222098
119,0.09708832799995908,0.09871614214972937
120,0.09709491482163898,0.09861897451133696
121,0.0971766091931546,0.09873217495496413
122,0.09716626309144878,0.0985484087852442
123,0.09717644561749575,0.0986108503299837
124,0.09708896816208497,0.0987386581965225
125,0.09714841330393446,0.09930315262337648
126,0.09713429423860684,0.09878734723609062
127,0.09715337736670909,0.09971003666725994
128,0.09704287033932227,0.09977844989494292
129,0.09704392023708817,0.09849615614611004
130,0.09700725400904049,0.09835713493983973
131,0.09701522775624676,0.09853961146043959
132,0.09704442427741666,0.0985901208787598
133,0.09704107043677103,0.09865581442947916
134,0.09712849795509512,0.10232555591148555
135,0.09707418676273652,0.09891761071791871
136,0.09699278513839428,0.0982232548832439
137,0.09698249517997118,0.09875960003810022
138,0.09704729269439924,0.0984468998294871
139,0.09692151175365635,0.09884201189568445
140,0.09706969270427011,0.09862078436941255
141,0.09693954405537546,0.0999722876955029
142,0.09686784616517187,0.09959409355570613
143,0.09682264488561618,0.09875429339431213
144,0.09688800951490849,0.09887925943909032
145,0.0970165413859895,0.09859510154958961
146,0.09695086992077946,0.0986765420434966
147,0.09687015670253546,0.09904320277031099
148,0.09695830898555645,0.09971220517903448
149,0.0969771642453565,0.09879184201506465
150,0.09696027632830505,0.09883426704259266
151,0.09688403233432696,0.09860146433536222
152,0.09694551146017727,0.0985669296655472
153,0.09679606546623178,0.0985011247326708
154,0.09685778709039475,0.09937145965987583
155,0.09682449909388643,0.09876658707947054
156,0.09686497155269139,0.09901988408171092
