epoch,loss,val_loss
0,0.6759685452366643,0.6750917494278097
1,0.6720366530299382,0.6714019127141602
2,0.6714193634772418,0.6709916986121589
3,0.6711202303000059,0.6712725167191557
4,0.670926838043817,0.670962093012549
5,0.6708649588697528,0.6715289694327333
6,0.6707136783234985,0.6707858484009438
7,0.6706373631448177,0.6705331074419107
8,0.6706311835822844,0.670511802449309
9,0.6705297263762662,0.6704122711168843
10,0.670496107415371,0.6707113467598219
11,0.670515866406189,0.6703326048473527
12,0.6704286643368126,0.6703300818443602
13,0.6704095068643623,0.6713305241970366
14,0.6703971493665943,0.6703248731253619
15,0.6704155213132699,0.6705280881430093
16,0.6703360749102535,0.6703328167008317
17,0.6703475135234257,0.6702472812479708
18,0.6703316793012853,0.6702864364828404
19,0.6703002801086733,0.6703949058095633
20,0.6703264951990691,0.670934094106922
21,0.670300097403184,0.6705384870143055
22,0.6703172320258705,0.6703909042384372
23,0.6702589641990548,0.6704188140115985
24,0.6703006579503836,0.6702045801756626
25,0.6702614775145046,0.6703789304585159
26,0.6703031838835112,0.6702586994230586
27,0.6702286348310744,0.6702701946241583
28,0.6702330745526148,0.670204726413865
29,0.6702726033574039,0.670266639979014
30,0.6702557121740217,0.6703248557749866
31,0.6702297953296864,0.6703473637932081
32,0.6702248898114559,0.6707322436636434
33,0.6702294641057837,0.6702484072475787
34,0.6702072690887086,0.6711928647568212
35,0.6702156153714031,0.6705183839682494
36,0.6701781710813736,0.6702772285543739
37,0.6702001209482328,0.6701528811399873
38,0.6701960445879688,0.6703074695629715
39,0.6701732590022819,0.6705591995289766
40,0.6701746414993749,0.6701816340249664
41,0.6701831174070957,0.6702948558400581
42,0.6701809894214543,0.6704223305199929
43,0.670179422517426,0.6702138438941525
44,0.6701541140560083,0.6702053466968846
45,0.6701837622784192,0.6701639996401105
46,0.6701761119652516,0.6705819855223615
47,0.6701522629753877,0.6702094303344344
48,0.6701646017292465,0.6704486853947276
49,0.6701607188313656,0.6703265229255145
50,0.6701560127171696,0.6702234012154487
51,0.67014633765993,0.6703268992100062
52,0.6701343133801565,0.6702300962264791
53,0.6701418426457314,0.670124059038085
54,0.6701448137609959,0.6701715780862536
55,0.670133441114946,0.6703059396820256
56,0.6701640745957023,0.670115129425542
57,0.6701343663509759,0.6702100452457475
58,0.6701057426073324,0.6701754682808428
59,0.6701491709627971,0.6704817120709343
60,0.6701503772233666,0.670160469733213
61,0.670124257010083,0.6701621190316908
62,0.6701800853564773,0.6702300144250911
63,0.6701496733776511,0.6704402754131491
64,0.6701123208749962,0.670364867198348
65,0.6701474646261719,0.6703695995061383
66,0.6701130989308155,0.6704991256668206
67,0.6701378785954997,0.6701948218957496
68,0.6701098511420437,0.6702200902138737
69,0.6700986586923038,0.6701181714158408
70,0.670105696400885,0.6701877740748216
71,0.6700930944387646,0.670150124986001
72,0.670114471297718,0.670747107861817
73,0.6701382573017372,0.6700955529297763
74,0.670105941582653,0.6702686445673667
75,0.6701197041214769,0.6705463345616474
76,0.6700960856053776,0.6703379755931107
77,0.6701314901372766,0.670198817342657
78,0.6701089420299168,0.670291089620669
79,0.6701138874733638,0.6704919603120075
80,0.6701303247094405,0.6701109158589534
81,0.6701059614600707,0.6701416629343653
82,0.6701092833027634,0.6701130444840323
83,0.670111189711933,0.6700900900083742
84,0.6701165539595815,0.6703764034563234
85,0.6701306134610848,0.6701079625704373
86,0.6701145957880373,0.6701218807613999
87,0.670109592620844,0.6702175505562247
88,0.670097807154445,0.6703309072981718
89,0.6700940101310785,0.670580419359916
90,0.6701161397903809,0.670285408939277
91,0.6700985339752038,0.6700978826175933
92,0.6701122046071496,0.6701304149122225
93,0.6701075872576387,0.670290729815721
94,0.6701023163378952,0.6700968328725541
95,0.6701266794985248,0.6701242768832648
96,0.6701234667467632,0.6701349703654498
97,0.6700885930119995,0.6700959797934992
98,0.670090873570497,0.6701086478298082
99,0.6700990976831334,0.670133800696471
100,0.6701009086646068,0.670427216401796
101,0.6700742755525012,0.6702321643997454
102,0.6701114576829814,0.670266801116011
103,0.6700898137182956,0.6702810657512807
