epoch,loss,val_loss
0,0.45576301672770114,0.44765855634384766
1,0.4527845386171019,0.4479045910727927
2,0.450211488311691,0.4481801752918615
3,0.449250623090891,0.4468834286377281
4,0.44881694544863304,0.4472937137740405
5,0.4485845072780804,0.44770759850271885
6,0.4483478095363496,0.44673288940947947
7,0.44785666005808794,0.4472207710755066
8,0.44835730126553786,0.4471001339106403
9,0.44806587952021987,0.4463731219924895
10,0.4483019470055518,0.44634848150380435
11,0.447280209264303,0.44687446715700374
12,0.44799942756869426,0.44706345595536545
13,0.44741268872440115,0.44606521477420236
14,0.44753199251027004,0.44644751938464283
15,0.44697744130431183,0.44583253311613014
16,0.4467395644328586,0.4457268058941329
17,0.4470935586021754,0.44661184304362916
18,0.4471692704709219,0.44690966608506527
19,0.4470260846197325,0.44558576788716
20,0.44670979713998743,0.44545314246006235
21,0.4471879962160292,0.4465279246803047
22,0.44697210297748796,0.4454754869796292
23,0.4466583305570368,0.44543420022558516
24,0.4467308799477296,0.4463685960315874
25,0.44658132708801435,0.4455321086613511
26,0.4466712208862606,0.44549487749839634
27,0.44630828668617367,0.4489300210707449
28,0.4466116673738042,0.4462025158600673
29,0.4466721256869927,0.4458078093730932
30,0.4464152689846665,0.45045633861351075
31,0.4465072699753373,0.4457904531574446
32,0.4463261176002182,0.44536687420467846
33,0.4464427553104408,0.4453251222537513
34,0.44649442947671186,0.44683284008287144
35,0.4464895260062115,0.44551119891276186
36,0.4464606143184596,0.44815236713150974
37,0.44642440596550803,0.44529756518873276
38,0.44635581127439,0.4453520841881152
39,0.44643567995233696,0.445333446181538
40,0.44607759747003856,0.44558207477030726
41,0.44642156984109593,0.4455224790586561
42,0.44596042409675785,0.4477174443319826
43,0.44649264377200615,0.44554837575285555
44,0.44609013963524374,0.4452774269094879
45,0.4458045887048795,0.4452080370931374
46,0.4464463051354669,0.4453752927928193
47,0.44603034882608195,0.4453358253032532
48,0.4471814508090706,0.4460099635851919
49,0.4467224422965145,0.44543601920609627
50,0.4462160547316949,0.44579990417811155
51,0.4464217896317199,0.4455310111649172
52,0.4463610937228701,0.4452669567861727
53,0.446225166852059,0.44534931206809203
54,0.4465071494558475,0.44528127553132824
55,0.4462784115756951,0.4452653551278691
56,0.4462702929639545,0.44533147116123506
57,0.44589508449536625,0.4822657399183609
58,0.44650791791845323,0.45017763598392707
59,0.4460784735031594,0.4482430261298742
60,0.44613899241350286,0.44531521936607904
61,0.44614600475835103,0.4452351740528444
62,0.4459192068315703,0.44529335288106403
63,0.44603559202574333,0.44520768886457196
64,0.44634410202244085,0.4453418537564972
65,0.4459380383019876,0.4452472568310801
66,0.44581124446228887,0.44554980239528164
67,0.4464396175435838,0.44523243268406615
68,0.446336617929391,0.44558071895394985
69,0.4461258658707961,0.4452806398099768
70,0.44597133843618764,0.44561666727293214
71,0.4457307976062329,0.44726333544380004
72,0.44584995135701916,0.44523857270315825
73,0.44573266832309505,0.44533084454338795
74,0.4463687078150357,0.4455178683289123
75,0.44645757849007095,0.4452357346294645
76,0.4462163543776818,0.44522594215994094
77,0.44619958305435087,0.4451976778233867
78,0.4460546656838331,0.4451755714549968
79,0.44631332122856066,0.44521487195311565
80,0.4461621164185449,0.4451992387963379
81,0.44628246759827545,0.44679364615041756
82,0.44605793305185526,0.44552972319297646
83,0.44616956665778773,0.44526334012739804
84,0.44639113337607883,0.4470851734169366
85,0.44627092884786446,0.4455515456820587
86,0.44623367503558825,0.4452455678174699
87,0.44600592639190734,0.44582148622771717
88,0.4461884943216307,0.445275307634018
89,0.44607404618967267,0.4452506634442981
90,0.4462066869158173,0.44521523609092467
91,0.446071978627847,0.4451955454736091
92,0.4461659695444723,0.4452978781462473
93,0.44571804756742817,0.4452674691428528
94,0.4457259706217275,0.4455812965567498
95,0.44563045868983114,0.44514673747381406
96,0.4459089579375911,0.4454569601034842
97,0.4456269431654684,0.4452154779928306
98,0.4460866299673419,0.4460793147867817
99,0.44679288186057825,0.44540425719761634
100,0.44623357407207925,0.4488791262221295
101,0.44627193823625666,0.44522223394078375
102,0.4464179976462349,0.4451880862722515
103,0.44637525832534647,0.44538562914644403
104,0.44626917507406355,0.445343789153957
105,0.4461338776045899,0.4451804447428696
106,0.44623695028788424,0.4469054880545634
107,0.4460316113546634,0.44546738977335326
108,0.4467169019340151,0.44539990341055674
109,0.4463409959802168,0.4453373162263118
110,0.4464982637122102,0.4452992476048461
111,0.44617298676924444,0.44520594328239604
112,0.37253763408550045,0.3350339687843635
113,0.3360357851061569,0.3347132249244418
114,0.33542251439112275,0.33444482803922126
115,0.3353875303995787,0.33429364876622564
116,0.3352100654199181,0.334227321553802
117,0.3353821284452195,0.33425460539063667
118,0.3352128795052005,0.3344373915149841
119,0.33531589899937453,0.3342319084137645
120,0.3351914287561999,0.3342537587552633
121,0.33540703874952676,0.3350626982231452
122,0.3348106087866037,0.33430116316837527
123,0.33568073562399736,0.33549192491478064
124,0.3359407521409871,0.33486160870220844
125,0.33563094150020084,0.3348598555570484
126,0.3350704469676732,0.33438896530390505
127,0.3347773920463326,0.3342559067255848
128,0.3347616799808408,0.334363236819844
129,0.3348115387686585,0.34736484295795206
130,0.33519189897274515,0.33428715613601284
131,0.3351657940316557,0.3342892170539257
132,0.3347698107685301,0.33421953980631536
133,0.3347106930487053,0.33418458729050016
134,0.33467142098025404,0.3341688018612243
135,0.33470664602990613,0.3346630041894978
136,0.33477487444058845,0.3343496233513568
137,0.334730242044835,0.33430818445259985
138,0.3348304123226518,0.3342194418827087
139,0.3346435006616973,0.33894382275455204
140,0.334814961867703,0.33429074906462314
141,0.3347510855458069,0.3341469695279574
142,0.3349130935934677,0.33450214474404144
143,0.33471857380014153,0.33419393432723427
144,0.3346562602613746,0.33444967047409424
145,0.33489444492930925,0.33424693008812906
146,0.33466270719941077,0.3342242961826638
147,0.3352898759513209,0.3342692757104339
148,0.3346052272736502,0.33421110357909956
149,0.33455632693437337,0.34357962364409866
150,0.3348366478986113,0.3341569168185817
151,0.3349020919393682,0.3347694994448404
152,0.33491725685644946,0.33429659902102915
153,0.33492227165728994,0.3344352646363014
154,0.3350239351186802,0.33424778645410036
155,0.33497248312462374,0.33413563229762433
156,0.33470795944292553,0.3341582159527866
157,0.334599476259982,0.33425399503935815
158,0.33530210676708294,0.33452110687039743
159,0.33504775219242955,0.3343583506114789
160,0.3349379536406319,0.334251961278143
161,0.3348299911368597,0.3341722083182605
162,0.33468724379809134,0.3341306854481354
163,0.3348090709483538,0.33447289032151967
164,0.3347796238142672,0.3341676346059638
165,0.33458954035674576,0.33433672144940413
166,0.3347348310649141,0.3341769356306004
167,0.33467180217595077,0.3341685786751011
168,0.3348104236920301,0.33420213095504214
169,0.33470323194824964,0.3341213821257336
170,0.3346801429246071,0.334420655163504
171,0.3347027937619982,0.3352804021933201
172,0.3345726443080324,0.3341103768597638
173,0.33455465084791297,0.3342783119951295
174,0.3349604851249742,0.3344224560576923
175,0.33469626656847923,0.3341983212011663
176,0.3345616521812815,0.33411193971162906
177,0.33464785776430667,0.33417962644854404
178,0.3346591306777732,0.3342143393862488
179,0.33481241338548523,0.334242541765966
180,0.33481780441138626,0.33422991658025686
181,0.334727875759132,0.33410521895190315
182,0.33484941480594815,0.3342315267764975
183,0.3347812789635544,0.334104693506717
184,0.3372274592000268,0.33501910070530927
185,0.3350046397620515,0.33458060960656444
186,0.3346968625938265,0.33435724935248406
187,0.3346220406135091,0.3341787895082727
188,0.3346588139901121,0.33410507565749076
189,0.3345661945007288,0.33414432986664433
190,0.334576203395764,0.3341602314454668
191,0.33459521522242075,0.33415480483159465
192,0.33471005690705424,0.33411077110989235
193,0.33464835357629574,0.3341510781569577
194,0.3345745756756881,0.33494451333459113
195,0.3346342400187785,0.3341291577655663
196,0.33477529777211945,0.33417868909285675
197,0.33466615755373574,0.33418992734180664
198,0.334651877795032,0.3344584193322627
199,0.33463552883103354,0.33411600288699994
200,0.3345308971062926,0.3341741184568678
201,0.33461575811487004,0.3341611341974253
202,0.3347998096830702,0.334182632931153
203,0.33468075305117173,0.33413413580881524
