epoch,loss,val_loss
0,0.6752990310965465,0.6739453551398964
1,0.6723131742750784,0.672107654207942
2,0.6719288598975479,0.6715961384152314
3,0.6716270566880346,0.6717373133462934
4,0.671460389010678,0.6713033536085538
5,0.6711454585686505,0.6716826226392473
6,0.6709805133261859,0.6707459308664931
7,0.6708942923656617,0.6715805682470368
8,0.6708451348556143,0.6718940501395191
9,0.6708089626725897,0.6712171487700699
10,0.6707651000764615,0.6706746258403605
11,0.6706914711624213,0.6707659345809402
12,0.6706946034047059,0.6705784145775193
13,0.6706944351078694,0.6705951685988375
14,0.6706503881761924,0.6707002512752129
15,0.6706392228127321,0.670548870229562
16,0.6705965889154367,0.6710003698669162
17,0.670582345841945,0.6706169585216532
18,0.6705619507832289,0.6713108469829572
19,0.6705514958740678,0.6708233554968668
20,0.6705492185027251,0.6706295049349543
21,0.6705058839760547,0.6705159876807372
22,0.6705135581244542,0.6705599338436232
23,0.6705180111408591,0.6705601416884367
24,0.6705222747658882,0.670832280954028
25,0.6705070526502057,0.670924123150026
26,0.6704916320589086,0.6704625594667051
27,0.670500941635755,0.6705882163658887
28,0.6704619652282626,0.6704168544509249
29,0.6704777489430124,0.670491726332777
30,0.6704851846097287,0.6705876584987859
31,0.6704776631706479,0.6703908687378464
32,0.6704716165039089,0.6704486544044771
33,0.6704651778222639,0.6704036922980741
34,0.6704593854199541,0.670457658170234
35,0.6704414111194423,0.670620316391959
36,0.6704427946715581,0.6708068100634086
37,0.6704432141292821,0.6703848086530602
38,0.6704430171953812,0.6705340348776889
39,0.670414039960347,0.6708529913957411
40,0.670453374943848,0.6713636363046745
41,0.6704269649660984,0.6706590781150138
42,0.6704471603431216,0.6703657444098534
43,0.6704124411622905,0.6704512193872377
44,0.6704529475298721,0.6703985497102257
45,0.6704057983524753,0.6704528564751404
46,0.6703944400858927,0.6704823979739634
47,0.6703954843209964,0.6707893557798035
48,0.6704142639201843,0.6703483053042772
49,0.6703931210562082,0.6705841851012941
50,0.6703894473289146,0.6704446991909415
51,0.670426449009485,0.6708181329628806
52,0.6703786128079713,0.6704072247417423
53,0.6704195565666918,0.6710556457160824
54,0.6703901496045196,0.6704490151086534
55,0.670386218162182,0.6703113218763811
56,0.6703850846007661,0.6704951561366223
57,0.6704010315111693,0.670564771053506
58,0.6703988295418103,0.6705170776780794
59,0.670370592597119,0.6703915535002752
60,0.6703655192797862,0.670420113415572
61,0.6703834880413297,0.6703090506952036
62,0.6703737083987965,0.6704451755926839
63,0.6703736944440991,0.6703547822760839
64,0.6703885167097049,0.6705143093703114
65,0.670373571275812,0.670474098976101
66,0.6703717923670305,0.6703552470209865
