epoch,loss,val_loss
0,0.6730344002580062,0.6685593191055679
1,0.5670435200738413,0.5590575237500964
2,0.5599836613299,0.5576132376297743
3,0.5596255555852371,0.5571094335393905
4,0.5593159541519147,0.5572736283105499
5,0.558778693132242,0.557554363593878
6,0.559090393650287,0.5578339339741378
7,0.5593796696938637,0.5581232180183835
8,0.5581626638052195,0.5571728465584359
9,0.5581289169077287,0.5568793524593252
10,0.5578864109712792,0.5566736783880231
11,0.5577359191162624,0.5564969879579067
12,0.5577404978696883,0.5606630240827776
13,0.5576427120277127,0.5566531824454137
14,0.5575044647495042,0.5565178567868708
15,0.5573303354230801,0.556386056704731
16,0.5574416266181217,0.5563352112545179
17,0.5573602796722568,0.5563625355116693
18,0.5573075015228723,0.5564181025499235
19,0.5572427093903422,0.5602095670902257
20,0.5571766898837722,0.5562809230184411
21,0.5572095251607454,0.5563259144728195
22,0.5569002816333444,0.5563386125859522
23,0.5571353485806433,0.55628463850715
24,0.5570185962071946,0.5562773504786517
25,0.5570604140217065,0.5563152882955141
26,0.557061138553756,0.5567903512713454
27,0.5571262991112775,0.5562153518748923
28,0.5570843819065224,0.5580130110226946
29,0.5569392890987348,0.5573631907448383
30,0.5569793737557737,0.5562667945500156
31,0.5567614418157022,0.556223248756744
32,0.5569338328361423,0.5562501096083698
33,0.5569187923894632,0.5563085580347302
34,0.5567977017182492,0.5564802994193473
35,0.5568362977559205,0.5561677767905959
36,0.5567469137062182,0.5574871628496861
37,0.5566939010467689,0.556207859470709
38,0.5566955190892294,0.5563446131796804
39,0.5565999751998063,0.5562541680675245
40,0.5566166725579564,0.5562334158022252
41,0.5566125189779144,0.5562444732589382
42,0.5566338865932907,0.5561729208503391
43,0.556616224249797,0.5562277157069654
44,0.5565872295230769,0.5562146002761292
45,0.5565609667211996,0.5563823300655899
46,0.5566084811959875,0.5561548439409878
47,0.5566296251516656,0.5561947906483009
48,0.5565902235262221,0.5561397974502856
49,0.5565700300857082,0.5564312117855492
50,0.5567148809781571,0.5561794824158746
51,0.5565852253734437,0.5561369138992985
52,0.5565000034993595,0.5561205709342145
53,0.5565453836090692,0.5562035377458748
54,0.5565090860731702,0.5561513522844268
55,0.5565304883520588,0.5561373125272496
56,0.5564641032570297,0.5560811956818187
57,0.5566556259667415,0.5568699496727965
58,0.5567423370691483,0.5561013760993797
59,0.5569164030054665,0.5560742403441655
60,0.5567812383909665,0.5561375148205108
61,0.5563994159030498,0.5561915956187934
62,0.5564563924884943,0.5561154558390914
63,0.556412189394123,0.5560986282182948
64,0.5564353606965257,0.5560872341756576
65,0.5564470478927803,0.55611568549256
66,0.5564286829301582,0.5561890708362751
67,0.5563941969172453,0.556108270128587
68,0.5564273464561161,0.5566432680263205
69,0.5564450774604912,0.5564058873224432
70,0.556401543263171,0.5561130127396416
71,0.556419012450337,0.5568086859942126
72,0.5563809597537258,0.5560450770750072
73,0.5564000525459845,0.556082445907464
74,0.5564141772447393,0.5560759183895556
75,0.5564345122618142,0.5562736907894316
76,0.5563610943578479,0.5560289435260197
77,0.5564050171178816,0.5560586133258048
78,0.5563410375607265,0.5560689823711148
79,0.5564032652949853,0.5560665415954605
80,0.5563803995390063,0.5560914706773032
81,0.5563671742418307,0.5560385920953349
82,0.5564146180391648,0.5561012227620059
83,0.5573642148728417,0.5561990410217278
84,0.5563892166481872,0.5603292185351151
85,0.5564499132340264,0.5560849591419964
86,0.5563467147356196,0.556092443240149
87,0.5565531938459393,0.5563199672553962
88,0.5563894588691867,0.5560524019766028
89,0.5563954605418672,0.5560348465014057
90,0.556402263235156,0.5574799970783884
91,0.5563862320053616,0.5561105817182491
92,0.5563756900290174,0.5560551664318871
93,0.5564332440483363,0.5560526233051095
94,0.5563485336607242,0.5560223522764814
95,0.5563816463266481,0.5560316374344695
96,0.5563481043796537,0.5560500074922802
97,0.5563920306581389,0.5560441224020739
98,0.5563803859759492,0.5560585357839197
99,0.5563421825723932,0.5568335397112496
100,0.5563692641271492,0.5560429054052844
101,0.5563603440595788,0.5560632155767713
102,0.5563943908671081,0.5560711894799021
103,0.5564284056788535,0.5560733584140773
104,0.5563816946841587,0.5560679051901436
105,0.55632331071886,0.556035186409742
106,0.5563624750675153,0.5560390302514735
107,0.556412805729743,0.5560313140388062
108,0.5563571574644937,0.55605824683817
109,0.5563471851870306,0.5562099506926192
110,0.5563977490033725,0.5561559311838515
111,0.5563365207243187,0.556535329291683
112,0.5563907441527356,0.5560298518176985
113,0.556367536912511,0.5560229317865921
114,0.5563800768645347,0.5560849001857426
