epoch,loss,val_loss
0,0.3712220067580541,0.3600881742238998
1,0.3601929091612498,0.36004904490709305
2,0.36017942243814466,0.3602002532482147
3,0.3601330361763636,0.3600017567873001
4,0.3601251729329427,0.3600104841589928
5,0.36023394189278285,0.36000082606077194
6,0.3600396285057068,0.36025865268707274
7,0.3602509055932363,0.36034340000152587
8,0.36001147802670797,0.360025609254837
9,0.3600657334923744,0.36004504990577696
10,0.3600712929368019,0.360000456571579
11,0.36006319934129716,0.3600003215074539
12,0.36009479401508965,0.36000007718801497
13,0.3600381787816683,0.3600124379396439
14,0.36006120512882867,0.36000180143117905
15,0.360046964764595,0.36000170511007307
16,0.3600581141710281,0.3600045743584633
17,0.3600456252296766,0.3600003782510757
18,0.3600445900360743,0.3600002093911171
19,0.3600472331643105,0.3600131958127022
20,0.3600513857404391,0.3600536958575249
21,0.36003713915745417,0.3600002374649048
22,0.36004283773899076,0.36012155562639236
23,0.3591753391822179,0.3204246266484261
24,0.3200048217376073,0.3200000773072243
25,0.3200215184092522,0.3200005633831024
26,0.32003615591923396,0.320000654399395
27,0.32003709324200946,0.32000022047758103
28,0.32003639231125514,0.3200465152263641
29,0.32002889386812844,0.320000557243824
30,0.3200321997602781,0.3200050728917122
31,0.3200329827666283,0.3200031769871712
32,0.32003107472260794,0.3201407853364944
33,0.3200324049592018,0.3200422440767288
34,0.32003205102682114,0.32000213938951494
35,0.32002995065848033,0.32000066274404526
36,0.3200330861409505,0.3200193081498146
37,0.3200265582402547,0.32000040137767793
38,0.32003233234087625,0.3200001188516617
39,0.3200280909339587,0.32000981068611145
40,0.32002569556236266,0.3200198157429695
41,0.3200302972793579,0.32006968891620635
42,0.32002433051665624,0.3200002102255821
43,0.3200259740749995,0.3200010944008827
44,0.32002855430046717,0.32001950359344483
