epoch,loss,val_loss
0,0.34389908492616034,0.3374171751736648
1,0.33746997419567076,0.3370408534232219
2,0.3371322290177761,0.3370865043172841
3,0.3373053517639434,0.33653156078579277
4,0.3388036315964044,0.4339353695514184
5,0.4983275871599728,0.561963780694525
6,0.5578519304535559,0.5574911783115247
7,0.5577049320896881,0.5574702265169084
8,0.5579730133049806,0.5574324936767939
9,0.5575495234562913,0.5573796655699358
10,0.5575172499219473,0.5573466077094346
11,0.5575087392718339,0.5572779820147858
12,0.5574255427058152,0.5575148888584242
13,0.5574415732233212,0.5572309161824651
14,0.5573789985163321,0.5571679909711643
15,0.5591922811931873,0.5572930246056764
16,0.5573109904369975,0.5572688392614474
17,0.5573028223592822,0.5579982534351473
18,0.5583179010216733,0.5573617074297254
19,0.557259950257173,0.5571921653874019
20,0.5572857552355716,0.557239248049492
21,0.5573284922391568,0.5570634817564054
22,0.5573265124126295,0.5570461679985358
23,0.5571923271972532,0.5570189792077769
