epoch,loss,val_loss
0,0.5681673381065075,0.5623751940169902
1,0.5626255768646337,0.561949795151355
2,0.5620426104068551,0.5628166108996939
3,0.5615967146020091,0.5632952001523798
4,0.5613340998386598,0.561396910152455
5,0.5081860754321836,0.34291019418352425
6,0.34168682179824594,0.3414727038233095
7,0.3414258421389486,0.341108769999528
8,0.3413685207107364,0.341198817574639
9,0.3411726354257066,0.34364975897758865
10,0.34111804125677,0.3410588008426609
11,0.3410139790414006,0.34233690476926787
12,0.34099964159523544,0.3407291103014212
13,0.3408463532505467,0.3410798987145649
14,0.3408863939922138,0.34071027958073163
15,0.3408334904536701,0.3422337224275437
16,0.3407534213052281,0.3408610712626216
17,0.34076233488076024,0.3408068959507011
18,0.34069578063777733,0.3406514091772448
19,0.34073833300311096,0.3422587262423659
20,0.3406294980416605,0.3409104804723286
21,0.34062957784259607,0.3408157780887173
22,0.34059036713919866,0.3406226282765681
23,0.34056810757149264,0.3430518806737927
24,0.3406705490537977,0.34077115492989607
25,0.3406024273806555,0.34056840182221537
26,0.3406264260328931,0.34059600971493625
27,0.340561842652688,0.34045452057217274
28,0.34051403842270234,0.3407087219988181
29,0.340522554096696,0.3405019116151782
30,0.3405438350799136,0.34115786561752776
31,0.3405567490057568,0.3405922764049403
32,0.3405331366957549,0.340545873391509
33,0.34047573151056754,0.34081052798391503
34,0.3405259612639108,0.3406160529055102
35,0.3404822739806189,0.3408680394947368
36,0.34045395417779234,0.34058501390506296
37,0.3405077863436233,0.34073521881675617
38,0.34043664028465237,0.34050987955973755
39,0.3404534878427448,0.34049323796563363
40,0.3404685087456696,0.3405766666210018
41,0.3404614135862675,0.34056158832364447
42,0.3408891415440141,0.34306794688950387
43,0.34047218660924394,0.34048379057027695
44,0.34042898411778466,0.34046941089056515
45,0.3404213494540556,0.3404989438822142
46,0.34042287031156626,0.3405625910839997
47,0.34044451918220653,0.3416268433467422
