epoch,loss,val_loss
0,0.5617822341249347,0.5557897249743998
1,0.555899436434075,0.5559252949722309
2,0.5559060899266365,0.5557098071954166
3,0.5560947035323636,0.5559441879928841
4,0.5558213960632444,0.5557459715350915
5,0.5558702209575478,0.5556935866011198
6,0.5557953783847637,0.5556917805765968
7,0.5558343395853355,0.5557420566353851
8,0.5558019241671921,0.5556806037922748
9,0.5557734436285914,0.5557055229968034
10,0.5557905592691506,0.5558308504139675
11,0.5557691631792029,0.555707056256955
12,0.5557729933776123,0.5557423985930157
13,0.5557611300548719,0.556392170426125
14,0.5557705596183724,0.5556824152736942
15,0.5557581666572469,0.5557060835994537
16,0.5557543733436163,0.555746997067223
17,0.5557473269274491,0.5557006794071319
18,0.5557448938745814,0.5557291047316005
19,0.5557468725056791,0.5557377152127161
20,0.5557379850168173,0.5556947047963717
21,0.5557458271453493,0.5557034833054136
22,0.5557430301904812,0.5557272115055863
23,0.5557426748434338,0.5556826202173129
24,0.5557330756650087,0.5557782698410246
25,0.5557364484935005,0.55567742467911
26,0.5557476554828344,0.5558837215370729
27,0.5557183921776885,0.5556931209238594
28,0.5557385051777456,0.55568103397841
29,0.5557234858796386,0.555957128457537
30,0.5557294370476895,0.5556896352258697
31,0.5557242629407785,0.5561339658641694
32,0.5557191162924617,0.5557794139387874
33,0.5557271990198217,0.5556827119717395
34,0.5557204286354711,0.5558816813582066
35,0.5557128486144275,0.5558818355190843
36,0.5557222243788663,0.5556847246342166
37,0.5557113214269775,0.5557154891073316
38,0.5557182735292372,0.5556730421617029
39,0.5557156668279055,0.5558723152696623
40,0.5557097390927976,0.555761148134678
41,0.5557130054767891,0.5558424669446426
42,0.5557124363407182,0.5557032927731134
43,0.5557111818141394,0.5557799926774548
44,0.5557116796326437,0.5558059932893281
45,0.5557120097451244,0.5557283673264478
46,0.5557083322390745,0.5556907538518047
47,0.5557105800465102,0.5558313708873671
48,0.5557099753839776,0.5556854184315245
49,0.5557100176854602,0.5556774265438257
50,0.5557055418888462,0.555672851383298
51,0.5557045608446758,0.5557003629402602
52,0.5557075421078789,0.5556761927030683
53,0.555708799556575,0.5556734490388913
54,0.5557081503070056,0.5556899252364952
55,0.5557068195289032,0.5557275197847469
56,0.5557129331124823,0.5557118768689745
57,0.5557003447086861,0.5556864582235252
58,0.5557013005979586,0.555901499348859
59,0.5557057062101203,0.5556990412590862
60,0.5556988348788255,0.5556931384966755
61,0.5557026124254859,0.5556774384278389
62,0.5557008891461812,0.5556710066114965
63,0.5557024977151289,0.5558683292599202
64,0.5557062296615364,0.5556839356654141
65,0.5556969768969755,0.5557013145984119
66,0.5557018116229815,0.555690527681663
67,0.5556952218277643,0.555678159959244
68,0.5557023193760534,0.5556785270810715
69,0.5556989288314618,0.5556813405064415
70,0.5556968610172195,0.5560952500680221
71,0.5557018252396771,0.5556868074743714
72,0.5556956950470819,0.5557194023032368
73,0.5557022153638245,0.5556870340042045
74,0.5556980093584196,0.5556745954983118
75,0.55569738553904,0.5556741709631171
76,0.5556972473492008,0.5557383125654114
77,0.5556970529938938,0.5557589904976512
78,0.5556959259385172,0.555734077119176
79,0.555698339255163,0.5557035239836668
80,0.5556974125129154,0.5556736088838391
81,0.5556947270583744,0.555675391627812
82,0.5556982142682927,0.5556911621677586
