epoch,loss,val_loss
0,0.48916873625914253,0.4800083549618721
1,0.48002616039911905,0.48001094269752503
2,0.48014768252770107,0.4801274346709251
3,0.4801149352391561,0.4800317994356155
4,0.4808725856343905,0.48000025463104246
5,0.48007055356105166,0.4800950469374657
6,0.4800431947906812,0.48008608239889144
7,0.48035340758164724,0.4800003041028976
8,0.48001255734761555,0.4800231431722641
9,0.48005645656585694,0.48021322876214984
10,0.4800612043341001,0.4802881723046303
11,0.48005232467254005,0.48000083619356154
12,0.48004481224219003,0.4800066523551941
13,0.4800546931227048,0.48000855481624605
14,0.4800345827539762,0.48002128487825396
15,0.48004454052448275,0.48004194676876066
16,0.480047482808431,0.4802054171562195
17,0.48004020114739737,0.48000069689750674
18,0.4800622602303823,0.48000071513652803
19,0.48002493832508725,0.4800189797282219
20,0.48003524827957156,0.4800033522248268
21,0.4800435645977656,0.4800043246150017
22,0.48003379223744075,0.48015771484375
23,0.4582543324828148,0.4400095819234848
24,0.44003374471267065,0.44000246065855025
25,0.4400395708282789,0.4400010742545128
26,0.44002962100505827,0.4400005584359169
27,0.4400322043299675,0.4400006965994835
28,0.4400347260435422,0.4400019710659981
29,0.4400310439070066,0.44000142204761505
30,0.4400309082865715,0.4401493809223175
31,0.44003342497348785,0.44000091081857684
32,0.44003803366422656,0.44000052082538604
33,0.4400249087413152,0.4400033425092697
34,0.44003845701615013,0.4400025724172592
35,0.4400357025663058,0.440021728515625
36,0.44001910916964215,0.44000084924697874
37,0.4400293861627579,0.4400025061964989
38,0.4400331391096115,0.44000049644708633
39,0.4400289901693662,0.4400942612886429
40,0.44002522430817287,0.4400155979990959
41,0.44002748441696166,0.440001914024353
42,0.440027511994044,0.44000054281949996
43,0.4400272901256879,0.44013421911001205
44,0.44003021411101023,0.44000064182281495
45,0.44002497259775797,0.4400769603252411
46,0.44002767570813495,0.4400005733370781
47,0.4400246360699336,0.4400005362033844
48,0.4400235640009244,0.4400584107637405
49,0.4400229194760323,0.44001368594169615
50,0.4400433785120646,0.44000095868110656
51,0.4400171923836072,0.4400226301550865
52,0.4400191759665807,0.44000476467609406
53,0.4400255636572838,0.44000055295228957
54,0.44003791389862695,0.4400011776685715
55,0.4400142608086268,0.4400032892823219
56,0.4400205022493998,0.4400005121231079
57,0.4400206540028254,0.4400033876299858
58,0.4400273607770602,0.44017877823114393
