epoch,loss,val_loss
0,0.5623381837209066,0.560686736702919
1,0.5602693556547165,0.5600847421884537
2,0.5601705782810847,0.5600235341787339
3,0.5601363591353099,0.5600151842832566
4,0.56010240594546,0.5600360053777694
5,0.5600975703398386,0.5600785655975342
6,0.5602315748135249,0.5600565540790557
7,0.5600164414644241,0.5600400208234787
8,0.5601370896895727,0.5628250937461853
9,0.5600261094967525,0.560000631928444
10,0.5600539162158966,0.5600053293704986
11,0.5600583769877752,0.5608938534259796
12,0.5600422276258469,0.5600399606227875
13,0.5600426956812541,0.5600160341262818
14,0.5600439411401749,0.5600048539638519
15,0.5600345185597737,0.5604019573926926
16,0.560045332034429,0.5600084561109543
17,0.5600271256367365,0.5603163958787918
18,0.5600325447320939,0.5600017033815384
19,0.560039087454478,0.5600023391246796
20,0.5600274394750595,0.5600031996965409
21,0.5600290149847666,0.5600101629495621
22,0.5600305922826131,0.5600293530225754
23,0.5600288337866465,0.5600037099123001
24,0.5600265745719274,0.5600001999139785
25,0.5600247706572214,0.5601174004077911
26,0.5600243230263392,0.5600859249830246
27,0.5600251258611679,0.5600049886703491
28,0.5600261624654134,0.560007964849472
29,0.5600185835758845,0.5600066479444504
30,0.5600236541032791,0.5600022772550582
31,0.560020921587944,0.5600003694295883
32,0.5600220088561376,0.560012981057167
33,0.5600214415391286,0.5600818259716034
34,0.5600214037895203,0.5600013964176178
35,0.5600201896429062,0.5600006422996521
36,0.5600192569494248,0.5600448237657547
37,0.5600199364026388,0.5600062416791916
38,0.5600238072872162,0.560120525598526
39,0.5600180158217748,0.5600086988210679
40,0.560018430908521,0.560001315355301
41,0.5600168483654658,0.5600214437246323
42,0.5600206996202469,0.5600001888275147
43,0.5600150172710419,0.5600044153928757
44,0.5600180428425471,0.560032667517662
45,0.560016665816307,0.5600219854116439
46,0.5600164870421092,0.5600111624002456
47,0.5600134344100952,0.5600001893043518
48,0.5600145902236303,0.5600001904964447
49,0.5600129470427831,0.5600025475025177
50,0.5600157246589661,0.5600023597478867
51,0.5600125338236491,0.5600267444849014
52,0.5600126561721166,0.5600002073049545
53,0.560020816842715,0.5600007072687149
54,0.56000761226813,0.5601899968385696
55,0.5600130756298701,0.5600055516958237
56,0.5600135109821955,0.5600056686401367
57,0.560012992978096,0.5600044896602631
58,0.5600133003791173,0.560009235739708
59,0.5600126607815424,0.5600083674192429
60,0.5600121369759242,0.5600326284170151
61,0.5600133316119512,0.5600050760507583
62,0.5600119153658549,0.5600048968791962
