epoch,loss,val_loss
0,0.4586309243671692,0.4540396925947563
1,0.4536921023721837,0.45231120602392066
2,0.45261689856865067,0.4522422341783974
3,0.4521292800640318,0.4523169400342896
4,0.45184997535293325,0.4513524610224424
5,0.4517103465086155,0.45253544855121586
6,0.4515630110316488,0.45205052236261606
7,0.4514696985269996,0.4510588540394041
8,0.4514033796053645,0.4510677902305128
9,0.4512731611876174,0.4509878929184413
10,0.451278154017954,0.45127913557443805
11,0.45115526422608876,0.45139709679412526
12,0.45114467867907937,0.4511514227125632
13,0.4511278293380971,0.4518861657682063
14,0.4510997992786363,0.45096930142327
15,0.45102153213884705,0.45343484369482107
16,0.4510563066052372,0.4510331258629738
17,0.45099188752047287,0.45091257529143625
18,0.4509807043237755,0.45123687294223525
19,0.4509564745302494,0.45131740755167427
20,0.4509539142749636,0.4518134182732276
21,0.4509383415020563,0.45079830275398597
22,0.45095934467628607,0.45081690063604535
23,0.45091301523047406,0.45088059039973105
24,0.45091529325829727,0.4509035438483758
25,0.4508704820777951,0.4509577334816917
26,0.45086265091834465,0.45072314066273156
27,0.45085606165635767,0.4522655119739943
28,0.45082247069458337,0.45330995628904575
29,0.4508449579904312,0.4508247453437185
30,0.4508101249623898,0.4523014218107337
31,0.4508101202425927,0.45088418986667844
32,0.4507440407249476,0.45085393727459905
33,0.45076701954525095,0.4513554355753439
34,0.4508063217001905,0.45073596551264206
35,0.4507430501569783,0.4507347059231893
36,0.45071141304983164,0.45193051466946377
37,0.450744022068004,0.45077434571911573
38,0.4507551666414027,0.4506022886319711
39,0.45072150662454324,0.4506345864575269
40,0.45072758200446633,0.4513572329436103
41,0.4507256027652022,0.45132421042988446
42,0.4507078486347282,0.4506366369869854
43,0.4507170197933772,0.45066848069036575
44,0.45072736996500584,0.45064504795534865
45,0.4506674877358541,0.4508317111171539
46,0.4506987906388065,0.4506122891024898
47,0.45071889915472113,0.4506273314567413
48,0.4506753767612323,0.45061153365834206
49,0.450688106001693,0.45070846598877573
50,0.4507155061131765,0.4506203235686535
51,0.4506590972607212,0.4507074326688531
52,0.4506855330717385,0.4509454006588003
53,0.4506713782669725,0.45074371869779495
54,0.4506834021947431,0.45054953870828973
55,0.45065367394441885,0.45078758436080785
56,0.4506444760292095,0.4508019188755899
57,0.4506704937526519,0.450629252274869
58,0.4506670503129658,0.45127294773059323
59,0.45064133612174084,0.45125647536654195
60,0.4506496473922725,0.45114696951580363
61,0.4506379134549599,0.4509168926029522
62,0.450655648289955,0.45079803796435075
63,0.45068622649560386,0.4506701913209535
64,0.450636669709136,0.45048634976039753
65,0.45064194541099206,0.450941898415008
66,0.4505976390505985,0.45099699459124015
67,0.4506402502915266,0.45099339862655075
68,0.4506547334773527,0.4506626011564445
69,0.45066642439162585,0.4511350174569811
70,0.4506132003825235,0.4506493193186596
71,0.45061445828162566,0.4514126027881749
72,0.4506351218761724,0.4515261539716995
73,0.4506283869679975,0.45071697017162854
74,0.450599693026689,0.4507310478028862
75,0.45061752419748863,0.4507107829548772
76,0.4505949167201526,0.4508952711434786
77,0.45061319649037695,0.45074640094703844
78,0.4505911684656569,0.45062082170096013
79,0.4506447312656402,0.4511357026926881
80,0.4506298709006975,0.45076475057816606
81,0.45055113915491485,0.45059354541054486
82,0.45066733215943694,0.4508932922848902
83,0.4506222073532061,0.4505281479316646
84,0.4506094663150273,0.4508427755736502
