epoch,loss,val_loss
0,0.7874176916467187,0.7796135788373159
1,0.7847946933520059,0.7796427038561375
2,0.8825312384488552,0.8892307600625569
3,0.9682389241293743,1.0
4,1.0,1.0
5,1.0,1.0
6,1.0,1.0
7,1.0,1.0
8,1.0,1.0
9,1.0,1.0
10,1.0,1.0
11,1.0,1.0
12,1.0,1.0
13,1.0,1.0
14,1.0,1.0
15,1.0,1.0
16,1.0,1.0
17,1.0,1.0
18,1.0,1.0
19,1.0,1.0
20,1.0,1.0
