epoch,loss,val_loss
0,0.3449449345699312,0.3374021895252297
1,0.33733561238190796,0.33666502345842614
2,0.740294527401944,0.8902473577160825
3,0.8895492688461994,0.8894284243846443
4,0.8905933754931775,0.8971864574813494
5,0.8903350306530475,0.8895262123119723
6,0.8895264220695868,0.8894769033260036
7,0.8894363103697004,0.8894606752586456
8,0.8894008957300917,0.8893562623512485
9,0.8893812087237726,0.8893241213724237
10,0.8893620605879778,0.8895833310918883
11,0.8893585299280812,0.8893621375736063
12,0.8893437016005314,0.8892990771893454
13,0.8893296156291972,0.8893003471648862
14,0.8893304114922231,0.889374906872499
15,0.8893275826587085,0.8892944074489209
16,0.8893152194433088,0.8892978278156006
17,0.8893087360448693,0.8892732639719385
18,0.8896723321981829,0.889500507082431
19,0.8893547061939047,0.8893143053052538
20,0.8893242934373196,0.8893004669752389
21,0.8893146328352722,0.8893294668356654
