epoch,loss,val_loss
0,0.684053405324618,0.6803995361328125
1,0.6801701070467631,0.6800328747034073
2,0.680088696082433,0.6800130972862244
3,0.6802516755263011,0.6800015014410019
4,0.6800124367872874,0.6800014607906342
5,0.6800588227113088,0.680046614408493
6,0.6800541106462479,0.6800485516786575
7,0.6801057834227879,0.681182743191719
8,0.6800115670363108,0.6800117053985596
9,0.6800458051363627,0.6800033440589904
10,0.6800352329810461,0.6800002650022506
11,0.6800313311815261,0.6800020515918732
12,0.6800408515135448,0.6800008541345597
13,0.6800286156733831,0.6800002626180649
14,0.6800297609965007,0.6800450092554092
15,0.6800337889194489,0.6800002759695053
16,0.6800324569543202,0.6800010184049606
17,0.6800196046829223,0.680011614203453
18,0.6800241828362147,0.6800070433616638
19,0.6800256185531616,0.6800020166635513
20,0.6800246512492498,0.6800415991544724
21,0.680022313396136,0.6800053890943527
22,0.6800195717811585,0.6800002617835998
23,0.6800225086609523,0.6800372264385224
24,0.6800217979351679,0.6800273326635361
25,0.6800223230918249,0.6800251314640046
26,0.6800226296186447,0.6800003687143326
27,0.6800207331975301,0.6800002501010894
28,0.6800181124607722,0.6800002582073211
29,0.6800214420159658,0.6800012582540512
30,0.6800177071889242,0.6800152306556702
31,0.6800235069592794,0.6800002702474595
32,0.6769041134516398,0.6400014380216599
33,0.6400036635796229,0.6400004307031631
34,0.64001094130675,0.6400002650022507
35,0.6400260051488876,0.6400002654790878
36,0.6400107761621475,0.6400012218952179
37,0.6400214466253916,0.6400556591749191
38,0.6400147587458292,0.6400002658367157
39,0.6400167950789134,0.6400501403808594
40,0.6400179370244344,0.6400002638101577
41,0.6400214738448461,0.6400517516136169
42,0.6400130943457285,0.6400058562755585
43,0.6400168858369192,0.640093476653099
44,0.6400180983146032,0.6400003845691681
45,0.6400171922047933,0.6400003601312637
46,0.6400117412408193,0.6400048978328705
47,0.6400187633037567,0.6400006822347641
48,0.6400194909175237,0.6400004595518112
49,0.6400135364929835,0.6400004268884659
50,0.6400114653905232,0.640000312447548
51,0.6400179039239884,0.6400002502202987
52,0.6400159592628479,0.6400007244348526
53,0.6400126748482386,0.6400203272104263
54,0.6400171939134598,0.640000363111496
55,0.6400157787402471,0.6400003604888916
56,0.6400119392077128,0.6400036441087723
57,0.6400138708353043,0.6400361003875732
58,0.6400238086382548,0.6400002526044846
59,0.6400088692903518,0.6400004341602326
60,0.6400169287919998,0.6400014122724533
61,0.6400101406574249,0.6400055550336837
62,0.6400155263741811,0.6400004681348801
63,0.6400115031798681,0.6400022405385971
64,0.6400115367968877,0.6400005292892456
65,0.6400131280819575,0.6400007261037827
66,0.6400141129493714,0.6400002648830414
67,0.6400096788406372,0.6400043888092041
68,0.6400142497618994,0.6400002564191818
69,0.6400084795554479,0.6400035732984543
70,0.6400130130847295,0.6400006804466247
71,0.6400112036466599,0.6400002576112748
