epoch,loss,val_loss
0,0.7811035109979659,0.7779174472048715
1,0.7780596048711237,0.7779942602368788
2,0.778005413600195,0.7778784058975079
3,0.7779068839817659,0.7778622255176518
4,0.7779148163638469,0.7783267287218288
5,0.7779119994696403,0.7778557308736407
6,0.7778925383087897,0.7778717456818839
7,0.7778912165983614,0.77789728050291
8,0.777888718006691,0.7778699657349846
9,0.7778824269296323,0.7778426172365286
10,0.7778761675407245,0.777854860671384
11,0.7778753110906009,0.7778409947681866
12,0.7778741437936982,0.7778695329458198
13,0.7778751669397845,0.7779392692301412
14,0.7778687762042898,0.7778621205634989
15,0.7778705227402402,0.7778623825702589
16,0.7778695032254043,0.7778716199981498
17,0.7778675385592583,0.7778687647775901
18,0.7778634286200848,0.7778832675238081
19,0.7778629127979623,0.7778591655569832
20,0.7778637704600803,0.7778666415526145
21,0.7778588787025017,0.7778381569311319
22,0.7778603534914081,0.7780171068855859
23,0.777865146396312,0.7778431315241834
24,0.7778546162575204,0.7778522016766602
25,0.7778574564371639,0.7778359611573552
26,0.7778560630277831,0.7778390789005479
27,0.777856763304958,0.7778488236352415
28,0.7778525974338023,0.7778300749218159
29,0.777854126415777,0.777849695096418
30,0.7778554528688777,0.7778426868131431
31,0.7778500293912654,0.7778977685520265
32,0.777856075655321,0.7778338390777125
33,0.777853137325431,0.777835447546488
34,0.7778514190613298,0.7778549764872695
35,0.7778499258085391,0.7780732070006358
36,0.7778499806937811,0.7778379343579038
37,0.7778501697680583,0.7778308230893127
38,0.7778497295447255,0.777836501882325
39,0.7778466902107033,0.777877892414426
40,0.7778486440974747,0.7778365970490867
41,0.7778478531277824,0.7778287017716479
42,0.7778473299808438,0.777884059961739
43,0.7778460026888521,0.7778454618461931
44,0.7778441586561778,0.7778387777773524
45,0.7778460545821679,0.7778640185980186
46,0.7778461124143744,0.7779376005083299
47,0.7778452873128225,0.7779294676831436
48,0.7778429837142056,0.7778328573427371
49,0.7778441417829128,0.7778361635405392
50,0.7778450587124627,0.7778331233203004
51,0.7778462977773379,0.7778437237938718
52,0.7778422651044818,0.7778451025097904
53,0.7778419378265614,0.7778293499591447
54,0.7778405182715475,0.7778891705654529
55,0.7778437705296717,0.7778356665180698
56,0.7778424919055842,0.777829260755687
57,0.7778421602750539,0.777846795676416
58,0.777841295897864,0.7778333894351144
59,0.7778412506395568,0.7778600417414752
60,0.7778416219886374,0.7778274364153014
61,0.7778406532245374,0.7778455234244075
62,0.777840839980131,0.7778848006656403
63,0.777840381573333,0.77782747107819
64,0.7778416400817847,0.7778389717977123
65,0.777839005867037,0.7778320923502036
66,0.7778404038944594,0.777831986695599
67,0.7778400680091309,0.7778875243338172
68,0.7778407021708887,0.7779041150268609
69,0.7778383844712518,0.7778330109830089
70,0.7778406617747574,0.7778251453611763
71,0.7778405143898526,0.7778859364195099
72,0.777837674810093,0.7778320291675763
73,0.7778404985329591,0.7778367219945069
74,0.7778370402350029,0.777836033147688
75,0.7778393622048199,0.7778297711435302
76,0.7778392409245305,0.7778689513296215
77,0.7778367622583947,0.7778441888322069
78,0.7778377144304376,0.7778378614020836
79,0.7778355066791595,0.7778499906727941
80,0.7778376968575051,0.7778441009775918
81,0.7778378884539769,0.777834231600376
82,0.7778358029540036,0.7778414955721481
83,0.7778367059895938,0.7778280518519531
84,0.7778354120580134,0.7778348957752073
85,0.7778365155147986,0.7778272315663384
86,0.7778356921517664,0.7778951221843626
87,0.7778369674944373,0.7778676473963766
88,0.7778348935263557,0.7778757760851123
89,0.7778369230079729,0.7778508039680913
90,0.777836407840556,0.7778868896158154
