epoch,loss,val_loss
0,0.5302416119178136,0.5200039823055267
1,0.5200471014976501,0.5201854349374772
2,0.5201052069266637,0.5213102912902832
3,0.49523818387587865,0.4800002391338348
4,0.4802421906987826,0.4800085859298706
5,0.48027962098519006,0.4800030634999275
6,0.48025085018078484,0.4800040546655655
7,0.4800143333276113,0.48000054198503495
8,0.48008794416983924,0.48000300192832945
9,0.48003926332791647,0.4800009434819221
10,0.4800479784011841,0.480004326403141
11,0.4800572630961736,0.48001438784599304
12,0.48005338899294536,0.48000355809926987
13,0.4800498584707578,0.4800186652541161
14,0.4800472518205643,0.480060786485672
15,0.48007908074061073,0.48047340536117555
16,0.48004609219233196,0.48157596254348756
17,0.4800431959629059,0.48000065112113954
18,0.48003758064905805,0.48002836626768114
19,0.48007573558886846,0.48000042206048965
20,0.4800329610308011,0.48000095987319946
21,0.480059761206309,0.48000123870372774
22,0.4800296021103859,0.48001896411180495
23,0.48003994381427767,0.4800615311264992
