epoch,loss,val_loss
0,0.4510466801632492,0.445887727701079
1,0.4450051322129471,0.4448055620749678
2,0.4450583443391407,0.44468806552682505
3,0.4448063618271794,0.44469628167025566
4,0.4448169266257365,0.4447809863496588
5,0.44479572804019096,0.44485895981225626
6,0.4447645501349548,0.44468404620776997
7,0.44476791919869146,0.4446107984743971
8,0.4447221366332946,0.4446660132943514
9,0.44473406396042037,0.4446391524616567
10,0.44471638501954514,0.44465518992808917
11,0.4447070012866279,0.44466134552276376
12,0.44471692349626024,0.4446670373711526
13,0.4446846546158484,0.44520461513860954
14,0.4446920020000349,0.44463108327344464
15,0.44468028653626945,0.4448802444633651
16,0.44467312532396297,0.4446711524982613
17,0.4446731070267131,0.444714436478817
18,0.44467106810096596,0.444637757857792
19,0.4446748384078038,0.4446140415960595
20,0.44465626666091784,0.4446763756427762
21,0.4446650849272714,0.44461756236868966
22,0.44466028112782785,0.4449503186303925
23,0.44466031521176785,0.4445935394582397
24,0.4446437284493859,0.4445947189737695
25,0.44466060082654363,0.44461418265659924
26,0.4446383457479102,0.44471689870816783
27,0.44464491243181853,0.4446438478750521
28,0.44464538728947794,0.44459211170834284
29,0.44463870867416233,0.4446077547613659
30,0.44463624601597557,0.44475037899067693
31,0.4446319872069774,0.44498137133460736
32,0.444627913200696,0.4446041981402855
33,0.4446386259292202,0.4445808940990512
34,0.4446295487736908,0.4445865985319049
35,0.4446380956104933,0.4445903750356273
36,0.4446262413284106,0.4446172016645133
37,0.44463113290140943,0.44458223415524767
38,0.4446241732645124,0.44464710266775265
39,0.4446303993411258,0.44458099707490173
40,0.4446228827831522,0.44458846314825745
41,0.444620754158384,0.4447251997789883
42,0.44461960634646996,0.44459274198462967
43,0.44461574327729814,0.4446292177436654
44,0.4446219487624309,0.44468114153438093
45,0.44461888699053953,0.4445909018509536
46,0.44462547004327385,0.44463954464119354
47,0.4446191134498933,0.44460906227495967
48,0.444618555561351,0.44460347742055245
49,0.44461502244946305,0.44461037424446687
50,0.44461707239931064,0.44459638033373994
51,0.44461814550516154,0.44462577286117966
52,0.44461811457741585,0.44461102528109786
53,0.4446167624706972,0.4446326949747097
