epoch,loss,val_loss
0,0.7839698794891811,0.7822039872384249
1,0.7814999478027557,0.7811097018876226
2,0.781171888491844,0.7808129840688856
3,0.7809839906514204,0.7807838027205035
4,0.7808570177562167,0.7809725427733578
5,0.7808176454749989,0.780737090417463
6,0.7806978155835921,0.7806483182440263
7,0.780664358967233,0.7805209841655515
8,0.7806456426634947,0.7805080267480768
9,0.7806019238265426,0.780474489854407
10,0.780570275986955,0.7805646801346992
11,0.7805323742926951,0.7804464253950293
12,0.7805566150982924,0.7804875739826292
13,0.7805350985144911,0.7805907417899828
14,0.7805249501211913,0.7805499973818861
15,0.7805021681584723,0.7806411086519086
16,0.7804931453344459,0.7807092755838899
17,0.7805025537690942,0.7804009245987523
18,0.780488585307181,0.7804155690633666
19,0.7804581464814765,0.7805165102202797
20,0.7804552269660935,0.7807396099134648
21,0.7804658427747052,0.780368181643305
22,0.7804423895497121,0.7803953138442007
23,0.7804338348950923,0.7804214934451212
24,0.7804331272974399,0.7812295019938981
25,0.7804252686194463,0.780400262955959
26,0.780414577461306,0.7803268297070338
27,0.7804194134596499,0.78036528819134
28,0.7804333158108788,0.7806296309857628
29,0.7804048029538743,0.7803683756731306
30,0.7804072967823633,0.7804455749142714
31,0.7803975499528127,0.7804255032512865
32,0.7804017188009075,0.7803663771522031
33,0.7804102330396758,0.7803419730399022
34,0.7803826353571366,0.7803747191757783
35,0.7803897923511268,0.7803539329953699
36,0.7803935062075421,0.7803640909917736
37,0.7803905448091358,0.7805121897307014
38,0.7803754423468384,0.7805705437428122
39,0.7803810533451823,0.7804547900649618
40,0.7803892371058602,0.7817936291699563
41,0.7803875068160772,0.7804487020993622
42,0.7803770188426998,0.7804663538345935
43,0.7803790788044176,0.7805446683177308
44,0.7803895612940429,0.7804241593733693
45,0.7803636449616402,0.7804011229827363
46,0.7803612940731564,0.7804381233776526
