epoch,loss,lr,val_loss
0,0.33759382902551516,0.003,0.31514823911880635
1,0.31030452920854995,0.003,0.30749038401653
2,0.3010719694215045,0.003,0.29407312113559425
3,0.28570268846315733,0.003,0.2837404673647109
4,0.28079393028998545,0.003,0.279355694011336
5,0.27855698913216687,0.003,0.27702418902349357
6,0.27664019262714445,0.003,0.2795261107943805
7,0.2731731775507843,0.003,0.27004046658173075
8,0.26953889345891663,0.003,0.2682514805655453
9,0.2681455032276116,0.003,0.26546565443865405
10,0.2668085222859844,0.003,0.26573201083087883
11,0.2663965246332683,0.003,0.2664214158879083
12,0.2656064864358218,0.003,0.26719340196889313
13,0.26496769089421496,0.003,0.26412747884441196
14,0.2639695632336237,0.003,0.26386967663606886
15,0.26306255910989285,0.003,0.26157674046370016
16,0.26181412610016186,0.003,0.2609275856070756
17,0.2592305051063081,0.003,0.2555477015715278
18,0.25433083858897837,0.003,0.2500766090925227
19,0.24861028772904623,0.003,0.24817215850622332
20,0.2455562482223951,0.003,0.24141185441375626
21,0.243133906790202,0.003,0.24447308896490225
22,0.24208788621685298,0.003,0.24380466743021756
23,0.2420686797040115,0.003,0.24109751435956714
24,0.24125666054580613,0.003,0.24187994324958692
25,0.24022243896143422,0.003,0.24061666988865446
26,0.23910947317044606,0.003,0.23829105374092366
27,0.2383963244019462,0.003,0.23822509051074922
28,0.237614037139977,0.003,0.2428708053837165
29,0.23840435328100512,0.003,0.2401102841570797
30,0.24286529991171246,0.003,0.24191000255526007
31,0.2443814946444248,0.003,0.2451851608403668
32,0.24643106382194277,0.003,0.2471262512885875
33,0.24703964887322377,0.003,0.250825555014535
34,0.2470780643050095,0.003,0.24630353845591232
35,0.24747247436790348,0.003,0.24687492050636256
36,0.24688891612654396,0.003,0.24764365525276716
37,0.2459380690344899,0.003,0.248273498798414
38,0.24563659083166664,0.003,0.24566829402143783
39,0.2457148030662327,0.003,0.24442382072757904
40,0.24563898349241864,0.003,0.2444152682431589
41,0.2450417436564045,0.003,0.24817826874677648
42,0.2457260005146289,0.003,0.24750144433321308
43,0.2454910697452694,0.003,0.24437839644883877
44,0.24545150450903544,0.003,0.24452520778142475
45,0.2453842126220155,0.003,0.24320325884606392
46,0.24551647398278392,0.003,0.24638488809941975
47,0.24593462999597443,0.003,0.24306371610467606
48,0.24576922267270412,0.003,0.244831426832134
49,0.24576195581949395,0.003,0.25015536003585115
50,0.24557088383084102,0.003,0.24478015574114287
51,0.2456484105137231,0.003,0.24568984564614277
52,0.24529071946700604,0.003,0.24580233946924804
53,0.24548063811054713,0.003,0.24527260237141868
54,0.2455751232737355,0.003,0.24310978943659925
55,0.24556784029546783,0.003,0.24612827126257233
56,0.24540926345723044,0.003,0.24820338441286863
57,0.2454364020511401,0.003,0.24505141579149836
58,0.24537921686478847,0.003,0.24228252007698767
59,0.24470874374147228,0.003,0.24591947276947906
60,0.2446573023512352,0.003,0.24459952510005392
61,0.24448386306087558,0.003,0.24484949420193752
62,0.24475690570892952,0.003,0.2433874224501514
63,0.24408217731246845,0.003,0.24397956071261262
64,0.24417072043215915,0.003,0.2451786410589809
65,0.2438318781393895,0.003,0.24516996427864754
66,0.24410691484511138,0.003,0.2427510990104811
67,0.24347027738412602,0.003,0.24675193470744702
68,0.2432283808192094,0.003,0.24095901521694593
69,0.24368097373752667,0.003,0.24501903157537155
70,0.24377095052819076,0.003,0.2441555444965611
71,0.24342330282838415,0.003,0.24377544911691498
72,0.24324252323614512,0.003,0.24226342333332235
73,0.24306162807652704,0.003,0.24304091090655458
74,0.2428373454941167,0.003,0.24234346412680896
75,0.24269450102433218,0.003,0.2432978038794428
76,0.24254991784453583,0.003,0.24017054011314615
77,0.23559029803251763,0.00075,0.2357058744604134
78,0.2352009191930437,0.00075,0.23477813994310556
79,0.23532021186239332,0.00075,0.23722349646506388
80,0.2351582425830366,0.00075,0.235220713868749
81,0.23512834123820422,0.00075,0.23478112016946384
82,0.23499618726466104,0.00075,0.23545398833061074
83,0.2351335671117647,0.00075,0.23499902378364915
84,0.23498902253681522,0.00075,0.2352513440994174
85,0.23506228261881118,0.00075,0.23610031991115027
86,0.2349733574290594,0.00075,0.23509590085463536
87,0.2348989485878405,0.00075,0.23583102103943135
88,0.23520946880276922,0.00075,0.2349746360869133
89,0.23485352964305,0.00075,0.23557783718549463
90,0.23495372706394402,0.00075,0.23385614344310648
91,0.23494373333992527,0.00075,0.23551875109995268
92,0.23491097833338878,0.00075,0.2347310814821259
93,0.2349222215126268,0.00075,0.23536876955414346
94,0.23489632663561952,0.00075,0.23460771483916792
95,0.23499773414455635,0.00075,0.23532053901745564
96,0.23494674433037627,0.00075,0.2364433830767141
97,0.2348656805215789,0.00075,0.2342502982329927
98,0.2350025617425962,0.00075,0.2353675620661256
99,0.23468804305834737,0.00075,0.23482132788921023
100,0.2347834345599492,0.00075,0.23451421141106968
101,0.23498330160165481,0.00075,0.23408121935546916
102,0.23447435594303048,0.00075,0.23460835114344897
103,0.23463280806593376,0.00075,0.2336747602522138
104,0.23446604219688882,0.00075,0.23816562786216142
105,0.23459890551215928,0.00075,0.23446998868693306
106,0.23453879360255483,0.00075,0.23376331495998784
107,0.2345295835265534,0.00075,0.23563328889899116
108,0.2344827908340642,0.00075,0.23476180175485437
109,0.2344834554008395,0.00075,0.23477058727720543
110,0.2345226578873029,0.00075,0.23434129171514473
111,0.23437942171113477,0.00075,0.23424765338272963
112,0.23420358262509464,0.00075,0.23403969884577377
113,0.23438998091099358,0.00075,0.23583654998768572
114,0.234408936620378,0.00075,0.2339438528187085
115,0.23436667476531317,0.00075,0.23450598055415955
116,0.23436907687180525,0.00075,0.23326461166496246
117,0.23407934592674962,0.00075,0.23436592572207704
118,0.2341384835582938,0.00075,0.2338460804431478
119,0.23408868451782172,0.00075,0.23534386785555375
120,0.23413153873871176,0.00075,0.23401155693261005
121,0.23411917584619935,0.00075,0.2363466226864068
122,0.23399801429012695,0.00075,0.23452179383224828
123,0.23400566701611264,0.00075,0.23384108099771844
124,0.23390071317970418,0.00075,0.23683271315404536
125,0.23409064298720478,0.00075,0.23360965452094481
126,0.23387050226056794,0.00075,0.23498474954735507
127,0.23385474651301508,0.00075,0.23337910232599457
128,0.2337609080227016,0.00075,0.23555752462115737
129,0.23387378313058285,0.00075,0.234205170148644
130,0.23362512798082058,0.00075,0.23319085447474927
131,0.23370695842815628,0.00075,0.23292530927845315
132,0.23370101967220494,0.00075,0.23439466987384427
133,0.2336705381528651,0.00075,0.23375818199215673
134,0.23359786935871263,0.00075,0.23269739330708744
135,0.233589742946134,0.00075,0.23378333231197537
136,0.2336826477435043,0.00075,0.23280171096183788
137,0.23335655277176537,0.00075,0.23366395496978662
138,0.23332454007473305,0.00075,0.23286693958358307
139,0.2334522879797873,0.00075,0.2333798005929968
140,0.23338436578317798,0.00075,0.2352861969980934
141,0.23334131784123674,0.00075,0.2329873013785719
142,0.2333544792025257,0.00075,0.2325463135210002
143,0.2332356328592836,0.00075,0.23385961620753076
