epoch,loss,val_loss
0,0.140728130571836,0.055851833966884826
1,0.034129830917044225,0.019361036621628074
2,0.017297899323351067,0.017965729457885615
3,0.014411588451623334,0.014766608742701555
4,0.011806882277084924,0.01043031920312118
5,0.011899381770092032,0.011495991579853086
6,0.00997099009614965,0.011013025054803682
7,0.011070521230132675,0.010943910731083546
8,0.010144139390638312,0.007561267210624894
9,0.010902225552461774,0.008985278426707027
10,0.009759989087294927,0.01046911724449827
11,0.00980926594558469,0.007838717713252286
12,0.010798565091209399,0.014210981983565024
13,0.007776371261617131,0.010274855872791117
14,0.008780925404663822,0.014804411946333527
15,0.009579101895100528,0.010711634302278061
16,0.008717802095340102,0.008581483983614826
17,0.009048655986686131,0.0065935855255783455
18,0.009399554469056135,0.009525941001970229
19,0.010413538642989979,0.008943687845830054
20,0.009733907861462374,0.012297420834515306
21,0.009009016993761563,0.009384045431033165
22,0.008785244201955427,0.008185686071674561
23,0.009384332068947902,0.010545739890814957
24,0.0074559000777088096,0.009080616017802079
25,0.008638618883939622,0.007756311985228179
26,0.009847468181552707,0.012973066914794289
27,0.009597610666801473,0.008773939997169477
28,0.0076349847980750375,0.007173824390130383
29,0.008015413429672949,0.009131816410604385
30,0.007378127539811804,0.009798833389561432
31,0.00857948508395774,0.011176406519800636
32,0.008391687329832486,0.0056710617058861185
33,0.009308747478390781,0.010779568713067221
34,0.007720809579613975,0.010111108325251276
35,0.007999434964254879,0.007172300317857617
36,0.0094784563777672,0.008964154941354009
37,0.008269218042947732,0.006827161668328643
38,0.008562919165887724,0.006056779335475665
39,0.008303364662700694,0.00741025631337323
40,0.00883484919083496,0.00939112130020346
41,0.007825781938156112,0.006584928632694008
42,0.006734845966534714,0.008943877409299764
43,0.006831945561570116,0.011384514496377254
44,0.007789462229324807,0.006182937744281592
45,0.007674699348079668,0.007538751975413421
46,0.008106845070523836,0.008061417519616958
47,0.009322419949006185,0.010314808387365178
48,0.008319554783085244,0.007139966853298159
49,0.008586580351406007,0.010555281104621402
50,0.009161376851245307,0.007252309609192769
51,0.007097144727036804,0.006667940228686454
52,0.0072045402773890455,0.00541731076875162
53,0.00889663370609057,0.009191568516747586
54,0.006866531528839224,0.006530639624345133
55,0.006649656928044637,0.006979605515620538
56,0.008560760681767561,0.006759176578375657
57,0.009095320566114392,0.006728894869269893
58,0.007821027403526144,0.008782646589381025
59,0.00791507258361353,0.006750272828776863
60,0.007562775449134219,0.0072647807142023225
61,0.0072389584289473605,0.012053270336907966
62,0.008626542192865922,0.011562647154641462
63,0.007300199573873717,0.012617211254503234
64,0.00732064208047067,0.00791550471264378
65,0.007237157128344801,0.010227955411752096
66,0.007578024518122222,0.0041048102084129765
67,0.007011132442848764,0.010112802168000092
68,0.007984308712593884,0.004611469034896465
69,0.007814319587672215,0.008424559362223864
70,0.007933919829279958,0.0074503976170299975
71,0.007442397756414931,0.005230879548557791
72,0.007665825463707844,0.0071503742713401805
73,0.007325472294458663,0.0069133651820647265
74,0.007154788698540996,0.010149685231543895
75,0.007470210286253374,0.00425553946750681
76,0.007287598031347426,0.009118535041356284
77,0.007460747325556914,0.007748447647854839
78,0.007522000498577601,0.00909633093293765
79,0.007864252923873159,0.00679758012819603
80,0.006751759140342801,0.00723812643742893
81,0.0071545937290261805,0.0043699007849602265
82,0.007459976166921506,0.01001640558448615
83,0.007704687852533065,0.012705012354720458
84,0.007416729139239281,0.010946119368817266
85,0.007438472530199326,0.010892554070144868
86,0.006976544078596556,0.007191571063011438
87,0.007129242476954354,0.007039339150042636
88,0.006856029026499159,0.00847644348509004
89,0.00770862733846237,0.006045303353047456
90,0.008205398401192618,0.008199933364299356
91,0.0069324679922671325,0.009977084402974045
92,0.007709662429709211,0.009747025126116476
93,0.007362367876200117,0.006052866362729173
94,0.0066719044078637265,0.007003987971369851
95,0.007196455898000111,0.0074497295342144665
96,0.00739577296096906,0.00643810740985923
97,0.006064621632439282,0.004365295107787344
98,0.006231886398834105,0.009851492506223301
99,0.007620200855850274,0.007796518658614925
100,0.006935338693228718,0.006736235999617647
101,0.006918270469287322,0.008797863669599382
102,0.0079857659023471,0.010110285321299073
103,0.006864837692606804,0.006295254462102359
104,0.00685497937440354,0.006204790846263106
105,0.007450895772935699,0.010482510874502143
106,0.007681193672098982,0.009157618129921411
107,0.006647961952226261,0.005634933039354897
108,0.007437991994551475,0.005003938845769688
109,0.007979897007034968,0.01067395338637206
110,0.00736939426504826,0.005503705999319278
111,0.006542663154047843,0.006640692616371113
112,0.007314509503244847,0.004942373194729567
113,0.0058164077709137885,0.008377745660093937
114,0.006482752280024667,0.0053838284736927
115,0.007403861273539444,0.008110430795440616
116,0.0069840778213301055,0.005480746250531997
117,0.007244639506330528,0.006422581486315734
118,0.00815449353865088,0.0059470637361853495
119,0.0072172405402013045,0.005460318641027034
120,0.006879030621508591,0.00595383478465307
121,0.007396398305645038,0.008252751134738808
122,0.007251667754473738,0.007823424395423708
123,0.006995563708647019,0.00958274471505171
124,0.007164479933863731,0.004171304166759493
125,0.006750864055131277,0.006975116044644563
126,0.006610747781205479,0.006566226302668887
127,0.006789988901694681,0.006458004586319215
128,0.007392788019911985,0.006831472362123353
129,0.006582042531964245,0.0060206689885078735
130,0.007410964572807397,0.0104293865471455
131,0.007509262930284694,0.006801938636988495
132,0.006638043460515823,0.008197741953460552
133,0.006601890149380383,0.004834661650197212
134,0.006314560952823427,0.004632676863012323
135,0.006560413743280691,0.007776651617460065
136,0.007108885786875034,0.00631613587157914
137,0.007753857562477015,0.003919746038366489
138,0.006821841695256603,0.003827220889105334
139,0.006833634109141009,0.006713938367888978
140,0.006389598894903778,0.003928042419185684
141,0.0070891060203285535,0.0064069194305355895
142,0.006037785130799365,0.005937995954733504
143,0.007319665386722677,0.005111769692576839
144,0.006025033092854334,0.006781357688566151
145,0.00625475824938612,0.00460221603969972
146,0.006722646584134284,0.007029651249990444
147,0.006017271088429546,0.005686687325783832
148,0.005894106836318761,0.008676788116192949
149,0.00607732870457076,0.004402930130145638
150,0.006647826820745212,0.00637262136562953
151,0.0076867267221426795,0.008764989383007094
152,0.006544243401031104,0.004216156736561689
153,0.006263911672629606,0.004857320635819892
154,0.006691496893331754,0.008669329521223467
155,0.005977460965726355,0.005199641414168978
156,0.00644710510325202,0.007313803146683685
157,0.006432928185132768,0.005422922192345761
158,0.006259353185961429,0.005423523430530961
159,0.0061048997485515875,0.006482568240173943
160,0.006585282272753045,0.007060281451623931
161,0.006801201157728962,0.006614809549665747
162,0.006622526467946037,0.0052827326985165745
163,0.006363540154350974,0.007672018177466263
164,0.006382223807456199,0.008720048131375635
165,0.007052174114494128,0.0050865668680698225
166,0.006386606787185487,0.007181770211245921
167,0.0059390090760305155,0.004570072651315178
168,0.006146524685805739,0.004298199304462584
169,0.005988627010089108,0.007444144361494396
170,0.006853130132184743,0.005162235526566489
171,0.006127405042803253,0.005533797181290064
172,0.006386740628326926,0.007563915813375549
173,0.006896821903061125,0.008225043404232872
174,0.007092590960446927,0.0054607241662203
175,0.006938700461842054,0.007965462012164994
176,0.0062107520779486084,0.004756829728928836
177,0.006779921795449984,0.007478671183702319
178,0.006926055501239727,0.005103401350182346
179,0.005996812163456846,0.006193467408886154
180,0.006101866084006544,0.00635190639569885
181,0.006718166493367758,0.004261731810723714
182,0.006179878682859963,0.005512197865077663
183,0.005724403177586039,0.009619438227621843
184,0.006069334757739126,0.010935983155290254
185,0.0062287044890082,0.004716975475501949
186,0.005826963948161839,0.00855320512376661
187,0.007070443474782182,0.008344288262661367
188,0.006251335775719391,0.007314069536547658
189,0.006040254775021556,0.005123128620915015
190,0.006322325640104914,0.005310913230694578
191,0.0066856692873051675,0.006544123596681581
192,0.006226170733165321,0.008473379062613636
193,0.007234276259235358,0.007247742459151509
194,0.00663002918045938,0.007005043228942645
195,0.006513638643929057,0.005240937765840597
196,0.006612076281125454,0.009708093357990602
197,0.0065582345920442925,0.006260366782166752
198,0.006506211178985496,0.009193266163438253
199,0.006432413631457565,0.007041903502648166
200,0.0052304751311185406,0.00470419557053587
201,0.005983754088149237,0.004237316402179596
202,0.006447805058982351,0.004633994580444239
203,0.005791454557716537,0.0073922422344060565
204,0.0062380334563206415,0.005673012595503181
205,0.00626191759085972,0.00659162817734581
206,0.006415421325939713,0.005082426056480469
207,0.006557235511006425,0.006267161303344634
208,0.0058624088231155535,0.005864720152442556
209,0.005615283166047939,0.00853164073362088
210,0.005986825562827438,0.007053844548023843
211,0.005609059556134992,0.005560491664809981
212,0.00587521574599929,0.00765887748056048
213,0.005879828174465257,0.006231679373818443
214,0.006278316955455094,0.007754817897940514
215,0.005380174418134119,0.004747421022037069
216,0.005728092747643667,0.004244959540518138
217,0.0059634290822073634,0.0038497041965648827
218,0.006155365370035314,0.0045536008741392
219,0.005929593525776307,0.006831291646218102
220,0.006433486467976269,0.004369317975127518
221,0.005511793190893307,0.005778210291649261
222,0.005486688669138163,0.00715534800322522
223,0.006594202236002899,0.004423147774924066
224,0.0066232848392284325,0.006080971577593611
225,0.006584849737720083,0.005223259017027285
226,0.0054308500234521535,0.007536524728134615
227,0.005829547675677108,0.007456849962796342
228,0.0062920698938112585,0.005686941723858948
229,0.0065089069751852885,0.005357206774465357
230,0.006098606101468765,0.003900284742923261
231,0.006629836988161883,0.007804503520669881
232,0.006474473513848931,0.005061094679273577
233,0.005489299343403825,0.006505687855222301
234,0.006071437041548421,0.00449564039924762
235,0.006156690373494149,0.009514316094667307
236,0.005881275212076559,0.007575651320563401
237,0.006315535528482579,0.0046408113596436065
238,0.006093360824517155,0.004458462913177361
239,0.006113254172961227,0.003990742285870421
240,0.005610645817258476,0.004338816570922227
241,0.005455824590718402,0.007365292777993144
242,0.005953372265830142,0.0057147928199715375
243,0.006059897111093761,0.006814389539575285
244,0.007091440073271051,0.004993533962586308
245,0.006227397228230824,0.005080647836053404
246,0.006162156541213887,0.005008081927595641
247,0.005273265581537815,0.005035862441291561
248,0.006451065541240576,0.004204132874961575
249,0.005832103033122762,0.005663303984733388
250,0.0058956740031891365,0.00587714165552051
251,0.005616788915693492,0.004855502723556691
252,0.006201193361788047,0.004367811888700385
253,0.004824145546582766,0.00808016034747285
254,0.00471552195231081,0.005483234681603635
255,0.006293915546604162,0.006584762955773931
256,0.006019905578701658,0.005216919883921002
257,0.006500900194657852,0.007365553334411219
258,0.006262375385598015,0.005216400240472244
259,0.00621748759571707,0.007226756618423615
260,0.005967124276679101,0.007121847692183156
261,0.005596103037794609,0.005594897877436717
262,0.006057851008239309,0.005851896878496553
263,0.005782827191582645,0.007493985808383153
264,0.0063429243716900405,0.005897863807366909
265,0.005371535982959699,0.004526820735037092
266,0.0067232289405682565,0.003182623830521751
267,0.006008523379189732,0.005647512141030044
268,0.005262968433499009,0.005121166579316546
269,0.005601188118422894,0.003371888530001797
270,0.006015887240049906,0.0049624427287135895
271,0.006019512512743455,0.007507417529994871
272,0.005457822851621531,0.005931168337423875
273,0.0061954335739678274,0.008091919992968804
274,0.005876352869273483,0.005785806007512743
275,0.006026478747998794,0.004295426084944463
276,0.006235935337499802,0.006463397533912873
277,0.006389002453332557,0.007973520148430835
278,0.005739524766678462,0.005419543275393505
279,0.006202053663199492,0.006785804390004632
280,0.005598033633571473,0.004872465922975738
281,0.005468398742143252,0.004594532088924202
282,0.006515847347069273,0.007129614593883081
283,0.005629804524441185,0.008334677560576889
284,0.005261191588023947,0.0048024824235350155
285,0.005836972693107177,0.0062498844977712294
286,0.00636571423989236,0.005369329212002615
287,0.0052199879940189745,0.005597180117218628
288,0.005948211780178259,0.004797473053676506
289,0.006206893966422319,0.003498265350674115
290,0.005692061350430004,0.009724470752202438
291,0.005740072822933801,0.005587464291455361
292,0.005867099851279778,0.008815642974053487
293,0.005510101976006371,0.004981405825751827
294,0.006140583330098328,0.00488827706754925
295,0.005084202281287986,0.004968972906437956
296,0.00536865672077254,0.004889055271357322
297,0.00495802552551314,0.0036486665175782243
298,0.005691280808775492,0.004414679626651232
299,0.0056391334623473585,0.007174007059093315
300,0.006014894831164045,0.004965344180765355
301,0.0064395464329364644,0.007810417210628832
302,0.005642923114964252,0.006576524218272392
303,0.005533810549074684,0.0036171556615080293
304,0.005185693335573492,0.006400959174447909
305,0.005974502196527279,0.007485245416586264
306,0.005517121159481249,0.004523920718192372
307,0.006390162383215122,0.005983128341395576
308,0.005914438117241902,0.004242218078769032
309,0.005713276906876261,0.003920710239310962
310,0.0053181846635967055,0.004178015206482529
311,0.005218998934376797,0.0067760117716599184
312,0.005218809887619434,0.005951999322435545
313,0.006168524861513681,0.007519728530951038
314,0.006002586437772653,0.006781229285130773
315,0.0059756793259128594,0.004778105671860824
316,0.005562279533652915,0.00637027545741685
317,0.005712856419852002,0.008379061741647093
318,0.0056193109657942985,0.00697329294836206
319,0.005006633287438636,0.005011723195250428
320,0.005745641159103643,0.006117260200798441
321,0.005454453784018773,0.005477723416349694
322,0.005783100030012727,0.00525656058736022
323,0.005225163816156493,0.005369211247171722
324,0.006049222528110359,0.004577339572821698
325,0.0054678036422795544,0.006383124587509043
326,0.005966809693538546,0.003910821319308541
327,0.005299251950193319,0.009648753612375015
328,0.005937177099385779,0.006395289154345465
329,0.006330497942188923,0.005153791011247163
330,0.005341353394064329,0.004210542402860151
331,0.005556871463320584,0.007926549784906778
332,0.005718983512157373,0.005965208946767645
333,0.005147743263102467,0.004711643014259007
334,0.005824717013987986,0.006772343095777161
335,0.005828143043952029,0.005683207807984518
336,0.005382822994287941,0.003732761472350408
337,0.005262167029306858,0.008227760670522865
338,0.0053540129518079805,0.007198405674061111
339,0.005455161006168293,0.006627258167314713
340,0.005296321517469988,0.004902014475030606
341,0.005386018627814556,0.004980081086647539
342,0.004928160161297355,0.00640106844570967
343,0.00522765150037985,0.004535722549954736
344,0.0059427574583456565,0.007755777423711818
345,0.005299216550815818,0.005182005809039324
346,0.005818751885452948,0.004497663206887602
347,0.005950409599276874,0.00813083990676227
348,0.005770147480401877,0.004041803304448536
349,0.005189667132476138,0.004533508579351813
350,0.005064834521779661,0.006714176941565998
351,0.005265194532773394,0.005021644602570133
352,0.005727157031623669,0.007094826927848142
353,0.005819068842591326,0.00404986510425953
354,0.00575520226443045,0.00692895060403665
355,0.005199345333470429,0.006497506322758162
356,0.005671562544415615,0.004813982505313082
357,0.004963018034091986,0.004214478387065884
358,0.005666527342867198,0.0046201899843238995
359,0.006179293998770958,0.006148170153136294
360,0.005736316971705674,0.00501034988440285
361,0.005259787692013923,0.009146995177226407
362,0.0048586690793190595,0.004984125086262928
363,0.005768895285095362,0.005962861994768021
364,0.005708164004661101,0.007769091355804745
365,0.005426879366040885,0.004722063284846583
366,0.004566013491876292,0.005114652970974828
367,0.005327701185298391,0.005725259949609743
368,0.00500425817534256,0.004864831139710633
369,0.0063084066564628154,0.006515487972294122
370,0.0053444270897533095,0.00492471036623984
371,0.005435094632451042,0.004423905281613168
372,0.004809557568753878,0.005218150214701538
373,0.005362174896464544,0.004033994849737449
374,0.00477124155574604,0.004479452792331635
375,0.005640895031452132,0.006841201589890442
376,0.0053885365669004365,0.005645339284606731
377,0.006146990214950955,0.005961844204368559
378,0.004924544796375907,0.005555065057292616
379,0.0047119509835029955,0.004595679932236437
380,0.004443130553901034,0.00434493089106519
381,0.005080600261694188,0.004417051412326878
382,0.004821024475348212,0.006125408687850059
383,0.0054898557812831615,0.004151368814343388
384,0.005492248484190348,0.004658787630736569
385,0.004781171072852894,0.004748307368787919
386,0.004584788546084518,0.00693489578071079
387,0.005199678564279658,0.0058816762280157215
388,0.005423068142251121,0.004147871456608094
389,0.005226336376682716,0.005605784502841867
390,0.0052567448467574565,0.006704649647614009
391,0.005706370885236014,0.004763117754698129
392,0.0050717665093409706,0.00656653185953528
393,0.005906804317074696,0.005267456916308629
394,0.005989836889496304,0.006116619049156145
395,0.005545258899476174,0.0038658033212207277
396,0.0049991187486733545,0.006328748759240994
397,0.004793258307376604,0.0040544073452809925
398,0.005163049026445257,0.00468239033096356
399,0.005379133269847404,0.003845484795353148
400,0.005055951502760031,0.0066146279028054525
401,0.005360630481670663,0.005152608013631748
402,0.005609524700206985,0.0048975961888539764
403,0.0059049353101212594,0.006037811355058166
404,0.005757242846164963,0.00691201579782762
405,0.004978072923719049,0.004201703225633669
406,0.004913118771194732,0.00446392440082007
407,0.005727361175242802,0.006832075164886375
408,0.005668444217548972,0.005020382120946588
409,0.0058399873215602425,0.005690878824255155
410,0.004968865547138605,0.005119366218477793
411,0.005601399726302123,0.005469378918973875
412,0.005670532023703172,0.004746914230031274
413,0.005052422596175941,0.005611367529550686
414,0.005424209518081171,0.008309193610433481
415,0.005765825435299602,0.005600602998182871
416,0.005701102523154004,0.008053861257429774
417,0.005098924876546575,0.005089948905356987
418,0.0054820943218979725,0.0056865604781055415
419,0.005513573588757254,0.004334594543520493
420,0.005532859055381968,0.006483162184714119
421,0.005160243719627114,0.003197846267866331
422,0.005412046912965252,0.0038634557826422453
423,0.0046834074943285465,0.004730165089997327
424,0.00503763663394527,0.008165450868121074
425,0.0048445831364702634,0.00674829155503645
426,0.005287903189051637,0.004813865394990865
427,0.00531332669418594,0.009590655931322332
428,0.0057391080141572254,0.0035303856412297217
429,0.0048611520872012875,0.00393364637841683
430,0.004808283315302966,0.005402289121834401
431,0.006109846789828337,0.006375084248178101
432,0.00502342934892189,0.008082557807734564
433,0.004868276094251739,0.005564735785579484
434,0.005080604994335293,0.00546695956270833
435,0.005046861694208521,0.004022118127180797
436,0.00486262838963306,0.004064165484843792
437,0.005111780754446114,0.006004702919122381
438,0.005196411757905641,0.007501762501833683
439,0.004514341542629792,0.003175170916840493
440,0.004849923352024508,0.0037787481692223425
441,0.005245744420359169,0.007437108874015198
442,0.004692363251800196,0.0038816321195759636
443,0.005064355905635281,0.004494096749354133
444,0.004891712536408508,0.004605309939968981
445,0.005290048014518502,0.00548026696084201
446,0.005475774989649505,0.00396255440105873
447,0.0054102556776816696,0.00516028727581923
448,0.005257662958845192,0.004376490783069838
449,0.004854335870536463,0.0038895660119341435
450,0.004585039252017012,0.005200376794780086
451,0.005451011176457067,0.008732156079018455
452,0.005028717909294883,0.006690150755292191
453,0.004905917947061455,0.004828837225706138
454,0.005480864634484255,0.0034800854442830786
455,0.0056075745286958975,0.006841830038939674
456,0.004777222417565219,0.005761914538115192
457,0.005096305056280054,0.005186427386820128
458,0.00451056629638571,0.005904511142089881
459,0.0054341114182352756,0.006684353595324619
460,0.005359185593880916,0.0070522422273808704
461,0.006035211276531749,0.0066200430378547176
462,0.005893429329017286,0.006116448847934216
463,0.0049820865529010905,0.0075560616595404485
464,0.0048530621549597,0.0049484843640325805
465,0.004536737144707317,0.0033991074435054175
466,0.005272496464683843,0.0030898672645072135
467,0.005237058659797337,0.005285918599049007
468,0.005599567407111583,0.004300890935859816
469,0.0043705942893332295,0.004386346174540747
470,0.004765654039989076,0.004286150180461986
471,0.004734911185002131,0.005956551276556059
472,0.005138193055403699,0.0066072316333098775
473,0.0050980034874280175,0.011870648628857866
474,0.005134727031053554,0.0074225269951185046
475,0.005265206405740353,0.004793858201181974
476,0.00505930428682781,0.004627854687153658
477,0.005537609772966634,0.006573091431990584
478,0.004898657499392667,0.0054146477595359765
479,0.005255806147583204,0.004219355328477501
480,0.0045831077861496145,0.00468085663563674
481,0.004590088829136104,0.003872874910497028
482,0.005441226153377649,0.006420733094738756
483,0.004891527427206312,0.0042505223344829176
484,0.005575618715670189,0.005553910054484031
485,0.005892865433112728,0.005237021238338011
486,0.005197464223325008,0.00478936585574907
487,0.0053614096885969895,0.004109295308347365
488,0.004445512194933145,0.0036642758479678524
489,0.00452774327866611,0.00488534402954903
490,0.004970099063509022,0.004993551397871082
491,0.005470078142503534,0.005189489112724421
492,0.005765021674232267,0.005299604633468738
493,0.004819046324051971,0.004403883874660392
494,0.0055225811687280996,0.005562482202159507
495,0.004949269911198379,0.003652182235856612
496,0.004579861007119379,0.00393128946284604
497,0.005213698725678402,0.006693413004061559
498,0.005581842805296153,0.005355963457725654
499,0.005562159984888469,0.007095706792094031
500,0.00484318078968668,0.0077222120744523896
501,0.004847266489072598,0.005496317411213526
502,0.005155189881297788,0.006037627343505903
503,0.005080677366977056,0.005801722681886372
504,0.00488304124717384,0.0035103847974310054
505,0.004630272227751134,0.0036348866661914995
506,0.004318978635967969,0.004502439090795374
507,0.004875985877610725,0.004579249672421152
508,0.005416631215266127,0.005562350230736933
509,0.005213262068742751,0.0037925107615552223
510,0.0056465112708053355,0.009234340833507378
511,0.005024660156007192,0.00321427438883721
512,0.004467717291199886,0.0034743677784307273
513,0.004798389088323743,0.004627927053196396
514,0.005768862514228796,0.006800016838889613
515,0.005311353253569159,0.00969656637480928
516,0.005944543304651392,0.0037262978950322804
517,0.004807557909564077,0.006033166894584823
518,0.004595602960992071,0.0036025332063127783
519,0.00506391943872368,0.00849836179361794
520,0.005053331050817087,0.003957179758694808
521,0.005477415936474921,0.00401437329348903
522,0.004666164075471104,0.0034483274282856705
523,0.004639688495388009,0.007683755241881324
524,0.005516363568209427,0.006289214522069895
525,0.005170360569459506,0.005906936907354263
526,0.0044725674991239065,0.004899545399223667
527,0.005408528858131701,0.004965659242340943
528,0.005364079143201335,0.005849186122643849
529,0.00559699537584649,0.0050090444638102
530,0.005160442368926959,0.004186235291070372
531,0.0052781823023462845,0.007004717269349306
532,0.005012363608130704,0.00352578857033745
533,0.004789956362559188,0.00662673712504444
534,0.005026008822950724,0.00442068840560063
535,0.004977928474824652,0.005158520711258042
536,0.005641531338989675,0.004903550152817554
537,0.005110488313497405,0.004236426937115256
538,0.004529666776365364,0.003758083771136549
539,0.004720019240253907,0.005164765413988737
540,0.005870365065620761,0.0038047690825109043
541,0.005412190561004126,0.00527479889601963
542,0.004595529098401693,0.005368562127465725
543,0.005199758643504056,0.00459913367107099
544,0.005564703408600413,0.005133388289445225
545,0.004758394710968236,0.003917377465275935
546,0.005407641816092916,0.005214178671173886
547,0.005374453777780862,0.0044816022642521335
548,0.005077171567112779,0.0065379092273550096
549,0.005130126914229068,0.004796616738219617
550,0.005295196720447352,0.0032207037165287613
551,0.005246109285985204,0.005324496609036058
552,0.004259287265314014,0.004606884877008534
553,0.005021534843569834,0.0033168180635450343
554,0.00454686852253908,0.0039470924208589026
555,0.005115394683020244,0.004863806529413106
556,0.005176924684510784,0.004993721277871255
557,0.005209100905334581,0.0036278451750997305
558,0.005300874092826824,0.005233670160727136
559,0.0049453172374883,0.003944678664841082
560,0.005470304977153238,0.0037939965020388883
561,0.005218819363789408,0.005236924973984662
562,0.005613242289878511,0.005132964431824958
563,0.00497276394543864,0.003788159162338291
564,0.005210190587178272,0.00534666784514909
565,0.005391913483929571,0.0038148894076894943
566,0.005360381920255429,0.006211738217175125
