epoch,loss,val_loss
0,0.45612798527006776,0.44897253411283566
1,0.4486387048684131,0.4474392050992762
2,0.4478659138405497,0.4471717179708978
3,0.44731543330851786,0.44770017531018697
4,0.4468813154601055,0.4467205333058947
5,0.44664804095329663,0.44626637237243555
6,0.44638453340341394,0.44633284391599615
7,0.44626937359636537,0.4468491206837647
8,0.4462104088537282,0.44740497524625905
9,0.44612921007311135,0.4462976964768346
10,0.4461061424267721,0.4459079760919434
11,0.446019684243241,0.4458649632208992
12,0.4459940121083648,0.4458358554922913
13,0.44594598706068245,0.44584869949456774
14,0.4459142771790448,0.44579384789869153
15,0.4459173557576459,0.44584723259911646
16,0.445846595326329,0.4460284298022391
17,0.4458246974257778,0.4456919899649419
18,0.4458094836673654,0.4457819193823462
19,0.445784669317643,0.4457526740453971
20,0.4457728658747824,0.4459947797559923
21,0.4457637331993785,0.4457990984319162
22,0.4457568472734182,0.445674969525846
23,0.4457531548882977,0.446234159123513
24,0.4457230359653885,0.44625158548059296
25,0.44575141080855707,0.4456110130912317
26,0.44571768412443497,0.44566910397030285
27,0.44569889303385596,0.44569990198606296
28,0.445701751379128,0.4456402320128221
29,0.4457036457854571,0.44575946505548936
30,0.4456620934976308,0.4455828978317251
31,0.44565933865134666,0.44555428579782436
32,0.44566022804011196,0.445790911401176
33,0.44566577244624683,0.4460599807148832
34,0.4456614982029363,0.4460850617282148
35,0.4456278054593291,0.4456413182372195
36,0.44563664319069984,0.4457131702166337
37,0.4456664525379967,0.44561353314011626
38,0.44562227646058594,0.4456022633512322
39,0.44562713401155823,0.4456584204515216
40,0.4456211537754972,0.44576089938284447
41,0.44561361897960566,0.4458007114548837
42,0.4456059664057533,0.4455223287897134
43,0.44561871471369185,0.44556911745970657
44,0.44561825175635955,0.4455481206808729
45,0.44560894893703173,0.4464500677053153
46,0.44561004341401983,0.4455958706125728
47,0.4455963641022918,0.44559853891876733
48,0.44559853352093853,0.44577373566461853
49,0.44560216833343563,0.4458178784947833
50,0.445599312173612,0.44559840906050896
51,0.4455786780964677,0.4464667886421639
52,0.4455801036655394,0.4463951831124261
53,0.4455853425967851,0.4457453368319471
54,0.4455806799120059,0.44577243079618545
55,0.44558274705040424,0.4455713104817175
56,0.44558011723456703,0.445506078063998
57,0.4455734646439772,0.44556728784854593
58,0.44556941448387155,0.4456706433970638
59,0.44558213505227334,0.4457346616696483
60,0.4455825895411409,0.44634770572037613
61,0.4455602578537285,0.44548467254224544
62,0.4455559999434995,0.4455366343629567
63,0.44555556911079974,0.445674382989519
64,0.44556221698893017,0.4458954051913458
65,0.44554518217061434,0.4460818602488591
66,0.4455528992106595,0.4455729918651486
67,0.44555882681058373,0.44550338446650256
68,0.44554610636957764,0.445583419438923
69,0.4455531710112632,0.4456714169706955
70,0.4455440612414571,0.44567523046995217
71,0.4455464348952089,0.44550973280487816
72,0.44554694711328224,0.4460021407225587
73,0.4455531434610452,0.445848951549743
74,0.44553030133712784,0.44565471036558413
75,0.44554522870122115,0.4463730017245555
76,0.4455417896952003,0.44562395907217456
77,0.44554987255036155,0.4457818287182091
78,0.4455314602641377,0.44579223835142906
79,0.4455327879956413,0.44573773318721405
80,0.4455357017174391,0.44551784785154736
81,0.4455303639468135,0.4455172300338745
