epoch,loss,val_loss
0,0.6744969145840636,0.669998828885573
1,0.6699211322796326,0.6694029004047289
2,0.6691685937522218,0.6686611856479503
3,0.6688822056648568,0.6688309947551037
4,0.6685856783084453,0.6683897834853558
5,0.6684459439246714,0.6682432231772922
6,0.6683151961994755,0.6686671782072365
7,0.6681955818750612,0.6684919116810593
8,0.6681257757668718,0.6679625349068464
9,0.6680267933306038,0.6678072713740706
10,0.6679735012090477,0.6677714477697614
11,0.6679389540119024,0.6683537706843676
12,0.6678461700745316,0.6677341474788656
13,0.6677831525339476,0.6679322826951076
14,0.6677425682195257,0.6678058361888819
15,0.6676882464074386,0.6677022170192255
16,0.6676587322337239,0.6675639249550793
17,0.667633585283284,0.6678832853402452
18,0.667604173548372,0.6674854996778238
19,0.6675858097557538,0.667946321082766
20,0.6675603823177401,0.6676978415058505
21,0.6675376674404824,0.6674965436346182
22,0.6675296533928297,0.6674794687526694
23,0.6675170858795729,0.6674341530717041
24,0.6675087002307495,0.667454630269602
25,0.6674963354045226,0.6674850291117249
26,0.6674782865681136,0.6677693014996815
27,0.6674930101112366,0.6674945132608153
28,0.6674715990604395,0.6675651820362649
29,0.6674602886781715,0.6675757663717341
30,0.6674675394785704,0.6675249234914188
31,0.6674437280788932,0.6676802572482277
32,0.6674560094967967,0.6674513793169121
33,0.6674493311127092,0.6675598382654024
34,0.6674310777418347,0.6674786106232674
35,0.6674262147724018,0.6673777464897402
36,0.6674172106822991,0.6674664034145346
37,0.667426980005925,0.6675407827639994
38,0.6674222090477755,0.6675492876516678
39,0.6674083441149206,0.6674920194202262
40,0.6674068920029643,0.6674390048306278
41,0.6674077441424751,0.6673201029413095
42,0.6674128491945939,0.6673804837775881
43,0.6673902462252322,0.6674734037508148
44,0.6673946841259328,0.6673720881601717
45,0.6673980704082569,0.6674373026225466
46,0.6673938979056364,0.6674067388988902
47,0.667380465473064,0.6673180105372635
48,0.6673790675701678,0.6675445339815789
49,0.6673739978938368,0.6673688241033341
50,0.6673790135559483,0.6673804461216513
51,0.6673822697163341,0.6673471887413385
52,0.6673708102179344,0.6673543828001093
53,0.667365796309388,0.6674322261703813
54,0.6673704501644192,0.6674644831096564
55,0.6673701117618704,0.6674611544194943
56,0.667367843525931,0.6678046037482269
57,0.6673706564516607,0.6673642522052263
58,0.6673686330072431,0.6675013840938029
59,0.6673722178510259,0.667710890870532
60,0.6673654209896812,0.6673447599482004
61,0.6673599773622604,0.6674715524571705
62,0.6673594085753475,0.6673340456361511
63,0.6673593928666234,0.6673171862774984
64,0.6673555353509764,0.6673413345890661
65,0.6673505582538849,0.6673988252360531
66,0.6673522224770009,0.6673303255963858
67,0.6673478285724024,0.6673592670088074
68,0.6673584930558604,0.6673220430355215
69,0.6673453985107318,0.6673788539529143
70,0.667346375359242,0.6673821955993217
71,0.6673540864258859,0.6674226982717775
72,0.6673453999408774,0.6672894511861778
73,0.6673401774014809,0.6674418693736528
74,0.6673484512851862,0.6675616387693817
75,0.6673513440726678,0.6673414030086905
76,0.6673385966040424,0.6673703941163
77,0.6673447686503761,0.6673456834208581
78,0.6673431736926834,0.6674010906562616
79,0.6673398247850375,0.667492547017469
80,0.6673459939087629,0.6678945656154055
81,0.6673338189787171,0.6673342321410073
82,0.6673480981552157,0.6673204760397634
83,0.667334821233016,0.667509167484255
84,0.6673460410373014,0.6672915995860514
85,0.6673342072541376,0.6672776139403691
86,0.6673477597857977,0.6673381154353802
87,0.6673280459918737,0.6673127397414177
88,0.6673271761131953,0.667527288006198
89,0.6673340424340148,0.6673138964856529
90,0.6673349877830389,0.6673332894114643
91,0.6673347341424427,0.6672925695296257
92,0.6673324476624856,0.6673186777838997
93,0.667320531666073,0.6673455984065906
94,0.6673302517581444,0.6674291464590257
95,0.6673507790042907,0.6673683850700152
96,0.6673285523375158,0.6673374738350104
97,0.6673284592621033,0.6673611690921168
98,0.6673200256399062,0.667305822467094
99,0.6673235463235616,0.6672922825694971
100,0.6673173851031056,0.6673715985738314
101,0.6673214178829602,0.6674154322141453
102,0.6673175447390496,0.6673874309281853
103,0.6673245081259633,0.6673377392605576
104,0.667319125751838,0.6676397317100695
105,0.6673215693340233,0.6673206528422259
