epoch,loss,val_loss
0,0.11310050091479243,0.09351098445745615
1,0.07863853340871982,0.07429494285775769
2,0.07106583072485537,0.07000394203600753
3,0.06796837704335627,0.0694363446633514
4,0.0662079151834238,0.0649223807949582
5,0.06474156119227661,0.06485409450072509
6,0.06383758945597477,0.06257250823690637
7,0.06321725032550068,0.06201722124226336
8,0.06260719212227805,0.06257002037896707
9,0.06221520967544994,0.06183956545909344
10,0.061914164507925154,0.06091051642267639
11,0.061536923204997734,0.06132521422270214
12,0.06124618575456134,0.060639026888620766
13,0.06099711371434691,0.0606380238278628
14,0.06054630722604102,0.06139439505619683
15,0.06017092623170451,0.05926984766909561
16,0.0598029686784306,0.06045881757702189
17,0.0593404413584273,0.05949841972172408
18,0.05889076992083113,0.05846671873782172
19,0.05856237592172226,0.05993038177786039
20,0.05836951468442156,0.05858770881781803
21,0.05804370062413678,0.05895281863345698
22,0.05732753779321309,0.05743452543878082
23,0.0568152996079939,0.05739145996257034
24,0.056269173179890615,0.056500998072825354
25,0.05578251522505189,0.0555832897056421
26,0.05528072006101675,0.05517086184793903
27,0.05476371162995982,0.05550684366495379
28,0.05426012358478743,0.0545697191697788
29,0.05373127412424325,0.05350372328355946
30,0.05325180435858938,0.05339506962163277
31,0.05287316270757118,0.05297550801973485
32,0.05265765021528269,0.05277286652965522
33,0.05248306427704673,0.052919090049290476
34,0.0520780737022506,0.05182965443684505
35,0.05174114368404842,0.052169120239634666
36,0.05146826797358819,0.05105536857587528
37,0.051246314551769284,0.0513231494752852
38,0.05102730394461828,0.05180593535267094
39,0.050858163899416296,0.05239611587142826
40,0.05073184844697712,0.05085918893367422
41,0.050517728879807794,0.05037473307243056
42,0.05044538098846185,0.0505450741362483
43,0.050133728498580624,0.05028969096042974
44,0.049985264145202,0.05055431604718156
45,0.04996698621497627,0.050345918545430114
46,0.04981452629182735,0.04955592921220931
47,0.04965450513351013,0.05078239355874121
48,0.04938270355024345,0.049499631861673096
49,0.04923866341021349,0.04942414129416345
50,0.049051291259120215,0.049572939558818974
51,0.04898224479501489,0.048929442269334725
52,0.04879252802708237,0.04951582937397377
53,0.048682315428820594,0.04855920575355774
54,0.04840113290290346,0.049486646048780114
55,0.04833991899439564,0.04874373080195032
56,0.04806134369617196,0.04910866554003791
57,0.04788300876783772,0.049984011331355896
58,0.047698115792680455,0.04743383006370689
59,0.04759293849418539,0.04703015194045699
60,0.04748196251099457,0.04757387933526974
61,0.04728033326225939,0.04701949257597734
62,0.04721474422925339,0.04760251139145039
63,0.0471332430844666,0.04726368245430679
64,0.0468773884792348,0.0466485692072595
65,0.0467644669077581,0.04721497202444609
66,0.0466090071688485,0.04745837418598218
67,0.04644290386502044,0.046804819368842815
68,0.046310638279977785,0.04675412198191245
69,0.04613748743931547,0.046448994692294826
70,0.04615931452912898,0.04640299228965201
71,0.0460587226072705,0.046622159431871056
72,0.04600916657447886,0.046230972536999
73,0.04592813009639031,0.047073603356742384
74,0.04579295779752386,0.046336696674081294
75,0.04575635109021975,0.0463116333443237
76,0.04564486830635623,0.04605384486410813
77,0.04556946248408496,0.04644763496133589
78,0.0454561944633714,0.04639155803705859
79,0.0454310577035067,0.04690319926803816
80,0.045305123226573527,0.04587403541943867
81,0.04523276214666163,0.04536542898926782
82,0.04512093643681294,0.045600951010033156
83,0.04509413820339133,0.046071612855266994
84,0.04502313451359081,0.045328120633996744
85,0.044928191024728975,0.0455921291380603
86,0.044836158159049365,0.046021807639311914
87,0.0447395645509246,0.04517908783689622
88,0.04485326496789395,0.04555504694026398
89,0.044669349637371666,0.04547950547955764
90,0.044571571037136,0.04503913620676355
91,0.04464184759664843,0.044819540059004466
92,0.044449788268228436,0.04529313741265692
93,0.04439492854472682,0.045116122575388946
94,0.04428413377833951,0.045537558347726284
95,0.04428835312236523,0.045466458226182026
96,0.044239720352740174,0.044293311058957285
97,0.04409086991708063,0.04505351771676806
98,0.044082228563149806,0.04458755672939362
99,0.0439230870993928,0.044169707054609694
100,0.043994629199319776,0.04569514932540747
101,0.04396466766039811,0.04467348721682582
102,0.04384352757488901,0.04580966817127268
103,0.0439242595949619,0.04447691801648874
104,0.04383029196667691,0.04399908144516921
105,0.04370744416344732,0.0447276975728442
106,0.04362978324366268,0.044785044052021085
107,0.04369179250344874,0.044793736213637934
108,0.0436153570362998,0.04467303882683477
109,0.04351228847212277,0.04405886920413959
110,0.043517105488321786,0.04438263846390301
111,0.04353255261893306,0.04435951726386328
112,0.04338841844057789,0.04432895941008114
113,0.04335122704346183,0.04377723108080422
114,0.04330686358046343,0.04419277734296494
115,0.04329713356587039,0.04454174031394883
116,0.043303604925704356,0.04320189300970759
117,0.04318187010103298,0.04496520232436971
118,0.04312869625301909,0.0436078897314539
119,0.043174005367310565,0.04384619556552275
120,0.04301103654544802,0.04558429451053846
121,0.04293369174169649,0.044735819898157496
122,0.04302228070657787,0.043524173846833464
123,0.043041914656547886,0.046308142660421416
124,0.042928790829974084,0.044019199403062946
125,0.04291577920587035,0.04440430832412048
126,0.04290935841278108,0.043911587716849804
127,0.04287821301618202,0.04331015028965384
128,0.042762857236707544,0.04311467694400558
129,0.04277676422938708,0.04387898544593721
130,0.04267171930816403,0.04368106465296769
131,0.04271261693147534,0.04561079366516239
132,0.04277970393656504,0.04433442176904335
133,0.04268234923651145,0.045023647235433756
134,0.04248197301370318,0.043139975114954314
135,0.04258236332025348,0.043249460888411806
136,0.042467993200253226,0.04308368540912053
137,0.042601530096234935,0.04337350047255864
138,0.04247810054695219,0.04293064375964938
139,0.04250504525570599,0.04281421113324816
140,0.042365750298224474,0.043083548821305516
141,0.042381507296561,0.043113092172234586
142,0.04239262484941499,0.04433603880755955
143,0.042377868702323115,0.04371198288745087
144,0.042366559736642544,0.04379561051689366
145,0.04227563595167468,0.0453943912688615
146,0.04228013084239974,0.04324116499784862
147,0.04223459775667045,0.04244506924826809
148,0.0423030529774041,0.04243725872697961
149,0.042120160402232924,0.04322517901178329
150,0.04216932065903157,0.043469775471808594
151,0.042144098166659885,0.04330186125806188
152,0.042221414414536126,0.043112932454341696
153,0.042107945500168914,0.04253056361605748
154,0.04217978106031861,0.04286610411651081
155,0.04221171636380254,0.04314347122594825
156,0.04210311006357511,0.04340540439851823
157,0.04213238074605266,0.04364362237027502
158,0.04208417377936181,0.043797514776216254
159,0.04208070466293184,0.04311079843612226
160,0.04206389423603089,0.04283070211892684
161,0.04211475636378033,0.04317337693484782
162,0.04212650896513756,0.042219513002089766
163,0.042005292459780255,0.04327492037090119
164,0.042087241519809054,0.04308594277789516
165,0.04202669386562471,0.04391729640531777
166,0.041983411970195,0.04443213321989582
167,0.04195207153731185,0.043178656523488
168,0.04198646753298423,0.04299518128408687
169,0.04196950790061682,0.04265237249822238
170,0.04197261461380965,0.04303495244171572
171,0.04190624298273218,0.042543423745235794
172,0.04185443112569457,0.04251649996483001
173,0.04185559094168909,0.044258030936602626
174,0.04189752756819028,0.042409821327951354
175,0.04188753645270805,0.04295978401383158
176,0.04186203919174206,0.04313810974470439
177,0.04198858080540603,0.04259964328065108
178,0.04191807501639841,0.0426605292681429
179,0.04179796249986707,0.042944114165329755
180,0.04190915874404524,0.04262853958655528
181,0.04182233529752842,0.0431337025395546
182,0.04182132133218814,0.04257736213634682
