epoch,loss,val_loss
0,0.11056813508571137,0.09662059537752095
1,0.08958845844990782,0.07822935494314648
2,0.07550840241799837,0.07211489485895663
3,0.07145579746355016,0.07043066744325178
4,0.06759329022453707,0.06565217701140467
5,0.06478287539578977,0.062383079048125976
6,0.06323493291569893,0.06204759552520203
7,0.06208395195130224,0.06127957872880008
8,0.06120525979491548,0.06128056911247835
9,0.06057949205192087,0.06114567343154853
10,0.060008310364495374,0.060174714454054534
11,0.059683418444332385,0.05864891315955974
12,0.05914095578212155,0.06088546902015251
13,0.05879355628257925,0.059510968562687006
14,0.05865710244265851,0.058667925850629216
15,0.058385197188439424,0.05866449739294076
16,0.05809897758490945,0.058183527153641654
17,0.05804911818438593,0.060623934728188195
18,0.05774887854081806,0.05881829738949724
19,0.057415658328957044,0.057136217275491126
20,0.05725856705365324,0.05719869256241446
21,0.05717960531530842,0.05618052920950554
22,0.05699827599043833,0.056916536816000646
23,0.056917787744964504,0.05641535025080735
24,0.05689982672366745,0.056888488918616816
25,0.056715526721979236,0.05770559827092268
26,0.05641370692603715,0.057117758957535104
27,0.05606502220508882,0.0560232293609502
28,0.05581641851690386,0.05744545991825998
29,0.055420707695311267,0.055069384847769964
30,0.05511531672583062,0.05707918682479977
31,0.054882594424643494,0.05436465926191055
32,0.05450496920873725,0.05405100733411519
33,0.05422268388931534,0.05331602482397858
34,0.05380222060492222,0.05317179077205528
35,0.05369724736988818,0.05274379233420635
36,0.05333485417812954,0.0528019910895499
37,0.05300186218189767,0.052459389923450075
38,0.052725032956931324,0.052379440941452686
39,0.05249887951594692,0.05383542867992119
40,0.052136194273231726,0.05182691131609841
41,0.05182542534090083,0.05369940123915968
42,0.051666660154586486,0.050839157692773765
43,0.051443145507314436,0.05566800721451899
44,0.051328691165733596,0.05152989065750657
45,0.05109430857844711,0.05071357087816849
46,0.050949538956065334,0.050072100115177355
47,0.05090712918979144,0.05136366126037413
48,0.05065030186886813,0.051059278011987584
49,0.050525939130322876,0.05003825363243188
50,0.05041736759991528,0.0505028146705024
51,0.050184640783253895,0.050041964481915197
52,0.05019616292427284,0.049297194334472674
53,0.050084777246142145,0.05024042216224351
54,0.0498692120443805,0.049726042511963074
55,0.04961818960188377,0.04958012441066891
56,0.04956969499891317,0.049300647314369825
57,0.049464842255359555,0.049588498691323375
58,0.0494879782756723,0.04931672866416924
59,0.04924398700059292,0.049454806695135294
60,0.049185126017528114,0.049468923483977544
61,0.04914283729742876,0.04889652470759955
62,0.049045845476670104,0.04875775084232278
63,0.04871203716166372,0.047623738285995296
64,0.04884056022421019,0.048238977871225136
65,0.0487677848117144,0.04794179583083903
66,0.048474065735919405,0.04936699873719263
67,0.04858096085921764,0.04769360341372028
68,0.04828912251561281,0.04757286221824272
69,0.04830162307343091,0.04839824578972076
70,0.04813544894653976,0.04738850221222743
71,0.04796061300556128,0.04742031451638224
72,0.04792635912546643,0.04809860052822837
73,0.047868677782288795,0.047620507307517025
74,0.04772055943812882,0.0486555729070609
75,0.04768463545910949,0.046969808797090874
76,0.04766588898578532,0.04815288140963088
77,0.047586901282619214,0.04781248496276865
78,0.04752666422937589,0.0473435487219181
79,0.04752225096022915,0.046911332782163806
80,0.04747544897434292,0.04681615829282895
81,0.047364391748876876,0.047076882919292
82,0.04726756371369281,0.04672072271518317
83,0.04731555308376204,0.0468850765386527
84,0.047226709772431215,0.047611672163157544
85,0.047127293135167066,0.047142184191099175
86,0.047134093237412134,0.046802233492322355
87,0.04711688878731901,0.04777505035066131
88,0.046911004276746784,0.0474080055785682
89,0.04681884517672052,0.04719455178374096
90,0.04676852766231894,0.04634572861360261
91,0.04680315849048365,0.04732108688716853
92,0.046747275245752735,0.0483060617674669
93,0.04661011866914273,0.04801853753940639
94,0.0466582911416599,0.0463721587532951
95,0.04645548627766348,0.04735597717407028
96,0.04631470260181678,0.04626155035297569
97,0.046330346858465855,0.047184593803607504
98,0.046316535506813146,0.04675010692503849
99,0.04625952872067122,0.04670304979934882
100,0.046273391350788846,0.04702579372610999
101,0.04621688264169361,0.04648089563247584
102,0.04607213257623544,0.04611413758386749
103,0.045928745703853725,0.04628839103814686
104,0.04596181124516024,0.0460189227818999
105,0.04595012245019029,0.0460058800303019
106,0.04579945447437864,0.04739641948018417
107,0.04574348853186128,0.0458710227152402
108,0.045853361672270214,0.04587994068121496
109,0.04555412974607987,0.0464077961208211
110,0.045522742485891915,0.04742080388641535
111,0.04553187528654687,0.04590914799616887
112,0.04548445787973044,0.04545917662771109
113,0.045401478629645116,0.046245295092204666
114,0.04539226723944544,0.046535718831101955
115,0.04550756711930242,0.04563260124834536
116,0.0452398694964899,0.04583657857760898
117,0.04508565052536407,0.04575134341237563
118,0.04524355066570647,0.045855378277285516
119,0.04514987568510189,0.04572390964250115
120,0.04496222038487927,0.04465733827750381
121,0.0450052790746754,0.045696117386924424
122,0.0449350203262866,0.04463812828285818
123,0.04488065370594966,0.045205637912448526
124,0.044900403966413635,0.044506238702287156
125,0.044870086603081706,0.046329225178244095
126,0.044763565197182935,0.0459699195571632
127,0.04473614900697045,0.04466495823956305
128,0.04467550710941487,0.04584131043210219
129,0.04471625658463457,0.04501721482751683
130,0.04454043518949905,0.04407334035590624
131,0.044556410479562714,0.045993467255798226
132,0.044542475712194274,0.04675170182442251
133,0.04455930930981321,0.048459586512214194
134,0.04446335538561712,0.04510590496193387
135,0.044419384379617226,0.04540147079760324
136,0.04432754891808664,0.045246508276603065
137,0.0443343445944141,0.044666822818535436
138,0.04418609279324891,0.044777304551589577
139,0.04440606164789828,0.04426549000124778
140,0.04422049209194202,0.04388547988224858
141,0.04419811949065048,0.04345748113750228
142,0.044060178781501015,0.04462277328516946
143,0.04417899528259756,0.044225228461379155
144,0.04410214520329909,0.0455740529812743
145,0.04410286907289202,0.044353425985308496
146,0.04411171637319204,0.044159594468458116
147,0.043906054491077685,0.044248460847006246
148,0.04401033175929366,0.04345791249099204
149,0.04402129543526547,0.04476549319608632
150,0.04402637776844301,0.044430448941276325
151,0.0439399362081836,0.04510356810489304
152,0.043956602585226406,0.04461210330315027
153,0.0439138372759074,0.04392856108232704
154,0.04394069629603278,0.04537137781752842
155,0.043970759930444456,0.044097291142044234
156,0.04388543419865616,0.04440983100135628
157,0.04392021944683589,0.0441204034143287
158,0.043801609981997905,0.04370644644790193
159,0.04378205029179342,0.04395579622767255
160,0.04370215070990273,0.04466510461296692
161,0.04375887667669464,0.04468317195292442
