epoch,loss,val_loss
0,0.45668313053704324,0.4491797968560354
1,0.4489030023279416,0.44773703405342385
2,0.4480530260432317,0.4472775739416591
3,0.4474929169689473,0.44743563136451003
4,0.44710583002267756,0.4521429034823519
5,0.4468986615062342,0.4470424190200588
6,0.4467188689406462,0.4467552912738128
7,0.4464877031265201,0.446280864376584
8,0.4463746239543253,0.4463728492816092
9,0.4463593791306766,0.446170181257849
10,0.44625287082568527,0.4460006564190015
11,0.44618014640471815,0.44601778288928806
12,0.4461440183726651,0.4465210909287332
13,0.44613733986315385,0.4462026142896553
14,0.44610921705728823,0.44606175177150564
15,0.44605869658563385,0.4459922207052595
16,0.44606060370905626,0.44619266157114773
17,0.4460226116480522,0.4471481454135762
18,0.4459912127725667,0.4458217061039236
19,0.4459696530848511,0.4463257049656388
20,0.4459714721438918,0.44604898226764006
21,0.44593357172854925,0.44699398851572136
22,0.4459216176179319,0.4459963805770164
23,0.44593008279443863,0.4460627436342074
24,0.44589445924402676,0.44588053322607474
25,0.4458705265770074,0.4458382738878946
26,0.44584860889856215,0.44578349619881985
27,0.44583182438449376,0.44605700601419207
28,0.4458364354491469,0.44582184970230976
29,0.44580115850785745,0.4460071789715485
30,0.44580463960772115,0.4458365269689347
31,0.4457825674195317,0.4458116376074609
32,0.44576996986257117,0.4471593752392468
33,0.44578795878748123,0.4457058867213152
34,0.44575229759971124,0.4458865670205346
35,0.4457391435714175,0.44568059320189524
36,0.44573360813701973,0.4460403825006177
37,0.4457032567811595,0.445851717042568
38,0.4457131238240294,0.44597270505008274
39,0.44569578121876907,0.44579100105957714
40,0.44569233032076927,0.4458572762331951
41,0.44569103301397345,0.44564361942021485
42,0.44571592176715136,0.44582286207906663
43,0.44568884309447165,0.4456198085182654
44,0.44567665844133,0.44561309444697267
45,0.44567327877017465,0.44559686018278816
46,0.4456641181572382,0.445699214698659
47,0.4456704919018057,0.4459762889605302
48,0.44565527586644077,0.44572949187631344
49,0.44563341108957294,0.44592432113498376
50,0.44564124767770935,0.4457243305725732
51,0.4456169072811894,0.44578122888546134
52,0.4456396137100974,0.4456754819630985
53,0.44563881285979945,0.44628248942401216
54,0.4456389122545144,0.445618401745117
55,0.44561870628348527,0.44578086720506843
56,0.44561964251562775,0.4455658198290368
57,0.44561457595161824,0.4456012885120903
58,0.44560788475459484,0.44564688782538137
59,0.4455945546689267,0.4455951420012538
60,0.4455875501899819,0.44582287317174246
61,0.44558310982892635,0.4454823681497692
62,0.4455852405843439,0.44553258364313
63,0.4455968284570332,0.4460803031181875
64,0.44558282506472063,0.44551231126039853
65,0.44557449770083246,0.44571558030012526
66,0.4455752168285328,0.4459476142160354
67,0.44557918985544304,0.44554898098443935
68,0.44556760442496574,0.4454823248883335
69,0.44558780430781914,0.4458264216595785
70,0.44556626792405946,0.44554575079723857
71,0.44556820982928197,0.44595504968101274
72,0.4455657761204645,0.44554687521002134
73,0.4455631024832509,0.4455636430023326
74,0.445578272006152,0.44609826712986966
75,0.44554601760589985,0.4459668628483197
76,0.4455785850092227,0.4455487337656707
77,0.445556559161138,0.4456842711782337
78,0.44555316072770484,0.44583949545772733
79,0.44556696221353304,0.44550796293147443
80,0.445554365801951,0.44562528794515816
81,0.4455541818133039,0.4456630605769808
82,0.4455552680328388,0.4454793542549569
83,0.44555670393792596,0.44561870206082727
84,0.44555343299095623,0.4459693359382099
85,0.4455566581989082,0.4456397806592378
86,0.445562332425649,0.4455760796963429
87,0.44553502722242505,0.44560487464107296
88,0.4455574118129926,0.4457911847542888
89,0.44553135785057735,0.44563146104883616
90,0.4455307098692611,0.4455008564900524
91,0.44555870243880824,0.4454923244031428
92,0.4455234255294664,0.4455426538256794
93,0.44552228648329273,0.44562288028726504
94,0.4455445430364003,0.4456471069131241
95,0.44553099023062237,0.4458979008363435
96,0.4455213212976069,0.4455212773667376
97,0.44553321001121426,0.44549197588605854
98,0.44553260528016286,0.44552438658461085
99,0.4455477303466809,0.44554128580294533
100,0.44552267538977564,0.44571526540124384
101,0.44552268464194117,0.4455782995922098
102,0.4455215935458706,0.44550346779468336
