epoch,loss,val_loss
0,0.5652901379347204,0.5603462214209601
1,0.5590675800474335,0.5581705630860908
2,0.5583524328189644,0.5579908507633445
3,0.5579952948323216,0.5577208937249764
4,0.557863797281783,0.5574078770784231
5,0.55759098498231,0.5571983731709994
6,0.5574568161243617,0.5576426154922315
7,0.5573196652064598,0.5570626240806011
8,0.5571294434080589,0.5569152906278226
9,0.5570616933560211,0.5568407064040305
10,0.5569791276217867,0.5569123055739675
11,0.5569002623664442,0.557746991034477
12,0.5568612031037634,0.5570695172468427
13,0.5568431086076139,0.5565960228295244
14,0.5567843569495506,0.5568899661080713
15,0.556754411764072,0.556592545615828
16,0.5567366225578315,0.5566136884630171
17,0.5567030132308304,0.5567253965893691
18,0.5566974200991744,0.5567324550512707
19,0.5566612904969589,0.5567732772223707
20,0.5566590797768473,0.5565764690451231
21,0.5566433855514838,0.5566008767478223
22,0.5566374880410154,0.5566621563866476
23,0.5566459835846456,0.5566889597819402
24,0.556606905954101,0.5565229944496534
25,0.5566109226300288,0.5567454796275193
26,0.5565892264288945,0.5565266657703863
27,0.556578226686368,0.5567048199123543
28,0.5565589663171823,0.5565314472756966
29,0.5565707700728133,0.5565016259330674
30,0.55654547350928,0.5566040934463292
31,0.5565452388991633,0.5564686590921198
32,0.5565301696828624,0.5564959377568058
33,0.5565290593464841,0.5567173357045384
34,0.5565357324509448,0.5566751424195453
35,0.5565354457608152,0.5566881397817626
36,0.5565271818439537,0.5564926628735166
37,0.556514134357158,0.5565286248256788
38,0.5565218216343221,0.556496699246816
39,0.5565072139400806,0.5564675280237317
40,0.5565236250643105,0.556608982299161
41,0.5565056090723397,0.5567576624619458
42,0.5564990239009208,0.5564595235784355
43,0.5565067571218035,0.5565497859240169
44,0.5564925407028961,0.556461943881979
45,0.5564865461791849,0.5564561512866624
46,0.5564739871119114,0.5566724407170014
47,0.5564869428256498,0.5566337146475061
48,0.5564793768308156,0.5565336555168587
49,0.556473660487356,0.5565905608551083
50,0.5564809975192943,0.5571689317894929
51,0.5564745753087301,0.5565227712058548
52,0.5564683894429158,0.5565590351450236
53,0.5564627058239925,0.5564802791877065
54,0.5564649136664589,0.556604237710276
55,0.5564697190230382,0.5565121983180271
56,0.5564736516516917,0.5568750971008471
57,0.5564467675935688,0.556715074011469
58,0.5564640059611037,0.5567187024405221
59,0.5564577014271359,0.5566234568804133
60,0.5564579780447189,0.5565149891465236
61,0.5564535918824687,0.5566165974063259
62,0.5564498739617972,0.5565121020927618
63,0.5564463406442701,0.5567774380998635
64,0.5564356364945879,0.556413896918001
65,0.5564566324490182,0.5567713404411714
66,0.5564428630913723,0.556442287897058
67,0.5564323016564812,0.5565917292540482
68,0.556435909145154,0.5564224984746418
69,0.5564346168324292,0.5564176759116407
70,0.5564265189702066,0.5564164858597975
71,0.556449022219856,0.5566680323101451
72,0.5564286334477606,0.5564011836170263
73,0.5564337847520299,0.5565191893068792
74,0.5564431356228252,0.556432646498195
75,0.5564292249726454,0.5564298196111068
76,0.5564207164062511,0.5567417771881331
77,0.556423647716156,0.5565478188524176
78,0.5564272179879162,0.5564041841710472
79,0.5564154837138473,0.5563906773444145
80,0.5564190016894556,0.5569081249663019
81,0.5564239401781415,0.5565075091629407
82,0.5564231558462996,0.557050016677705
83,0.5564226710506541,0.5563940579482994
84,0.5564350311021041,0.5563980351902416
85,0.5564078875810444,0.5564066021673141
86,0.5564211142935427,0.5566959237638242
87,0.5564057636217759,0.5571407512458915
88,0.5564371937541828,0.5564876295200945
89,0.5564139226394794,0.5565110900857608
90,0.556406864015764,0.5564705803731534
91,0.5564095674584554,0.5564252798669688
92,0.5564063929717598,0.5567370554649504
93,0.5564041038381847,0.5566924125917496
94,0.5564047631336633,0.5563714449518076
95,0.556401144240113,0.556409785676535
96,0.5564092314200246,0.5566329352021513
97,0.5564104714342311,0.5564125581059799
98,0.5563987396512815,0.5569166882458159
99,0.5564102459122036,0.5564724505095565
100,0.5564068392836345,0.5565017574182515
101,0.5564165888195061,0.5563831107787991
102,0.5564010495199937,0.556409009248388
103,0.556406463091484,0.5564190472030166
104,0.5564132799030816,0.5565776547486374
105,0.5563969086083633,0.5564022501999923
106,0.5563984941340379,0.556388442273767
107,0.5564036362247942,0.5564344711398368
108,0.556397668492054,0.5564304725703767
109,0.5564115353109971,0.5564441858982626
110,0.5564050237293574,0.5563984743123019
111,0.5563882785916188,0.5564313764016031
112,0.5564049174789368,0.5565032281295833
113,0.5564113328708704,0.5564367693056244
114,0.5564087400329311,0.5563801144843658
