epoch,loss,val_loss
0,0.10549041680357925,0.08536634970613508
1,0.07854279951556767,0.07470986559506386
2,0.07454617690214176,0.0731219875993711
3,0.07307138253563969,0.0727020153706482
4,0.07173387903728373,0.07069044059914335
5,0.07074591008171104,0.07144829816099432
6,0.07008673776547496,0.07017018204143562
7,0.0695996172634946,0.07025115374226132
8,0.06787884374127094,0.07020901954795232
9,0.06666309658376192,0.0675187561929078
10,0.06576269859455051,0.06751295891278435
11,0.06496912492943631,0.06535761249309438
12,0.06407024216942836,0.06301619198274967
13,0.06346807866050919,0.06437640810389969
14,0.06296374712743956,0.0634631065961445
15,0.062475943392102544,0.062033321689952986
16,0.061834250106295126,0.06234945794636795
17,0.06128749387364567,0.06196549550327415
18,0.060546787453779866,0.060199743917872826
19,0.059678516720708584,0.059936407138189075
20,0.058731182577970165,0.058154995813411166
21,0.057999941292729694,0.05762957455798355
22,0.057280982568207496,0.05700909363535734
23,0.05673109492948004,0.056242602593993433
24,0.056376996598734,0.0559638381669894
25,0.05599291493024375,0.05539193481724552
26,0.0558529438431976,0.05664495028389003
27,0.055597550157114005,0.05518360528216764
28,0.05522817520337977,0.055076663379116035
29,0.055248841076363193,0.05527867892983534
30,0.0551957810665079,0.055144963781384025
31,0.05508828679661793,0.05559410125978531
32,0.05496686326118944,0.0549497086083327
33,0.05473385298233253,0.05454667158997976
34,0.054458430757866716,0.05512590995867258
35,0.054283051101029614,0.05609793577611299
36,0.054116266044080936,0.054244523166353
37,0.05397514867750409,0.054017844925595276
38,0.05394605298595447,0.05485766501195969
39,0.05382094072295517,0.0531301068276093
40,0.053807784586961845,0.0540751595096316
41,0.05367959746601739,0.05437443534064825
42,0.053636278771606004,0.05347969104575164
43,0.05352711877755857,0.053762844722560856
44,0.053577957133552276,0.053870298628401814
45,0.05341831142667603,0.053545520160689246
46,0.05339720876898854,0.05318609284001308
47,0.053314780324971216,0.05347201804221416
48,0.053288371055962125,0.053576095803425865
49,0.05316235211411952,0.05302413793340806
50,0.05314505037346128,0.053341426210427104
51,0.052959494979657476,0.05309905132865787
52,0.052862455605921406,0.05306637029050302
53,0.05275435684552331,0.053587521496171096
54,0.05265167371972156,0.05425871816780372
55,0.05259555767195598,0.052517123671974204
56,0.05251598427117599,0.05253298522040211
57,0.05248733530844617,0.05206053112044228
58,0.0523717570597092,0.05173782362942364
59,0.05236377290090343,0.05246341691789201
60,0.052195501271103575,0.052350230544583674
61,0.05196897024647567,0.05217709777040162
62,0.051869436290841675,0.052707720623714455
63,0.05184623419465838,0.0519247198962692
64,0.051723439413203946,0.05129092569386693
65,0.05163244665734152,0.05149399608595495
66,0.05155621289626529,0.05157053835375729
67,0.0514381431887983,0.05159127680080996
68,0.051324987154715736,0.051073569253493774
69,0.051370585718901504,0.05323188065484203
70,0.05124384661298626,0.05118149128504486
71,0.051116022552570015,0.0523364406605956
72,0.051015195380559354,0.05115525149012322
73,0.0510341256803771,0.05087036654427093
74,0.05081088596996627,0.05139054013208184
75,0.0507256415732391,0.050736948672136656
76,0.050655163162090504,0.05100566783998504
77,0.05047284021255382,0.05031399331413783
78,0.05038880592819503,0.050500730952021504
79,0.050112649203666114,0.049976276560101854
80,0.04987126317494105,0.04987277612644744
81,0.0498352583671157,0.04980666363616439
82,0.04968069137693567,0.04952414897143397
83,0.04957886817637854,0.0494348173013544
84,0.04957418192385423,0.04987739622777804
85,0.04947111274000338,0.049721472004137325
86,0.049418523161775106,0.05042038243402618
87,0.049428104564001867,0.04941346862032159
88,0.04930331691749726,0.04893159199293435
89,0.04934461030985002,0.049953782453060744
90,0.04923365336899569,0.04901830372828112
91,0.04904544039186386,0.049223757446477785
92,0.04907224692099684,0.050257179333317664
93,0.04909526205608065,0.0497707159547297
94,0.04902364497290945,0.049386314541175404
95,0.04899220141124535,0.04903601482325689
96,0.048961452474331445,0.048703273929304285
97,0.04901492840298081,0.04895728640165873
98,0.04888749830149189,0.04865638559901389
99,0.04886821299429264,0.050494916718591826
100,0.04889160879738737,0.048581869473158575
101,0.04879649197428464,0.04899633660653684
102,0.0488448169809752,0.04866853059262555
103,0.048720735371715486,0.048765153761389235
104,0.0487575085636437,0.04867650219435728
105,0.04874924321584796,0.04905172020344817
106,0.04869816462134998,0.04893470118492472
107,0.04865369200107465,0.0483698680719578
108,0.04864493021317391,0.049377564941683126
109,0.04852618883758181,0.04898244851908968
110,0.04859554508345477,0.04847632910751232
111,0.04851668162281956,0.04975954258708149
112,0.048551503768510536,0.04824497678661465
113,0.048485232212660205,0.04914717942143492
114,0.04847086956825716,0.04818548554596179
115,0.04842739858393794,0.04922302917718296
116,0.04849396374567305,0.048914189557209796
117,0.04843373139369767,0.04835033720132731
118,0.0483980239044508,0.048020624188202486
119,0.04839677163183013,0.04848781488003861
120,0.04833115314799865,0.04870705661680503
121,0.048378106357420285,0.04841730855682647
122,0.048259948924176156,0.04887029907802494
123,0.04822626656381547,0.04930448484221108
124,0.04819378714890025,0.04804237753374701
125,0.04815135703756481,0.04923120605442719
126,0.04812940948895795,0.04852774032477114
127,0.048130499873899925,0.04856634464660294
128,0.04800557549206956,0.04916278521712897
129,0.0479739601965983,0.04819762191686677
130,0.047907226494380346,0.04877289715534996
131,0.04789682578677706,0.04884520835305562
132,0.047859660319280815,0.04903947122709331
133,0.04788475882290241,0.048329800406179714
134,0.04791360130110493,0.047980323204627404
135,0.04776875575780876,0.04805519760172657
136,0.04778735411715814,0.04831798294970475
137,0.04780030092034297,0.04872775942678783
138,0.047703739392873534,0.04781247495532628
139,0.04772934718631509,0.04809710809928608
140,0.04772723696727455,0.048004884363403985
141,0.047713390849992654,0.048689514790516045
142,0.047640133901535806,0.047416728564882396
143,0.04765303075989298,0.04843866582543915
144,0.047754783948844685,0.04978759594021305
145,0.047540240198698396,0.048283046757612864
146,0.047523611593804714,0.04804779835063826
147,0.0474093596395976,0.04765590396582636
148,0.04733935523783081,0.04780376179712286
149,0.047289056613447934,0.0479321401390633
150,0.047304341320051325,0.04713904244950037
151,0.04731530318388764,0.047342811070068304
152,0.047196089906366784,0.04735904179568918
153,0.04724307749533552,0.04752931208638636
154,0.04720563608159848,0.04737569270077769
155,0.04726035153476449,0.047221251835968
156,0.04709097230019967,0.047209733389965064
157,0.047175754813978524,0.04887720751703229
158,0.04709743114101025,0.04863226279135673
159,0.04712177926067556,0.04712835902870441
160,0.047120046412171664,0.04726947119491864
161,0.0470497244323527,0.046894274574355514
162,0.046998514593857614,0.04692269418545751
163,0.04705337112765861,0.047382951392873046
164,0.047037000125891446,0.04689734807935897
165,0.04701707053200049,0.046943193163824434
166,0.04699995362300012,0.04802545972593665
167,0.04691678651383304,0.04709269769545229
168,0.04692745700934496,0.04770728552866515
169,0.046955452648025336,0.047282763063981575
170,0.04690929523152711,0.04799701777788309
171,0.04687412627538992,0.046984510245749136
172,0.04696579584270963,0.04744800433294649
173,0.04684166022928788,0.047422003420647556
174,0.046802468322735824,0.047018596611306925
175,0.04679379931529983,0.048062308875857745
176,0.04676013352876116,0.04732716501350734
177,0.04662146634937557,0.04838953516249621
178,0.046790717788798605,0.04710031442769408
179,0.04668083711798953,0.04747095006164487
180,0.04663280906107562,0.04765992799112874
181,0.046646754800649386,0.046748475763697186
182,0.04667010713773471,0.04717463648903459
183,0.04662654854860022,0.04760839775500463
184,0.04663344516071703,0.047488970168988696
185,0.046529263306148164,0.04739297593830537
186,0.046498311034502554,0.04674818050809593
187,0.04653389783119177,0.04703524102348252
188,0.04653000243424145,0.04680370825248084
189,0.04644895098956827,0.0474953839800346
190,0.04647767999972051,0.047212931301176694
191,0.04644374080045989,0.04667073838209396
192,0.04636452839012581,0.04681592661859676
193,0.04642443312261163,0.046645432401901436
194,0.04646735330569441,0.04719253271152601
195,0.046401181715621305,0.047579678669387
196,0.04642582396031893,0.04692155449621139
197,0.046364035269434355,0.046857580248608484
198,0.04636008887883538,0.046784986529693415
199,0.04634769154845106,0.04672868710852438
200,0.0463083305901569,0.04735713109706827
201,0.046348565764648984,0.04695943857429933
202,0.04635245340261156,0.047525286741055564
203,0.04626867081685259,0.04752650576789237
204,0.046285028849002915,0.04680798026009766
205,0.04623529519291446,0.047367086198652354
206,0.04630174030831473,0.04669969482324259
207,0.046249114080143996,0.046893508016841286
208,0.046193529469288556,0.04671354298999824
209,0.04625028431056838,0.04807439398381018
210,0.046188462767579194,0.04777371817575791
211,0.046197602238984156,0.04663638125171436
212,0.04616374087655363,0.04814338827547305
213,0.04618640589831842,0.04608065255966139
214,0.04610104792618639,0.046550429691895656
215,0.04615399884731885,0.045961254491255835
216,0.04615500022897648,0.04617348069662491
217,0.04612085279628732,0.0464022315816755
218,0.04610968731455464,0.04837615988390617
219,0.0461717010139642,0.04689276350971783
220,0.046193997746379355,0.046890828412756436
221,0.04610898790415654,0.04692113551290396
222,0.04606465592560728,0.04654286780923827
223,0.04612184459466881,0.046422150267043126
224,0.04605740662220706,0.046720991531391594
225,0.046087734386682025,0.04642314099644313
226,0.04604904556263647,0.04676741528747691
227,0.04608436019563918,0.04655032282505674
228,0.046065368006705645,0.045915105791009096
229,0.046062716833937596,0.046104123783540486
230,0.04604027644388445,0.04613280823967297
231,0.04612779308779155,0.04711799854343346
232,0.04594282129011411,0.04703547565021527
233,0.04601782838775271,0.046572183684512936
234,0.045988630539899364,0.04606072443627542
235,0.04604865947641141,0.0461668781011779
236,0.04598966893924128,0.046346137913928435
237,0.04601983047809895,0.046336011644036834
238,0.046009325672984415,0.04647493036856722
239,0.04600115279453467,0.04614434125220805
240,0.046018616808830425,0.0467654948605793
241,0.04592340771008833,0.04639962924362412
242,0.04594171145020455,0.046503333152079995
243,0.046076623160648957,0.0471155962710345
244,0.046054868023796276,0.04634938379818985
245,0.04595769205968163,0.04896284615616349
246,0.04584984599885699,0.04629194614091523
247,0.04595670283430969,0.047147366206714
248,0.045925334902679596,0.04938462648734857
