epoch,loss,val_loss
0,0.34816730108531013,0.3380710907372884
1,0.33819299036517714,0.3368106063926782
2,0.33711985239092995,0.33651520692680964
3,0.33658768352062396,0.3404217210508162
4,0.33625299148236404,0.33572314428928174
5,0.3360292393076175,0.33609901713969986
6,0.33582543238633217,0.33569696973038665
7,0.3357739321715627,0.33532707707461884
8,0.3355555616353592,0.3353660567078934
9,0.33551199345653937,0.3351785669995301
10,0.3353882363734535,0.33537155911881045
11,0.3353317513606577,0.33525163165984617
12,0.33525258297206245,0.33574411681213095
13,0.335227915808998,0.3349551128542453
14,0.33516216184323944,0.33658438011375313
15,0.33515636368291724,0.33508269962838505
16,0.33510839802531833,0.33634754871907957
17,0.33510441458350987,0.3349161049272523
18,0.33502745253860766,0.335039172145924
19,0.3350557481719907,0.3352805092524062
20,0.3349865610911799,0.33562306792801133
21,0.3349987140752373,0.33493626042276103
22,0.3349490756913492,0.3352379186721357
23,0.33494353758834583,0.3349255155392971
24,0.33490301960293445,0.33521804939724376
25,0.3349508475745217,0.3348566479925482
26,0.3348892468687095,0.3350753162102427
27,0.3348586711046472,0.3348909327173351
28,0.3348591335918379,0.33477377254081425
29,0.33484808934441523,0.3348268377869656
30,0.3348388626111134,0.33471630095843935
31,0.33483502997313447,0.3347682450900303
32,0.3348222627092608,0.33485980788176467
33,0.3348150381602743,0.33527700593394616
34,0.3347990143869583,0.335029716290552
35,0.33479445197485974,0.3348366065741177
36,0.33479743191641537,0.3348592233421193
37,0.33477597887590077,0.33477573064953164
38,0.3347964465300236,0.3349295866400669
39,0.3347866094610462,0.33470033454540055
40,0.33475197130925294,0.3349080532863182
41,0.3347743183472614,0.3354583573104726
42,0.3347420624557296,0.33476469107064655
43,0.3347629565566676,0.3347627178610998
44,0.33475388521068133,0.33478691296896923
45,0.3347251799242403,0.33471688795326365
46,0.33476033211038375,0.335259920181175
47,0.33471318945061673,0.33499009044235456
48,0.3347407932556701,0.33466148888206954
49,0.3347057455005149,0.3347878119342085
50,0.33470636971838286,0.3347013261270878
51,0.33471689903179674,0.3350563673316397
52,0.3346905981835209,0.33461406390661047
53,0.33469700586623685,0.334661124761288
54,0.3346932129560107,0.33626303990780565
55,0.3346947552428582,0.3347914218163076
56,0.33467644584388595,0.3346325975937524
57,0.33467905375396506,0.3346635832088461
58,0.33467980070836767,0.3349268750132757
59,0.3346648292815164,0.33459933959224974
60,0.3346640813327959,0.3346588882116171
61,0.3346385836784265,0.33465900061739884
62,0.3346689509847866,0.33455074593683626
63,0.33465409540760577,0.3346347488185608
64,0.3346299182701176,0.33459185332281716
65,0.3346308039801828,0.33484748952442006
66,0.33463235630526317,0.3351774725369721
67,0.33464836904681733,0.3345610436671425
68,0.3346348677459966,0.33470029869387224
69,0.33464609146602503,0.3345450721958435
70,0.33460186103677625,0.335559106509088
71,0.33463912220746883,0.33465863464783796
72,0.33463309976712907,0.33456366409734817
73,0.3346146851810767,0.33486243579582897
74,0.3346374268583767,0.33457782488898663
75,0.33460544179127377,0.33453687836159546
76,0.33462441044036706,0.33484939895847593
77,0.3346041519866282,0.3351324499688728
78,0.33461953464892674,0.3353130301529953
79,0.33461840878486054,0.3345899184347678
80,0.33461734775379215,0.3346263586143702
81,0.33460080971342165,0.3361084885100277
82,0.3345996367223945,0.33485627983403266
83,0.3345953140927589,0.33474797285520114
84,0.3346148932360822,0.33471478776955427
85,0.3345823947759463,0.33457276878818387
86,0.33460608092824873,0.3345863123241784
87,0.334601388758256,0.33460823489773656
88,0.33458856818182536,0.3351332143429787
89,0.33459151098219575,0.3357754338024272
90,0.3345871497078685,0.33463261424755636
91,0.33459614263092535,0.33500666862386036
92,0.33460452950085484,0.33455658322824144
93,0.3345756228072576,0.3358538540362129
94,0.33458448984083367,0.3347503419845335
95,0.33456996649717086,0.3345422439184733
