epoch,loss,val_loss
0,0.34771781593268913,0.3417034433881935
1,0.3376776461496438,0.33825749064201754
2,0.3367802761807194,0.33835523206897766
3,0.33642755237037564,0.33572458481374506
4,0.3360596419235038,0.33684847338619656
5,0.3359235196442307,0.3358573296081931
6,0.3357599405469887,0.3367048513504767
7,0.33563989677190154,0.3369924737117427
8,0.3355243788948461,0.33535049468944444
9,0.3354635924616375,0.33533021684911646
10,0.33540448376338255,0.33712236150618524
11,0.33528640154914363,0.33529889290741005
12,0.33519237819155406,0.3351335939343455
13,0.335193923065758,0.3351558946498274
14,0.33510952901085145,0.3350856408587756
15,0.3350636376893135,0.33496708248744234
16,0.33505243538715285,0.33557860216786783
17,0.3350017823529258,0.3351031441990258
18,0.3349678808881478,0.3351937288977668
19,0.3349727601634476,0.33492904049587013
20,0.3349444000867479,0.33502784924530804
21,0.33491355060838474,0.33487143924750995
22,0.334919280077945,0.33543053198393163
23,0.33488199993672396,0.3353943867659746
24,0.33487189630220104,0.3347519786718761
25,0.3348601163254006,0.33546706724995123
26,0.3348484012206449,0.33477772665082967
27,0.3348324237878281,0.3348896655196292
28,0.33484458302689846,0.33475191270743054
29,0.334774849472757,0.3348084248916683
30,0.334822186936794,0.3350442102026407
31,0.33480216483214353,0.3347338109542951
32,0.3347739344360328,0.33469776068964313
33,0.3347869976623168,0.33557703555665597
34,0.3347695132052434,0.33477631683089304
35,0.33473407980383213,0.3351371697249543
36,0.3347541932607,0.3349614673305682
37,0.334745169725983,0.33494934133501264
38,0.33476924787263623,0.33472060053875075
39,0.33473318133565466,0.3355096504942655
40,0.3347363507048275,0.3347883223304086
41,0.3347189814947598,0.33470688985831687
42,0.3347201305440634,0.3346926675245129
43,0.33470096770559166,0.3346802505902558
44,0.3347188826474916,0.33551823116709517
45,0.33471216692580064,0.3347059846220182
46,0.3346861468514433,0.3347137358585007
47,0.33470584978872536,0.33477716966539106
48,0.3347140864014832,0.33555731875429085
49,0.3346952274764153,0.3346871114250448
50,0.3346729000530135,0.33457053243078605
51,0.33469671713895843,0.3346505050179976
52,0.3346889739890956,0.3347592058755624
53,0.33467177820487143,0.3345892462629834
54,0.33468621231787016,0.3346769008683803
55,0.3346763996063288,0.33467773913449744
56,0.3346578706887058,0.33485945081592494
57,0.3346879604277339,0.33471511145383487
58,0.3346486552498456,0.3349720650955702
59,0.3346631034288337,0.3346480992680448
60,0.334666194320648,0.3346091471298161
61,0.3346410484023897,0.3345578205644641
62,0.3346393048965215,0.33463164056205275
63,0.3346576547568567,0.3346103365160987
64,0.3346305493290978,0.3347810742724918
65,0.33463338233484274,0.33497322586274914
66,0.33465245192396537,0.3349368886971296
67,0.3346454047895321,0.33463646200099595
68,0.33463581162464484,0.3345379089599212
69,0.3346094288822013,0.33459244755006606
70,0.3346240282207804,0.3353080633112574
71,0.3346279767064577,0.33456220558795974
72,0.33461968747176196,0.33477156236213135
73,0.3346549707240711,0.3348745393398086
74,0.3346239092276298,0.33461191926345635
75,0.334629943057465,0.3347044101276114
76,0.3346136596117783,0.3345856638759301
77,0.3346172580596915,0.33459314746833024
78,0.3346139460206907,0.3345183123873718
79,0.33463274188801867,0.3345468248829948
80,0.3346077780821797,0.33515079034765066
81,0.3346230956026542,0.3354589917375787
82,0.33462362657708916,0.3348179974863606
83,0.3346100146375969,0.3346336218470675
84,0.33461957246968743,0.3345468357538171
85,0.3346102138809973,0.3346203876488262
86,0.3346129655542202,0.33463782490630894
87,0.33459182535230564,0.3347082585466115
88,0.3345979945320378,0.33453090140600655
89,0.3346059171698887,0.3345552613362485
90,0.33458427787205725,0.33457440772364216
91,0.33460274953968755,0.33454732803198006
92,0.33458853200458816,0.33530340709402306
93,0.33458453305796776,0.33487996154328437
94,0.3345955664112791,0.3347206550703451
95,0.3346009943161714,0.3345842322256074
96,0.33456267269262147,0.3345076296081022
97,0.33460186191631963,0.3346472434754999
98,0.33458303220116414,0.3345764207780805
99,0.33456463705775386,0.3346236939613636
100,0.33457052447319385,0.33459940224368284
101,0.33456663867608505,0.33561231464369423
102,0.3345781527191913,0.3345679750513498
103,0.33458232316139275,0.3350564823848734
104,0.3346041239784955,0.33496225090239834
105,0.33456303339573673,0.3346421904214854
106,0.33456810519756525,0.33453048673220365
107,0.33457564519380645,0.3357061688864497
108,0.33458585492019544,0.33476330844995106
109,0.3345663513024358,0.33482917758726305
110,0.3345636023380488,0.334824481451186
111,0.33456685354183285,0.33457121779545956
112,0.33456861872588217,0.3344804960799868
113,0.33455133132991616,0.3345859176911432
114,0.33455687446643206,0.334698481092382
115,0.33457211451372626,0.33484544348775896
116,0.3345773612370166,0.334538979373558
117,0.334562571558146,0.3348737595986492
118,0.3345644074752334,0.33458478110599754
119,0.3345496649860356,0.3357032034148649
120,0.3345682263927297,0.3345449524097348
121,0.3345638957848861,0.33448950847975967
122,0.33456959909651013,0.3351815244843883
123,0.3345741930854,0.33455592847935317
124,0.3345645694954106,0.33454438424287897
125,0.33455482174505163,0.33477798448898655
126,0.33455531544696154,0.3347597248057278
127,0.3345655381511515,0.3345413323519543
128,0.3345588248160601,0.33458859639487254
129,0.3345509633100253,0.3345021880294194
130,0.3345465696345813,0.3356559068038505
131,0.33455987100769313,0.33456896516880386
132,0.33454092901507554,0.3346050615937775
