epoch,loss,val_loss
0,0.5664570668292676,0.5666954962550559
1,0.5597468359731532,0.5586794791091465
2,0.5585704918354886,0.5578035506066259
3,0.5581912977038435,0.5581047291199563
4,0.5578864224763781,0.5579704353294657
5,0.557690307385373,0.5574879110598978
6,0.5574930679641781,0.5574118552077792
7,0.5573276221461089,0.5575039882517926
8,0.5571563802711278,0.5577308421986866
9,0.5570990301508808,0.557034454659256
10,0.55700768616568,0.5567284580199949
11,0.5569512755358301,0.5567439743366194
12,0.5569278489494066,0.5577510186223771
13,0.5568734257350368,0.5567908416610794
14,0.5568112082373852,0.5566853582119528
15,0.5568059484771318,0.5571963411111098
16,0.5567856182266201,0.5566849372818807
17,0.5567666571972124,0.5566185692995417
18,0.556736795122669,0.5566052436237003
19,0.5567034401919615,0.5577074210046243
20,0.5567110795367712,0.5567110649113619
21,0.5566973719924889,0.556690600965514
22,0.5566815685436116,0.556650402676083
23,0.5566526167594135,0.5566108156374607
24,0.5566568725110141,0.5569042259351196
25,0.5566460319800421,0.5566149312864166
26,0.5566460887717256,0.5566377534464039
27,0.5566292055480396,0.5565473839899446
28,0.5566287874115291,0.5566930609956273
29,0.5566065903352762,0.5566303649847916
30,0.5565876314491146,0.5565684365575426
31,0.5565792160622582,0.5566063568254854
32,0.5565850096493492,0.5565256040977781
33,0.5565841432446701,0.5567085239195054
34,0.5565769296217424,0.5566862694974573
35,0.5565695019771132,0.5565531249673432
36,0.556558193854049,0.5567355024015933
37,0.5565523927060401,0.5573849055074876
38,0.5565459178822152,0.5568669977614069
39,0.5565429080665538,0.5565714380581385
40,0.5565312054876006,0.5567642592023088
41,0.5565417729578159,0.5564743649575018
42,0.556514360813158,0.556508775118267
43,0.5565217860203082,0.5565163372172316
44,0.5565215109527727,0.556666505750888
45,0.5565140397214433,0.55653720117976
46,0.5565144796698414,0.5567972829856589
47,0.5565115504479645,0.5564870756849758
48,0.5565147867874651,0.5565431897161025
49,0.5565119262023155,0.5567320696769222
50,0.5564970191888056,0.5568012553468236
51,0.5564938699666984,0.5564922217104039
52,0.5564918039847221,0.5565028598823263
53,0.5564884639584926,0.5564997681613004
54,0.5565094240322851,0.5564684613466855
55,0.5564911830113044,0.5565445634922378
56,0.5564851709432662,0.5564970559281096
57,0.556475589520875,0.5564950393388053
58,0.5564810409395516,0.5565828417430149
59,0.5564813853009083,0.5564160058575292
60,0.5564796103846915,0.5564648100815104
61,0.5564732133061926,0.5564852136536212
62,0.5564844959840267,0.556447154120831
63,0.5564737108264252,0.5566180934089585
64,0.5564707905230396,0.5564949897619395
65,0.556478005964216,0.556514499915149
66,0.5564687327306773,0.5565370488403453
67,0.5564642897877872,0.5564883812781303
68,0.5564589370893773,0.5564512960076627
69,0.5564651765639536,0.5564720152329571
70,0.5564660503386543,0.5566008866868599
71,0.5564589281913956,0.556516553894166
72,0.5564587613873702,0.5564656592184497
73,0.5564723096364822,0.5564978396922128
74,0.5564650234484632,0.556442893172612
75,0.5564524586613966,0.5564562090573181
76,0.556474258786697,0.5564175315589526
77,0.5564714939834293,0.5564228564278956
78,0.5564443802280116,0.5565482180112644
79,0.5564501652618388,0.5564867892868761
