epoch,loss,val_loss
0,0.5653217961922877,0.5603662541427328
1,0.5590516960024052,0.5612047686470354
2,0.55853698320398,0.5586934049431207
3,0.5581382763649083,0.5588889195960449
4,0.5578014997717131,0.5627956232716961
5,0.5576163963321733,0.5574870987506422
6,0.5574035146465148,0.5574221232984558
7,0.5573234340191688,0.5570817981405235
8,0.5571946585962944,0.5570095143602148
9,0.5571504855191916,0.5569229637127064
10,0.5570949553911689,0.5570975921290092
11,0.5570219343712072,0.5574385956262536
12,0.5569717699754021,0.5568350049461384
13,0.5569558869077319,0.5571139033024127
14,0.556928923726989,0.5568037627648479
15,0.5569226705985861,0.5568335753220778
16,0.5568780316734903,0.5594754687609803
17,0.5568756558595325,0.557319296885365
18,0.5568555042943761,0.5568434339599041
19,0.5568079894445782,0.5569908114284203
20,0.556826581677888,0.5569520224412676
21,0.5568119421867722,0.5567441140155934
22,0.5567931601235427,0.5569247774095748
23,0.556795257646813,0.557506232462805
24,0.5567838432102221,0.5569347313852523
25,0.5567729773499778,0.5579410560077828
26,0.5567753186740018,0.5567273439603763
27,0.5567516552348231,0.5568408424150263
28,0.5567580747034205,0.5567409239690889
29,0.5567328057543947,0.5568279788452698
30,0.556714225979048,0.5566350125497387
31,0.5567419011387359,0.5566510641545279
32,0.5567230692870393,0.5568832703027181
33,0.5567167131684427,0.5567267772873341
34,0.5567274250565293,0.5566555495001838
35,0.5566984995584519,0.5567669066542728
36,0.5567074267654178,0.5567434467985376
37,0.5566894792863283,0.5571485749545227
38,0.5566876975301824,0.5566629987200792
39,0.556712617309944,0.5566342980039327
40,0.5566795658327535,0.5568154685254724
41,0.5566850296683742,0.5566089947821189
42,0.5566694068635126,0.5568934085942971
43,0.5566678677422324,0.5567322609146534
44,0.5566774576539923,0.5576429714635939
45,0.5566737285335387,0.5567294070205973
46,0.5566632419189987,0.5565939471088627
47,0.5566513430393685,0.5566160619110978
48,0.556674700983543,0.5566255874728446
49,0.5566564656066278,0.5566994344626112
50,0.5566523530107732,0.5568413125374181
51,0.5566646678631584,0.5568027123032373
52,0.5566543260601149,0.5565882731312262
53,0.5566593416472876,0.5566477042865516
54,0.5566364791818584,0.5565769606133548
55,0.5566350916504751,0.5569163625944341
56,0.5566443871707759,0.5567073106174137
57,0.5566466530457527,0.5566624389688667
58,0.5566288551844895,0.5572079305317502
59,0.5566247539177849,0.5566154364025031
60,0.5566408587613376,0.5565384054893892
61,0.5566454208685541,0.5567845407549856
62,0.5566304402589543,0.5566604225866256
63,0.5566193968303352,0.5566526592517314
64,0.5566230078300821,0.556653764733014
65,0.5566163977119726,0.5566661272096279
66,0.5566187063280257,0.5568902788623686
67,0.5566102485085248,0.5569176910237107
68,0.5566025872311369,0.5570098398636943
69,0.5565996737558478,0.5565760510435175
70,0.5565927492849826,0.5565322150071856
71,0.5565958111609361,0.5566622406614034
72,0.5565987556971229,0.5566422602970607
73,0.5565960505947372,0.5566909540084101
74,0.5566070439264572,0.5566203862502617
75,0.5565942360588371,0.5566708872986786
76,0.5565832585825631,0.556695084299698
77,0.5565869902556646,0.5566055248747984
78,0.5565989567299802,0.5565100175867009
79,0.5565939727148657,0.5565588139422774
80,0.5565923732001127,0.556605280125999
81,0.5565549513332909,0.5566385929401104
82,0.5565728743413533,0.5566284369889914
83,0.5565663277641411,0.5567120936313279
84,0.5565816519730895,0.5565434890112865
85,0.5565707366761954,0.5565969859104298
86,0.556574738309959,0.5565060893891763
87,0.5565782466271552,0.5569547642549273
88,0.5565718381745429,0.5565398067753605
89,0.5565716149054087,0.5568627444153684
90,0.5565782618554829,0.5566445662425115
91,0.5565764141872223,0.5566324338723649
92,0.5565690658150904,0.5565425718688491
93,0.5565698058053236,0.5571577280981664
94,0.556577325484901,0.5566275458477863
95,0.5565694674501045,0.5565326804854438
96,0.5565692792940783,0.5566532345326899
97,0.5565571157815314,0.5567033196501341
98,0.5565625830162128,0.5569051661503226
99,0.5565655288728978,0.556513247980965
100,0.5565645746535012,0.5567260067457005
101,0.5565649765204308,0.5566578483167416
102,0.5565501678982463,0.55655311088704
103,0.5565620300255837,0.5565431677673945
104,0.5565537423547398,0.5565311415023898
105,0.5565547350508078,0.5565318542142068
106,0.5565465678758321,0.556546318323973
