epoch,loss,val_loss
0,0.5658978817709382,0.564206053335081
1,0.5600250588702343,0.5601239285161418
2,0.5109855955387079,0.4477478931027074
3,0.44766312443699363,0.4471450266855822
4,0.44720756332716943,0.44713094648593116
5,0.4470464771387208,0.44701881893811096
6,0.4468537862146957,0.4467450465960775
7,0.4466872584809381,0.4475908858308721
8,0.44655856759638335,0.44683953386086683
9,0.44643553364351196,0.44618792020653375
10,0.44633135049156725,0.44670451914997905
11,0.44630119527980167,0.4465044155901774
12,0.44621211365377056,0.44614626302316823
13,0.44619809054745896,0.44664042260747394
14,0.44613863895625105,0.446183388685766
15,0.44610827675597564,0.44621978379952404
16,0.44609896339987565,0.4463069115028192
17,0.44604194503787764,0.446040129469287
18,0.4460234091209824,0.4460262450923399
19,0.44601496470840496,0.44619269044168536
20,0.44598331397744145,0.446021904912835
21,0.44597963573048816,0.44606346261708374
22,0.4459453884347666,0.44599395852822526
23,0.4459437887322724,0.4458954806215414
24,0.4459208335101173,0.4457937727495104
25,0.4458995589419744,0.44658731924688844
26,0.4458957664809859,0.44641269807780054
27,0.4458743748550823,0.44605129140778155
28,0.4458774660509898,0.44613969450257257
29,0.44587012457282166,0.4458094186877494
30,0.44585602711117306,0.4456814917973786
31,0.4458542665188925,0.4461291704964697
32,0.44583481545917564,0.4458251863791984
33,0.44584177289280325,0.44612159751189256
34,0.4458118697814468,0.4459143167689775
35,0.4458196724302515,0.4457180411289111
36,0.44579598508366325,0.44612627394737736
37,0.445791233057784,0.4457808841694673
38,0.44578719961294716,0.44568998003124305
39,0.4457613306954199,0.44604961861747666
40,0.4457514266237729,0.4457591457195377
41,0.44574590093968564,0.4457945433798854
42,0.44577593652211067,0.44585106832809546
43,0.44576291294587983,0.4457634139889227
44,0.44573978670735676,0.44566444822635604
45,0.4457273473250361,0.4456326233541995
46,0.4457339235184073,0.4462367699548565
47,0.4457395954358537,0.44578649509633445
48,0.4457361942087856,0.44585184972576114
49,0.4457217470714451,0.4456593399456062
50,0.4457204670754833,0.44575563490242875
51,0.44571470752987724,0.4457482116985558
52,0.4457227131713827,0.4459953922491807
53,0.4457144213698401,0.4456085859250194
54,0.44568973686478297,0.4459513142298232
55,0.4457077608771641,0.4457287226362205
56,0.4456892837610977,0.44561267375354435
57,0.4456985230300623,0.44611096172119785
58,0.4456952164525133,0.44560447793740493
59,0.4456885151604615,0.4458159956239885
60,0.4456891165247943,0.4456786580180412
61,0.44570406861352313,0.4458515369418833
62,0.4456758002499297,0.4459967943929857
63,0.4456838391618405,0.4455833451032047
64,0.4456709407182099,0.4457210163472604
65,0.4456925718567972,0.4456851860577652
66,0.4456784651074859,0.4456064018511003
67,0.44567609890934345,0.44566921773678614
68,0.4456508642183359,0.445857930079879
69,0.4456775282107557,0.44576596131099955
70,0.4456584159381412,0.4457353815103583
71,0.44565934019390013,0.4458199911466603
72,0.445659058869774,0.4458751961108177
73,0.445653507757811,0.4458979610621781
74,0.4456694763660071,0.44561776490720273
75,0.44563920056213624,0.44572066929440934
76,0.44566859823934146,0.44576523067341844
77,0.4456687441500699,0.4457719408992502
78,0.44567031530013995,0.4456004850326046
79,0.4456321644172625,0.44556919016849905
80,0.44566467745612603,0.4457149581341235
81,0.4456368287116456,0.44563073338409215
82,0.4456577227782696,0.44566821095073783
83,0.44563596309145603,0.44580903698137914
84,0.44564863766171003,0.44565864023440527
85,0.44563272281885824,0.44559350608300335
86,0.4456687204031869,0.44555785654496316
87,0.4456240562265183,0.4456140796244884
88,0.4456371082344826,0.4457607672025193
89,0.44563428537740635,0.4456476830075456
90,0.44563877537665725,0.44641045962018944
91,0.44561647621696854,0.44694727981652577
92,0.4456370594770139,0.4456051422703651
93,0.44563417584269976,0.4455994424689792
94,0.4456273036021193,0.44568018423712286
95,0.4456246999331748,0.4456593934566744
96,0.44561932165227885,0.4456927991238776
97,0.4456294359915944,0.4455533425802037
98,0.44562286876956586,0.4455935939813666
99,0.4456313580988077,0.4455908290061998
100,0.44564146747521083,0.445623952032023
101,0.44562904630614364,0.4456045431919193
102,0.445615884516964,0.445680901755766
103,0.44562100504510255,0.44562264104043287
104,0.4456247389939733,0.4469106236995006
105,0.445608240066464,0.4456211569291486
106,0.4456249555202044,0.44612159668363943
107,0.4456057278041661,0.4455480124015666
108,0.44560341183702334,0.4458252600937268
109,0.44562014841006015,0.44562989764710514
110,0.44559860482351055,0.4455466431216626
111,0.4456018553063057,0.4456125799686678
112,0.4456191931036583,0.44557100188347604
113,0.4456096081910969,0.4455475148728704
114,0.4456069230377809,0.44649657061318904
115,0.4456106138440618,0.44557364877341105
116,0.44559827505034755,0.44568556314958235
117,0.44559600775587455,0.44574117302598787
118,0.4456044441752562,0.445559055470947
119,0.4456077487700856,0.4455970362753194
120,0.4456156753015923,0.4458473122297386
121,0.4455812622813565,0.44565367592179744
122,0.44558862908643054,0.4459232006711936
123,0.4455841163567017,0.44553410072184674
124,0.4455821478009197,0.4455424503416341
125,0.44559738178567504,0.4455372060498884
126,0.4455823619650049,0.4455414600466972
127,0.4455864856154974,0.44550994717453607
128,0.4455768556087853,0.4456633788332454
129,0.4455678242252281,0.4455580053051411
130,0.4455847949492837,0.44558796397509703
131,0.4455820283068632,0.44578914538802344
132,0.4455809131377292,0.446414003537843
133,0.4455775598678636,0.4455206691183464
134,0.4455645618350719,0.4455055185198488
135,0.4455622020911215,0.4456338147223735
136,0.44559072978276215,0.4456425872393341
137,0.4455558177778343,0.4455357884798689
138,0.44557563194540906,0.4456718031141362
139,0.44556422678583174,0.4463642225667797
140,0.44555707655984034,0.4455271412657745
141,0.4455505509599354,0.4455969452266362
142,0.4455606550255529,0.44614488983864226
143,0.44557770068355096,0.4455976602753102
144,0.4455599521437686,0.4455014710686639
145,0.4455589545084531,0.4459339579192935
146,0.4455839090660707,0.44556885712200006
147,0.44555423734049593,0.44554913638543253
148,0.4455565067013043,0.44558879506795046
149,0.44556236809093674,0.44565338110805447
150,0.4455395908986207,0.44560012354448475
151,0.4455759093439318,0.4459119233688705
152,0.4455579945266667,0.44560366537671525
153,0.44556651430861977,0.445574137516708
154,0.4455473506765869,0.4455089522206754
155,0.4455559072522463,0.4455059579081334
156,0.44555599848495625,0.4456277784579445
157,0.44556076207781725,0.44568495343695796
158,0.445559512083357,0.4459148913400049
159,0.445549754153565,0.445535340809053
160,0.44554762155741695,0.44586160042445655
161,0.4455505731859577,0.4456000897044284
162,0.44555459377762846,0.44599911474412485
163,0.44554956106499627,0.44553347555342737
164,0.44554736721831345,0.44575780221901223
