epoch,loss,val_loss
0,0.5653017565287168,0.5607158821806423
1,0.5590842737425323,0.558122368693056
2,0.5583728601758006,0.5577105490208856
3,0.521345040108783,0.4472150473825393
4,0.4471495034934917,0.44667251089370574
5,0.44684969133039976,0.44650200274091206
6,0.4466284400462044,0.44624556533751947
7,0.4465514437693152,0.44660905123348565
8,0.44646488104988163,0.4461318705720878
9,0.44636953003375507,0.44656393076882467
10,0.44630826315568267,0.4466987071942455
11,0.446264761488487,0.44614482406646977
12,0.44622788874072566,0.44698038305301524
13,0.4461903858565187,0.44629954706054764
14,0.4461621430414918,0.44770731761792754
15,0.44611345976167116,0.4462624359515405
16,0.4460953677463862,0.4459545745003608
17,0.44602802828492866,0.44614449971662856
18,0.4460199294414038,0.4460090090855771
19,0.44598646376316636,0.4460921697226115
20,0.44592844433445034,0.445904843209695
21,0.4459430639971871,0.44578895889795744
22,0.4459075237304638,0.4457409440139979
23,0.4458760392836881,0.44631780749810834
24,0.4458679961689008,0.44578841384823803
25,0.4458718707023323,0.4459472175567381
26,0.44583623989351806,0.44590302466162973
27,0.4458269967967648,0.4467759711422932
28,0.4458048459367706,0.44574322792199944
29,0.4457891014232174,0.4457423068305695
30,0.4457772340340018,0.4457367757709683
31,0.445776660371342,0.4457166505806499
32,0.4457628048716886,0.4458491247138078
33,0.445745627146502,0.4457321284426649
34,0.4457510305638017,0.4457125085015451
35,0.44575064190264435,0.44678832662312623
36,0.4457284184022256,0.44563225544711793
37,0.44572083134291857,0.44565353402428826
38,0.44572534572090383,0.44585623029739624
39,0.4457200934071884,0.44562939648001126
40,0.4457276380168911,0.4461765093188132
41,0.44569359444984696,0.4457218426924485
42,0.44569977140624156,0.4465497845899378
43,0.4456967883476315,0.44585756032401813
44,0.44569294312666013,0.44567450761203437
45,0.4456763466376725,0.4458107154363438
46,0.4456795735171514,0.4456536619746064
47,0.44568085459932955,0.44568948532748165
48,0.4456676960616996,0.4462060170641016
49,0.4456673586124497,0.44570694771357267
50,0.44566447479867727,0.445682806338625
51,0.44566899817324773,0.44577347449865884
52,0.44565508697167694,0.4456913440754041
53,0.44565848401085634,0.4455955057079088
54,0.4456428828151534,0.44566284179983306
55,0.44566001528842364,0.4465027791542687
56,0.4456466504773566,0.4463366421665211
57,0.4456238776468659,0.44561278598184323
58,0.44564022114880153,0.44582053100500746
59,0.4456263341476899,0.4460766052489837
60,0.44562584785011555,0.4456072919421989
61,0.4456066323999607,0.4458226820967038
62,0.44563594654065797,0.4456531644607004
63,0.44562554081729083,0.44688686868984706
64,0.44563632062782066,0.44562943528958643
65,0.4456109461560683,0.4456125893900471
66,0.4456054035169085,0.4462755885964292
67,0.4456119430502797,0.44566895713285537
68,0.44560695631883546,0.44577558397063544
69,0.4455930633226298,0.4455996186206713
70,0.44560419840046006,0.44599427839662537
71,0.4456098703782518,0.4457603000677549
72,0.4455956103994643,0.4455514974540871
73,0.44558281231291896,0.4460010979666603
74,0.4455925085997342,0.4456848135213402
75,0.4455850883574684,0.4455632985969335
76,0.4455864774156287,0.4457610084608234
77,0.44558223625971544,0.4456339644143362
78,0.4455757818136884,0.4458757115800682
79,0.44557786853947884,0.4457367114334485
80,0.44556846509249765,0.44566503973220184
81,0.44558925072601363,0.4456305667129403
82,0.4455660697412384,0.4455423737430099
83,0.44557898109838046,0.4455293790282446
84,0.4455838106558133,0.44558175669118727
85,0.4455632520430984,0.4456628138758704
86,0.44557563934343397,0.445875598257292
87,0.44557591947090774,0.44556202774603965
88,0.445558178980328,0.44555037838057904
89,0.4455683183341734,0.44562112936015164
90,0.44556293144045717,0.4458348122778956
91,0.4455613705522527,0.4457726286451515
92,0.4455720054033809,0.44576107362659634
93,0.44559476108632495,0.44578765540501614
94,0.44555571869234,0.4455162117114434
95,0.4455591609361061,0.44563171740796964
96,0.445550247001174,0.445782995223999
97,0.4455598636715628,0.4456385401726952
98,0.4455719193686541,0.44587164657287504
99,0.44555026784359175,0.4455971642700082
100,0.44556236188916976,0.44591773354977593
101,0.44556341010335815,0.4457477098806916
102,0.44556751217190654,0.44554941481159577
103,0.44555184140353177,0.4462166064874114
104,0.44555125856601163,0.4455252277939846
105,0.44554550536928905,0.44569106224748695
106,0.4455584056666658,0.4455230645151351
107,0.4455525327068964,0.4462630943979874
108,0.44553932226516213,0.44551208675943
109,0.4455359700909789,0.44552396309582826
110,0.44555345258663104,0.44561628829456734
111,0.44553275431820055,0.4455653279945809
112,0.445538123135525,0.4456090408430502
113,0.4455410369563208,0.445552081520445
114,0.4455219135458471,0.44560151095721623
115,0.44553791898048595,0.4466041365569046
116,0.4455315951135232,0.4455483044199553
117,0.44552301271439065,0.4456670518400651
118,0.44552357853925384,0.44589797511290086
119,0.44553663625241785,0.4456942198737975
120,0.4455525152907538,0.4458350376958587
121,0.4455335611509713,0.44554641845800147
122,0.44553596755489633,0.4455131652041641
123,0.44552461206980043,0.4462453469892885
124,0.44551216398631077,0.4456027226767528
125,0.4455179035015977,0.44574260300501406
126,0.4455230888402525,0.4455620290623705
127,0.44551719601778983,0.4455694248155684
128,0.4455165340730318,0.44617245981178566
