epoch,loss,val_loss
0,0.4559768667552977,0.44918438974148583
1,0.4489087677653052,0.4477927090956023
2,0.4480568758433506,0.44717747702196275
3,0.4472414394161343,0.44678746035909533
4,0.4469499285887565,0.44690596794076354
5,0.446687370098151,0.4465235346895885
6,0.4465389612700416,0.4469969730371281
7,0.4464550230130629,0.4462381103494327
8,0.4463526245122634,0.4461387732188696
9,0.44628152388815223,0.44605099974435847
10,0.44620097892144706,0.44639814624715385
11,0.4460968889596894,0.44641150851403516
12,0.44604372175972207,0.4457953699617173
13,0.44595409158731986,0.44600004843683455
14,0.4459531151809479,0.44584841030111383
15,0.44590750493189985,0.4457454887276548
16,0.4458986340575195,0.44630468943278784
17,0.4458717769804751,0.44587463841544783
18,0.44583878049249565,0.4458811136984056
19,0.44586304239509167,0.44571179309790543
20,0.4457996737762791,0.44592663869076865
21,0.4458344824652272,0.4460492725703616
22,0.4457776930893956,0.4458732895460673
23,0.44577800701460635,0.44593054529455106
24,0.4457513789304334,0.44567947789989687
25,0.44572677822061985,0.44584750689880426
26,0.44574940207302377,0.44621512650260264
27,0.4457077572233121,0.44571543633198324
28,0.44569880735922923,0.4460685174607166
29,0.4457198634176326,0.44575319165923166
30,0.4457100533009415,0.4460994328221967
31,0.4456870377496029,0.44566806542962123
32,0.44567486848413224,0.4460515085580035
33,0.4456663837281217,0.44703305511557434
34,0.4456819505608922,0.4456900014475025
35,0.44564331511901767,0.44600042107679116
36,0.44565236619566995,0.4456393149591261
37,0.4456605688643631,0.4456920231838084
38,0.44567680070885557,0.44565172269385744
39,0.44560468605955184,0.4458155356329073
40,0.44563271257789666,0.44558020114307073
41,0.44562334509319695,0.44556502012106086
42,0.4456239975917377,0.44853744832221093
43,0.4456241255948836,0.44553234800511493
44,0.44560824588209963,0.44581297764707145
45,0.44562251032999306,0.4459625400177598
46,0.44560249274651126,0.44604317143596434
47,0.44560327979981024,0.4457464610376666
48,0.4455916525851052,0.4456008808636488
49,0.445604217428573,0.4458699654704584
50,0.4455945660816926,0.4456185479909551
51,0.44558436893553516,0.4459382968564187
52,0.44557943228284685,0.4455872958558369
53,0.4455836572220307,0.44555714785608996
54,0.4455742215739007,0.4465607582783285
55,0.44556433264657114,0.44563778514601754
56,0.4455916567335525,0.445512459488128
57,0.4455769477869058,0.4455274702301688
58,0.44556133907919226,0.4457028030018061
59,0.44556872130861774,0.4455184396531978
60,0.44557427466321925,0.44552819860484405
61,0.44555485498545316,0.44577648540584386
62,0.4455695211653867,0.4455224293189368
63,0.44556161102967334,0.44553011990066793
64,0.4455562038133772,0.44587265251587993
65,0.4455633153950713,0.4456457112474418
66,0.44554893730543754,0.4457379003316534
67,0.44556180714931426,0.44560732770498573
68,0.44555611209948204,0.4457312543989707
69,0.44555838233431205,0.4462027844956732
70,0.4455347238876267,0.44550213136389
71,0.4455556094104529,0.445571968587989
72,0.44554036340356196,0.44554656284027006
73,0.4455317820555429,0.4465229803220214
74,0.44555299524733294,0.4456614455573316
75,0.4455260328881546,0.4455920376345774
76,0.44552180895314897,0.4455154643756876
77,0.4455198897661775,0.445460957599337
78,0.44553349291496874,0.4456891339410919
79,0.44553045182700374,0.4455051515149715
80,0.44551984343948275,0.4462623727528688
81,0.44553753726772144,0.44547788558467744
82,0.4455092185500711,0.4458249321498587
83,0.445523086508082,0.44550197732359836
84,0.44551757017042526,0.4457475958923548
85,0.44551795347110085,0.44549427695073207
86,0.44550296818335555,0.4456870836152628
87,0.4455015514282553,0.4456682751403553
88,0.4455126061004365,0.445469816136301
89,0.44551571259329975,0.445832264526902
90,0.44551496659692896,0.4454874979798906
91,0.44550031941828827,0.4455479426064503
92,0.4455000917569588,0.4455781822021191
93,0.44549942437362505,0.44575901096571174
94,0.44549932382998186,0.44553073644638064
95,0.445487244420716,0.4456091904314813
96,0.44550342092575757,0.44599031510187437
97,0.44549629833241666,0.44549839921092277
