epoch,loss,val_loss
0,0.12224315639406637,0.1083510358487406
1,0.0870199365277895,0.07774986306357916
2,0.07231645904307572,0.07019347583241853
3,0.06893960022490188,0.06836149115346501
4,0.06649747650122628,0.06608042657079531
5,0.06454138307582234,0.06400860602743276
6,0.0628801816045367,0.06298093042953434
7,0.061680448800059164,0.06127387687711799
8,0.06041010125939652,0.05946449838745091
9,0.059000684213419245,0.05893575047736724
10,0.05776141153214418,0.05626014854490905
11,0.05651436192668754,0.05638453673488153
12,0.05562490598170906,0.058106794180556504
13,0.05505224578784126,0.055786146513803425
14,0.05414833135665149,0.05418825420197423
15,0.053741665067830145,0.05207150922371791
16,0.05304897979454634,0.05345297443955471
17,0.05251785901517437,0.05269312177861003
18,0.05217817989483611,0.0534710181964834
19,0.05189667940816191,0.05196135164268555
20,0.051535857248740685,0.05156753912900872
21,0.051342822161601284,0.051052776663090396
22,0.05098881431856629,0.05149456661185319
23,0.05059850569923154,0.05051704813395777
24,0.050335011212540394,0.05161907764581534
25,0.05015762763995939,0.0492455225576538
26,0.05002276772855718,0.04955577993991949
27,0.04970912735823094,0.050098018174431755
28,0.04956901373259814,0.050019541937423403
29,0.04961482053603006,0.049615284976163514
30,0.049377655066076775,0.049509271167717854
31,0.04936978865722846,0.049643152343945826
32,0.04925440508792944,0.049651827136281114
33,0.04913354735887599,0.04933076858446556
34,0.04898711933295792,0.04982734495778533
35,0.04902559260448213,0.048755247027569316
36,0.04874434889710203,0.05040064210779318
37,0.048873219445060456,0.04893004906088779
38,0.04864946001797575,0.0486944366237218
39,0.0485208132247246,0.04833346745068619
40,0.04842332876884753,0.04860558565474917
41,0.048468101692676395,0.04929578520782828
42,0.04823043035030396,0.04858506254611477
43,0.048190422333992206,0.048442144340676056
44,0.04810873995339607,0.04816401713613245
45,0.04805924487360304,0.047935364641267665
46,0.04800002504903281,0.0480094805396816
47,0.04794718804129343,0.04771229619756526
48,0.0477826244663404,0.047386906479043936
49,0.047769009955120394,0.047873472573961275
50,0.04774106376595754,0.04825683442261024
51,0.04759226573481512,0.04752579330843376
52,0.04756957994880057,0.047043607487498085
53,0.047410942496543124,0.04957727519217555
54,0.047502101498335184,0.04776373612266912
55,0.04742606840910398,0.04739088489126331
56,0.04737441676498892,0.047905197369845276
57,0.04723636135901676,0.04769349424515114
58,0.047166266232964424,0.047550782470712
59,0.04712417077339836,0.04750109437307708
60,0.04711074016489245,0.04717335024520422
61,0.04703999580792139,0.04697222777505962
62,0.04697133627453097,0.04800210838060521
63,0.04687513978619263,0.04672869677764015
64,0.04701226012632938,0.04934790186010874
65,0.0467755320062509,0.046940904473030835
66,0.04676871487219512,0.047559451927470214
67,0.04678321574150264,0.04796419478120934
68,0.04674304514903777,0.046509594716150175
69,0.04660831904815906,0.04681363442991271
70,0.0466604210744283,0.048316106510813125
71,0.046547558601316597,0.04664776784277731
72,0.04658823045027403,0.04722346128623184
73,0.04650762314006342,0.047204757319120855
74,0.0464299201163291,0.04902079600110539
75,0.04632451739670261,0.046700964429908
76,0.046396165385372376,0.04641883950449397
77,0.04636867903836078,0.04691081712988411
78,0.046360426180426455,0.04662836646619565
79,0.046289924418140095,0.04739181046968063
80,0.04632568711266313,0.048330144264340104
81,0.04616091503928459,0.04671875895289866
82,0.04616267054022172,0.04800200043038162
83,0.04609248705496322,0.04626566483535187
84,0.046007926849772424,0.046481037136195016
85,0.04605423512093029,0.04656626989062016
86,0.04589494289451073,0.0460317845028772
87,0.045851001777900136,0.04560393006275073
88,0.04586648138816588,0.046390650020195885
89,0.04584981710580696,0.04646613874077501
90,0.04574597095976604,0.04632704943122698
91,0.045654038262962264,0.046534265840319784
92,0.04565272782242406,0.045929905568843445
93,0.04569843380025606,0.04568859612379713
94,0.0456599378587965,0.04669729693060182
95,0.04556589184532259,0.0455062862772208
96,0.045625507280059346,0.04564895471812182
97,0.045507983168228495,0.04639205482254549
98,0.04557680773087971,0.045516999337646566
99,0.04547918634572375,0.04555833904678117
100,0.045430502626057453,0.04593957086872522
101,0.04540071825964196,0.04547071724242667
102,0.045422909947409766,0.04608166832338196
103,0.045325665679231505,0.045789736305957396
104,0.045294844534565275,0.04561058582169542
105,0.04528207308576096,0.04616226483293562
106,0.04513789129477325,0.04738118655739292
107,0.04511741719671318,0.04577532528943518
108,0.04495446943207611,0.04581317460307708
109,0.044886275122025455,0.04523028614873034
110,0.044826814152069724,0.046322750189242236
111,0.04492822971818009,0.04510292902995576
112,0.044735209775407465,0.04515847484985593
113,0.044802548511241734,0.04483334996896997
114,0.044607372634198915,0.045282558252845447
115,0.04463959527018979,0.04574619835940543
116,0.04453410346452595,0.04521958626640346
117,0.04454565814505171,0.04489179511113143
118,0.0444285729192892,0.04512240133495544
119,0.044344253017582394,0.044748819214534524
120,0.044397687667815405,0.04539601373539373
121,0.04427020410776238,0.04489415783259472
122,0.04435262458104089,0.044855362406143774
123,0.044203587787612145,0.04544834447631765
124,0.04416651020703585,0.04518569412620428
125,0.04410551616751708,0.045250751288889654
126,0.04411432553169032,0.04466637044997132
127,0.044014890240316386,0.04632319082730166
128,0.04402249993228663,0.04463881697163689
129,0.04387948733362544,0.045326677998227455
130,0.04397290873908195,0.044396116157471396
131,0.043755578098159026,0.04485322512113131
132,0.04386255845761878,0.045534491546396584
133,0.04378088341413523,0.0443714097456512
134,0.04373501733993006,0.04402401552491685
135,0.043760971499954074,0.044999464342449204
136,0.04373120338712101,0.04437771215665133
137,0.04371660828484493,0.04451028077259993
138,0.043738907634098906,0.04450921819131664
139,0.043568077508092294,0.04472792549590319
140,0.043611572920422975,0.044130347510129585
141,0.043533958896300025,0.04397214838758887
142,0.04353712391091956,0.04396349429048912
143,0.04351407531182233,0.04393744176581835
144,0.04340976272486072,0.044430171114117574
145,0.0433865058237069,0.043918305280486646
146,0.043362538589892335,0.044767515847538006
147,0.043312755332289024,0.044879635428968195
148,0.04319593420846315,0.04347076224851845
149,0.043241426062045785,0.044293963996041796
150,0.04324036281412374,0.0439872845212372
151,0.04324931892533117,0.04390303080453174
152,0.043138167997087695,0.043988606317093594
153,0.04316903272842938,0.04461998590094872
154,0.043135860676487676,0.04434699501759065
155,0.04303099636447325,0.043438186531623006
156,0.043099520764598616,0.043175625618057274
157,0.04297818991445783,0.043504041398207544
158,0.04296140312607461,0.04343845759779585
159,0.042884026304798664,0.04317598014922059
160,0.042886192546439945,0.04342269084737555
161,0.042883307886402745,0.04329518820008924
162,0.04287700891988557,0.04361014510909322
163,0.04274970325160211,0.04328820266513612
164,0.04278678381887903,0.04323950578682772
165,0.04279509263670226,0.04349701320267197
166,0.04268948059045465,0.04393621706230469
167,0.04282388881268837,0.043003300305631556
168,0.042705529073295154,0.043887550481791535
169,0.042629538539494506,0.043239996401089296
170,0.04270688100698352,0.04331379244404454
171,0.04266227036951202,0.04347435642338864
172,0.04263667372011707,0.04352481463558917
173,0.04270661887228572,0.04406903630894408
174,0.04259539803394915,0.04327176472925519
175,0.04256531769033283,0.04422320703381936
176,0.042591879667673783,0.04317117584106644
177,0.04248787463791043,0.042942335295765924
178,0.04252380290938751,0.04317121494459751
179,0.042406217245517006,0.04299709402376014
180,0.04244051922749041,0.04349620736044631
181,0.042480655255797736,0.04330472431281956
182,0.04241790214387304,0.04381699004296038
183,0.042400347682195076,0.04323830287302694
184,0.04228234021110082,0.043089621811735423
185,0.042238304902762584,0.043769002678080766
186,0.04215631622184262,0.04370705587026795
187,0.042158671350532,0.04287121701181379
188,0.04201386206969111,0.044898002097387764
189,0.042102645165133935,0.042906232498050034
190,0.042059690174885235,0.04282138297523813
191,0.04209042087973708,0.042837666550064206
192,0.041949259202759576,0.04330575256874188
193,0.04197854398273033,0.04426445247184846
194,0.041868678998311586,0.042951545912411904
195,0.0419112074746947,0.042776326652126336
196,0.04182926366934611,0.042607242412513895
197,0.0418494234479785,0.0442081641304138
198,0.041840715980091515,0.042866049816013864
199,0.04175287513796584,0.04274478075152295
200,0.041756402363520996,0.043870306344097366
201,0.041823198523230076,0.04267427301769221
202,0.04173581120770019,0.044038683778742704
203,0.04175741063426148,0.04329325407558576
204,0.04161681959998913,0.04285957041027824
205,0.04156190208816888,0.042687295909702924
206,0.041614974084711806,0.04209795042909405
207,0.04149581330580048,0.042602055421833956
208,0.041473632748619906,0.04259719955677134
209,0.04150576641209073,0.042965914699117244
210,0.04147736246417041,0.042688545250049593
211,0.04150153427521964,0.042990190360149734
212,0.041391777739537575,0.04287828926191141
213,0.041340297112036954,0.04301759415946291
214,0.041398999102052664,0.04215723240456865
215,0.041344501192163784,0.04250588784220793
216,0.041234862954625445,0.042976691041409824
217,0.041215626915956954,0.04213646657709448
218,0.04123337174270049,0.0417218489198028
219,0.04125431930752718,0.04201793973576786
220,0.04110472234244622,0.04293905531169463
221,0.041098319110496016,0.04204740057660096
222,0.041202521109320364,0.0420813953628759
223,0.041107826447255476,0.04241198140841264
224,0.04111957531388112,0.04211405933125143
225,0.041082315757821175,0.04185425872283597
226,0.04106893057472452,0.042378506874180315
227,0.04106935630459352,0.04199156328370198
228,0.04105136059610638,0.04143716436683688
229,0.04090852478616182,0.04221126856120585
230,0.04101318254648004,0.042007967056914536
231,0.04096700351751991,0.04233498349600927
232,0.04087324460685605,0.04203665647147311
233,0.04089618020907992,0.04190873228216881
234,0.040861073676982614,0.042216409125339895
235,0.040785594575533164,0.041953888964416375
236,0.04091590412537022,0.042634709665630356
237,0.04096788586540225,0.04225110185538273
238,0.04085045225678785,0.042129577901537894
239,0.040847277271257094,0.04201403640894677
240,0.040864314525474274,0.0424163263429779
241,0.040805343154116894,0.04198030566348331
242,0.04083561466577655,0.041516243954820016
243,0.040765135169792036,0.042152562221655476
244,0.040782781310410174,0.042022679685141257
245,0.04073131466035297,0.04147460058368465
246,0.040892325450954205,0.04211401891508706
247,0.04076891148610575,0.04174948071427736
248,0.04071915620446578,0.04138153326829373
249,0.04065425581398371,0.042215874310462705
250,0.040749822186607824,0.04199537849307948
251,0.04067857634596169,0.04176551810195369
252,0.0406693531978592,0.04132704536058471
253,0.040684818746720634,0.043376267196670655
254,0.04070024130141516,0.0417301838824678
255,0.040675313426427814,0.04251481183335444
256,0.040662722327800674,0.04235256445171224
257,0.04049755045742688,0.041271717369408524
258,0.04050722459636308,0.042060665098520425
259,0.040630065392826514,0.04172952885071634
260,0.040565920182302005,0.04198718979658915
261,0.04058059158351372,0.04223201751117375
262,0.04050034203376885,0.04170842322684991
263,0.04043457653361697,0.041357924600614805
264,0.04057067406266698,0.04138070865171423
265,0.04049562390819893,0.04143941980733469
266,0.04040286582602695,0.04101553045157759
267,0.0404352000154589,0.0410923095054869
268,0.040408441789873344,0.04173540883043564
269,0.04048013240634863,0.04129084061563163
270,0.04041781057761854,0.04257701704505064
271,0.040392143925837606,0.04136068207251079
272,0.04039582075921088,0.04383619134279693
273,0.04039279570292108,0.041275708669468426
274,0.04030758579570859,0.041871800063820394
275,0.04039611217767516,0.041464033904057875
276,0.040319234915875884,0.0416613071269492
277,0.04026739112611288,0.041367108783414284
278,0.04030879730348933,0.04230634774966512
279,0.040296718862312834,0.0415487892056813
280,0.0404301185427943,0.04264731159244223
281,0.040289261256658805,0.04154720985638001
282,0.040448713382491015,0.041088035349588534
283,0.04023648422589109,0.04150100920913237
284,0.04026609637231012,0.041653011613537
285,0.040312496295292204,0.04113039372872478
286,0.04012777974727245,0.04102535308997329
