epoch,loss,val_loss
0,0.7528509234623543,0.6701198192151545
1,0.6687846149494383,0.6688741895756118
2,0.6683459182489597,0.6692757764466052
3,0.5979958664013999,0.5574800600189134
4,0.5574544527170933,0.557672332504547
5,0.5574114380325692,0.5572390153153659
6,0.5573296441611699,0.557127411874293
7,0.557314306150095,0.5571205715979299
8,0.557267980664636,0.5571784200798489
9,0.5572418890782728,0.5571760863287573
10,0.557216279363369,0.557131850098262
11,0.557198152405363,0.5571349479720256
12,0.5571939786966241,0.5570371475172398
13,0.5571636108877805,0.5571042745048296
14,0.5571707767992256,0.5570553352164276
15,0.5571792700386885,0.5573439104089666
16,0.5571593012734152,0.5570445703513569
17,0.5571440805461004,0.5570282418437986
18,0.557135015836131,0.5578341347408058
19,0.5571403342386587,0.557006170672755
20,0.5571150752067806,0.5573271275749869
21,0.5571106686951303,0.5570932698900587
22,0.5571057350261844,0.5570721559429879
23,0.5571007365999684,0.5570552924134891
24,0.5570983077964788,0.5573218175554394
25,0.5570846571764032,0.5571524874743989
26,0.557104003594909,0.556997232697442
27,0.5570858618676733,0.5569882815588201
28,0.5570913505245609,0.5570396484867219
29,0.5570763528533967,0.5570307485814722
30,0.5571011591862586,0.5570270856911728
31,0.5570837201077085,0.5570785576001586
32,0.5570781284298627,0.5571286284302364
33,0.5570751707778301,0.5571843370906177
34,0.5570812276347425,0.556958779892318
35,0.557067530856387,0.5570190916582017
36,0.5570777317715654,0.5571805898072406
37,0.5570616852468676,0.5570029466087114
38,0.557078258226015,0.5569732089196482
39,0.557067453106328,0.5570011367277236
40,0.5570758159666948,0.5570105667741364
41,0.5570735329102517,0.5570460652890927
42,0.5570726730433804,0.5569580782435963
43,0.5570541767623394,0.557014551115391
44,0.557060909934487,0.5572122962244095
45,0.5570699998585597,0.5570176770018584
46,0.5570446265452015,0.5572123219298369
47,0.5570547575157756,0.5570186009478036
48,0.5570589280786677,0.5570287739964336
49,0.5570522052646227,0.5572669071240106
50,0.5570635946275218,0.556929360311617
51,0.557042861465672,0.5569695650791707
52,0.5570490996946884,0.5572505335358178
53,0.5570573861546811,0.5569618526818438
54,0.5570538146925793,0.558277108858596
55,0.5570527001257156,0.5569523833821488
56,0.5570403018657959,0.5569395102283203
57,0.5570373704139019,0.5569547263031858
58,0.5570473863646528,0.5569744283744774
59,0.5570508191097445,0.5570215959702769
60,0.5570316601381085,0.557018287927282
61,0.5570532388598533,0.5569585565301975
62,0.557043723224942,0.5569582244006931
63,0.5570287979098298,0.5571866058238387
64,0.5570471628091739,0.5569434852221468
65,0.5570430534672355,0.5570119133066599
66,0.55703099915296,0.5569368674500704
67,0.5570425199480408,0.5573203866594186
68,0.557030104621035,0.5570642337609757
69,0.5570484853016753,0.5571716483710125
70,0.5570412623287675,0.5569559334821204
