epoch,loss,val_loss
0,0.3233231017284161,0.24717433720050877
1,0.2311882056790195,0.23526072665613848
2,0.22684744684149227,0.20954476505071043
3,0.22469463452494307,0.2184004572403177
4,0.22314094361974943,0.21665220094319865
5,0.2203680234287473,0.21604845282969365
6,0.22280860359339025,0.21857901553799058
7,0.22389827928930925,0.20724458939556822
8,0.2239432787592653,0.23189643340592508
9,0.22372361103431593,0.22597983240751932
10,0.2223212648209908,0.2290418433009308
11,0.2248910218596363,0.23027125544310934
12,0.2344784722399178,0.2140439080152346
13,0.227140433109588,0.22434286709695514
14,0.2261094210995473,0.22196524121578792
15,0.22519374352922256,0.2273044623463946
16,0.2247425403526361,0.23771809580152958
17,0.22673484318547968,0.20979474909491866
18,0.22554650384602215,0.21371062680926017
19,0.22625056808467486,0.22308097017639344
20,0.2268579895023724,0.20711430713193288
21,0.22662936503009545,0.21872143699084104
22,0.22729864691515905,0.21824061531858738
23,0.2288941183774401,0.22526820246262538
24,0.23228580197341722,0.2345372995666001
25,0.23392854316486159,0.23623954871082833
26,0.2347822741781779,0.22635606328803154
27,0.23389757294758715,0.22962659822031561
28,0.23588036386657962,0.22261562123718276
29,0.23301074920083692,0.2328912655645783
30,0.23384738572352795,0.22383692774748182
31,0.23426206231855756,0.21965899911798073
32,0.2316297923715757,0.21920640039792094
33,0.23110942717054955,0.22036436118991148
34,0.2306681419436118,0.21886511708020975
35,0.22540499704728406,0.21703124615557098
36,0.22119011578085326,0.20512753842661677
37,0.21981731070269592,0.21481190037332187
38,0.27124850040407394,0.2700123186881089
39,0.2547601499705673,0.2520864916746317
40,0.2357251465999537,0.2244831948484505
41,0.22970652885788637,0.23432725164583562
42,0.2274232227310574,0.2242615734533522
43,0.22375509316782108,0.20284890512264706
44,0.22263863747664017,0.21911833070118594
45,0.22534933368222032,0.2171007825712943
46,0.22360499746364942,0.21390792626325972
47,0.2238919081733667,0.21095504133646753
48,0.22654410069890255,0.21500876173083014
49,0.22584414158722194,0.20996739581850635
50,0.22713935007151367,0.23508927965832208
51,0.2275418527037215,0.21675936428458087
52,0.23037433038822278,0.2163674409288822
53,0.23242354205996393,0.22252122318076636
54,0.23851499096643058,0.237781349772436
55,0.24707305671976243,0.2571357320097364
56,0.2761971573654315,0.3136495263584035
57,0.3346893160665731,0.3337442517139447
58,0.35872774739726654,0.36805842841527736
59,0.38124549097056204,0.3801962756320258
60,0.3850564375865183,0.3776610631733874
61,0.3839475990270825,0.37490882636904244
62,0.38377173967975126,0.3750745344086717
63,0.38425316920669245,0.37575418766126356
64,0.38500558967880016,0.3777488094431825
65,0.3850073738278245,0.3792162772088702
66,0.38474157240560397,0.38262702958642164
67,0.38387177863138183,0.3754970405924104
68,0.3853349729979353,0.38173091021126054
69,0.38634112292675854,0.3813600646715608
70,0.38488805236862145,0.3894562812047204
71,0.38553466704442535,0.37512265702072994
72,0.3850402970918172,0.38172157516889715
73,0.3850444831865297,0.38027319737843107
74,0.385466085992557,0.3750128235370979
75,0.3847113278724974,0.38266794114199415
76,0.38429299050526655,0.38156536941276165
77,0.3856100830719244,0.3804552510862945
78,0.3846807492246254,0.3821641002805946
79,0.3857460677099647,0.38067986888497857
80,0.3857530449077094,0.3814648452149476
81,0.3862315904107883,0.3860055032497141
82,0.38546826356320646,0.38924676960814913
83,0.38539154937179637,0.38015354923968625
84,0.386974151805341,0.3776787438774636
85,0.386027092746884,0.3784024237927811
86,0.3868291464617117,0.38106929371464227
87,0.3867729257384269,0.3877953803482823
88,0.38568768048172086,0.3830134524025123
89,0.3862317191968433,0.3799035327116523
90,0.3866097270298919,0.387344927089649
91,0.38617514578892076,0.3831900149325075
92,0.3852953611732387,0.3786285515365962
93,0.3845731703449877,0.3832854172001698
94,0.3855937828453515,0.3771860112378046
95,0.38387337939249433,0.3772204667447398
96,0.3845413105188609,0.37543308386768803
97,0.3841476562283308,0.37409613324415997
98,0.3840991324372143,0.37364602684033793
99,0.38242301701022374,0.37097854405382813
100,0.3811911175624549,0.37165740181727963
101,0.38079256793673183,0.37268138214087243
102,0.37917574986422375,0.372318429276994
103,0.3774717640366962,0.3693431019077361
104,0.37525685074375115,0.3693085397992815
105,0.37410160447720237,0.359189527069572
106,0.37115728313164364,0.3620254326591176
107,0.36911923961816645,0.3584969785379065
108,0.367315020742748,0.362637494856105
109,0.36449992701971085,0.35225017384082763
110,0.36423727336356776,0.3500280757070811
111,0.35915552395329675,0.34422219705186496
112,0.3549647451185589,0.3450688167924286
113,0.34402119846557444,0.3480795692437826
114,0.33779554796828737,0.3227350825433573
115,0.32820638745046443,0.31100680382118134
116,0.313567755271872,0.30009134056159803
117,0.30375185231272456,0.2901206470279122
118,0.2910981595778256,0.2823891057540981
119,0.28544103700241785,0.2769323988349398
120,0.27014912481454734,0.2536204914667518
121,0.25612678072101874,0.25491539757601744
122,0.24577046686606252,0.22880304639463642
123,0.22546524698023412,0.20908887252717293
124,0.21403443768656225,0.2043751618856507
125,0.1985500746136375,0.17205792309711934
126,0.18633452489924468,0.18457740828712435
127,0.18338902739526555,0.16984501882105618
128,0.18304707743912388,0.16681801285462391
129,0.17714476654176517,0.1584498369632599
130,0.17213475977857526,0.16204131509294262
131,0.16781290957360245,0.14620309703540124
132,0.1620525880504569,0.15302018427834702
133,0.1588831570067947,0.13791011599640068
134,0.15578407514617026,0.14033350581928042
135,0.1539040418754188,0.1453110795312259
136,0.1488661552719075,0.15021668210472755
137,0.1505550455739744,0.13724578384254144
138,0.14563436283887052,0.12922976151896728
139,0.14737147082992308,0.13984874026716085
140,0.14609454959023485,0.13521728681690032
141,0.1458839807930372,0.13029424821474275
142,0.1477690874654755,0.1226308937489563
143,0.14395554813978484,0.1345057454086611
144,0.14165505365156633,0.13506551898410213
145,0.14691270279774754,0.15126044425492977
146,0.15176655134732583,0.13560096390880555
147,0.15803052393866956,0.15060635545565185
148,0.1608690214451316,0.14218419096958196
149,0.15578222686616922,0.1482239637844376
150,0.15015161970107677,0.1300470192564597
151,0.1475929409491835,0.12700254813530545
152,0.14822686470741275,0.14027756556645093
153,0.15043467741242225,0.13163239093116633
154,0.14971050140942982,0.13710650211257452
155,0.1482534089016257,0.1344966030523075
156,0.1456020726925797,0.14936575483480777
157,0.15439079268623312,0.14056274859968282
158,0.15820934112778576,0.1497478758079759
159,0.15866010684034618,0.14794756912559434
160,0.15976522869164708,0.1461588945166276
161,0.16332846757271688,0.14688901485612096
162,0.16247035174084892,0.1497792168663728
163,0.16299332708096523,0.14958424305788814
164,0.16583389601857065,0.1611592853125758
165,0.16396912657540383,0.15313879076476725
166,0.16020021096265002,0.13861700100346447
167,0.15391677631724843,0.1378885530282309
168,0.1577171758561731,0.14919431238261
169,0.16144332165221612,0.14351775815332604
170,0.16368436825861463,0.15113044917089505
171,0.16196674953023496,0.14529725912761388
172,0.15616950060395027,0.15338080386383476
173,0.16128232634717898,0.1589829105451621
174,0.15910206139861918,0.14709449471830852
175,0.15817987600223815,0.15256706318849642
176,0.16171311156498155,0.14685223497973715
177,0.1667232222581129,0.16712243662119478
178,0.1677337502517241,0.15916620171978046
179,0.17049380582418563,0.1500227228395094
180,0.16890622394309818,0.15299389362570426
181,0.1688476621920018,0.15648231703579285
182,0.17118565991020604,0.1521423861866592
183,0.1730182378483619,0.17323210243879572
184,0.17170270210464034,0.16580340633170287
185,0.17844030838147057,0.16891085078326754
186,0.1808944814991084,0.16280956246435124
187,0.18277920522004198,0.17869427356789597
188,0.17974792324083982,0.1642849133206618
189,0.17669687437401305,0.15642870984377594
190,0.17044673613507114,0.15548500170506355
191,0.17353225851075635,0.15309897540306236
192,0.17195962282786553,0.15338868550785714
193,0.17255740072563303,0.16399556266080703
194,0.17235914997750526,0.1613225942358504
195,0.17085833363919903,0.15970485581007168
196,0.17134401182845818,0.16345175703209786
197,0.17450073936717403,0.16898406865611826
198,0.17414629051713443,0.1649445038650482
199,0.17712308866061943,0.16178204432635582
200,0.17949830647483528,0.1625588763249419
201,0.1822689069326309,0.16336539195410926
202,0.18395195829329922,0.1620930835498819
203,0.18550404487587183,0.17643835584338294
204,0.18653529025703597,0.1698456313505169
205,0.18758139362056955,0.17403920437043918
206,0.18958413539577923,0.17398717200887795
207,0.19100520392949824,0.17884885167501627
208,0.19145103309937805,0.17596751466781582
209,0.18996250210143775,0.17647505396331684
210,0.19192169242196802,0.17105771854649215
211,0.1899142207609092,0.17916858847228767
212,0.18921093242488604,0.18491249928440553
213,0.18618730942217662,0.16871713844569725
214,0.1885625858970588,0.18901606204007307
215,0.1873853172687032,0.18353182825406142
216,0.18839419219824527,0.18160574112878414
217,0.18775754620869764,0.17647734750135732
218,0.18913200962171853,0.17858756248322452
219,0.18995317944186293,0.1744665523730777
220,0.1896092073826624,0.189927667820416
221,0.18945286261568442,0.17300564094190063
222,0.18898616617412972,0.17430858102927738
223,0.1901632038821324,0.17119069038739615
224,0.1918575242042637,0.1697089323963626
225,0.19002081161970905,0.17554988733830185
226,0.19146981594159448,0.17752748362031995
227,0.18969716278792953,0.17906227816063866
228,0.1901345432495518,0.1690075298816836
229,0.18912912138717639,0.1739999553469475
230,0.1900342274025428,0.17547685845263283
231,0.19113099026522762,0.17230358372876844
232,0.19015275678641314,0.16915904815825497
233,0.1917850227116776,0.1776173492656887
234,0.19286635748559622,0.18732851038039341
235,0.19095760520747143,0.1734377480719912
236,0.18996301712654381,0.17789605208147014
237,0.19070720873612293,0.17714667404930518
238,0.19076446419973359,0.17225116237868637
239,0.19110461357209704,0.18104155422809468
240,0.18953997734115183,0.18369967313431904
241,0.18878953825298259,0.17634148673457994
242,0.18979728099801463,0.17813114876599415
243,0.18901631727421597,0.17084990836968078
244,0.1886283691635997,0.1822698054557347
245,0.18932369058366588,0.17686163216547035
246,0.18816821180063661,0.17311682328052566
247,0.1894737395475046,0.17125452034051905
248,0.1873547960248449,0.17718877132332223
249,0.1868399399147331,0.1677395103362572
250,0.1871836478177973,0.1749668685276864
251,0.1846770770835886,0.16331114695240592
252,0.18608074659685628,0.17116535295627205
253,0.184842945705596,0.1670739197046529
254,0.18314369387930626,0.1768812520669122
255,0.18467325839898188,0.17234446625236272
256,0.18504381570503484,0.1716800474671275
257,0.18600012885509348,0.1760311238438291
258,0.18606315487675626,0.17762906505375653
259,0.1866842289920524,0.16801860561592896
260,0.18452603696919173,0.1800643949995101
261,0.18499098010926987,0.17049272905303064
262,0.1839072013453995,0.16614009975069793
263,0.18556580843804457,0.16268869081325388
264,0.184743616566193,0.16856523315056912
265,0.18520933377156726,0.17479008920755365
266,0.18523420038507235,0.1719005105409833
267,0.18319821668912373,0.16902632432700898
268,0.1838321629122531,0.1780321671147467
269,0.18363813837643245,0.16321276064782794
270,0.18280301769848445,0.16548354926077324
271,0.18296437235258753,0.17038347597374348
272,0.1833313653211323,0.18183540855699765
273,0.18277403799821432,0.1712019946411452
274,0.18300084976090802,0.16670605811366154
275,0.18171847439546,0.1616941713084832
276,0.1830393624730962,0.1689989024974647
277,0.18266358338207078,0.17483676958244057
278,0.18405752851189278,0.16632036942380005
279,0.18364234746014663,0.16750386738363174
280,0.18637642112495803,0.17759164917299666
281,0.1861622531047399,0.17273067624764643
282,0.18589672904542023,0.18287661899801494
283,0.18562028824473076,0.18077538036039334
284,0.18781279138238025,0.17969646671200326
285,0.18785206961045733,0.16703734443991225
286,0.18718846875438683,0.18169122409801738
287,0.18525364474474573,0.17366573445046146
288,0.18840409671779063,0.1755725582966018
289,0.18746142765934423,0.1722086110367677
290,0.18696655035554935,0.17823117887917334
291,0.18949499624453003,0.17088602597354055
292,0.18962192398419292,0.1756865648345488
293,0.18916101461882404,0.17012279905855138
294,0.18876232869095272,0.1735509484006649
295,0.18874381043070512,0.17221582320466602
296,0.18915903378876564,0.1640964642919794
297,0.18805499588676114,0.18003860458249452
298,0.19152735006942642,0.1902756333445223
299,0.19073529202017567,0.18895174028394537
300,0.19217536129134832,0.19000126036867535
301,0.19174952828269495,0.17209945560301396
302,0.19310587117199798,0.19069747973730364
303,0.18971499463887237,0.17718613459401555
304,0.19187227464455972,0.1790899668585718
305,0.1911611696906227,0.19422184276646673
306,0.19309647850614847,0.18196591177415736
307,0.19181033917706458,0.18195841340281968
308,0.19154967816113283,0.1678221339114369
309,0.1926209036942771,0.18022980825018486
310,0.18901181888642263,0.19041232416595918
311,0.19072808660001014,0.17999562467047805
312,0.19001912096326204,0.17044920297288105
313,0.18669520380447427,0.16917809914582907
314,0.18948402061617728,0.1723590398879153
315,0.18999849795270785,0.17302136350167296
316,0.18914845400005223,0.18153005191540286
317,0.1860312953007688,0.1715378966167769
318,0.18207479809387792,0.16836995237463556
319,0.18339255340784477,0.18860075235272733
320,0.1854766443919697,0.17491936768921887
321,0.18554716013508926,0.17073803179218908
322,0.18486789677688162,0.17510174931671643
323,0.1840917903492205,0.17927241927540574
324,0.1828583549591992,0.1701372671569532
325,0.18213286852653174,0.17896776846900359
326,0.18195903789904191,0.17884622613628173
327,0.18232227120098832,0.16559355090289202
328,0.1824244220735882,0.16951785418304197
329,0.18075636576274506,0.1771148046994642
330,0.18036524070312174,0.1735094661376753
331,0.18364611716507723,0.16851649455132217
332,0.18411358012903414,0.17379566785991898
333,0.18858524317816674,0.17165402757575782
334,0.19192060634648675,0.1786243659932969
335,0.19147694013792452,0.1701077894317229
336,0.18797638764579613,0.1709387861162824
337,0.18942913042007686,0.18239349772493577
338,0.1853608268080093,0.16473841608370396
339,0.18656336005738408,0.18193890783574135
340,0.18694766137382682,0.18888647803755942
341,0.18854200799497578,0.1795920108892641
342,0.1928040675050635,0.17828032017436288
343,0.19291452389302777,0.17182413342790331
344,0.19196406006217479,0.16930070634704927
345,0.19087820018021515,0.18780348378791523
346,0.18978770321412242,0.180708414636076
347,0.1898605950909267,0.1739551721533265
348,0.1874044213971074,0.16912694565875377
349,0.1895138640984071,0.17161699608497574
350,0.1906607367282958,0.17978487663035705
351,0.19974738884148457,0.17918341465135587
352,0.18948590956765304,0.17627781938876141
353,0.18125398422507263,0.163129240462605
354,0.18275303273892804,0.172395284833782
355,0.1788324412854789,0.1788838062885246
356,0.17625895148213153,0.17547291801873396
357,0.1764995871896414,0.15119971683059233
358,0.1762800560973817,0.15610325142400136
359,0.17297245640394024,0.1683536783425283
360,0.16890029881378824,0.14765740732861582
361,0.16754465067176988,0.14561054725038225
362,0.1696634220657684,0.15055463644775144
363,0.16738524533016122,0.14449210574919535
364,0.16732546738642964,0.1532720207532937
365,0.16869129686892556,0.1685803545184651
366,0.1682359673749867,0.162896472257992
367,0.1677668731656673,0.1521245348190076
368,0.17087829206808866,0.15654748799933538
369,0.16941243483961152,0.15398013704671762
370,0.16975521988612857,0.15421935429630454
371,0.17133686927963884,0.1540989190481174
372,0.17298778875185242,0.17302533487870925
373,0.17107411474585058,0.16255382738931026
374,0.17328995628525123,0.1637618746240965
375,0.17301779159967848,0.16492526344925565
376,0.17246718508162373,0.1644026473952544
377,0.17389406914488495,0.15483110710308132
378,0.17535789426174953,0.17402939478430865
379,0.17761895328545743,0.16530895802385712
380,0.17748171796234583,0.15766185657330734
381,0.17772256678564372,0.17048031553896564
382,0.1758775922814481,0.1638723073649237
383,0.1737756522790753,0.16861632135832696
384,0.17660145649759412,0.16454478442645393
385,0.17406321489970555,0.15892588082574538
386,0.17615545597329413,0.1806914616778975
387,0.17875352535518907,0.16560187132554255
388,0.18027126095551763,0.16860989690556147
389,0.18053176368979051,0.17642876785763062
390,0.17959222296397273,0.16066710483914956
391,0.1780441126329817,0.16929766976207658
392,0.1779815300131778,0.16326994111360107
393,0.17917168948599857,0.17055669465729262
394,0.17937991305363835,0.1672289713146937
395,0.17607156497587878,0.16310758174830003
396,0.17660383065100863,0.16414359425383473
397,0.1727947495538268,0.16202032249112155
398,0.1671274933788321,0.1525414731962152
399,0.16152392138394234,0.16240249622992484
400,0.16530194062349512,0.15106908366636865
401,0.16355680980437476,0.15717150735497568
402,0.16094511338799214,0.15464396147320567
403,0.16279895010469056,0.1523246580842168
404,0.16081049854604365,0.1441308518705541
405,0.1595517537600512,0.1537596173437449
406,0.16166337482708631,0.14085688365545437
407,0.15918116985882025,0.14012873554403799
408,0.1578627086306314,0.1435068740840963
409,0.15792662634861937,0.14558469654658504
410,0.1562521327480519,0.14965892817175286
411,0.15525938188143484,0.14324523106323234
412,0.15636065465023669,0.1411531595564679
413,0.15570033615310605,0.1346207425739225
414,0.15751575503191598,0.15143354854531052
415,0.15672005315443022,0.14373135040995635
416,0.15644059602996047,0.13922613974434236
417,0.15654337395735973,0.14457227879489795
418,0.15561504663525821,0.13664850574383702
419,0.15568248830217538,0.15179443373488175
420,0.1539784760134731,0.13961455213595492
421,0.1521723011551763,0.1414006625867398
422,0.1524877219939594,0.13890449516916237
423,0.15060885940536226,0.14593043073059164
424,0.15172217959920756,0.13362919298701148
425,0.1520755299769765,0.13430825465644733
426,0.1526295834784504,0.13887055686306746
427,0.1532106593334608,0.1389790069908727
428,0.15449440552235888,0.14559297340656702
429,0.15418725647776724,0.13620852300898711
430,0.1508497357291045,0.14024978532693286
431,0.1486095210386933,0.1321090827236612
432,0.14928439148753095,0.1276581563649445
433,0.14975466841845203,0.13129944645968025
434,0.14804298240694402,0.13109391101510298
435,0.1497064877411635,0.1327308631945334
436,0.14978279100714637,0.13773405938258582
437,0.15019542845688183,0.13244865280182794
438,0.1509449725194896,0.13393664379452003
439,0.1508956224971014,0.1298489076891751
440,0.15000603393280057,0.1412556343127539
441,0.14971173037406352,0.14091389582748948
442,0.14914579972696246,0.13927355993189205
443,0.14830498179371696,0.1323318579414273
444,0.15201928831047293,0.1347430133170374
445,0.15188424288928748,0.13194567177976882
446,0.14822155830683373,0.14209726526333577
447,0.14944857407471449,0.13140243785227954
448,0.14320083328788516,0.1275409028675016
449,0.14323772926279585,0.12255824872402102
450,0.14348509249022062,0.12721673539753683
451,0.1461853354359321,0.12323313045308829
452,0.14763762344487852,0.14536679534340055
453,0.1489824117820183,0.1333874248632692
454,0.1465616325626699,0.12829060059249542
455,0.1469680794375501,0.13606369392483275
456,0.14841436810320993,0.1327042315734496
457,0.15234891354716082,0.136623672353017
458,0.15278343278631795,0.13460577406935928
459,0.15260080552155927,0.13160989396479908
460,0.15152885403624064,0.1391808334987937
461,0.15165069509002801,0.13690946493430126
462,0.15286608334842156,0.1476675612703495
463,0.15248657416680353,0.14195419111727917
464,0.15065253227591802,0.13592394944148076
465,0.14940485196243183,0.14351936096315226
466,0.14801238683595075,0.1317148325816326
467,0.14812694469706522,0.1362953625072526
468,0.14793862608506334,0.13029686386249342
469,0.1455756596696796,0.13127547170270026
470,0.1401850349879522,0.1201504886785453
471,0.1405525508997061,0.11788810655509946
472,0.13991659488394964,0.13133834088375554
473,0.13901179026868893,0.11978856616469001
474,0.13861259499447143,0.11934331848029556
475,0.13699486189716154,0.1230076993650212
476,0.13669719368957883,0.11570478504157575
477,0.1363898884240005,0.11714150213828309
478,0.13454755826843537,0.12734331338774432
479,0.13423409638740272,0.11501828518173501
480,0.13330016323297525,0.10682552894128997
481,0.13035859432902266,0.11509988252911496
482,0.13045654880057136,0.1284488448498281
483,0.1297689560893104,0.12170253912223637
484,0.12930883463624,0.12016702886750215
485,0.12784714663891103,0.10938209615171474
486,0.12931268896868856,0.1072073122449719
487,0.12874557319983876,0.1204189740139006
488,0.12895102442787895,0.11397465332554567
489,0.12858523290267856,0.10830123138032566
490,0.12768982313007568,0.10761018368491246
491,0.12866553609712805,0.11320969280687579
492,0.12813586129439916,0.1203906852472647
493,0.12766760772021174,0.12004801021167022
494,0.12816390636965908,0.10697682635842484
495,0.1268774184847264,0.11027526984839527
496,0.12681527067419532,0.09831403091185283
497,0.1261521574678562,0.11758380821937638
498,0.12588555165987125,0.11607350693058573
499,0.12678184795627395,0.11130540617451296
500,0.12691648649595244,0.10625061012904477
501,0.1286137478260828,0.10281804723822421
502,0.1290726673146851,0.11352591348875199
503,0.12838353535873617,0.11336523593177736
504,0.12892169484512792,0.118407075987995
505,0.12862797791092134,0.10659526317323768
506,0.1291322662419886,0.11080363251110091
507,0.12693088934968988,0.11218866288379693
508,0.12843137928288428,0.12064523302200937
509,0.12910634795610282,0.11347769577741247
510,0.12966771921713194,0.11674533016985575
511,0.1286063588720908,0.11501747866079576
512,0.12741169581512848,0.11843079223276219
513,0.12807760746489993,0.11262808579013586
514,0.1296195343142743,0.12005286405029124
515,0.12912518781521243,0.11073458307050021
516,0.1286718994825721,0.11411548566423069
517,0.12932095597151944,0.09809718413341675
518,0.12729338882900446,0.11303285779850447
519,0.12816374324601618,0.111886525769213
520,0.1264739797817622,0.11361845238126915
521,0.1255794724614786,0.10793996391775294
522,0.12449882041326435,0.10687230186332561
523,0.12438367952486212,0.11022959639566003
524,0.12577087416065683,0.10725054104283935
525,0.12587061413912942,0.10585637414135515
526,0.12714647088083716,0.10611432631394951
527,0.1251860507797423,0.11776079860204962
528,0.12673675355841693,0.10975435126834529
529,0.12683687846270872,0.11914947656613217
530,0.1252704499234303,0.10274222898925489
531,0.12700046198390466,0.10329504213468617
532,0.1284500506135533,0.11066784093416669
533,0.1271223889456855,0.11433207988150965
534,0.12722307625267623,0.1089918142759433
535,0.12787429262979996,0.1314966425640713
536,0.1282928271604766,0.11199174398569582
537,0.12982766030968237,0.10624163611935365
538,0.12606982335888986,0.13021843978619144
539,0.12400197625743876,0.10573879946331952
540,0.12129867645345337,0.09541504270887413
541,0.12216509296763524,0.10979458817296266
542,0.12193048533370836,0.1062627522937877
543,0.12216938883780862,0.11663836899383292
544,0.12126080926766784,0.1067852864972512
545,0.12205079829783368,0.11166973591979884
546,0.12259391660717942,0.11122138820582708
547,0.12203608159955552,0.11055413834697728
548,0.12201195005640138,0.10356210876659042
549,0.12217413235923275,0.09751555063683119
550,0.12133332139713396,0.09433089841477685
551,0.12253348607954076,0.10389385649077329
552,0.12130011076168667,0.10411973164108859
553,0.12141288234461411,0.10770543708797506
554,0.12184415415798922,0.10184484856069417
555,0.12271444196645305,0.10087274691794176
556,0.1203553717937782,0.10909667049535354
557,0.12125611789137435,0.10766916030513647
558,0.12151959985435057,0.10372431906735512
559,0.12422465239997676,0.10959701579366976
560,0.12338366988096401,0.10520094136201028
561,0.12328386456250763,0.10274694141973731
562,0.12473568043036522,0.11052910397277635
563,0.1259998697713077,0.11115875101009502
564,0.1258766322696714,0.11539256385723813
565,0.12327627583051758,0.1068707404521477
566,0.12718113116342292,0.11184774782587999
567,0.129178974878707,0.11379010486104117
568,0.12850595155148675,0.1144107420470833
569,0.1291597678774981,0.11850362970848768
570,0.13037441125650295,0.10957554357321882
571,0.13169113001961122,0.11518936642484583
572,0.1330080608383929,0.11124183108181866
573,0.13289088469972427,0.12393361495862161
574,0.13225350327355018,0.11831516943042826
575,0.1318731802514941,0.12207426162526282
576,0.13248913258695297,0.12942640345775902
577,0.13155528370865718,0.11690388883933743
578,0.13233280918009274,0.11494594826506364
579,0.13393957858427252,0.12209440312615133
580,0.13386850849353818,0.11539131568211124
581,0.13437760103163388,0.11746983983404728
582,0.13556416864565712,0.11339003233431641
583,0.1339424204656022,0.12044527454576628
584,0.1349709640196759,0.1284391332738213
585,0.1345038586865655,0.12191952042275747
586,0.13559667310483164,0.11820777298054924
587,0.1350965233687922,0.11787141881289215
588,0.1330405603454029,0.11280074780299706
589,0.13460649125915256,0.12234389666106255
590,0.13544222426643188,0.1153859196505682
591,0.13502497585128537,0.12748707589217784
592,0.13563006041313913,0.11728715563182673
593,0.13618926190250782,0.11511657040069305
594,0.13636820691583348,0.12067670298074303
595,0.13604227898956583,0.11969100714506083
596,0.13748903250653777,0.12140136984218833
597,0.13668943055385022,0.12280095478588893
598,0.13708049258132346,0.12315222877941455
599,0.14068116583555437,0.13007791172169095
600,0.13991575262588943,0.12118998304562204
601,0.13961908981192123,0.1220939314520632
602,0.13985849950286885,0.13158077897758302
603,0.14034893850592686,0.12062391041886082
604,0.14087815726880165,0.12309937367852315
605,0.1415059443065922,0.12357239256412285
606,0.14215923849341394,0.11819182146978642
607,0.14232197690079157,0.11975923034743992
608,0.14208762024899277,0.1345578161286574
609,0.14365101823334595,0.11908833387924539
610,0.14477936402677918,0.12416520586565148
611,0.1444686282363584,0.1290134914754504
612,0.14353960025296222,0.1286847811683295
613,0.14385644302701206,0.127830497138408
614,0.1449153932998125,0.13256553122986933
615,0.14388594106673527,0.11990625961685895
616,0.14323800953803398,0.12114972375397995
617,0.14318714862902293,0.1239313931978398
618,0.14406398010494517,0.12371516326514397
619,0.14297630173339546,0.12731262875078414
620,0.1428676692755531,0.1212236760882477
621,0.14300487699697342,0.13413148508616668
622,0.1458738933769252,0.13729908994171877
623,0.1452667265326428,0.13307262070318235
624,0.14662311220769403,0.12974777068551732
625,0.14631125906543385,0.13068586240956984
626,0.14661652835712827,0.12457593829145372
627,0.1460244248030807,0.14031957767333397
628,0.1471974946093931,0.14277360944081782
629,0.14821595764405532,0.12865441550089793
630,0.14877266825126897,0.13299267204521018
631,0.14835968789019935,0.12709088424175108
632,0.1457405103375014,0.12580257106128412
633,0.14594535431344446,0.13275772768889438
634,0.14703340537780576,0.13363764868444972
635,0.14891001503828236,0.12763346589354896
636,0.14912722148983884,0.1238634304305937
637,0.14686765264180734,0.13282208778581567
638,0.14885711590711065,0.12893440240395757
639,0.1474606410967265,0.14045982353900865
640,0.1478384314633483,0.1279680730382476
641,0.1491005425240925,0.12972541263984147
642,0.1490847369273313,0.13175262836555657
643,0.14936941687008745,0.12951656174570345
644,0.1505529599444424,0.13211519654543266
645,0.15031599959464287,0.13374869382536683
646,0.15083309642964607,0.13168841806823284
647,0.1512561009245382,0.14047537681124017
648,0.15114230883540772,0.1321519350643316
649,0.15159113898718482,0.12953633655100802
650,0.15187961291923796,0.12976224463500652
