epoch,loss,val_loss
0,0.5607953428917619,0.5581106735814002
1,0.5578393642555385,0.5591056365233201
2,0.5576262632567189,0.5573195832243036
3,0.557528457991084,0.557392633700785
4,0.5573963978727537,0.5580952196499845
5,0.5573572532202132,0.5571765558299593
6,0.5573085261521469,0.5571861445164267
7,0.557266350029823,0.5572616975597353
8,0.5572553620337367,0.5573512200682098
9,0.557246795114568,0.55706758655922
10,0.5572068725023396,0.5577883517475932
11,0.5572351835655959,0.5571141160747254
12,0.5572084250960159,0.5571780119877003
13,0.5571755989160367,0.557768322900862
14,0.5571611581173249,0.5574115073118848
15,0.5571825853083351,0.556997647386035
16,0.5571689871043132,0.5573867483411178
17,0.5571488332278902,0.5574791278495977
18,0.5571414454971771,0.5570221668141652
19,0.557115844240089,0.557113944833391
20,0.5571354734590128,0.5575938783567538
21,0.557129741476246,0.5570664726475036
22,0.5571048764876998,0.5570748146059495
23,0.5571091634587527,0.5569794743883403
24,0.5570874740360189,0.5571561134778537
25,0.5571036204571264,0.5569651159695893
26,0.557098249472891,0.5570437919413186
27,0.5571033710170402,0.5570276460339946
28,0.5570852252652032,0.5572504792556573
29,0.5570972587583594,0.5571082921536922
30,0.5570907713014515,0.5569917663155359
31,0.5570807367666979,0.5570506809958748
32,0.5570823841159908,0.557009365540876
33,0.5570784362976621,0.5569646775278797
34,0.5570610976779561,0.557130212375603
35,0.5570671929823532,0.5569911228220161
36,0.5570643770030698,0.5570091118291944
37,0.5570723453870378,0.5570304756424859
38,0.557068642346032,0.5571523193685943
39,0.55707056390146,0.5571792712282602
40,0.5570623678963927,0.5570501032893178
41,0.5570619118519561,0.5569277628479761
42,0.5570684097269176,0.5569561462840135
43,0.5570606690437204,0.5579626435677407
44,0.5570537387087067,0.5571381142062526
45,0.5570448615678754,0.5572164315739577
46,0.557056869603969,0.5570890666829149
47,0.5570514648279129,0.5571950757769734
48,0.5570445106978975,0.5570361116683809
49,0.5570537056520737,0.5569751196996154
50,0.5570589093416324,0.5569735952405717
51,0.5570540311557042,0.5569809621676026
52,0.5570540009972259,0.5576532444054673
53,0.5570478644970668,0.5570685972646803
54,0.5570335213142624,0.557118941329549
55,0.5570578345356522,0.5569480917885641
56,0.5570383317319632,0.556959495946728
57,0.5570485835762542,0.5570342508498256
58,0.557060458729511,0.5569299182584209
59,0.5570503513109795,0.557053501818967
60,0.5570460607838892,0.5572183925224001
61,0.5570420949613465,0.5571130799596422
