epoch,loss,val_loss
0,0.45412131622480006,0.44898751678301146
1,0.447970260387599,0.447893895833723
2,0.44731294821701156,0.4467626412512351
3,0.4470388303619666,0.4471241555793705
4,0.44684660290643435,0.4465773254411096
5,0.44680137269270775,0.4468431797719771
6,0.4466946062220075,0.4466062774285489
7,0.44667489343028965,0.4465874720891711
8,0.44657913269208255,0.44648836824497573
9,0.44658403431803956,0.44659024308396333
10,0.4465690028471663,0.4464578248135209
11,0.44652681271249345,0.4463258924318602
12,0.44651024020506525,0.4479576374697626
13,0.4465121403229047,0.44643641914386606
14,0.4464812152160359,0.44677778531244905
15,0.4464800067151202,0.4465812388336096
16,0.4464754867171287,0.4464757031897457
17,0.44646384300211056,0.446327414051179
18,0.4464706684324447,0.4463154298200205
19,0.4464359614624937,0.4464000536253671
20,0.44645017076183263,0.44631793346653503
21,0.4464072686841064,0.4462528709590287
22,0.4464022542419177,0.44626319813669174
23,0.446408881573441,0.44660812469924943
24,0.44639875210834545,0.44632575958597454
25,0.4463745521386206,0.44624926907844636
26,0.44639839900558953,0.44643135313360627
27,0.44642313798909167,0.44630269791293087
28,0.446362246143198,0.4462413186618767
29,0.4463776864199279,0.4462949385566096
30,0.44637076045383894,0.44632393410128934
31,0.4463726714563238,0.44626480204887486
32,0.4463766986043398,0.4461838617957851
33,0.44634207005495175,0.4462205492681073
34,0.4463798992335895,0.44625787109358434
35,0.44634072882541503,0.4464239716086139
36,0.44635306031339733,0.4464367929078805
37,0.4463658392184026,0.4463592208348788
38,0.4463527077363954,0.4464070187608894
39,0.4463400192772439,0.4477645839118484
40,0.44632504261257366,0.44698738745660993
41,0.4463369253393697,0.44617730646807857
42,0.4463159686744981,0.4462017997470742
43,0.44631451850305914,0.44625797787907695
44,0.44633849662669584,0.4468301870834739
45,0.4462977247951986,0.4468514197665468
46,0.4463403175808962,0.4461851633807861
47,0.4463429631835514,0.44620928761385215
48,0.44633388195354823,0.4464273769269806
49,0.44631021253623526,0.44627129796420967
50,0.44633859969577233,0.4461907672970821
51,0.44631835489625454,0.44620541993796675
52,0.4463358826674879,0.44632681315353434
53,0.4463136816459109,0.446952714606491
54,0.44630973290623094,0.44629646737877254
55,0.44629035520516674,0.44620846903353706
56,0.4463199851496691,0.4462517997171388
57,0.4462943857636813,0.44618557062989134
58,0.4463037379447202,0.4462391115595626
59,0.4462928306966343,0.44629133751907063
60,0.44628143414396104,0.44614992626843325
61,0.4462966317392844,0.44615717783163555
62,0.44627959584934557,0.44672822066335466
63,0.44629821497301864,0.44624466820626935
64,0.44631463311979114,0.4463221580899383
65,0.446290091369361,0.4467922536078517
66,0.44628008038980516,0.44624824967632815
67,0.4462902580152265,0.4461817479754796
68,0.44627659325619484,0.4463311050429238
69,0.44629558135857944,0.44616789283882596
70,0.4462697308171987,0.4463998141271009
71,0.44629270072023475,0.44618438624270795
72,0.44628183541098687,0.44626417239901445
73,0.4462753749836703,0.4461832621553104
74,0.446285879727059,0.4462324433232064
75,0.44626825985303825,0.4470772231482986
76,0.44628245326537797,0.44620640375478093
77,0.44628290353638134,0.4466307323860471
78,0.4462802217280912,0.4463184496605071
79,0.4462539501362687,0.44616397817436576
80,0.44627278701161743,0.4462613878119968
