epoch,loss,val_loss
0,0.7809174065270524,0.7792224681111186
1,0.7791272678648936,0.7788610061995741
2,0.778923687919446,0.7797542481801054
3,0.7788160974589625,0.7789956880266554
4,0.7787283224897074,0.778778424541057
5,0.7787028899274658,0.7786107918169007
6,0.7786817905813284,0.7796335182473914
7,0.7786621243087792,0.7786439417313701
8,0.7786457509370764,0.7785760567442654
9,0.7786232992113161,0.7789756805961836
10,0.7786077293297248,0.7786743932563082
11,0.7786045354938632,0.7789102259995624
12,0.7785935858561239,0.7786440386074057
13,0.7785864277241022,0.7787326534096124
14,0.7785793828267856,0.7790099758368272
15,0.7785780067570754,0.7789533046279888
16,0.7785741191831312,0.7785320137333929
17,0.7785672132797032,0.7785093605666243
18,0.7785682093961301,0.778679492958722
19,0.7785682256160148,0.7785078582041909
20,0.7785617411140572,0.7785165731427687
21,0.7785710102867085,0.7785014703906795
22,0.7785490890786516,0.778783538767481
23,0.778551482769822,0.7784726413544591
24,0.7785474783365074,0.7785570868191589
25,0.7785493735009004,0.7786186785910917
26,0.7785459571713227,0.778550492415653
27,0.7785414686507302,0.7785235365922043
28,0.7785339786113709,0.7786222387484226
29,0.7785387619438678,0.7784945994689506
30,0.7785337110755667,0.7784888708857686
31,0.77853500985826,0.7784649958681528
32,0.7785316367517325,0.7786790885345516
33,0.778538641257892,0.7789831647506127
34,0.7785174062293663,0.778642545444498
35,0.7785206774555812,0.7784603904257933
36,0.7785270037706722,0.7785752861730514
37,0.7785291486733285,0.7784727906175051
38,0.7785164733509268,0.7785417958465463
39,0.7785199949417344,0.7784750035619618
40,0.7785107784209964,0.7784665468608771
41,0.778512190551986,0.7784745670134021
42,0.7785148031887235,0.7784646343652427
43,0.7785154483681221,0.7784789206668106
44,0.7785189109498503,0.7786153803096516
45,0.7785105843187835,0.7784603864915909
46,0.7785090430487354,0.7784639933269017
47,0.7785057195437229,0.7786570581549747
48,0.7785089812030298,0.7785352888533259
49,0.7785113642323988,0.7784468338152315
50,0.7785073605019299,0.7785239448618356
51,0.778507779559003,0.7784594061356916
52,0.7785046308953861,0.7784997400515724
53,0.7785099402808191,0.7786115039666888
54,0.7785070303615674,0.7784865850254561
55,0.7785093043385982,0.7785232940915204
56,0.7785108557608648,0.778530400118816
57,0.778501953755381,0.7784551697688422
58,0.778505308763035,0.7784486555284069
59,0.7784972679165231,0.778517237165134
60,0.7784999389849179,0.7784962595840246
61,0.7784941905471956,0.7786353811732593
62,0.7784990764202542,0.7785407863834656
63,0.7784960342949802,0.7785190802945688
64,0.7785028795414666,0.7784726597535108
65,0.7784970090846488,0.7784597067619967
66,0.7784944548424937,0.7784526752479023
67,0.778502928364408,0.77845556960804
68,0.778491592192192,0.7784554082170018
69,0.7784896388517221,0.7784405704467527
70,0.7784989203513911,0.7785802523196483
71,0.7785000272413791,0.7785196745070275
72,0.7784901092504648,0.7784570798684587
73,0.7784945766517609,0.7785076524424493
74,0.778504360714641,0.7785277567193762
75,0.7784923886751428,0.7786169451756157
76,0.7784915089708209,0.7786061221849238
77,0.7784979079638057,0.7784691120791376
78,0.7784955789951973,0.778454822198333
79,0.7784946369048225,0.7784529195825752
80,0.778493102370578,0.7784572937648291
81,0.7784921728927767,0.7785406472665205
82,0.7784945807654997,0.7787005716458739
83,0.7784899184581748,0.778465268363432
84,0.7785014110384499,0.7784545852291969
85,0.7784916112692123,0.778549568233064
86,0.7784879151919816,0.7784476908205756
87,0.7784892338799647,0.778614617725164
88,0.7784995297700539,0.7784617078807159
89,0.7784849944129326,0.7784617450042043
