epoch,loss,val_loss
0,0.5625314379662595,0.5585296027713614
1,0.5584762575144842,0.5580964869068515
2,0.5578687367012861,0.5597873062117223
3,0.5576508677134663,0.5575845083586927
4,0.5575595013358005,0.5580940104595781
5,0.5574493367152508,0.5574913312720305
6,0.5573979247877069,0.5572443854720066
7,0.5573402915546658,0.5572209838306342
8,0.5573084242718344,0.5571794725233509
9,0.5572702983482688,0.5570596862075938
10,0.557261262936955,0.5570772276622782
11,0.5572561093293075,0.5571440641105027
12,0.5572247074117063,0.5571402296534839
13,0.5571973568303534,0.5571551986722734
14,0.557212667822486,0.5574786300103067
15,0.5571860706658988,0.5571814479958035
16,0.5571746690138458,0.5570341070591663
17,0.5571832449106678,0.5574749396101712
18,0.557188740359366,0.5570495527672117
19,0.5571568489809895,0.5572904344823757
20,0.5571657487509343,0.5570652226064696
21,0.55713117117365,0.557216862798033
22,0.5571561434830565,0.5570471917429278
23,0.5571398460305426,0.5569987782177795
24,0.5571335513600822,0.557075479900275
25,0.5571364128515953,0.5573914564868653
26,0.5571331547751459,0.5570816077014649
27,0.5571369602368115,0.5582083404507886
28,0.5571393340550339,0.5571201375045493
29,0.5571204313776119,0.5575505207845058
30,0.5571174839890225,0.5570355335476972
31,0.5571205637256234,0.5571003403616307
32,0.5571118219342946,0.5570685084641128
33,0.5571111696451878,0.5574896583190331
34,0.5570980061083594,0.556995664755109
35,0.5571147211767572,0.5570715493658932
36,0.5571087748354591,0.5570782989189583
37,0.557097245438207,0.5572408372060241
38,0.5570896998345809,0.5575825944136154
39,0.557096541634677,0.5570184150049763
40,0.5570930421563004,0.5570607489155185
41,0.5570948300077213,0.5571454161745739
42,0.5570857314073276,0.5570503015672007
43,0.5570819419754393,0.5570954718010006
44,0.557085216135306,0.5570121351010154
45,0.5570889488685926,0.5570617250709913
46,0.5570929633697211,0.5570159698538389
47,0.5570729075399059,0.557149387618744
48,0.557078035864822,0.5576955798837743
49,0.5570922276849121,0.5579015333658413
50,0.5571071659352285,0.5569875910027743
51,0.5571012845704949,0.5570069443794989
52,0.5570751328407173,0.5570019877873934
53,0.557063839380391,0.5570126541790832
54,0.5570682568275661,0.5571483270997741
55,0.5570922077109942,0.557085792953264
56,0.5570663885566915,0.557252401039559
57,0.5570768236678519,0.5569722764841084
58,0.5570724091819378,0.5569791805063821
59,0.5570844331902242,0.556961518570448
60,0.5570627414538574,0.5569939169339447
61,0.5570647033428582,0.5571501327803354
62,0.5570658235884958,0.556959637459691
63,0.557066581762007,0.5578597373169646
64,0.5570819608276435,0.5570520962438276
65,0.5570785138868001,0.5570110814742947
66,0.5570684197032274,0.5569717541817696
67,0.5570622973088935,0.5570760223469131
68,0.5570674400827751,0.5570456379400589
69,0.5570835892040413,0.5569926758557928
70,0.5570629426097717,0.5570844809707282
71,0.5570738530459067,0.5571649239909264
72,0.5570616392187443,0.5569954643474323
73,0.5570801040783931,0.556961057144714
74,0.5570772979736606,0.5571077863276744
75,0.5570610200399106,0.5570098524058131
76,0.5570796369028023,0.556960615774538
77,0.5570626915281341,0.5571170776121078
78,0.5570708486416065,0.5569946752884252
79,0.5570662098524044,0.5571775640802407
80,0.5570654589242799,0.5570236237705789
81,0.5570651621221621,0.5570032752773011
82,0.5570560138058734,0.5570368370406386
