epoch,loss,val_loss
0,0.8905366342773341,0.8901668981642049
1,0.8896639730920199,0.8896850666987984
2,0.8895547149722849,0.8894205450715853
3,0.8894634244412357,0.8895997970334946
4,0.8894015048398065,0.8893263410693658
5,0.8893869202266771,0.8893687327209833
6,0.8893670547426751,0.8893266983718493
7,0.8893575077250242,0.8894012072246069
8,0.8893499640966238,0.889342017357166
9,0.8893346123417959,0.8893108974911144
10,0.8893340954645089,0.8893034642446721
11,0.8893223856243925,0.8893718428410609
12,0.8893207647947136,0.889288156144968
13,0.8893117024386075,0.8893051244484875
14,0.8893128313794979,0.8893427177930884
15,0.8893224847509058,0.8893731163394066
16,0.88930627602815,0.8892712169486299
17,0.8893032655522396,0.8892741113975089
18,0.8892968335949146,0.8893244357026244
19,0.8892936164215719,0.8893902606762965
20,0.8892985080317777,0.8892671858110736
21,0.8892916993309112,0.8893011911335418
22,0.8892875734582898,0.8892735031343275
23,0.889289922865436,0.8892578748556283
24,0.8892844039057144,0.8895026332095598
25,0.8892891550729543,0.8893127315689258
26,0.889283802193114,0.8894620924374602
27,0.8892782701830193,0.8893930940710877
28,0.8892759381860995,0.8892578769262612
29,0.8892796232591773,0.8892421231376326
30,0.8892759409667188,0.8892484067095716
31,0.8892745322087584,0.889327219017682
32,0.8892749595579931,0.8892510026027783
33,0.8892764509756789,0.8892702367406329
34,0.8892716755574949,0.8892657714209544
35,0.8892752610331289,0.8892521456512564
36,0.889268868366546,0.8892809792724495
37,0.8892725076576149,0.8892522913350657
38,0.8892715161376897,0.8892920025229158
39,0.8892698014177388,0.8892429630158852
40,0.8892685304215175,0.8893188827386861
41,0.8892671907846249,0.8892951703544881
42,0.8892685281962334,0.8894892746106566
43,0.8892703252824656,0.8892361547751699
44,0.8892624276974027,0.8893783983166696
45,0.889264455279224,0.8893867561894079
46,0.8892648700655814,0.889235799336256
47,0.8892644260160657,0.8892457673330757
48,0.8892657287074026,0.889290633509236
49,0.8892647622706353,0.8892523665877785
50,0.8892612488094906,0.8892439016929039
51,0.8892626567817782,0.8892396233217887
52,0.8892635109020364,0.8893346384500451
53,0.8892631185239207,0.8892502985580387
54,0.8892572505692659,0.8893430075633615
55,0.889261439155304,0.889257350127691
56,0.8892599424777119,0.889280922330047
57,0.8892639885437993,0.8892390249089035
58,0.8892621264920461,0.8892417764249569
59,0.8892578296914054,0.8892975767552113
60,0.8892579022817394,0.8892528689824618
61,0.8892637121037028,0.8892304843767701
62,0.889257138972957,0.8893038785782996
63,0.8892612933372628,0.8892431392563188
64,0.8892536962728538,0.8892515153506257
65,0.8892602982455238,0.8892412110534554
66,0.8892591917909688,0.8892467415953984
67,0.8892568691432404,0.8892418025149306
68,0.889254573176047,0.889265888796255
69,0.8892547522305738,0.8892646910830704
70,0.8892537589681273,0.8892438709292163
71,0.8892555725148369,0.8892656897196994
72,0.8892573887459286,0.8893888005843529
73,0.8892561228889229,0.889241538834631
74,0.8892564275406698,0.8892553027746991
75,0.8892546226931571,0.8892466094298634
76,0.8892555681541947,0.8892340741441505
77,0.8892558860653542,0.8892735434229262
78,0.8892557331762575,0.8892397623795729
79,0.8892539451228965,0.8892448763989337
80,0.8892559123364874,0.889316849702641
81,0.8892534779149637,0.8892464000593048
