epoch,loss,val_loss
0,0.4568212050930516,0.44839153453966524
1,0.4478757587824265,0.4472243747403545
2,0.44745434796454703,0.4469036685030159
3,0.44697808956720014,0.44680130168167
4,0.4468593190416219,0.44705764759267236
5,0.44672737020722464,0.44687757916545157
6,0.4466862397081832,0.4466872537846009
7,0.4466546218851586,0.4466040001022017
8,0.44660162019908833,0.44652632528144137
9,0.44656700549324013,0.44652121327355243
10,0.4465383660502858,0.44649347330145445
11,0.4465154116268192,0.4463370013473643
12,0.44649335195654377,0.44644576555150317
13,0.44648483626624247,0.44637917945757694
14,0.44646555543091004,0.446758685455133
15,0.44644360927695137,0.44630102602483024
16,0.4464562933316808,0.446378895499866
17,0.4464260669534161,0.4464466899411554
18,0.4464124970628034,0.4464118499465971
19,0.44641278227348585,0.4465292844228058
20,0.44638403260717796,0.44624483786504854
21,0.4463875587440023,0.44653156528401905
22,0.44640645895712516,0.44633255047774495
23,0.44636462799050797,0.4462347947782086
24,0.44636568553258943,0.44639402009713147
25,0.44637125711424885,0.44633384799543147
26,0.4463688224138744,0.4462598411676014
27,0.44633536115228584,0.4462367529904576
28,0.4463712004681041,0.4462496887513485
29,0.4463456218243529,0.44624212202304053
30,0.4463403978287796,0.4462611073595714
31,0.4463634874368837,0.4462235267345722
32,0.4463498500994911,0.446188397990267
33,0.44634133149525845,0.44641916160252193
34,0.4463389877073297,0.4463879206340307
35,0.4463315782061426,0.44653733223306924
36,0.44633157982245153,0.44635134277213595
37,0.4463309478949715,0.4462941817107331
38,0.4463498925743379,0.4462848133691783
39,0.44633028512431044,0.4464905543155765
40,0.44632303924225514,0.4462093548058872
41,0.44634238129933007,0.4461867494707368
42,0.44632036372092543,0.44624704104795054
43,0.4463292744153514,0.44704115359718094
44,0.44633292117898954,0.44618542516793563
45,0.44631792610109794,0.44635457366926795
46,0.44632426719843427,0.4464633406096002
47,0.4463132760095659,0.4462739722308687
48,0.4463139998303994,0.44696848080412627
49,0.4463218479070291,0.4462086679621902
50,0.4463071871076925,0.4463843545901864
51,0.4463121236235192,0.44666430139659946
52,0.44631064971387435,0.4464091109874527
53,0.4463477045381633,0.44688645021495393
54,0.44631036742027846,0.446191921305124
55,0.4463018243880098,0.446217870253783
56,0.4463296608311094,0.446206253604321
57,0.4463156833486467,0.4462016761894557
58,0.44631021515987773,0.4461880049545771
59,0.4463102077196505,0.44657774623806956
60,0.446306419444973,0.44646280446360187
61,0.44631686096654544,0.44651575387263714
62,0.446309322828389,0.4462296621675231
63,0.4462976017151292,0.4462406096771988
64,0.44629846803264284,0.4462000756642363
