epoch,loss,val_loss
0,0.08878005396557628,0.07869143405416172
1,0.07198346790489168,0.06918480510525313
2,0.06847015771893525,0.06595793795348989
3,0.06589391175533024,0.06550314657889288
4,0.0640288081276831,0.0640461892351767
5,0.06320333724952626,0.06340526466629937
6,0.06214635877461521,0.0604832170323166
7,0.061192980315754424,0.060784929144027514
8,0.06019607079958757,0.05852713285027899
9,0.05953673292779441,0.059051994043899235
10,0.05885819558198318,0.05870103140733674
11,0.05855715749951574,0.05807375725053676
12,0.05820815259242749,0.05754444624849644
13,0.05804680031123717,0.056388410178958334
14,0.05784929234355191,0.05717893248012581
15,0.05743015866090003,0.05658826532567997
16,0.0571392878689478,0.05714111017530077
17,0.056973206417434696,0.05645755320306747
18,0.05688517005571978,0.05624285619844574
19,0.056535291082803966,0.05600880816504914
20,0.05641109879710753,0.056959979302682
21,0.05633490737569269,0.05665274908391773
22,0.05615050042596406,0.055581711508130315
23,0.056136978157203345,0.05574615992624174
24,0.05589796747234372,0.056137344978805216
25,0.0557677242765131,0.05510002959972576
26,0.05565281695901249,0.0588864093752712
27,0.05563463513588778,0.055407264216735995
28,0.05549296810896653,0.05478198833708136
29,0.05538484225463824,0.05592056238473793
30,0.05538145928085659,0.05586732398561449
31,0.055216895321793545,0.05595540027168785
32,0.05518892088222912,0.05930270565576648
33,0.05525983200368571,0.0547780855972477
34,0.05489889924722826,0.055329334968816556
35,0.05493999646262676,0.05722734732715131
36,0.054657332706542286,0.054770175654154554
37,0.05468112932037506,0.05547620892228915
38,0.05451741387310057,0.058813533486414785
39,0.05432745442292343,0.05433119454839389
40,0.054399583619771506,0.053931618539186627
41,0.05413301792893795,0.05396199541411388
42,0.05404818132001067,0.05471579506808416
43,0.054010892083033925,0.05463828359621926
44,0.05387204503310334,0.053642619029611864
45,0.053882549778414834,0.05355999150657772
46,0.05402169267151942,0.055708079152826044
47,0.053992185811794734,0.053891767705640484
48,0.053753257846192455,0.055363648967174973
49,0.05373850613707247,0.0531482665455223
50,0.05362896307051798,0.053982022038612416
51,0.053694274051358494,0.05411150996982312
52,0.05359058940205795,0.053199436330691754
53,0.05360354089886895,0.053280447968847996
54,0.053516129909619875,0.05341709716887983
55,0.05354383957506747,0.05329503347685852
56,0.05331622895518779,0.053080549616154014
57,0.05331022577507364,0.05526319749597876
58,0.05328151505158517,0.05293196645142423
59,0.05316992811393245,0.05303021364893866
60,0.05317008518532219,0.05342615482677005
61,0.05313649336562264,0.05489901498366822
62,0.05305130467695099,0.05293020100030059
63,0.05307461761534817,0.053770939366101625
64,0.05306315889616278,0.053638191147714336
65,0.052871821209315224,0.053030762778914005
66,0.0530411872599238,0.05299161510546657
67,0.05287846021727018,0.05272754572757125
68,0.052952743920239714,0.052790902229603705
69,0.05278872147677169,0.052854607352252045
70,0.0529161171760347,0.05384828093699723
71,0.05294333183455481,0.053039969910610996
72,0.05281521101994199,0.05343108368903472
73,0.052870313908771525,0.05279938436619401
74,0.05280294188744552,0.05339539786315438
75,0.05282691840951449,0.0533288174708635
76,0.05280677564275025,0.05232066738213558
77,0.05271537950905643,0.052997519955889465
78,0.0526836793945412,0.05292471639127944
79,0.05269288954766111,0.05361542703939726
80,0.052701997489210006,0.05413932714139853
81,0.052647091030671826,0.05337613581797621
82,0.05266410327854324,0.05285708288992605
83,0.05255005959466705,0.05246431044772008
84,0.05259279899403763,0.0527693530780358
85,0.05252493019194378,0.052656417555422996
86,0.052457249826082734,0.05415361404566848
87,0.052473579139168954,0.05249722198798106
88,0.052694156734236774,0.053008390497185164
89,0.05265798537101465,0.0525188615762862
90,0.05262661408834391,0.05247302952386605
91,0.05250687207993862,0.05379942999806061
92,0.05266576806345286,0.052652974615321854
93,0.05246214294462662,0.05216653460900186
94,0.05238528249337176,0.05210804448973748
95,0.05244669649477405,0.052746565381143584
96,0.05240411863143734,0.052655263078715604
97,0.05237028420689694,0.05229701125444313
98,0.05233547962527847,0.052618414832847585
99,0.05241802661643806,0.052802245272670134
100,0.05242041631029567,0.05255508868407375
101,0.05235225184684039,0.05285533641652197
102,0.05230538813031888,0.05259121479674545
103,0.0522669067058119,0.05198664212825872
104,0.052428928948472946,0.053657098867868076
105,0.05227558238010306,0.05357771129821134
106,0.05240069770755187,0.05254122051167725
107,0.05230204465587492,0.052920494707435296
108,0.05210381405473977,0.05211901761055288
109,0.05223473127872145,0.05279141348363744
110,0.05212459031480787,0.05249340082183665
111,0.052175383526683515,0.05235093010788224
112,0.05229744959240385,0.05244317609567204
113,0.05218831066391389,0.05293375022210199
114,0.052147845078533185,0.052343729301066906
115,0.05224774300746817,0.05302230747920408
116,0.052159861421998154,0.05271134893999206
117,0.052258167381888404,0.05208634393793478
118,0.05212609447966102,0.05162849948364807
119,0.05211060702356246,0.05192678591453704
120,0.05207531188982495,0.05435612803468337
121,0.05207355140171897,0.05231974821528489
122,0.05209811845906309,0.05183112565104482
123,0.05209547005944509,0.05365809999757606
124,0.05216033488127091,0.05334197253765303
125,0.05204216296376127,0.05241715117697385
126,0.05198306679268915,0.055192095300104126
127,0.05211137983417456,0.05292527336562538
128,0.0520470280637944,0.05229406185429682
129,0.051968007098259085,0.05205962290298702
130,0.05199810622552556,0.05258889172790068
131,0.05202642674882825,0.05221041941613181
132,0.051975838190950106,0.054892848639127335
133,0.05198846394161518,0.052421746377095985
134,0.05206374552029557,0.052269404891776686
135,0.051957650780851336,0.052432423090520625
136,0.0519443077799709,0.0525093171717807
137,0.05204053108545936,0.05213339850306511
138,0.051902682753190446,0.05200883629674059
