epoch,loss,val_loss
0,0.4516363568988842,0.44794020377672633
1,0.4478770976375905,0.44725849455402744
2,0.4476087382604726,0.44839873729509394
3,0.4473603411025376,0.44683468865401693
4,0.4471172279613219,0.446877904476658
5,0.4470185002297791,0.44701603275374796
6,0.44690149322066747,0.44680976565955
7,0.44682464077831097,0.4472902753217049
8,0.4467196642450878,0.4464350488138554
9,0.44667222831320896,0.44686809436559083
10,0.44667199716880873,0.44687267932347563
11,0.44660059567577615,0.446885027379611
12,0.44657480981475495,0.4471128006431068
13,0.44655655764132174,0.4464501819007154
14,0.4465448823645,0.4463928311249754
15,0.4464879754741761,0.44633907530798805
16,0.44651973890778,0.4464153403827629
17,0.4465197374953832,0.44648576458689593
18,0.4464715706156084,0.44635482853458774
19,0.4464845980018793,0.4462875291668156
20,0.4464487902660077,0.4463566336531201
21,0.4464349411239149,0.4464176442280005
22,0.44643226793554447,0.44645099728633986
23,0.4464404517642602,0.4463546273134482
24,0.4464237881791268,0.44630224018475556
25,0.4464109790115179,0.4463410465800141
26,0.4464028080458285,0.44721157961980285
27,0.4464116243384274,0.44625803816407256
28,0.4463669982586093,0.4466024331360242
29,0.4463771954047667,0.4465285412726864
30,0.44638927346434765,0.4463872713871097
31,0.44635457472424084,0.44627775944787873
32,0.44638028922116146,0.4463187757408057
33,0.44635343796842974,0.4462338207377394
34,0.44636209372463725,0.4464013866396163
35,0.44635270638473834,0.4462525064832815
36,0.4463773504315878,0.4468430232173456
37,0.44634042655237943,0.4462505503120848
38,0.44635152621300844,0.44632073392347427
39,0.44633500276398685,0.4463891971643746
40,0.4463356752463059,0.44630199482955646
41,0.44633836000954635,0.44623865467443063
42,0.44632826764067285,0.4463179845815853
43,0.4463423022895125,0.44651660873339727
44,0.4463466716414401,0.44627551912669805
45,0.446327001625507,0.44625833290386435
46,0.4463152997679371,0.4463028851129281
47,0.4463252023707861,0.4462735122249972
48,0.4463395223667755,0.4462875132821038
49,0.44631115788249837,0.44618596733355936
50,0.4463300763396389,0.44683001567944697
51,0.4463272733144915,0.4468943986052615
52,0.44632272032257886,0.44638238785876233
53,0.44631122506423204,0.44627712512430423
54,0.446306902175072,0.44658176098804614
55,0.446323161250307,0.4462942879785675
56,0.44633647342681493,0.44617764695406553
57,0.4462957289222973,0.4462889378183237
58,0.44631530172699185,0.4462664357042194
59,0.44630233772345823,0.44755884306898186
60,0.44631456182826273,0.4463500624702823
61,0.44629744849235814,0.4461648857918922
62,0.4463184053457597,0.446424480865966
63,0.44629446001686507,0.44618649080432676
64,0.4462968965201063,0.4463237074853173
65,0.4463153187309717,0.4465418349128799
66,0.44631811936557536,0.44653932675534386
67,0.4462957375871802,0.4463569421922007
68,0.4462993640775402,0.44630947530121723
69,0.4463000862907419,0.4463347079144518
70,0.44631610875578637,0.4462260907400335
71,0.4463056131620155,0.4463821856318869
72,0.44630139101922744,0.4463147024806617
73,0.4462895857044776,0.44698067047164103
74,0.44628457030701796,0.44661625780479486
75,0.44629759654672707,0.4463870295963571
76,0.44627179632942776,0.4462351691338324
77,0.4462832373913357,0.44620960140346594
78,0.4463002537128143,0.44644491428477
79,0.4462918890022512,0.4461517956801147
80,0.4462946463743631,0.44641241420883104
81,0.4462841154868426,0.446222315798918
82,0.4462994945453797,0.44625094666078724
83,0.4462841264030411,0.44617071975549455
84,0.4462994319597533,0.4461687830482464
85,0.4462821018712239,0.44614383039935945
86,0.4462803429520478,0.4479854306867046
87,0.44627749005481754,0.4461425638228433
88,0.44628791254472727,0.44616646645382674
89,0.4462739411204648,0.4463310897202409
90,0.446276372014349,0.44620816623306747
91,0.44629588471940906,0.44620456069929726
92,0.44626240539405004,0.44620087305014544
93,0.44628753652572445,0.44697715400466254
94,0.44628941065246475,0.44612886927855516
95,0.44627033530292454,0.4466582894621061
96,0.44628054484275564,0.44624026337864975
97,0.4462743843424997,0.446180283461256
98,0.4462743941318572,0.44618625247448906
99,0.44627450462656765,0.4469911162226135
100,0.4462816812648924,0.446179938552989
101,0.4462631425212314,0.44633712798135156
102,0.4462678230110455,0.44681739317572144
103,0.44625744255226674,0.44672643796681766
104,0.44628149516100263,0.4462673550947724
105,0.4462761069424495,0.4466560486972184
106,0.4462762431742564,0.4462258799200318
107,0.4462617125079018,0.4462155445337887
108,0.44626124194508276,0.4463830137962739
109,0.4462693561778563,0.4462197620135087
110,0.44626283194696265,0.44647943093522313
111,0.4462642572995011,0.4468115562984429
112,0.446253267424426,0.4468180258575799
113,0.44626094941328615,0.446533840510153
114,0.44625587402781125,0.4468260778534797
