epoch,loss,val_loss
0,0.08586019820168084,0.0680055364744539
1,0.06396747740614848,0.060903834777123876
2,0.060933144399191126,0.06079688999367411
3,0.059923315293868726,0.05846902973228885
4,0.05942091824162027,0.057968154017150254
5,0.058819585795438126,0.06080668617603797
6,0.05825505277410845,0.0581171875630064
7,0.05781283080397406,0.05738311001000274
8,0.05753211206257414,0.05725496045635001
9,0.05724196637470626,0.0562008267578209
10,0.057013586568929187,0.05675414216799417
11,0.056681543477512135,0.0559928325598796
12,0.05646047016236686,0.05608140365879234
13,0.05635347884246026,0.05558188620668191
14,0.056249957038327886,0.05525509239574224
15,0.056217525222930935,0.05496697612938751
16,0.05597285331555716,0.05563570275422065
17,0.055953248778228416,0.0562803051016171
18,0.05578990272971641,0.05590423252387319
19,0.05577749949544631,0.054800843364251756
20,0.05564451061771527,0.0543527996125943
21,0.05556538241284009,0.056832818304264815
22,0.05551322316798337,0.05601541791712084
23,0.05532422301826695,0.05524724350488807
24,0.05536969246585121,0.05489492250176577
25,0.055383405019241674,0.05516410257768986
26,0.0553220443926891,0.05468159686062236
27,0.05538668760680068,0.055938263267056816
28,0.05526684228672955,0.0549023949497243
29,0.055136575086315635,0.05449358692609938
30,0.05514613159499906,0.05506491500412856
31,0.05510558238062027,0.05489181795575779
32,0.05512501842933162,0.05456329082178123
33,0.054866077102376315,0.056022414851647155
34,0.05471920951517764,0.05506426900921033
35,0.05472220389741599,0.05547222283578688
36,0.05458987826371691,0.05448147427688166
37,0.054606612709284165,0.05436072964637215
38,0.0545452068789584,0.05413041067293501
39,0.05442807807053852,0.054330728295497205
40,0.054319519873520794,0.05399193209468875
41,0.054326020087826166,0.05388447796144793
42,0.0542308587611585,0.053490186344009476
43,0.05420536444572617,0.053582654414564446
44,0.054251321975485246,0.05332192574851862
45,0.0540158330660684,0.05354572102316556
46,0.05404928719775962,0.054171583599991004
47,0.053993580021816374,0.05358713295116614
48,0.05391446324994543,0.05356758353173289
49,0.05388806753083489,0.05449436495898675
50,0.05380453925240442,0.05397556190455226
51,0.053939571123070726,0.053460478882487894
52,0.053868106638756845,0.05464980860723751
53,0.05389654373599745,0.05294961819503798
54,0.053800601733312074,0.05366701468011877
55,0.05390644178444845,0.053513090684085565
56,0.05380606542112614,0.05562961677241858
57,0.053860478248675,0.05400976047992115
58,0.05363537865430931,0.053665592438233996
59,0.05362543394931015,0.05431945657648756
60,0.053781655192557794,0.05449768366758936
61,0.053745573939691045,0.053356514127911175
62,0.05370763884869499,0.05328880034886282
63,0.0536307454946533,0.05398555463619031
64,0.053587202538909744,0.05378426120017953
65,0.05351288722794086,0.053282817795170155
66,0.05368520762375278,0.05349596656359751
67,0.053593127461846995,0.053627280047898254
68,0.05351168575351202,0.05377754978743144
69,0.053653028120947445,0.053400057678113205
70,0.053608813969956606,0.05320401282671368
71,0.05354993395017572,0.054304923595994634
72,0.05356385660045336,0.054389182646428384
73,0.05342539320279388,0.053269803202329734
