epoch,loss,val_loss
0,0.45119414328219354,0.4474116129555714
1,0.44750132967891526,0.44962958081188625
2,0.4471009950120756,0.44688328202841593
3,0.44692245854174495,0.44730020412440336
4,0.4468719927556029,0.4464855928574839
5,0.4467075998207961,0.44664334466972067
6,0.4467113232537987,0.4467972378281151
7,0.4466320503565155,0.4499288237420264
8,0.44657417022893675,0.4469108437338183
9,0.4466117894167847,0.44674122485866025
10,0.4465138953074059,0.4463290172386406
11,0.4465455327111176,0.4463024335227001
12,0.44650688592313315,0.4463696869667943
13,0.44643826502176387,0.4463169256599606
14,0.44646760782808215,0.4462795504417372
15,0.4464552146856851,0.44749584557400746
16,0.4464474491437516,0.4465411228518332
17,0.44643069727809764,0.4464173318138785
18,0.4464172571725937,0.44661396552552063
19,0.4463998327362719,0.44630984152221204
20,0.4463973660284059,0.44633912217824095
21,0.4464006880019086,0.44668331717143284
22,0.4463853073905632,0.44632480231763116
23,0.44639028231916605,0.44622181501637026
24,0.4463721058984789,0.4463976342979791
25,0.4463684955570091,0.4462043031125743
26,0.4463419971735402,0.4467122170528762
27,0.4463592437018968,0.4462385990779394
28,0.4463573557189954,0.44683341324773085
29,0.44633769011221724,0.4462569203181539
30,0.4463368532057672,0.446631305537212
31,0.4463262570999063,0.4463979883022403
32,0.44635163732655453,0.44628269446103214
33,0.44631457705264627,0.4462639846221981
34,0.44631784262178,0.4462594739408706
35,0.4463347095991556,0.44620747058918103
36,0.44634500162477564,0.4465703814556226
37,0.44630199310573243,0.44628073317241435
38,0.4463237209739788,0.4462395541573281
39,0.4462995955382605,0.4463172262566853
40,0.4463152116108682,0.44623465607539003
41,0.4462942937176895,0.44625851667252725
42,0.44631567961788393,0.4463519363634048
43,0.4463088195934907,0.44630320001180945
44,0.44632109604098796,0.4462341075647558
45,0.4463118013304192,0.4462251044976208
