epoch,loss,val_loss
0,0.1430107834000739,0.05910354126141875
1,0.0407004579767692,0.027293344914042866
2,0.025222895345349106,0.023300699645619555
3,0.024362974573108407,0.02416443018111876
4,0.02394873975328714,0.023667923904714287
5,0.024032043032556606,0.026464633415758186
6,0.023955983366611765,0.024086211426529062
7,0.02399619391335429,0.023910952045419785
8,0.023850816577452597,0.024069779704676997
9,0.023881642235745248,0.023609397418344218
10,0.023907607576871614,0.02346473970342407
11,0.023866277762043246,0.023457155872398036
12,0.023931716646936586,0.023864438153080047
13,0.02377549470435801,0.023648099276959756
14,0.023778217260261997,0.023877367072965842
15,0.023770933507753313,0.023166973465772813
16,0.02368152330292286,0.024386082769275275
17,0.023793743577131408,0.023748018451758324
18,0.02367624703669648,0.024111357275705313
19,0.023704890925571216,0.024736246618941343
20,0.0236956409947704,0.02378294738957801
21,0.023716531341804636,0.023828493650258763
22,0.023593243150461872,0.023487566946031734
23,0.023655311343707533,0.024633278399882302
24,0.02363945727722703,0.023279362670553888
25,0.023533065580754735,0.02316404162408474
26,0.02367570105832901,0.023608797870064778
27,0.023575377861986296,0.02375776130756056
28,0.023645335095945737,0.024553218946131366
29,0.023514998027776405,0.025810174397012806
30,0.023538575312651272,0.02328744828818629
31,0.023659101216871436,0.023261150401070914
32,0.023482940683095196,0.023488619835972314
33,0.023435448611275757,0.02337929175103755
34,0.023633786501715794,0.02319196142232738
35,0.02346028814197992,0.023600105915127446
36,0.0234735868692541,0.023672526055430933
37,0.02355641157900115,0.022885270412326235
38,0.023452433371107927,0.023282430095755403
39,0.023453830993718665,0.023577383033572544
40,0.02345823985543087,0.02289916038507303
41,0.023388421438414034,0.02397021350333939
42,0.023441637817064494,0.023036502489868636
43,0.023519890454354334,0.023674623476195825
44,0.023356765081330264,0.022928309046914
45,0.023402606046272457,0.02292597789432039
46,0.023470506657936353,0.024461523918604042
47,0.023331941924334097,0.023466584643888587
48,0.02337531822485675,0.023015648686718827
49,0.023379386363210058,0.02321307978724389
50,0.023354532785987633,0.0240884715957301
51,0.023351270918377773,0.02343252846631556
52,0.02334437667013263,0.023283024276617763
53,0.023444506588379304,0.02387338844381549
54,0.023251959733921086,0.023310251170864892
55,0.023323876489933542,0.023139834539242964
56,0.023357466148356976,0.02288420327395883
57,0.02329717427685702,0.023966560537185176
58,0.023294212808795303,0.023006924564032076
59,0.023348516908933598,0.02413738693603871
60,0.0234260126266429,0.02435960061554139
61,0.023348336054427588,0.02308905657583696
62,0.023289567896639177,0.023155795516124275
63,0.023271008855480845,0.023337310340311362
64,0.023351580397390444,0.02319636200161411
65,0.023298854058940444,0.023005108955450763
66,0.023269668742597435,0.0230614331248786
67,0.02335044461340427,0.02280564316869629
68,0.023212292021680937,0.02504788074810014
69,0.023278890738187792,0.022834759274675515
70,0.023303268440097547,0.02318073362817704
71,0.02329610489073584,0.022976315614856316
72,0.02326563489790872,0.023443558674537956
73,0.023301252527244323,0.02313384722885929
74,0.02328481383809297,0.02281129080728696
75,0.02320760168242369,0.023213286868692763
76,0.023264911214111568,0.02531049533320066
77,0.02319617808419023,0.023208849198216516
78,0.02336690611214184,0.02413148227446928
79,0.023231990305598166,0.023040534034606597
80,0.02341824273045043,0.023894583582936918
81,0.023118737674088216,0.02341294579278463
82,0.023240840475675727,0.022838717713164078
83,0.02323548594559673,0.023021009732287705
84,0.023234822592295284,0.02307923267512408
85,0.023260826595592126,0.02377578408707995
86,0.02331538314593853,0.023809237708502993
87,0.02314988534814186,0.023154031280972116
88,0.023207781851279745,0.02292108856106284
89,0.023214139048751595,0.02466991070684431
90,0.02325072277152686,0.023205134673624783
91,0.023213811063145896,0.023090667843277658
92,0.02331878757513732,0.024495135184198078
93,0.02321802719915323,0.0254250125784571
94,0.02321541215554416,0.02339505551834227
95,0.023258590134237405,0.022678219665491686
96,0.023292214165982917,0.02277973729267352
97,0.023188338883751207,0.022967624362637513
98,0.02320793891723136,0.023368136104616764
99,0.02315088653405436,0.023547815648513982
100,0.02319814106427151,0.022905179100212565
101,0.023239691443235087,0.02302377800080093
102,0.023190552247412722,0.023017747410012213
103,0.02322993853943144,0.022771135984016574
104,0.023225960725223083,0.023356986388669957
105,0.02314654883625601,0.022847995816214686
106,0.023208029499704793,0.023207726248120265
107,0.02329925742584,0.0229362000012219
108,0.023126118928104712,0.023507147736335797
109,0.023134798450256996,0.023037401580008447
110,0.023246777591576204,0.022756849094378542
111,0.023198763415556874,0.022892268368681773
112,0.02312044844888955,0.022871199048520453
113,0.023225460891618574,0.024072057999017772
114,0.023169573442600996,0.02296527323990049
115,0.023204047133852775,0.024252349751889
116,0.023206985205691828,0.02339614169626558
117,0.02318662138496467,0.02304628927145968
118,0.023224878167327073,0.023848141845677344
119,0.023150421887469425,0.02296775738372752
120,0.023225683309465384,0.022856924923955687
121,0.023082727427891404,0.023216546850533305
122,0.02319406081425796,0.023067183257466522
123,0.023129407100552182,0.022966899118888256
124,0.023207372841354518,0.02278463780033184
125,0.023118213441470067,0.0231791497255957
126,0.023212771404900853,0.02300388303209734
127,0.02313964833527041,0.023002134589000585
128,0.023158770918899733,0.0238195121473535
129,0.023141842112123823,0.023474394620911474
130,0.023197718307101947,0.02327830557165272
131,0.0231201925778763,0.022764174414661897
132,0.023176512249904,0.0233219887917213
133,0.023178832601014374,0.023622791168898132
134,0.023125077020838488,0.022882907155198477
135,0.023161239283297844,0.024751240496347998
136,0.023196102907623556,0.023044166767465474
137,0.023128761736442335,0.022872346859857524
138,0.02318140332528251,0.022977468446661566
139,0.023107069596606526,0.023111894381274457
140,0.023336303086845662,0.02293516956005119
141,0.023002642250026493,0.023412834901447924
142,0.023087891085232667,0.023073685409143955
143,0.023215288317931307,0.022897492991297286
144,0.023159272774464362,0.023331255576299136
145,0.023152805817909808,0.023101430725903142
146,0.02303443831964124,0.022683751496656166
147,0.023187529498176703,0.0231603830846963
148,0.023108794947238945,0.02308777757224222
149,0.02309423005007368,0.022930942109735255
150,0.023165866156383386,0.022777551698374202
151,0.023238532068721538,0.022835543092513705
152,0.023023371083690205,0.023596630808798084
153,0.023229982998731327,0.022722598184385257
154,0.023138788800469216,0.02291860828071762
155,0.023252821763416084,0.023890460909718404
156,0.023120610471472416,0.023696782656937202
157,0.023084200241958067,0.02261435286080922
158,0.02316497924992983,0.0232642438430295
159,0.023174524913243445,0.023073557292382457
160,0.0231105493073412,0.023515122336200962
161,0.023045248037083542,0.022712280428376645
162,0.02317701957131223,0.02316264160000958
163,0.023121901647114067,0.022840996457362324
164,0.023193587493940557,0.02297804089617381
165,0.023081462165500097,0.02294619846427497
166,0.023179300522489798,0.0228486034619286
167,0.02309563967714207,0.023465449922521846
168,0.023060288199846693,0.023217912928010877
169,0.02319561707438063,0.026143647315775963
170,0.023111697336990866,0.022710062426697954
171,0.02308473141668893,0.02296474706543273
172,0.023162167528264527,0.022804042222985342
173,0.023147563708366917,0.023334757929878058
174,0.02318823108037146,0.022790846375905817
175,0.023049267527790997,0.022759469934601716
176,0.023170706297871733,0.02320129201904045
177,0.023074581508162162,0.02349739286081238
178,0.023280000874696734,0.02282524654155137
179,0.023088541798305502,0.025061936555070115
180,0.02317363390107926,0.02377486323471745
181,0.023034278089724046,0.022765947535234168
182,0.02319783956887458,0.024109933889914236
183,0.023193897776972713,0.022978221465434347
184,0.023070678933055328,0.0227700448782428
185,0.023158749447112603,0.025426828169396946
186,0.023081294577315652,0.02301271739338643
187,0.02318465858802116,0.02301264327716291
188,0.023166347875726596,0.022974579523728417
189,0.02308764367280223,0.02318197134044242
190,0.023170677030073413,0.023145255105659637
191,0.0231234335320459,0.02316532349441827
192,0.023119463454291736,0.023043687973574287
193,0.023074318496264713,0.022986582913322062
194,0.023099248019828024,0.023628373370868254
195,0.023108902501968218,0.02493873292075995
196,0.023207749983818412,0.02283138190502714
197,0.02310700026109255,0.023407469538129402
198,0.02316225648110957,0.024060126857122006
199,0.023054945600523555,0.02362391780753162
200,0.02311799413696539,0.022935291393509322
201,0.02313678473722544,0.023416383175771823
202,0.023162001800491844,0.02342969244279867
203,0.023122115961486677,0.024287678538024098
204,0.023122341727925766,0.023043482906193177
205,0.023073830806332334,0.023183444728038398
206,0.0230743285092852,0.02298451284712567
207,0.023130062639975336,0.022832384208054078
208,0.023107050134123657,0.02364695786653585
209,0.023178683429343,0.02265983884793948
210,0.0230744315324713,0.023042100350113018
211,0.023068131954162765,0.022812308327551423
212,0.02309074268700908,0.023118151143052112
213,0.02331196478412425,0.022746120649371548
214,0.023046028776485903,0.023272629320068725
215,0.023092336105487995,0.023195159406163793
216,0.02312163673088157,0.02365851263944192
217,0.02316288444638657,0.022989062171932178
218,0.023057390371416447,0.023353419198280444
219,0.023086660194674508,0.02384912390952846
220,0.023122403064934755,0.02291923847810998
221,0.02314097852595776,0.023080471135681787
222,0.023047480509608247,0.023493651926940883
223,0.023192394344652777,0.022960220573098055
224,0.023086472728597127,0.022893898436048412
225,0.023145817607331524,0.02326390859189472
226,0.023033189392245884,0.02287164268149291
227,0.023085327202574814,0.023163118113740843
228,0.0231094776848547,0.022859047273587032
229,0.023129694351403832,0.02284027081520988
230,0.023098824425138158,0.02323307884502759
231,0.0230157480610134,0.02298775500961195
232,0.023124368494297626,0.023226506475891386
233,0.023075763049790803,0.02289407771160119
234,0.023092681386446257,0.022708811596529918
235,0.023170707135392037,0.023157063643753105
236,0.023080183154375527,0.023010951746916714
237,0.02309616655706883,0.023178087695903824
238,0.02316343192782381,0.02376685699046646
239,0.022995118104624186,0.024282509430172693
240,0.023085071259348704,0.02294638697954737
241,0.023158270097393498,0.025822178501085966
242,0.023011697069864622,0.02286831806865892
243,0.023168411897979288,0.0226815254107741
244,0.023081792788736396,0.02312328599705034
245,0.023032104641163377,0.023341672095134207
246,0.023079378056904968,0.023385995800512083
247,0.023053790512625023,0.02294092001606605
248,0.02304629181741739,0.02372228152955858
249,0.02314349089925595,0.025457357248289902
250,0.023076969932178133,0.022820648557161757
251,0.023040672778326877,0.022772589183891016
252,0.023074489892374792,0.022971295090811215
253,0.02311685322363266,0.022729697646815757
254,0.023028875147993805,0.02319926069351097
255,0.023047813926067806,0.02444072213279702
256,0.023177798212819296,0.02349718241572333
257,0.02307556414504727,0.022857644459219457
258,0.023013876031914487,0.022808381512866963
259,0.023143279974421057,0.023005359677484682
260,0.023013632580024496,0.022886714203416973
261,0.02309303362589541,0.023272491377008743
262,0.023078580134563882,0.02287999143781348
263,0.02312279571455231,0.023128070923681323
264,0.02302728954637103,0.022887173718122298
265,0.023007104566378844,0.02282814478506088
266,0.0231950834161229,0.023481897320289637
267,0.02297065526300626,0.02286493963464189
268,0.023102913217114315,0.02390582467875522
269,0.02303961765312915,0.02279505398985948
270,0.023148841092096483,0.022755310336317523
271,0.023093712522829178,0.022864186354187313
272,0.023067759220405736,0.023112748695894688
273,0.02301931139573062,0.024036837118400677
274,0.023078669422417045,0.02315250752110037
275,0.023012898222124167,0.023110994182662315
276,0.023168917322497096,0.022718647799227495
277,0.02307095150236222,0.0229433246512604
278,0.023031265593225436,0.02274445876120439
279,0.023064689919185772,0.022847977088324742
280,0.02304095958696781,0.023079826276758194
281,0.023125774186881755,0.023046180245708366
282,0.023098336988323028,0.022955798505031412
283,0.023141204065335787,0.02303919716552194
284,0.022971844637124754,0.022895377857026944
285,0.02310208706177777,0.02296597518220885
286,0.023044138443287756,0.023764923839714458
287,0.02311950831932368,0.022798417325718908
288,0.023112432305350435,0.02286089609517483
289,0.023029981414786727,0.024334007721238466
290,0.023102282219641595,0.023075144124917846
291,0.023038125241087448,0.023517562413107436
292,0.023104728865091035,0.02289064266757882
293,0.023109486807498046,0.023606971276728488
294,0.02296488129233809,0.022916673529002264
295,0.023054818351039116,0.02313198773271236
296,0.023099359659422978,0.022764101359866788
297,0.02300785868826935,0.022934940688447304
298,0.023118414314572427,0.023095771486576187
299,0.02300651573153923,0.022758955643133752
300,0.023070870150479195,0.022936111079395145
301,0.0230760749832963,0.02303082488871223
302,0.023055447278161653,0.022804236555532292
303,0.023052920637239845,0.02357894314516221
304,0.023116745249026543,0.025457998740633078
305,0.023017111601386902,0.022810494156749867
306,0.02311003227516425,0.022938913322438286
307,0.02307242765310976,0.02322105870926907
308,0.023111629582715214,0.022896151794172124
309,0.023044743247592238,0.022888679001495042
310,0.02304393819255604,0.022689953502252898
311,0.02298918677989742,0.022827873740054155
312,0.023080741351605844,0.022784911531252287
313,0.023092136433948095,0.022934981948904098
314,0.023078948115672376,0.022663739104861805
315,0.02306406620032281,0.023826180827151912
316,0.023036750554621552,0.022880489747580245
317,0.023060919966349167,0.022963029855087504
318,0.02308370015523631,0.023219957452299753
319,0.023030420766769647,0.022948543194919565
320,0.02307213394404601,0.02288596863522479
321,0.023118293279116388,0.02330435185760095
322,0.023015938503451818,0.02349510438293336
323,0.02304592915177107,0.024233086902027818
324,0.023140049347435115,0.023233718679072635
325,0.023013637557500702,0.02274170673754428
326,0.023093657502584415,0.02288789521893979
327,0.02302916060171301,0.022903060327389153
328,0.02302127355764762,0.022695763851056535
329,0.023056202621715104,0.022894900740545475
330,0.02307047751500643,0.023371304265549075
331,0.023274623054108746,0.02302342956266774
332,0.02292362051374978,0.022917809248582152
333,0.023057936089966508,0.022669008397148083
334,0.023045224134626386,0.022857482459075637
335,0.02301842787062569,0.022769366650479746
336,0.023116401811357407,0.023179287531934295
337,0.023084327213757996,0.02329282149019774
338,0.023052672024735873,0.023239314240045498
339,0.023045034524497035,0.022949034023233165
340,0.023099003950034162,0.02283868975437525
341,0.023060483709096812,0.02401960246270815
342,0.023071936983094038,0.022908546571526456
343,0.023007092474074623,0.02278645286790809
344,0.023042967934593213,0.022878678750773068
345,0.023066423842303757,0.0231024847272563
346,0.023145968715349834,0.023304062684514244
347,0.023094852337335273,0.022966125572795648
348,0.02306887402022771,0.0235641136789002
349,0.023017493646880754,0.02374229676162952
350,0.023111735770611357,0.022714193163538128
351,0.023180483544854334,0.022751692845688246
352,0.023027995562584374,0.023047012636392437
353,0.02297953745464889,0.02313694320089862
354,0.023038677028495727,0.024188351631458577
355,0.02311373549066097,0.022901634993685825
356,0.023018692194266048,0.02325749971066626
357,0.023049103670852552,0.023178525929116508
358,0.02310458163721122,0.023189150243879963
359,0.023022907159233885,0.022861587227672786
360,0.02303405954159326,0.022806285241737834
361,0.023082039757467192,0.023590526719237278
362,0.023082254943605378,0.022801782619781445
363,0.023021374091351157,0.022812210230690435
364,0.023062942685822933,0.022661213228668674
365,0.02305072331302267,0.02315231599060682
366,0.023094735326443454,0.023308491687148502
367,0.02301493656786559,0.02331882892816012
368,0.023041185863363706,0.02285199002425268
369,0.0230119950275758,0.02290441559946669
370,0.023061845606441596,0.023568549341189175
371,0.023049195174226086,0.023009395867809593
372,0.02306803697638279,0.02269397017523211
373,0.023068804191879566,0.0230828123909569
374,0.023025933180382544,0.02326746964746323
375,0.023043376795625944,0.022973655268032436
376,0.022989779404051107,0.023250564527069383
377,0.023042194726173398,0.022732598070516866
378,0.023037457884811194,0.02326007008599595
379,0.023103779411876944,0.023018841842673103
380,0.023110330139073154,0.02303201716978341
381,0.02299748214228238,0.023138363997804057
382,0.02307267028162424,0.023228053565136353
383,0.023103287608044847,0.02269686028161384
384,0.022955943560815876,0.02384980478939242
385,0.023103036883500794,0.02284356391596907
386,0.022985677143259584,0.023070976458601625
387,0.023062750782749112,0.023728227460405538
388,0.023038609100760315,0.022902259093010247
389,0.023068687090163322,0.023139430334954726
390,0.023046579042957316,0.02308065470987262
391,0.023001900446012344,0.02282738810715331
392,0.023038445679332428,0.022852586155967535
393,0.02314799999912008,0.02312304142306852
394,0.023054575465685078,0.022909894969311395
395,0.022988222672683682,0.02326742048068788
396,0.02309644001154162,0.02265889813422263
397,0.0231353464602626,0.022710122009290894
398,0.023003355917825305,0.02294052923546594
399,0.022982119954824687,0.023403496854154257
400,0.02316286381063082,0.0227837671497109
401,0.0229927018913124,0.022863272587815044
402,0.02307643309134326,0.023797313257134516
403,0.023057884154029838,0.023166779278767983
404,0.022984214783679666,0.02267312930474953
405,0.023120543512282706,0.022772165372579607
406,0.02306002913657829,0.02297849961554289
407,0.02301210799305845,0.02305953490129586
408,0.023087834082484292,0.023241891836616686
409,0.02300199191216275,0.02277904465624029
410,0.02305530673034376,0.022790773772438305
411,0.023002535657887218,0.022941805137102304
412,0.023066399127638026,0.023692581151342335
413,0.02300960922853457,0.02289341756781444
414,0.023155595834771222,0.02268620028697842
415,0.02314481162410274,0.024664485108198474
416,0.022961374512947292,0.022756720221974103
417,0.023087994733022796,0.023168265674007437
418,0.023048086104531892,0.02363641969065734
419,0.023050026464120424,0.02289534836784064
420,0.023020624796555436,0.022630586374871545
421,0.023127843437494515,0.023625523945715075
422,0.023164061628442874,0.023229234189606596
423,0.022910902529752416,0.023437537815959884
424,0.023024687993166735,0.022715921379220044
425,0.023046340983209134,0.02265899761005848
426,0.023043781145215988,0.023385713398809405
427,0.023041140352882784,0.024349083540330465
428,0.023071259538606583,0.023739952658727213
429,0.02304984633323195,0.02310913098327692
430,0.02296963694031171,0.024824820575028682
431,0.023080276725121397,0.022868984698625937
432,0.023021391018939248,0.02286189217517342
433,0.02304697176329881,0.02313716335026599
434,0.023136656786457335,0.02279964955295741
435,0.02296589046261079,0.023543212143814555
436,0.023067714638269537,0.022651750892812374
437,0.023061724208432326,0.022744026190903398
438,0.023033630933692987,0.022779438571141477
439,0.02306249117900094,0.02275889259105182
440,0.02304861495728425,0.022935525063592897
441,0.023029223122417355,0.02319850720870937
442,0.022975364429719872,0.0229548700830084
443,0.02316374069215249,0.02297929552660839
444,0.023061278623809443,0.02292525045126794
445,0.023043336793422985,0.02280959941229203
446,0.022982834512256176,0.023327433428452914
447,0.023037595396711054,0.023063485952419093
448,0.023180668315977503,0.023799473627072767
449,0.02294325412844392,0.023303912365963447
450,0.023085051974047907,0.02276255455141521
451,0.023038075429846722,0.023318830551175312
452,0.023092178869798936,0.02308548630113054
453,0.023083678310473473,0.022959765925968174
454,0.023033846018584273,0.022936534357052105
455,0.02302325844949336,0.0226683836847826
456,0.023062377084168695,0.023018914084490492
457,0.023035266092694778,0.022843935743750505
458,0.02306175938205158,0.02269755510117891
459,0.02307501356590161,0.022713454159442703
460,0.02300130487006488,0.02290398260577043
461,0.023025838751271427,0.024466641339890207
462,0.023092806648960313,0.023251382845741325
463,0.02299325691713251,0.022661825509678688
464,0.023061909333175177,0.022971965759204613
465,0.023053343940100415,0.02284817849804119
466,0.02296714685026476,0.023040911416510663
467,0.0230878226683854,0.022842377400718154
468,0.023125729570500284,0.023712817116419253
469,0.02309190525601117,0.023066295984170995
470,0.022997679560334324,0.022743964775067762
471,0.02302939986972381,0.024204084774642455
472,0.023050345746215156,0.024123128549134815
473,0.02300800383090973,0.025766241508988104
474,0.023074018903713907,0.022921749610445023
475,0.023057276809619342,0.022875124435716005
476,0.022985091024963596,0.024614502570717563
477,0.023050021716683126,0.022783862435697758
478,0.023047381050164083,0.023421728599819502
479,0.022990959015288512,0.022745362657174504
480,0.02304966389599869,0.023507775140495495
481,0.023066257231598563,0.024244112524938282
482,0.02298415078819513,0.022844674736084952
483,0.023089941287283703,0.023567004154282662
484,0.023059777745740306,0.022704680962598315
485,0.02303879359196559,0.023012274036796995
486,0.02300154781199807,0.023195052251878363
487,0.023052959987293665,0.024729348148712513
488,0.023043350617346955,0.022879339613449696
489,0.02301226557790042,0.02291910363406813
490,0.02303114888532985,0.02276782625470231
491,0.023066621383936475,0.0227317811058277
492,0.02307349805914455,0.02262384468585182
493,0.02300294664287143,0.022895672962057752
494,0.023156505308116224,0.022913959397748408
495,0.022975994451202266,0.024312789426218267
496,0.02303533945798421,0.022823314685977248
497,0.0231232383220697,0.0229566836216573
498,0.023008871632966874,0.022818302100593404
499,0.023045258390323387,0.023758690791011984
500,0.023020074123607504,0.02269604873432592
