epoch,loss,val_loss
0,0.08892634634301066,0.03867962827533483
1,0.03613413841277361,0.03447269169613719
2,0.03383590562269092,0.033151807758957146
3,0.03356392458826304,0.033865395460277795
4,0.03336592942290008,0.03282701982930303
5,0.03042580466903746,0.026638192437589168
6,0.02785974555462599,0.025835971716791393
7,0.02757925176434219,0.02616868522763252
8,0.027288671009242534,0.026905415009707213
9,0.027480453891679645,0.026309483613818883
10,0.027395772401243447,0.026609330128878356
11,0.027030886983498932,0.026500117741525175
12,0.027275460302829742,0.027937796510756015
13,0.02709080920368433,0.025848956279456617
14,0.027020841754972935,0.02707594022527337
15,0.026969925817102194,0.02660328894853592
16,0.026977672765031456,0.026159242287278176
17,0.026989285416901113,0.029563252922147513
18,0.026907347256317736,0.02610148063674569
19,0.027014478405937552,0.026136872250586748
20,0.02686213201843202,0.025850510481745005
21,0.026983237899839876,0.025790804874151946
22,0.026785691428929566,0.026121870826929808
23,0.02675538721680641,0.02929922679066658
24,0.02689322636835277,0.02619610895216465
25,0.02682359872572124,0.02632930838689208
26,0.026828388590365647,0.026013659343123437
27,0.02674890109151602,0.02650046407431364
28,0.026726436579599975,0.025916484244167804
29,0.02665343870036304,0.02564175971224904
30,0.026674983551725744,0.026018361292779447
31,0.026677919045090676,0.02546354540064931
32,0.02664102243259549,0.025411892551928758
33,0.026828500712290405,0.0257276246920228
34,0.02664489327184856,0.025643929108977316
35,0.026741108041256668,0.025807051166892053
36,0.026707276737317442,0.0254847644045949
37,0.02660715390741825,0.027572717428207397
38,0.02654817136377096,0.026870627216994764
39,0.026751841822639108,0.02773444886505604
40,0.026570597542449833,0.027596505317837
41,0.02659479711391032,0.02629518751427531
42,0.026538037659600378,0.025813448172062634
43,0.02657595730572939,0.026936655677855015
44,0.026544461181387306,0.025492045592516662
45,0.02661475491710007,0.02571257473900914
46,0.026585320511832832,0.02585081934183836
47,0.026536627031862735,0.026003147415816785
48,0.026506489362567665,0.026065550051629544
49,0.026622922657057645,0.026217045202851296
50,0.026680199708789588,0.025630747605115176
51,0.02645594020374119,0.02575514856353402
52,0.02651860799267888,0.025638176798820494
53,0.026514866003766655,0.029460404131561518
54,0.026487084979191423,0.026233839970082044
55,0.02663489939644933,0.026835332732647658
56,0.026646927364170552,0.027479957282543183
57,0.026510309541597964,0.026634057875722646
58,0.02652172365412116,0.0257009015455842
59,0.026447870261967182,0.025934296421706676
60,0.02654334367439151,0.02552836774289608
61,0.026421590600162744,0.025583353001624346
62,0.02651488106325269,0.02535699352249503
63,0.026440814092755317,0.025916948426514864
64,0.02642941136099398,0.025848527614027263
65,0.02635435749962926,0.025583772249519826
66,0.026424218267202378,0.026361375205218793
67,0.02650425536185503,0.025591219387948512
68,0.026332117088139057,0.026928549490869046
69,0.026357706170529127,0.025980097725987434
70,0.026436143001541495,0.02587594724819064
71,0.026530568294227123,0.026010991171002387
72,0.026458491563796996,0.026218254487961532
73,0.026480337489396332,0.025357166092842817
74,0.026330309545621277,0.0255654385574162
75,0.026477692985907197,0.025663827512413265
76,0.026360788682475687,0.025427677862346173
77,0.02644568708539009,0.026665747441351414
78,0.026358610734343528,0.02531443390250206
79,0.026432429127395154,0.02544227286800742
80,0.026350150423124434,0.025458686977624892
81,0.026396358292549847,0.025791970148682595
82,0.02633748543821275,0.02546733873337507
83,0.026419111341238023,0.0258481613509357
84,0.02628979610092938,0.02559639125317335
85,0.02643145882897079,0.025669784866273405
86,0.026429190717637538,0.026250909380614758
87,0.02636372129805386,0.02583663208037615
88,0.026527350479736925,0.02597918974980712
89,0.026286051891744138,0.025593486342579127
90,0.026335433207452297,0.025392116401344537
91,0.026339678836986423,0.025659074321389197
92,0.02650267812795937,0.02574260872229934
93,0.026352399706840515,0.02582930652797222
94,0.026439951978623866,0.028521657187491656
95,0.026263545572757722,0.02547125607356429
96,0.02627399689331651,0.02652470229193568
97,0.026364826463162898,0.025561985462903978
98,0.02647276083379984,0.0274819424264133
99,0.026377597007900478,0.025526539977639914
100,0.026338031247258187,0.026055840715765954
101,0.026287547321990134,0.025724670369178058
102,0.02641025653667748,0.02632613542675972
103,0.026300261314958336,0.025388965934515
104,0.02627086184360087,0.025595674607902765
105,0.0264661205150187,0.02592149792984128
106,0.02627670031040907,0.02559850374236703
107,0.02632202417962253,0.025668425779789686
108,0.026284176552668213,0.025392586573958396
109,0.026261478545144202,0.02956116735190153
110,0.026433737201616167,0.026325325097888708
111,0.02643582584708929,0.02648809016868472
112,0.026327131045982242,0.025571233790367843
113,0.026220304103568196,0.02546754540503025
114,0.02637427351437509,0.02527525458112359
115,0.02634904163517058,0.02556038595736027
116,0.026339336276054382,0.025644050113856794
117,0.02637578180618584,0.025369849406182764
118,0.026416972126811742,0.026570767357945443
119,0.02632463165745139,0.025300835959613324
120,0.026275081638246774,0.025589930567890405
121,0.026355153396725655,0.025621061325073243
122,0.02634158420562744,0.025520746164023875
123,0.026330607410520315,0.025234274838119745
124,0.02634493974968791,0.025394248913973568
125,0.026290251603350044,0.0254060401879251
126,0.026348727740347386,0.025347083784639835
127,0.026244293473660946,0.025545796200633047
128,0.026422371398657562,0.025351095616817473
129,0.02625954515300691,0.02571117879077792
130,0.02626885603554547,0.02552239094674587
131,0.02625586822628975,0.025732010342180728
132,0.026415504809468984,0.025704334300011396
133,0.026184834944084287,0.02543010189756751
134,0.026418119858950376,0.025306944843381644
135,0.026209865882992744,0.025798372838646173
136,0.02628828783147037,0.025672202821820974
137,0.026340336428955197,0.025858983390033244
138,0.026332836642861367,0.02586500459164381
139,0.026199220122769474,0.025997020930051802
140,0.026167896628379823,0.02753525235876441
141,0.02642308165691793,0.027751714877784252
142,0.02624098929576576,0.025947166461497546
143,0.026300282429903746,0.02555254849791527
144,0.026382526867091655,0.025562625244259833
145,0.02631585774384439,0.025400848727673293
146,0.02624319106526673,0.02541028505191207
147,0.026299446038901806,0.025439233124256135
148,0.026310984697192907,0.025580554407089947
149,0.026219551723450422,0.025635749116539954
150,0.026275343900546432,0.025725207131356002
151,0.026204370208084582,0.02556456284597516
152,0.026228481506928802,0.026328731503337623
153,0.02622617196291685,0.025552595991641284
154,0.026243965005502103,0.025297302074730396
155,0.02618804299645126,0.02565134134888649
156,0.02623691869713366,0.025407809790223838
157,0.026213711131364108,0.025319048676639797
158,0.02634066529944539,0.025488512136042116
159,0.026281383411958813,0.025352956607937814
160,0.026177897907793523,0.025568465773016216
161,0.026223302129656078,0.02533836067467928
162,0.026347057620063424,0.02573521525785327
163,0.026228903939947486,0.025779188070446254
164,0.026329420557245613,0.02554407475143671
165,0.026225577721372247,0.02527590038999915
166,0.02626343780197203,0.0260388851724565
167,0.026235022408887743,0.025368846748024226
168,0.026370802281424403,0.02620236949622631
169,0.026269459668546914,0.025535461135208607
170,0.026319455824792386,0.02561301086843014
171,0.026163469677791,0.02651161704212427
172,0.02617248996347189,0.0253627851344645
173,0.0263500595446676,0.02527252224460244
174,0.026247216764837503,0.025365707572549582
175,0.026294414635747672,0.025653132766485214
176,0.026249898293986915,0.025772024679929017
177,0.02621113090403378,0.02528911304473877
178,0.026257247239351272,0.025314197912812232
179,0.026253333665430544,0.025378397777676583
180,0.026257245851680638,0.02531850430741906
181,0.02628890609368682,0.027199994914233683
182,0.02620658367499709,0.025839092001318932
183,0.026184981560334563,0.025762633476406335
184,0.026331272257491947,0.02584525939077139
185,0.026333322623744607,0.02529830577224493
186,0.026224985970184207,0.02529930188879371
187,0.02621296267583966,0.025348184779286385
188,0.026207387145608663,0.025587184585630893
189,0.02626027716882527,0.025508552346378565
190,0.02620106147788465,0.025380531415343285
191,0.026157687636092306,0.025278714951127768
192,0.026300898391753435,0.025550110645592213
193,0.026236039092764257,0.02558862517401576
194,0.026146922355517747,0.02527118453755975
195,0.026282135099172592,0.026239042706787587
196,0.026259318577125667,0.025331079095602036
197,0.0262155147716403,0.026410240199416877
198,0.02632902381941676,0.025424035865813495
199,0.026159052353352308,0.02543411907926202
200,0.026277459282428025,0.026863004520535468
201,0.026237527789548038,0.0254794889613986
202,0.026135292584076524,0.026793168623000383
203,0.02627548758499324,0.025324706401675938
204,0.026220671376213433,0.025380298048257827
205,0.026313596738502382,0.025769015200436115
206,0.026187577236443757,0.025658686339855193
207,0.026229405477643013,0.02628248157352209
208,0.02619945781119168,0.025523344997316597
209,0.026354767553508282,0.025458583075553178
210,0.026121100034564734,0.02556495424360037
211,0.026444089846685528,0.025762186691164972
212,0.026116745168343187,0.025717759847640992
213,0.026248070925474168,0.025909414824098347
214,0.026151469379663467,0.02643049902841449
215,0.026188609266653656,0.025465509679168462
216,0.02629596697539091,0.025589846320450305
217,0.026158332433551548,0.025448351502418518
218,0.02622966910339892,0.02581941744685173
219,0.02614774814993143,0.026862355977296828
220,0.026259106719866396,0.025796075742691757
221,0.026258810536935927,0.025332438282668592
222,0.026165873603895308,0.025325803145766258
223,0.026200754521414637,0.025353650841861964
224,0.02625344045087695,0.026473660729825498
225,0.02625619573891163,0.026073324520140887
226,0.026178843706846238,0.025267751205712556
227,0.02621419608592987,0.026332365941256285
228,0.026195176420733334,0.025493465062230825
229,0.026139930754899978,0.02533775246143341
230,0.02623791559971869,0.025918980319052935
231,0.026283715596422553,0.025314845331013202
232,0.026269009739160538,0.02540360367298126
233,0.026267320347949864,0.025559805028140543
234,0.026223172850906848,0.02591614380478859
235,0.026247146109119057,0.02548539250716567
236,0.02617762635461986,0.025472505487501622
237,0.026242104487493634,0.025328419905155896
238,0.026181604743003847,0.02567714797705412
239,0.026317717304453255,0.02534926426783204
240,0.026134793845936657,0.025634998876601457
241,0.02622504104860127,0.025564281661063434
242,0.026249272556975484,0.025364602912217378
243,0.02620955564826727,0.025932318441569804
244,0.026244235392659902,0.0255221008323133
245,0.026180699683725835,0.026098660178482534
246,0.02626056816242635,0.025668125651776792
247,0.02615006641857326,0.02615259651467204
248,0.026344188483431934,0.02534483350813389
249,0.02614808863028884,0.025411156594753265
250,0.026210934869945048,0.026621555160731076
251,0.026287017730996013,0.025268496457487345
252,0.02614781956374645,0.025482594165951014
253,0.02619242318533361,0.02534581409394741
254,0.0261794217787683,0.02553591790050268
255,0.026209031390026213,0.026158123273402452
256,0.026206261260434984,0.026002551533281803
257,0.02618967425636947,0.025756503026932477
258,0.026168362248688935,0.026139110017567874
259,0.026204957254230977,0.025500982593744993
260,0.026218468472361565,0.02534425727650523
261,0.02620709319971502,0.02544044726714492
262,0.026154399385675788,0.025467271722853183
263,0.02643145323731005,0.025611743822693826
264,0.02616813562810421,0.025528172738850118
265,0.02622837289236486,0.02539102105051279
266,0.02629944721236825,0.025543472599238157
267,0.02624114110507071,0.025858388800174
268,0.02607050501741469,0.025415612049400807
269,0.026419027782976626,0.02536202746629715
270,0.026102851904928684,0.02625754303857684
271,0.026113845184445383,0.026782263316214083
272,0.026223609713837505,0.025345074843615294
273,0.0261609947104007,0.026168681036680935
274,0.02636270322278142,0.025748384077101946
275,0.02619139621593058,0.025497639656066894
276,0.026436012763530015,0.025349085330963136
277,0.0261214592885226,0.02533256307989359
278,0.02625859950296581,0.025489188369363546
279,0.026144005585461854,0.025422238692641257
280,0.026199370890855788,0.025284455850720405
281,0.026214515363797545,0.025742491468787192
282,0.026191531552001834,0.025264987610280513
283,0.02622129311412573,0.025610174011439085
284,0.02620439980365336,0.02535819211602211
285,0.026336205918341876,0.02543431268632412
286,0.02610887531004846,0.02612456726655364
287,0.026294367887079714,0.025637515868991614
288,0.026169589575380087,0.025953697964549063
289,0.026264103339985013,0.02600715060904622
290,0.026131975369527934,0.025498464446514844
291,0.02612379609979689,0.025452217780053615
292,0.026173376727849244,0.025430185843259095
293,0.026215218488126992,0.026159568142145873
294,0.026287138199433683,0.02550574015453458
295,0.026216718060895802,0.025557396471500397
296,0.026183778190985323,0.02544010578840971
297,0.02616346829198301,0.02550387054681778
298,0.02616575269959867,0.025415608394891022
299,0.02614894122630358,0.031847026903182266
300,0.02628670807182789,0.02570115192607045
301,0.026142964286729693,0.025453474655747415
302,0.026262573407962918,0.02558512357249856
303,0.026205020466819405,0.025759886123239994
304,0.026171580525115132,0.02555801488086581
305,0.026198256140574812,0.02537463489919901
306,0.02612615432962775,0.025454111866652966
307,0.026290134036913514,0.02548608985170722
308,0.026188056726008654,0.025625498313456774
309,0.026230005567893386,0.02662289420515299
310,0.026164618760347366,0.025251798655837775
311,0.026261365603655575,0.025363690201193095
312,0.026099103424698115,0.025450194168835878
313,0.026156883308663965,0.02560543195903301
314,0.026244744723662734,0.025437645632773637
315,0.02615972065553069,0.025408518861979246
316,0.026204203087836504,0.025394024908542635
317,0.02625123081728816,0.02598016871511936
318,0.026134714322164656,0.025326168511062862
319,0.02618878211453557,0.025509770069271326
320,0.026215738091617823,0.02659467388316989
321,0.02615980071760714,0.025305090386420488
322,0.02616903189383447,0.02585847920551896
323,0.026180021453648807,0.025437345780432226
324,0.02621120929531753,0.025567788135260342
325,0.026308815754950046,0.02547290524840355
326,0.02621099322102964,0.025338864028453825
327,0.026147248862311245,0.02581062676012516
328,0.02640725499391556,0.025965676035732032
329,0.02611368258111179,0.025598655600100755
330,0.026537268599495293,0.025364882279187442
331,0.026174039632081987,0.025575855195522308
332,0.0261212795060128,0.026341316286474466
333,0.026151172406971453,0.02617991413921118
334,0.02618363062106073,0.026372286282479764
335,0.026245224062353373,0.02667539259418845
336,0.026147141387686132,0.025588877599686383
337,0.026224747560918332,0.027424153950065373
338,0.026199298126623034,0.025830166164785624
339,0.026135918401181697,0.02615156665444374
340,0.026266688825562597,0.02599538245797157
341,0.026080750603228807,0.025348109763115644
342,0.026182633513584734,0.02535473370924592
343,0.02612163578905165,0.02628144934773445
344,0.02625377317517996,0.025826051577925682
345,0.0262935640886426,0.025350052542984485
346,0.02613257123157382,0.0253935991153121
347,0.02637688690237701,0.03053114053979516
348,0.02603550094179809,0.025587156973779203
349,0.026261528886854648,0.025353978630155326
350,0.026220013823360203,0.027171327516436576
351,0.02624342498742044,0.025490854520350693
352,0.02613361214287579,0.025382543377578257
353,0.026260032534599305,0.02533759955689311
354,0.026180985083803534,0.025449997525662182
355,0.026312775852158667,0.02530695306509733
356,0.02614725224301219,0.02543584195151925
357,0.02614898293837905,0.02588549203798175
358,0.02621587703935802,0.025362014167010786
359,0.026137072946876286,0.02563045010343194
360,0.026207980452105404,0.025269150100648403
361,0.02618874361924827,0.02552531072124839
362,0.02624591912329197,0.02547695842012763
363,0.026166589971631765,0.02585860923677683
364,0.026176071124151348,0.025394435584545134
365,0.02612471374683082,0.025433169044554234
366,0.026170598478987814,0.025616233728826047
367,0.026196638353168964,0.025365978386253117
368,0.026293393963947892,0.02641543072462082
369,0.0261913895457983,0.025429075703024863
370,0.026161436855793,0.02543365541100502
371,0.026190503204241395,0.025454077776521443
372,0.026118914730846883,0.025322830151766538
373,0.026393193589523436,0.025401044983416797
374,0.02621197770535946,0.025319062683731318
375,0.026159112820401786,0.02576632906123996
376,0.026147481614723803,0.025552357129752637
377,0.026103017661720514,0.025731184031814337
378,0.026272033246234058,0.025439521610736846
379,0.026100617095828057,0.02573840530589223
380,0.02618832373060286,0.025391177214682103
381,0.026195571599528192,0.02584134078398347
382,0.02620041733421385,0.02577169382944703
383,0.02624097128584981,0.025274943802505733
384,0.026106867659837007,0.02530802195519209
385,0.026296537287533284,0.025376434452831744
386,0.02614314790815115,0.025724703673273324
387,0.026143234288319946,0.025302964370697737
388,0.026276522448286415,0.025417965870350598
389,0.026116994900628923,0.02529300643131137
390,0.026352434802800417,0.02620057225599885
391,0.026070083437487485,0.0255467311963439
392,0.02616242562420666,0.026576015520840882
393,0.026204282404854895,0.025277338340878485
394,0.026180075895041226,0.02537710262835026
395,0.02619405572116375,0.02545428164303303
396,0.026270875530317424,0.02524640242010355
397,0.026161285988986493,0.026092677772045134
398,0.026213101029396058,0.025550579342991115
399,0.026170693876221778,0.025468560550361872
400,0.026126110535115002,0.025722515013068915
401,0.026169410701841117,0.025368437502533196
402,0.026218501387163997,0.027750814456492662
403,0.026162801316007973,0.02527176931500435
404,0.02617164159938693,0.02536367107927799
405,0.02615897055156529,0.025458293221890926
406,0.02622389599867165,0.0254176789149642
407,0.026233859840780496,0.025625460959970953
408,0.02619209496676922,0.025346966419368983
409,0.026171964021399617,0.025369150698184968
410,0.026204704483971,0.02541874638572335
411,0.026148680448532104,0.025433094769716263
412,0.026218442620709537,0.02599468719214201
413,0.026224311258643867,0.02542528099194169
414,0.026180919114500285,0.02858791094645858
415,0.026117577165365218,0.025585772041231393
416,0.02626641209051013,0.025567759174853565
417,0.02615161707997322,0.027687731500715018
418,0.026164445580914616,0.02525797640159726
419,0.026148843165487053,0.02547839451953769
420,0.02617988979443908,0.025329652156680822
421,0.026185254069045184,0.025325999304652215
422,0.026177139988169073,0.02579599144682288
423,0.026132944351062178,0.02557572227343917
424,0.026243235995993017,0.02539623813703656
425,0.026219445468857884,0.025404800597578287
426,0.026108533011749386,0.025232342641800642
427,0.02619297934137285,0.02527600898966193
428,0.02615194381028414,0.02527757826074958
429,0.02620561819523573,0.025358435370028017
430,0.026299981482326984,0.025868903681635858
431,0.02615269831381738,0.02532877793163061
432,0.02618161009438336,0.025527925845235586
433,0.026262493442744016,0.025237354673445223
434,0.0261411612033844,0.02551845768466592
435,0.026298771295696497,0.025463945340365172
436,0.02615605494752526,0.0256459514349699
437,0.026198334945365786,0.025245464850217104
438,0.026239762306213377,0.02543929512798786
439,0.026246649999171496,0.02545150902494788
440,0.026231069387868046,0.025379936937242747
441,0.026208038307726382,0.02532620855420828
442,0.026215991366654635,0.025286891732364893
443,0.026150621760636567,0.025529598612338306
444,0.02615508185327053,0.02530758702009916
445,0.02615797156468034,0.02586805609613657
446,0.026169529242441057,0.0255332649089396
447,0.026211872536689045,0.02574340109527111
448,0.02610814087279141,0.02596202050894499
449,0.026243326112627984,0.025427619349211453
450,0.026171049194410444,0.02528212793916464
451,0.02619194378517568,0.025375131729990244
452,0.026221732709556817,0.02526132010295987
453,0.026328577352687718,0.0253922780379653
454,0.026203375935554503,0.0254112241640687
455,0.026162380941212177,0.02662012020498514
456,0.02616260220296681,0.025292300406843424
457,0.02615267555601895,0.025509811334311964
458,0.026193755473941566,0.02547174967825413
459,0.026206250235438346,0.02535911925509572
460,0.02616762638092041,0.025467426229268314
461,0.02622831879556179,0.025292443435639144
462,0.02608225590735674,0.025694780040532352
463,0.026253295179456473,0.025432591609656812
464,0.026169065561145545,0.0256714562214911
465,0.026228592364117502,0.02564718644320965
466,0.026225631145760417,0.026310283169150354
467,0.026096116138622165,0.025300386641174556
468,0.02621636600419879,0.025341144181787966
469,0.02622032085619867,0.02527008194848895
470,0.026173455495387316,0.02576014231145382
471,0.026245798721909522,0.02540618136525154
472,0.02622736395150423,0.02541804049909115
473,0.02610322628542781,0.02570324110984802
474,0.02613763580471277,0.025248242862522603
475,0.026187503237277268,0.027470725741237403
476,0.026329540267586708,0.02569672233611345
477,0.026154249092563985,0.025488261356949805
478,0.026157195383682847,0.02601487114652991
479,0.02620397093333304,0.02600054716691375
480,0.026192198285833,0.025464241594076155
481,0.026218930097296835,0.025578162394464015
482,0.02621378504112363,0.02531506620720029
483,0.0262237928211689,0.03449859704077244
484,0.026207277584820984,0.025345525965094567
485,0.026111816672608257,0.02600606880337
486,0.026226094475015997,0.025278983570635318
487,0.026103042766451836,0.02536516822874546
488,0.02616517894342542,0.025498969078063965
489,0.02620156973414123,0.025246940091252328
490,0.026090029299259184,0.027281319867819547
491,0.026214597694575785,0.025401242392137646
492,0.02622795375622809,0.02526170602068305
493,0.026237565390765667,0.02545900145545602
494,0.02620603402517736,0.02541482698917389
495,0.02615505743212998,0.025385847460478544
496,0.026213593047112228,0.025477674953639506
497,0.026096362823620437,0.025562293872237206
498,0.026273043312132358,0.026140736158937215
499,0.026165868813171983,0.025548722982406617
500,0.026128236908465625,0.02535940271243453
501,0.026156723368912935,0.0254369527772069
502,0.026180593332275747,0.02733440862596035
503,0.02622058072127402,0.02534594713151455
504,0.026254883617162706,0.02565652495995164
505,0.026300316812470557,0.02531178582459688
506,0.02608630176074803,0.02571103809028864
507,0.02634499358199537,0.025766152821481227
508,0.02609489424340427,0.025933093123137952
509,0.02616116856969893,0.02536334354057908
510,0.02623682332225144,0.025600452832877638
511,0.02625583016872406,0.025592632755637168
512,0.026115030240267515,0.02545192991569638
513,0.026214974593371153,0.025483550891280175
514,0.026148375580087303,0.025295968111604453
515,0.026117635207250713,0.025246429484337567
516,0.026244517747312783,0.026131000675261022
517,0.026287780333310366,0.025655067041516304
518,0.02618597290106118,0.026430709965527058
519,0.026219062516465785,0.025382446173578502
520,0.026179132821038367,0.025568615052849054
521,0.02618243291415274,0.02530462979525328
522,0.02620411738753319,0.025557982008904218
523,0.026138546224683524,0.02555281888321042
524,0.02616403679177165,0.025327706437557936
525,0.026307247595861553,0.02535173923522234
526,0.026126460095867516,0.025308917071670295
