epoch,loss,val_loss
0,0.21154310144216038,0.12109049543115033
1,0.09977083065979582,0.09480089065049141
2,0.09542036542503668,0.09527719143157694
3,0.09520269003060224,0.09477787497787844
4,0.09508357804825457,0.09455809990957015
5,0.09502997189510069,0.09498441753866359
6,0.09494966739635292,0.09516249630003344
7,0.09498034135329066,0.09489825642546426
8,0.09497927446409667,0.09554166247408129
9,0.09493469878685751,0.09495258384811285
10,0.09493183430960234,0.09491613408478584
11,0.09486445367074223,0.09455625420611208
12,0.09493019354405353,0.09463143837362552
13,0.09484676594178168,0.09528566021898552
14,0.09487612943628804,0.09452847122628574
15,0.09484011036969965,0.09450811549327273
16,0.09479940001615327,0.09464324032851064
17,0.09476753229872405,0.09452068292327818
18,0.09479760140073386,0.09468904638041073
19,0.09473531793871467,0.09443767218252948
20,0.09477041085525383,0.09547736348721016
21,0.0947509185224176,0.09456610594359363
22,0.09471973154744466,0.0944168473981268
23,0.09475633590150889,0.09436825662851334
24,0.09471236155937901,0.09473882412101306
25,0.09472449170313865,0.0946977126464283
26,0.0946924600610249,0.0945435493078962
27,0.09467244270346242,0.09440951903174971
28,0.09470559036036094,0.094588651353436
29,0.0946708437915948,0.09455621975820273
30,0.09467545354502092,0.09430982587651747
31,0.09467097132397498,0.09486165856200122
32,0.09468359917962103,0.09421777634660183
33,0.0946133943180815,0.0942119449353538
34,0.09461188793694564,0.09458149179239958
35,0.09461563467669734,0.09425203482184527
36,0.09466074144454312,0.09437303942493688
37,0.09464981888743232,0.09470607236251176
38,0.09462767467200518,0.09442065327465769
39,0.09460278123402767,0.09455216397261564
40,0.09463181728415257,0.09436607059170717
41,0.0945747264450212,0.09433599125120522
42,0.09461359691014774,0.09450283370788584
43,0.09457712365295008,0.09444662227038803
44,0.09460506919655297,0.09490036876209157
45,0.09459349874862664,0.09430879299200325
46,0.09458652116673932,0.09462265562098518
47,0.09455581089492134,0.09439604410103389
48,0.09458493737341593,0.09434139899668396
49,0.09456722204574197,0.09456082985052087
50,0.0945994005911499,0.09427982452895195
51,0.09455688385892924,0.09431447544456376
52,0.094550732957969,0.0944420797860613
53,0.09454110636116027,0.09428089532498403
54,0.09453184037602587,0.09437042483567439
55,0.09454530028166246,0.09424045637261708
56,0.09453756932755836,0.09455302621707638
57,0.09453337131846819,0.09427495692998476
58,0.09452078543859516,0.0944386581877789
59,0.09452774015357264,0.09438368821576908
60,0.09452353400304067,0.09423536670871296
61,0.09450707989904901,0.09434295296316177
62,0.0945230258805908,0.09450940615493854
63,0.09449516009274338,0.09456929846151475
64,0.09453179003547231,0.09434733332238426
65,0.09451566155639579,0.09480924372750187
66,0.09449819135341904,0.09425528098747499
67,0.09451798962162648,0.09428801408130161
68,0.09452092086525558,0.09436826760738783
69,0.09449424550270767,0.09435608332657683
70,0.09450953527332115,0.09438578402233952
71,0.09448797491897973,0.09431707289219843
72,0.09449654330702709,0.09455725817625787
73,0.09452073695919783,0.09434975159149425
74,0.09445889194389517,0.09443207902520684
75,0.09448964858977058,0.09444860192552362
76,0.09448535692432135,0.09426381423681292
77,0.09449962050997192,0.09428455317782528
78,0.0944780887727686,0.0941998478445653
79,0.09446390827210972,0.09436883570386748
80,0.09447344123340434,0.09453486895222502
81,0.09447624011755847,0.09455447079468263
82,0.09448891692012429,0.09429295279303214
83,0.09446176355012315,0.09427234789778514
84,0.09449723296516614,0.09428718360912734
85,0.0944338521743707,0.09436562326284685
86,0.09448682304194791,0.09418761901904395
87,0.09446761575188758,0.09433694042106643
88,0.09446845913259722,0.09416833480536325
89,0.0944705925476875,0.09442109481711602
90,0.09447318834247444,0.0944335327116918
91,0.09445434913551398,0.09431360282691897
92,0.0944244258022375,0.09431269206253674
93,0.09447495668209333,0.09419995765095164
94,0.09444831360241683,0.09445325538645416
95,0.09445042347760318,0.09435236037671331
96,0.09446142618652346,0.0942803032478669
97,0.09445089971621355,0.09426322968672277
98,0.09441516784538659,0.09433079870225128
99,0.09446803536668098,0.09449180016836597
100,0.0944439894635138,0.0942270307262864
101,0.09444700096019928,0.09420773219949351
102,0.09444581024307046,0.0942151162129457
103,0.09443340256369466,0.09434108880672666
104,0.09443921031509277,0.09430995489446403
105,0.09444374448473124,0.09433487688662409
106,0.09444698683030123,0.09426016048267308
107,0.09443573588780839,0.09434209590529304
108,0.09448277585202461,0.09417774361259089
109,0.0944205801234209,0.09416764734670131
110,0.09445418659255182,0.09420928356091432
111,0.09444475144171696,0.09422016942369345
112,0.09443969962944229,0.09455763428650603
113,0.09441993070496835,0.09420646416007203
114,0.09444354584129404,0.09429152546290252
115,0.09442754791711541,0.09430055459630518
116,0.0944089974573762,0.09466177675558435
117,0.09442657341869425,0.09423972284619792
118,0.09441999315941553,0.09419458685847089
119,0.09445369173940137,0.09420691073034915
120,0.0944533429855256,0.09443991411927184
121,0.09443156984593752,0.09415054832891677
122,0.09441598137910608,0.09425507493511183
123,0.09440950082122183,0.09425694157311365
124,0.09442971201001597,0.09420014959601972
125,0.09444283210128236,0.09425687731112094
126,0.09443397129432475,0.09432441740640055
127,0.09444254174006643,0.09426301781267468
128,0.09441922287003314,0.09421505631427644
129,0.09442819055202577,0.09424820069544129
130,0.09443642908661104,0.09442351259814535
131,0.0944169919065339,0.09431935194659252
132,0.09444091672436605,0.09419186500907414
133,0.09442352038397968,0.0942399008721466
134,0.09443695055280658,0.09420066612648419
135,0.09443026598837735,0.09442224834575931
136,0.09442708369115178,0.09413905997467305
137,0.0944506899296618,0.09440670322976719
138,0.09438896202724234,0.09442851313146533
139,0.09443730142095583,0.09502587638554276
140,0.09443403810238857,0.09414935670057996
141,0.09442675251850216,0.09429347281650756
142,0.09441299423527756,0.09423292007800059
143,0.0944390165195953,0.09422257349730102
144,0.09443249880112142,0.0942057791182914
145,0.09441811700971674,0.09413324971554687
146,0.09442230739848886,0.09426480680468897
147,0.09443819057419718,0.09449528922762754
148,0.09446388224272324,0.09419561026363553
149,0.09438606493955226,0.09421676520225845
150,0.09443034017257554,0.09425778952798414
151,0.09443158094140647,0.09422223873865727
152,0.09442781924093656,0.09433620307232887
153,0.0944356943319122,0.09421348107806697
154,0.09441880098611807,0.09435116110373973
155,0.09441121276334036,0.09419890920078086
156,0.09445150036046164,0.0941817243866499
157,0.09441213632861582,0.09425613778660216
158,0.09439264402853595,0.0942902772524927
159,0.0944308662067929,0.09420145250674582
160,0.09439672615757282,0.09415551193864118
161,0.09442789263898234,0.09416922676393905
162,0.09445316107164946,0.09432790394293199
163,0.09441598823709453,0.09421330152907142
164,0.09440423601227317,0.09421530895187992
165,0.09442200466430635,0.09426571042427606
166,0.09442991090657042,0.09425785276677162
167,0.09440414507469114,0.09433398645697566
168,0.09441015589758932,0.09431391907966127
169,0.09439395668564274,0.09437903855363497
170,0.09442421092951803,0.09428769117184484
171,0.09444656092628873,0.09418046822581784
172,0.09438639877439975,0.09414274333707912
173,0.09439599372857481,0.09433352691433801
174,0.09440779132094029,0.09441217236167912
175,0.09443826319502412,0.09461712274456363
176,0.09441017375277767,0.09430083550730368
177,0.09442822099160805,0.09438863408993621
178,0.09441176762314532,0.09408696246316514
179,0.09439083073231623,0.09411980596906855
180,0.09443249561779982,0.09428001934369908
181,0.09442570357978773,0.09417857831871783
182,0.09442034236890234,0.09417577969952654
183,0.09440992172244642,0.09429481673188914
184,0.09444952014979603,0.09414380068443098
185,0.09439264255747806,0.09422902391830955
186,0.09439378821080346,0.09438694174377205
187,0.0944190849032667,0.09419283265543435
188,0.09441272480834684,0.09424773082078303
189,0.09437596217262373,0.0943920699013625
190,0.09440721479727686,0.0942085049193773
191,0.09444807015424915,0.09430507743391543
192,0.09439440343460495,0.09418943823677588
193,0.09438479112552034,0.09418227722913897
194,0.09445028641014744,0.09423031177498171
195,0.0944112199012467,0.09421205448887907
196,0.09442351145936335,0.09421670218104909
197,0.09442110949878593,0.0942470544409639
198,0.09440605496938566,0.09409417850630623
199,0.09442303937485369,0.09416033072366241
200,0.09439543528343848,0.09425901535724973
201,0.09440740401581894,0.09423925856976596
202,0.09438192436425424,0.09431489911621353
203,0.09442638397085772,0.09437235588856165
204,0.09440389153458995,0.09433214468168478
205,0.09439915187543721,0.09419453666260982
206,0.09438215101734816,0.09413249980608308
207,0.09438746683091093,0.09471846767646079
208,0.09442406205786504,0.09415333268203976
209,0.09439766139899798,0.09437212142755219
210,0.0943931176317491,0.09419428487179687
211,0.0943941400139976,0.09416344212022652
212,0.09441304750901332,0.09417443592527672
213,0.09438591180659599,0.09434861105285297
214,0.09440405327651046,0.09423031914911593
215,0.09442249164699937,0.09418184732417
216,0.09438839638464266,0.09414701937641227
217,0.09439649053817269,0.09430005263181399
218,0.09442781470567108,0.094162096152554
219,0.09438140542029763,0.09420277546406168
220,0.09442329248614448,0.09411559248050556
221,0.09438135921895552,0.09420289159785507
222,0.09440622451625091,0.09418924341026778
223,0.09441726973993506,0.09424043829011089
224,0.09443960258131213,0.09413534738035209
225,0.09437506998793113,0.09417265191991779
226,0.09441338319012778,0.09429242255514592
227,0.09440383338015809,0.0940953229848757
228,0.09440423095886179,0.09457225748870725
229,0.09442162631357984,0.09418822209855751
230,0.09440220871882186,0.09413895890081408
231,0.0943863985093711,0.0942254574071166
232,0.09441335871220112,0.09412698028425391
233,0.09437990294312307,0.09414689465710377
234,0.0943891264432721,0.09430554640297825
235,0.09437282568366408,0.09423307252381859
236,0.09443970194620957,0.09414623131433056
237,0.09438987912164985,0.09421806131513832
238,0.09441760917909615,0.09453156713363968
239,0.0943814471489091,0.09422603998724269
240,0.09441054128795315,0.09418118259360118
241,0.0944095725308267,0.0941491519772075
242,0.09439248380829676,0.09422757802935407
243,0.09436942864474442,0.09478552122001302
244,0.09441886700802951,0.09415259075828114
245,0.09440971712033144,0.09421377523780904
246,0.09440099054293857,0.09418450929253894
247,0.0943950037125775,0.09432761288220805
248,0.09439163889697225,0.0942359970619383
249,0.0944293520743136,0.09418604751106502
250,0.09439258182125031,0.09424085913324506
251,0.09439275026631108,0.09413931859861516
252,0.09439699033753192,0.09420295114957543
253,0.09436615653258625,0.09422536961140365
254,0.09441132949208089,0.09423606469933217
255,0.09439582517631144,0.09413908579002334
256,0.09442184833016136,0.09415643951534378
257,0.09441343083572712,0.09414318116894838
258,0.09439279214083719,0.0941378362623838
259,0.09441471854440696,0.09452961992704689
260,0.09441206642358804,0.09432536411233652
261,0.09436669666692317,0.09419231803612908
262,0.09439600660479802,0.09418632665203609
263,0.09437378262765973,0.09428302930769435
264,0.0943897194523129,0.09430526669748016
265,0.09437592212947533,0.09416295898506372
266,0.09437845905216859,0.09416640678680875
267,0.09438817581827406,0.09429857630544322
268,0.09439580719009769,0.09418097612372325
269,0.09441447860414652,0.09446840567459906
270,0.09438293004969804,0.09425137090278406
271,0.09439294064919249,0.09442578294353403
272,0.09440643294788092,0.0941075271946667
273,0.09438677290253503,0.09414821480354552
274,0.0943834821549918,0.09421783629819551
275,0.09438843106170543,0.09418567896312678
276,0.09437941822061817,0.09417778128300865
277,0.09439731802014138,0.09419489516079096
278,0.09439044273335585,0.09416526533081104
279,0.09439234932561477,0.09428842329282693
280,0.09438188152490475,0.09451585058960843
281,0.09439980713345354,0.09417598472280397
282,0.09437695595560124,0.09435448139882407
283,0.094392236075003,0.09417838372742932
284,0.09436943358797535,0.09424515654227822
285,0.09441383092773618,0.09417853948396308
286,0.09441193074381037,0.09422893512291332
287,0.09436882509411477,0.09423739117318096
288,0.09440898944695982,0.09417873085274316
289,0.09439140160997614,0.09455643120297505
290,0.09439252201411173,0.09445568822153742
291,0.09439397325142206,0.09421532178898918
292,0.09440820161804116,0.0942096875446842
293,0.09439583093547325,0.094294398746673
294,0.0943763399962708,0.09418460617360866
295,0.09440568246715646,0.09417967777625726
296,0.09436744314243944,0.09418483506579425
297,0.09440458612702637,0.09427186076388927
298,0.09440973359081957,0.09414011733966637
299,0.09439773611920915,0.09421437300135982
300,0.0944203970600947,0.09420085220870392
301,0.09440283797127451,0.09425635605862316
302,0.0944002330523553,0.09421032875329374
303,0.09438487034824064,0.09423031104580097
304,0.09438704329131128,0.09412003589033986
305,0.09441324385355035,0.09416233682924119
306,0.09437520770455816,0.09416127811173519
307,0.09441168178662027,0.0941141838209311
308,0.09439699306226462,0.09449898823213652
309,0.09437552849642283,0.09409948360783525
310,0.09440986429460996,0.094323988695171
311,0.09441229785910898,0.09423662076432966
312,0.0943810756472375,0.09412789053115303
313,0.09437280376668838,0.09417026965116645
314,0.09439683076348618,0.09452119979481106
315,0.09441098753663657,0.09429727442380285
316,0.09439128508075155,0.09415506177538478
317,0.09441256171746029,0.09434488135218715
318,0.09441413045477429,0.09417619703200829
319,0.09437600168869269,0.09419971796218674
320,0.09436774043906793,0.09450802911475784
321,0.09437886574011531,0.09412722528310112
322,0.09440413251114216,0.09420668407863016
323,0.09440146048935197,0.09412626479329701
324,0.09439716397298516,0.09417350779580806
325,0.09439585418057003,0.09421541267783978
326,0.09436525186176875,0.09419099685472114
327,0.09440838261176165,0.09433277823389659
328,0.09438546590334315,0.09426674303240727
329,0.09441463714190047,0.09437778590933582
330,0.0943797518321269,0.09416692345252448
331,0.09438136612161172,0.09411914491380588
332,0.09438920073765074,0.0941335642276642
333,0.09438782626335665,0.0942530478361844
334,0.09440940217994195,0.09420643950905871
335,0.09437870641323112,0.09412566369550851
336,0.09437144611724656,0.09416213638686531
337,0.09438212230194101,0.09424433107440078
338,0.09440200088276185,0.09426348957497017
339,0.09439378696010649,0.09473037404532308
340,0.09439107144086195,0.09417861335467614
341,0.09440259936806872,0.09416577386380935
342,0.09438807780234267,0.0944962847357485
343,0.09441373101789222,0.09426733423921191
344,0.09440165742648114,0.09432706172741956
345,0.09437808444162162,0.09412383921473819
346,0.09440315753626499,0.09417985808971649
347,0.0944013786759022,0.09418652314860329
348,0.09440754207192088,0.09409227592675067
349,0.09437930520823438,0.09417507833938667
350,0.0943982271219996,0.09445742404804328
351,0.09438892855323094,0.09419356774018332
352,0.09439583698050867,0.09416233522386747
353,0.094373694283785,0.09416023323690223
354,0.09436798549825244,0.09458887707015709
355,0.09440313357946208,0.09429737153421167
356,0.0943898320775762,0.09419249261611075
357,0.09438335494719725,0.09421474508935293
358,0.09437977420769149,0.09422627197256593
359,0.09438290522336293,0.09416989027724647
360,0.09441310886761173,0.09416190769461637
361,0.09440546268098456,0.09427706868444359
362,0.09438503487742872,0.09418244176524403
363,0.09439058870160513,0.0945336527904847
364,0.09441003377596252,0.09422473884066354
365,0.09437607176643577,0.09417616940546714
366,0.09439214048899716,0.09417718941170866
367,0.09438615193446095,0.09414072184813897
368,0.0943844676714578,0.09424331373790162
369,0.09439999120329305,0.09422947992089233
370,0.09437465166552461,0.09461650596938927
371,0.09439893894725376,0.09412879298052265
372,0.09438146790750117,0.09424785949766118
373,0.09437702391907084,0.09422489035148365
374,0.0943796764240324,0.09433002061936079
375,0.0944091354271205,0.09416391532324202
376,0.0943592451363921,0.09408254968480229
377,0.09439278868653124,0.09432872732911603
378,0.09439531531777504,0.09412453659966694
379,0.09438481231887849,0.09450996938825312
380,0.09441698037629886,0.09469174350822829
381,0.09438120170558195,0.09410725232881172
382,0.09440793414458001,0.09445537382114941
383,0.09436878454175403,0.09425445501975592
384,0.09439376859868363,0.0941266627025209
385,0.09436476063563955,0.0942466339624201
386,0.09441245064663467,0.09425643388690587
387,0.09438971818077098,0.09438047106447611
388,0.0943635247772832,0.09428771275324245
389,0.09438045639142716,0.09455902420495943
390,0.09439001742491333,0.09422176467120977
391,0.0943869506235984,0.09460878488626082
392,0.09438368887138024,0.09423176251534128
393,0.09439871764237837,0.09418591899296008
394,0.09435782041683567,0.09413777745160515
395,0.09438507945286474,0.09425175260537802
396,0.09439943157892815,0.09420243486021106
397,0.09435289054156112,0.0941096011316955
398,0.09438405588840981,0.09424312755571357
399,0.09438478527404517,0.09427562339529806
400,0.0943827014997137,0.09412785054382228
401,0.09437512023021563,0.09416796281733848
402,0.09438621425788275,0.0943598254644786
403,0.09440047831701145,0.09419414651563249
404,0.09437268378315784,0.09413149697675231
405,0.09439834785892619,0.09421233225381553
406,0.09437118382822218,0.09419801212029845
407,0.09438939769264701,0.0941656996931913
408,0.09438512803946468,0.09419165911548422
409,0.0943607318666961,0.09414667194531297
410,0.094378251862302,0.09445143633337592
411,0.094397410851636,0.09418149998715851
412,0.0943513449540527,0.09424003115439848
413,0.09440049510612952,0.09429354407628314
414,0.09437228307771169,0.09419758827223397
415,0.09437578932630072,0.09420773448112356
416,0.09437644088880526,0.0942870995004815
417,0.0944065832250791,0.09427474422090715
418,0.09438560286657416,0.0941288341792343
419,0.09440085885050199,0.09416849221431466
420,0.0943767153721252,0.09416362057545097
421,0.09438793776894835,0.09414533589802676
422,0.09441157488478459,0.09411483965431881
423,0.09439127770759505,0.09409947254663391
424,0.09437130608385225,0.09417552606223979
425,0.09437582074261779,0.09415996638027438
426,0.09436572661740984,0.09417500698552324
427,0.09439630456548705,0.09427334666957796
428,0.09439254417527113,0.09432531144078923
429,0.09435008479941853,0.09419943828021059
430,0.09438127548181467,0.09434981368358622
431,0.09438701465035038,0.09417462551814887
432,0.09439511674878409,0.09429904777959472
433,0.09437311939198337,0.09417901210481008
434,0.09439189127571196,0.09414354536532415
435,0.0943959649923227,0.09454088765707369
436,0.09440824060405283,0.09423102106202184
437,0.09438797185044114,0.09433270164051673
438,0.09439056278239909,0.0942012214858229
439,0.09438059828002199,0.09420680715728201
440,0.09439507500528337,0.09421521215901756
441,0.09434182184944145,0.09420850968845454
442,0.0943951373971957,0.094232674150036
443,0.09438282477972414,0.09471544094130856
444,0.09439640787603568,0.09417399261279095
445,0.09437020685520771,0.09416554033191729
446,0.09438831496129124,0.09478869675507956
447,0.09438974803073896,0.0941433269521714
448,0.09437103777957095,0.09412378085087676
449,0.09437702472904604,0.09426619258915804
450,0.09437027680788108,0.09420867343657395
451,0.09438183827163409,0.09428523399153373
452,0.09440478157225272,0.09425902530115801
453,0.09436921165477362,0.09416820712228789
454,0.09437266221756843,0.0942547389533262
455,0.09437525671103494,0.09428261016990222
456,0.09438586721329285,0.09412771274630442
457,0.09439020606575252,0.09424636385976186
458,0.09438755042809281,0.09422824387133545
459,0.09438389786880175,0.09431230096880056
460,0.09437971848318522,0.09414013281123508
461,0.09438150676546528,0.09416126922043459
462,0.094408477215077,0.0942334583486359
463,0.09438601097197746,0.09427277465669208
464,0.09436633748163899,0.09418539965750199
465,0.09437606970278574,0.09416468130408448
466,0.09436973477963159,0.09418429190847191
467,0.09438259389510543,0.09422366051172401
468,0.0943744314505423,0.09425221643489275
469,0.09436997395458457,0.09414157130253438
470,0.09440658765611984,0.09433456522066384
471,0.09439078156503557,0.09411899287962218
472,0.09438815500310285,0.09412904506536009
473,0.09439349528863657,0.09432770982796317
474,0.0943596546949862,0.09422266271021203
475,0.0943807787139067,0.09422572916807297
476,0.09437511620118463,0.09419591305593665
477,0.09437848414353234,0.09419639730251203
478,0.09440143152380542,0.09416445893924257
479,0.09437329554669767,0.09418336312626889
480,0.09438351582554128,0.09418169740696263
481,0.09440624806508839,0.09429874505785947
482,0.09439088512870143,0.09408476080777801
483,0.09438330331127898,0.09420665317665618
484,0.0943980938661918,0.09421333520663659
485,0.0943748331833467,0.09417706677997403
486,0.09437167241002063,0.09417356697117708
487,0.09441111227877134,0.0942261860115658
488,0.09436588820150431,0.09412362006064372
489,0.09440507718937384,0.09411117990207936
490,0.09436805822330413,0.09426859727433655
491,0.09439563401621118,0.09415769571733926
492,0.094380504126362,0.09424997495682859
493,0.0943834172557298,0.09436243923047254
494,0.09437638501242863,0.09431385896341389
495,0.09438972384761944,0.09425956672373585
496,0.0943642292561815,0.09416799633613043
497,0.09437532386155151,0.09414034749027679
498,0.09443053079964064,0.09421600029166514
499,0.09437129208200175,0.09411544643266048
500,0.09438307913277837,0.09413542037487219
