epoch,loss,val_loss
0,0.45839900747993667,0.4503851719736757
1,0.45047372291652304,0.45030753146625924
2,0.45045060769319645,0.4505622369775701
3,0.4503633088263061,0.45026626453801954
4,0.45032140716175373,0.4505950471011936
5,0.4503138591466798,0.4502108852709493
6,0.45029630379012564,0.4502115812106405
7,0.4502905065831022,0.45041231501191187
8,0.4503015694247823,0.45084975935685134
9,0.4502748136738986,0.45059019898066743
10,0.45029120293181174,0.45022467769700897
11,0.4502787861064268,0.4502880715406858
12,0.45026677072437077,0.4502286432990365
13,0.4502744252399237,0.4502537281726193
14,0.45027073129489553,0.4502207766987254
15,0.45027588235423366,0.4502305247351786
16,0.450265093311259,0.4502140775655694
17,0.45027930007845957,0.4505299763703169
18,0.4502641876150491,0.4502002670510531
19,0.45026888521770136,0.450306696661057
20,0.45027102641325967,0.450209945040956
21,0.4502538910043654,0.4502981790389967
22,0.45025782542129245,0.4503290880850468
23,0.45024887280222725,0.4504996534464673
24,0.4502543543139095,0.45050785137761024
25,0.4502555240936172,0.4502821734170464
26,0.45025154076224466,0.4502591397419165
27,0.4502536689176846,0.45022511918550684
28,0.4502462401048008,0.4501970285517406
29,0.45024979121631925,0.450245047902351
30,0.45025303171807163,0.4501941881907489
31,0.45024769164209566,0.4502741344513432
32,0.4502457962986387,0.4502165544417597
33,0.4502420963671936,0.45035433520750134
34,0.45024777767445595,0.45020507182140207
35,0.4502430124573978,0.4502146575646128
36,0.4502398878427851,0.45024651305255464
37,0.45024171331263235,0.4501933554413893
38,0.4502360284244845,0.45032906211339513
39,0.4502380693998192,0.4501954603431834
40,0.4502335453831426,0.4502009580360157
41,0.45022885401065516,0.45033271966441984
42,0.450235237856956,0.4502086014221087
43,0.45023612881430614,0.45019511411858554
44,0.45022656837908265,0.4503202094777346
45,0.45023374342949635,0.45020510049966667
46,0.4502400755401078,0.4502292207097889
47,0.45022958329964546,0.45024681869274924
48,0.45023429023374045,0.4502431496940831
49,0.45022918319850763,0.450315382773468
50,0.45023656138952733,0.4502689469984684
51,0.4502284328178299,0.4502854682671521
52,0.45023269952704265,0.45019101932386013
53,0.45023617389544124,0.45023466154896
54,0.450226692058267,0.4502082409840955
55,0.4502331005929173,0.4501980644153898
56,0.4502356725557026,0.45021442040320364
57,0.4502283860975099,0.45023834016127856
58,0.45022624699392394,0.4502068281173706
59,0.4502319080180478,0.4501909415715977
60,0.4502318097935594,0.45032529851638947
61,0.4502250448971097,0.450225755505763
62,0.45022637125802434,0.45021015146825805
63,0.45023281662582243,0.4502018002807059
64,0.4502293022646249,0.45027071598445806
65,0.4502305645825531,0.4501944885212494
66,0.4502293018512789,0.45023171971216985
67,0.45022392257645955,0.45020523368572773
68,0.45023050846689533,0.4502407428200724
69,0.45022732098149487,0.4502000290170201
70,0.45022704755787724,0.4505158680988009
71,0.45022413819593265,0.4502358122291991
72,0.45022751917575393,0.45019772086782434
73,0.4502220239495053,0.45021333271457303
74,0.45022198890344767,0.450228235902029
75,0.4502249871446334,0.4502338110069483
76,0.45022372239514236,0.4502281278889469
77,0.45022629695553884,0.4502263243085989
78,0.45022399099783666,0.45021744948758674
79,0.45022071312889983,0.4503019974190307
