epoch,loss,val_loss
0,0.5550314134655091,0.5503378963647941
1,0.550387273152865,0.5505002194243684
2,0.5503467600112528,0.5502028559632692
3,0.5503202946662739,0.550441014382147
4,0.55034571518942,0.5501763389069153
5,0.5502684182380554,0.5505805559844592
6,0.5502619296002718,0.5501962434269358
7,0.5502686781427361,0.5502323904049308
8,0.5502480550934093,0.550317800902847
9,0.550239003062275,0.5501950578417435
10,0.5502339416978264,0.5501662362598012
11,0.5502317757161039,0.5501672292465608
12,0.5502168606707456,0.5501696120420697
13,0.550220029075576,0.5504928603953226
14,0.5502063690021837,0.5501646784635691
15,0.5502164709825339,0.5501855843416219
16,0.5502091583569391,0.55027069087064
17,0.550213105641231,0.55015897404763
18,0.5502125802288234,0.5501699706460939
19,0.5501998190259109,0.5503000577389454
20,0.5502106042142767,0.5502241534867298
21,0.5502038857671845,0.550152285252848
22,0.5502009431636267,0.5501623290939899
23,0.5502029109593728,0.5501730135593461
24,0.5502004046432615,0.5502238771755701
25,0.5501947898835149,0.5506149719429962
26,0.5502015918209687,0.5501734221839432
27,0.5501964769889583,0.5501531275566991
28,0.5501955614213528,0.5501689937215289
29,0.5502002713557558,0.5501537627085267
30,0.5501973075098444,0.5501736616378387
31,0.5501892087183822,0.5502112285670808
32,0.5501953078454406,0.5501715876328442
33,0.5501899761945438,0.5501611022736239
34,0.5501897310299062,0.5502142757103402
35,0.5501904535681051,0.5501570632380824
36,0.5501867785163003,0.5501603324123411
37,0.5501852656330225,0.5501645276031778
38,0.5501889192231796,0.550226395922914
39,0.55019068645621,0.5503374548762963
40,0.5501832870752937,0.5502383049013597
41,0.5501841162717374,0.5502618994665501
