epoch,loss,val_loss
0,0.5041330221094955,0.505570765996985
1,0.5005017937399538,0.5002626651569868
2,0.5004012119332881,0.500231948798111
3,0.5003645030417015,0.500273302175271
4,0.5003595653095019,0.5002955730144795
5,0.5003276708057882,0.5003122804182635
6,0.5002997751804612,0.5001764172951577
7,0.5002800676900631,0.500231832458127
8,0.5002838978097081,0.5001738077949354
9,0.5002634760929933,0.5010124023439867
10,0.5002601889127288,0.5002078570443999
11,0.5002462845021797,0.5003876682546535
12,0.5002496048621343,0.5003091205734177
13,0.5002378230209384,0.5003765416204485
14,0.500242908647375,0.5001755833034184
15,0.5002478729867486,0.5001907576994032
16,0.5002280009341744,0.500185607443968
17,0.5002390964641047,0.5001726056150999
18,0.5002285328110287,0.5001788844837445
19,0.5002345199315876,0.5001981144211725
20,0.5002222724593264,0.5003664083279687
21,0.5002237217449113,0.5002058261973095
22,0.500220643552836,0.5003004883418308
23,0.5002188768932836,0.5002906714420461
24,0.5002224917787981,0.5001758129365983
25,0.500214111563423,0.5001841705726926
26,0.5002122442896273,0.5003339583465538
27,0.5002154870383567,0.500188624533471
28,0.5002113980071657,0.5002361828281033
29,0.5002200911948472,0.5006739264978073
30,0.5002156755722317,0.5001852110065242
31,0.5002130857452494,0.5001697088589443
32,0.500209339450429,0.5002363999487448
33,0.5002066327948405,0.5001663995735699
34,0.500209572007226,0.5001720794968806
35,0.5002074185276412,0.5001903580081078
36,0.5002097744970488,0.5002476691312293
37,0.5002059344200259,0.5003561662385245
38,0.500203703378912,0.5001742373625043
39,0.5002152348862793,0.5001745014569304
40,0.5002012469948346,0.5001663316272329
41,0.5002058029152717,0.5004026924705979
42,0.5002061533435057,0.5003382585184746
43,0.5002109938337025,0.5002155808597877
44,0.5001989292141759,0.5003487594961824
45,0.500197770028036,0.5001788676524577
46,0.5002015207576482,0.5002004427886186
47,0.5001979633287995,0.5002322813121616
48,0.5002034208869257,0.5001691809658969
49,0.5002031993484805,0.500172145195102
50,0.5001988969124515,0.5002334152202749
51,0.5001986995405457,0.500174090406735
52,0.5001980882618262,0.5001656608013598
53,0.5001954222616524,0.5002307454350569
54,0.5001927645631061,0.5002280617470185
55,0.5002013731568555,0.5001853610682429
56,0.5001947425710216,0.5001658766500412
57,0.500195915985255,0.5001716489531562
58,0.5001967931306185,0.5001740174317183
59,0.500196614983244,0.5001701292861485
60,0.5001941799062041,0.5001770663498057
61,0.5001986802426537,0.5001772901852137
62,0.5001968665484332,0.5002389014802558
63,0.5001951353916699,0.5001816659056519
64,0.5001961090864451,0.5003178524616043
65,0.5001973782865047,0.5001977327148021
66,0.5001966158375448,0.5002608028298277
67,0.5001953426215612,0.5001783581880422
68,0.5001929302296415,0.5001915621698346
69,0.5002043870775786,0.5002182920872426
70,0.5001952058726774,0.5001629291929619
71,0.5001995194390718,0.5002018138433508
72,0.5001950548909672,0.500164387362175
73,0.5001949225350675,0.5001816200559251
74,0.5001942994775658,0.5001678325106429
75,0.5001990799978903,0.5001644925207417
76,0.5001945524129495,0.5002117222355258
77,0.5001932899897127,0.5002187736276953
78,0.5002044818150521,0.5001708543626013
79,0.5001930276727956,0.5001650244071525
80,0.5001952554836582,0.5002752154104171
81,0.5001997500411527,0.5001677960970857
82,0.5001917883448698,0.5001710022353653
83,0.500195614809085,0.5001721273580793
84,0.5001957496529488,0.5001741878743798
85,0.5001950608584522,0.5002532579171155
86,0.5001985945151755,0.5001712812087672
87,0.5001969688547129,0.5001758653531891
88,0.5002009849484855,0.5002392380172502
89,0.5001943743973093,0.5002589094135956
90,0.5001962790513051,0.5001797954734443
