epoch,loss,val_loss
0,0.6059179195625883,0.600169108109202
1,0.6003583395331705,0.6001986148043839
2,0.6002596964050259,0.6001862795713817
3,0.6002904439021065,0.6002970027864423
4,0.60024814542228,0.6001769926944382
5,0.6002431820839293,0.6004013543389275
6,0.600230406342125,0.600179790977213
7,0.6002175500128467,0.600180214806171
8,0.6002239240970046,0.600185475396755
9,0.6002154498675115,0.6001697196558154
10,0.6002145968571346,0.6006013945669454
11,0.6002041037600049,0.6001493349856242
12,0.6002061035703419,0.6002658595814007
13,0.6002021763522607,0.6002685417904156
14,0.6002017484200821,0.6002322442478341
15,0.6002016227471346,0.6001697841412377
16,0.6001961966766621,0.6001692936379028
17,0.5545678290945192,0.5501783898095635
18,0.5502153456994396,0.5503074672914321
19,0.5502142528001079,0.5502237257235695
20,0.5502112690536397,0.5501945080887295
21,0.550212195841537,0.5502299255532012
22,0.5502135230748956,0.5502410167204239
23,0.5502098608746792,0.5501757524741199
24,0.550205779028924,0.550181800289722
25,0.5502087587129272,0.5501818444237816
26,0.5502041640326293,0.5501862950419669
27,0.550201128408877,0.5502157901416049
28,0.5502023086811825,0.5502622896920955
29,0.5502024188576008,0.550190373478693
30,0.5502040119142176,0.5503583191346294
31,0.5502069047908369,0.5501693352576225
32,0.5501996927739635,0.5502452163779115
33,0.5502084906935713,0.5501813121528247
34,0.5501994505027477,0.5502001292356486
35,0.5501943823819857,0.5501766894058909
36,0.5501993617390698,0.5501727189970371
37,0.5501931356911378,0.5501637713489107
38,0.550194846489035,0.5501608083620853
39,0.5501982446321795,0.5502013935936296
40,0.5501945983584036,0.5501947970307495
41,0.5501929372432705,0.5501717615660012
42,0.5501885902684257,0.5501651690260648
43,0.5501905670536575,0.5501633952628294
44,0.5501920621251954,0.5502756092743601
45,0.5501938049092858,0.5501747107091671
46,0.5501949836717742,0.5502643747010243
47,0.5501869394893081,0.5501646771916089
48,0.5501879766547748,0.5501605847337405
49,0.5501935344414074,0.5501864049925698
50,0.5501896157032289,0.5501947140871147
51,0.5501882518816537,0.550159836969068
52,0.550189876427502,0.550319867187339
53,0.5501912305811992,0.5504190699634126
54,0.5501867843630946,0.5501798340759562
55,0.5501912398601849,0.5501722895477901
56,0.5501890179276698,0.5501608435924237
57,0.5501885747340327,0.5501613815132501
58,0.5501895266342747,0.5502538930097821
59,0.5501935829212086,0.5501642498425751
60,0.5501843753110734,0.5503568659349352
61,0.5501888393606387,0.5501965359481925
62,0.5501904598124688,0.5501658317173089
63,0.5501854251679965,0.5503605643513777
64,0.5501899939463327,0.5501604377779712
65,0.55018604472389,0.5505328493437756
66,0.5501912381555273,0.5502083382003065
67,0.5501865691534177,0.5502996564503048
68,0.5501868410372428,0.5501590248964561
69,0.5501891291492854,0.5503103346741821
70,0.5501881917019531,0.5502143103490692
71,0.5501830209751568,0.5501622836879702
72,0.5501872175867325,0.5501575419683906
73,0.5501827473756304,0.5501684238242156
74,0.5501854334901336,0.550282241836671
75,0.5501842139712606,0.5501636469334585
76,0.5501847908633829,0.5501610491175214
77,0.550184158019679,0.5501818587407284
78,0.5501794967764833,0.5501835818622012
79,0.5501826367685121,0.550157085423434
80,0.550183366908648,0.5501913378907196
81,0.5501831388876128,0.5501538584605045
82,0.5501794158285148,0.5502712226091484
83,0.550180638849785,0.5502161408180635
84,0.5501794308241382,0.5501654119408752
85,0.550180802300502,0.5501572339765487
86,0.5501808131539887,0.5501760373044546
87,0.5501800258664077,0.5501555698681114
88,0.5501834540355073,0.5501638778090181
89,0.5501840661898262,0.5501590751832531
90,0.5501835018937119,0.5501614739226348
91,0.5501793594659539,0.5501702563638426
92,0.5501812331757985,0.5501579042108125
93,0.5501832204603331,0.5501591254996306
94,0.5501809205008803,0.5501743209864898
95,0.5501782079756214,0.5502374116303608
96,0.5501828175639827,0.5501677883174224
97,0.5501822596526437,0.5501576759974951
98,0.5501792166320496,0.5501558688379103
99,0.5501819573421387,0.5501654987595513
100,0.550179705353693,0.5501800333595749
101,0.5501779911322815,0.5501971830209491
