epoch,loss,val_loss
0,0.5526142973076683,0.5504515839865427
1,0.5505872287326612,0.5501798883265361
2,0.5502761352903274,0.5503161882052646
3,0.5503986895189296,0.5501658510333551
4,0.5502687917237367,0.5506158415200397
5,0.5502753313213973,0.5502753082930893
6,0.5502676379387031,0.5501591425084003
7,0.5502583560454088,0.5502455204059705
8,0.5502451041164407,0.5501727721235592
9,0.5502379681504903,0.5502367187966188
10,0.5502197047157463,0.550225585802613
11,0.5502206446273777,0.5504744464351284
12,0.5502282399768743,0.5502590222630844
13,0.5429092274493603,0.5001968634335634
14,0.5002379566003107,0.500258922813548
15,0.5002393025833258,0.500216429168474
16,0.5002358802633871,0.5001857111826724
17,0.5002368930887721,0.5002716557855346
18,0.5002360841936101,0.5003061179783445
19,0.500235306496602,0.5002084377681647
20,0.5002317160852701,0.5003310379260231
21,0.5002235948319259,0.5002489615906557
22,0.5002271108054882,0.5003208234351563
23,0.5002305728650122,0.5001951362004056
24,0.5002260907126294,0.5002057487260615
25,0.5002212398879948,0.5001791750526902
26,0.5002170299909752,0.500191749502944
27,0.5002241837647213,0.5001838997635001
28,0.5002259066553543,0.500229957145142
29,0.5002206461551801,0.5002701152051353
30,0.5002196065656445,0.5001841172982682
31,0.5002195672670142,0.5002213792824568
32,0.5002202545935016,0.5001880282503796
33,0.5002134381597526,0.5002196041289393
34,0.5002133790568026,0.5002926479498151
35,0.5002094541578762,0.5004913001439116
36,0.5002119547171195,0.5002493017364672
37,0.5002120117399297,0.5002629427105262
38,0.5002117814289264,0.5001802040388803
39,0.5002094304819877,0.5002676120466985
40,0.500213317390161,0.5001977010932809
41,0.5002118329772692,0.5003410601734227
42,0.5002069500181419,0.5001757684179926
43,0.5002061194522927,0.5001947891031838
44,0.5002075204544945,0.5001856451590658
45,0.5002054140845164,0.5002197826174886
46,0.5002038528326621,0.5001686394066728
47,0.5002114338657163,0.5002690394226434
48,0.5002078118255304,0.5003130870184886
49,0.5002097806286101,0.5001903568544696
50,0.5002076132546059,0.50016808279099
51,0.5002021600863085,0.5001785527387861
52,0.50020496071894,0.500232360262433
53,0.5002118732800777,0.5001790834123976
54,0.5002082557669767,0.5002162850820101
55,0.5002035328579281,0.5001994187719473
56,0.5002100057459687,0.5003512098534824
57,0.5002051582888416,0.5001735974482212
58,0.5002029967821414,0.5002375819842809
59,0.5002059533905543,0.5001856140108322
60,0.5002086769365315,0.5002405451781696
61,0.500204940102916,0.5002284299351145
62,0.5002056970095692,0.500176152342898
63,0.5002057028879167,0.5002971806538016
64,0.500203766117571,0.5002079734435448
65,0.5002039640463893,0.5004598192482373
66,0.5002046416332154,0.5002487653538252
67,0.5002087380391609,0.5002235112947506
68,0.5002029070576709,0.5001826068899472
69,0.5002031927215351,0.5001888321587821
70,0.5002028838479798,0.5002270353934901
