epoch,loss,val_loss
0,0.4081852290779303,0.4013832608760143
1,0.400514860795683,0.40057478686124454
2,0.4004439546354625,0.40029999967248503
3,0.38588445807320204,0.3502961969848898
4,0.3503557854961108,0.3504287711148227
5,0.35039165791589166,0.3502754369385485
6,0.30981008377819974,0.30027935722329774
7,0.3003648554354587,0.300589231551433
8,0.300382126101957,0.30058847590356547
9,0.3003934154039757,0.30026312207169925
10,0.3003673721124335,0.30025871582421715
11,0.30034410117363874,0.30048308366581467
12,0.30034890339344283,0.30049847173631633
13,0.3003495367767052,0.30067259814248193
14,0.3003583294340402,0.30024774198792414
15,0.30033591478399235,0.3002483572025157
16,0.3003254494200887,0.30044292189347244
17,0.3003347345941194,0.3002445246830176
18,0.30033181581041124,0.3002509986940152
19,0.3003319297901645,0.3009916928506667
20,0.3003226328010656,0.30038681704708126
21,0.3003194901684345,0.3002464772306068
22,0.3003186277840181,0.3003585005664352
23,0.3003173863925177,0.3002571124740629
24,0.300315648680198,0.3002758107617239
25,0.3003217770073085,0.30026130176359606
26,0.30030416885921835,0.30067367376228127
27,0.30030471138288645,0.30026443658336516
28,0.3003068939852182,0.3009884933088317
29,0.3002944626426342,0.3002572964793695
30,0.30030824518633176,0.30029427360364286
31,0.30030452772633603,0.30028322571264604
32,0.3003089261256775,0.30025237143483413
33,0.3003015881850092,0.30029530747061034
34,0.3002955182209279,0.3002900522488814
35,0.3002949313276478,0.3002660782993875
36,0.3002993680364289,0.3002975798718095
37,0.3002910126655913,0.30024129576777703
38,0.3003065909217768,0.3003635513131731
39,0.3002990874194873,0.3006552711166164
40,0.30029138904075,0.3002442562402626
41,0.30029882838448974,0.3002607668747677
42,0.30028912504160665,0.30024281589328206
43,0.30029064830822955,0.3004064170953358
44,0.30029709514088154,0.3002393066291478
45,0.3002958672028455,0.30059873293114653
46,0.3002911309117216,0.30030381602625694
47,0.3002912326705546,0.3002557368047776
48,0.30029202693650386,0.30024056717124825
49,0.300291601009132,0.3002457191571408
50,0.300282015922634,0.3002521465789
51,0.3002932606621721,0.3002518837416438
52,0.3002820117130525,0.3005404708403216
53,0.3002887141615264,0.3002771986329526
54,0.3002898739420483,0.3003977334381037
55,0.3002821567233336,0.30025846192026256
56,0.3002847451880097,0.3002527267554262
57,0.3002920073163754,0.3002791706297001
58,0.30028064158400725,0.30025183735946864
59,0.3002896055779745,0.3003875155602732
60,0.3002843949735481,0.30029740388280995
61,0.300288255384589,0.3002454011227298
62,0.30027726541564337,0.3002542088108678
63,0.30028878698574796,0.3002574438048947
64,0.30028293813020057,0.3002447289509454
