epoch,loss,val_loss
0,0.5545212354627029,0.5501942578675434
1,0.5504626188076132,0.5501814373965299
2,0.5505505734261716,0.5515513598771012
3,0.5502970999535222,0.5505987143102414
4,0.513972594598668,0.5002522535714559
5,0.5002803026046674,0.5003422759602738
6,0.500308019852282,0.5006176009367477
7,0.5002692609075262,0.5003252884294496
8,0.5002764122138178,0.5002427450776396
9,0.5002659641508879,0.5002664466649663
10,0.5002612466950084,0.500260517881171
11,0.5002514604139434,0.500390169815745
12,0.5002577027306676,0.5002335448714699
13,0.5002478371991924,0.500289716466189
14,0.5002354717774004,0.500212625741367
15,0.5002453677813073,0.5002082672367617
16,0.5002402708769946,0.5001778633363785
17,0.5002490749478843,0.5001855793721031
18,0.5002387493465824,0.5006842400832449
19,0.5002434831793234,0.5005478034244282
20,0.5002359362583542,0.500311394246577
21,0.50022789021662,0.5001950271076363
22,0.5002307326957968,0.5005193512433812
23,0.5002298224717132,0.5003096255120214
24,0.5002284661708256,0.5002372654732641
25,0.5002320401114255,0.5002618356614787
26,0.5002252850319422,0.5002460779386477
27,0.5002278728040271,0.5001787231814476
28,0.5002255006178902,0.5001928710464213
29,0.4654411885298869,0.45020822978788805
30,0.4502530053846211,0.450316118262246
31,0.45024467993600764,0.45029110052153726
32,0.4502475653743717,0.4504375259722433
33,0.4502379595247333,0.45023509982797705
34,0.4502429034354295,0.4501954462037193
35,0.4502357772138735,0.45048072898654135
36,0.45023645996831285,0.4502103852279133
37,0.45023808344017163,0.450192803336728
38,0.45023992566433463,0.45018797061283594
39,0.45023077575342985,0.45018840665852755
40,0.4502447499338579,0.4501907984021284
41,0.4502390154457728,0.45018876450824974
42,0.4502321451587253,0.45025278751370923
43,0.450231926505419,0.4502037379493193
44,0.45023927227599564,0.4503609899995345
45,0.45022241629015164,0.4506236948535105
46,0.4502302179978843,0.4502840406101927
47,0.4502324769047475,0.4502525625098728
48,0.4502352501496597,0.45019750033063866
49,0.45022605754343065,0.45028402630803605
50,0.4502315061917428,0.4502275954109268
51,0.45022118761377244,0.4505127991843164
52,0.45022947139490466,0.45028285986140704
53,0.45022533443648666,0.4503428327978101
54,0.45021991927274674,0.4502370934628375
55,0.4502245022716827,0.4502648245755851
56,0.45021549076422873,0.4503313928029082
57,0.45022159037799414,0.45018798886398526
58,0.45022145452403595,0.4501997333454435
