epoch,loss,val_loss
0,0.5083237287124525,0.5004673445195181
1,0.5003820434483844,0.5004576492546214
2,0.5003625449793062,0.5002545081356323
3,0.5003062831145595,0.5002852342560629
4,0.5002957442172777,0.5001973789915554
5,0.5002731572950475,0.5001766059889687
6,0.500276739853595,0.5003548205934151
7,0.5002627439815758,0.500199176803712
8,0.5002542064462562,0.5001857450227288
9,0.5002597626504994,0.5004616505159042
10,0.5002418642026019,0.5002029198275014
11,0.5002508851160429,0.5002748173460475
12,0.5002514251840889,0.5001794768917945
13,0.5002374832237416,0.5002096334402969
14,0.5002410625749137,0.500323407910302
15,0.5002340295226408,0.5002142757103402
16,0.5002334226724026,0.5001975547882819
17,0.5002309607815157,0.50021067017657
18,0.5002272003161863,0.5003886677491162
19,0.5002246594872654,0.5002082409101444
20,0.500224972917092,0.5002238129563722
21,0.5002333903265038,0.5002695622278502
22,0.5002272898584376,0.5001977889472734
23,0.5002204222597163,0.5002124425791038
24,0.5002247853045684,0.5001798345492436
25,0.5002204267781241,0.5002180905555081
