epoch,loss,val_loss
0,0.6095137338672636,0.6003877340416163
1,0.6002898753053011,0.6001559021455183
2,0.6002681326264117,0.6002662489491124
3,0.6002416653953445,0.6002976353647691
4,0.5750664041982327,0.5007297859298384
5,0.5002573339574458,0.5002400623065958
6,0.5002882573213988,0.5002169664681105
7,0.5002626650135661,0.5005551065759682
8,0.4590220915355538,0.40066713281068256
9,0.40030425406520226,0.40023661249920395
10,0.400306039484666,0.40021177073270453
11,0.40030811298180813,0.40025374569904715
12,0.40029381382389795,0.40021572509415393
13,0.4003050574397503,0.40087052188795197
14,0.40030417579175576,0.40058005375246847
15,0.4002972995096141,0.4002750428675422
16,0.40029362220491604,0.4007753761027646
17,0.4002920183800059,0.4002776815193167
18,0.4002902213584575,0.40021933195904524
19,0.40028096855596257,0.40040548643462415
20,0.40028195842960335,0.40047336535773265
21,0.40028248259802895,0.4002519339396995
22,0.4002847896155217,0.40038905025415916
23,0.4002884570472465,0.4003043132887289
24,0.40028202510333166,0.4002156359977817
25,0.40027785521843734,0.40026630858333767
26,0.40027316825076636,0.40022439384282965
27,0.40026949090978214,0.4002590233427715
28,0.4002688943494128,0.4002145989804942
29,0.4002779496253918,0.40065475475995177
30,0.40027266459936683,0.40023850689159135
