epoch,loss,val_loss
0,0.1315079364586148,0.04465777116762246
1,0.02602446309069721,0.021162012831588008
2,0.01688438475200479,0.018719611527734888
3,0.014372149988790031,0.009407195745546139
4,0.013109554037106314,0.009453347725345332
5,0.011038697503178084,0.006734509263981513
6,0.010656016894417416,0.009743793807988479
7,0.010374559909566868,0.013129989992924205
8,0.009816022563095151,0.010108723957165076
9,0.010360190125969912,0.009322069473594027
10,0.009201115991497378,0.010942815661124573
11,0.010332087457044531,0.006451531007574267
12,0.009123935475670022,0.013664635495909717
13,0.009553792685710287,0.008355666639249486
14,0.009587109985602775,0.011689600386254743
15,0.009004204058841014,0.007534027349162662
16,0.010004049806344173,0.009422493159870935
17,0.008113165442879459,0.005539505008531656
18,0.008434379755014584,0.01151696905117385
19,0.008225118407036373,0.006771418819131937
20,0.0073532251250125365,0.009596853012743906
21,0.009523135814279746,0.006104997485646744
22,0.008051049083003775,0.008247180668756236
23,0.007680129646945247,0.010012767321026598
24,0.008639262385962666,0.00793517533625052
25,0.0091276855578722,0.0076661139753101
26,0.007276245907096447,0.004848727764930773
27,0.00826445339916856,0.00906356809044811
28,0.00818378028279687,0.009054899730241102
29,0.008675570324004489,0.0070414694739857
30,0.008222741968680372,0.014067921255316054
31,0.008079205999421857,0.011957868041313343
32,0.00844305025363009,0.007745371725345538
33,0.008063674251233294,0.00794509997012148
34,0.00894772369216541,0.007685536698415441
35,0.00876569831416273,0.010933178030072044
36,0.007247843536091217,0.006417693771295479
37,0.007837871960319615,0.00877441454608208
38,0.008679663864534637,0.007803211861158461
39,0.008245457457076999,0.0063833500017524475
40,0.007750665079701772,0.00997928961679257
41,0.007709761215507877,0.006899769623758714
42,0.008256693271626767,0.007994383500761043
43,0.008870832464783538,0.007045000441660539
44,0.006935910196050996,0.006527013833036951
45,0.007018847874537718,0.007013794750301572
46,0.007601046560817569,0.007512705249531046
47,0.008754702192246557,0.009394421894911856
48,0.0073150241305287795,0.00392336293910913
49,0.006948316635710629,0.008721192592303632
50,0.007133425909282861,0.009454366634875512
51,0.008773749676919419,0.004460599262784835
52,0.007250658820474819,0.010337178129335276
53,0.00824722123416446,0.009191204282148625
54,0.007889971987781325,0.009330731549762607
55,0.006800856337313809,0.006831787791597085
56,0.0074160785876217486,0.008278536361854615
57,0.006153071317527678,0.005212819795826216
58,0.005626426026359837,0.006265913084481608
59,0.007384868551713439,0.00831679714881854
60,0.008450317852605554,0.009387851411207699
61,0.007096127278341217,0.010124905958871675
62,0.006840757290582559,0.006117907952187964
63,0.006452661654673707,0.006089395818086643
64,0.006288790420128806,0.005975990730022457
65,0.007188721737216899,0.0072347033418268085
66,0.007749959682881218,0.009118161121590597
67,0.00747986191942868,0.007948847991085795
68,0.007715542799235581,0.009870232217419589
69,0.007243009122683377,0.006618682070522795
70,0.00709615902045368,0.011689221631991365
71,0.0062781116589427375,0.010077472043318502
72,0.007828560117877824,0.0068959670638240695
73,0.007533152894523415,0.010585860035366775
74,0.007289991540321373,0.006790792215953639
75,0.007807821155988055,0.008351417719265232
76,0.006742361367294501,0.0052467506836832226
77,0.007430904060803193,0.005285535464923308
78,0.006950038463639603,0.008962985345742415
79,0.007423840226887686,0.009298508392166178
80,0.007423186798294862,0.0066435293176144525
81,0.008027424976649544,0.0077756691592486
82,0.006492151830291047,0.004884297917608022
83,0.00714551478962702,0.008683885534418175
84,0.007725587893864788,0.005269333683454153
85,0.007517288901938422,0.008550078695567932
86,0.007045712193018563,0.004873729965869328
87,0.007062744948812734,0.005610648291986715
88,0.0071078773550160654,0.009462423603496592
89,0.0072039165279100675,0.008473291592900336
90,0.0066437109361040135,0.005472608532127355
91,0.006412582377140834,0.00838624345595877
92,0.006112106722038087,0.004855488489831091
93,0.0056686489266804235,0.0051407726355126365
94,0.006961642014648882,0.00893074808232104
95,0.007098615065765687,0.005299584407524015
96,0.005320924912861509,0.012926842452077623
97,0.00677346875801754,0.008413016874763611
98,0.0059858382829159,0.005996249632317435
99,0.0074241388456815546,0.00617627610930998
100,0.006825150103590412,0.005235014296259552
101,0.006214522537019708,0.008184545118458739
102,0.006880510826226619,0.004622456157872572
103,0.00676819508056641,0.0072746922853002185
104,0.007279736530999813,0.00508803078881226
105,0.007297513574800289,0.004459086321176698
106,0.006766262864280823,0.004877276843944425
107,0.007433706164571474,0.0049238820330937405
108,0.007005206644267058,0.010391033352326952
109,0.007115808850657537,0.00609352296194754
110,0.006303449262783741,0.0068622423683593805
111,0.006347018954932964,0.00993168919664038
112,0.007475127043354389,0.004764506974108311
113,0.005312419891227885,0.0034756185747859465
114,0.005989266365363026,0.006709938502819781
115,0.007391790192828125,0.008458315445905537
116,0.006147601891760912,0.003660578521419884
117,0.006541281066135877,0.0057459957449275765
118,0.006465028226878092,0.009619775763326916
119,0.006177305008007807,0.0051548773427982685
120,0.006209160726748967,0.007524416323651243
121,0.006014064697140781,0.005598836103946723
122,0.007272655055928919,0.004179568778416223
123,0.006028323892323817,0.0073732600147499985
124,0.0057803764712247106,0.0033781607822759847
125,0.0068359648260540315,0.00498473364014499
126,0.006500336358310293,0.005430832088078889
127,0.006982653066876987,0.008626081921959967
128,0.007153216735657147,0.007094922087036938
129,0.006782067404091388,0.006737352850175835
130,0.006389421148900893,0.006750025536906159
131,0.006688721763952036,0.004499225336587867
132,0.005991748334161735,0.0056809732824969735
133,0.006207404055555971,0.007521396345549337
134,0.006226016142179253,0.0051738031281286226
135,0.005908951021471827,0.005503296895480429
136,0.006638056440312389,0.008715170793582252
137,0.006212777609815545,0.005783797612953299
138,0.005720969381854593,0.010030327964612321
139,0.006218131994724357,0.006289139242611984
140,0.005861231856208911,0.007060001838743546
141,0.007004334379901751,0.005967162112134267
142,0.00525435404260185,0.007003617514845134
143,0.006238205917477369,0.0052728359977073005
144,0.006053491083396633,0.008353184811967913
145,0.005927819809928495,0.005130099101416949
146,0.006322693651364141,0.003524804072698612
147,0.006408749418768683,0.005097301299415452
148,0.005640791456154037,0.006028163154927783
149,0.006483808771218006,0.008548654740839467
150,0.006827930887628028,0.00578994549194905
151,0.005350694219826711,0.009584661992891576
152,0.006013415937258346,0.006881636066469581
153,0.006484859096493831,0.007656033749559096
154,0.006877685023983903,0.005630475081188785
155,0.005839009892655541,0.00640841495339783
156,0.006055629341959876,0.006545482360299944
157,0.0071171541782215145,0.009222000613867437
158,0.006509243728884077,0.005688578171924568
159,0.005564991617389172,0.005099068282594009
160,0.006143029504396069,0.004801223401109605
161,0.00582198938643329,0.004894053148166016
162,0.005308439495316673,0.004171696392857509
163,0.006448798392118394,0.004670654361789727
164,0.005823978944849089,0.004103468976739938
165,0.006184806853687639,0.007927836937757816
166,0.006493988876911453,0.007498961140496484
167,0.006913663876941986,0.007874325478277459
168,0.005804406169025476,0.006582460785909441
169,0.005159284590727104,0.006072162250284732
170,0.006047025711430485,0.005557997937989734
171,0.0063277188073218365,0.0052394249032515425
172,0.006770933315687948,0.005473085811057355
173,0.005405084241358794,0.007874594151976664
174,0.00541333637020136,0.00471920029450599
175,0.005794794357800149,0.00581897172235958
176,0.005465226796017193,0.005044963182153764
177,0.006530316806376743,0.005672141849691814
178,0.005986211481217524,0.003872732751309613
179,0.00573924806234773,0.00608083256832732
180,0.006012610288885542,0.00784733922837483
181,0.006426088969602133,0.007359279919821466
182,0.005829605814940531,0.004496070000268784
183,0.0061371033743424395,0.0058380807000164596
184,0.006094923507303839,0.004378617377679769
185,0.005703866829538046,0.003677573950884786
186,0.004802101948611188,0.005266735495612814
187,0.005479007792885421,0.00620406404565417
188,0.005899821263295022,0.005301063900171017
189,0.005116619406078907,0.005722192172681429
190,0.006050695461570192,0.00426072047710207
191,0.006964015348689358,0.006314291291662154
192,0.006109016473039532,0.007449309976702378
193,0.006664048324132131,0.005475434895469597
194,0.00544562535699186,0.007267789047096739
195,0.005723140259879343,0.0057286649538849455
196,0.00716571839346508,0.005837366297685239
197,0.006171551293233405,0.004925407769912655
198,0.005893437205895716,0.007327037700617299
199,0.006090744964977195,0.005734042417413857
200,0.004994897361506792,0.0053098488010277925
201,0.00573124161868957,0.006649208344789641
202,0.005689235731325061,0.004215119681493824
203,0.005263052874343019,0.005354629506834069
204,0.005675722769987163,0.00805604101681307
205,0.006434233436047537,0.006004456408621762
206,0.006600221732912733,0.011228903370961583
207,0.00586910109710526,0.004211561458851281
208,0.006182296951074335,0.007604601771674386
209,0.006635449468444804,0.007492275668959403
210,0.005959377470828271,0.005355923768094702
211,0.006412009874412375,0.004390635137720402
212,0.006367848852543617,0.00810008368255672
213,0.005558500175091098,0.0057797118798692156
214,0.005298069085003429,0.006179824341367856
215,0.006065451940201479,0.006407777886490772
216,0.0051546838445526415,0.005648943803243004
217,0.005128240783056385,0.004047246853657061
218,0.005730652595873175,0.007933647584996312
219,0.005808997080105988,0.004986374014172624
220,0.006150912455406686,0.008313253678854823
221,0.005808216515745369,0.007385851584901209
222,0.005630013167963838,0.008345212965274572
223,0.006104817453062357,0.005905342584544971
224,0.005455766122588675,0.004321279595940482
225,0.005950294669436888,0.005447562946405059
226,0.005586952158100278,0.004749664401337093
227,0.005836224200842019,0.004398222334591794
228,0.005227882249506382,0.004819978805128029
229,0.006184918838061785,0.00500667990084617
230,0.006081024916908837,0.007294089857550616
231,0.006794299502175102,0.006255562283428005
232,0.005605986147994647,0.005648989852991223
233,0.005745949787102628,0.00724931274068078
234,0.006266972541416006,0.006037972252242614
235,0.005860259894450619,0.006169374461778996
236,0.005646250889466094,0.007071650159951732
237,0.0063807682934880474,0.006523901808363016
238,0.005675693886889834,0.004392249279985559
239,0.005851176347386995,0.005567509939727956
240,0.005469000568504719,0.006624019360015406
241,0.005524512061917727,0.006862203562272023
242,0.006150904056473935,0.004167655711859794
243,0.006949285050570447,0.0070371893330108915
244,0.0058212168194609675,0.004314580542677109
245,0.005125084670716904,0.00832763993995001
246,0.00530599638736687,0.007211995743297411
247,0.0055879775931102806,0.006698326894244578
248,0.005657542571458939,0.006514086726547205
249,0.005909721492503068,0.004956345091520234
250,0.005846668946386265,0.006978167072467759
251,0.00622713242664555,0.004908049192820583
252,0.005543687262946068,0.005048140043270757
253,0.006193817785786961,0.006275977563751007
254,0.005328720837509889,0.00587479856920788
255,0.005935730676235203,0.005584657152536919
256,0.004971128855299631,0.004136261937260663
257,0.005040770646915745,0.00619563077162619
258,0.005033673642636489,0.005987249467310208
259,0.005367758414644054,0.005070290487074391
260,0.005693705443726133,0.006938264942297972
261,0.006103062063833768,0.00633685067942882
262,0.005498206109474067,0.004990001589841935
263,0.005541953345969897,0.005524541650132085
264,0.005800719980874823,0.0048062128199362905
265,0.005885160969031288,0.007978557122778661
266,0.005698726228386205,0.005140106319784295
267,0.005340592994214706,0.006315427397884247
268,0.005400164192151591,0.00525686892202299
269,0.006363200381298443,0.00623146781694929
270,0.005414660857189342,0.005499585532387035
271,0.005574630125690785,0.007486968836361203
272,0.005848594688546868,0.006815534032478446
273,0.005553915458031558,0.006810440930325447
274,0.005693921126979146,0.004867061794365755
275,0.006482649497206894,0.006202768030169919
276,0.005922119818359084,0.005200748740538849
277,0.006028462110811638,0.006006822481769083
278,0.00439742206577971,0.005114328500615535
279,0.0055319372092565,0.005364187154771897
280,0.0061838227772912525,0.0051173253581016055
281,0.006386213603695269,0.004584396844575418
282,0.004991014223943333,0.004538140225135255
283,0.005284015165860031,0.0051519939181230955
284,0.005573836248107463,0.00682070326124742
285,0.005716907246846804,0.005516015644822543
286,0.005790793322876161,0.006172382660524739
287,0.005158061309413111,0.005277202190094772
288,0.005199396614838454,0.004206077278398371
289,0.005518664181106638,0.005887451896263138
290,0.005362580222789374,0.004580675422536664
291,0.005770993399635541,0.006323647349426007
292,0.00623583327783428,0.005003654922490268
293,0.005458011677645766,0.005634737359073187
294,0.0052564155378696815,0.005775702968401498
295,0.006153156270561881,0.010250657132364392
296,0.005707189041416166,0.00392752009110956
297,0.005496456567160815,0.006708661973808657
298,0.005412879629435835,0.007018988566133528
299,0.005562993634728898,0.003796044671680152
300,0.006056416037713559,0.0069515311968495926
301,0.00537266790541894,0.005157110936228177
302,0.005146652815579106,0.00751581112137498
303,0.005587094983228927,0.0035729734146204535
304,0.005710849633922787,0.005386058709730454
305,0.005733872243898551,0.004269614855405281
306,0.005416870017429526,0.004287115459189983
307,0.00473661635213976,0.005047932740935987
308,0.004777413684961131,0.007956258850076604
309,0.005600312347732317,0.006000625410638367
310,0.005230728655027674,0.005732099782901904
311,0.005833391340164323,0.005543039500090017
312,0.005820847916800966,0.004632981222463976
313,0.0052250196596497385,0.003775364565887233
314,0.0053005342540754785,0.006301883926016779
315,0.005127733847186666,0.003920838229825695
316,0.0052739008645088575,0.006198288901872939
317,0.006477737894112752,0.005346049781412404
318,0.005366313804259642,0.0044875983942679375
319,0.0055075228515026765,0.0050687361552711535
320,0.004957698015805086,0.003354879112321745
321,0.0058413126207568005,0.005459229526534124
322,0.0052969842264391515,0.005463622704121831
323,0.004942807538485487,0.00414576642612185
324,0.005403560151600634,0.006233175239954276
325,0.005023926858500623,0.0067027919644955915
326,0.005101585860563655,0.006660740019499244
327,0.005759994269625621,0.0045099626372449965
328,0.0057571139377389224,0.0065941065263176585
329,0.005571505390956319,0.004142778674022963
330,0.004870396331146205,0.0031176042359325248
331,0.005385975543536889,0.003556072455959508
332,0.005036929034167152,0.007383028478247732
333,0.005461004862880452,0.005300010167482738
334,0.0052317891548723456,0.005265962742651271
335,0.005690556247164007,0.004445988156383632
336,0.005614490354069614,0.005600661876954685
337,0.00550465631115583,0.004404362466777274
338,0.005856193140983659,0.004244557546007711
339,0.005108404205739796,0.003790327341383251
340,0.00519611724621827,0.0040333638625217995
341,0.0053135340817073145,0.004059508499845968
342,0.00472968526379608,0.0056286248493860255
343,0.00550308385515864,0.00442767753864873
344,0.005821242214751532,0.005843405276625149
345,0.005589132953668199,0.003516466499415786
346,0.0052200037907685435,0.005571527615698214
347,0.005099169342022249,0.006038010648533337
348,0.005268800955769762,0.005316323100867804
349,0.005575899049069443,0.003959702256730307
350,0.00553786603817277,0.0035859581061742536
351,0.005661207284658498,0.007309289554306015
352,0.0060020892168592506,0.0076026474776212495
353,0.005459606332304649,0.006244166211343437
354,0.005284944198561087,0.0033095260753480816
355,0.00484655042568655,0.0039491554387369515
356,0.004657551012322795,0.005542760035691999
357,0.0050886556797241755,0.005429972819881051
358,0.005258648291335916,0.007321138281872071
359,0.0052323889712781475,0.005069727389746138
360,0.005583602484862069,0.006578936641072911
361,0.00517441122373901,0.002986395288510182
362,0.005325661192992054,0.005856776876476517
363,0.005264699514352268,0.006819946922938139
364,0.00569866320293629,0.0053447293710836815
365,0.005324186351009571,0.007113367571968118
366,0.005217857090372899,0.006421955538312328
367,0.005724355258675907,0.005551483877217831
368,0.005126522304743326,0.006735454452383584
369,0.005395312375816361,0.0051115591460493435
370,0.005327525663004963,0.007141889554787289
371,0.00538753599098189,0.006176631764274299
372,0.005593922818626771,0.004761621734934499
373,0.004386679030680131,0.0071908728654724976
374,0.005070996558130663,0.004828268473551865
375,0.0047544771924519615,0.004301993374807588
376,0.005565670932245572,0.0039827825667685
377,0.005142622693202836,0.005838248248034889
378,0.005398726315058167,0.007402638191005896
379,0.005090297610915119,0.008351993853639408
380,0.005317355275059567,0.005620918474465185
381,0.005259907692574042,0.004530760428729307
382,0.005007937229402232,0.004911434430931861
383,0.005539262771802239,0.006308092352005799
384,0.005382690844658336,0.005808859097314874
385,0.005245626124059804,0.00393916273893143
386,0.0048797059792848076,0.0044053545748725265
387,0.005050385241221032,0.005721450623436504
388,0.00516856715113273,0.004609775923166039
389,0.005139539779765423,0.005806425508058791
390,0.004295211355704412,0.0038570713581871636
391,0.0050428180952930895,0.004134683555540436
392,0.004593690119994183,0.004636808707957298
393,0.00546720688031029,0.0055576854660348484
394,0.0054216972622219365,0.004313065829938946
395,0.005200361430315192,0.0036779898983274233
396,0.004533360190920347,0.003272801259093004
397,0.00431692270974485,0.003590863247291018
398,0.004796108652221159,0.004177377995503471
399,0.005052657696499611,0.004202724167975673
400,0.005385071907615323,0.005605636297592095
401,0.00599448045603648,0.0035173912977707156
402,0.00506276949515401,0.005068756772635979
403,0.004843268903150267,0.004210647598023643
404,0.005391623297941497,0.005693347452042276
405,0.004739872544805119,0.00412190361951802
406,0.005278792542343636,0.0057693696801345605
407,0.00500281736320577,0.004290577021281175
408,0.0047566807239043185,0.004481618063658146
409,0.005136778688807931,0.006756658897747674
410,0.004951327061690063,0.004956406994333936
411,0.005020909313708812,0.0060638544567211605
412,0.005623734248024102,0.0031519030776145356
413,0.005428951235393511,0.004726547019772273
414,0.004030332132856801,0.0047242566333067825
415,0.0054166240679609364,0.005811321389241749
416,0.005588458077483279,0.004800815018733351
417,0.004977013967703465,0.004423954660453685
418,0.005090936992710514,0.005459800708433282
419,0.004604443808724221,0.005489260379457295
420,0.0045341472674665945,0.004965484720429122
421,0.004928880554942532,0.004570676804753204
422,0.004857385685357699,0.0037542268308210346
423,0.0044506208916797,0.0062335938418867694
424,0.005065875370978571,0.003986117775693842
425,0.005295604268899657,0.0071325017493615115
426,0.005464024409066609,0.0060186372877296355
427,0.005245993489776995,0.00538739066052044
428,0.004957851137408315,0.004153373341010656
429,0.004607339659024575,0.005475610106133789
430,0.004853864113590289,0.00418604690075838
431,0.004897677935648719,0.004194223796088769
432,0.005203341855928093,0.004679383384762148
433,0.004788530908404387,0.004498547801620017
434,0.004827948026288357,0.00404170545805966
435,0.004837756985139629,0.004786270418099254
436,0.005020637527669517,0.0040160954412405145
437,0.005201258219322182,0.005317082497031791
438,0.004864739452050976,0.0036550378904699242
439,0.005166500141631237,0.004264958660782042
440,0.004398444082497133,0.007117226472140629
441,0.004910258341582118,0.0032055808371631244
442,0.0054363481734665655,0.004412898936418445
443,0.005227856725144634,0.005278404512469846
444,0.005172699891242216,0.0030000572805472994
445,0.0044614573852043695,0.0038081120121518435
446,0.004432012062172869,0.004063218794160338
447,0.004520405314398928,0.003396138323003451
448,0.005550698109743871,0.008073846686443266
449,0.005361302331150275,0.0054993432176158995
450,0.004980202754129389,0.004251935547026611
451,0.005197040145665103,0.0044589434712154945
452,0.00530113597649137,0.00438061845580729
453,0.004786944822694877,0.0037878978570765904
454,0.004221433402056978,0.00492900281838761
455,0.004981546963696821,0.006061983252886533
456,0.004939568049045835,0.0068996633456662685
457,0.0050550910143954434,0.003443728906382537
458,0.004802521740121367,0.006034675887811579
459,0.004539540133269267,0.003200209703430204
460,0.004856810156482277,0.004025827384691306
461,0.004561087742878152,0.006740461635802474
462,0.00466178840952743,0.004639450939564768
463,0.004943832801524654,0.005629891933595443
464,0.004382802466069051,0.003813289608122765
465,0.004704435765043461,0.008729899122034977
466,0.00524619557812131,0.006821661686999598
467,0.0052134381452885025,0.0036517453097665554
468,0.004668297133870798,0.006321815967533353
469,0.005089113949522596,0.004506379225524326
470,0.004735495857738084,0.005629415692939425
471,0.003934787068743822,0.00353593972637285
472,0.004768177802446667,0.00346302124671638
473,0.00573489519826648,0.004858042631333587
474,0.004558622009410478,0.004412010716731589
475,0.005199979111510549,0.004753269562049348
476,0.005017800737532685,0.004530764735453037
477,0.005207831869728202,0.004266963616725066
478,0.0051265714483873116,0.004141825750755365
479,0.005161597102740519,0.005452375298905485
480,0.005267585931661473,0.007250258107702729
481,0.005221973872463629,0.0051755832791940005
482,0.005143852470417341,0.006072865212123015
483,0.005093606403670747,0.004472006462226256
484,0.004629463984740438,0.0039180992761054965
485,0.004703520098701119,0.00449009894172131
486,0.004710332114178,0.00451093005867647
487,0.004902763015346425,0.005933930692737062
488,0.0052333071525078375,0.005989496581456326
489,0.005338358785882652,0.003707899392825781
490,0.0048678546319816185,0.0059323630794800445
491,0.004429143879355656,0.002999005855399977
492,0.004755506044358676,0.007036706241584238
493,0.005191073960644736,0.004250813220813577
494,0.004676809245206827,0.005952215842805632
495,0.005144594912901134,0.005303977561589763
496,0.005298949831215997,0.004486183739901647
497,0.004815341860650004,0.003985746976446828
498,0.004686347734693774,0.0035907225584098225
499,0.004444158408321071,0.0035468687649945646
500,0.005038439614257569,0.004061542813399338
