epoch,loss,val_loss
0,0.11102063155174255,0.0490575285628438
1,0.04878817820549011,0.048297413632273675
2,0.0487771849706769,0.048754549778997895
3,0.04864399790763855,0.048196904331445696
4,0.04868480305746198,0.04837988813966513
5,0.048574607994407416,0.04819783886522055
6,0.04856549033150077,0.048343425437808035
7,0.04848641080036759,0.04850142939388752
8,0.04851630821451545,0.048348832204937936
9,0.04851272339746356,0.04890836146473885
10,0.048451873112469915,0.048067075051367286
11,0.0484706361182034,0.04814078123122454
12,0.04840028774365783,0.04851143762469292
13,0.048426729768514636,0.048430995158851145
14,0.04839349550381303,0.04828410292416811
15,0.048379037298262116,0.048264220140874385
16,0.048346304289996624,0.04801747396588325
17,0.04838085348904133,0.04803394938260317
18,0.048325523711740974,0.04827984371036291
19,0.04835348926857114,0.047893287278711796
20,0.048301310401409864,0.04813260072469711
21,0.048289926014840605,0.05076596617698669
22,0.048295915596187115,0.04827495110780001
23,0.048282808560878035,0.04805756466090679
24,0.04823766941949725,0.04835187495499849
25,0.0482777644880116,0.047969680577516556
26,0.048249433279037475,0.04813065566122532
27,0.04825153961777687,0.04829983480274677
28,0.048198578752577305,0.04861257536709308
29,0.0482115397490561,0.04798367896676064
30,0.04825788887962699,0.04807324495911598
31,0.04819082750752568,0.04816615097224712
32,0.04819103674218059,0.04812564866989851
33,0.04817538986727595,0.047849141106009484
34,0.0481869954764843,0.047988258369266984
35,0.04819358162581921,0.047918178617954256
36,0.04815182135999203,0.048228872455656525
37,0.048141198258846996,0.04807151912897825
38,0.04819043313339352,0.047881189092993735
39,0.04816383533924818,0.04795273457467556
40,0.04813539480045438,0.04869482415169477
41,0.048118243604898456,0.047755703419446946
42,0.048132910147309305,0.04846506415307522
43,0.04813961242884397,0.04808538991212845
44,0.04813645119220018,0.04825368127971887
45,0.04812294515967369,0.04797375989705324
46,0.048100298285484316,0.048234687924385074
47,0.04814119416847825,0.04775408361852169
48,0.04813162708655,0.04998032025247812
49,0.048113529346883295,0.04797036688029766
50,0.04812914554402232,0.04795670522004366
51,0.04812278389558196,0.04872175744920969
52,0.0481113269329071,0.04791040106862783
53,0.0481227956674993,0.048341421239078045
54,0.04808535207808018,0.04823186611384153
55,0.04806454337388277,0.047850936077535156
56,0.04810106338188052,0.047979058489203454
57,0.04809283896908164,0.047861603990197184
58,0.0481220259219408,0.04811879585683346
59,0.04805728065595031,0.047813823230564594
60,0.04807299505546689,0.04799529753625393
61,0.04806431048363447,0.047962018810212614
62,0.04809212284162641,0.04792339999228716
63,0.048065846271812915,0.04809987497329712
64,0.048080953136086464,0.04787748192995787
65,0.04810272435098886,0.047980714455246924
66,0.048076609943062065,0.04831864372640848
67,0.048083451807498935,0.04804297450184822
68,0.04807342273369432,0.047738331340253355
69,0.04805676580965519,0.04774903795868159
70,0.04808672097697854,0.04787237267196178
71,0.04802027723565698,0.04807761141657829
72,0.04807090413570404,0.04826567281037569
73,0.04807271292805672,0.04780673947185278
74,0.04804852529242635,0.047910933703184125
75,0.048071810495108364,0.04777320419251919
76,0.04804346261546016,0.04772784149646759
77,0.04808846169710159,0.047965189084410664
78,0.04804848033934832,0.04794232165068388
79,0.0480669915676117,0.04805367935448885
80,0.0480632937848568,0.04802858235687017
81,0.04804477147758007,0.048041593067348
82,0.0480547315068543,0.04794756960868835
83,0.04805139882862568,0.047721470765769484
84,0.04804951133951545,0.04828321896493435
85,0.048055512014776466,0.047803851589560506
86,0.048071846194565296,0.04782920851558447
87,0.048071823868900534,0.048566987887024876
88,0.04805696415156126,0.04778381955623627
89,0.04805356293544173,0.047897650599479674
90,0.04804757034406066,0.047837689980864524
91,0.04803809553384781,0.048345132365822795
92,0.048057187005877494,0.04791523916274309
93,0.04804257316887379,0.04796658705174923
94,0.048047235000878576,0.047886501781642436
95,0.0480253887064755,0.04803072542697191
96,0.04807382196187973,0.04779207465797663
97,0.0480338771417737,0.04777178797125816
98,0.04806702480092645,0.04818006892502308
99,0.04802578489109874,0.047737360902130606
100,0.0480315138399601,0.04777109261602163
101,0.04803783794119954,0.04824479551613331
102,0.04805754179880023,0.04782707060873508
103,0.04802864904329181,0.047813757479190824
104,0.0480735131688416,0.048265288732945916
105,0.04805175755545497,0.04797353785485029
106,0.04802793440595269,0.04770786589384079
107,0.04804174656420946,0.047899928905069826
108,0.04803280605375767,0.04823264219611883
109,0.04804478945210576,0.04794504825770855
110,0.048027679350227115,0.04798457451164723
111,0.048047253645956516,0.04821554681658745
112,0.048012792568653824,0.04792259842902422
113,0.048080837797373537,0.04773494616150856
114,0.048003481447696686,0.04781356760859489
115,0.0480544882081449,0.0482676288112998
116,0.048023173686116936,0.04810436922311783
117,0.04804286048188806,0.04807294938713312
118,0.04802148517593741,0.04793882405012846
119,0.04803194496780634,0.04806010989099741
120,0.04801509945839644,0.04832956254482269
121,0.048053492221981284,0.047972567424178124
122,0.04804144129529595,0.04810279428958893
123,0.04805109069123864,0.0479998541623354
124,0.04804975144937634,0.04774903925508261
125,0.047997653804719445,0.04809459476172924
126,0.04801913074031472,0.04787583167105913
127,0.048029733877629044,0.04836958458274603
128,0.04802413791418075,0.04783647231757641
129,0.04802986823767424,0.04788347014039755
130,0.04804261228814721,0.04806799773871899
131,0.048027040489017965,0.047908393949270246
132,0.04802922745421529,0.048860329255461694
133,0.04803866305202246,0.04799910988658666
134,0.0480115543268621,0.04778235480189323
135,0.0480269691683352,0.04824103333801031
136,0.04802757139131427,0.04778728538006544
137,0.048030058313161136,0.04808617040514946
138,0.04803599391877651,0.047866993941366676
139,0.048036773711442944,0.048003879591822625
140,0.04805653495341539,0.04789845472574234
141,0.04800881358608604,0.047826385125517845
142,0.0480229289829731,0.0477220628336072
143,0.04800764639303088,0.0477920043990016
144,0.04805017537251115,0.048523906625807287
145,0.048034178007394075,0.04770165687054396
146,0.04800110811367631,0.047869696341454986
147,0.04802944395691156,0.048118141494691374
148,0.04801901273429394,0.04780980096757412
149,0.04802086795121431,0.04772603962570429
150,0.04801976186037064,0.04792425878345966
151,0.04804092865437269,0.04781314157694578
152,0.04801188441738486,0.04810291334241629
153,0.04800836607441306,0.04793790645152331
154,0.04802027390152216,0.04784475425630808
155,0.048057590279728175,0.04805838844180107
156,0.04800494246557355,0.04782565747201443
157,0.04800691056624055,0.04788403913378716
158,0.048036359544843435,0.04808037409186363
159,0.04798528189212084,0.04789442426711321
160,0.048030034758150576,0.04795208672434092
161,0.048014220930635926,0.04799430799484253
162,0.04798912799358368,0.04782807119935751
163,0.04802279637753964,0.04770960313826799
164,0.048014711070805786,0.04780820193886757
165,0.04800428179651499,0.048436033807694914
166,0.04800717107579112,0.04772261294722557
167,0.04802336136624217,0.04782803935557604
168,0.04800486164912581,0.04819332399964332
169,0.04800794556364417,0.047912422925233844
170,0.04799929554015398,0.04781830750405788
171,0.04801595849916339,0.04880544912815094
172,0.04801695503294468,0.04789040382951498
173,0.04801742876321077,0.048687844321131706
174,0.04800453471392393,0.04789088241755962
175,0.048005747888237235,0.04776554771512747
176,0.04799896152317524,0.04772498616576195
177,0.048027961675077675,0.04769684855639934
178,0.047991412416100505,0.04808142700791359
179,0.04802045254409313,0.047725579403340816
180,0.04800646067783237,0.048360519878566266
181,0.04797995962947607,0.047859343767166135
182,0.047997301496565344,0.048173289611935614
183,0.04799126966297627,0.047931745909154416
184,0.0480116970539093,0.048751064904034136
185,0.04801508571207523,0.04817864754796028
186,0.04798132098093629,0.04789569414407015
187,0.04800653855130076,0.04792289770394564
188,0.048012951537966725,0.04793032128363848
189,0.04799360116571188,0.047898176677525044
190,0.04802664361894131,0.047799216940999034
191,0.04796958312392235,0.04781186379492283
192,0.048014097306877376,0.04770229884237051
193,0.048008284520357845,0.048051038041710854
194,0.047977787747979166,0.047835260100662705
195,0.04799361051619053,0.04775568602234125
196,0.04799143999069929,0.048079367473721504
197,0.04798662535473704,0.04857038661837578
198,0.04799032865464687,0.04771382603049278
199,0.048020397529006005,0.04781013461202383
200,0.047966806840151546,0.04818857736885548
201,0.04801231372728944,0.04782102651894093
202,0.048008396454155444,0.04784238278120756
203,0.04800191855803132,0.04779810604453087
204,0.04802637085318565,0.048207768395543096
205,0.04797388001158834,0.04783556887507439
206,0.04797801627591252,0.047871408976614474
207,0.04801261855661869,0.04782958909869194
208,0.0479968436434865,0.04811017446964979
209,0.047977563362568615,0.047838657446205614
210,0.048022504463791846,0.04786819019913673
211,0.04798570693284273,0.0478641155064106
212,0.04797417576238513,0.04795265017449856
213,0.04801587830111385,0.04783273714780807
214,0.048026604976505044,0.048059982441365716
215,0.04797426091134548,0.04795466966181994
216,0.04799706023186445,0.048139569863677026
217,0.047987678594887256,0.04833259937912226
218,0.04800446473062039,0.047779904395341875
219,0.047984426755458116,0.0486161360219121
220,0.04799599199742079,0.04767636799812317
221,0.04800097998231649,0.047841839849948886
222,0.04798471361398697,0.047842874705791474
223,0.0480391294285655,0.04783781454712153
224,0.04798453905433416,0.04776707268506288
225,0.04798606254532933,0.04794756955653429
226,0.04797660972550511,0.04812495999783278
227,0.04799584644287825,0.04787416213005781
228,0.04798691754043102,0.04774199165403843
229,0.04798503284901381,0.04779866891354322
230,0.04797873075306416,0.047724946759641174
231,0.048049440171569584,0.04800440243631601
232,0.047975203216075894,0.047762660205364224
233,0.04798009476065636,0.04783160981535912
234,0.04799767714366317,0.04795493377745152
235,0.048022368509322406,0.047811965934932234
236,0.0479599831327796,0.047707618430256844
237,0.04798569966480136,0.04811992920190096
238,0.047988759573549034,0.04786662383377552
239,0.04796320709213615,0.04799117986857891
240,0.04796608665958047,0.047769470803439615
241,0.047990697044879196,0.048225130416452884
242,0.047987125515937805,0.04813127740472555
243,0.04801071037352085,0.047718200720846655
244,0.04797375975176692,0.04775371728092432
245,0.04799712291359901,0.047779049679636955
246,0.047958053331822154,0.04787521582096815
247,0.04799339114129543,0.048039763629436495
248,0.04798684383928776,0.047878410167992116
249,0.047974084619432686,0.047796789154410366
250,0.04797109144181013,0.047971136346459387
251,0.04800863343477249,0.047789286211133
252,0.04797271916642785,0.047785645477473736
253,0.04796292220428586,0.04781222192198038
254,0.047947457686066626,0.047747956708073615
255,0.047978736218065025,0.04795345130562782
256,0.04799864857643843,0.04803432849794626
257,0.047981631729751825,0.048848624482750895
258,0.04798846311122179,0.04805444479733705
259,0.04798490937799215,0.04791619511693716
260,0.04794869689643383,0.047869271628558634
261,0.04798004405200482,0.04776540376245975
262,0.0480051002278924,0.04771089545637369
263,0.04795627560466528,0.04933654235303402
264,0.04798074168339372,0.0476864882260561
265,0.048000985778868195,0.04783459530025721
266,0.047955274913460015,0.047690623722970484
267,0.04799495186656713,0.0478299545198679
268,0.04799657065793872,0.04856998598575592
269,0.04795481519773603,0.0481791674643755
270,0.04799408868327737,0.0478852607011795
271,0.04798017505556345,0.04800148425251245
272,0.04797011366114021,0.04789954276382923
273,0.04799280371144414,0.04783509444445372
274,0.0479733799174428,0.04884608445316553
275,0.0479704311825335,0.04813685486465692
276,0.04798517837002873,0.047886381842195985
277,0.04794411974772811,0.047948955409228805
278,0.04797780945152044,0.04793840945512056
279,0.04797229374200106,0.04777469059824944
280,0.04797683000192046,0.047899005249142645
281,0.04802031680569053,0.04774134124070406
282,0.04795046506077051,0.04782591151446104
283,0.047981530379503964,0.04812544741481543
284,0.047970430366694926,0.04785701654851437
285,0.04799189955741167,0.047986287117004395
286,0.04798084506765008,0.04771519096195698
287,0.04795207307487726,0.04773123729974031
288,0.04798032659292221,0.047817337445914744
289,0.047988406732678415,0.04773199814558029
290,0.04795266442373395,0.04777383893728256
291,0.047972127482295034,0.04775606871396303
292,0.047977494485676286,0.04771409825235605
293,0.04799126341193914,0.047741930931806564
294,0.04797428147494793,0.047737284041941164
295,0.04798428384959698,0.04777230437844992
296,0.04799014450237155,0.0478403248116374
297,0.04797597685828805,0.04786438761651516
298,0.047968616597354415,0.04775719279795885
299,0.047965114362537864,0.04816990142315626
300,0.04796486163884401,0.047739502787590024
301,0.047961248975247145,0.047898675419390205
302,0.048016329444944855,0.048374672316014763
303,0.04796737694367766,0.047676258243620394
304,0.047974259778857234,0.04786143620312214
305,0.04797937712445855,0.04774937603622675
306,0.047956266343593595,0.047993602611124515
307,0.04799766993150115,0.04806681455671787
308,0.047968221388757226,0.04768463998287916
309,0.04799430602043867,0.04780299753695726
310,0.04795852626115084,0.04796684415638447
311,0.04802568617835641,0.047859875954687596
312,0.047974898386746644,0.04788203430920839
313,0.0479445666782558,0.047755993418395516
314,0.04798639889806509,0.04770954750478268
315,0.047948586724698546,0.04824519282579422
316,0.04800411292165518,0.047971562534570696
317,0.04796340123191476,0.04777703531831503
318,0.0479710634984076,0.04782507934421301
319,0.04797475890815258,0.04834245096892118
320,0.047966702200472354,0.04801667090505361
321,0.047951987765729426,0.04824437978118658
322,0.04800151969119906,0.04774349113553762
323,0.04797909216582775,0.04781236492097378
324,0.04796631219238043,0.04780550658702851
325,0.04796551560983062,0.047753162272274496
326,0.048012284729629755,0.04868313226848841
327,0.04794209797307849,0.0481850925385952
328,0.047961936466395856,0.04790670285373926
329,0.04798675924167037,0.04778840814530849
330,0.04797270340099931,0.047812453918159005
331,0.04797337906435132,0.04780012191832066
332,0.047975238002836706,0.04772245854139328
333,0.047970452275127175,0.0477403753772378
334,0.0479785597063601,0.04789658008515835
335,0.048002274390310046,0.0482585145458579
336,0.047975817941129206,0.047833380930125714
337,0.04798466182127595,0.0477869116589427
338,0.047975733812898394,0.047797829009592535
339,0.0479892953671515,0.047979877576231955
340,0.04795273849368095,0.04824659588932991
341,0.04798206690698862,0.04780580998212099
342,0.04796339189261198,0.048157954610884186
343,0.04797192241623998,0.047729156710207464
344,0.047955090750008825,0.04772213920950889
345,0.04797151424363256,0.04815293043106794
346,0.047980535540729764,0.04790562243014574
347,0.04797416550666094,0.04893427411466837
348,0.047956248957663775,0.04779750044643879
349,0.04796581621468067,0.04832140320539474
350,0.047977573949843644,0.047998798713088035
351,0.047967893101274965,0.047778767578303814
352,0.04798093015700579,0.04793305253982544
353,0.047979576602578164,0.04790991233289242
354,0.047963273212313653,0.047785713002085686
355,0.04797583495080471,0.048196306332945825
356,0.04795864601433277,0.04791030161082745
357,0.04800482413172722,0.047767351739108566
358,0.0479586394354701,0.047935369588434695
359,0.04797523735463619,0.04783857398480177
360,0.04798225127905607,0.04779181218892336
361,0.04795550111308694,0.048066899441182614
362,0.047960289280861615,0.04802993162721395
363,0.04799696710333228,0.047835229448974136
364,0.0479626742489636,0.04785259521007538
365,0.04794850055128336,0.048482615411281585
366,0.04797069665044546,0.04768975396454334
367,0.047973912816494706,0.047834595561027524
368,0.04797374162077904,0.04780623237043619
369,0.047995947137475015,0.0479424064680934
370,0.04799104513600469,0.048079597130417824
371,0.04795282507315278,0.04765601199120283
372,0.047964177399873735,0.04775518250465393
373,0.04795375685766339,0.047770451813936236
374,0.04797829628363252,0.04801998084038496
375,0.04795034496858716,0.047758008368313315
376,0.047990840144455434,0.04784270180761814
377,0.047992849942296745,0.0477849617600441
378,0.04796777153760195,0.04768369096517563
379,0.047970959194004535,0.04785775518417358
380,0.047958113908767704,0.0480345975831151
381,0.047983947329223155,0.0477963729724288
382,0.04795829720422626,0.047792096085846426
383,0.047965809941291807,0.04824173053354025
384,0.04799070638045669,0.048082496784627435
385,0.04795754562318325,0.04767948719114065
386,0.047994422897696495,0.047796267814934255
387,0.047966132655739784,0.0477768782004714
388,0.04796934052556753,0.04832970765978098
389,0.04796105245500803,0.047810589231550696
390,0.04797831807658076,0.04811637566238642
391,0.04796803898364305,0.047811941273510454
392,0.047971533231437206,0.04776654628664255
393,0.047983429573476316,0.04780613572150469
394,0.04794060038402677,0.04779825726896524
395,0.047958513099700215,0.047754795819520954
396,0.04798241909220815,0.047865033142268656
397,0.047950933836400506,0.04782735668122769
398,0.047982890274375675,0.048098627112805846
399,0.047985038433223964,0.047720862530171874
400,0.047950962990522386,0.047771415643393995
401,0.04797142948955298,0.04782926741987467
402,0.047971845988184214,0.047901874430477616
403,0.04795159412920475,0.04791260774433613
404,0.047983218215405944,0.04771873091906309
405,0.04795246396958828,0.0478303656578064
406,0.04796276672929525,0.047698470890522
407,0.047966619722545144,0.0477634604498744
408,0.047984290320426226,0.04785933572053909
409,0.047945098046213386,0.047758757367730144
410,0.048006767045706514,0.047784964591264724
411,0.047960207253694535,0.047752556584775445
412,0.047987684693187475,0.047741775378584865
413,0.047969434730708596,0.04778034286946058
414,0.047962292566895486,0.04785718832165003
415,0.04795796050131321,0.048211482927203175
416,0.0479765077419579,0.047936186142265795
417,0.0479621690697968,0.04794677698612213
418,0.04798543672263622,0.04774190627038479
419,0.04797276072576642,0.04792916993796825
420,0.04798884585499764,0.04816757842898369
421,0.04794827119261026,0.047835626870393756
422,0.04797452782094479,0.048489919878542426
423,0.04797047855332494,0.047659010745584963
424,0.047950258586555716,0.048158513315021995
425,0.04796422650665045,0.04785144971311092
426,0.04795376876369119,0.0477656069919467
427,0.04797091307118535,0.0477135788872838
428,0.047977175805717705,0.04770508744567633
429,0.04800580139085651,0.04787093049287796
430,0.04795557538792491,0.047857572518289086
431,0.047971408393234015,0.04794630789756775
432,0.047960244994610546,0.04932864567637443
433,0.047992592431604864,0.047753496296703814
434,0.04795505250617862,0.04775467122346163
435,0.047975977197289466,0.047699550561606886
436,0.04798237869516015,0.0479292738288641
437,0.047933759678155184,0.04772800009697676
438,0.04796727059409022,0.0481290639936924
439,0.04797486634552479,0.0478184210434556
440,0.04796933993697167,0.04841314685344696
441,0.04799348611012101,0.048593563862144945
442,0.047972656168043616,0.04788051001727581
443,0.04798306046053767,0.04785668387264013
444,0.04797376119345426,0.04872705370932817
445,0.04797167606279254,0.04774856344610453
446,0.04795537943765521,0.0502479669675231
447,0.04797759810090065,0.047888843931257724
448,0.04795618174225092,0.04792238473147154
449,0.047970587249845265,0.048580972827970983
450,0.047965530551970004,0.047891483210027216
451,0.04795833110809326,0.04881777974963188
452,0.04796359857171774,0.04782146093994379
453,0.047996606107801196,0.04769180930405855
454,0.04793791195750236,0.04784743052721024
455,0.047990271676331756,0.04773376467823982
456,0.04795047065988183,0.04795441155135632
457,0.04793376586958766,0.04783492697775364
458,0.04798370844870806,0.047717612586915495
459,0.047939506262540815,0.04768697490543127
460,0.047964722629636525,0.04780429252237082
461,0.04797238611057401,0.04795541740208864
462,0.048010216493159535,0.04780689869821072
463,0.04797618500143289,0.04810216822475195
464,0.047970149848610165,0.04866394703090191
465,0.0479544092528522,0.04791354372352362
466,0.047946777574718,0.048040140844881535
467,0.047975111071020364,0.04794568512588739
468,0.0479696687720716,0.04779816944152117
469,0.047945284839719535,0.04871198821812868
470,0.0479697034470737,0.048104149132967
471,0.04796658371388912,0.04871697790920734
472,0.0479600385017693,0.04898845198750496
473,0.04799661684408784,0.047720838852226735
474,0.04795756006240845,0.047722216323018075
475,0.04797115806862712,0.047839236192405224
476,0.04796987999230623,0.047824322417378426
477,0.047967806462198496,0.04765560914576054
478,0.04797069977968931,0.04794500070810318
479,0.04796500405669212,0.047876447975635526
480,0.047963367164134976,0.047831449434161184
481,0.04794572845473886,0.047900996923446654
482,0.04798032697662711,0.047818410657346246
483,0.047992072872817516,0.04775662556290627
484,0.04797766813263297,0.04769217230379581
485,0.04795315927267075,0.04781728005409241
486,0.0479588445648551,0.04786617206037044
487,0.047961074009537696,0.047722009234130384
488,0.0480017579048872,0.048136792324483396
489,0.04794957706332207,0.04776634482294321
490,0.04795100135356188,0.04793161097168922
491,0.04796469052508474,0.04800481066852808
492,0.04796832850947976,0.04923251673579216
493,0.047971594206988814,0.04779766447097063
494,0.0479516482129693,0.04767285604774952
495,0.047962174374610186,0.04766115918755531
496,0.04796663077548146,0.047729290522634985
497,0.047959903337061405,0.04782456225901842
498,0.047969922050833703,0.04775065636634827
499,0.047970440603792665,0.048028448365628716
500,0.04797897205874324,0.048329191341996196
501,0.047951051689684394,0.048175363704562185
502,0.047967500146478416,0.047860249258577826
503,0.047949479900300504,0.04766509683430195
504,0.04797772590443492,0.04789328619092703
505,0.047953379776328804,0.047766009889543055
506,0.047979900427162644,0.04874768015742302
507,0.04794888198003173,0.04795396276563406
508,0.047984905730932954,0.04777941758930683
509,0.04795386815816164,0.047816052697598935
510,0.04799142221733928,0.04806955550611019
511,0.04795238703116775,0.04778072544932365
512,0.047965793538838626,0.04790786830335855
513,0.047957432962954044,0.04791269160807133
514,0.04794648116827011,0.0478222284168005
515,0.04796608368307352,0.04773808823525905
516,0.04797537368535996,0.04827022750675678
517,0.047970508478581905,0.0477299962118268
518,0.047962243180722,0.04786201187968254
519,0.047946597125381234,0.04798256617039442
520,0.04795090398937464,0.04793948490917683
521,0.04795677590370178,0.04792536076158285
522,0.04794923569262028,0.04841669146716595
523,0.047982616044580935,0.04779661519825459
524,0.04797559643164277,0.048030857250094414
525,0.047978975363075736,0.04788854133337736
526,0.047959161326289176,0.047753255136311054
527,0.047967061031609776,0.047722500436007974
528,0.047953128147870304,0.04770191642642021
529,0.04795589385554194,0.04800608792155981
530,0.04795338724181056,0.04783337314426899
531,0.0479894336052239,0.04794836039841175
532,0.04794225843250752,0.048089280292391776
533,0.04798360938206315,0.04786285304278135
534,0.047941504050046206,0.0478041313290596
535,0.04797237246856093,0.047853156618773936
536,0.04796297476813197,0.04769205814599991
537,0.04796634886786342,0.04805308774858713
538,0.047954220198094845,0.048042267695069314
539,0.04798350854963064,0.048011859081685544
540,0.047951462887227535,0.048052346281707285
541,0.047968910429626706,0.04780089524388313
542,0.04795660901069641,0.047906896859407425
543,0.047930812519043686,0.048050841577351094
544,0.04797409850731492,0.04883012495189905
545,0.04796870502084494,0.04807342264801264
546,0.04796202198788524,0.047875398121774194
547,0.04794433223828674,0.04777690687030554
548,0.047978711396455764,0.04821302855759859
549,0.04793526807054877,0.047908612705767156
550,0.04796978778392076,0.04775062371045351
551,0.04794686957448721,0.047902693398296836
552,0.047940974239259956,0.04784128849208355
553,0.04798373431712389,0.04815570641309023
554,0.04793508617207408,0.048801060579717156
555,0.04795779437571764,0.04777381210029125
556,0.04796680787950754,0.04783526733517647
557,0.04797314766794443,0.047711108401417734
558,0.04795030808076262,0.04778862491250038
559,0.047993370432406667,0.04793806225806475
560,0.04798359778895974,0.04797466541826725
561,0.047965418308973315,0.04820255393534899
562,0.047943972039967774,0.04814784372597933
563,0.047974766422063116,0.04773309882730246
564,0.04796604949980974,0.04773579895496369
565,0.04796846297383309,0.047839307703077795
566,0.04796484878286719,0.047853471390903
567,0.04794272981584072,0.04840253265947104
568,0.047968566581606864,0.04780757363885641
569,0.047939021442085505,0.04783674255013466
570,0.047965658012777565,0.04778466356545687
571,0.047959449999034405,0.04772645890712738
572,0.04796314876899123,0.047924276210367676
573,0.04797553481906652,0.04775763355940581
574,0.04795640637353062,0.04778696615248919
575,0.04794201013445854,0.048159918092191216
576,0.04792673616111279,0.04774850967526436
577,0.04797714924067259,0.047849915400147436
