epoch,loss,val_loss
0,0.3425481768392983,0.333774343214319
1,0.3338670453479431,0.3335773105952639
2,0.3338125380239817,0.3347804055024613
3,0.3337453601464793,0.33350011982929617
4,0.33366997286093036,0.33375543844019506
5,0.33365082888176234,0.3336180181716275
6,0.33359771880951933,0.3336013301874213
7,0.3335857912650569,0.3338885320919027
8,0.33358118177766566,0.334083208611822
9,0.3335520388351612,0.3334919999314301
10,0.33356380198901786,0.33350886374194333
11,0.33354885764500397,0.3335554787450038
12,0.3335493028375316,0.33351619604503546
13,0.3335541309936112,0.3334799795825191
14,0.3335387468100575,0.3335468237660363
15,0.3335429753687794,0.3334721294141585
16,0.3335411684158845,0.33358090620478686
17,0.33352044931607994,0.33375195118392964
18,0.33352423200940373,0.3337545415455887
19,0.33352172427931803,0.3334935813624569
20,0.33353154364068077,0.3335708618903574
21,0.33351288936051415,0.33355210247465755
22,0.33351409754708183,0.33362992111565754
23,0.33350305949550996,0.3335421550658441
24,0.3335073597614727,0.3334708317041989
25,0.3335093710709523,0.3334473465867433
26,0.33350387783452273,0.3335478849801473
27,0.33349644804428086,0.33347219463909233
28,0.33350340927532723,0.33345357982751456
29,0.33349709322683485,0.3334429536208917
30,0.3335023368354371,0.3334850067388331
31,0.33349343637566214,0.33347655024481176
32,0.3334952608673624,0.33358443445958214
33,0.3334910542676445,0.3334492158948931
34,0.33348868544112664,0.33353721632555167
35,0.3334774947292182,0.3338039039086467
36,0.33347875826588597,0.3334433464051476
37,0.33347965825531856,0.33344215073301536
38,0.32882406709791673,0.22242831583354372
39,0.2224073449816756,0.22236643607356116
40,0.22238314642553078,0.22251086732737776
41,0.22239348839975,0.2223600272357316
42,0.2223823866148068,0.22298104638793037
43,0.22238350262029588,0.22246154338934876
44,0.22239209157478765,0.22244118144435268
45,0.22237356396740823,0.22244270403243177
46,0.22238202089671652,0.2223505167230483
47,0.2223785020812035,0.22240972795498282
48,0.22238021759905408,0.2223646549743695
49,0.22237850213346338,0.22235120209511694
50,0.22237460776534218,0.2224494979118295
51,0.22237473041135883,0.222347106760548
52,0.22236963826190503,0.22233019005276133
53,0.22237659466907003,0.22253784748815722
54,0.2223709654398485,0.2223210217121517
55,0.22236504107924712,0.2224042913680041
56,0.22236734923521614,0.22232739952006944
57,0.22236586557427482,0.22236147647903812
58,0.2223711699579457,0.2223406273880904
59,0.22236972463326424,0.22244515995085978
60,0.22237305949858552,0.22233882653654066
61,0.2223682594058566,0.22239098900157228
62,0.2223652819848042,0.22234446291740123
63,0.22236150103597385,0.22233450040775848
64,0.22236605755828695,0.22233216271506942
65,0.22237333456158528,0.22239097171918334
66,0.22235952259223082,0.22234544375398319
67,0.22236391170213465,0.22235221081129078
68,0.22235994003674184,0.2223947936562687
69,0.22236935418516307,0.22238394958209753
70,0.22236578971878387,0.2223841734692713
71,0.22236428961925525,0.22238213298634324
72,0.22236001524973223,0.22232238730189227
73,0.22236029014017583,0.2223881481894784
74,0.2223603115523247,0.2223330774319083
