epoch,loss,val_loss
0,0.025314330426127036,0.015666121481074293
1,0.016684401911842367,0.01769414559727715
2,0.015915337905767546,0.01455919811682355
3,0.015258895030877455,0.015148903198872991
4,0.015021221225130246,0.01535999188684944
5,0.01468415003791967,0.014137970910363694
6,0.014344618138232963,0.014352143331715103
7,0.014589400589088936,0.0138195135203137
8,0.013817272720951462,0.013619559664029637
9,0.013581345503122667,0.014265929309480244
10,0.01347005413758287,0.013221439789453749
11,0.013328017317743879,0.01353206372087262
12,0.013156010645264385,0.012931392810517741
13,0.013010950924879701,0.013139695846579655
14,0.012834478348090386,0.012704808153119631
15,0.012834931509002686,0.01308075597939583
16,0.012610053749065367,0.012355634068640379
17,0.012504650998649931,0.012451634521852651
18,0.012385488438231826,0.01230069043960598
19,0.012401382911346551,0.012193977952040455
20,0.012355354022195187,0.013028758721745044
21,0.012361602378052106,0.01249727021958263
22,0.012192508124559121,0.01200566800824244
23,0.012216133912525956,0.011874484030469772
24,0.012154625269837929,0.01199188945912028
25,0.012095586202812989,0.01273841354903527
26,0.012088895511884494,0.012568388678244415
27,0.012032698335817032,0.012009706622262303
28,0.012132353043953457,0.012052159579401424
29,0.012045612400956864,0.011742448517890929
30,0.011975069423976675,0.011891113216099017
31,0.011938148585232499,0.011762370099833526
32,0.011831251672415945,0.012103641404777248
33,0.011797914074370771,0.011817954638718672
34,0.0117680172440586,0.011959910266582044
35,0.011742165241188773,0.011976198641301384
36,0.011678338157309436,0.011580052267917185
37,0.011661139000203982,0.01167876137970547
38,0.011581639185715158,0.011112983544673724
39,0.011514336931088078,0.011309099664666665
40,0.011457424375067526,0.011088749829208289
41,0.011371233072970742,0.01172572912939503
42,0.011348757561342026,0.011236987336915421
43,0.0112860315301593,0.011970207763479897
44,0.011270230212868276,0.011779692723755505
45,0.011189682829662002,0.01112809728452053
46,0.011179574544725889,0.011157073899548935
47,0.011085783564068209,0.010987340473562996
48,0.011202567819039486,0.01102372399963457
49,0.011039155356508477,0.010822167672290843
50,0.0110230682027416,0.010731003485693972
51,0.011026601125860827,0.010759008580139347
52,0.010952313311974958,0.010776260686996705
53,0.010922199645865924,0.010766138855099826
54,0.010909749812237704,0.011024618036490368
55,0.010894642074684446,0.011793264101441978
56,0.010859541553124952,0.010785644901708398
57,0.010834475556316937,0.010811121997980415
58,0.010773374576541275,0.011069710969592146
59,0.010738464220831263,0.011045098021423106
60,0.010665546004382107,0.010717712143533136
61,0.010613832662096975,0.010415249863736535
62,0.010548098575744808,0.01058692483522608
63,0.010543292401126102,0.010860099362454403
64,0.010478239583960793,0.01004891341492053
65,0.010401094252271322,0.01043850593915944
66,0.01037121207762223,0.010275852454655223
67,0.010384997742638838,0.01034680768089466
68,0.010381779116964864,0.01007985207101991
69,0.01033117495696543,0.010559377679716861
70,0.01034282139132074,0.01004149926359541
71,0.010311636052654184,0.010188320907244168
72,0.010346798266048469,0.010341093354574208
73,0.010313727541019313,0.01044662617673871
74,0.01031791444764217,0.010489112315306592
75,0.010331135896191553,0.01024039898936639
76,0.010312502121397303,0.010279233283629044
77,0.010279877534891799,0.01021456438770735
78,0.010269249340302405,0.010189050074583544
79,0.010273405729616426,0.01033415886164451
80,0.0102448371947707,0.010648983856085365
81,0.010259092458128298,0.010160882502479974
82,0.010249710467199174,0.010107154945470855
83,0.01022757048264328,0.010098085750735576
84,0.010211706126778259,0.010154774740671106
85,0.010199896396858553,0.0106070884607418
86,0.010174232588729187,0.010162883404429734
87,0.010163999836174992,0.01015492135395409
88,0.010179661938693114,0.010122199862659274
89,0.010167613428553572,0.010094288357119851
90,0.010183274982349265,0.009914919824129152
91,0.010145615797468534,0.01001842027534696
92,0.010147174449628633,0.009945506405630715
93,0.010134735251240532,0.010358941955746107
94,0.0101384012668709,0.010031866842404785
95,0.010124899396319031,0.0100379008919962
96,0.010138010229122165,0.010417348010091126
97,0.010133818956643564,0.009910029126677856
98,0.01013020241874365,0.010291025154385023
99,0.010118808318820635,0.01003518562079881
100,0.010084125846908105,0.01015992282656375
101,0.010127483542197897,0.009990793910737221
102,0.010113924483144937,0.010226839666645372
103,0.01011547341993716,0.010146814376744384
104,0.010086879541527791,0.010085427286865989
105,0.010088241925322003,0.00998566408847313
106,0.010093708123612509,0.010259726920417017
107,0.01007743799905805,0.010087184851097114
108,0.010072755940893312,0.010222752847553926
109,0.010061253383414763,0.010597302089849714
110,0.010088370002802638,0.010176151244676955
111,0.010048308751473287,0.010710993188227673
112,0.010082186724270751,0.009958152026030473
113,0.010092746094589015,0.009913533137505759
114,0.010051255837744296,0.010201150484420081
115,0.01003776926704463,0.009976716591022151
116,0.010049568617292214,0.010253033420953798
117,0.010045485758385816,0.010068200603497236
