epoch,loss,val_loss
0,0.033525827437277556,0.01852160973414298
1,0.01740405664452215,0.017307798034758782
2,0.016182581019769972,0.017031134675180647
3,0.015365518915735326,0.016041299764519887
4,0.014548018474348603,0.01365709551205632
5,0.014234194550241457,0.016435497237494212
6,0.014060027800677189,0.01300895319183914
7,0.01356755757622758,0.013432220820679559
8,0.013300950979920845,0.013518935516846388
9,0.012974901775458018,0.01330057235744322
10,0.012705304779928185,0.013769035162889484
11,0.012506132201972466,0.012440030048451116
12,0.012228994149498717,0.012616812143354647
13,0.012047942894813897,0.011841470400615603
14,0.011995263786240806,0.012062372449351008
15,0.011886214035920868,0.01248099259412836
16,0.011836244348592437,0.01159071652611565
17,0.011793327865261638,0.012703872622723319
18,0.011743803915762968,0.010924855901607805
19,0.011583046493365657,0.011562951420787398
20,0.011572443074623974,0.012021309086965123
21,0.011535018251718054,0.011756238270153478
22,0.011521594571822684,0.011350863505496873
23,0.011414463768596492,0.012354646840366182
24,0.01132819600416571,0.010971759182052045
25,0.01135656605267645,0.011765861489969507
26,0.011247906508680365,0.012000912720009351
27,0.011294202411813803,0.011348748476089673
28,0.011111044586258462,0.010724657342743785
29,0.011132292743719565,0.010849874796202549
30,0.01102166592190473,0.010837308805962799
31,0.010977163612491531,0.010987398644479422
32,0.01095366049860637,0.011132499699020948
33,0.010847712004316733,0.010566201648459984
34,0.010901573107515333,0.010791679128782625
35,0.010836778684412357,0.01059794925365865
36,0.010765386601409509,0.011199295535572706
37,0.010770013054423834,0.010451896449379975
38,0.01076496250879034,0.010358180053458172
39,0.010733722226861827,0.010624012481375013
40,0.010682417491537652,0.010309624962656581
41,0.010674560792461464,0.010267303565346057
42,0.010654274933907854,0.010417014968214053
43,0.010601185191147056,0.010961933099380499
44,0.010519014149819945,0.010360375241776259
45,0.010594292091090423,0.010669773597519836
46,0.010560628193413113,0.010952850165904013
47,0.010540145267774286,0.010344925807054078
48,0.01054838820373555,0.01031308795877781
49,0.010507780623523475,0.010337160046561333
50,0.010504800231793511,0.010703297180791499
51,0.010514399108006141,0.0106210833332194
52,0.010448475317330596,0.01042725168233252
53,0.01045512561312075,0.010061971668533001
54,0.010551783894647393,0.010153066153376925
55,0.010398605827066277,0.010601885910273043
56,0.010434184158840487,0.010653142764166035
57,0.010353012921613286,0.009907299172013037
58,0.010372640480485208,0.010322573712608654
59,0.010340518958620482,0.010216194293265307
60,0.010389355440160362,0.009947884991007024
61,0.010326692772105121,0.010465789682904337
62,0.01036455616405674,0.010258807889451608
63,0.010348264817670552,0.010178846441135364
64,0.010330794355376307,0.01029721912615944
65,0.01033601914548444,0.010134778848430951
66,0.010332853369818292,0.010093576908019134
67,0.010289282842829551,0.010379958990730217
68,0.010252057534261946,0.010526655308403094
69,0.010293173228847579,0.010325877502486664
70,0.01032013283589074,0.010283912519090081
71,0.010244193593570669,0.010153541040535157
72,0.010254114215079066,0.010338017514562488
73,0.010274733961754759,0.010147851766560865
74,0.010251894972837733,0.01080505172063414
75,0.010251278366841123,0.010502398950013127
76,0.010271361110789223,0.010400190846832752
77,0.010236354827738575,0.010139804210042392
