epoch,loss,val_loss
0,0.031292744348207314,0.01968695968574389
1,0.03718392907392078,0.022769850653321218
2,0.018946891590483322,0.017976061835256463
3,0.016222540227708946,0.01588620113916048
4,0.014817337116713384,0.016284882874406006
5,0.014086791421181811,0.013337340818778161
6,0.013573907414987818,0.013120959425072368
7,0.013296052826570284,0.013696439712592597
8,0.013133435426396872,0.013029886484978069
9,0.01299676749947425,0.01271517441767469
10,0.012942440110187135,0.012948380443949262
11,0.012758728535982072,0.012524875683742333
12,0.012614371340899185,0.013007078564289043
13,0.012596506024462415,0.013163350347346319
14,0.012475458684882186,0.011960237050803364
15,0.01240055928772745,0.012880275336558706
16,0.012399649504376968,0.01306731084930172
17,0.012390680787535273,0.013568609274886826
18,0.012344393809314591,0.012663214539106075
19,0.012182401086809635,0.012120300174110728
20,0.012206351268143727,0.012703124447621719
21,0.012141271546206752,0.012164060439147221
22,0.012113618164301787,0.011496088464302993
23,0.011990535348591475,0.011891717035277163
24,0.011833824837547956,0.012111287774337877
25,0.011824735214413152,0.01241835293223707
26,0.011702595586510212,0.012365224368629918
27,0.011736731291395274,0.011379110142958372
28,0.011655289523047731,0.012059858816192847
29,0.011646162255319783,0.0112802069735882
30,0.011624655234591497,0.011612061801234783
31,0.011625223196464139,0.01142788882975099
32,0.011522549049412668,0.011591915325458085
33,0.011520521294480546,0.01199539983252216
34,0.011461904255834729,0.011180071409320268
35,0.011495823476074713,0.011672585704375437
36,0.011391633978931868,0.011060697256723793
37,0.01138379092076528,0.01135522129416244
38,0.011332595465824527,0.011492535210776122
39,0.011246442600748077,0.011122879964616103
40,0.011240322306804761,0.012078909844012178
41,0.011226364513308083,0.01182941629022138
42,0.0112071637365896,0.010809113177708893
43,0.011165993740811156,0.011063999989562236
44,0.011136859349425852,0.011318153756261612
45,0.011123784815820128,0.010794790885492086
46,0.011103218866818369,0.011308634157290234
47,0.011096000616871297,0.010969812185422659
48,0.011096410986431807,0.011566986005392767
49,0.01104285453239179,0.010884988849183022
50,0.01105790811298454,0.011045708334900753
51,0.010992584399261918,0.0113483969515037
52,0.01092701545197789,0.010574527646394136
53,0.010894978919790523,0.010603146809187924
54,0.0108458956974728,0.010763714149612795
55,0.010874904376062443,0.010740325304566334
56,0.01085616249612164,0.010719940323780104
57,0.010868384862780273,0.011264257897015097
58,0.01081447103195314,0.010701122729768676
59,0.010813678144591997,0.01084630673487784
60,0.010834917146642286,0.010799174630094699
61,0.01080745838019391,0.010300263688060692
62,0.010801361930492245,0.010324524799200057
63,0.010720953370738475,0.010742841427568022
64,0.010751273000484646,0.011802442432392767
65,0.010768566110352106,0.01075313456920403
66,0.010695010805527061,0.01058336765905172
67,0.01071836117619936,0.010282872675943463
68,0.010710386039110356,0.01046838860302498
69,0.010704295135733451,0.010273012286860948
70,0.010729757762533394,0.010955593259381153
71,0.0106336726141102,0.010830967808165413
72,0.010688702575751479,0.010592229686973261
73,0.010692983101258659,0.010447229028543083
74,0.010626132930885879,0.010520208437947867
75,0.01064152208842018,0.01146645953014456
76,0.010670597034725856,0.010631220694862435
77,0.010675767790252774,0.010679916366842337
78,0.010636985501360078,0.010634572550691387
79,0.010583580153566582,0.010336602142741604
80,0.010607874858620312,0.010553229297453505
81,0.010604475964301951,0.010549439844807088
82,0.01057787064999895,0.010267016517169422
83,0.010638660934328279,0.010831611026217122
84,0.01058665341116427,0.010640206156534238
85,0.01060080118673812,0.01080420588838773
86,0.01055043713720629,0.010514721731948793
87,0.010530744007985572,0.01010171251357637
88,0.010547732145083857,0.010326241918148533
89,0.010576050900980075,0.010169500086650659
90,0.010544968599898542,0.010704237793482119
91,0.010558666031440806,0.010398949486741948
92,0.010542904997410106,0.01046472696527358
93,0.010522295958374167,0.010718517400157954
94,0.010540483706572085,0.010492996339022965
95,0.0105020691181195,0.010509152385514812
96,0.010521587117535385,0.010949796268129468
97,0.010555767563755454,0.01052715651062375
98,0.01050370423375986,0.010670466691477422
99,0.010515407766431013,0.010220447050005419
100,0.010489597649239643,0.010520601792089992
101,0.0105074965199367,0.010444969790421482
102,0.010489547803298993,0.010424101631857325
103,0.010480863502062588,0.010697977921969394
104,0.010437301150427295,0.010317376866086246
105,0.010447324533874572,0.010183333223292757
106,0.010481474541600831,0.010754549146049815
107,0.010423221378274922,0.010383200544688305
