epoch,loss,val_loss
0,0.02642382167650371,0.017580188383757328
1,0.0166073584744794,0.01657967238684668
2,0.015753478511405333,0.01616665248299207
3,0.015279492839490101,0.014398572412284818
4,0.014983452309611603,0.013781661108579884
5,0.014582638948096017,0.015625551701165162
6,0.014437937608306934,0.014913846710442609
7,0.014289423348851837,0.014950840794030697
8,0.01418850687678488,0.014510657450198092
9,0.014096844831977033,0.015584191480748558
10,0.01398946690760992,0.015100906680687042
11,0.013904136691937463,0.014115282491071348
12,0.013873029061608288,0.01399029084474366
13,0.013813620818751092,0.014766872604435342
14,0.013729611277688528,0.01311186481609238
15,0.013650010444842223,0.013904066974061446
16,0.013605609141633624,0.013898928006348331
17,0.013529430144015829,0.01334402833928911
18,0.013480346215450393,0.013466843551315978
19,0.01342317741849863,0.013545445823307073
20,0.013428905621040644,0.013097116986183316
21,0.013377543541828555,0.013875240697606326
22,0.013361403562846477,0.013648994105218658
23,0.013347842450116372,0.013102844055215123
24,0.013245220153356285,0.014146943563692475
25,0.01317469569573184,0.012712777575140555
26,0.013163599234109211,0.01301285129632089
27,0.012810669550794318,0.01326014419310442
28,0.012794925059291336,0.012306904981361133
29,0.012717419773922677,0.012731258751866096
30,0.012694695288380568,0.0127039237849174
31,0.012577842509225648,0.013306753880924387
32,0.012512380327084821,0.012580631091432743
33,0.012505432567337632,0.01242957370120006
34,0.012416278743784304,0.012364133291186826
35,0.012430796226367573,0.01251533961769369
36,0.012411613425810366,0.01220820154301434
37,0.012390758769867184,0.012101687719264339
38,0.012364490606624657,0.012577326388257757
39,0.01232874834473542,0.011817016931846922
40,0.012293600381102825,0.012949699210118567
41,0.012296474637963288,0.012367553718702374
42,0.012256145250161712,0.012380995684610702
43,0.012254100177480996,0.012402103254779544
44,0.012232760922902113,0.012029094883603582
45,0.012246504761809116,0.012429811188456586
46,0.012188584153220699,0.011864096418060086
47,0.012202020219825867,0.012181284772255285
48,0.012186795713210652,0.01242785209988616
49,0.012154761673979112,0.011968053351838152
50,0.012095485726023017,0.012331609033214543
51,0.012101821285243302,0.012118069912138263
52,0.012097837685299448,0.011676514416322963
53,0.012085631652381742,0.01217164263156966
54,0.01208944899407669,0.013135807688530562
55,0.012078729982489793,0.012314388674057595
56,0.012032897782932393,0.01201620025805223
57,0.01203586379480565,0.012060050899278437
58,0.01200035499907208,0.011912602673818544
59,0.012010429940266422,0.011609607827260388
60,0.011976743382982477,0.011884208394228376
61,0.011971231538712804,0.012147499332967082
62,0.011968379536050597,0.012358297411786859
63,0.011946446261092121,0.012096730444497121
64,0.011983348011205455,0.011943221081131446
65,0.011984447427465718,0.012134850299720728
66,0.011927275207825536,0.011909742894173408
67,0.011914543991587008,0.01241988320707831
68,0.011925053675320237,0.011926352085716671
69,0.011901720075812569,0.01191631645685242
70,0.011877395041782724,0.011685971752104925
71,0.011882034887373685,0.011993154742877477
72,0.011811749341592452,0.01276242993217396
73,0.011701013881081251,0.011613357143370301
74,0.011634380742744829,0.011688709853877944
75,0.011585214350416087,0.011911866839318802
76,0.011560387699467002,0.011489170070543479
77,0.011554123278933511,0.011381248780815093
78,0.011534033076300836,0.011384800625109938
79,0.011510841746709868,0.011274795878965122
80,0.011475867832366244,0.011397291714367144
81,0.011443343606501928,0.011921756014819476
82,0.01148500298339634,0.011798904543146306
83,0.011456211947771976,0.011361394268888101
84,0.011446011942161747,0.011472531516687302
85,0.011471312481598552,0.01152843064755645
86,0.011439300450820646,0.011215334345422519
87,0.011444389051040721,0.011210449301538337
88,0.011426855893700981,0.011198469333202756
89,0.011374408379702463,0.011416475980475582
90,0.011415418086855512,0.01191925857650583
91,0.011383361002378972,0.01130239472125955
92,0.011387997064072166,0.011366623738507923
93,0.011369521606356736,0.012065116640078666
94,0.011381529000467601,0.011365556471031298
95,0.011344858129880763,0.011447748754903784
96,0.011353155975227512,0.011919962755744126
97,0.011313068686461548,0.011308111322502937
98,0.011415573114539383,0.011423003036186801
99,0.01131729419316415,0.011083670401432674
100,0.011320179016451801,0.01167766718152291
101,0.01130285409699009,0.011328113545425624
102,0.011330032106763307,0.011490525235017535
103,0.011303507305796677,0.011631318647183348
104,0.011308739366521658,0.011455176475806805
105,0.01128426708803984,0.011817594912023313
106,0.011290927433426828,0.012016390958713095
107,0.011290503970711598,0.011122674354012345
108,0.011303813214097564,0.011098543798583316
109,0.011239950496286441,0.011455625651066859
110,0.01126578972156979,0.01197323604364401
111,0.011241100256213273,0.011326236261641861
112,0.011253637645502912,0.010937135817746519
113,0.011250426539986645,0.011655508437501289
114,0.01122166790110352,0.011167431652324075
115,0.011204299509038297,0.011345409602851193
116,0.011233217269376946,0.011579499100207839
117,0.011243061183755784,0.01156993461010178
118,0.011215965088265431,0.011108551253437552
119,0.011214720865038379,0.011161065935423
120,0.01119680444703757,0.011176978300785456
121,0.011209215409974847,0.011160243974614972
122,0.01121106889571366,0.011403673511488414
123,0.011201656784077543,0.011352055577131419
124,0.011171164708458897,0.011499130439762
125,0.011163954587312086,0.011346393220921604
126,0.01117720125385969,0.01127591799879932
127,0.011200752044247822,0.011229811949891134
128,0.01114818199086004,0.011336735989112712
129,0.011154262504347034,0.011014906337794388
130,0.01116231798613574,0.011624540067820927
131,0.011165524113517705,0.01102892399416594
132,0.011156097699909337,0.011307285073913504
