epoch,loss,val_loss
0,0.43375897736881946,0.39607248413534546
1,0.3573076338362065,0.34590540192403846
2,0.3378646161606748,0.3196681866858922
3,0.31635148784846995,0.29656371803573484
4,0.3067458768179424,0.3016040623776068
5,0.3041414132685684,0.2973979711826617
6,0.30426836065012963,0.30229190506493847
7,0.3032136276411972,0.3009914095265807
8,0.3021637432092576,0.29547401851641447
9,0.3023599907249617,0.2958256493439426
10,0.3005099079812126,0.29691158121579636
11,0.30081461748178245,0.300922042768869
12,0.30143392350164344,0.2898917652154966
13,0.30040389738625567,0.3004440431495586
14,0.3003084235619917,0.29252979637438986
15,0.30224703196629726,0.2891452769207126
16,0.29894042683305216,0.29357211201230465
17,0.299194076915177,0.28958421924990185
18,0.3358433306586447,0.3480371639026651
19,0.34016498888163066,0.3165094149728977
20,0.32155153533513786,0.31229470380903135
21,0.3119907352290184,0.29885039307418165
22,0.30241463851514194,0.29637293773390877
23,0.29809029964949013,0.28603797180735413
24,0.29917169487376294,0.28646713445270355
25,0.2993772539863293,0.30242513512991126
26,0.29662028049750866,0.2965794255943776
27,0.2970322389438522,0.2796849993769823
28,0.2978351252387277,0.29047746346541625
29,0.29695174695371535,0.2935575249809963
30,0.2968421570903106,0.30032785310341603
31,0.3107792518937664,0.3036847635574386
32,0.29603699637617137,0.281788922746349
33,0.29393408293251416,0.28271434963008224
34,0.31205750578980174,0.3172915255108403
35,0.3122686243785037,0.3001855148477355
36,0.30575416844597253,0.30487979214047484
37,0.3038446620481906,0.29722772816809123
38,0.30242659463335,0.2973096405391911
39,0.3015545909281829,0.29916859226449793
40,0.29999907894266975,0.29052216968930605
41,0.3007478894208737,0.2969640837695623
42,0.3034738014034516,0.30681364377041737
43,0.30524322496270007,0.2981971859720248
44,0.3050420439774565,0.29511622373593915
45,0.3021086197790149,0.2975707794256632
46,0.30171914653574156,0.3001433562813731
47,0.3002933991624773,0.2905424895454507
48,0.2985426054792486,0.2840754821273221
49,0.2984953904055434,0.2975431640339161
50,0.29957847302849533,0.2894222787460099
51,0.2976331760337074,0.2962436674496463
52,0.29816250960460955,0.2908938248430826
53,0.29852857421056256,0.2941876040931847
54,0.2985611911997092,0.2976752921009779
55,0.2980924575186843,0.29860877506170297
56,0.29748016294184254,0.2888354939991504
57,0.29643118097413357,0.2861498989100144
58,0.294476234042149,0.28530888504627283
59,0.2938252506281832,0.2831527403105218
60,0.2919540248668308,0.28488573046796606
