epoch,loss,val_loss
0,0.3542175731308264,0.34909476162226255
1,0.324444616548449,0.328412273841386
2,0.3171428694523019,0.30899079934338836
3,0.31087755371960135,0.3074003937635821
4,0.3101385284742291,0.3019829464410362
5,0.2927766604293927,0.2839155606896085
6,0.2807087853854652,0.28242864410944973
7,0.2756207363365842,0.2760055649910937
8,0.2738289223800746,0.26945207339153576
9,0.2717132304164527,0.2788584852016339
10,0.2694503213707015,0.2671340652098313
11,0.2861649733361342,0.32655682558842125
12,0.30897257776616766,0.30129886425049546
13,0.30180927218912507,0.2971284928736766
14,0.29949024540605207,0.2940953248536954
15,0.2985271382972681,0.2998258881241483
16,0.29865068395575173,0.2995346536905444
17,0.29816864012814254,0.29636776527270803
18,0.29830197163885064,0.3005281230103998
19,0.2975458958618742,0.294348746691055
20,0.2975480547911829,0.2950302295874872
21,0.29784482555519,0.29765083235648077
22,0.2982241720092192,0.2979280530183261
23,0.29765135366067613,0.2951752140988679
24,0.29792228648416713,0.29320262902913924
25,0.2983958554937304,0.3016191876913114
26,0.2979764232127596,0.2988455749418948
27,0.29879436755089833,0.30035238935896613
28,0.29913094509943877,0.30506880317932994
29,0.29980276013425977,0.30803678098304493
30,0.30369452598521846,0.30151777682148195
31,0.3011015914231658,0.2994662667341654
32,0.30208761636897336,0.3030870973758088
33,0.3005759114150902,0.29853707627226445
34,0.30092155487893774,0.2992472921945772
35,0.3005157339987423,0.30148861737776295
36,0.30269809279272214,0.3039183489384384
37,0.30354969609055305,0.30055649700885506
38,0.30573685568490094,0.30215061141358834
39,0.30526116884035837,0.3072013298098083
40,0.3054685676924521,0.3117803915241335
41,0.33078840160541395,0.31792774349568675
42,0.31436928028730654,0.30574644573956095
43,0.3083270146406526,0.3040136549424824
44,0.30601986417238664,0.30111419973452447
45,0.3048924855310187,0.3037718186579827
46,0.3027372305734838,0.2999307746222006
47,0.30552702482274585,0.305899188933922
48,0.31004211594232267,0.305405320465894
49,0.3114658185749126,0.3086777504330652
50,0.31250358209740536,0.3169673827095303
51,0.31334951128081073,0.3112395702028425
52,0.3132165688857567,0.3119674847529644
53,0.3265173122417822,0.3171740941815049
54,0.3223438623080627,0.3197703516520942
55,0.3207105013618557,0.3190838433008262
56,0.3213510869992532,0.32923345624130357
57,0.32087374672138813,0.3156010940635684
58,0.32021899166391143,0.32065767613140356
59,0.318978391611557,0.31274653639535593
60,0.314663961505909,0.31453241912417274
61,0.3161760611440257,0.3154266839692606
62,0.3154840650770971,0.31495142798068115
63,0.31527890984436496,0.3109089890355281
64,0.31412520513927145,0.31021659971224386
65,0.31240493660684016,0.3040026563095501
66,0.29099266359703146,0.2830128751948017
67,0.2831818162084674,0.27277037840051355
68,0.27961041594294905,0.2753224403089487
69,0.27896796667771184,0.27715055963234725
70,0.2774006951031544,0.2836676140939898
71,0.2778129815447816,0.27770496489687424
72,0.27988405811557954,0.27675234843354196
73,0.28159262897442283,0.2791140408688111
74,0.2815986173979336,0.28358017469167524
75,0.2800843252552499,0.2784374072477398
76,0.2818785636789269,0.2806187580209505
77,0.28207085574630925,0.27935310438475275
78,0.28375068119318364,0.28029770862190573
79,0.28431896395463163,0.2815261712178717
80,0.2811337165433249,0.27733477980674676
81,0.2811323409493593,0.28343600114688405
82,0.2830506443655748,0.28421463788543616
83,0.28673937302127445,0.2913040451252658
84,0.29778739781998137,0.2969620910773808
85,0.30525491188327186,0.3072774741672209
86,0.3092237518821879,0.31339233069318245
87,0.3109650611579656,0.3177545273054653
88,0.31299662417907126,0.31506481680845594
89,0.3139035592107273,0.311655299827727
90,0.31413951004556806,0.3109306761408379
91,0.3130799353980332,0.30824572293656777
92,0.31294226527309343,0.308216915593057
93,0.313699487105405,0.3111009214723214
94,0.31346189543354713,0.3103481159378622
95,0.31415062809257294,0.3093759706618754
96,0.31186303101497875,0.30929018019594917
97,0.3134073068340905,0.31194400111097187
98,0.3122709032585867,0.3068014317807384
99,0.3074234862395709,0.30560526414094424
100,0.3065968368896287,0.30464720726013184
101,0.3064392912599871,0.30103634962343095
102,0.3054871354088318,0.3043944544813815
103,0.3061013836130726,0.3028286816618437
104,0.3059447983757769,0.30680439571225937
105,0.3024516518798759,0.3061537229600815
106,0.3020448155349774,0.2990759370617727
107,0.3014702300707118,0.30293736598015586
108,0.3029258443499736,0.29964297091339925
109,0.3025581514080175,0.30022399049860904
110,0.30377866349798693,0.3075263234062654
111,0.3064075277792178,0.3107605819967476
112,0.30640722204336257,0.3073546706736323
113,0.30791860266769533,0.31050947157999803
114,0.30777293858792093,0.3042300266008633
115,0.30834064944137296,0.30651322811630266
116,0.31018255418724866,0.31855805393458353
117,0.31187140111990874,0.3096064498270226
118,0.3139909507273484,0.32303908531978176
119,0.31634220357040327,0.311193514359496
120,0.3132984589913385,0.31086152602625156
121,0.312774420338426,0.31081070709200287
122,0.313294199760631,0.3120320550127112
123,0.31298795284675085,0.30877972114904717
124,0.3126314579964065,0.3107583565724206
125,0.31250386324217566,0.3135246726101369
126,0.31350203872703725,0.31044993813619337
127,0.31326817685394265,0.3116905484245627
128,0.3131604380042052,0.31400009268790413
129,0.31328167020679,0.3177152302736547
130,0.31505411343394424,0.3188251347737512
131,0.3138864915445745,0.3115745087543057
132,0.313753468521255,0.31057231911497035
133,0.3139465547067751,0.3150354177935818
134,0.3143573025052401,0.3114662067383975
135,0.3139268347053981,0.31986862262262544
136,0.3128026322745305,0.3078472188188038
137,0.3120413908569647,0.3103372492513604
138,0.3136511896011069,0.31110686948192146
139,0.31294404938638354,0.3139776473875204
140,0.3130814839991258,0.3164292722234786
141,0.31360809086300107,0.31731160411989023
142,0.31362720584864623,0.3107150404845624
143,0.3134469934981123,0.3100022069915788
144,0.3139567494714003,0.310229013143982
145,0.3136964822523028,0.3091249551797534
146,0.31387841115466697,0.3176325113286912
147,0.31404504585537696,0.3107309394355072
148,0.3140797738632043,0.31198281255545535
149,0.31402688411523777,0.3098568900090649
150,0.3129210659413696,0.3050553355286605
151,0.31012309381334807,0.3100177478677378
152,0.31014436992595523,0.3059073397397242
153,0.3099651280388558,0.3098080445319155
154,0.3106457485402707,0.3076153564330811
155,0.3105837909830846,0.3093259826408377
156,0.31126996132133483,0.3079995691258793
157,0.31225344152759305,0.31005683101437276
158,0.31291232293815635,0.31359925581511305
159,0.3128899463074956,0.3100385244732874
160,0.313010644974659,0.3115227317236123
161,0.31275889765230014,0.30910538813215405
162,0.3131822717073057,0.30976705076709543
163,0.3131159041091788,0.31697923059104083
164,0.31295996205174,0.3118644116450786
165,0.31342183537096335,0.310616005673687
166,0.3129340941719205,0.30871282147439144
167,0.3130314252633366,0.3134423143508967
168,0.313134985909664,0.3137131803084662
169,0.3133335487483788,0.3113330612995536
170,0.3132862446846055,0.30962428257704344
171,0.31279985321392356,0.3134509714786331
172,0.31312388502103056,0.31268643303800026
173,0.3130880246917121,0.3086905755108515
174,0.3125298244478129,0.3102280080153797
175,0.3091666534971848,0.3077336923405234
176,0.30943947091853496,0.30496447688025946
177,0.3091259208990992,0.3112495814074469
178,0.3091415333138,0.30649793972485445
179,0.30967774206428506,0.3055656295454963
180,0.30884882436095956,0.3055772337983138
181,0.3095663140813033,0.3061024772434039
182,0.31049487939912923,0.3117490445617248
183,0.3111306411697329,0.30899628769862153
184,0.3126870159515374,0.31345234417313184
185,0.31301527693093445,0.311694008775273
186,0.3136940864052513,0.31018293573099887
187,0.31514740177838924,0.30966651396151124
188,0.313336298768993,0.31094447665075287
189,0.31339010184736465,0.3108344099351338
190,0.31408769089421873,0.3171307486088707
191,0.31317050878902514,0.32142395512645605
192,0.31341223447895544,0.31033241152528146
193,0.3130232468366528,0.31244245611407573
194,0.3125241189885387,0.3100323394329038
195,0.3102616669712879,0.3043406949964394
196,0.3058715511402257,0.30352295237727867
197,0.3055309075281489,0.30579241147028147
198,0.3044515296066408,0.3040102742724091
199,0.3024341275902103,0.3017189826143004
200,0.30171579178526914,0.30311355155899283
