epoch,loss,val_loss
0,0.4670937188607965,0.4478504810140854
1,0.44436067252683104,0.4527521413922407
2,0.450200724258148,0.45436714340638845
3,0.4472202927685433,0.4409582050273985
4,0.4387260597405002,0.43592100417043556
5,0.4366212952449572,0.43641161581460575
6,0.43643985108268846,0.43568434122125016
