epoch,loss,val_loss
0,0.15756185417719407,0.06109217581675103
1,0.05553428855814713,0.048361426038519076
2,0.048383022304907215,0.04817289030201433
3,0.04801294484215198,0.05018302173175112
4,0.048052351836928076,0.0487125632077479
5,0.048014310076177645,0.047865469055728076
6,0.04794606218169586,0.04816668234242166
7,0.0478582414779827,0.04811485500707811
8,0.047893486260402976,0.04900511741144222
9,0.04796324489112619,0.04750667997263225
10,0.047822183995640914,0.04800665669360778
11,0.04784568427182692,0.04824559468167357
12,0.0478789919985832,0.04793123125547768
13,0.047927674906645464,0.04820239874398322
14,0.04773352634039619,0.047563423835558505
15,0.04775385252928896,0.0481685030332163
16,0.04778519396236141,0.04824070510143545
17,0.04775813914281573,0.0476833164439064
18,0.04777012975197092,0.04777771795511058
19,0.04774405552501634,0.04789629453924009
20,0.047682639334997015,0.047556112075684664
21,0.04768040819133786,0.04801302012159021
22,0.04767897120452851,0.04820441551971078
23,0.04770370416021604,0.04786292511761047
24,0.04769246257561669,0.04889779661700494
25,0.04770029973325064,0.04760569037065416
26,0.047678770567420765,0.04797885300269631
27,0.04764523361173036,0.04739637895771718
28,0.047595603850117026,0.04764902348253044
29,0.0476625212040141,0.047472751272317454
30,0.047570210725938575,0.047634237320195436
31,0.04763001599442139,0.04813564337654761
32,0.047601811023507946,0.04786329061945499
33,0.04755992960962031,0.04767616520964356
34,0.04757171551988041,0.04802448501561981
35,0.04761838153909913,0.04734644519007855
36,0.0476206964541444,0.04754470118219305
37,0.04760653029629986,0.047653395876629485
38,0.04752518281155972,0.04771256830834364
39,0.04754038683945041,0.048162275444548625
40,0.04756234613932866,0.04743026123156487
41,0.04753460556411629,0.04792160668425797
42,0.047520601469800056,0.04823074432791173
43,0.04752109040894049,0.04765848200047872
44,0.04759080852303717,0.047606192391009994
45,0.047538112016688054,0.04747104661828811
46,0.04748554019440564,0.04787481181917458
47,0.04750654878441712,0.04795645548717281
48,0.04753649169259029,0.04746277971397542
49,0.04749275930970312,0.04748620772653428
50,0.04754461782822887,0.04740061587415159
51,0.04754614488011022,0.048184239309231124
52,0.04746713812539665,0.04740821050910754
53,0.04750377734115036,0.04729747480838527
54,0.04749476712057107,0.047289493998722856
55,0.047482082413302526,0.04802858715710813
56,0.047493472775752596,0.04732896706005581
57,0.04743555297615002,0.04755365272547282
58,0.0474503682829517,0.04729034149491514
59,0.047458858894024916,0.04814046678363383
60,0.04744017546881827,0.04752607263430612
61,0.04750755304049292,0.04742138339434445
62,0.04745437821997203,0.04773331262706393
63,0.0473907790217492,0.04757076662383686
64,0.04742947636063484,0.04835443173688796
65,0.047507739059335224,0.047515845324641245
66,0.047433256024984626,0.048398281714416624
67,0.04740096952656,0.047320399612729346
68,0.04738315756765487,0.0474464308114718
69,0.047466694211347596,0.048138291070027525
70,0.04743638248454562,0.047191158877928234
71,0.04744420405760181,0.047550651935041655
72,0.04742001956827539,0.04719318440382464
73,0.04738360676887653,0.047436225832967
74,0.04745951162980234,0.047504982357549214
75,0.04740452114567101,0.048078817901243444
76,0.04741065950690509,0.048126622943329644
77,0.047382554234408264,0.047338734109663265
78,0.04740388727755093,0.04777102894498875
79,0.047368106321334175,0.04721867705047742
80,0.04739099860989409,0.0473941264596151
81,0.04736869328385063,0.047169580726333746
82,0.04741207685181611,0.04764279683474113
83,0.0473379173891531,0.04736078628166134
84,0.04742267633751809,0.047426583929003556
85,0.04734951035558081,0.04721124244717133
86,0.047401139884889365,0.047321754918619695
87,0.047360788527533684,0.04833012579660201
88,0.047399451515431124,0.047320895317439125
89,0.04735831398484137,0.04822111813661708
90,0.047344607148441575,0.04725155893245737
91,0.04738658136106748,0.04724004975245896
92,0.0473902804045964,0.04732202734113116
93,0.047400132777522225,0.047286979022017596
94,0.04736414373808389,0.047989029469646234
95,0.04737938024538407,0.04738997673614343
96,0.04734025291687579,0.0471245280181035
97,0.04746126266662404,0.04741705817353471
98,0.047360992379230464,0.047255820702781996
99,0.04730894125039153,0.04719527193066541
100,0.04737460190396038,0.047362803668959834
101,0.047327030284834995,0.04731547225916489
102,0.04737686943694604,0.05021392181809718
103,0.04734699469175842,0.0474325997641732
104,0.04733897333028172,0.04723381632740514
105,0.04739812040905491,0.04724961120544124
106,0.047331580024161976,0.047519012268312164
107,0.04734764963858943,0.04783657067929466
108,0.04740898933657687,0.047387991765045046
109,0.04731478271402901,0.04754244066016262
110,0.0473716444105839,0.047248955621974335
111,0.04740667535955433,0.04728216220696046
112,0.04729421948530167,0.047410368072582025
113,0.04738659567857008,0.047740369985187346
114,0.04733596013771068,0.047345155581020426
115,0.04736933818192696,0.047519792962140144
116,0.04736254660101484,0.04739337545932045
117,0.04734385484080616,0.047394493752068764
118,0.04729047019055469,0.04720967753710197
119,0.04734246092412969,0.04753528651505732
120,0.04733913006643645,0.04731967623309536
121,0.04730329954986283,0.049358740537159065
122,0.04734098676035254,0.047247543081276606
123,0.04738470859271731,0.047719851674272395
124,0.04730362098196523,0.04745560277315135
125,0.04732749573320603,0.04745069996475138
126,0.04732267362483257,0.04805077598874928
127,0.047307898018726535,0.047727180899200985
128,0.04738288955966965,0.047463243755187776
129,0.04729993051911096,0.047233865473598785
130,0.047327652317490414,0.0471814377196633
131,0.04729723243220009,0.04734666473228535
132,0.047291956186818654,0.04725039903230336
133,0.047332209781360185,0.04712931906485426
134,0.04729697247929901,0.04717121468217427
135,0.04733810742362607,0.047434247762623415
136,0.04729822262240161,0.04718714057752347
137,0.047286123524216725,0.04724384828719833
138,0.047299013156696955,0.04714772284865944
139,0.04734080553733759,0.0474287446650023
140,0.0472877028522541,0.047271038584217086
141,0.04732101100782077,0.04726859533478636
142,0.0473236920629188,0.04729882967911937
143,0.0473289706846245,0.047684131600344945
144,0.047252696763864045,0.04756278505559126
145,0.04732787319951111,0.047440605395383126
146,0.04733415235646909,0.0475695244350486
147,0.04735726881310713,0.0473008291485654
148,0.04725590048672008,0.04722646205747043
149,0.04728266190466501,0.04719177186018666
150,0.04728187025963164,0.047218549482071596
151,0.047250153571307706,0.04815164851149707
152,0.04731339405325772,0.04723767471965035
153,0.04728029470006339,0.047301431981098395
154,0.04728986665183644,0.04740594498278028
155,0.04726207217605089,0.047324563099487425
156,0.04729126121619527,0.04737929582313562
157,0.047261264373203646,0.04776521103828557
158,0.047294305691080125,0.04727279717115878
159,0.04729503729372478,0.047226589681740906
160,0.0473404492122783,0.047110372182531626
161,0.04722326440955523,0.047446222027621124
162,0.04730716717096684,0.0476450380775857
163,0.0472831509361188,0.047079628361381694
164,0.0473003217162822,0.04791734110337595
165,0.0472356108360463,0.04718937847142908
166,0.047233465966656146,0.047775827730464106
167,0.04730431647669021,0.04712200040716587
168,0.04723162448806442,0.04711058882565694
169,0.047285719973434934,0.04796368349417044
170,0.04732528574419298,0.04725785457309344
171,0.0471894751212818,0.047146218522336414
172,0.04729005339727413,0.047571961433518654
173,0.04730717813541039,0.047161835512615324
174,0.04725295064790691,0.047282395830000115
175,0.04727280924884345,0.04730029467378626
176,0.04730066836332913,0.04775380241760327
177,0.04731010729454452,0.047316628110601666
178,0.04719812917165,0.047354236159888236
179,0.04730416562923377,0.04722965588674079
180,0.04727314471108593,0.04738735024476955
181,0.04718428307609688,0.04827552315526904
182,0.04726955535070454,0.04720173369513879
183,0.04723221303628598,0.04735109408480875
184,0.04723640344292521,0.04840182137235282
185,0.0472925528586149,0.04725079202249752
186,0.047315312346978056,0.04720183585394812
187,0.04718414621857955,0.04717752992542315
188,0.047255095378827036,0.047104299083152154
189,0.04725863515353984,0.04755810895183468
190,0.047240594945413224,0.04725129949700767
191,0.047192092713930434,0.04720268467325062
192,0.047303203861121176,0.04705658835824211
193,0.04722969765684826,0.04722899077982063
194,0.047215766972489207,0.04725164885396739
195,0.04724978616417979,0.0472225821690947
196,0.04727855135800598,0.04722542883776828
197,0.047258551869032196,0.04726551561054039
198,0.04722168962571689,0.04727225376391561
199,0.04725181076267688,0.04792786077629325
200,0.04722351460850877,0.047176468138301474
201,0.047270070363899214,0.047196022151795164
202,0.047266554580234606,0.04738767277199449
203,0.04719924983634747,0.047309206326763366
204,0.04726769773961066,0.04777570820068786
205,0.047302473814403126,0.04729455705635079
206,0.04718610860234637,0.04707541985947406
207,0.047259903492794623,0.04725767361278033
208,0.047207896781565666,0.047255949414943085
209,0.04722281794944446,0.04741872840611692
210,0.04724193023715755,0.04707095106356522
211,0.04724193593080667,0.04708547152772887
212,0.04723840127055117,0.04731769409933331
213,0.047216261797350084,0.04718408018538777
214,0.047277799701030784,0.047258129253713
215,0.04723000692741143,0.047224113704444105
216,0.04721523438402408,0.04720147325706557
217,0.04725691019523916,0.04757038748219621
218,0.04720576480924368,0.04778096590252871
219,0.047245263830005976,0.04766015908089132
220,0.04723694856813867,0.04708692405575735
221,0.04723043498887623,0.047408373178157076
222,0.04722715822233856,0.047220896647238976
223,0.04721266005804642,0.04706240050794576
224,0.04723943939371456,0.04885357169356512
225,0.04723473190576386,0.047141510658054345
226,0.04723576385733321,0.04715129403484178
227,0.04722658774519948,0.047648655652011956
228,0.04722017966967216,0.04723437116632051
229,0.047244675488744996,0.04722863836206596
230,0.04716738749095957,0.04728123889361297
231,0.04729879868896507,0.04763166574671594
232,0.04723720049573411,0.04714410542712592
233,0.04719233283583971,0.047529006219559425
234,0.047305892581205,0.04777146622409196
235,0.04718244188486768,0.0470769948839859
236,0.047287929966914756,0.047119244742012435
237,0.047209926833994956,0.04715143682783574
238,0.04719673676474346,0.04742232556054229
239,0.04721554875117745,0.04712135496460366
240,0.047214617102528264,0.04769861113041898
241,0.047249560486331735,0.047187667734033024
242,0.047250327687683724,0.047187434884277776
243,0.0472343298409292,0.04712789482492204
244,0.047171438934741544,0.04709619857611953
245,0.047288257852018026,0.04711988300449658
246,0.047201202664193774,0.04796065386581722
247,0.04724002881891293,0.04729143415754859
248,0.04722841278754836,0.0473768152943397
249,0.04724465730450422,0.047273315521634836
250,0.04720945259203299,0.04718977545447583
251,0.04722355462634544,0.04792954037061524
252,0.04721925633369113,0.04729889602574572
253,0.04726711634865148,0.04732834034685366
254,0.047194748487082314,0.047248193110620874
255,0.047224313992974186,0.047205574957517156
256,0.04726127885597692,0.047210240855683656
257,0.04720907875274916,0.04726963084493929
258,0.04720574508843233,0.04765738841460837
259,0.04727044902432213,0.047274004941440136
260,0.04719785987574467,0.04717520739068737
261,0.04721120354845274,0.047106248197963885
262,0.047196075616539906,0.047088412416550526
263,0.04724653435649155,0.04724710742518858
264,0.04720240869342709,0.04729930864501489
265,0.04724508286159721,0.04717515765644475
266,0.047274751326651404,0.04735837473101097
267,0.04719195654578537,0.04726955183173788
268,0.04726621988181064,0.04755427900351872
269,0.04720118850153937,0.048560751262455355
270,0.047188723413683145,0.04712586505331199
271,0.04727959448097945,0.047577347415304595
272,0.047248069951824435,0.04720556401392561
273,0.04723767942334298,0.04781118895338103
274,0.0471737845454642,0.04709252941803661
275,0.04721538750209111,0.047219129862894484
276,0.04720735853220776,0.047165051184965105
277,0.047198887667257626,0.04758048020509067
278,0.0472163710799768,0.0472940763439498
279,0.0472192661427289,0.04714168488226637
280,0.047215035615517174,0.04712074573997823
281,0.04725095153236084,0.047164020293936924
282,0.04721051697387731,0.04723593382122202
283,0.04721472139576737,0.04759587899391446
284,0.047180464495714905,0.047935973450059295
285,0.047235647993658085,0.04712851001824463
286,0.047231971479053024,0.04719957102739914
287,0.047274165970685005,0.0473017793592733
288,0.04722662999791255,0.04758997218596625
289,0.04718440654073402,0.04734799683964337
290,0.047256312262323456,0.04806087273095853
291,0.04721278507712124,0.04743150331156406
292,0.04720485248832965,0.04706091865097432
293,0.04717919230312228,0.04717040744381527
294,0.04723308164831832,0.04725820919897204
295,0.0472131796318183,0.04737113992188893
296,0.04722164531233166,0.04801911943325304
297,0.04719201709440858,0.04752162489643131
298,0.0472468836984927,0.04717187634900789
299,0.04725291308530753,0.04738352420403907
300,0.047178443101384374,0.047148587286542885
301,0.047254265489266645,0.047257851574043636
302,0.047182183940526395,0.04711160189292049
303,0.04717966516336186,0.0471730225329194
304,0.047262288841436045,0.04749277776258615
305,0.04716541221459135,0.04708402532416719
306,0.04718699091099959,0.04784597305620667
307,0.04721763730793596,0.04750431954990058
308,0.0472205508333578,0.04728754713907897
309,0.047218041052278,0.047199677376057465
310,0.04722398935968308,0.04741083647711783
311,0.04720513149947047,0.047765492234487845
312,0.04726667053324522,0.04712855014082665
313,0.04724452973490091,0.0471925907742582
314,0.04716044497474444,0.04743748041782778
315,0.04728491426848298,0.04735006154430317
316,0.04718800639952544,0.04740783032073971
317,0.04719630823873407,0.047245701188375934
318,0.047220300737140085,0.049267827661821195
319,0.047237380914729565,0.04729130064690781
320,0.04719663021280516,0.04767695044026943
321,0.04722199990726013,0.04728716177882034
322,0.04720463655996237,0.04709466517665486
323,0.04724463450608494,0.04721832544423034
324,0.047213547348642616,0.04722397097907578
325,0.04726838642250386,0.047237738367131875
326,0.04716306946707143,0.04750662366106177
327,0.04721721933840466,0.04726472419657948
328,0.04722236876757883,0.047158859649580484
329,0.0471962639953283,0.047386839915281594
330,0.04722377277916665,0.047196523739935
331,0.0472715059704751,0.047900765934325434
332,0.04725750932227269,0.04798713670168792
333,0.047196966404620885,0.04748413137850464
334,0.04721765430550352,0.047958010485676585
335,0.04719936198217692,0.047142813371784026
336,0.04719514752046572,0.047261942257397556
337,0.04718028659598052,0.04731516665598964
338,0.0472176248471228,0.047195078468430955
339,0.047228583789093316,0.047711488662174395
340,0.047233423980460654,0.04736154173054654
341,0.04720485629253298,0.047362637445154204
342,0.04720970904596037,0.04711088107129957
343,0.0472828146981464,0.04726796888326601
344,0.04718179924549054,0.047533769942614254
345,0.04719353951275539,0.047285824875922866
346,0.04719749099606995,0.0473191685086644
347,0.047197758039231784,0.04727506880143447
348,0.04719960448785509,0.04733677043475875
349,0.04726976355006226,0.04729549977531467
350,0.04719575490954397,0.04726208352146416
351,0.04723365615597732,0.04734398870954574
352,0.047226438599584294,0.048261370765664204
353,0.04726016757299574,0.04713740508530021
354,0.04718465698536018,0.04716553682227632
355,0.04719557390986777,0.04711550333917188
356,0.047252414088478856,0.04722538492227033
357,0.04720669231868143,0.04725650700298745
358,0.04723336625632813,0.047146975506029455
359,0.0472086134100918,0.047200948829103286
360,0.04721991078471013,0.04710771319557102
361,0.047182322004072956,0.047178265192467296
362,0.047189838999657514,0.04755314004672919
363,0.047223789913715314,0.047153627154459234
364,0.047201054629316626,0.04714290516328981
365,0.0472165576050536,0.04724226151346784
366,0.04726303333370425,0.04846061297472575
367,0.04721574683626779,0.04727115013416865
368,0.04722212205270974,0.04736100158109473
369,0.047171272946406995,0.04711467114695434
370,0.047218264815368526,0.0478975487595105
371,0.04725575845816629,0.047274332584691214
372,0.04718903604623892,0.048763742260252665
373,0.04724761527880347,0.04712500363211982
374,0.04714658961361118,0.04733182934437009
375,0.047184672712874735,0.04717000792039692
376,0.04723847356381462,0.04721341782558971
377,0.04721958421581655,0.0470915666818854
378,0.04722524672853861,0.04721555201705742
379,0.047197607863280505,0.04714038691115172
380,0.04721503198254023,0.047178672401685835
381,0.04720617342088148,0.0471141054085511
382,0.04723505012923293,0.047147682499678566
383,0.047235567255212156,0.047139841516303
384,0.04717869656555039,0.0471625907439224
385,0.0471828017103896,0.047180844692847064
386,0.04722484430189518,0.04728774616425679
387,0.04720408542098092,0.04730186231828338
388,0.04718016207718449,0.04729508858500453
389,0.047242840043277286,0.04712351279564043
390,0.04720012440854649,0.04778088736270673
391,0.04719865840110037,0.047116586446009384
392,0.04717425210959763,0.04718363344457644
393,0.04724594129980516,0.04712828021458311
394,0.04720505235566319,0.04750443319918701
395,0.04721116660673508,0.047144133253603726
396,0.04718594600876077,0.04715191562907754
397,0.047209733555154454,0.04730155806762079
398,0.047229350506544684,0.04748621108429396
399,0.047181119689707465,0.04710169898341656
400,0.047189540368952246,0.04708341158626582
401,0.04726136624098396,0.04753135600742526
402,0.047165010353739406,0.047133649778041485
403,0.04721240206457061,0.04715117486965591
404,0.04723513823934644,0.04712699046145298
405,0.0472497708758981,0.0470808022923844
406,0.04715077055217646,0.047280531003189165
407,0.04721613963254445,0.04706786330657017
408,0.04722692946092688,0.047266183543035904
409,0.04719389770194876,0.04728117818637636
410,0.04722034134459105,0.04737871075850259
411,0.04721296960108286,0.04710047502708699
412,0.04722294372340424,0.047280916619249096
413,0.04720412709450217,0.04750441786580981
414,0.047214159301275926,0.04759269463223271
415,0.04718815584441455,0.04731869005731174
416,0.04723112944284265,0.0475474294354432
417,0.04720671329316761,0.04747158163701255
418,0.047233230342789236,0.047166568898223196
419,0.047267997294938344,0.04722067618179528
420,0.047166349035765914,0.0470637930343964
421,0.04718539766300258,0.0473544325300249
422,0.047229389919877816,0.04772411921041729
423,0.04728089217587912,0.04733197388386952
424,0.04717604779927946,0.04703712648614335
425,0.04713280071213329,0.04741687159147334
426,0.04725702924223588,0.04717834553465941
427,0.047190383620125405,0.04719437509128308
428,0.04722589101913355,0.04753788937568288
429,0.047215659893471464,0.04763884123505902
430,0.047217514088971436,0.047651257530595716
431,0.04718990707330757,0.04755802502254378
432,0.04721444643003573,0.04715107083791057
433,0.04717066199135342,0.047629073329840295
434,0.04722260083291504,0.04710494502849624
435,0.047244487903553616,0.04717062054394547
436,0.04720453569273964,0.04723364370856684
437,0.047166265472829295,0.0472885423443547
438,0.04717528009318191,0.04727098653600172
439,0.047210883282178595,0.04711137600566519
440,0.04719116896700611,0.047101008672717055
441,0.047259628541952224,0.04712615787818287
442,0.04720788285416141,0.0471769077490189
443,0.04720664154931748,0.0473410369535789
444,0.04724227614420876,0.04791578313522482
445,0.047196280846981215,0.04725773989178105
446,0.047210842808730884,0.04724646740443799
447,0.0472009315235104,0.04710643235726345
448,0.04719660362953858,0.04744577930906483
449,0.0471851272786931,0.047414904811670204
450,0.04719863371174637,0.047085437744314874
451,0.04725148610407404,0.04712859972511678
452,0.04720318043153349,0.04715328366916859
453,0.047183770629808865,0.047398426611896756
454,0.04725173429297886,0.04720516055939982
455,0.04719449531176775,0.047302080566782416
456,0.04717476450228434,0.047192766809661085
457,0.04720367885214819,0.04724207553415667
458,0.04719490853311728,0.04705717738926552
459,0.04722512305396304,0.047244998825612554
460,0.047188120923168084,0.047248427953862165
461,0.04717554507716049,0.04714354810958409
462,0.047228138061533635,0.04823713139546322
463,0.047214685426317723,0.047503871897613334
464,0.04722019925945811,0.04789118882159878
465,0.04720870440276407,0.04747314471236909
466,0.04717447114684027,0.04715526089566189
467,0.047176879844803225,0.0471273509678214
468,0.04721897980756611,0.04724906784818223
469,0.04721848302476888,0.04710967285998148
470,0.04721565212723877,0.047191194055018315
471,0.047184503617153754,0.04744314135955654
472,0.047168872918454195,0.04725605055348743
473,0.04722900927769576,0.047067864329775395
474,0.047207627098539845,0.0473571503042422
475,0.047204360365867615,0.047106625407863624
476,0.04715623912199748,0.047091300989594534
477,0.04723228014064588,0.04713158921324652
478,0.047176298127769474,0.047217237621240006
479,0.047234623498625034,0.04735334542151408
480,0.047192131360467196,0.04743964126849607
481,0.04722406039182707,0.04741942243034574
482,0.04715729782061516,0.04728240406856635
483,0.04726034129182879,0.04736847142617629
484,0.04719766599537848,0.04719246663711818
485,0.04711965197692815,0.047337814039405915
486,0.04725558056885438,0.0472150937534263
487,0.04721774564211746,0.04729438138553827
488,0.04718056359409476,0.04727061076682199
489,0.04720262129553597,0.04712102929719716
490,0.04721284506590866,0.04709858442608917
491,0.047181550934493874,0.04720028960855344
492,0.04721276278046967,0.047358129388155104
493,0.04719941501024006,0.04742745644373977
494,0.04721082692190135,0.04727238974436212
495,0.04722835443806734,0.04706866620218744
496,0.04715856085334131,0.0471078529130688
497,0.04723981374518858,0.047114340113600876
498,0.04718880466283035,0.047571102238091884
499,0.047156924188291906,0.04714847559251932
500,0.0472094303951394,0.04777457115799777
501,0.04721994522056706,0.04768441189095178
502,0.04723996369482326,0.04717258385719986
503,0.04718856922061228,0.04702770709403406
504,0.0472148136078692,0.04748546481779361
505,0.04716160272856315,0.04703184173110911
506,0.04718086876862531,0.047235370420313484
507,0.04718752265375533,0.04708344912437256
508,0.047236961149554745,0.047068168442246476
509,0.047184784523696066,0.04718087196655883
510,0.0472008846670413,0.047329741317687676
511,0.047267699323826844,0.04730293267621896
512,0.047140540887149786,0.04708289657884822
513,0.04720407251944597,0.04728201392158901
514,0.0471512718300382,0.04740585080673587
515,0.047217813038306654,0.04777084602647253
516,0.04721254556864905,0.047224504113103236
517,0.04719844667299045,0.04733554132417985
518,0.047203992970651094,0.04713844550566214
519,0.047180188240574225,0.04720134031977254
520,0.04717568489019391,0.04837774692636921
521,0.04724475359179371,0.04737764093863183
522,0.047161965881832406,0.04705697758492279
523,0.047210320974770875,0.047085622626914694
524,0.04721588322477375,0.0476639148762307
525,0.04725104489837952,0.047285860382320376
526,0.04714730059166702,0.047400242933487456
527,0.04722016224180527,0.04718120633709026
528,0.04718131222706333,0.04716859038128285
529,0.047233510787764804,0.047338812899406064
530,0.047171730601744684,0.04719327810060912
531,0.04721400773020195,0.047094509811173677
532,0.04717664658237133,0.047634588852936394
533,0.047193515131608854,0.04714984700213103
534,0.0471965710861053,0.047250010164332557
535,0.047176635903801376,0.047127807011567616
536,0.04717921095190765,0.047302030556156775
537,0.04717735184742202,0.04702641398314425
538,0.047190918937790025,0.04762561773350602
539,0.04717813588255982,0.04706115936294445
540,0.04721344166325865,0.047891641366453554
541,0.047242415836639254,0.047680432122456526
542,0.04716096748765424,0.04832342676906578
543,0.04722120146826207,0.04725377942893386
544,0.047202894004057354,0.04803325104120686
545,0.04722211399315882,0.047203121408408516
546,0.04721141209026321,0.047152919234632974
547,0.04717420460097938,0.04861409806638321
548,0.047212443182722844,0.047175058402597385
549,0.04714613312559067,0.047109679772497255
550,0.04721423075329676,0.047049026004235016
551,0.047209259931096356,0.047226890468794996
552,0.047189938022102196,0.04718936134744274
553,0.04716968031482493,0.04724988639178291
554,0.04720086485838337,0.04716208781797113
555,0.04720181568587522,0.047334786145797184
556,0.04717731129506128,0.047160629553524826
557,0.04723825266094898,0.04713857430309034
558,0.047202652207107475,0.04709167597666912
559,0.04718152236797922,0.04711251564165129
560,0.0472377179180094,0.0470944421796603
561,0.04717496124585327,0.047159171491955434
562,0.04723016666226107,0.04717563372031854
563,0.047211672515153506,0.0480854195596293
564,0.04718314549274487,0.04709191949069265
565,0.047148179831645855,0.0474114827223669
566,0.04722144240312439,0.04811758533908141
567,0.047180607557582625,0.047168725585504695
568,0.047216672286522286,0.04717775672121413
569,0.0472110059576855,0.04706555646098121
570,0.04720229803652262,0.04708009533695847
571,0.04715903028160882,0.04717197355644479
572,0.04718272154369085,0.04817949198392215
573,0.04720136966350839,0.04715691162265937
574,0.047164078448995124,0.04714977097621845
575,0.047244314844314336,0.04715410977801942
576,0.047275341447177745,0.04718992872944289
577,0.047153480145499575,0.04735897038052566
578,0.04726250826579918,0.047199815482301045
579,0.04713322408646226,0.04777607243528682
580,0.04721699342381754,0.04725424237049463
581,0.04719442443596088,0.04713651383826369
582,0.047215659363414174,0.047192944812087814
583,0.04719441924556839,0.04796606107617139
584,0.04714954313602474,0.047043138587201966
585,0.04722434839756369,0.04718402303584749
586,0.047177281867947986,0.047367698929751116
587,0.04721208974320016,0.047336738868289416
588,0.04720138209156519,0.0474425024884417
589,0.04715994692636098,0.04708172415031066
590,0.0471869397991829,0.04737379035861735
591,0.047206492457303594,0.047088207749042724
592,0.04715088498797253,0.04710481994753761
593,0.04725394382340302,0.04716681245929064
594,0.04716877929038472,0.04715368611813062
595,0.04719994217752934,0.047092485473136214
596,0.047182878586564135,0.047135228175014234
597,0.04718373055092627,0.047301508151082985
598,0.0472345302010969,0.04704078644125972
599,0.04716875350071515,0.047195869873571134
600,0.04720489758488943,0.04822385046210643
601,0.04717605841382564,0.047093367570130586
602,0.047188789508551904,0.04719140728451929
603,0.047221341593969735,0.04725280345285983
604,0.04714591615050912,0.047397345460322114
605,0.047217264025510075,0.04725367580000208
606,0.0471629491083318,0.047837225430672245
607,0.04721814495839661,0.047699468167706
608,0.0471541649616546,0.04736660063360842
609,0.04719336304536683,0.04722472074446757
610,0.04724944500233248,0.04719027995051788
611,0.047155200316906454,0.04708962697585738
612,0.047212604713216005,0.04894431508436575
613,0.04718609755005625,0.04750382334240892
614,0.047183464100356586,0.04741375601976146
615,0.047187314886185855,0.04713242006177214
616,0.047217077817574296,0.04710601816202301
617,0.047182450277937785,0.04711963349237344
618,0.04722739277417949,0.04704641001247569
619,0.04716302774143781,0.04732879057479544
620,0.04718365945922528,0.04723225548663474
621,0.04719674261621863,0.04738107658540441
622,0.04723612414293295,0.04745533360549099
623,0.0471337213591158,0.04722606790293928
624,0.047191814234335834,0.04776633447646248
625,0.04719313823705097,0.04703950223931198
626,0.04717719975075752,0.04710680615059861
627,0.04720182126338819,0.047284781588822156
628,0.04718119893327272,0.047306153282299694
629,0.04724568737705025,0.04769996610994215
630,0.04715494710883553,0.04729761270881169
631,0.04719549552690116,0.04739773369614026
632,0.04717126790192916,0.047380880665125205
633,0.04726953706372794,0.0477029700552561
634,0.047149955871984735,0.04710162744137746
635,0.04718076750981531,0.047431703898011934
636,0.04722863833883779,0.04719513637361417
637,0.04720248644062274,0.0472083048925874
