epoch,loss,val_loss
0,0.1490913653056875,0.05837953553462273
1,0.02986741407836179,0.02033527639430625
2,0.017109504345875923,0.01749548037413687
3,0.014183954474405288,0.012236468660797344
4,0.013029244411989844,0.012035457623921093
5,0.013230315685424087,0.012954932460362929
6,0.011524266028273509,0.007994399662552241
7,0.010825768429718965,0.00812552401673963
8,0.010539078645573425,0.012736811993559844
9,0.009974507802388639,0.011871925342001826
10,0.010217425314602341,0.014005618749132002
11,0.010527665442083594,0.012835496743286842
12,0.01037639496921689,0.008426201897699036
13,0.010636062060909376,0.008827339295494858
14,0.009258699565783417,0.008920740865423816
15,0.010256724085377382,0.007143426729158896
16,0.010733473437393812,0.009869649368261105
17,0.009576443004884201,0.01170929592329165
18,0.008939026361912024,0.006560363688806826
19,0.00870629113731827,0.005056944493448396
20,0.01056293349249287,0.009384019848697281
21,0.009602289215261808,0.0103929541415543
22,0.008843022209557174,0.009340797148897784
23,0.009412151742927569,0.009496793223672856
24,0.008329206763273127,0.00832716935853038
25,0.009102046962542316,0.009970386811747453
26,0.008823600802779032,0.010316935106200456
27,0.009223582022797338,0.007711272613581302
28,0.008596060596753378,0.01063569335762379
29,0.008619316450549478,0.007396984638480121
30,0.008903923068868575,0.008716861724753546
31,0.008724160367536614,0.009271786645960413
32,0.008698722507676584,0.0073960724348480205
33,0.008520886956842142,0.011343934763613986
34,0.009763699677623182,0.010049974506143143
35,0.008922137405840958,0.006955626102395197
36,0.008585191617212105,0.006301928379947074
37,0.007744217187621825,0.0064742068231588
38,0.008199863612922065,0.007973903112389859
39,0.007195137635090773,0.009554538326727516
40,0.008255330420253303,0.009637443231155576
41,0.009118441161963878,0.013416423314583988
42,0.00810363350643052,0.009728827959936532
43,0.006834717669734936,0.006210610265354755
44,0.0070136448766345335,0.0072733880878494495
45,0.008817552533789838,0.01199418749666134
46,0.008702399923732663,0.00822015871068179
47,0.007573365164975778,0.006878884712817778
48,0.008614427809563311,0.00869180267748747
49,0.008370279488961498,0.010471730026245211
50,0.008180063644269233,0.009766598489361903
51,0.008916627336516797,0.008432431417372557
52,0.006840779293729789,0.007446944409644712
53,0.007290653710392751,0.005747233251743342
54,0.007421061970765511,0.007175161967814063
55,0.008271889620852157,0.007098166648028
56,0.007341627474333778,0.0056785392371354
57,0.006408367750065909,0.00655697975175392
58,0.00819950877930031,0.006912513497126037
59,0.00765029335631613,0.005306594770978004
60,0.007643553430678325,0.010053609587522643
61,0.008589474568820948,0.007403091194171344
62,0.007036300895227153,0.009307908671213448
63,0.0076862027493419405,0.0063032116935733224
64,0.006171597275052139,0.007512007031042861
65,0.007329804682471365,0.01030701584452447
66,0.008204841949912956,0.004926261007668188
67,0.007188649562229928,0.006357807856076636
68,0.007366061021445794,0.008313978231646526
69,0.00833798053809892,0.006254729099245337
70,0.00839808014676356,0.011704944698220882
71,0.008089589796845707,0.005798319539888788
72,0.007299049929019621,0.005257882632097581
73,0.005947585319273835,0.007410371030703622
74,0.006852468140226015,0.008707763013395391
75,0.007873897470137795,0.0053834304567823375
76,0.00764797563548479,0.008115069508837756
77,0.007518423929364591,0.009101580660834309
78,0.0069275162500819915,0.00591120005114079
79,0.0074271698205766795,0.008576517834988934
80,0.00815719519739972,0.015241473880114993
81,0.00840500694867834,0.008477216532076073
82,0.0078010405397056035,0.00899824276331286
83,0.007373452872792773,0.007977827421618124
84,0.006079073640894588,0.0047286013302987925
85,0.008121361178595373,0.007910255063398673
86,0.005967652080111581,0.005850342388287621
87,0.006870028757892972,0.008118545992671856
88,0.0075901996153187185,0.009865694807220512
89,0.00812167971436646,0.006260873519778017
90,0.007264854247513548,0.00678082336631222
91,0.007514789539331989,0.007420304156369409
92,0.006143906327198259,0.009435782959536248
93,0.007233056656310527,0.005320059273012671
94,0.006313228059365012,0.00953334791993027
95,0.006683057189720283,0.007726407551075072
96,0.007575567283531388,0.007278709865712518
97,0.007049546406182239,0.007513195957662133
98,0.007632665714039821,0.009913293874860046
99,0.007525631858368697,0.007317099569184557
100,0.008311765426736352,0.0058910409334073785
101,0.007258228708444227,0.010585860302194
102,0.006133433647932474,0.0068447630960514864
103,0.0062552626683212206,0.0048941953339994
104,0.007032981132909798,0.010930212590205405
105,0.006036159980816575,0.003967639721302285
106,0.005292174364566702,0.004284469028545254
107,0.006293800312185959,0.0096655471012255
108,0.0069456233958089105,0.007325215186503287
109,0.007640647853789427,0.00396853233463386
110,0.008003550279289217,0.00955067516393495
111,0.007261882333712523,0.004332496887719774
112,0.006679898014289888,0.005579861928433204
113,0.006735525823638981,0.0059441069549724355
114,0.005696729425047573,0.00644100890050171
115,0.005897237558671974,0.006150461009673439
116,0.00650624188406171,0.007939893275281766
117,0.007428571649679659,0.010003592391904875
118,0.007489516763470704,0.010704116683362174
119,0.00872064926588966,0.008006348648794353
120,0.006633238132885225,0.009450532734135332
121,0.006840641874422451,0.008971818161932803
122,0.007708687840556677,0.009424936279195825
123,0.006482555376303246,0.007909634734203285
124,0.0075824480977647905,0.0063047468509369224
125,0.006328471295582465,0.006033421516486083
126,0.006483292675295697,0.007898431028744416
127,0.007432631374955427,0.005501155173677977
128,0.007022984321698171,0.006522037173403043
129,0.006734865017236768,0.008057551985884405
130,0.007375365676939767,0.006488774268393241
131,0.007466237370049853,0.016001221971570175
132,0.0070430762599781455,0.00673099376677279
133,0.0067401449539423956,0.006222128497632169
134,0.00639336844014717,0.008532592561463484
135,0.007029489640311764,0.00807740777325188
136,0.00717999425967582,0.009329713724447736
137,0.007196641052893693,0.005893373846105096
138,0.007183491924333183,0.0057301714523138965
139,0.006112579534166782,0.004460944007970422
140,0.006214364471068854,0.007575923382894863
141,0.007990955253508385,0.007121330223045508
142,0.006608705114603763,0.009425996446242554
143,0.007514971713025531,0.009018627193851225
144,0.007365777838244129,0.005862057673573588
145,0.0069533621331752775,0.0074326076174350405
146,0.006194694847003262,0.007879701416554325
147,0.00626976521461264,0.004519225888383511
148,0.0072827098870107965,0.00844620847589415
149,0.006908638105592985,0.00809973352070495
150,0.006781307442916287,0.003949725145368227
151,0.007404599922335447,0.008561437644487822
152,0.0065002815348828,0.007165470857381962
153,0.006207117769062418,0.008514523466103714
154,0.006953127132330409,0.007878005368621828
155,0.0069530866198914704,0.0058961396330516214
156,0.007293356056094354,0.005006713594215163
157,0.006018537856496239,0.007338648151103539
158,0.0061123664566255405,0.007220088443979798
159,0.006495273450287513,0.01034284587405569
160,0.006796458037011772,0.010021795454010921
161,0.0067794997919556335,0.006648502215572531
162,0.006085994394051639,0.00689253239615305
163,0.006125856778207723,0.00790796759990415
164,0.007054787703144321,0.008624067041955319
165,0.007423351345350035,0.010995108763604251
166,0.005829767251817538,0.004932182328297736
167,0.005064897523220661,0.004651621795952579
168,0.006761424119217986,0.006993799571068436
169,0.0061373824590919826,0.0048450982336310676
170,0.007187197920676473,0.006385997006112464
171,0.007914943162718123,0.003977579068710061
172,0.006990785462607583,0.008985091343333897
173,0.006568250089078296,0.006180551925919591
174,0.006137471669707164,0.00723134377940419
175,0.007283635598850801,0.006589266565652607
176,0.006612646964573704,0.007572909328283855
177,0.005938404684065194,0.007011751489582947
178,0.00649522263225433,0.005564071904741457
179,0.007729974861307402,0.003976146913822314
180,0.005425093610745689,0.006889042070013454
181,0.006504309820670107,0.006178444532946564
182,0.007116811099941645,0.005890649762489754
183,0.006278132644037513,0.004558113646556072
184,0.006592572829834998,0.008399578400879463
185,0.006313936056686099,0.00493150055423179
186,0.005203419392720032,0.007893673493434993
187,0.006226637180698076,0.005079126895508996
188,0.007257967823476112,0.005593921334262946
189,0.006097081352861302,0.005056109559084946
190,0.007134566102906478,0.0050918940273161324
191,0.00697621274812089,0.006580432123139254
192,0.00643399487397329,0.0037534385436268167
193,0.005375804756931829,0.0054087579443656796
194,0.006816396304647431,0.008633062977052713
195,0.007765809339631221,0.005120109825526624
196,0.005798029842310779,0.0066949293559862575
197,0.005682073415723815,0.007550933558182186
198,0.006897371098623245,0.004648430489779883
199,0.005419559782273401,0.007066748161956774
200,0.006859446273015575,0.006584010745200969
201,0.007008758409292721,0.007587429412053317
202,0.007470023980420783,0.006493662398355559
203,0.006847566408704487,0.007386271551107339
204,0.00650676273151586,0.007054434573952617
205,0.005750954918973565,0.0064895598154629695
206,0.007201103959977031,0.005449644970209959
207,0.005246507068950799,0.006296752343408546
208,0.006602415894094905,0.006934330491429958
209,0.00656014361515936,0.006437699294677732
210,0.0060321030932457016,0.005962113102261439
211,0.006931129883662861,0.004210438378281662
212,0.006358592685194408,0.004832109232780824
213,0.006110194751223792,0.0068763685236290254
214,0.0065015906089846845,0.006527975957249692
215,0.005985196537824331,0.005843798492483106
216,0.007215402528013048,0.004994394019872374
217,0.006371560924817517,0.005437514871497063
218,0.0052444612251692935,0.008083648376913643
219,0.005163963450744992,0.004891490986042942
220,0.005301312199417058,0.003971083422875783
221,0.00644666915923226,0.005357429960003122
222,0.006538041926407479,0.007867782029757702
223,0.006046321385426165,0.00673637947879126
224,0.006246758268686007,0.011219083360927775
225,0.006036115603593679,0.004521905186188414
226,0.006782917043031882,0.007529243460805659
227,0.005862668626472729,0.0069528513635055186
228,0.005908902272299903,0.005469893260426002
229,0.004975846240506898,0.004883273898667252
230,0.004837123069932296,0.00541522380239503
231,0.00618819371189663,0.006745015469107015
232,0.007367436687065978,0.008652164227378443
233,0.006517415157713586,0.0041104291612392655
234,0.006531491151937901,0.009013261246159025
235,0.006421500986678709,0.004407467903832492
236,0.006452129179273816,0.007458311073032179
237,0.006047944281734883,0.007270935852662752
238,0.006805469398852066,0.008085635012925706
239,0.006880419850490874,0.005945400072110268
240,0.005838952580117714,0.007357766049095939
241,0.0064350456985973305,0.006375786259949748
242,0.006852461586443545,0.00973393195165408
243,0.006623242493457557,0.004454495589636213
244,0.0056581241107522716,0.006772908093973747
245,0.006110296489374577,0.004859041422973045
246,0.006043362449932781,0.005441425472568506
247,0.0070836614852928985,0.007082390788598567
248,0.006961970961355655,0.003524233490425649
249,0.005649317140623236,0.007093211338982492
250,0.006418442987888265,0.008525809484821375
251,0.0065713645223130605,0.00535668955745371
252,0.005755840127057077,0.007644313137651948
253,0.00653233445196641,0.005494444185592993
254,0.006091333515152966,0.007139216378939815
255,0.006322495659517733,0.006245413272852562
256,0.006237303438171339,0.006547797802429949
257,0.005773160652872428,0.0047341913746371455
258,0.006560967430371127,0.005169551371910624
259,0.006379624652258641,0.006586393497622592
260,0.00657539008448435,0.006317572846814649
261,0.00543017091369517,0.005440503964531393
262,0.0064429706156098965,0.005474044659469738
263,0.006513212445202462,0.009300378769424456
264,0.00671020343819325,0.006092188811486833
265,0.006168724567391913,0.006383950142858766
266,0.006791147898579631,0.007509714209687056
267,0.006106908273731294,0.006168884510760973
268,0.006663864683568311,0.004919835161226607
269,0.006084277833473953,0.012959493649057638
270,0.00609467283049844,0.006112850918754312
271,0.006833526726196454,0.006729768527026311
272,0.006573292789411256,0.0054418861924067155
273,0.005790222768778269,0.003539304208376496
274,0.006195866999284868,0.0044320389939341235
275,0.006471854922317749,0.005832827617667892
276,0.007502679615266633,0.00534088812487666
277,0.0065544916213200475,0.005774876868371405
278,0.006899053829894822,0.006486633366551588
279,0.006373878608891021,0.007053742137088513
280,0.005553013815408309,0.007512419814230681
281,0.005829938285095211,0.004926574404697627
282,0.006802200788273204,0.006286439680271644
283,0.006448324218646978,0.0075446803743150544
284,0.005367961201759474,0.006387981328886846
285,0.0066403284390493455,0.005046190557253106
286,0.00639643708335535,0.00736844362345566
287,0.0058837972378892765,0.004408735376154238
288,0.005805967066218879,0.008643738453547692
289,0.006820031639495991,0.008023413630671382
290,0.005896177634482922,0.009933400409621053
291,0.006799932459643264,0.003888393506766448
292,0.005836929473151222,0.0076501465603950325
293,0.005846470040805209,0.0063766323407816435
294,0.0067624207029564325,0.008060608799742049
295,0.006609026854169174,0.008348531404696847
296,0.006640129824273949,0.006503362558861487
297,0.006836979864087018,0.007442160674547975
298,0.006359971285485726,0.007630467804805938
299,0.005446104112350725,0.00363861878520876
300,0.006164244827639452,0.004896477905661455
301,0.006125585839087568,0.006147162663517336
302,0.006328081484786499,0.005867787469590073
303,0.006081521372607858,0.00573439105952654
304,0.0062039696437818145,0.006821054074363437
305,0.006199333052017647,0.007935102374073126
306,0.005850958641801628,0.00644620398798959
307,0.005745971608694068,0.005598829071248434
308,0.006805985237376468,0.0077818786606321955
309,0.0058697789905966516,0.005097604657346184
310,0.006289562287492503,0.006208804606929739
311,0.0063270204941549306,0.006307152012067581
312,0.005735077515548225,0.006078251307843446
313,0.006550388077075193,0.006380659377389097
314,0.006159909266913734,0.004510541140353976
315,0.00505153437965452,0.0076586547904539835
316,0.005688689047858554,0.009204580661735623
317,0.006827426818031951,0.0077576187711970584
318,0.0065636582553295865,0.005848845403388601
319,0.005860346521501788,0.0070646727511302024
320,0.007057416799506522,0.008830457162802955
321,0.006154354279607737,0.005778977268867213
322,0.006566664659054124,0.008002960307989637
323,0.0063942372356895075,0.007767046288305625
324,0.005648750811256915,0.010633266586060588
325,0.005896604418450093,0.004860513759799002
326,0.005888298095157779,0.002938858229533167
327,0.00558180251628902,0.005877904075358854
328,0.005228973382493581,0.010289108106497477
329,0.00511023462683016,0.006594778941951592
330,0.005843748821955856,0.005144502945544217
331,0.00664347040418202,0.006183660038597676
332,0.006079711855931146,0.0052684651123214256
333,0.006523643946945132,0.007251277367489584
334,0.0060697590906566064,0.005212699682043825
335,0.005063034389331806,0.0048278963432927344
336,0.006225467598859331,0.008091499824988366
337,0.0067902893988604695,0.006799031917120447
338,0.006314202038895825,0.007387238271290402
339,0.0055490034760990676,0.005408655005656389
340,0.00593203402122112,0.004504016681038426
341,0.00582808059685641,0.0053531721722402245
342,0.005989871448747885,0.008873572980289677
343,0.005912959718031527,0.0085564549555142
344,0.006198816996203255,0.005305609448968
345,0.005144935120254469,0.004569839640949053
346,0.005931405820414799,0.005219281764279084
347,0.005920150016116605,0.004364165544712764
348,0.006234081125528597,0.008231495849232483
349,0.005957411164488587,0.008673747633925647
350,0.006172760501507666,0.008220187908783849
351,0.006762857179918276,0.005820767081474214
352,0.006433902865481957,0.006359150306848719
353,0.006011764445773168,0.0052372916596452835
354,0.006489705364629299,0.004746391668021914
355,0.00594492138150877,0.005331792799210516
356,0.0059956631264563715,0.007679267290276905
357,0.005051757383579426,0.003837073045939313
358,0.005340400142974848,0.0044152653491640525
359,0.006073913760955999,0.005394578928270487
360,0.005607148172980775,0.007101313699104462
361,0.0057756583130792625,0.009096273840732149
362,0.006570455112433482,0.009970579409549908
363,0.0057251440335272085,0.005666746753146659
364,0.006066698246716643,0.00689160168147407
365,0.005984448310680878,0.0036555911640724094
366,0.005588489246638797,0.004085304958513558
367,0.006757918131563047,0.005983763991839648
368,0.006601244861764058,0.005487316784587849
369,0.0052604292273531845,0.008117161970879609
370,0.005960324088943084,0.004745264238462546
371,0.006005901587865711,0.005462618345128638
372,0.005200854938780274,0.004363019020835433
373,0.005651691550225895,0.006645315367178646
374,0.006700589407073835,0.005283594927541035
375,0.006232008406185924,0.007937537592224889
376,0.0060927033828992805,0.005607634752653627
377,0.005452363990056667,0.00918726634378262
378,0.006591660187313174,0.005408727852796699
379,0.006341419730921366,0.006019971913039896
380,0.006434950558059245,0.004100936171124618
381,0.005889558257050455,0.0042074172997931
382,0.005818058397519669,0.009598898217699475
383,0.005535508123904669,0.006464906494061873
384,0.005510899428684685,0.005664730518424168
385,0.006058452624197064,0.006828782426144843
386,0.00573248737476778,0.008046033991399297
387,0.006315562173167317,0.007359890052247513
388,0.004486336211895765,0.003896720597524881
389,0.005404281619970473,0.007819241800381498
390,0.005671791341654557,0.0057289331189217816
391,0.006206438824110817,0.00437998413141367
392,0.005790063779786986,0.006158476857131828
393,0.006233362115187783,0.007665864585574654
394,0.0052125635819299685,0.004378663844942765
395,0.005852004943350754,0.008046757313698506
396,0.006366226148492337,0.006347446121722342
397,0.006136873432306303,0.0077990826481002095
398,0.0060876233217162755,0.003729162904586064
399,0.005637533855244821,0.004764745685241782
400,0.006348144511958744,0.005560226274996808
401,0.006078368463969643,0.007410295177162893
402,0.0056824402029005934,0.005465958390940618
403,0.005831957550356082,0.006586159971978547
404,0.005652339823695151,0.004840506586571825
405,0.005490777761877167,0.004226431443893308
406,0.005512925778902013,0.0043933181483195635
407,0.0054566904526132404,0.005589742348738891
408,0.005649103216442028,0.01068629527092568
409,0.006511207772336966,0.005055495771199418
410,0.005462127291488735,0.005246984579798125
411,0.006373760817151109,0.003350336876997008
412,0.005450483739951537,0.006362255473768937
413,0.006344570839821512,0.0037251333707918567
414,0.005979596364064713,0.0054280251424815495
415,0.005314611767468561,0.00461762353532375
416,0.005264271845126139,0.004630374578845811
417,0.006249151751417652,0.004964133072570966
418,0.006208809008051326,0.006887287134855939
419,0.005724873103247546,0.005016131751789126
420,0.0058934111705535265,0.0032884884649930315
421,0.005042354719133394,0.004915989978399184
422,0.00588499312931158,0.00903269032129596
423,0.00637660867967855,0.008315308692834936
424,0.006009489376500672,0.0052820796550537485
425,0.005946159582874692,0.007648909901472392
426,0.006182629591617867,0.005388604281521634
427,0.004700108455102459,0.006753703376797235
428,0.005318017894600173,0.007751679700676531
429,0.005832280620462079,0.006181899869436694
430,0.006084093781315434,0.005202791745823697
431,0.005296459908486991,0.004894245613289919
432,0.005811541780757217,0.004195991791079105
433,0.005865051607351205,0.006135024567705821
434,0.0060167586706172255,0.008427556807758918
435,0.005313862913022403,0.005136717038468738
436,0.005441905317015106,0.0063548766895423
437,0.0057669911559836435,0.006258671215699358
438,0.005415235555616857,0.0031512248573858574
439,0.005999622260798052,0.005154849814387787
440,0.006540665021564493,0.006719441606641851
441,0.006396221333752118,0.0054662212506730486
442,0.005412174419010077,0.0066030025195503855
443,0.005547302765034729,0.005059811363809675
444,0.005957057145029622,0.007058447176530287
445,0.005764617849674395,0.007151180983027818
446,0.005887680228235279,0.004939648359881651
447,0.0054033367691165525,0.0066801371334389665
448,0.005202200467256065,0.004686032396527309
449,0.005818201094507713,0.008760976433112994
450,0.006444369449181933,0.007305534740640902
451,0.005720097434630306,0.004655466162126979
452,0.005915055283718258,0.004005340869033499
453,0.006000954405606377,0.0068594127016519835
454,0.005925998819037545,0.0065169334113921295
455,0.006224002961038078,0.004495792909750999
456,0.005425276310774211,0.005779285488492899
457,0.0064902731615173025,0.008726945229245154
458,0.006474429007368735,0.006547296493613377
459,0.005650715139466706,0.0038725649778111513
460,0.00579554107573202,0.006051207730515721
461,0.005792875510292779,0.004533889571876628
462,0.004953333875908852,0.0033612803158356904
463,0.005897043877914786,0.006419174811246363
464,0.006283276262030535,0.0039935947352492535
465,0.005039934201153378,0.006366688648243189
466,0.006224412454026405,0.011172596795959272
467,0.005905613431511231,0.00400391527658862
468,0.006100566463833816,0.00507669316034326
469,0.005394183405150892,0.005796170454610495
470,0.005676126829516009,0.00437951283183922
471,0.005627106935575717,0.004424871411909597
472,0.006441526288307345,0.004650784234480305
473,0.0057626137853139265,0.00677037778830166
474,0.005676174331341031,0.006228469527931479
475,0.005543843995006256,0.00722428586741214
476,0.0056705914169206,0.007559046308762131
477,0.005552511244136051,0.008848565178552103
478,0.0063115658742345145,0.006704658085749365
479,0.005576719415372611,0.004670916750715441
480,0.004736290836567543,0.0033011249415047213
481,0.005587506875433743,0.004616730175353734
482,0.006039173347033489,0.006698818068772014
483,0.004924936770486811,0.007092281423315065
484,0.005502822681432136,0.004676500441552079
485,0.006608839376831798,0.007731978604004034
486,0.0063084595142301626,0.010161049919821846
487,0.00536116382930142,0.004940552389265377
488,0.005014997505438443,0.004330494966293261
489,0.005651530127865906,0.007392995639821043
490,0.005537265290909683,0.004342835918789246
491,0.005986318563306175,0.004147873157172243
492,0.0065516217274488595,0.008214374930298671
493,0.006238692750998711,0.007075664634730346
494,0.005893455142788827,0.004411483642181357
495,0.0052718962390097875,0.004029719020264266
496,0.005208705935227446,0.005883222816683993
497,0.00635891362753355,0.004656693773180976
498,0.005653860840684385,0.004407123840783724
499,0.006080477784996738,0.00461605514804726
500,0.0060264632214891084,0.005261619931091309
