epoch,loss,val_loss
0,0.5102610432450971,0.5013344976160665
1,0.5014874278882605,0.5014412945767367
2,0.501369448884218,0.5012689548881353
3,0.501323447884345,0.501051243868483
4,0.5012429584428376,0.5011159124896132
5,0.5011959131778865,0.5012763319544439
6,0.5011996538042719,0.5022273962367465
7,0.501125920432724,0.5011785424321686
8,0.5010877447587158,0.5013052788597829
9,0.5010659807221853,0.5013622435403472
10,0.5010342855690668,0.5008974939475878
11,0.5010126032457254,0.5022680439067981
12,0.5010092404807704,0.5015069329021127
13,0.5009664069147973,0.500853304557617
14,0.5009608872593381,0.5008231500547917
15,0.5009586583476558,0.5010324334064628
16,0.500942560769748,0.5009054127327502
17,0.5009261844706027,0.5011078874629813
18,0.5009418355672166,0.5008515830132362
19,0.5009245548327518,0.5011258108314491
20,0.5009024353848865,0.5009028776848299
21,0.5008986476232394,0.5010598555327939
22,0.50089711879587,0.5008349497724909
23,0.5008671583084139,0.5011341060809489
24,0.500898436617504,0.5009517989519079
25,0.5008735728929447,0.501533409428252
26,0.5008807891776365,0.5008138797814001
27,0.5008762959855705,0.50081158388564
28,0.500877727131242,0.5009326401761321
29,0.5008762794909305,0.5007987256246615
30,0.5008773701202165,0.5012185114261478
31,0.5008692824064443,0.5011732310496835
32,0.5008575365343594,0.5010442852557453
33,0.5008602680198392,0.5008495226159292
34,0.5008638380681726,0.5009054115590206
35,0.5008427175935543,0.5009444343375463
36,0.5008465649401261,0.5008586439581661
37,0.5008402996419077,0.5007989065825457
38,0.5008435248078362,0.500970390300363
39,0.5008262228648503,0.5008760014043377
40,0.5008297215467113,0.5008382080603502
41,0.5008290483660706,0.5008727156852794
42,0.5008307375920014,0.5009057538526785
43,0.50081336919678,0.5008015745127601
44,0.5008260583952815,0.5008486496544611
45,0.5008142229369741,0.5007836092023863
46,0.5008130636452293,0.5007925235327793
47,0.5008095332834996,0.500819111075764
48,0.5008110464223849,0.5008983296242067
49,0.5008145285472906,0.5008546443274802
50,0.5008151204872349,0.5007667616281847
51,0.5008038834607126,0.5007922671769599
52,0.5008013321534003,0.5007728689981866
53,0.5008031231379526,0.5008239285830791
54,0.5007982549280877,0.5007877977420285
55,0.5008064223219116,0.5008512050580729
56,0.50080110747457,0.5008627519648057
57,0.5008130001924136,0.5007800999398797
58,0.5008008508121823,0.5007778797023577
59,0.5007942006014318,0.5007674730598349
60,0.5008011861141917,0.5014775544901926
61,0.5008013012083009,0.5007619534870433
62,0.5008006219554618,0.5009803765772713
63,0.5008129371296606,0.5011461935754009
64,0.5008066227975339,0.5015925254417787
65,0.5008060555932391,0.5007560632049763
66,0.5007958885648849,0.5011198764445953
67,0.5007968232278883,0.5014544720969276
68,0.5007929177722404,0.5007893286310569
69,0.5007939032869466,0.5007300512533596
70,0.5007899666795331,0.5010953407183855
71,0.5007982606149561,0.5010011797388981
72,0.500781893344045,0.5007257206829574
73,0.5007947943650863,0.5010961064350345
74,0.5007857375251541,0.5008626200574645
75,0.500797559539908,0.5008292889498484
76,0.5007951478801411,0.5008825599645572
77,0.5007824844450982,0.5007423415190836
78,0.5007949201589011,0.5007353743920728
79,0.5007924852397277,0.500839165118605
80,0.5007837384664493,0.5007376504480148
81,0.5007902035500882,0.5008370821033373
82,0.5007825699977813,0.5007299004906186
83,0.5007925289468558,0.500844758030572
84,0.5007863711166082,0.5007256403676628
85,0.500784288301717,0.500793682306896
86,0.5007991324112239,0.500921575241625
87,0.5007817942815489,0.5008572835013169
88,0.5007824465723447,0.5009033740967707
89,0.5007863455953118,0.5007395466651465
90,0.5007837555187724,0.5007311711287488
91,0.5007777154472073,0.5007330509278629
92,0.5007953104538241,0.5008943407085371
93,0.5008006514783511,0.5009181666785012
94,0.5007735541716123,0.5007873869650284
95,0.500789482001288,0.5014084507751904
96,0.5007822003958973,0.5008838748494576
97,0.5007920180354204,0.5008774598439535
98,0.5007842269585524,0.500717858255752
99,0.5007913970892522,0.5009246870215136
100,0.5007795679117812,0.5008019845940412
101,0.5007847347049196,0.5007357318684925
102,0.5007886746004544,0.5007774004704123
103,0.5007832018518987,0.5007799451874043
104,0.5007860924987039,0.5007316948819657
105,0.5007874081408779,0.5012610311856133
106,0.5007730623412989,0.5008423574030996
107,0.5007903813815695,0.5009109798936554
108,0.5007791428898475,0.5008183428791377
109,0.5007766122266684,0.5008703574966548
110,0.500779901024865,0.5007251277838091
111,0.5007758580214627,0.5007558383316166
112,0.5007719651113173,0.5007685181714816
113,0.5007809426387795,0.5012756954237868
114,0.5007950317621668,0.5010581132304353
115,0.5007999038663475,0.500762744959487
116,0.5007764623093145,0.5012762288176789
117,0.5007866266916321,0.50087580493713
118,0.5007923233834602,0.5007457181170041
