epoch,loss,val_loss
0,0.7044929776768672,0.7009289109775031
1,0.7009616884016584,0.7008438101122639
2,0.700856399848735,0.7008838592038299
3,0.700839486951604,0.7007529182350406
4,0.7007731343907161,0.7006548418920343
5,0.7007470209836113,0.7006322333258789
6,0.7007034081868982,0.7007207870862021
7,0.7006859844158,0.7007323993289776
8,0.7006650432638932,0.7006485763998169
9,0.7007115494642746,0.7005403500114791
10,0.7006041969997072,0.7010888075126207
11,0.7006145371184479,0.7005301071042501
12,0.700615997460839,0.7005518613560949
13,0.7005968170133454,0.7007606324504742
14,0.7005971382920317,0.7005294159572996
15,0.7005668817561178,0.7005392325403427
16,0.700567075132127,0.7005249808302981
17,0.7005666158525196,0.7005237908008952
18,0.7005465883341533,0.7005048360411129
19,0.7005582699606766,0.7004885710864592
20,0.7005546309749868,0.7005466568256079
21,0.7005348375375771,0.7005344142379203
22,0.7005409745726359,0.7004971090377049
23,0.7005369365627451,0.7005471223419538
24,0.7005308300843006,0.7004894585633668
25,0.7005285250043134,0.7004920799514122
26,0.7005270275507572,0.7005242583050091
27,0.7005288861013336,0.7004926405020019
28,0.7005217751142236,0.700597012593895
29,0.7005149995431051,0.7004900884018713
30,0.7005250032125239,0.700497327611733
31,0.7005109103084083,0.7006211060985074
32,0.700511298468044,0.7004911588386296
33,0.7005110868983152,0.7006043291989255
34,0.700509986145938,0.7005808470181781
35,0.7004994928276379,0.7005170310927474
36,0.7004980422801964,0.70098137522342
37,0.7005126113920062,0.7007353604218497
38,0.7005016551581156,0.7006814440403815
39,0.7005013384793284,0.7005057124764423
