epoch,loss,val_loss
0,0.5583075715174476,0.5518537612686049
1,0.5513138446752992,0.5510502146438359
2,0.5511834920689115,0.5510191162777492
3,0.5511863429778406,0.5509058184210641
4,0.5511112902216473,0.5514292721996729
5,0.5510519814166916,0.5509464969725122
6,0.5510470729530742,0.5521685108364963
7,0.551007081264641,0.5508565092741808
8,0.5509834811059378,0.5516834352221662
9,0.5509409667500176,0.5512942939698554
10,0.5509159104374622,0.55077070427524
11,0.5509309274815674,0.5508020479082398
12,0.5508982621693524,0.5508148191617711
13,0.5508929732120722,0.5508791057764774
14,0.550867391286783,0.5508416016243441
15,0.5508354955223682,0.550837513433859
16,0.5508335726508996,0.5507222834855616
17,0.5508263233536582,0.5507214422715889
18,0.5508029427923224,0.5507342770579733
19,0.550803347471051,0.5509174206966027
20,0.5507949433841525,0.5507370959639039
21,0.5507948358246806,0.5507475624666416
22,0.5507901694562487,0.5509152202563038
23,0.5507754438074581,0.5507583941696976
24,0.5507813305958509,0.5508232439522216
25,0.5507799844522787,0.5507110908606213
26,0.5507648013649447,0.5507840053588791
27,0.5507610303574534,0.5510132049679358
28,0.5507728966594991,0.5512963553894431
29,0.550779751656675,0.5509186790862953
30,0.5507474687659554,0.550700058075896
31,0.5507495189619092,0.551312684265038
32,0.5507629271333777,0.5511711680957282
33,0.5507434683574701,0.5511475459098513
34,0.5507570887888693,0.5506914191602317
35,0.5507445377727135,0.550733927679342
36,0.550749599446539,0.5507188592285358
37,0.5507340016717615,0.5507332813565611
38,0.5507359873283247,0.5508136568995947
39,0.5507262568612897,0.5507488671192692
40,0.550740672026939,0.55099311354559
41,0.5507299017148781,0.550818221823117
42,0.5507394941541728,0.5508185920354505
43,0.550739728567215,0.5507346189824743
44,0.5507202143763847,0.5507275293474256
45,0.5507216263159092,0.5508342230198817
46,0.5507238117310737,0.5507092903355899
47,0.5507333594492352,0.5507786968065971
48,0.550718784570888,0.5507723941052549
49,0.5507216969188211,0.5507425787629865
50,0.5507133325177377,0.5506548702726293
51,0.550716114383611,0.5506707412611214
52,0.5507230341986246,0.5507689460991336
53,0.5507125539168563,0.5506572706161349
54,0.550714519757923,0.5508809924807192
55,0.550714939247199,0.5507704298685936
56,0.5507062305825259,0.5510137929875869
57,0.5507128181418837,0.5507803194263879
58,0.5507107235691089,0.5507860710521681
59,0.5507035393267402,0.5507729186630446
60,0.5507115620810847,0.5506787877935104
61,0.5507057986518692,0.551488442876821
62,0.5507064163789361,0.5507001320445313
63,0.5507176318490755,0.5506612787232317
64,0.5506979466289986,0.5506687381162669
65,0.5507054117625992,0.5506812306989162
66,0.5506932186921992,0.5507064832758105
67,0.5507060476916681,0.550653163286283
68,0.5507065788429757,0.5506497327630551
69,0.5507062297897799,0.5507588582472781
70,0.5506981736020597,0.5506629016269895
71,0.550695469774741,0.5506580218362755
72,0.5507011685931795,0.5506766348182729
73,0.5507062060176521,0.5506670205474221
74,0.5506993043939916,0.5514490151378831
75,0.5507034634222895,0.5508208706423614
76,0.5506992731333714,0.5509176510363245
77,0.550696956405933,0.5506387007734369
78,0.5507059845322868,0.5507826722717027
79,0.5506944478331557,0.5506667849069855
80,0.5506906647293847,0.5506791984995187
81,0.5506973711876384,0.550674778597874
82,0.5506975661116716,0.5506942938987804
83,0.5506922454051083,0.5506472999290074
84,0.5506895834694896,0.5506634317647281
85,0.5507011965120399,0.5508966341233734
86,0.550695796385335,0.5506743763919404
87,0.5506879200539512,0.5506481860476069
88,0.5507003608018889,0.5507512062963122
89,0.550695266883807,0.5506644479732807
90,0.5506874675974816,0.550694834737337
91,0.5506884431058391,0.5507378111202527
92,0.5506805949863555,0.550994200977765
93,0.550687267446057,0.5506754037840548
94,0.5506802119022666,0.5506467816421526
95,0.55069202595643,0.5506881943709967
96,0.5506852645308988,0.5512600578977056
97,0.5506948754739123,0.550647233182596
