epoch,loss,val_loss
0,0.556574984828737,0.5511276231448916
1,0.5513386438064352,0.551202720534296
2,0.5488565023443596,0.5023023154984699
3,0.501255888707138,0.5010739335876354
4,0.501208101868463,0.501569132270445
5,0.5011539821726448,0.5011363389691947
6,0.5011180386720155,0.5011087594447636
7,0.5010824826960363,0.5009899486222493
8,0.5010376774494948,0.5009786933210894
9,0.5010208789018438,0.5010085259995347
10,0.5009885132906349,0.5012461801114415
11,0.5009752521656751,0.5009264838455101
12,0.5009499618407889,0.5008577463578398
13,0.5009546231683812,0.5009098934837612
14,0.5009332108677624,0.5011420730126932
15,0.5009438019466407,0.5009788815059302
16,0.500934920739404,0.5010543748208677
17,0.5009291175916382,0.5011087458853459
18,0.5009307104082087,0.5014273472271099
19,0.5009015032705025,0.5007767211033538
20,0.5009035285154638,0.5008832440076034
21,0.5008819163387124,0.5017412270281605
22,0.5008832988476374,0.5008658959323382
23,0.5009008663940824,0.5008232464331454
24,0.5008824219714844,0.5008115969765123
25,0.5008677352977982,0.5009085721812098
26,0.5008595869764194,0.5009710991763114
27,0.5008406052167281,0.5017448242825328
28,0.500850042574776,0.5007657290584079
29,0.500833352714584,0.500785214254094
30,0.5008377118020165,0.5008106565066551
31,0.5008233910287606,0.5010020819489532
32,0.5008361231905498,0.500766990874634
33,0.5008328281722545,0.5008713898676548
34,0.5008081647797553,0.5008419434125412
35,0.5008226819386947,0.5007890610632791
36,0.5008083349164726,0.5008728707737822
37,0.5008320136043654,0.5008861989052651
38,0.5008485229803348,0.5016870030111901
39,0.5007947071918094,0.50075690515253
40,0.5008143845751379,0.5008485491065273
41,0.5008089683758022,0.5009963498790245
42,0.5008172333061846,0.5008120305986467
43,0.5008124892320724,0.5008893307852749
44,0.501116916356945,0.5007645977060247
45,0.5007756103435306,0.5008096235866526
46,0.5007885419046215,0.5008286009265333
47,0.5008055423441888,0.5007422508579294
48,0.5007867946899069,0.5007406345800651
49,0.5007953129637923,0.5011754184984983
50,0.5007915837150878,0.5007733467866338
51,0.5007933807047903,0.5009044387453375
52,0.5007917055376786,0.5008917886036738
53,0.5007993857661646,0.5010050681113667
54,0.500787003353689,0.500967181877085
55,0.5007797488460156,0.5007673240813525
56,0.5007993788960929,0.5007228434691642
57,0.5007877962839488,0.5007421434663942
58,0.5007842389905447,0.5009029692830748
59,0.5007906647228206,0.50076909355934
60,0.5007867044967014,0.5007352712695061
61,0.5007833894325792,0.5007726345220141
62,0.500771805810374,0.5008994429541596
63,0.5007953330975705,0.5007341564581926
64,0.5007863744800601,0.5009021437819352
65,0.500775044163101,0.5008401900591387
66,0.5007950246700474,0.5008072725397946
67,0.5007794357578554,0.5007690985666223
68,0.5007809318763642,0.5009859492471337
69,0.5007885462812898,0.5009598103008025
70,0.5007867679286138,0.5007275927629057
71,0.5007818603890779,0.50083871679172
72,0.5007809486017287,0.5007311635184367
73,0.5007817182181546,0.5007587611457555
74,0.5007820712055008,0.500746012292477
75,0.5007731012603983,0.5008107771783741
76,0.5007920260772575,0.5013586265408124
