epoch,loss,val_loss
0,0.5056092165827548,0.5013781335451536
1,0.501563333483836,0.5012672700654027
2,0.5014299966964663,0.5011036907214295
3,0.5013332662882174,0.5014650574303324
4,0.5012589338818451,0.5012391968598456
5,0.5011679931482284,0.5011278046006643
6,0.501140562068573,0.5013462441231081
7,0.5011286537691279,0.5013066795736679
8,0.5010790535198635,0.5014201642947479
9,0.5010714360689786,0.5008839254428872
10,0.501052451778416,0.5015528736624506
11,0.5009971491674142,0.5012925829757902
12,0.500978048050533,0.50104533938334
13,0.5009750929637264,0.500857008588263
14,0.5009632919322907,0.5009343937945703
15,0.5009271357035767,0.5010135616880571
16,0.500944662181831,0.5010195572035112
17,0.5009265988894592,0.5008388443827648
18,0.500922141831627,0.5008976874615402
19,0.500915561946919,0.5013239522131356
20,0.5009046911592231,0.5008976831452437
21,0.5009202614229511,0.5008351805807579
22,0.5008868080765709,0.5011694805052652
23,0.500884622886215,0.5008369273603275
24,0.5008896846266944,0.5008149193698913
25,0.5008839795633099,0.501201956796896
26,0.5008915555019084,0.5008749192823432
27,0.5008826410080136,0.5008309209405458
28,0.5008806405637779,0.5008776054858253
29,0.5008711877996368,0.5011599679655436
30,0.5008823599858405,0.5008059445971512
31,0.5008612622894594,0.5008167126537676
32,0.5008629439914017,0.5008788612630228
33,0.5008564670149942,0.5011414251754223
34,0.5008774419236852,0.5007951262973311
35,0.5008611511275285,0.5008785406880971
36,0.5008691351493254,0.5008118493378645
37,0.5008647804697187,0.5008745120880583
38,0.5008497391245941,0.5008165945566816
39,0.5008638108805319,0.500819843331651
40,0.5008454557310019,0.5009151355972626
41,0.5008546255112193,0.5008503068756145
42,0.5008487956526435,0.5008285499402828
43,0.5008300556367264,0.5010214111190457
44,0.5008607510932666,0.5007934932985513
45,0.5008422054362061,0.5009162324287408
46,0.5008486395420102,0.5008215165259404
47,0.5008311663855923,0.5009007886021368
48,0.5008427939188308,0.5007819026561887
49,0.5008344069169907,0.500903555007327
50,0.5008419285607655,0.5008231031292674
51,0.5008452632163646,0.5007936358451843
52,0.5008314431860966,0.5008987482244938
53,0.500858959192915,0.5008267882761168
54,0.500833207609317,0.5009042948687931
55,0.5008535680668361,0.5008336776340692
56,0.5008241282057018,0.500812459724639
57,0.5008405277117981,0.5008175062796266
58,0.500831394800978,0.5014198660916784
59,0.5008373520881608,0.5007912212181455
60,0.5008388675559842,0.5007757235514241
61,0.5008358045646049,0.5009254938376334
62,0.5008376797107877,0.500834015086092
63,0.5008229895600621,0.5009539482308434
64,0.5008254820609973,0.5008023686828889
65,0.5008233171834778,0.5010740416275616
66,0.500830625156944,0.500772750546142
67,0.5008325301162954,0.5010787153009273
68,0.5008221231319868,0.5009318209885226
69,0.5008408029839985,0.5007674177430897
70,0.5008206097339801,0.5008414582362227
71,0.500827856098061,0.5007868339490262
72,0.5008205952215997,0.5008195762513497
73,0.5008335991162344,0.5007980210981389
74,0.5008196205115099,0.5007677322127279
75,0.500823785621866,0.5007948044824169
76,0.500821161217844,0.5007833875757144
77,0.500833445516358,0.5007887347853522
78,0.5008218062820297,0.5008305329234899
79,0.5008161827003209,0.5013279341763498
80,0.5008203622429941,0.5009198272267996
81,0.5008231412317118,0.5009112893891406
82,0.5008216143550498,0.5008414386283108
83,0.5008279421654375,0.5009897708353285
84,0.5008209058802494,0.5008144304215463
85,0.5008327351957608,0.5010563087014711
86,0.5008168002522737,0.5008929836308935
87,0.5008128540056991,0.500782223713858
88,0.5008241966358584,0.5007667767257563
89,0.5008195238868066,0.501040844405589
90,0.500823716033748,0.5007576047900898
91,0.5008041172249651,0.5007953527135774
92,0.5008170090615898,0.5007811856445896
93,0.5026914996040901,0.5008464857275683
94,0.5009040320232031,0.5010225301614655
95,0.5008680376381358,0.5008642975633175
96,0.5008519689382714,0.5007954808394266
97,0.5008524514934558,0.5007789867187807
98,0.5008270961689132,0.5007722798142714
99,0.5008118014369014,0.5007631248929528
100,0.5008226829089213,0.500840931193723
101,0.5008298950595014,0.5010206731932871
102,0.5007992074799388,0.500748670331179
103,0.5008099360872458,0.5007977006604638
104,0.5008031347112565,0.500838257418524
105,0.5007985628137038,0.5009176955301459
106,0.5008026555396385,0.500778756549439
107,0.5008214471712131,0.5009769775932964
108,0.5008144488238548,0.5007847366454924
109,0.5008306039914125,0.5007917140189743
110,0.5007985855599945,0.5008911665742579
111,0.5007936946945512,0.5007656498600495
112,0.5007993229088944,0.5008191510866952
113,0.5008001207936199,0.500752003269194
114,0.5007987926094931,0.5008550187661872
115,0.5008033046503788,0.5012037789318057
116,0.5008008110707567,0.5011456466836174
117,0.5008011167887447,0.500748578671408
118,0.5007978697891694,0.5008938131832936
119,0.5008117884102298,0.5007399369870668
120,0.5007997281804077,0.5007617933675943
121,0.5008046579550905,0.5008137670986157
122,0.5008087299102894,0.5008100236723002
123,0.5008090366351832,0.5007660671162268
124,0.5007988237281289,0.5008488520897058
125,0.5008055164142929,0.5012592914626204
126,0.5008024337837143,0.5007485800155178
127,0.5007943231808781,0.5007546370760569
128,0.5007915960259217,0.5007436053136123
129,0.5007904699052755,0.5011244890082918
130,0.5007933370524841,0.5015931555926468
131,0.5008114907084427,0.5008080733452824
132,0.5007909374708543,0.5007495828066362
133,0.5008011321952323,0.5007617575688382
134,0.5008061988156355,0.5008308513355346
135,0.5008076141706729,0.5007473064335979
136,0.5007889786497316,0.5007550017084416
137,0.500787685023812,0.5008285863732315
138,0.5008167326038199,0.5011034173370639
139,0.5007940708521691,0.5010517837084227
