epoch,loss,val_loss
0,0.5051626284175459,0.5015956772515295
1,0.5016425079331422,0.502350400615651
2,0.5013884337565222,0.5015754912918818
3,0.5012664466117622,0.5013010902728129
4,0.5013234033091404,0.5011343602076284
5,0.5010782018723613,0.5009288694984633
6,0.5011073398861594,0.5013585189505003
7,0.5010665027837323,0.5010224557810782
8,0.5010289656067382,0.5008794236688627
9,0.5010165630305099,0.5009726438329999
10,0.5009986436783443,0.5009903618035022
11,0.5009709126716914,0.5011130138741839
12,0.5009776876003306,0.5020499928226277
13,0.500946283075811,0.5008357290911527
14,0.5009401803145963,0.5008691919167988
15,0.5009458526008885,0.5008951353188146
16,0.5009391105641121,0.5008570419827661
17,0.5009228459632832,0.5009121021685646
18,0.5009036949033993,0.5008174341804398
19,0.500889654016047,0.5011928034941886
20,0.5008990747000026,0.500814866130837
21,0.5009044755429397,0.5008299504317271
22,0.500896177555046,0.5008874805329129
23,0.5008801619494486,0.5008823908102291
24,0.5008719335260091,0.5010522041166323
25,0.5008544497073536,0.5012696407154399
26,0.5008728316544617,0.5008077385388842
27,0.500849546096841,0.5013344638050786
28,0.500846722718287,0.5009366054278963
29,0.5008439256766508,0.5007867787695317
30,0.5008497995255344,0.5008548495834624
31,0.5008426204218168,0.5007873216242531
32,0.500830213467737,0.5008171097293664
33,0.5008300646894133,0.500828460178357
34,0.5008325714522843,0.5008625341527553
35,0.5008171761271061,0.5008004122884459
36,0.500827662563897,0.5009998206876849
37,0.5008135924490619,0.5008207327679299
38,0.5008232378568095,0.50152756877886
39,0.5008507909160272,0.5008342390412922
40,0.5008138369883506,0.5007475313542854
41,0.5008225109212799,0.5007636905076183
42,0.500810326892918,0.5007908820386574
43,0.5008095486671119,0.5010408565925003
44,0.5008155060477678,0.5009727060501398
45,0.500802400439079,0.5007869261057392
46,0.5008210951919561,0.5007858779319831
47,0.5008255695296806,0.5007767695386353
48,0.5008114573713011,0.5007984334274911
49,0.5008209244715253,0.5007911316644621
50,0.500798562966337,0.5008152834248766
51,0.5008029714465828,0.5008577649955316
52,0.5008047616612643,0.5011053494334088
53,0.5008060867592031,0.5008913627338348
54,0.5008031018615945,0.5008138976239848
55,0.5007825191259642,0.5008206755959346
56,0.5008115858809614,0.5008790943998183
57,0.5008145375234637,0.5007307148791882
58,0.500875184044036,0.5007810530793919
59,0.5007960494635467,0.5007425566003193
60,0.5007962027648615,0.5007681913066898
61,0.5008024783052804,0.5008138717593362
62,0.5008043373267715,0.5007449202789699
63,0.5007861659081736,0.5008486993249984
64,0.500792974691803,0.5007877713851707
65,0.500794071498198,0.5008030584005395
66,0.5007948940254944,0.500926475567876
67,0.5007952998294491,0.5008027912492465
68,0.5008006207596378,0.5018375412621194
69,0.5008074064988094,0.501067628297462
70,0.5007949339747693,0.5007631634603857
71,0.5007976982282701,0.5007436092323551
72,0.5007909951535828,0.5009208904886617
73,0.5007877660207688,0.5008823829916748
74,0.5007940447167902,0.5007425207116404
75,0.5007944095838899,0.5008928718946652
76,0.5008153231505996,0.5008320853561375
77,0.5007933221595067,0.502037413369782
