epoch,loss,val_loss
0,0.6580421960632623,0.6505824156789567
1,0.6337433406850129,0.600688467161827
2,0.6006869275623146,0.6006628441159838
3,0.6006277429401379,0.6004863468648186
4,0.6005884939682281,0.6007554627233936
5,0.600541605774566,0.6004527499894646
6,0.600519033178244,0.6006438888332093
7,0.6004969972280314,0.6006297403470459
8,0.6004747925387979,0.6003632631254551
9,0.6004302597158228,0.6003460946804833
10,0.6003953868328277,0.6005150057837626
11,0.6003983179936441,0.6006322773159586
12,0.6003692006864773,0.6003614268291085
13,0.6003675641804164,0.6003638520725904
14,0.6003547481176604,0.6007204668397643
15,0.6003414681174533,0.6002879724609053
16,0.6003321994780497,0.6003394819962475
17,0.6003343922988615,0.6004760123068287
18,0.6003096438462662,0.6009690365483684
19,0.6003205569746717,0.6003292323933641
20,0.6003195577518394,0.6002880660535088
21,0.6003068531710124,0.6002997715774896
22,0.5750165682996611,0.5503245437411457
23,0.5503371761687369,0.5503493296597199
24,0.5503245832646793,0.5502938112609144
25,0.5503303640656546,0.5503167035266129
26,0.5503503576403624,0.5502641273491435
27,0.5503138880382212,0.5508344367479272
28,0.5503179321456484,0.5504567691765115
29,0.5503137773285551,0.5503141279256077
30,0.5502956138856689,0.5503240193090131
31,0.5503004001344636,0.5502832164539593
32,0.5502894281224022,0.5503243378906628
33,0.5502987924450843,0.550294341934526
34,0.5502959383464686,0.5503741745025881
35,0.5502982912520678,0.550314992828937
36,0.5502809082718212,0.550245169729512
37,0.5502963721782931,0.5502829576544371
38,0.5502807341600916,0.5502626329734367
39,0.5502840245516755,0.5502584456214242
40,0.5502786610873389,0.5502680358756564
41,0.5502803841901667,0.5502907381460034
42,0.5503197423642918,0.550506679236741
43,0.5502860026629274,0.5503248659611931
44,0.5502770069115271,0.5502657183050813
45,0.5502731201737407,0.5502449058421492
46,0.5502759594463311,0.5502901832459878
47,0.5502767518786493,0.5502841288043606
48,0.550262974723437,0.5502645542248898
49,0.5502842559181308,0.5504689452370106
50,0.5502686240314906,0.550279797661689
51,0.5502681087113505,0.5502359576911547
52,0.5502782918542304,0.5502295007185072
53,0.5502648163839823,0.550333529222692
54,0.5502670205678637,0.5502638931309911
55,0.5502670444441146,0.5502808543056176
56,0.5502869132822139,0.5504276845354596
57,0.5502580362607824,0.5502372112818451
58,0.5502654025913764,0.5502511992939648
59,0.5502695415269921,0.5502257599428333
60,0.5502700602185838,0.5503189251085665
61,0.5502801903490558,0.5502388657470495
62,0.5502726321328562,0.550266918355123
63,0.5502641481147944,0.5505183572804662
64,0.550270089092061,0.5502487050984101
65,0.5502647543781445,0.5502295900811037
66,0.5502628635799154,0.5502598717845699
67,0.5502601736135644,0.5502472642337713
68,0.5502620725185805,0.5502344952327738
69,0.5502635048735466,0.5502480495656394
70,0.5502639640243885,0.5502907084767931
71,0.5502612223006552,0.550257442754788
72,0.5502656061413842,0.5502740180226177
73,0.5502610313624321,0.550286017191913
74,0.5502623366411252,0.550237043649328
75,0.550263719584684,0.5502195572143157
76,0.5502567726464151,0.5503926783282467
77,0.5502647111266964,0.5502593453409654
78,0.550255105012406,0.5502807064032732
79,0.5502632282236217,0.5502428475443838
80,0.550257575179678,0.5502796957569738
81,0.5502584587421585,0.5503460970765012
82,0.5502543850599859,0.5504186409874531
83,0.5502702133293413,0.5502320754616787
84,0.5502516540083089,0.5502311733757
85,0.5502539893814131,0.5502171982902451
86,0.5502471984914978,0.5502279240203555
87,0.5502598423191463,0.5502337325891253
88,0.5502530094872374,0.550512744771044
89,0.5502501088824687,0.5502301131229542
90,0.5502527644953533,0.5502306719571721
91,0.5502585032320668,0.5502519059417857
92,0.5502522657003743,0.5502122964515875
93,0.5502534203231433,0.55024774488681
94,0.5502673175277473,0.5502419491263832
95,0.5502513496831367,0.5502253901278115
96,0.5502553064444103,0.5503468906317396
97,0.5502555439495264,0.5503114914184173
98,0.5502497748744817,0.5502247640867682
99,0.550260990740937,0.5502563649016633
100,0.5502531309928058,0.550415528944645
101,0.5502531177546915,0.5502237719282619
102,0.5502551066736782,0.5502402409430474
103,0.5502593234690001,0.5502162643165209
104,0.5502542457907962,0.5502170532572063
105,0.5502524992574055,0.5505354788995558
106,0.5502627613856493,0.5502456280492967
107,0.5502454719170373,0.5503801272761437
108,0.5502505928522111,0.550234961982992
109,0.5502557517781381,0.5502397018390022
110,0.5502483340396129,0.5502207146980627
111,0.5502614807657245,0.550221244543421
112,0.5502531975754245,0.5502466435172126
