epoch,loss,val_loss
0,0.6086398077470837,0.6012278967400638
1,0.6007696301487692,0.6005312049359305
2,0.6006555147636177,0.6017748667643621
3,0.5978219053702705,0.5507132398283511
4,0.5506370626883491,0.5509894728956388
5,0.5506466411195039,0.5512069182715404
6,0.5506033227093171,0.5505525395532992
7,0.5505547989064916,0.5508895125341771
8,0.5505458680614502,0.5513697790744583
9,0.5505044083646959,0.5504706745112209
10,0.5504950251566789,0.5504076933742457
11,0.5504645572557963,0.5504825542345828
12,0.5504525672933335,0.5503762752779069
13,0.5504468007378059,0.5503799638736336
14,0.5504653410307254,0.5504239744938928
15,0.5504140731069179,0.5504530867926832
16,0.5504333819985016,0.550347768787119
17,0.5504168823306771,0.5507532722896736
18,0.5504074129621152,0.5503266137527769
19,0.5503957034517288,0.5503951282418396
20,0.5503781418650098,0.5504510009850817
21,0.5503848918470855,0.5503978297964811
22,0.5503719080439651,0.550656337034022
23,0.5503679954452362,0.550355286752024
24,0.5503691871531835,0.5503740902574128
25,0.5503535913570093,0.5503169603146632
26,0.5503535560443279,0.5504769977505686
27,0.5503586301522956,0.5503972257041457
28,0.5503463560349967,0.5503201811248553
29,0.5503338418820211,0.5502973771568563
30,0.5503400303296699,0.5503987390409333
31,0.550335527653556,0.5503000404935321
32,0.5503357938956821,0.5502893398180789
33,0.5503238684167662,0.5503047832484281
34,0.5503311208184862,0.5503205122782042
35,0.5503236300691816,0.5502975590175789
36,0.5503198088688166,0.5503079950661577
37,0.5503221449550215,0.5502898094967636
38,0.5503161200535379,0.550303726131212
39,0.5503231899156882,0.550332360380045
40,0.5503201953007456,0.5506897392403103
41,0.5503277685551653,0.5503018132214511
42,0.5503147624913142,0.550281012501965
43,0.5503146157953073,0.5505524536516175
44,0.5503125219132677,0.5505032456838168
45,0.5503082359905674,0.5508992328833113
46,0.5503041452594518,0.5506293455661083
47,0.5503102008037543,0.5505558184299516
48,0.5503071993646591,0.5503100165658198
49,0.5503024944180167,0.5506646665390904
50,0.5503006947128749,0.5502660198779615
51,0.5502999554168105,0.5502887019448481
52,0.5502980329676401,0.5504595584668237
53,0.5502990566260023,0.5502676366576486
54,0.5502961507920917,0.5503456601729759
55,0.5503050013675569,0.5506171128590113
56,0.5502863192236132,0.5502669941402842
57,0.5503075110393432,0.5502689597328603
58,0.5502932573703921,0.5503288544732938
59,0.5502887439338733,0.5502704817071447
60,0.5502967460339347,0.5502724384551604
61,0.5502901184117283,0.5504054332489411
62,0.5502901325893368,0.5503320184298248
63,0.5502923266344099,0.550295956436517
64,0.5502895937423967,0.5503410920315878
65,0.5502903611712288,0.5504706639509934
66,0.5503162202560129,0.5504734455799642
67,0.5502821877771319,0.5502587737279849
68,0.5502923826538307,0.550843672539401
69,0.550290091810865,0.5502580057894326
70,0.5502854672466011,0.550348066692021
71,0.5502907589977806,0.5503155103984009
72,0.5502847970936916,0.5502634934988566
73,0.5502857939918472,0.5502761880162336
74,0.5502827226515333,0.5502696199097645
75,0.5502864055024822,0.5502556704409957
76,0.5502867002820446,0.5502493618143995
77,0.5502767752453172,0.5504132737592787
78,0.5502905337968061,0.5502618317568568
79,0.5502837479703787,0.5502487396188173
80,0.550284703940974,0.5502543401185691
81,0.5502801470455451,0.5503338537204354
82,0.5502792032418354,0.5502753586686279
83,0.5502816223900683,0.5504477119919088
84,0.550287297951112,0.5502600503026995
85,0.5502795887437361,0.5505327493026297
86,0.550277031365989,0.5503443651104684
87,0.5502775445578708,0.5502839578588311
88,0.5502781629037018,0.5502532073049332
89,0.5502805929306639,0.5502662912196025
90,0.5502788067925777,0.5504024684281267
91,0.5502863949424396,0.550515913342128
92,0.5502800326788716,0.5502558616787269
93,0.5502724024205735,0.5504867019487669
94,0.5502867405138586,0.5503611965155779
95,0.5502758478050589,0.5502719415032834
96,0.5502750448647608,0.5503194655141522
97,0.5502749646969435,0.5502707636385934
98,0.5504123963343346,0.5503988644029603
99,0.55031685105113,0.5504139499687971
