epoch,loss,lr,val_loss
0,0.4409680804736513,0.003,0.42639713967843795
1,0.40348469349239274,0.003,0.3952779837993533
2,0.400528561862872,0.003,0.38801227767540886
3,0.38847527087782974,0.003,0.3852322387737652
4,0.39703620075107476,0.003,0.39423415798696837
5,0.3906803223595535,0.003,0.3832557690759861
6,0.3860413682975357,0.003,0.38361068843807306
7,0.38295681404171705,0.003,0.3814609460385653
8,0.3799949910917538,0.003,0.3725350073758504
9,0.37236011509510347,0.003,0.3680764750622348
10,0.3704391133001478,0.003,0.37841848475122036
11,0.36905457112762474,0.003,0.3692476442693817
12,0.3651107847690582,0.003,0.36274113857143964
13,0.3764357535268287,0.003,0.37109575425910496
14,0.3681432084857131,0.003,0.3727417589174826
15,0.36383005124416284,0.003,0.36068724238129235
16,0.3618902286453594,0.003,0.35488208924914877
17,0.35272326120893827,0.003,0.34966546792210607
18,0.3349834432591685,0.003,0.3268667442787324
19,0.325458014683186,0.003,0.32268313571940094
20,0.326204229208777,0.003,0.325153529890993
21,0.3239980635615133,0.003,0.3162411243405602
22,0.3232822242043287,0.003,0.315315508299111
23,0.3226563969402195,0.003,0.3228502453326144
24,0.3212926470749765,0.003,0.3161958486441561
25,0.3191735821334626,0.003,0.31174153504097846
26,0.31995084118559586,0.003,0.3168690571386511
27,0.31800720591744264,0.003,0.3119625782133936
28,0.31733859828907807,0.003,0.3130292972430716
29,0.3180289686851793,0.003,0.3284990207336978
30,0.3193402103484153,0.003,0.3171455037516219
31,0.31957319465210493,0.003,0.3093744636158258
32,0.3233738251173382,0.003,0.32844239196959873
33,0.32125071720551435,0.003,0.3143627676339533
34,0.32121782605763344,0.003,0.32136341435474586
35,0.31973407915432295,0.003,0.318762775384119
36,0.32115954545130737,0.003,0.3149221042478376
37,0.32138860943637115,0.003,0.310538048155447
38,0.3224351850213955,0.003,0.31298437567564474
39,0.31738132010582537,0.003,0.31770274478239435
40,0.31809585272289104,0.003,0.31342493643324115
41,0.3182787645420582,0.003,0.31659986500370285
42,0.3182070346550642,0.003,0.31531353191352773
43,0.3179582524076878,0.003,0.31781462414723827
44,0.3183294867160175,0.003,0.31409377482996836
45,0.3179602275500528,0.003,0.3155366393789684
46,0.3194995618296518,0.003,0.3166041359152489
47,0.3186528391743021,0.003,0.3115289747691474
48,0.3185239669105275,0.003,0.31322108788361397
49,0.3152730796012661,0.003,0.3112519862808011
50,0.31232747233075964,0.003,0.31211219072318397
51,0.3110093624501539,0.003,0.30305500384405454
52,0.3205626963032521,0.003,0.3135729454687099
53,0.31704362799569097,0.003,0.3059633428079459
54,0.3179691425449461,0.003,0.31660810495185027
55,0.3184054054611688,0.003,0.3136779423317951
56,0.3168572109225366,0.003,0.32345333190865655
57,0.32138753558496397,0.003,0.32354110945089654
58,0.3203120364797868,0.003,0.31509884385702264
59,0.31827434975740243,0.003,0.31667252665278284
60,0.3178388755158078,0.003,0.31266214960234884
61,0.3181351931880323,0.003,0.31588764543385606
62,0.31788161327894165,0.003,0.3157518510519282
63,0.31932774917792073,0.003,0.309625968936869
64,0.3189954181148899,0.003,0.31174614726791444
65,0.319402241190489,0.003,0.31100555952717773
66,0.32032113139041896,0.003,0.31396071811007437
67,0.3214954847274877,0.003,0.3077136639508565
68,0.31381363417509556,0.003,0.30676057710126337
69,0.3130813108758627,0.003,0.3007893404072914
70,0.31280199777212836,0.003,0.3038326696078892
71,0.31396865307820215,0.003,0.3089812541911239
72,0.3159608331372698,0.003,0.3236570100828523
73,0.32006834921457594,0.003,0.3205662053004907
74,0.3248246248355872,0.003,0.32545799947246
75,0.36161712106826494,0.003,0.34477095243586453
76,0.3394712859408842,0.003,0.34134454348939747
77,0.33650699422227964,0.003,0.3320988583560054
78,0.33588324726628455,0.003,0.331443334352622
79,0.33504979164718535,0.003,0.3312408703055171
80,0.33472081251758085,0.003,0.3330949324976297
81,0.335010913457516,0.003,0.33432079836338074
82,0.3336326266102177,0.003,0.3298929626770441
83,0.32908714960793034,0.003,0.30742082322617637
84,0.30387071678511723,0.003,0.29696696724422167
85,0.2991456340560667,0.003,0.29213554565607325
86,0.29978276336555193,0.003,0.28841905347009106
87,0.3005360673568089,0.003,0.29291436403707527
88,0.30017647314236034,0.003,0.294339114025341
89,0.30129288651829333,0.003,0.30063097318891663
90,0.30036068757434636,0.003,0.2986038883099804
91,0.30139682643550286,0.003,0.2973034337998001
92,0.3024642729102898,0.003,0.29142875363131443
93,0.30272309653324,0.003,0.2989973249215259
94,0.30460534911218595,0.003,0.30261459105722344
95,0.3046093318316576,0.003,0.29868806111196317
96,0.30398980232713513,0.003,0.29708013156665625
97,0.303904477387762,0.003,0.2992745039142204
98,0.30382324058970483,0.003,0.3018731923498972
99,0.30293001846777357,0.003,0.2883651639557581
100,0.30126913335862204,0.003,0.2951660447569465
101,0.2994848322674191,0.003,0.29091049525548646
102,0.29368208421112824,0.003,0.2817472773174084
103,0.28802792099620894,0.003,0.27234870736393857
104,0.33743001565599234,0.003,0.41317957063406213
105,0.3125878901486631,0.003,0.2779847071362746
106,0.2825813811662481,0.003,0.2872046149602629
107,0.27902893552319896,0.003,0.2704571762902114
108,0.26984256708162196,0.003,0.25997286252883256
109,0.282645971675833,0.003,0.2850658878413541
110,0.28634540626494814,0.003,0.29022895639443264
111,0.28260826888523227,0.003,0.27977406573441427
112,0.27759763410539745,0.003,0.2633260736549192
113,0.27527932259890675,0.003,0.2629365851983557
114,0.27222064358415266,0.003,0.271553883030599
115,0.34609080287371036,0.003,0.30163129482597656
116,0.2952295163278576,0.003,0.28535800546572354
117,0.2845214548960721,0.003,0.2755549832202359
118,0.2805067520770285,0.003,0.27896829359909636
119,0.27489187514229263,0.003,0.2707983551645429
120,0.26905871597792413,0.003,0.2659278209626251
121,0.27657950974756673,0.003,0.3163591120406785
122,0.270181597238012,0.003,0.2420816357470255
123,0.25494936861389644,0.003,0.2377940529947123
124,0.2521767395285727,0.003,0.23450802810543056
125,0.24860669192757537,0.003,0.23040568456935806
126,0.24601833774543685,0.003,0.23522777857748467
127,0.2831747372129219,0.003,0.37927176954479036
128,0.3119691641097494,0.003,0.28620224602479305
129,0.2900479073933274,0.003,0.29047000095918596
130,0.29004956237513196,0.003,0.287515992535412
131,0.287086065194542,0.003,0.2831069934222297
132,0.28192750388364807,0.003,0.26882423422848417
133,0.2752351752704949,0.003,0.2677983922594254
134,0.2727151442703297,0.003,0.2540855493687605
135,0.2654290854645004,0.003,0.2623930890657061
136,0.25688809717444777,0.003,0.22992322204638957
137,0.24662276505709266,0.003,0.2578445525565012
138,0.23635517900212585,0.003,0.20983686843841398
139,0.23005327677650514,0.003,0.23901276711459787
140,0.22548957984093473,0.003,0.21240061759101939
141,0.22076140658306084,0.003,0.2232288933978743
142,0.22597073228489295,0.003,0.22723335852727422
143,0.22712153331827012,0.003,0.21163388133495928
144,0.21432169726331363,0.003,0.21959700927008957
145,0.21540490812737403,0.003,0.20714777775091173
146,0.21246445470219322,0.003,0.20265036069838757
147,0.21190527780093163,0.003,0.1978406218228231
148,0.21355062894981733,0.003,0.20249971919108678
149,0.22100672312229752,0.003,0.20358462207719108
150,0.2089455353585984,0.003,0.20526465254923257
151,0.2081771561448618,0.003,0.18736713046785783
152,0.26431392545668153,0.003,0.2583003330567077
153,0.2684402891920863,0.003,0.2547844898987682
154,0.26637607602645264,0.003,0.2520475264082956
155,0.26212522700178825,0.003,0.2569046220503271
156,0.2550027908282362,0.003,0.2460673406320288
157,0.24906012026085367,0.003,0.23953120696822205
158,0.2435329011071929,0.003,0.2281293639032598
159,0.23654954200930636,0.003,0.2228888575613922
160,0.23054258734714403,0.003,0.2226640749384591
161,0.22573999920897156,0.003,0.24935910015145718
162,0.21806772650002862,0.003,0.2092000310439337
163,0.21406352101005524,0.003,0.21777042082636583
164,0.21057830221182722,0.003,0.19535206506453637
165,0.21045980484579965,0.003,0.2140220441600424
166,0.2104419226930153,0.003,0.18814038455004098
167,0.2002521754308737,0.003,0.18980694171144158
168,0.2247618118778979,0.003,0.34887978227569444
169,0.2882621683758035,0.003,0.266616239808588
170,0.27250048516989706,0.003,0.2598649056741546
171,0.27280890385059714,0.003,0.2665953359257168
172,0.2621620031420609,0.003,0.2643242262145056
173,0.24747075358157059,0.003,0.2388123063798391
174,0.2366203178259299,0.003,0.2220542577301882
175,0.22360504008561588,0.003,0.21089074296704785
176,0.21833202744618976,0.003,0.1996210012599626
177,0.24428707098872732,0.003,0.33211704207718046
178,0.29175629234499784,0.003,0.2729126190929876
179,0.2798810612996943,0.003,0.2826876124012818
180,0.2714451984357205,0.003,0.2594228780166126
181,0.267457877524751,0.003,0.25886651871236366
182,0.2688606756089403,0.003,0.2712347977621967
183,0.2667966816309306,0.003,0.25394794870617826
184,0.2652089654994335,0.003,0.26487543653834966
185,0.2587817062547119,0.003,0.2428128205904268
186,0.25599103770870196,0.003,0.24178201574670488
187,0.2523301994081119,0.003,0.23737921446985208
188,0.2500084230987479,0.003,0.2526583499212668
189,0.24836293040967578,0.003,0.24067142785136494
190,0.2549075935003188,0.003,0.258766834760098
191,0.26104880581132706,0.003,0.2623062108973395
192,0.28818630903875897,0.003,0.2848752338642103
193,0.29865064297160276,0.003,0.2689297824815774
194,0.30281335236333445,0.003,0.34930698685318634
195,0.32863952091736476,0.003,0.23652683796497811
196,0.2707739297142751,0.003,0.35334925568752995
197,0.31517169395868155,0.003,0.29785763992742
198,0.30293958859263564,0.003,0.360248139632341
199,0.28272083961218,0.003,0.25069526865807873
200,0.3004168636834831,0.003,0.35685382701086077
201,0.3217811595490701,0.003,0.3288201734647096
202,0.3208145484697523,0.003,0.25815821264377237
203,0.28029537790542025,0.003,0.3520198552012914
204,0.2902368128561764,0.003,0.3756648939758563
205,0.3042754847422349,0.003,0.2603925394089841
206,0.2722485775468971,0.003,0.27781230897511094
207,0.26953693992680877,0.003,0.25628388919459616
208,0.2687182782097257,0.003,0.37098886593647046
209,0.33461348010862857,0.003,0.30073025605061343
210,0.31900269435726103,0.003,0.3576565739811172
211,0.32445553926934156,0.003,0.36164357848965284
212,0.2796501541833321,0.003,0.27452279845489325
213,0.27126576583222045,0.003,0.2643843639080413
214,0.26835048737988576,0.003,0.26969385325861617
215,0.3170457345803531,0.003,0.31907687838400267
216,0.3245679535192075,0.003,0.3185938137576819
217,0.32109568646545417,0.003,0.3134211389070058
218,0.3183654147169763,0.003,0.30987850434919373
219,0.31131854473794107,0.003,0.29306604850804985
220,0.2997031905215612,0.003,0.2951178459807842
221,0.30574672369898365,0.003,0.32387329665054554
222,0.2992066359854669,0.003,0.30456711072548226
223,0.29123020169736863,0.003,0.27957429728031913
224,0.2916116244513259,0.003,0.2912384780930927
225,0.323562658063585,0.003,0.322687308162145
226,0.3413989510801103,0.003,0.33733590303581346
227,0.33523964356902025,0.003,0.34435911302549593
228,0.32922410635020044,0.003,0.30115432530382813
229,0.28092356869499746,0.003,0.2801141095095577
230,0.2790853922113145,0.003,0.24203075597910967
231,0.27848937508049343,0.003,0.27713574850733297
232,0.27257833032787654,0.003,0.24914557919576588
233,0.2617574700301023,0.003,0.25170905079513245
234,0.26313436902362664,0.003,0.2520686822936774
235,0.2731071120198015,0.003,0.2657301841684468
236,0.23827525263102792,0.003,0.20129729233441054
237,0.21582929159013584,0.003,0.22098636773621463
238,0.21541026708700484,0.003,0.20086850999797906
239,0.21163837142961678,0.003,0.19844056727054463
240,0.2090985044497523,0.003,0.20086507495101644
241,0.21540779029901366,0.003,0.22105339719916106
242,0.23148824605081292,0.003,0.2626125885977835
243,0.26257826337556567,0.003,0.26026360004928606
244,0.2683720960498428,0.003,0.270707892855275
245,0.2639343432522268,0.003,0.2440464421401084
246,0.25071573115998413,0.003,0.2504668556559528
247,0.25736502600873973,0.003,0.2482796401996827
248,0.249154858591912,0.003,0.24473002110185263
249,0.2647763908677679,0.003,0.3021381188128158
250,0.3069424566140564,0.003,0.16554092527929495
251,0.2585447881918707,0.003,0.26008061834720525
252,0.3276446080185193,0.003,0.3723236809189901
253,0.3314060210216817,0.003,0.3223046789676445
254,0.29584235458863345,0.003,0.31265051450048176
255,0.2773970231580601,0.003,0.2372163802549984
256,0.2481791585278835,0.003,0.2544302574072942
257,0.26609897774031505,0.003,0.2611614305822983
258,0.27973893659708976,0.003,0.2753200593574271
259,0.29313351523032866,0.003,0.2920612279963757
260,0.29982925867803284,0.003,0.29692828865176407
261,0.30722133999319673,0.003,0.29740850650356243
262,0.3115964240098981,0.003,0.3041485988056462
263,0.31072641815915764,0.003,0.2731748644583039
264,0.2908202431750574,0.003,0.27197069897012816
265,0.2989812192799662,0.003,0.2271313070368842
266,0.3171530075871544,0.003,0.28520410287399034
267,0.2966178801211474,0.003,0.2946133554546308
268,0.3156360004850619,0.003,0.3136721527602321
269,0.31924989119731934,0.003,0.32865011325104554
270,0.314823903637729,0.003,0.2635513946719779
271,0.2935429472300551,0.003,0.32424916847423013
272,0.3293579940726574,0.003,0.29721668995946243
273,0.31015674798167964,0.003,0.28233171135610546
274,0.30543631155618567,0.003,0.29122120383671163
275,0.3271072595108518,0.003,0.3277910912869573
276,0.31771852244004356,0.003,0.29466385297306713
277,0.3090150000648104,0.003,0.3290524121194537
278,0.3103732433226659,0.003,0.2933728815407008
279,0.32012370517321054,0.003,0.28937890220083584
280,0.30768677946939454,0.003,0.28763413851479425
281,0.3266856317921318,0.003,0.3314968020947034
282,0.32133581077785706,0.003,0.31681415285171255
283,0.34637419155521165,0.003,0.3254017840656316
284,0.3127544168278658,0.003,0.2982090199932209
285,0.2980035972341502,0.003,0.30123345463315426
286,0.2937256785825812,0.003,0.2839470045683698
287,0.292502781845254,0.003,0.300006645383944
288,0.2919579933104898,0.003,0.29454892327466536
289,0.2920259962157666,0.003,0.2888845461578753
290,0.2912526153546157,0.003,0.29529632730284544
291,0.29184950943842686,0.003,0.2866250796577266
292,0.29097360846319265,0.003,0.2851746698110802
293,0.29116155424242396,0.003,0.28375978839025784
294,0.29145729222553046,0.003,0.2818335353528409
295,0.29053491779523405,0.003,0.2819937491979106
296,0.2906814863135536,0.003,0.2890991255311676
297,0.2906381341485049,0.003,0.2880313840607253
298,0.29102896136953105,0.003,0.28783088069241536
299,0.2920798025012826,0.003,0.2861381209004838
300,0.3261503691790249,0.003,0.3803900562126804
301,0.3508999669592348,0.003,0.3271753531605029
302,0.3205385503234814,0.003,0.30822038292390863
303,0.31435764576498265,0.003,0.30893111942834334
304,0.3136793835599312,0.003,0.3106338251102789
305,0.311459500551057,0.003,0.30985626937628924
306,0.31022152072377057,0.003,0.3075633840819184
307,0.3101922444236888,0.003,0.30825193299255504
308,0.3089225517301489,0.003,0.3071189558614213
309,0.3095923622014473,0.003,0.3033055564022572
310,0.3097592554569578,0.003,0.30053539298939347
311,0.30913290059228216,0.003,0.3205425783156784
312,0.3080870618613408,0.003,0.3067572474150368
313,0.3093877467874,0.003,0.30349569820049904
314,0.30958383334733597,0.003,0.3003685780004808
315,0.30944763494731425,0.003,0.32130255226131116
316,0.3092557292857426,0.003,0.311377603763563
317,0.3099747527060177,0.003,0.2998839233955626
318,0.30874106914198085,0.003,0.30827398408254303
319,0.30851996977992957,0.003,0.3042649950570447
320,0.3083432572547623,0.003,0.29832917161950373
321,0.30910640841813014,0.003,0.30581283895115075
322,0.30932454191904657,0.003,0.3098858936668477
323,0.31012393697071894,0.003,0.3050117107503698
324,0.3082721721437528,0.003,0.3046122122123755
325,0.30765694977461006,0.003,0.31224484933391744
326,0.30883887764528023,0.003,0.30213163003337223
327,0.3088819801324992,0.003,0.3021950226250651
328,0.30770055740642893,0.003,0.3080075422056378
329,0.30837326475399,0.003,0.30294939592751163
330,0.3074310093010358,0.003,0.3019746038371781
331,0.3068179935365796,0.003,0.3110024261375817
332,0.30879954527691306,0.003,0.31776743655658274
333,0.31134390955169994,0.003,0.31991684615564986
334,0.3085904649788622,0.003,0.3055994057735309
335,0.3091236297115624,0.003,0.3075938688233883
336,0.30904007525586014,0.003,0.3062953767973133
337,0.3098877326464005,0.003,0.305803995794119
338,0.30842933331509764,0.003,0.30320962832471754
339,0.3088270003567163,0.003,0.3112208597485532
340,0.3096839795849449,0.003,0.3067934135976229
341,0.3098996740986975,0.003,0.3068447362075853
342,0.30995049026849075,0.003,0.3054702343873462
343,0.3108749513973673,0.003,0.30939626309141555
344,0.3110714812460039,0.003,0.3090346537136429
345,0.3115144935931614,0.003,0.30049227406259776
346,0.31079482341663156,0.003,0.31398740983564455
347,0.31038403441961243,0.003,0.31508038340587735
348,0.30864225423259795,0.003,0.2944943138178447
349,0.30590412998907,0.003,0.3080841985478962
350,0.31768206421205464,0.003,0.31313100552455403
