epoch,loss,val_loss
0,0.6027911200694837,0.6006289002617299
1,0.6008587288308429,0.6005100496057837
2,0.6006983979812514,0.600896837249879
3,0.6005890802742258,0.600879048384153
4,0.5702581015011943,0.5504856664252932
5,0.5505618904077761,0.5506401760702393
6,0.550529577101781,0.5504352044230951
7,0.5504997704321613,0.5508328024270222
8,0.5504975436720178,0.5503762676461459
9,0.5504648136754341,0.5507628583434794
10,0.5504334544894433,0.5505179861639037
11,0.5504304382377329,0.5507124318378439
12,0.5504040175506827,0.5505452597703295
13,0.5504282389729839,0.5503599025771281
14,0.5504045564473189,0.5504674518374593
15,0.5503996051622626,0.550564003197786
16,0.5503818581409744,0.5505200527442005
17,0.5503758478903963,0.5507768988017705
18,0.5503758826083014,0.55081447818439
19,0.5365585295947128,0.5004086432622621
20,0.5004042861299488,0.5003241117479783
21,0.5003916891610597,0.5004889232644963
22,0.5003646891302092,0.5003478703664491
23,0.5003710114648733,0.5007484649014532
24,0.500363645718801,0.5003471350551539
25,0.5003676490020043,0.5004039973538211
26,0.5003492224257639,0.5003812478434655
27,0.5003497770421677,0.5003956756579965
28,0.5003629834478626,0.5003231962916277
29,0.5003461359241727,0.5003053985221806
30,0.5003506524560533,0.5003180461249339
31,0.5003476034940055,0.5003045449185903
32,0.5003400230383734,0.5003939297595628
33,0.5003392705680899,0.500312527001052
34,0.5003443727141658,0.5003131541365725
35,0.5003415144836683,0.5007263072075382
36,0.5003356417873674,0.5003162889859221
37,0.4701504688621478,0.4510419177062458
38,0.450369039617548,0.4504428258900607
39,0.4503603494356962,0.45035232988835566
40,0.4503598504616533,0.4506097726135633
41,0.450372364088875,0.4503677268034175
42,0.45035658961128966,0.45073410778424283
43,0.45035990932322195,0.4503387894731006
44,0.45035447737282436,0.4503919253278311
45,0.45035842743813004,0.4503113357364096
46,0.4503512013126705,0.45042663181094317
47,0.45035077187580214,0.4503150022798969
48,0.45035260116318326,0.45030686976596085
49,0.45035465177720924,0.45035089199655404
50,0.4503522266283606,0.450298929939199
51,0.45034892473211235,0.4503985293449894
52,0.450351704438316,0.45032234326485665
53,0.4503445605123007,0.45039832220775616
54,0.4503431586486985,0.4503341776265696
55,0.45034693211312726,0.4505126872814027
56,0.45035234422213005,0.4504185617561672
57,0.4503396849263502,0.4503965196183538
58,0.4503485214007232,0.4503064398138458
59,0.45035048092481716,0.45033945686763927
60,0.4503430676747242,0.4506344077309071
61,0.45035108587595163,0.4502993284768561
62,0.45034317956566045,0.45029808229607327
63,0.4503428316790308,0.4502999517964962
64,0.4503356058422823,0.45035765262750477
65,0.45034664727989904,0.4503910621549592
66,0.4503429272215034,0.45037234505412005
67,0.4503488810128891,0.4503527381875675
68,0.4503447755807774,0.45034290174988306
69,0.4503329660619678,0.45034293800074765
70,0.45034361318568455,0.45053530475933556
71,0.4503347414435932,0.4503084859244581
72,0.4503431732309759,0.45035887885626136
73,0.45033742645846986,0.45030986947693835
74,0.4503417817258707,0.4510778721005982
75,0.45034350062227224,0.45051138819595127
76,0.4503444438130624,0.45031562255274865
77,0.45034148169902327,0.4503310514442974
78,0.4503347457395514,0.45031681782554456
79,0.4503452145104038,0.4503040356020774
80,0.4503353002265874,0.4503045776937499
81,0.45033752026354845,0.45031460970270426
82,0.45034036763622076,0.45029299970596065
83,0.4503300195300458,0.45037849817619136
84,0.45034393466234734,0.45033130530388127
85,0.45033506572454013,0.45077958578803107
86,0.450333857558482,0.45031591698194556
87,0.4503371687183338,0.4503714198805854
88,0.4503369112625702,0.45029295523172574
89,0.45033888735363325,0.45029242239873996
90,0.45033218165203204,0.4504588595542955
91,0.45033549902587766,0.45031114307881587
92,0.45032620882937807,0.450434885944977
93,0.4503257176272646,0.45029741873220536
94,0.4503491033902531,0.45030754458519723
95,0.4503283146148346,0.45030599270505883
96,0.45033258823812616,0.450308615945409
97,0.45033728439170106,0.4503092773499027
98,0.45034131203904537,0.45028297197138406
99,0.45033610091911974,0.4502985225865622
100,0.4503224972370806,0.4503656715672306
101,0.4503392395488423,0.4502987406241982
102,0.4503267600905013,0.45078973591179766
103,0.4503286517390872,0.4503703866643882
104,0.4503290249321132,0.4503761461887407
105,0.450318841613719,0.450293746760702
106,0.45032193093931494,0.45065380939774713
107,0.4503275033539769,0.45041003351471853
108,0.4503486577425716,0.4503230497795654
109,0.4503255873045695,0.45030407180857124
110,0.4503163508820913,0.45028503924682184
111,0.4503257518269096,0.4503669475947065
112,0.4503123289876709,0.4502960726433889
113,0.45031950895130074,0.4503082653872724
114,0.45031529396633946,0.45049326839872983
115,0.4503252322940327,0.4502739230249419
116,0.450315637384652,0.4502822237482142
117,0.450309960044012,0.45032918420678036
118,0.4503081352308642,0.45047958033256436
119,0.4503125030098685,0.45029189904629446
120,0.4503084130746805,0.45048332097512617
121,0.450311522134785,0.45028845953290575
122,0.4503142950322184,0.4503279091850404
123,0.4503039290922164,0.45048181899723877
124,0.4503103672307988,0.4505397795595543
125,0.4503085758087471,0.4503048269239904
126,0.4503091196174163,0.4503219476852464
127,0.450309402157521,0.4503528248879217
128,0.4503104528435025,0.4502808904085798
129,0.4503071997816337,0.45034479339128686
130,0.45030883248396525,0.4504692006051984
131,0.45030768077946604,0.45027355159778454
132,0.4503048772159434,0.45027854679240187
133,0.4503096980623469,0.4503135232860338
134,0.45030535664755744,0.4503195383264764
135,0.45030964459517964,0.45026730738265935
136,0.45030283044745467,0.4502828225160651
137,0.4503111398288217,0.4504129171815167
138,0.4503168053504493,0.4502839056493035
139,0.4503001748262874,0.4502732646820267
140,0.45030589846325225,0.4504920364905232
141,0.4503007652795491,0.4503364608394301
142,0.45030879975469595,0.45034499376938303
143,0.4503047656129294,0.4504320179706176
144,0.45030216548187924,0.45027946360945403
145,0.4503051283287397,0.45043514294009057
146,0.4503002852456648,0.4502622910084263
147,0.45030657635259397,0.45035319207028185
148,0.4503027090574497,0.4504491691997566
149,0.4503108512526039,0.4504389651212148
150,0.45030486544741605,0.450258756319879
151,0.4503020867138375,0.4502701771910078
152,0.45029898609892727,0.45031821993976906
153,0.4502997911260704,0.4502702075257786
154,0.45029723390648335,0.45029863089544897
155,0.45031381651367297,0.4502981163284027
156,0.4502954562908966,0.4502674584205334
157,0.45033093908675537,0.4502680218693045
158,0.45029270485787193,0.45030307472491676
159,0.4503010026738348,0.4503080381205301
160,0.450297014824449,0.4502566755409572
161,0.45031087778838885,0.450501647347552
162,0.45030128699748,0.45030979002379895
163,0.4503069209809689,0.45027118740839045
164,0.4502937797257751,0.4502672391553079
165,0.4503038460581919,0.45037672475313134
166,0.45031205801415347,0.450284755673657
167,0.4502944466578992,0.4507449266780399
168,0.45030259076477847,0.4502818415833466
169,0.4503002651372517,0.45050927887187703
170,0.45030312640631526,0.45025754711468224
171,0.4503061890379662,0.450264649873336
172,0.4503024032264047,0.4502714811128659
173,0.45030003912575634,0.4503196353356241
174,0.4502959134815006,0.45027315394754147
175,0.4503062505941719,0.4503137026767873
176,0.4502943983883207,0.4502672048715445
177,0.4502989887604335,0.4503084384182251
178,0.45029390547523895,0.4507098835839823
179,0.45030119528319046,0.45027351947339533
180,0.45029914558144424,0.4502779235615032
