epoch,loss,val_loss
0,0.4677297753796343,0.46220923759801213
1,0.45990379158803785,0.4108213315974394
2,0.4108285372280203,0.4099487037132159
3,0.41049616506199693,0.4115381018547503
4,0.41037773553894497,0.41109128655038457
5,0.40994086612340713,0.4096008209821308
6,0.4097923500592365,0.40970915746748005
7,0.4097142818583508,0.4114766522317607
8,0.40969667418197986,0.40906784873150714
9,0.4094966161570701,0.4095703296418817
10,0.4094906352343342,0.4092765293701115
11,0.4094148076075508,0.4094349007008981
12,0.40931987047457324,0.4090270097291203
13,0.40928802887717,0.4101445443872778
14,0.4092870696088787,0.4092608875287674
15,0.4092198726026878,0.4091806120819253
16,0.40914252279707547,0.40881912481991883
17,0.409115444701818,0.41123555239021925
18,0.40910951713581334,0.4088982622913332
19,0.40909190647767196,0.40895797244964105
20,0.4089722192245164,0.4098836281311423
21,0.4089099467759116,0.4089588233614086
22,0.4090265770651466,0.40991773383493163
23,0.4088987900021516,0.4087529575262709
24,0.408851387550112,0.40879139740472986
25,0.40887987984939955,0.4088696709489704
26,0.40883081827322915,0.4087596294010248
27,0.40884690301073523,0.4088090235778771
28,0.40885134857371813,0.4085171499855761
29,0.4088398134673223,0.40940626058034213
30,0.4087445634077904,0.40852706456006904
31,0.4087880173540376,0.4091560381074106
32,0.4087814496358362,0.41040291330654627
33,0.40873077112088185,0.4090599772799991
34,0.408750629264049,0.4085379280020522
35,0.40871128437457893,0.410438328315839
36,0.40871686461086654,0.40880292751653025
37,0.40874378031559205,0.4123446939453002
38,0.40865648575806995,0.40908855440894665
39,0.40860905538742964,0.4084279222612641
40,0.4086668415845061,0.40851383740197933
41,0.40863126019222656,0.40942612396872075
42,0.4086207476351005,0.4085088934111536
43,0.4085616451157365,0.40968101895772496
44,0.4085955333254405,0.40877995134583184
45,0.4086311560846578,0.41002232867198307
46,0.4085646066610305,0.4092394437890491
47,0.40858059566674526,0.40868308266102527
48,0.4085464013317633,0.4086177125758036
49,0.40859670456014174,0.4087947682026894
50,0.4085308925602953,0.4089310931212849
51,0.4085765393289319,0.40870607270496356
52,0.4085818132163088,0.4084474516565687
53,0.4085550363185197,0.4088698396168039
54,0.4086159014913722,0.4084510719066222
55,0.4085464419390594,0.4089797353626185
56,0.4085315775191149,0.4089367340723279
57,0.408604966067922,0.40955269376634074
58,0.40848726269353547,0.4116903891338604
59,0.4085622118852214,0.4087080266280446
