epoch,loss,lr,val_loss
0,0.3270028045685362,0.003,0.31116536451355153
1,0.3041759071876105,0.003,0.30058232340270735
2,0.29279858029360395,0.003,0.2841859586895594
3,0.280232543573915,0.003,0.2736432615494107
4,0.26982919909328007,0.003,0.26475791312642427
5,0.2607432815412299,0.003,0.25940463610211034
6,0.25744911314522045,0.003,0.26182259722732615
7,0.25624429413097366,0.003,0.25960315360548747
8,0.2559833079665828,0.003,0.25541816461881317
9,0.25618070082591593,0.003,0.25861383318289494
10,0.2572460278338618,0.003,0.2564275553060406
11,0.2564379861124223,0.003,0.25944343215147153
12,0.25600437973912576,0.003,0.2527490720129333
13,0.25504155657726896,0.003,0.25207551997434274
14,0.25495718227778313,0.003,0.25850202547181944
15,0.2550205175074742,0.003,0.26406180780401545
16,0.2549033117511099,0.003,0.2546248565991751
17,0.2540695167077388,0.003,0.25222728162086566
18,0.25325382722438955,0.003,0.2503613092140504
19,0.25191953614187373,0.003,0.2551346620707975
20,0.2510370078513758,0.003,0.25046569193642065
21,0.2495868555564198,0.003,0.2480185656163668
22,0.2483178688634595,0.003,0.2520615284249551
23,0.24824005446071437,0.003,0.2504749619111642
24,0.24709353219869612,0.003,0.24465739478275544
25,0.24680054149360395,0.003,0.24523227211990598
26,0.24607197231323505,0.003,0.24544137056502377
27,0.24575238380965284,0.003,0.24679774930957932
28,0.24505389194420393,0.003,0.24363170283087238
29,0.2440306571670335,0.003,0.24127185125353776
30,0.24388202624045593,0.003,0.24277142524695716
31,0.24354601633860815,0.003,0.24390455707613654
32,0.24333102133372228,0.003,0.24254981707708048
33,0.24319520716270288,0.003,0.2454434816314653
34,0.24268562022408993,0.003,0.24201856086643644
35,0.24218527410777924,0.003,0.23999292770990163
36,0.2418455358573811,0.003,0.242569153056713
37,0.2419697569964601,0.003,0.24390473086225206
38,0.24120129385500028,0.003,0.2412437796298688
39,0.2416218483476616,0.003,0.24097103335627817
40,0.24061750115857994,0.003,0.24215185710456114
41,0.24038376072220666,0.003,0.2415025145309406
42,0.24045968413662663,0.003,0.23916098442525494
43,0.23997465641997892,0.003,0.24052157914582067
44,0.23930908607945836,0.003,0.2369128764675373
45,0.2390866092801523,0.003,0.23990518032869393
46,0.23870126224702878,0.003,0.24229442362909534
47,0.23886140636045583,0.003,0.24226980295323347
48,0.23855913182993016,0.003,0.23793583180999417
49,0.2377740814269399,0.003,0.24010082831181404
50,0.23783825717264895,0.003,0.23669496600846182
51,0.23759990442189857,0.003,0.2399589881336209
52,0.2377892899677622,0.003,0.2418936346176109
53,0.23740195307573922,0.003,0.23523592139170127
54,0.23669315614312483,0.003,0.23531960217898157
55,0.23673786571640953,0.003,0.2359760792098275
56,0.23644183227698579,0.003,0.24154068547835383
57,0.23601532858505334,0.003,0.2392204463623035
58,0.23621037916885576,0.003,0.2346350332544183
59,0.23640637350477856,0.003,0.23267679881442693
60,0.23522164727107797,0.003,0.2338257830857572
61,0.23556084035457275,0.003,0.23462437209691603
62,0.2357212790041614,0.003,0.23473310676398199
63,0.23505225468822996,0.003,0.23494045810969494
64,0.23543560332495816,0.003,0.23452356435364405
65,0.23458808168268605,0.003,0.23606407825247736
66,0.23437163454117915,0.003,0.2348986062461594
67,0.23467063677491998,0.003,0.23569414667026584
68,0.23432902534969513,0.003,0.23329763829519923
69,0.2341676175528817,0.003,0.23441116962267267
70,0.2338577697126509,0.003,0.23472059011200608
71,0.23474483792897133,0.003,0.23625485575519026
72,0.23379186099822477,0.003,0.23565316888273657
73,0.23383827809449867,0.003,0.23429885169677878
74,0.233235966140251,0.003,0.234102273290799
75,0.23317963505189102,0.003,0.23299724965017427
76,0.2330084082951172,0.003,0.2339449679830362
77,0.23324212797885413,0.003,0.2316796052274783
78,0.23268047075787132,0.003,0.23197766851513238
79,0.23325034698469937,0.003,0.23427645446939926
80,0.23282849593318813,0.003,0.23453535338321255
81,0.2324762483396166,0.003,0.23465174453034585
82,0.23304107083643463,0.003,0.23388747463992193
83,0.2330046851310036,0.003,0.23275778286200202
84,0.23270629159659503,0.003,0.231618173538039
85,0.23255958603166466,0.003,0.23077892717900197
86,0.23205331611416513,0.003,0.23493424784201003
87,0.2321599430466394,0.003,0.23401635422444098
88,0.23259378218953367,0.003,0.23414108885750587
89,0.23220654048150677,0.003,0.23331203079990448
90,0.23162347960064736,0.003,0.23652040226871607
91,0.23189534427974817,0.003,0.2308440867049918
92,0.23188246425083406,0.003,0.23154962096354487
93,0.23134881603143675,0.003,0.2295492477685613
94,0.23172653267542712,0.003,0.2334058068592716
95,0.23178087211817766,0.003,0.23088717068403652
96,0.2318935050226325,0.003,0.23491850591190425
97,0.23161520579045147,0.003,0.23123166141494955
98,0.2312483855133815,0.003,0.2299685865675923
99,0.2312550511803749,0.003,0.2319586496291522
100,0.2315629125981451,0.003,0.2335369971999053
101,0.2314115708335031,0.003,0.23378655494976533
102,0.23135691642356243,0.003,0.2309181370082199
103,0.23136671006286458,0.003,0.23292994815576895
104,0.23121145883385988,0.003,0.230625610566318
105,0.23159186797533676,0.003,0.23454529919088968
106,0.23171744398552355,0.003,0.23177500382571495
107,0.23100496927122893,0.003,0.23090028177708646
108,0.23159512656805611,0.003,0.22990890471198563
109,0.23130790062016435,0.003,0.22956665304225546
110,0.23122495777613158,0.003,0.2299597855619116
111,0.2312451740362042,0.003,0.23134625465524603
112,0.2309132637999517,0.003,0.22915375457331244
113,0.23118713337609426,0.003,0.2340850762570102
114,0.23143168893768537,0.003,0.23315364717496317
115,0.23160546741706672,0.003,0.23033340023602664
116,0.23094961700810612,0.003,0.23084998503033347
117,0.2312783447595285,0.003,0.22924620577596547
118,0.23091522410964604,0.003,0.2292298756616268
119,0.2307787561486903,0.003,0.23221536091254655
120,0.23069496802110181,0.003,0.23232792252593842
121,0.23112676844751234,0.003,0.23598605099162814
122,0.23131789425484758,0.003,0.23617746706261067
123,0.23112882713048005,0.003,0.23033527034939794
124,0.2312961975536901,0.003,0.23108032294611527
125,0.23128963288047807,0.003,0.2305808081434953
126,0.2313361635221709,0.003,0.23152627232583753
127,0.23098820226667502,0.003,0.23381787714355087
128,0.23113002982154357,0.003,0.2297135111129745
129,0.23072329926178706,0.003,0.23214101376219254
130,0.2310053915303531,0.003,0.23087523814699457
131,0.230947562520929,0.003,0.23089202398165248
132,0.23115115010624024,0.003,0.22916353580960158
133,0.23108906086555106,0.003,0.23670820505508966
134,0.23095297867612397,0.003,0.2368355305614016
135,0.23083508314250661,0.003,0.23162356553556604
136,0.2311085566080255,0.003,0.23430188543559438
137,0.23107701368171343,0.003,0.23180961846458506
138,0.22337638237755553,0.00075,0.22349565353276885
139,0.22297813460457144,0.00075,0.22337099913310704
140,0.22270177812170353,0.00075,0.22308851476250055
141,0.22275306743612105,0.00075,0.22409185270272378
142,0.22238316572458147,0.00075,0.22391134808641205
143,0.22250310293466544,0.00075,0.22242150229314414
144,0.22253846397383703,0.00075,0.22336924725286397
145,0.22226784477750364,0.00075,0.22275665920483567
146,0.22233996682649226,0.00075,0.22356408600413902
147,0.22250367037290864,0.00075,0.2233481136604191
148,0.22230788669009194,0.00075,0.2225805926588735
149,0.22200569213866045,0.00075,0.2227392618992052
150,0.22208168785229956,0.00075,0.22222369032505468
151,0.2219873316478815,0.00075,0.22270562617959427
152,0.22204563779522665,0.00075,0.22438967558419318
153,0.22194927537457929,0.00075,0.22312901370174412
154,0.22201054041786827,0.00075,0.22201700875537078
155,0.2221127926535029,0.00075,0.22262000418382077
156,0.2220157215194546,0.00075,0.22179988923393654
157,0.22197025620656238,0.00075,0.22340982160350895
158,0.22190427573190796,0.00075,0.2226466074433022
159,0.2216998792910795,0.00075,0.2230073498545807
160,0.22175150154698953,0.00075,0.22155248280835133
161,0.2216666051023584,0.00075,0.22234716875612406
162,0.22195787041140594,0.00075,0.22196835579369703
163,0.22187373103450336,0.00075,0.2241672220586225
164,0.2218506941549498,0.00075,0.22177687119148617
165,0.22168021203635885,0.00075,0.22266291619382134
166,0.2218717500198183,0.00075,0.221846868408272
167,0.22179092782781087,0.00075,0.2226922277952144
168,0.22179713252958633,0.00075,0.2221373897325174
169,0.22181966216217794,0.00075,0.22123063443891627
170,0.22175833521236618,0.00075,0.221716979161293
171,0.22170567335925703,0.00075,0.22048066121297458
172,0.2217240283856813,0.00075,0.22347986086579694
173,0.2220250706789162,0.00075,0.22125111850773901
174,0.22179082228685265,0.00075,0.22285767708741122
175,0.2216710145477292,0.00075,0.22207437056956936
176,0.22183139285714412,0.00075,0.22358915636693763
177,0.22177592251631473,0.00075,0.22294721737703943
178,0.2216116299333094,0.00075,0.22286223337912806
179,0.2218315668529172,0.00075,0.22267459810438736
180,0.22184391094030712,0.00075,0.22104295883577643
181,0.22195404002087102,0.00075,0.22142490291793043
182,0.22182966933118925,0.00075,0.22302847377361984
183,0.22146799646431117,0.00075,0.2212270068000317
184,0.22167207393869698,0.00075,0.22173307586722987
185,0.22179311164598955,0.00075,0.22154889639170036
186,0.2217766929009883,0.00075,0.22277370908524732
187,0.2218768330459162,0.00075,0.22413256394529116
188,0.2218751769384844,0.00075,0.2234534452997895
189,0.22175352261375655,0.00075,0.2222161480793825
190,0.22171091640905605,0.00075,0.22109354392646707
191,0.22174384673353104,0.00075,0.2229610110714667
192,0.2219559082226883,0.00075,0.2225939263813874
193,0.22186730095415377,0.00075,0.22156612178709156
194,0.2220400254414093,0.00075,0.22242879321256206
195,0.22184263522045122,0.00075,0.2212103416859492
196,0.2219187469421912,0.00075,0.22163653170841363
197,0.2196909310333401,0.0001875,0.220548785781898
198,0.21974177343203583,0.0001875,0.22094359827516769
199,0.21982455016564217,0.0001875,0.22048778282132972
200,0.219970518310698,0.0001875,0.22044608578521055
201,0.2200427194007581,0.0001875,0.22062481933912143
202,0.22006629930911875,0.0001875,0.22082802102310786
203,0.22003127457938795,0.0001875,0.2209974728765785
204,0.2202314649262636,0.0001875,0.22076148864972658
205,0.2201883378777382,0.0001875,0.221276967312138
206,0.2203696314945257,0.0001875,0.22089894941545604
207,0.2204758976455882,0.0001875,0.2220803338508015
208,0.22082728020650305,0.0001875,0.22148028992251703
209,0.22099710383611046,0.0001875,0.22331406260181244
210,0.2214248021818894,0.0001875,0.22206691239137957
211,0.22187971999402717,0.0001875,0.22331569165626472
212,0.22266095632212243,0.0001875,0.22394551646079053
213,0.22272981046069917,0.0001875,0.2237621276053558
214,0.22342029022727367,0.0001875,0.2240711156846316
215,0.22419613332664082,0.0001875,0.22524238782387224
216,0.22389010571354298,0.0001875,0.22536416798124373
217,0.22432350544787522,0.0001875,0.22548984403368424
218,0.22496772786493685,0.0001875,0.2253533918307631
219,0.2261429540932083,0.0001875,0.2267395413841614
220,0.22662822796786716,0.0001875,0.22771875827845947
221,0.22675897064004585,0.0001875,0.22926262570302508
222,0.22640698774160145,4.6875e-05,0.2265773980739367
223,0.22648995771980304,4.6875e-05,0.22758174878739898
224,0.22719060492922935,4.6875e-05,0.22841045957267425
225,0.22749559755483978,4.6875e-05,0.2277988464157696
226,0.2277571708887077,4.6875e-05,0.22934330171290213
227,0.22805202791957166,4.6875e-05,0.22935821218291133
228,0.22855860475811074,4.6875e-05,0.2290634078685938
229,0.22928312402977932,4.6875e-05,0.23075827716863712
230,0.23116025225304776,4.6875e-05,0.2317434772202229
231,0.2321511533924287,4.6875e-05,0.23316630790482004
232,0.23367029440393455,4.6875e-05,0.23458298721483775
233,0.2350825068416546,4.6875e-05,0.236167203679081
234,0.23623442579266266,4.6875e-05,0.2384766492384009
235,0.23926650752111686,4.6875e-05,0.23866846758193075
236,0.23878996050376877,4.6875e-05,0.23924890434591434
237,0.2390113550749757,4.6875e-05,0.23999607583012464
238,0.23903290029588364,4.6875e-05,0.23905900834038582
239,0.24183102650381774,4.6875e-05,0.2433043942796309
240,0.24535819230605657,4.6875e-05,0.2460419015860407
241,0.24556510661729425,4.6875e-05,0.24618929596331143
242,0.2472410002033964,4.6875e-05,0.24644098737245482
243,0.24618588681284376,4.6875e-05,0.24897285166248714
244,0.247194551818853,4.6875e-05,0.24697042765256072
245,0.2458123891658301,4.6875e-05,0.24557532515926633
246,0.2459622720847551,4.6875e-05,0.2475261756975348
247,0.24524695378580064,1.171875e-05,0.24587089521920671
248,0.24524249332986003,1.171875e-05,0.2457325968541493
249,0.24480413875693707,1.171875e-05,0.2461176780952933
250,0.24511032278160397,1.171875e-05,0.24621222555731448
251,0.24468025341213084,1.171875e-05,0.24524934837431445
252,0.24478524780387786,1.171875e-05,0.24470135397862147
253,0.2446471900611425,1.171875e-05,0.24483187563111675
254,0.24488796236263,1.171875e-05,0.24606283640616883
255,0.2447048204092623,1.171875e-05,0.24429248676186202
256,0.24387455932635196,1.171875e-05,0.24356758506305592
257,0.24363602453070007,1.171875e-05,0.24414467679273452
258,0.2431512462268535,1.171875e-05,0.24371852107704767
259,0.24285750420723887,1.171875e-05,0.24296886004631033
260,0.24290109183088385,1.171875e-05,0.244063463747125
261,0.24353792067828606,1.171875e-05,0.24369414513541096
262,0.24389288146837915,1.171875e-05,0.24541061843180148
263,0.2443633461438066,1.171875e-05,0.2448686071463523
264,0.2438319915448495,1.171875e-05,0.24383144593417597
265,0.24363423354453226,1.171875e-05,0.24449658413853528
266,0.24419865695287665,1.171875e-05,0.2448889922230095
267,0.24414259277814201,1.171875e-05,0.24461215630985192
268,0.24393530544950712,1.171875e-05,0.24485354202534143
269,0.24406235964059067,1.171875e-05,0.24385160645844906
270,0.24373174150832455,1.171875e-05,0.24400116616732132
271,0.2437593164972121,1.171875e-05,0.24369474558046508
272,0.24332838352445027,2.9296875e-06,0.24351440972245011
273,0.24345370969302554,2.9296875e-06,0.24392427023038585
274,0.2435901789136118,2.9296875e-06,0.244012955667329
275,0.24358273785320117,2.9296875e-06,0.24394399530438804
276,0.2434137071595251,2.9296875e-06,0.24355373745629802
277,0.24343115645799515,2.9296875e-06,0.24380554054770398
278,0.24363192694959976,2.9296875e-06,0.2441005920072475
279,0.24383706420505172,2.9296875e-06,0.24419025335851954
280,0.2435562692189531,2.9296875e-06,0.2439584655903321
281,0.24348590030765935,2.9296875e-06,0.24371520627434082
282,0.24328395276427936,2.9296875e-06,0.2439110622092223
283,0.24340372859276266,2.9296875e-06,0.24410958372309347
284,0.24358643120903667,2.9296875e-06,0.24406412374389952
285,0.243562605913928,2.9296875e-06,0.24400657392456104
286,0.24355201522032802,2.9296875e-06,0.2440234225099258
287,0.24352728655870012,2.9296875e-06,0.24406489924525498
288,0.24360832169378022,2.9296875e-06,0.24412874902738957
289,0.2436864332174607,2.9296875e-06,0.24414781812687228
290,0.24356497146433395,2.9296875e-06,0.24403063154352303
291,0.24364245329781783,2.9296875e-06,0.2439620334422767
292,0.24358295154073636,2.9296875e-06,0.24415424507296546
293,0.24370509674020713,2.9296875e-06,0.24378396985845108
294,0.2436812959706707,2.9296875e-06,0.2441368625450059
295,0.24353509027656797,2.9296875e-06,0.2437834341046654
296,0.24361617614825568,2.9296875e-06,0.24379220790131975
297,0.24344836809426,7.324219e-07,0.24392955304485847
298,0.24351549343906528,7.324219e-07,0.2438525547815197
299,0.24346464635621157,7.324219e-07,0.24389783569391826
300,0.24336426144392848,7.324219e-07,0.24375108697090736
