epoch,loss,val_loss
0,0.4278979719563116,0.4128339986203622
1,0.411500963428631,0.4104033326540632
2,0.41102751469875903,0.4117328023348494
3,0.41073717810717925,0.41023282964827107
4,0.41049956187557146,0.4100152805040847
5,0.4104453352261362,0.410100801159667
6,0.41027177498518597,0.40994699274931595
7,0.41022280313269727,0.4099079471072251
8,0.40996127265163007,0.41149793900272097
9,0.40991533683150666,0.4187142513230184
10,0.4097222152289976,0.4090893380990987
11,0.40964667596742044,0.40931595884836636
12,0.4096808735085945,0.4092800477894009
13,0.4095608301369929,0.4092942092465999
14,0.40949887853241074,0.4111401700056516
15,0.4094546162234606,0.4090771526763812
16,0.4094187323017763,0.4095765261585008
17,0.40940917276305594,0.40907550498510414
18,0.4093332518443267,0.40999010635664684
19,0.4093072546207435,0.40891537027382674
20,0.40927629435028173,0.40882675634424387
21,0.4092211692752657,0.4090192263682486
22,0.40921112622629535,0.40895580112490404
23,0.4091699709083535,0.41003843420196706
24,0.4092195535757308,0.40930417740611225
25,0.4091247712605349,0.40968601677021377
26,0.4091047000820957,0.4091432770043981
27,0.4091166656528086,0.41028919236239964
28,0.40910533053407255,0.40879150772508854
29,0.4090644896201602,0.408822973431192
30,0.40902366792604594,0.40890783178007634
31,0.40904919531923706,0.40966366187810305
32,0.40910170514570554,0.40939305754512473
33,0.40903189775567045,0.4090061983754558
34,0.4090646420994607,0.40884553960180164
35,0.4090462386268139,0.4088346822681853
36,0.40901981420663436,0.40918930678746246
37,0.40899156147051563,0.40959913461439074
38,0.4089820441889256,0.40969453792714006
39,0.4089907806067568,0.408731005949063
40,0.40894766764055435,0.40880930389719033
41,0.40895291081766766,0.4091224343102268
42,0.40900753801156214,0.40870089653703773
43,0.4090100624127423,0.40933893225329093
44,0.40904106149394404,0.408918565038416
45,0.4089415725333643,0.40918879791465645
46,0.4089920672931647,0.4090173001620669
47,0.408918078271795,0.40904330407123707
48,0.40895026674691676,0.4088434631416283
49,0.40898462371223443,0.4089888709650442
50,0.4089594794804908,0.40918769127973553
51,0.4089227204348152,0.4096269124642791
52,0.4089538383829551,0.40933548497502914
53,0.40893247148089823,0.408775361403638
54,0.4089432217782112,0.40879390816534716
55,0.4089517063492415,0.40867123053624077
56,0.4089682160103356,0.4087382021967885
57,0.408860331755536,0.40892630898331295
58,0.40897897586272414,0.40905839210704303
59,0.4088999708593732,0.4099107465140577
60,0.40891521112438395,0.40881766184387963
61,0.4089254260538835,0.40918948122348736
62,0.4088624018413908,0.40891383935145054
63,0.40888651395537906,0.4088740448058391
64,0.4088953408679715,0.40959245688270396
65,0.4088532530723148,0.4086171580899146
66,0.408865205891226,0.4091055349735705
67,0.4088791682356819,0.40870829048582696
68,0.4088962848866368,0.40962990918762926
69,0.4088705699763703,0.4088115400179444
70,0.40888310561229213,0.4102384972956873
71,0.40896430339306933,0.40874658204781505
72,0.4088632100569773,0.4086183606838766
73,0.4088715475939879,0.408704294830043
74,0.4088418038882377,0.4087552028761312
75,0.4088454548346372,0.41060275964938087
76,0.4088583838808563,0.40931303545499853
77,0.40885163265795393,0.4089550817131109
78,0.4088435280768874,0.40883290331357763
79,0.4088430928756573,0.4087938496403895
80,0.408876848991747,0.4094057871449378
81,0.4088192969449004,0.40899067358402696
82,0.4088555447545937,0.4086972789492264
83,0.40886911915651464,0.4092241457910751
84,0.4088035921788207,0.4085791396000249
85,0.40881040616246933,0.40881646491457746
86,0.40882477380920146,0.41119307900776636
87,0.40883124590328657,0.40944272937904813
88,0.40883402619282866,0.41063611511852843
89,0.40883028625044154,0.4087121822697945
90,0.4088091544231211,0.4100879232581733
91,0.40881822512345156,0.40861262359630973
92,0.4087947707335962,0.4086060751164817
93,0.40879828505180266,0.40894366795608483
94,0.4088208103468327,0.4087472569114221
95,0.4087545667002158,0.408666105601687
96,0.4088359538458984,0.41059744242698915
97,0.40875600756269354,0.4088590350843245
98,0.40883201981944134,0.4086255306641458
99,0.40877988287953904,0.4087816969188804
100,0.408807996254964,0.4091130654066431
101,0.4088321422865912,0.40912960846134216
102,0.4087631559885791,0.4093895924594207
103,0.40879269514369293,0.40861910852250033
104,0.4088275727983096,0.40857632370208097
105,0.40877947405001763,0.4085525747416333
106,0.4087600439825958,0.40906754283987856
107,0.4087905281187453,0.40921537061187235
108,0.4087671701556389,0.408806105405462
109,0.40875723584426427,0.40861392495945725
110,0.4088067045531867,0.4088905982137022
111,0.40876827288100864,0.4090440857794977
112,0.40873985542810365,0.40870266842191333
113,0.40879201223227674,0.4100584645277217
114,0.40876418257664904,0.4086143396332601
115,0.40874874217646756,0.4086960028477993
116,0.40879848384754314,0.40931662294468274
117,0.40874712996197543,0.4087943713954897
118,0.40877966188341314,0.40858436785915647
119,0.40878510580033395,0.40861621920583263
120,0.40870606618044236,0.4085245272805614
121,0.4088160570540954,0.4086358309975333
122,0.40871670348324846,0.40876623310758814
123,0.4087287774693207,0.4087815443724024
124,0.40867858534462803,0.4101288955945235
125,0.4086886509461955,0.4084058613694335
126,0.4087168857487004,0.40947719337626665
127,0.4086735665725615,0.4090617505107861
128,0.4086401269544457,0.4092044908266801
129,0.408663696553443,0.4112319320662146
130,0.40862795218058795,0.4111695663656845
131,0.40871962858270927,0.4091805452744363
132,0.40865572072924766,0.408744881614562
133,0.40867508979855977,0.4084862579187152
134,0.4087066010193465,0.4084666265151637
135,0.40865593245545945,0.4087699468910842
136,0.40864769990911076,0.4085522325991401
137,0.40864540218164724,0.40967721777873356
138,0.4086085666744635,0.4084223321442569
139,0.4086321111686101,0.4087366862421296
140,0.40866261068572546,0.4087572194654356
141,0.40860142917266473,0.4086588148591536
142,0.40864717790877936,0.40952508090151746
143,0.4085977946697827,0.4083825793662675
144,0.4086402555212093,0.40911724552623097
145,0.4086538402066886,0.40840514367330755
146,0.40858339865600096,0.40846620830649477
147,0.4086167734004943,0.4084659669002883
148,0.4086536662669235,0.40862299081113734
149,0.40861923117764226,0.4084467142746407
150,0.4086385501413783,0.4094387605379592
151,0.4086206499284778,0.408442458517794
152,0.40861014773655374,0.4087059620000588
153,0.4086164753871308,0.40842498857389314
154,0.40866458178981685,0.4085719749442401
155,0.4085700504055924,0.4085718860845116
156,0.4086122906624066,0.4085004771021992
157,0.40866531834036485,0.4084132906225124
158,0.40863602204729915,0.40851891530358764
159,0.4085750898926808,0.4087585613686157
160,0.40861776421915125,0.4084249584166051
161,0.4086077098579906,0.40845171652419987
162,0.4085869133126147,0.4084445466770428
163,0.40866125322723257,0.40839855409141806
