epoch,loss,val_loss
0,0.5628077246246651,0.558628889585547
1,0.5585794270837687,0.5578717170518918
2,0.5580277107514506,0.5627336527514398
3,0.5577990310779722,0.5594451954287868
4,0.5575837856363832,0.5573729957895303
5,0.5573895644602674,0.5569593213628007
6,0.5572178743297389,0.5567553720462411
7,0.557075240935418,0.5568992554401937
8,0.5569009908784387,0.5570808463889375
9,0.5569202847688772,0.557004519698046
10,0.5568480829595833,0.5569199931828615
11,0.556855176433727,0.5568846206511221
12,0.5567547862894288,0.5564595585129692
13,0.556718756458988,0.5572863079478072
14,0.5567570207374916,0.5565097113105263
15,0.5567132934784571,0.5564305894723897
16,0.5566912388803468,0.5586860450562413
17,0.556672645678356,0.556436966429869
18,0.5566181935431793,0.5568015891032538
19,0.5566676118250782,0.556548870881793
20,0.5565843029066454,0.5564780366923614
21,0.5565835539655791,0.5565611754398488
22,0.5565801342124872,0.5567448242130706
23,0.556568224999208,0.5565734970954157
24,0.5565519869983061,0.5574622474296513
25,0.5565247837392897,0.5567521620329201
26,0.5565693623955476,0.556983079507984
27,0.5565318844895843,0.556519972420212
28,0.5565230759381506,0.557286721482762
29,0.5565018363438876,0.55719616889362
30,0.5564796583162571,0.5565640958899599
31,0.5564999006621248,0.556521427305993
32,0.5564681549881982,0.5564301170131409
33,0.5564502554501402,0.556404291222764
34,0.5565095207512949,0.5563805864703271
35,0.556464827722053,0.5563905361864171
36,0.5564541250151375,0.5566328289195267
37,0.5565108902966073,0.5563288787458434
38,0.5564781866176977,0.5563769896923756
39,0.5564703108587212,0.5564224025747616
40,0.5565001392337366,0.5568109362356124
41,0.5564229562175566,0.5564925189645356
42,0.5564773216786613,0.5567722439174321
43,0.5564458975342489,0.5563243860642313
44,0.5564693765091171,0.5562775883426145
45,0.5564630453908515,0.556326046415949
46,0.5564238393122619,0.5564098567879822
47,0.5564277449180292,0.5563300210843902
48,0.5564767500369792,0.5563176476925833
49,0.5564317713841033,0.5563532267551564
50,0.5564652993213922,0.5565265194358069
51,0.5564397740544874,0.5562795923898001
52,0.5564169919051752,0.5563421403799695
53,0.5564744729085799,0.5563224787155985
54,0.5564558204900477,0.556337290839581
55,0.5564640988053896,0.5571547344068144
56,0.5564329282936851,0.5563680993711978
57,0.5564255548525942,0.5562845025701499
58,0.5564116484502539,0.5569725788260808
59,0.5564397141492992,0.5564186771809315
60,0.5564474695749059,0.558487971899823
61,0.556441872577203,0.556320818570944
62,0.5564008977360452,0.5564426362070789
63,0.5564409329850469,0.5572052626396823
64,0.556403652159123,0.5562783953865468
