epoch,loss,val_loss
0,0.47170647267969595,0.46010105592145517
1,0.4602182008805957,0.46285409340195854
2,0.4601386039847661,0.459373364614198
3,0.45966891894179784,0.4596274954213694
4,0.4594558949752037,0.45948173143431803
5,0.45933800882026043,0.45871648658298086
6,0.45910261869130786,0.4583839346398195
7,0.45886955067446944,0.4585069201128654
8,0.4588169972435522,0.45854256348337785
9,0.45865870505014056,0.4582813413356137
10,0.4585778292481153,0.45825708774715734
11,0.45842430152119196,0.45836672515194704
12,0.45841077946630227,0.45803456137848847
13,0.4583868347097025,0.45978594286270236
14,0.4583269952067239,0.4579712424769295
15,0.4582866314565445,0.45820809678167623
16,0.4582780069351714,0.45814895304497655
17,0.45826837719350555,0.45826882054433044
18,0.4582553212055087,0.45840158626696015
19,0.4581727968796255,0.4580586861292127
20,0.4581953024586845,0.46024362107660277
21,0.45817714799502923,0.4578866551738815
22,0.4581149264005984,0.45789991809475805
23,0.45818271534383676,0.45787298970719426
24,0.45809068764853134,0.4579878401075936
25,0.45809107136610266,0.4598766250586687
26,0.4581150538791736,0.4578145688579929
27,0.45812317945016867,0.45933510301722486
28,0.45812073754897636,0.45810693268740443
29,0.458056545737097,0.45801982450721873
30,0.45811026757516093,0.45877415432823504
31,0.45810925887771375,0.45808038798810236
32,0.45804439137416797,0.457843609350195
33,0.4580515074300955,0.4578754253038402
34,0.45803862677611756,0.45780543180612415
35,0.4580554249582115,0.4577415468379227
36,0.43117845798756393,0.40857952095142963
37,0.4087222239756631,0.4085041385874263
38,0.4086825186859878,0.408562698819797
39,0.4087271498091788,0.40864843016226887
40,0.40874862938035095,0.40886955801074026
41,0.40868106280974364,0.4085794007659846
42,0.4087148688752214,0.4086632859026528
43,0.40864530626724216,0.40884606187456
44,0.40871933747277545,0.4099164086595067
45,0.4086627124694065,0.40862100386146283
46,0.40867646558074205,0.4084898036851481
47,0.4086494818715351,0.4085214327493909
48,0.4086186514102413,0.40893107810919693
49,0.4086621030846634,0.40838708898269804
50,0.4086748476105653,0.4085852237848135
51,0.408605774308751,0.4084455251397921
52,0.4086809834500808,0.40849605575388775
53,0.4086172992207261,0.40951673832188173
54,0.40865411376480143,0.40841607115700584
55,0.40862835442378864,0.40876481428039874
56,0.40868071085670477,0.40842454701144404
57,0.408678791946612,0.4084188770567513
58,0.4085839481631648,0.4085433169718712
59,0.408617487713582,0.4084293237247183
60,0.40861621404757176,0.40839224058404455
61,0.4086658723718526,0.40846912307715594
62,0.408648902375491,0.40864079144988996
63,0.40863699078468374,0.4083887456664376
64,0.40856542642939986,0.4096280660434041
65,0.4085796114908103,0.408526336451618
66,0.40861673030799506,0.4085257759165231
67,0.4085765209650123,0.4087439572101195
68,0.40860158677461533,0.4085257475488535
69,0.4085874466113319,0.4086413674407798
