epoch,loss,val_loss
0,0.5661592266198349,0.5580181990308738
1,0.5524108790183537,0.5099065875001344
2,0.4945192179842401,0.459029957023507
3,0.4596195799252968,0.46123706445504653
4,0.45922722075686645,0.45855816721028786
5,0.4590958374538883,0.46005240773444733
6,0.45900792927048845,0.45880122871020296
7,0.45903378868658046,0.4588255076787016
8,0.45880130712443373,0.45990459367300085
9,0.45886730726216346,0.45858633191354814
10,0.45874921140395825,0.45820265085466444
11,0.4586454834622644,0.45869546673138145
12,0.4586007333380345,0.45829226169041903
13,0.45862263903260236,0.4581687974426942
14,0.4585893334190371,0.4582446992101504
15,0.45853771862184967,0.4588048363441865
16,0.4584357069698748,0.45831028814647096
17,0.4583280022125291,0.4600195540831639
18,0.4583266470802905,0.45862703484577816
19,0.4583097328477693,0.45864743838830857
20,0.4582896593943497,0.4579915373999783
21,0.45827990864644375,0.4581201534265324
22,0.45823482081975014,0.4580802540477393
23,0.45825318659784886,0.45932703043331874
24,0.4582265090064259,0.4582443068843917
25,0.45820277322460523,0.4583981535718695
26,0.45817227172634795,0.4579212897764542
27,0.45818695469767207,0.45801188686941163
28,0.45817761374363,0.45841968429295654
29,0.4581106844893822,0.45812057230076186
30,0.4581433172841932,0.4578572326351336
31,0.45814559589519505,0.4579485828911992
32,0.45816631088244403,0.45810426855205605
33,0.45812810499142353,0.45793161945366684
34,0.4581089353745514,0.4581750966331207
35,0.45812896084434274,0.4580120488372689
36,0.45812775297685604,0.4581299491319112
37,0.4581043132335676,0.4588259674035586
38,0.45809195062552555,0.4580933833980087
39,0.45808833978946045,0.45824034203666614
40,0.45807763896508336,0.45809121957192056
41,0.4580616993960184,0.45790688714969247
42,0.45809176126811396,0.4581786778221651
43,0.45807654490538535,0.45791678734807756
44,0.45807682593567295,0.45783279794025655
45,0.458007875555768,0.4578554805100112
46,0.45800381598336476,0.45793441544395525
47,0.45803290299598043,0.457877154489309
48,0.45808666723474134,0.4578780442698126
49,0.45803654655263765,0.45796468405806395
50,0.45805679105910574,0.4585197746162083
51,0.45801058099932196,0.45792206905911637
52,0.45804426649123187,0.4578064556305225
53,0.45801302173857045,0.45777696952334707
54,0.45804812398005884,0.4578494271480712
55,0.4580146284363928,0.458260012516017
56,0.45801287486547165,0.4583623895722051
57,0.45801583180558686,0.45846727327732534
58,0.4580105150450049,0.4580765522887038
59,0.45802997139026486,0.458750070280236
60,0.45802010162514906,0.45784902828502894
61,0.45799602747706575,0.45785539459353936
62,0.4579876835268822,0.45862912199929096
63,0.45801993302141203,0.45777146412480263
64,0.45804451459188783,0.4578600710586046
65,0.4579985901494274,0.4579408575228367
66,0.4580272893019407,0.4581327234249257
67,0.45798003638726703,0.4578343980809299
68,0.4580049230023262,0.4579546310321865
69,0.4580468293253033,0.4581653550304195
70,0.4579932447204636,0.4579956436127646
71,0.45795694480985344,0.4587434661743363
72,0.458007952185691,0.4579540791937494
73,0.4579851376025257,0.45782118211904765
74,0.45798304239801574,0.46092427936440367
75,0.4579658961731041,0.45802558954832867
76,0.457988016762212,0.4580168984368185
77,0.45794546307872636,0.45781979012134355
78,0.45799532145968946,0.4581895477126905
79,0.45798084912954395,0.4582544109217878
80,0.4579911630830092,0.45784718808406044
81,0.4579608637779753,0.4579814941800262
82,0.4579952816660696,0.45772408386022223
83,0.4579707225373606,0.4577595262166584
84,0.45798046185987945,0.4578687042219763
85,0.45801063445899537,0.45837648833360034
86,0.45796801723776775,0.45789063383568607
87,0.4579852344165893,0.45801765097873676
88,0.45793783798843596,0.45981821692906893
89,0.45797048541206525,0.45811243267272306
90,0.4579734163003416,0.4585528020379561
91,0.45803796844695344,0.4587821614949342
92,0.4580012712793254,0.45778363280497475
93,0.45799977917575346,0.4578343106262737
94,0.4579351312232004,0.45787596587211854
95,0.45796665153365407,0.45797551599684777
96,0.4579862771515773,0.45830188826946705
97,0.45798440110049066,0.45811331493978763
98,0.45794556413353016,0.45828718303450877
99,0.4580014141029748,0.4586114546057604
100,0.4579748132026091,0.4589626403511606
101,0.457976826477454,0.4578372801799632
102,0.4579743969462705,0.45796975787756755
