epoch,loss,val_loss
0,0.569901673522215,0.5612060075362326
1,0.5589020028965749,0.5592500203892256
2,0.5586924266959383,0.5582228452336995
3,0.5583282976029601,0.5578545354731917
4,0.5582509856930471,0.5628260277636885
5,0.5580378535789008,0.5578441489127375
6,0.5579066890913331,0.559841291306924
7,0.557765198137119,0.5573166020159094
8,0.5577457167927113,0.5572102055360306
9,0.5576228187257456,0.5572060811016755
10,0.5575423496794125,0.5572729548508712
11,0.5574477783796942,0.5572468962326239
12,0.5573886030798887,0.5573913603503414
13,0.5574288763727762,0.5573824262500696
14,0.5572677866050197,0.5576817929596818
15,0.5572255891606708,0.5576854922339579
16,0.5571875077151812,0.5571833975853459
17,0.5571913717433936,0.5568029470538383
18,0.5571472794091638,0.5584969932328975
19,0.557156058101874,0.557300093511198
20,0.5571466184760779,0.5569979948678029
21,0.5570609623513295,0.5594439660940809
22,0.557092200757474,0.5567923436389668
23,0.557097588062564,0.5570292989314342
24,0.5569987959137359,0.5568409329016806
25,0.5570285864620744,0.55679352360387
26,0.5569657212457861,0.5570199462675279
27,0.5569599990776193,0.5594016457313935
28,0.5569730260509387,0.556932512790926
29,0.5569513815259374,0.5568675775090163
30,0.5569507287098933,0.5571522916812754
31,0.556963815152179,0.5574195362793897
32,0.556918593746902,0.5568317070788249
33,0.5569089977911408,0.5577539223595234
34,0.5568998752947755,0.5572297092998589
35,0.5568950927929146,0.5571858228879886
36,0.556879133552053,0.556672179758105
37,0.5568472144629318,0.5571573149773382
38,0.5568880460765603,0.5567706460100841
39,0.5568212205729366,0.5577463184929368
40,0.5568528670974738,0.557510744194239
41,0.5568037468332769,0.5567202878944927
42,0.5568196886923101,0.5571573650274916
43,0.5568173848936306,0.5565487388049994
44,0.5567908264637732,0.5571312026409594
45,0.5568047254629611,0.5569252743910323
46,0.5568265959217582,0.5570807316167183
47,0.5568066169261724,0.5571771440967437
48,0.5567876227628267,0.5567775250960224
49,0.5567692194081096,0.5568173709933278
50,0.5567596715046047,0.5566109396979472
51,0.5567843299747828,0.5566607603659997
52,0.5568282116043333,0.5565801301014335
53,0.5567850976812823,0.5586401193964274
54,0.5567315880640252,0.5567862326099027
55,0.5567408138392953,0.5566261771299111
56,0.5567578417537871,0.5568195669881759
57,0.5567485271233351,0.5567823967626018
58,0.5567953642364297,0.5574499961164394
59,0.5567415023229936,0.5566207229351583
60,0.5567498863862724,0.5566040898670925
61,0.5566941819871769,0.5572907354340659
62,0.5567510327184575,0.5575019826072617
63,0.5567466542196728,0.5566417963865673
