epoch,loss,val_loss
0,0.611556440103133,0.6088069992976508
1,0.6075498368499616,0.6069201963711022
2,0.6072007495212753,0.6079743480564052
3,0.6071313890836435,0.6070783502410718
4,0.6068079398298111,0.6090534282085618
5,0.6064873858356478,0.606467363763388
6,0.6065354107527791,0.6061130034420685
7,0.6063912581330019,0.6060733361516342
8,0.6062127919867019,0.6068004139008061
9,0.567418985796985,0.5582190042689775
10,0.5569344462025176,0.5566105015816227
11,0.5569140462330066,0.5568871519997457
12,0.5568351268679962,0.5569913165149263
13,0.5567961078166198,0.5565523633294307
14,0.5567514911451552,0.5566662030835305
15,0.5567402254515802,0.5572165134526955
16,0.5567545334881459,0.5564573984288105
17,0.5567965525019309,0.5567083580618165
18,0.5566665980854414,0.5565558387091378
19,0.5566675163358515,0.5568719460414007
20,0.5566948718671011,0.5566462003859338
21,0.5566914078883582,0.556445463153328
22,0.5566824395834451,0.5564657155396625
23,0.5566313554416117,0.5565298934136668
24,0.5566245201020181,0.5564014923483799
25,0.5566315523567859,0.5566444021596506
26,0.5565839721951713,0.5564441141064647
27,0.556588349031895,0.5565172459292352
28,0.5565974895782262,0.5572530759771172
29,0.5565333055193444,0.5567736374829011
30,0.5566420039923184,0.556569707245744
31,0.5565618974109484,0.5566940792736877
32,0.5565666745913744,0.5572848783829076
33,0.5565528093989951,0.5564248222866958
34,0.5565451164012492,0.5564597500465053
35,0.556562183311461,0.5563891863704615
36,0.5565502180345867,0.5572329929685474
37,0.5565465628470526,0.5563477586871637
38,0.556533405462295,0.5563767671585083
39,0.5564677638398656,0.55639436774455
40,0.5565058836933985,0.5566660703855472
41,0.5565158281439759,0.5563712088405051
42,0.5564831620266968,0.5570278361180876
43,0.5564306778008575,0.5571596185267711
44,0.5564917714786912,0.5564330632870014
45,0.5564676661119445,0.5563846779520399
46,0.5564692668004739,0.5568435498266007
47,0.5565161207660934,0.5563825908133173
48,0.5564366189082808,0.5565347891883282
49,0.5564551314407595,0.5566783975726618
50,0.5564518903785448,0.5566745409007108
51,0.5564479423298783,0.5565551136031044
52,0.5564628041837648,0.5569924466367395
53,0.5564329957582137,0.5563019048191478
54,0.5564624457662792,0.5563391492325378
55,0.5564468324510203,0.5562678262850191
56,0.5564248472934532,0.5565572919975735
57,0.5564478743589221,0.5565199793124613
58,0.5564261370929714,0.5563813739911498
59,0.5564227983477987,0.556349086850216
60,0.5564304287867385,0.5571758802120502
61,0.5564092656930306,0.5569423192783858
62,0.5564452655432682,0.5576130797786097
63,0.5564028079047387,0.557311129865812
64,0.5564218119071381,0.5565960613432948
65,0.5564253504979816,0.5563658091625564
66,0.5564124988022799,0.5564049775783833
67,0.5564359151434033,0.5565093876706163
68,0.5564221345749315,0.5564600361488001
69,0.5563881528389997,0.5564987744646096
70,0.5564469764965646,0.5572474861263341
71,0.5564108200308061,0.5577391378932792
72,0.5564598717750222,0.5564952772545164
73,0.5564260541169258,0.5564418730901429
74,0.5563871786220203,0.5564931705039429
75,0.5564261047723151,0.5571388032536945
