epoch,loss,val_loss
0,0.1697996356022015,0.061158153595257295
1,0.055606192579384234,0.04934492383237513
2,0.04854713434235846,0.0484459640071584
3,0.04809201192215001,0.048648068982734397
4,0.048251445743915655,0.04763578818471486
5,0.04804780389920032,0.048112950128251016
6,0.04794200096163247,0.047772326772031394
7,0.04806232094455013,0.04839305514094862
8,0.04806484298692714,0.047691059367174035
9,0.04796891569269361,0.04737246161783974
10,0.04803363654426009,0.04831802662706036
11,0.04801276630217985,0.047921332191814096
12,0.04784075764389776,0.048181283607455626
13,0.04798524893022222,0.04908486208110319
14,0.047847738992765274,0.04858522002468357
15,0.047917095625655444,0.04742539246532046
16,0.047886861510556954,0.048830816573694924
17,0.04785358603987143,0.048524159838128675
18,0.04783137618220872,0.047969345359136106
19,0.047869423332867575,0.04742178991554568
20,0.04779893639597961,0.0477357510339113
21,0.04778936034966287,0.047885357466215396
22,0.04790008261347179,0.047752381911782084
23,0.04780621786447738,0.04792651554368195
24,0.04769859180825172,0.047895331523765614
25,0.04780587128294315,0.04824394488967396
26,0.047691123427556666,0.04745541106036261
27,0.04780398853879562,0.04820733642074755
28,0.04772330516670867,0.048424578776793306
29,0.0477736532169995,0.048724647276191704
30,0.047696204593987296,0.0476143194660956
31,0.047684149886611744,0.048013405134899934
32,0.04770015352975122,0.047688217591067984
33,0.04770940502764558,0.047512845866141025
34,0.047598792557164635,0.04865207810957505
35,0.047707442628989495,0.04737208293781755
36,0.04763699076075158,0.0487509371702513
37,0.04767099172948933,0.047853847449585124
38,0.04766264427259719,0.04833935902416471
39,0.04758673771280798,0.04848003578861115
40,0.04770356333173579,0.04776643967842529
41,0.047647151839938,0.0478906764927443
42,0.047717625994405016,0.04750546537510222
43,0.04765380104537681,0.04882500906663799
44,0.04767088791568407,0.048176842114661
45,0.04765352646378781,0.04795153011533343
46,0.04759969545616139,0.0472566906771466
47,0.0475924500062478,0.04763210880046015
48,0.0475935343783989,0.048399928754346996
49,0.04761867646684797,0.047266246978819794
50,0.0475529317619751,0.04759544203823819
51,0.04757620854903277,0.04745805421704463
52,0.047651381100074566,0.04760115923567278
53,0.04750078394383692,0.04751245948267717
54,0.047576625270844934,0.04750058238395293
55,0.047563477567464804,0.04747766811156612
56,0.04759427012323285,0.04760913467350774
57,0.04749504051102008,0.048502153586875575
58,0.047601616373367545,0.047873186307717426
59,0.047584585254367213,0.04769641586712429
60,0.0475221545510679,0.047345032784632084
61,0.04753479046030915,0.0473989857376892
62,0.047517566774174465,0.047479427462971485
63,0.04750475133780381,0.04807318878766582
64,0.047499933663448936,0.04745428479955059
65,0.047513256678811844,0.04777600914357493
66,0.04752063512546029,0.04782630937157791
67,0.04755276536418618,0.047292171027026216
68,0.04749970128543848,0.04741472792359629
69,0.04753864225860742,0.048165938245822056
70,0.047483075819582006,0.047662782679064215
71,0.04749078340351963,0.04754504503795455
72,0.04752766618357717,0.04754653616257794
73,0.047439306218037124,0.04740713697570746
74,0.047489687586002215,0.048016143673126774
75,0.047477963939606904,0.047965334044753234
76,0.04749793955217972,0.04738255491114171
77,0.047454872633889617,0.04736223890377766
78,0.047471809346112705,0.047295402356180134
79,0.047493896485089684,0.04736697160724871
80,0.04744806279429048,0.04744184921894755
81,0.04745444429250691,0.04732022455642801
82,0.04747146603127988,0.047812944750030305
83,0.04741983811447708,0.04738363706239961
84,0.04746120550679408,0.04753418354686546
85,0.0474891769219574,0.047318411730788504
86,0.047416962922917756,0.04795208356939344
87,0.047415548563301324,0.04728418993804054
88,0.047401860564780365,0.047475581804926975
89,0.04746143948986566,0.047157367110699296
90,0.04742264465021668,0.04802295817584152
91,0.04741801059902381,0.04757424591560484
92,0.04741526108911093,0.048040547150157056
93,0.04747389073667528,0.04737445002902467
94,0.04737579467878353,0.04726609444479445
95,0.04746919709274904,0.04753264095619521
96,0.04734685618451221,0.047641791914896224
97,0.04750213364093043,0.04770296848516532
98,0.04736839334289138,0.04770771122663249
99,0.0474124623419379,0.047340001181744175
100,0.04742150186456079,0.04741659846918359
101,0.047394777948169306,0.047139169861457435
102,0.04739203929996414,0.04836922256245139
103,0.0473870208857657,0.04723869530806037
104,0.04736821706459629,0.04735746291402107
105,0.047442497089981654,0.04716846622650136
106,0.047384491450876164,0.04741946029187943
107,0.047396705608716685,0.047591999919986576
108,0.04738954457787158,0.0473736289391719
109,0.04736251968571799,0.047108811115362366
110,0.04745766760365997,0.04729790927073385
111,0.04733032096537659,0.047418728459041326
112,0.047367319847337254,0.04730065534186815
113,0.0473989562111364,0.04733126375591934
114,0.04740829796617409,0.04716650634745302
115,0.04742940421179711,0.04737261485752386
116,0.04732998965425695,0.048084631294670686
117,0.04736197228691608,0.047276036480137375
118,0.047331885363963204,0.04747404383338147
119,0.047397394507504007,0.047472635470771754
120,0.04733974002242136,0.047335806146158226
121,0.04736796473350218,0.04732243695252979
122,0.04736723565756322,0.04730298834681605
123,0.04740020592840646,0.0473704010089411
124,0.047351148799895576,0.047445644219512535
125,0.04735553566720798,0.047522655984455896
126,0.04734861458109008,0.04750927283348488
127,0.04743168841925361,0.04726730521706586
128,0.047308549968351564,0.047429335442531174
129,0.04736354282136253,0.0471368084978474
130,0.04734161459683753,0.047631705143057465
131,0.047374898603529954,0.047578357066003565
132,0.047348736565735794,0.047645626497038164
133,0.047368073521805804,0.047308214252848466
134,0.047354500587407256,0.04750125142492077
135,0.047384225576520445,0.0479540883048181
136,0.047324711130820304,0.04875560264502253
137,0.04737177736413994,0.04717873264436376
138,0.04733759032593642,0.04718509576362047
139,0.04732075616639914,0.04766075237232959
140,0.04731796094797831,0.04733937726471494
141,0.047357772421136465,0.04726850277587666
142,0.0473352900172452,0.047421561455576085
143,0.04732358484394211,0.04731480962205046
144,0.04739019705308713,0.04708905742101624
145,0.04730765691710462,0.04740994356296245
146,0.04732066211547497,0.0473573320819434
147,0.047393824973647636,0.047201572284514076
148,0.04733874248735291,0.04732128697570234
149,0.047308448770587486,0.04718951237018219
150,0.0473469869359482,0.04720229733714741
151,0.047324907520025085,0.04715555544351628
152,0.04738201160761092,0.047364823202637116
153,0.04733386922993963,0.04798042352275295
154,0.04743600177387301,0.048426172624753044
155,0.047306606367373355,0.04737846076123905
156,0.04727932241716259,0.047208978511516564
157,0.047309589315411286,0.047404844869566226
158,0.04731589319001285,0.04741375230329189
159,0.04731976381278962,0.04760542166167201
160,0.04728821431882947,0.04718902119344957
161,0.047350656059529664,0.0473509391868265
162,0.047336242439375696,0.047481354490663465
163,0.04734583853108944,0.04755704219863936
164,0.04732776470750356,0.04736719967028524
165,0.047330777944742344,0.047362419267221054
166,0.04728978437086423,0.048588469195243594
167,0.04731176948423485,0.047351914019145264
168,0.04732290931421218,0.0489880392811575
169,0.047340582707803024,0.04709643839131497
170,0.047296365377583284,0.047235541172096274
171,0.047394456474377004,0.04724090245288474
172,0.04731631657178644,0.04722025123407922
173,0.04728210541597611,0.0478958116922213
174,0.04732485552378696,0.04778702424187875
175,0.047288443605831676,0.047248905417292535
176,0.04730472650280673,0.04731489343667181
177,0.047330318274889156,0.047899527670764136
178,0.04733229351403426,0.04786514299432876
179,0.047329953162194634,0.047191315592981835
180,0.047307747681971365,0.04720842603067761
181,0.04729200995636644,0.047131155815266584
182,0.047290537440829235,0.04719824913151168
183,0.04732169352060885,0.04720662954985954
184,0.047351193883055025,0.04730849543728975
185,0.047309884266982925,0.04742971487819631
186,0.04735227014354283,0.04723308306560802
187,0.04729616592863767,0.04781193148871059
188,0.047321022450209235,0.04774423677183176
189,0.04731780783140021,0.04725429206651407
190,0.04730803882785076,0.047131101726521255
191,0.04736266051717609,0.04713989357039885
192,0.04732109324263631,0.047188940139718194
193,0.04727419472480421,0.04723706595664337
194,0.04733451565714191,0.0472498853038923
195,0.047312032035310016,0.04727531715216087
196,0.04732903157123368,0.04763149801456467
197,0.04730560099609274,0.04718653732453544
198,0.04735172573450229,0.04741926466562471
199,0.047301226869511374,0.047244141200276556
200,0.04725415176070994,0.047770961733930396
201,0.047284764836994196,0.04726777580326339
202,0.047318747849296704,0.047234677178189806
203,0.04728820965551644,0.04726757653992573
204,0.04731683422633403,0.04732695423895765
205,0.047346777277444005,0.04723664247022902
206,0.047271515691666294,0.04713083261472556
207,0.04728334027228596,0.047828059758176555
208,0.047295371152395065,0.04718845867755475
209,0.04730462378336133,0.04730799171747235
210,0.047331021869366025,0.04883325865584842
211,0.04725924006206907,0.04720209588626754
212,0.04731403071162321,0.04739733268495799
213,0.04731481152323844,0.04715187919356264
214,0.047312658263756024,0.04715921448127623
215,0.0473819657874336,0.04757682596287016
216,0.04725780824778511,0.04737354025256474
217,0.04729684220729686,0.04732103320904482
218,0.047264288884582374,0.047212680594461966
219,0.047292898640596416,0.047221201447727366
220,0.047359735279870356,0.047472019545328176
221,0.04725655852604827,0.04725967304106293
222,0.04733494373349596,0.04806932027803788
223,0.04729884295172686,0.048077953104650115
224,0.04730352521133271,0.04749068300568314
225,0.047317681573539806,0.05030794785708636
226,0.04729839022324192,0.048879471546496196
227,0.04731572754413104,0.04755801451998897
228,0.047262288704454945,0.04716409126556851
229,0.0473325416567824,0.047166295867081036
230,0.04725258098952442,0.04725421562896719
231,0.047321318405316316,0.04736688013916986
232,0.04732842969713356,0.04711583688643473
233,0.0472612745157606,0.04733714455740134
234,0.04731824541900703,0.0478340656611989
235,0.04726520533130752,0.04708812568974759
236,0.04730751848877143,0.04711238329534749
237,0.047224042679575515,0.04769174198325262
238,0.04726736730993461,0.04742786868077709
239,0.04733883306908188,0.047136757137649345
240,0.047326916712615415,0.04746633426719231
241,0.047225491013482127,0.047191755735883585
242,0.04734773945054419,0.04726915214072557
243,0.047277982649709775,0.04714870800711832
244,0.04728769462296574,0.0473474135332768
245,0.04726446257065907,0.047675534133117974
246,0.04730598992860908,0.04724024570214062
247,0.04727995663369112,0.04718200460476205
248,0.047299619198298094,0.04737159924106797
249,0.047284156645385385,0.04723174699185961
250,0.04727062523263774,0.0471215290065205
251,0.04729213678895188,0.04716191137093395
252,0.04732016045198166,0.04773311715076171
253,0.04725983615169565,0.047536666239681634
254,0.04731327764761391,0.04741176778793147
255,0.04725721593853905,0.04841216247537612
256,0.04726155855351215,0.047102612320513076
257,0.04729758084064527,0.04839069321869204
258,0.04728464974756007,0.04760259172887245
259,0.04731105043918347,0.04754597571955578
260,0.04722311796484996,0.04762821351696209
261,0.0473375070250506,0.04724913476227585
262,0.04729320067349527,0.047970427375142746
263,0.04726947738463692,0.04746443516300622
264,0.04731296305414393,0.04745540222786691
265,0.04730767695654592,0.047581485807072395
266,0.047254763927748446,0.04730154644777291
267,0.047295220815639895,0.04707621886808758
268,0.047319797420804256,0.04736187504553004
269,0.04729433763000986,0.04755646615761796
270,0.047259293271781064,0.04718686205400382
271,0.04729620253088043,0.04719861160490394
272,0.047258577823972435,0.047129491971836565
273,0.0473002440018429,0.04777513548214321
274,0.04728374782232024,0.04725713166683889
275,0.04727453630801728,0.04711157359600349
276,0.04725888141875358,0.04724107106122899
277,0.04730606600969768,0.048215183843259464
278,0.047292516376975055,0.04714862925265846
279,0.047234037880607836,0.04759440919782763
280,0.04728691045829146,0.0474478400767367
281,0.047320978867886165,0.047418537257855206
282,0.04724108649017237,0.04715909180543793
283,0.0472895083569294,0.04712840138501602
284,0.04721898431454202,0.0472230113154805
285,0.04730135798126721,0.04773933830029304
286,0.04723356744880489,0.04719732970516796
287,0.04732727974825959,0.04711802618397251
288,0.047313605587807395,0.047513133216275885
289,0.04720978131242317,0.047748048896383094
290,0.04731947394887463,0.047279361503135525
291,0.04726700901353864,0.047387701101254176
292,0.04731118804860791,0.04724523195469107
293,0.04725337168909043,0.047329332197309955
294,0.04729734050730864,0.04723294911981099
295,0.04726592906051688,0.047774755111480195
296,0.047285486291126194,0.047189235099206875
297,0.0472631471247958,0.0474095846325653
298,0.047335672510161006,0.047260316810625785
299,0.047245834201431386,0.04721910843438959
300,0.04727630874515771,0.04752313493565019
301,0.04727527153023856,0.04710070944105252
302,0.04729633921568247,0.047099510517968096
303,0.04721321559680118,0.04727020946455548
304,0.047319680249853,0.04712661324567276
305,0.04724905336295053,0.047407268836870846
306,0.04732630062374851,0.04730935743182968
307,0.04721243088122466,0.04710474621501605
308,0.04725272953659177,0.0472918310200453
309,0.047315387713382666,0.04748705998886356
310,0.04725580323758505,0.047091909543844124
311,0.047232011690449945,0.04751627051639764
312,0.047336601172026684,0.0471288900978234
313,0.04728735809911974,0.04737280941352942
314,0.047265717612324856,0.048138142540615755
315,0.04729063633671529,0.04733551558527593
316,0.04723672039931912,0.04713099860625184
317,0.04728309194193327,0.04716141388443576
318,0.04727911077392139,0.04746434641465392
319,0.04727564888636319,0.047262573942553836
320,0.04726838720418947,0.047204452436696666
321,0.04728865670673043,0.04718987073017183
322,0.047295339200065005,0.047236811698964945
323,0.047227786657371394,0.04721883009610538
324,0.04730813042651549,0.04725887798413858
325,0.04729337383993715,0.04767218150710062
326,0.047248571926503065,0.047094633260296385
327,0.047272820420247566,0.04730593096450171
328,0.04723388990975446,0.04713341088020247
329,0.047284556691237774,0.04726916899714963
330,0.04729983660070111,0.047105032597810334
331,0.04732650440844367,0.04720414331992875
332,0.04725152048632967,0.04712919436024698
333,0.04723059816165365,0.04735004710476043
334,0.04727140283710855,0.04712296086168703
335,0.04730750140484622,0.047580312722860216
336,0.04726617697843735,0.04750121675061258
337,0.04724316574561653,0.04738051329034468
338,0.047312361387004384,0.04723878472090803
339,0.04733636980499629,0.047593513093506526
340,0.04721222482442999,0.047077540725751855
341,0.04729475317408236,0.04719878695522977
342,0.047316755886546234,0.04719137411267624
343,0.04728536480527035,0.04721613324467084
344,0.04726558845701644,0.04724608212062573
345,0.04727891454403158,0.0471700895239541
346,0.04731407844804698,0.047667729211846206
347,0.047295808010428646,0.04770348819697477
348,0.04726620407687198,0.048140452449939905
349,0.04727388813132815,0.04718105290923047
350,0.0472549407346119,0.047193844818113916
351,0.047286118633098166,0.047109667782178524
352,0.047233361566214445,0.04713422346686696
353,0.0472550655139698,0.04710880264157654
354,0.047325583710837706,0.04734302780810735
355,0.047279456865599305,0.047477738689204886
356,0.047275231053813,0.047211295368639425
357,0.04726530507141404,0.04753112490123525
358,0.047220964214022304,0.04740972617889542
359,0.04728627275470063,0.047168850422423
360,0.04725812381203417,0.04727039296818043
361,0.047372140328315715,0.04706747714950517
362,0.04720674297935385,0.04725070458549445
363,0.04729088240985771,0.04720357143053316
364,0.047238855732144786,0.04712509722305549
365,0.04728585771984048,0.047151385902793934
366,0.04729000074293116,0.047245003197756735
367,0.047258636273211425,0.047229075153088516
368,0.047253610514146054,0.047774374899590404
369,0.047280682423572654,0.04855185461648826
370,0.047303388346370746,0.04734962834331965
371,0.0472725032881605,0.04767855703419085
372,0.047232520293822584,0.04769120782896018
373,0.04730554618429747,0.04722815740268439
374,0.04732405662322216,0.04904580144204299
375,0.04725530384023555,0.047199077513171823
376,0.04727902065227024,0.04792071348783908
377,0.047279719310960804,0.04722229018807411
378,0.047266690666488795,0.047221532622212584
379,0.04730016853716924,0.04759372688753453
380,0.047268930633517385,0.047144316477905415
381,0.04728459217083111,0.04705733060248743
382,0.04727606795621004,0.04767585385240902
383,0.047281121724932124,0.047230251371601764
384,0.04725892613861534,0.047281450358967005
385,0.04726574554902425,0.04710497387817928
386,0.047234645117815735,0.04731390832819709
387,0.04729388552389557,0.047224082617234694
388,0.04726443431979651,0.04704614317642956
389,0.04725809297937569,0.047680074518109836
390,0.04728774824510995,0.04741312130027243
391,0.047262358530569704,0.04722153602407594
392,0.0472357224428849,0.047086734077713105
393,0.04728251947261256,0.047100415628259354
394,0.04728504293244615,0.047180106720777604
395,0.04726250722206277,0.04728597814206919
396,0.04724112955434955,0.047331799833131946
397,0.047284998374877214,0.04728311751899328
398,0.047261599740154925,0.0477605899053478
399,0.0472763657456727,0.0472949746740363
400,0.04722714694819862,0.04714406119996201
401,0.04730425576577417,0.04745463849925204
402,0.04725644758178128,0.04780810873517392
403,0.04725798891691996,0.04724058787314179
404,0.04728023180191656,0.04735520632309808
405,0.04730424298930892,0.04723409770884284
406,0.047198679170114916,0.0473133916124972
407,0.047248868231507514,0.04835887530549549
408,0.04730420082444243,0.04712347670119394
409,0.047285410757961985,0.04778834023963492
410,0.04724105420134527,0.047558152502742264
411,0.04728178806799493,0.04754737574069069
412,0.04732176287771224,0.047230046939313555
413,0.04724036185271877,0.04719499480082185
414,0.04728158092577395,0.047091366462968146
415,0.047254351023539934,0.04733228464423434
416,0.047273453972715554,0.04711870228152813
417,0.04720133289599495,0.04720415314034674
418,0.047331125662326334,0.047630467414620736
419,0.0472508858082344,0.04728293367135967
420,0.04726619297693626,0.04734628499965547
421,0.047250485275503545,0.047319070572046755
422,0.047255312989679554,0.04720521887915757
423,0.04732175908244247,0.04956779445226774
424,0.047203051216668075,0.0470733547902239
425,0.04726925078961108,0.04822055083400355
426,0.047208979838996,0.047190462960181694
427,0.04729306086641755,0.04748995420717779
428,0.04731777311115862,0.0481611544996994
429,0.0472441292468378,0.04728437570565407
430,0.04726420032779138,0.0471416525278114
431,0.04723859498713562,0.047247286633115726
432,0.047324605976982556,0.050593439898297086
433,0.04722298371295134,0.047745220216127864
434,0.04723781853062596,0.047988217082918394
435,0.04728465540398606,0.04726333188182647
436,0.04724370321328882,0.047212733283650714
437,0.047249108252169894,0.04718666237315138
438,0.04729170875428773,0.04714302859477105
439,0.04725011996329307,0.04713122287049196
440,0.04725767536867532,0.047190541979263596
441,0.047250745011021576,0.047315049040312834
442,0.047222513522354244,0.04738188269470937
443,0.047274152559937714,0.04744285014005938
444,0.04724322683918628,0.04717908570603207
445,0.0472950525656283,0.047064830511573175
446,0.0472346892480632,0.047065509787533544
447,0.04728122036621201,0.04709708799726397
448,0.047326490446794135,0.047577441300264756
449,0.04719994772824166,0.04735461763902358
450,0.047236305005628046,0.04723976091161994
451,0.04726082693448932,0.047223706803951285
452,0.04726538298388036,0.04710333430647097
453,0.04722896144002509,0.047192583385422746
454,0.04730606969329808,0.047071269421522885
455,0.04725865884680304,0.04710345984022732
456,0.047248285752144174,0.04719334677884968
457,0.04732935795401164,0.04739525687499317
458,0.04725302703720298,0.047398267876894905
459,0.04724813364207935,0.047159350676360616
460,0.04727391126475555,0.04744068104788461
461,0.04725788764322071,0.04910957314597403
462,0.04732170509253379,0.04713897853972127
463,0.04731253991953189,0.047154171684875956
464,0.047152690169551106,0.04842633939250398
465,0.04733080157695962,0.047392300155892936
466,0.04719463737903358,0.047211054015695905
467,0.047327990087566614,0.04835724359600207
468,0.047230506661257964,0.04759827115070942
469,0.04726307188494981,0.04730944813838509
470,0.04732488901566544,0.047759466664167305
471,0.04720040441726704,0.04709856283587081
472,0.04731615798340903,0.04728365432832687
473,0.04725934701452819,0.04730458918667818
474,0.047213939844156436,0.047364007143543385
475,0.047312607364855604,0.04707363702727286
476,0.047245943353032706,0.04754832720688317
477,0.04726648683414804,0.047312229368968
478,0.04738345241053499,0.04728952292485226
479,0.047231364603653896,0.04734679188317639
480,0.04726714005680393,0.04772512020797549
481,0.04722962834292369,0.047338325271549055
482,0.04722991030362489,0.04746502320316709
483,0.04726471536480885,0.0471461318556775
484,0.04729580852112991,0.04713454290977499
485,0.04724095757458088,0.047091969504258535
486,0.04723700750425613,0.047289981409001744
487,0.04726895559832251,0.047174033171540654
488,0.04725769899493689,0.04720266674363716
489,0.04725956113385163,0.04720066850027327
490,0.04728874302120041,0.04713757460806063
491,0.04727444414356106,0.04724443493074287
492,0.047207114539093535,0.04795604629034872
493,0.04729976944571777,0.04709379719871654
494,0.04727445867100208,0.04718557427377802
495,0.04727347650759512,0.04751386536372018
496,0.04723715003011086,0.047168116593158615
497,0.047316923270003496,0.04753146909218467
498,0.047254380519143775,0.047271474069770905
499,0.04726149361256025,0.04711948176397521
500,0.047280750979634405,0.04733065480473668
