epoch,loss,val_loss
0,0.33723860860533184,0.3346043109297752
1,0.3346824825538529,0.3347138850092888
2,0.3344797434343232,0.3343573531707128
3,0.33435236677858565,0.334340528567632
4,0.33428664779663086,0.3342914454936981
5,0.334247744679451,0.33429151360193887
6,0.3342138749493493,0.33410423630476
7,0.3341900209585826,0.3341223275264104
8,0.3341689684788386,0.3340566499829292
9,0.3341570633120007,0.33403274303674696
10,0.3341420355902778,0.3340133455793063
11,0.3341260052058432,0.3340435617764791
12,0.334124880750974,0.3341302730838458
13,0.3341136304338773,0.3340921537478765
14,0.33410033407476214,0.3342745836377144
15,0.3340944461491373,0.33411043308178584
16,0.33408560397227605,0.33400477612018586
17,0.3340735483368238,0.3340326039791107
18,0.3340700663659308,0.33399273081620534
19,0.3340583188401328,0.33425513631105425
20,0.33405365377664564,0.33399145523707074
21,0.33404884001281526,0.3341534302632014
22,0.33404225421614114,0.3340908748904864
23,0.33403707396321825,0.33399068417151767
24,0.3340296251442697,0.3341133426030477
25,0.3340221315821012,0.3339859771132469
26,0.3340248135129611,0.3340126613974571
27,0.33402201782332525,0.3339589421550433
28,0.33402281030019126,0.33403154349327085
29,0.33401488749848474,0.3339937070210775
30,0.3340116037991312,0.3339528378049533
31,0.33400654062959884,0.3343319230278333
32,0.3340024673938751,0.3340764733552933
33,0.3340004918972651,0.33409104790290195
34,0.33399518562025493,0.33393417980273565
35,0.33399520881970723,0.3341383296251297
36,0.333994322737058,0.3339558149576187
37,0.33399139902326797,0.3342258094350497
38,0.33399110948377186,0.33393394525845843
39,0.3339853399329715,0.3340131805340449
40,0.333991071595086,0.33414117177327474
41,0.3339875629875395,0.33400440810124077
42,0.3339926888876491,0.3339151396354039
43,0.33398346633381315,0.3339240963459015
44,0.333980368508233,0.3341135360002518
45,0.33398093881871965,0.33419227759043374
46,0.3339836346904437,0.33445052687327065
47,0.333986237625281,0.33399801615873975
48,0.3339841429260042,0.33395214557647707
49,0.3339830807646116,0.3339587146639824
50,0.33398492666747837,0.33402505280574163
51,0.33397695632775626,0.3341122564872106
52,0.3339722048242887,0.33395637812217077
53,0.33397650833924614,0.33401254198948543
54,0.33398359711964926,0.33408219208319984
55,0.33397897946834565,0.33418954006830853
56,0.33398235490587025,0.3339644135038058
57,0.3339740032752355,0.33394349042574567
58,0.33398475397957694,0.33392128769556684
59,0.3339770153694683,0.33416916072368624
60,0.3339766074816386,0.3339137870669365
61,0.33397284780608283,0.3339938242435455
62,0.33397870583004424,0.33392970927556354
63,0.3339722942577468,0.3339221297105153
64,0.33397618621587755,0.33395629141728084
65,0.3339818762805727,0.3340560425917308
66,0.33397287631697126,0.3339336082537969
67,0.33397939397891363,0.33425015383958817
68,0.33397595572471617,0.3339535204966863
69,0.333977320406172,0.3339938679138819
70,0.33396709612343045,0.33391623240709306
71,0.3339727002978325,0.3339094791611036
72,0.33397020359171764,0.3339823006192843
73,0.33397116318676207,0.33392366286118824
74,0.33397738596465854,0.33391535669565203
75,0.33397470939821666,0.33390752649307254
76,0.33397580256064735,0.33412145789464315
77,0.3339720283548037,0.33404563188552855
78,0.3339762557281388,0.33394881429274875
79,0.3339741274780697,0.33405374830961226
80,0.333979215476248,0.3339285366932551
81,0.33397425780031414,0.33393288228909174
82,0.33397632129324806,0.3339226041436195
83,0.33397220079104106,0.3339593793153763
84,0.33397500573264227,0.33389018501838047
85,0.3339737774398592,0.33391623010238014
86,0.333973407626152,0.3338971246878306
87,0.33396627762582565,0.33392475748062134
88,0.3339720930788252,0.33396609987815223
89,0.333972449209955,0.3339137949546178
90,0.33396973531776003,0.3339490469495455
91,0.33397336710161635,0.3339511408011119
92,0.3339693316022555,0.33392128099997836
93,0.33397732941971886,0.33406592323382694
94,0.33396718738476433,0.33416416440407437
95,0.3339701274500953,0.3343655419747035
96,0.33397055998775693,0.3339818760553996
97,0.3339780159989993,0.3340238049228986
98,0.33396562266349794,0.3339131927490234
99,0.3339684881766637,0.33389913125832876
100,0.3339659221569697,0.33392427281538645
101,0.33396935270229977,0.3339656528830528
102,0.33396859189536837,0.33391575632492704
103,0.3339647458063232,0.33399791858593625
104,0.333967500699891,0.333934931854407
