epoch,loss,val_loss
0,0.5584301970932218,0.5566881914933522
1,0.5566665288474825,0.5564159884055455
2,0.5563904056151708,0.5563566551605861
3,0.5562475048833423,0.5561195242802303
4,0.5561786609225803,0.5562702726523081
5,0.556145054631763,0.55610717578729
6,0.5561371251079771,0.556375429948171
7,0.5561143471532398,0.5562860330740611
8,0.5560995868444443,0.556047498703003
9,0.5560887848801083,0.5564501754442851
10,0.5560857239166895,0.5560496842861176
11,0.5560713841252857,0.5560915044943492
12,0.5560728481610616,0.5559984746774038
13,0.5560645238161087,0.556061282714208
14,0.5560645574993558,0.5560245932340622
15,0.5560564640495512,0.5560712210734685
16,0.5560550605191125,0.5560158429145813
17,0.5560503726535373,0.556153765797615
18,0.5560482638676961,0.5560059782663981
19,0.5560425932010015,0.5559906533559164
20,0.5560443120532566,0.5560116081237793
21,0.5560320144626829,0.5560474961598714
22,0.55603484582901,0.5559699190855026
23,0.5560307421419356,0.556066521247228
24,0.5560297244124942,0.5560159400304159
25,0.5560224699046876,0.5560128562053045
26,0.5560206504662831,0.556030754884084
27,0.5560165303548177,0.555975980202357
28,0.5560142121977276,0.555971407254537
29,0.556008131451077,0.5559984602928162
30,0.5560098967817094,0.5560168574651082
31,0.5560092467069626,0.5560386866331101
32,0.5560068652762307,0.5560980314016342
33,0.5560044539901945,0.5559791651169459
34,0.5560028713941574,0.5559626529216767
35,0.555996415204472,0.5560011340777079
36,0.555994871603118,0.5559944832722346
37,0.555992147816552,0.5559543660879135
38,0.5559948167800903,0.5559322783549626
39,0.5559871973726485,0.5559709819157919
40,0.5559954904052946,0.5559534644285837
41,0.555989723443985,0.5559319995641708
42,0.5559837725427416,0.5559937167565028
43,0.5559842343197928,0.5559746551513672
44,0.5559838557110892,0.5559560075203578
45,0.5559838052590688,0.5559401105642319
46,0.5559819139771991,0.5560396264394124
47,0.5559732509719001,0.5559406940539678
48,0.5559737049473656,0.5559378637472788
49,0.5559734424485101,0.555976113319397
50,0.5559773594538371,0.5560241809686025
51,0.5559725692272186,0.556046012600263
52,0.5559703909026252,0.5559722569386164
53,0.5559671411911646,0.5561185288031896
54,0.5559685366021262,0.5559387228488922
55,0.5559645670784844,0.5559284646113714
56,0.5559670565260781,0.5559654997587204
57,0.5559643018643061,0.5559196919600169
58,0.5559654550817278,0.5560051284631093
59,0.5559669070376291,0.555930787841479
60,0.5559671757221222,0.555914818962415
61,0.5559607546859318,0.5559121659199396
62,0.5559626896646288,0.5560098016659418
63,0.5559634909364912,0.5559811361233393
64,0.5559635122087266,0.5559116755723953
65,0.5559611944622463,0.5559915055036545
66,0.5559647029373381,0.5559345137675603
67,0.5559615748458439,0.5559245035648346
68,0.5559627743164698,0.555921435991923
69,0.555956970943345,0.5559303735891978
70,0.5559618177943759,0.555912081082662
71,0.5559621029694876,0.555933033823967
72,0.5559554768403371,0.5560421111186346
73,0.5559600179725223,0.5560258412361145
74,0.5559613886276881,0.5559550002018611
75,0.5559594860871633,0.5559216514428457
76,0.5559590501123004,0.5559491666952769
77,0.5559587836662928,0.5559425335327784
78,0.5559587029351128,0.556002460082372
79,0.555955108973715,0.5559681675036748
80,0.5559603494273292,0.5559659435351689
81,0.5559605414999856,0.5559646219412486
82,0.5559578613042832,0.5559268066088359
83,0.5559543823268679,0.5559190094868343
84,0.5559594434897105,0.5560325947205226
