epoch,loss,val_loss
0,0.7792685505814022,0.77852352643013
1,0.7782740356789695,0.7781541170676549
2,0.7781602902809779,0.7780722548564275
3,0.7781149271991518,0.7784750011761983
4,0.7780868769751654,0.7781267783244451
5,0.7780710384448369,0.7780315020084381
6,0.778053538441658,0.7780473631620407
7,0.7780490824513965,0.7780174281994502
8,0.7780392930905025,0.7781035185654958
9,0.7780368893941243,0.7780626757542293
10,0.7780357262293498,0.778037103732427
11,0.7780309612486097,0.7780034602483114
12,0.7780267368952434,0.7780311549504598
13,0.7780267648034626,0.7779916503032048
14,0.7780227943261464,0.7780117998520534
15,0.7780218559238645,0.7780114659865697
16,0.7780161899593141,0.7779954999685288
17,0.7780172955062654,0.7779937955538432
18,0.7780134619209501,0.7779827347596486
19,0.7780123257372115,0.7780108378330867
20,0.7780154540538787,0.777996653119723
21,0.7780119718445672,0.7779842922687531
22,0.7780109952953127,0.7780064285993576
23,0.7780109961430232,0.7780197163820267
24,0.7780074695481194,0.7779846263726552
25,0.7780075236956279,0.77799174507459
26,0.7780053446822697,0.7780198832352956
27,0.7780047125021616,0.7780101297696431
28,0.7780040990379121,0.7779867749611536
29,0.7780001825226678,0.7779784573713938
30,0.7779998299148347,0.7779803672234218
31,0.7779962578217189,0.7779882878462474
32,0.7779949822160933,0.7779774196147918
33,0.7779909768369463,0.7779690593481063
34,0.7779930559794108,0.7779905285040537
35,0.7779907119406594,0.7780631680091222
36,0.7779896057711707,0.7780846855640411
37,0.7779922701120376,0.7779714910586675
38,0.7779915178351932,0.7779808391332627
39,0.7779881497091717,0.7781127026875814
40,0.7779879985517926,0.7779701747894288
41,0.7779884043402142,0.7779784820874532
42,0.7779856278896332,0.7779833323955536
43,0.7779849585824543,0.7779752879142762
44,0.7779870638714896,0.7780585670073827
45,0.7779836144447326,0.7779744073549907
46,0.7779828205903371,0.7779566781123479
47,0.7779864760504829,0.77797460826238
48,0.7779866270754072,0.7779686951637268
49,0.7779814270602332,0.7780086176792781
50,0.7779842355781131,0.7779943832953771
51,0.7779836102988985,0.778004956761996
52,0.777981424358156,0.7779758352438609
53,0.7779827482170529,0.7779814131259918
54,0.7779824755456712,0.7780021616220474
55,0.7779834904140897,0.7780361886024475
56,0.7779820147355397,0.7780650602976481
57,0.777982601430681,0.7779842952887217
58,0.7779819249047173,0.777968031167984
59,0.7779855364296171,0.7779991397062938
60,0.7779826497634252,0.7779497896432876
61,0.7779801435603035,0.7779684644142787
62,0.7779809579584334,0.7780132724046707
63,0.7779806670612759,0.7779940705696742
64,0.7779840015172959,0.7779970184961955
65,0.7779813603957494,0.7779728883107503
66,0.777980449795723,0.7780027458270391
67,0.7779823344151179,0.7779527107874552
68,0.7779791940053304,0.7779698712031047
69,0.7779806537363264,0.7779764549334844
70,0.7779823621379005,0.7779920138915379
71,0.7779767512347963,0.7779962221781412
72,0.7779819265206654,0.7779942946434021
73,0.7779801162348853,0.7780483847459158
74,0.7779793072541554,0.7779597898721695
75,0.7779812786844041,0.7779723169008891
76,0.7779790611796908,0.7779574706951777
77,0.7779804592132569,0.7779728102684021
78,0.7779804063505597,0.7781728162765503
79,0.7779798635244369,0.7779696925878524
80,0.7779797178506851,0.778002614180247
