epoch,loss,val_loss
0,0.33856952267222934,0.33618157094717027
1,0.3347166136370765,0.33440048682689666
2,0.3344068419800864,0.33446691612402596
3,0.33428296334875957,0.3342039159735044
4,0.3342200474010574,0.3343052108883858
5,0.33417892085181344,0.3339893488883972
6,0.3341391045451164,0.33398740472396216
7,0.3341051554216279,0.33403399111827214
8,0.3340932830837038,0.33399844898780184
9,0.3340818754898177,0.3341724781394005
10,0.3340700050592422,0.3340003851453463
11,0.3340518952541881,0.33398900645971297
12,0.33402912235260007,0.3342627723018328
13,0.3340214699043168,0.3339486629764239
14,0.33401015461153455,0.33396490079164504
15,0.3340084370639589,0.33405241173505784
16,0.33399642667505475,0.33401226172844567
17,0.33399506861633727,0.33394102309147516
18,0.3339975730511877,0.3339586958885193
19,0.3339890249371529,0.33391108705600103
20,0.3339875602722168,0.33404202141364414
21,0.3339847341179848,0.33394651371240613
22,0.33399357605642743,0.334252234518528
23,0.3339734386338128,0.3339240819811821
24,0.3339734268122249,0.3339005971550941
25,0.3339700245128738,0.33400862912336987
26,0.33396293421586354,0.3339114713271459
27,0.3339674968189663,0.33398291858037316
28,0.3339606862134404,0.33413817687829334
29,0.3339647193749746,0.3341436386704445
30,0.3339586353831821,0.33396199144919714
31,0.3339570595290926,0.33402456547816595
32,0.3339526546465026,0.3339360286394755
33,0.3339511648019155,0.33406073778867723
34,0.3339466376768218,0.3338633281389872
35,0.333945786913236,0.333887378513813
36,0.3339499369263649,0.3338920895854632
37,0.3339361169470681,0.3338865123987198
38,0.33394369476371344,0.3338822244803111
39,0.33394172330697375,0.33405062625805537
40,0.33395218745205135,0.33391643967231116
41,0.33394753081268735,0.33389433862765633
42,0.33393446101082697,0.33408488551775617
43,0.33393269997835157,0.33389336001873016
44,0.3339289665288395,0.3338821308612823
45,0.3339308875070678,0.3339083244403203
46,0.3339222456481722,0.3339574425617854
47,0.3339291026327345,0.33389627452691395
48,0.33392787385649153,0.3338967967033386
49,0.333923439098729,0.3338604027032852
50,0.3339220512178209,0.33406272157033284
51,0.3339270295964347,0.3338646365602811
52,0.33392628617419134,0.33383917733033497
53,0.33391903960704805,0.3338651753465335
54,0.3339171373181873,0.33392307108640673
55,0.33392136886384755,0.33390819911162056
56,0.3339177881081899,0.3338983831803004
57,0.33391123510069315,0.33384246679147084
58,0.33391756152444413,0.3338796658118566
59,0.3339149126344257,0.33385523186127347
60,0.33391842959986795,0.3341501415769259
61,0.33391728935639065,0.33418241928021114
62,0.3339175748957528,0.3338777982791265
63,0.33391090725527867,0.3338822983503342
64,0.33391357388099036,0.33415031582117083
65,0.3339130865401692,0.3340527919133504
66,0.33391060844394893,0.33387560305992764
67,0.3339144637386004,0.3338505238294601
68,0.33391039038366743,0.3338410992026329
69,0.3339122404721048,0.33392369117339454
70,0.3339110107620557,0.33400426008303963
71,0.3339148896932602,0.33384458827972413
72,0.3339096761610773,0.3341384670138359
