epoch,loss,val_loss
0,0.668885219918357,0.6686982246637344
1,0.6673193547063404,0.6676765167713166
2,0.6398090088367462,0.5561965301036834
3,0.556218391140302,0.5561288681427637
4,0.556171658039093,0.5565337396065394
5,0.5561325101984872,0.5561387439171473
6,0.5561178971661461,0.5561070592403412
7,0.5561092225180732,0.5560479096571604
8,0.5560881631374359,0.5560576996803284
9,0.5560813176499473,0.5560308912992478
10,0.5560711586872736,0.5561442184448242
11,0.5560644865433375,0.5559908546209336
12,0.5560633264250225,0.5560379976828893
13,0.5560554342667262,0.5559956325292588
14,0.5560511254999373,0.5560008682409923
15,0.5560462765958574,0.556001869002978
16,0.5560472394227982,0.5561972734133402
17,0.5560401731994417,0.5560224439700444
18,0.55603884920809,0.5559894219636917
19,0.5560359394550324,0.555974545399348
20,0.5560353024535709,0.5560039632320404
21,0.5560326011313332,0.5560060869852702
22,0.5560248733626472,0.5559718557596207
23,0.5560264086988237,0.5560111526648204
24,0.5560209861199061,0.5560466306209564
25,0.5560160564316644,0.5559647307395935
26,0.556012402428521,0.5560938873291016
27,0.5560070161819458,0.5559685401121776
28,0.5560052525997162,0.5559720458984375
29,0.5560002630684111,0.5559502429962159
30,0.5560029489331775,0.5559326975742976
31,0.5559999229510625,0.5559589944680532
32,0.5559907657172944,0.5559932113885879
33,0.5559839457405938,0.5559299675226211
34,0.5559776623911328,0.5559351367950439
35,0.5559772098726696,0.555964591105779
36,0.5559727208879259,0.556130040884018
37,0.5559694905545977,0.5559169338146845
38,0.5559689533578025,0.5561376592318217
39,0.555967898024453,0.5559217624266942
40,0.5559651399056117,0.5559155727624894
41,0.555963032219145,0.5559114237229029
42,0.5559671407938004,0.555926242629687
43,0.5559664072328143,0.5559601735273997
44,0.5559676767852572,0.555934624115626
45,0.5559704647461573,0.5559159010648728
46,0.5559605505598916,0.5559106377363205
47,0.5559598169194327,0.5560122963587443
48,0.5559625541104211,0.5560323050022126
49,0.5559609946277406,0.556041894753774
50,0.5559588508208593,0.5559764775832494
51,0.5559562612507079,0.5559157296021779
52,0.5559577847321828,0.555939969420433
53,0.5559573624134063,0.5559178020556768
54,0.5559564683834711,0.555963719089826
55,0.5559606133566962,0.5559783634344737
56,0.5559543895456526,0.5559152061144511
57,0.5559560902516048,0.5559445389509201
58,0.5559570436875025,0.555937256971995
59,0.5559552430444293,0.5560551246404648
60,0.555957333193885,0.5560912365118662
61,0.5559597857528262,0.5561707489490509
62,0.5559548323286905,0.5559379115104676
63,0.5559518885744943,0.5559031913677851
64,0.555955481979582,0.55592061038812
65,0.5559539258347618,0.555908633629481
66,0.5559552568594615,0.55591121951739
67,0.5559546554485957,0.5560364538431167
68,0.5559525324238671,0.5560601719617844
69,0.5559517912069957,0.5559866979916891
70,0.5559508763816622,0.5559148191610972
71,0.555953801367018,0.5559548331896464
72,0.5559524615605672,0.5559590225219726
73,0.555951073302163,0.5559257611831029
74,0.5559542988538742,0.5559603586991628
75,0.5559507308138741,0.5559713433980942
76,0.5559521448744668,0.5561791399319966
77,0.5559489472177294,0.555923402984937
78,0.5559514430893792,0.555907222588857
79,0.5559513744645649,0.5559083607196807
80,0.5559524479442173,0.5559550927480061
81,0.5559560972584618,0.5558991830746333
82,0.5559495345751444,0.5559368804693222
83,0.555950979563925,0.5559272224505742
84,0.5559514242543114,0.5559245918989182
85,0.5559531970951292,0.5559378873904546
86,0.55594893556171,0.5559042515357335
87,0.5559541213909786,0.5559470881621043
88,0.5559512872828377,0.5559463450511296
89,0.5559517424636417,0.5559146960576375
90,0.555953526602851,0.5559083542426427
91,0.5559496155314976,0.5560008797645569
92,0.5559511539406247,0.5561093376477559
93,0.5559516481028662,0.5559332826137543
94,0.5559520659976536,0.5559060962200165
95,0.5559551034503513,0.5559064770936966
96,0.5559447026385201,0.5559200601975123
97,0.5559513878689872,0.556041900952657
98,0.5559520210557514,0.5559745152393977
99,0.5559467677805159,0.5559118887583415
100,0.5559499252239863,0.5559431802034378
101,0.555951483156946,0.5559574407736461
