epoch,loss,val_loss
0,0.476461167126894,0.4437908580303192
1,0.45174351388216016,0.4480128144621849
2,0.4520095084607601,0.4413065385222435
3,0.44575579041242597,0.4410554646849632
4,0.44632191678881644,0.44836940222978594
5,0.44592833471298216,0.4414372422099114
6,0.44533317336440087,0.44267729759216307
7,0.44546626636385916,0.44666339933872223
8,0.4473387869298458,0.4399073740243912
9,0.446976754873991,0.4419876702427864
10,0.4474944540858269,0.441621330678463
11,0.44820511719584466,0.4444162036776543
12,0.4488778693675995,0.4463129609823227
13,0.45009498471021653,0.4445260961651802
14,0.4521546797454357,0.44968019843101503
15,0.45274214664101603,0.4517171775698662
16,0.4570081148445606,0.45232977187633516
17,0.457093249887228,0.4534506167769432
18,0.45955324053764346,0.45407215505838394
19,0.4604650056064129,0.45611960887908937
20,0.461830145418644,0.4583515943288803
21,0.46327442774176597,0.4609563717246056
22,0.4633362624645233,0.4570662131309509
23,0.46402966222167014,0.4592246358990669
24,0.4653517782688141,0.46106055414676667
25,0.46505165958404543,0.4656157936453819
26,0.46776756227016447,0.4655762097239494
27,0.4684659498929977,0.4671744551062584
28,0.467957684725523,0.4609228827953339
29,0.46708027094602583,0.46042418682575226
30,0.4689040239751339,0.46557645201683046
31,0.4709873976111412,0.4695946473479271
32,0.4722025193572044,0.476619710624218
33,0.4752183130681515,0.47564724999666214
34,0.47720974147319795,0.4720794706940651
35,0.4795157881081104,0.4772673612236977
36,0.48043316388130186,0.47781073009967806
37,0.48147890910506247,0.4782768278717995
38,0.48364310544729233,0.4773681522011757
39,0.48450745722651484,0.48224142283201216
40,0.4852042433917522,0.47875066703557967
41,0.48505071994662285,0.4818126393556595
42,0.4859004094004631,0.47865060210227967
43,0.4853873790502548,0.4814637778401375
44,0.4858932664692402,0.4852653484940529
45,0.4861213734447956,0.48502978670597074
46,0.4873642511665821,0.48314458042383196
47,0.48806039744615554,0.48426543217897416
48,0.4876254278719425,0.48343497037887573
49,0.4869861259162426,0.48119593811035155
50,0.48627085945010184,0.4818995654582977
51,0.48687692457437515,0.4842463075518608
52,0.4889821624159813,0.4836696714758873
53,0.4873231979906559,0.4813367714881897
54,0.48675247582793235,0.48408385252952574
55,0.48791584676504135,0.4869660020470619
56,0.4953818506002426,0.49681307512521744
57,0.49790872204303743,0.49441758286952975
58,0.4959502457678318,0.494644669175148
59,0.4975556448400021,0.4973273566961288
60,0.49604999569058417,0.49227656686306
61,0.49341000664234164,0.4925976431369781
62,0.4926150811612606,0.4904421843290329
63,0.4922047175467014,0.4853106150627136
64,0.4905352302193642,0.48610589402914045
65,0.4903031202852726,0.48931243193149565
66,0.49315811464190484,0.4979330208301544
67,0.4970104069411755,0.49189504438638687
68,0.49723393473029137,0.4931328236460686
69,0.49720988860726356,0.49662429678440095
70,0.4970407440662384,0.4936696226596832
71,0.49578274568915365,0.4933480007648468
72,0.49517883959412573,0.49153144186735154
73,0.49416151258349417,0.48916230016946793
74,0.4919823439717293,0.48345739144086836
75,0.48461924588680266,0.4799131581187248
76,0.4819346530139446,0.4818257182836533
77,0.4819997952282429,0.47418429046869276
78,0.4775125585496426,0.46830465298891066
79,0.4727245244383812,0.46509452718496325
80,0.46569211831688884,0.466641573369503
81,0.46937118503451347,0.46449784088134766
82,0.46632388496398924,0.46467795979976656
83,0.47050020688772204,0.4707155047059059
84,0.47447034654021264,0.4713181410431862
85,0.4727515869438648,0.4670873276591301
86,0.46777067279815676,0.459943589925766
87,0.45822102296352385,0.4492281360030174
88,0.45382549878954886,0.4494796904921532
89,0.45218699491024017,0.4443358579277992
90,0.4499653126299381,0.44515215373039246
91,0.44953544944524765,0.44649824100732804
92,0.4484277460277081,0.44442492961883545
93,0.4480408119559288,0.44329736346006393
94,0.4482064174115658,0.4434516200423241
95,0.44810735908150673,0.4423212741613388
96,0.4485950726568699,0.44286391681432724
97,0.449102477401495,0.44448277026414873
98,0.447999841183424,0.44384889805316924
99,0.4476153391897678,0.4483446683287621
100,0.45706316849589346,0.4584356491565704
101,0.4656438300609589,0.46521605557203294
102,0.47417997613549234,0.47505994886159897
103,0.4774234363436699,0.4740937135219574
104,0.4769058427512646,0.4715936461687088
105,0.47607104244828224,0.47121052646636963
106,0.4760353185236454,0.4730214455127716
107,0.4740488262474537,0.46848649019002914
108,0.4714028007984161,0.4665302066206932
109,0.46913298398256303,0.46622423315048217
110,0.46740111348032953,0.4612475973367691
111,0.465657287299633,0.4605610619783401
112,0.46417243459820745,0.4612470170855522
113,0.4624583422243595,0.4607249651551247
114,0.46011551597714423,0.453886725962162
115,0.4580594461262226,0.4549315876364708
116,0.4567412973344326,0.4518647839426994
117,0.45518273130059245,0.4505632635354996
118,0.4544876692593098,0.4495955870747566
119,0.4526652202606201,0.4481399959921837
120,0.4520038743913174,0.44500759899616243
121,0.45143963077664373,0.448390549659729
122,0.4507501364648342,0.4479663568735123
123,0.4508872654736042,0.4498451735377312
124,0.4510384850800037,0.4473611442446709
125,0.4507989494204521,0.4473141035437584
126,0.45101724883913996,0.44810440063476564
127,0.4510639790594578,0.4498617034554481
128,0.45135569366812706,0.44688089001178743
129,0.4515059058666229,0.44469831466674803
130,0.45123039302229884,0.4477149067521095
131,0.45180252715945246,0.4468625527024269
132,0.4522088415324688,0.4480173038840294
133,0.45225692838430404,0.44972768634557725
134,0.4529504788815975,0.44644831073284147
135,0.45310711884498595,0.4481887302994728
136,0.4525641187727451,0.45400395554304124
137,0.45319131258130074,0.4483543581962585
138,0.4528737547397613,0.44729782032966614
139,0.4531437443494797,0.4514524669647217
140,0.4531474041342735,0.449516885638237
141,0.4533940525650978,0.4500548980236053
142,0.45359578451514243,0.4488732137680054
143,0.4538905776143074,0.4514749931693077
144,0.4535847399830818,0.44823487746715546
145,0.4548688300549984,0.44914671283960345
146,0.45514093825221064,0.44945050865411756
147,0.4543580269217491,0.44860939341783523
148,0.4545927293896675,0.4497844455242157
149,0.45430000802874565,0.448126615524292
150,0.4543057197034359,0.45227955108880996
151,0.4541063647568226,0.4522183045744896
152,0.4540874214470387,0.45420954287052157
153,0.4532045312821865,0.44756730026006697
154,0.4535458619892597,0.4520116162896156
155,0.4540756845474243,0.45580050164461133
156,0.4536853489279747,0.4517909876704216
157,0.45428777307271956,0.45351037043333053
158,0.4553244134783745,0.45008650308847425
159,0.45495545265078546,0.450255133330822
160,0.4548413163423538,0.4504053015708923
161,0.45504665771126745,0.4513042774796486
162,0.455606813699007,0.4523068833947182
163,0.4559435076415539,0.45355812656879424
164,0.4564387149512768,0.45317840760946276
165,0.45708187848329546,0.4512889220118523
166,0.4568010126054287,0.4512864347100258
167,0.4563519142270088,0.4505906335711479
168,0.4571296491920948,0.4548546966314316
169,0.4576546514332294,0.45162911802530287
170,0.4581833355426788,0.4520244463086128
171,0.45910827031731605,0.4537235577106476
172,0.4584711897969246,0.4607094666957855
173,0.4596101822257042,0.4525727193951607
174,0.45949967977404593,0.45689148038625715
175,0.4594465447366238,0.45838506346940994
176,0.45891189631819723,0.4526167994141579
177,0.4596614453792572,0.46057434618473053
178,0.4597321150302887,0.46092009925842287
179,0.4606056388020515,0.4582315278053284
180,0.4614216673672199,0.45950259917974473
181,0.4609595606029034,0.4575527142882347
182,0.46126055079698564,0.4606075102090836
183,0.46215503323078155,0.4620147063136101
184,0.46182195913791657,0.45828324449062346
185,0.46232248106598856,0.4585890867114067
186,0.46248972234129904,0.45865450268983843
187,0.4632514153122902,0.46084964895248415
188,0.4631205488145351,0.45912526702880857
189,0.4631494510471821,0.46171725463867186
190,0.4627985527217388,0.46706606912612914
191,0.4632646894752979,0.45755008727312085
192,0.46332943749427796,0.45838143277168275
193,0.46277672693133354,0.4596456414461136
194,0.462563119918108,0.4582035145163536
195,0.46295437356829644,0.4578369988203049
196,0.46335333535075185,0.4590271830558777
197,0.4631186010539532,0.46345482182502745
198,0.46324058464169504,0.4598881655335426
199,0.4644609332382679,0.459360866189003
200,0.46380035361647604,0.4578224813938141
201,0.4642943740785122,0.45909049916267397
202,0.46467104703187945,0.46271084856987
203,0.46464829027652743,0.46845748484134675
204,0.4654899779558182,0.46429359567165374
205,0.4657317572236061,0.46224530082941057
206,0.4657694997489452,0.4607825162410736
207,0.4656132125556469,0.46303989559412
208,0.46653323286771775,0.4650117048621178
209,0.46720832151174546,0.46567323720455167
210,0.4675647432208061,0.4652598819732666
211,0.4673879401087761,0.4640912127494812
212,0.4674212177991867,0.4615424369573593
213,0.467842744410038,0.4637317838668823
214,0.46797533324360846,0.46370609050989153
215,0.4672491307258606,0.46249080169200896
216,0.46753726923465727,0.4636706576347351
217,0.46802166855335237,0.4641010744571686
218,0.46770468968153,0.46444252246618273
219,0.46766231760382654,0.46855065202713014
220,0.46811612546443937,0.4666986610293388
221,0.4678653644323349,0.46390647464990614
222,0.4678655885159969,0.4654248652458191
223,0.46757113209366796,0.468361244559288
224,0.46801446318626405,0.4673347892165184
225,0.4679553285241127,0.46383114326000213
226,0.46804798126220704,0.46635753512382505
227,0.4679053017497063,0.46443051558732984
228,0.4674584014713764,0.4645759705901146
229,0.467926237821579,0.4625863290429115
230,0.4677578239142895,0.4641674041748047
231,0.4677046358585358,0.46339696139097214
232,0.4677419767975807,0.46662955647706983
233,0.4675960541367531,0.46275198978185655
234,0.4671723908782005,0.46358601343631745
235,0.4679549726545811,0.4637869701385498
236,0.46714438956975934,0.46277634888887403
237,0.4672875952422619,0.46552090060710904
238,0.4676634336411953,0.46397163486480714
239,0.467757895976305,0.4619053115844727
240,0.4672981271147728,0.46792683118581774
241,0.4676259761750698,0.4633547220826149
242,0.4676173343360424,0.4647125247716904
243,0.467759214758873,0.46336886847019193
244,0.4678075650036335,0.46751629281044005
245,0.46788873386383056,0.4644235252141953
246,0.46782869800925253,0.46538448238372804
247,0.467806342035532,0.4645998102426529
248,0.46793740993738175,0.46578219056129455
249,0.46750227007269857,0.46548780643939974
250,0.46775910049676894,0.46427446621656415
251,0.46773902589082716,0.4666315964460373
252,0.4673261058032513,0.46483872348070143
253,0.467582181930542,0.4631336823105812
254,0.4674744274020195,0.46492002671957017
255,0.4674788888990879,0.4638489335179329
256,0.46757181721925734,0.46328245174884797
257,0.46746802815794947,0.46610858577489855
258,0.4679073947072029,0.46440809446573256
259,0.467308584690094,0.46338581782579424
260,0.4670465207695961,0.4617480167746544
261,0.4673747971355915,0.4638089698553085
262,0.4672363382577896,0.46563492316007615
263,0.4677590129673481,0.4658581674695015
264,0.4671171181797981,0.46377348458766937
265,0.4674973547160625,0.46520712488889693
266,0.468079196870327,0.4631999480128288
267,0.4679242828786373,0.46569676703214646
268,0.4677005911767483,0.4673544608950615
269,0.46796487987041474,0.4642051514983177
270,0.46799627393484117,0.46789071822166445
271,0.46775271093845366,0.4665425578355789
272,0.4676643345952034,0.4712683324813843
273,0.46778091448545456,0.46221478444337843
274,0.4678045352995396,0.46647000187635423
275,0.4675346064865589,0.4644620909690857
276,0.467635218501091,0.4626608374714851
277,0.4675435510575771,0.472608961045742
278,0.46730037495493887,0.46593499290943147
279,0.46770164859294894,0.4628496362566948
280,0.46684998854994775,0.4643359336256981
281,0.46686459150910375,0.4637152217030525
282,0.4666142897307873,0.46358861702680587
283,0.467150660187006,0.463882436811924
284,0.4667990584075451,0.4646002395749092
285,0.4666007153689861,0.4633467603325844
286,0.46687438103556633,0.4631897149682045
287,0.4665495853424072,0.4641296769976616
288,0.46670012015104295,0.46265951442718506
289,0.46732478272914885,0.46583918046951295
290,0.46721170967817305,0.462487100481987
291,0.46723470178246496,0.46426110732555387
292,0.4674026395976543,0.464487246632576
293,0.4674677192568779,0.463422846198082
294,0.46693276116251947,0.4654725927710533
295,0.46731696447730064,0.4637147333621979
296,0.4669210568368435,0.4641471563577652
297,0.46726114830374715,0.46447913295030596
298,0.4672008044719696,0.46198998016119003
299,0.46760840466618536,0.46671293753385545
300,0.467586546421051,0.4651401577591896
301,0.46762062701582907,0.46504822582006455
302,0.46760395893454554,0.46477322798967363
303,0.46731829819083215,0.46590487653017043
304,0.46745013147592546,0.4625438172221184
305,0.467250982016325,0.4631863567829132
306,0.46708362379670143,0.46507502120733263
307,0.46703642147779467,0.46554520446062087
308,0.4670665851831436,0.4651864840388298
309,0.46714906761050223,0.4632717877626419
310,0.4674552059173584,0.4621170674562454
311,0.46715092024207117,0.46379928308725354
312,0.4661905092895031,0.4638953878879547
313,0.4670584983229637,0.4622477036714554
314,0.4670509529709816,0.4635928409099579
315,0.46742208558320997,0.4639832155108452
316,0.4678929805159569,0.46384886395931246
317,0.4667275114953518,0.46382497787475585
318,0.46660758715867995,0.46358507400751114
319,0.4668939695954323,0.4624074406027794
320,0.4663657039701939,0.46560344082117083
321,0.4662355052232742,0.4651280770301819
322,0.46657415318489076,0.4615807893276215
323,0.4667578630745411,0.46465001595020294
324,0.46629986360669134,0.4642598291039467
325,0.4663765369951725,0.4662006618976593
326,0.4664044570922852,0.46572671484947203
327,0.4662437714338303,0.46406247079372404
328,0.46652087128162384,0.46240832036733626
329,0.4667465954422951,0.46372461479902266
330,0.4666385874450207,0.4651735267043114
331,0.4661009360253811,0.4631479814052582
332,0.46667029076814653,0.4680393124818802
333,0.46702773800492287,0.46345475494861604
334,0.46699122110009195,0.4692167657017708
335,0.4671424275636673,0.46900787454843523
336,0.4674438768625259,0.4658596138358116
337,0.4660563273727894,0.4638177507519722
338,0.4663974952399731,0.46548653990030286
339,0.4669669906795025,0.46226106613874435
340,0.4669659362435341,0.46413517045974734
341,0.46748384374380114,0.46474452781677245
342,0.46707017269730566,0.4624170485138893
343,0.4669558583199978,0.46396968549489975
344,0.46641565492749215,0.46504531168937685
345,0.46603419721126554,0.46726653212308883
346,0.46619395074248315,0.46239431750774385
347,0.46604333820939065,0.46307137537002563
348,0.4663996690809727,0.46443635946512224
349,0.46622701445221904,0.46307650542259216
350,0.46661344143748285,0.4652209076881409
351,0.4661981008648872,0.4663889350295067
352,0.4664009355008602,0.462824681699276
353,0.46668303322792054,0.4632181842923164
354,0.4671145487129688,0.4644731983542442
355,0.4666856805384159,0.4652237454652786
356,0.46691942194104197,0.4669934996366501
357,0.46784583058953283,0.466388700902462
358,0.4672006455659866,0.46494005507230757
359,0.4672249946296215,0.4668902770280838
360,0.4673895429670811,0.46238103026151656
361,0.46592184948921206,0.46401392376422884
362,0.4663365478813648,0.46336239129304885
363,0.46630206117033957,0.4633626447916031
364,0.4660991498529911,0.463108061671257
365,0.4666101349592209,0.46182938396930695
366,0.4663573094010353,0.46313094687461853
367,0.4656241726279259,0.46494620555639266
368,0.4653139964044094,0.4646902397274971
369,0.46570833283662794,0.4636196475625038
370,0.4656789394021034,0.4634062154889107
371,0.4662706856131554,0.46167632383108137
372,0.4668521619737148,0.46350876659154894
373,0.4666762914657593,0.46213815128803254
374,0.4662625861167908,0.46383901745080947
375,0.46642167314887045,0.46516393911838533
376,0.4660302232503891,0.4606832156181335
377,0.4651768395602703,0.46464243245124814
378,0.46556142568588255,0.46333668088912966
379,0.46536786764860155,0.4644859790205956
380,0.4655438682436943,0.4623174035549164
381,0.46452525037527087,0.4608410353064537
382,0.464670508146286,0.4624878900051117
383,0.464432343006134,0.4624417682886124
384,0.46333956843614577,0.4599310779571533
385,0.46257825976610184,0.4616149080991745
386,0.4626017623841763,0.45971294164657595
387,0.4617799372673035,0.4582125005722046
388,0.461483963817358,0.46714515310525895
389,0.46156561011075975,0.45747348248958586
390,0.46216460070014,0.4606677971482277
391,0.4622199270427227,0.4615337330698967
392,0.4617162525653839,0.46094870030879975
393,0.46269637951254844,0.45915977442264555
394,0.4620991986989975,0.460330944776535
395,0.46285261327028276,0.45855285608768465
396,0.4627458162009716,0.46032879054546355
397,0.4627474114596844,0.4613352137207985
398,0.4626373808383942,0.4625944699048996
399,0.46274353909492494,0.4624249766469002
400,0.46310631120204926,0.46414717704057695
401,0.4622982088625431,0.46115368086099623
402,0.46277910768985747,0.46013154882192614
403,0.462743704110384,0.45805894702672956
404,0.4629151231646538,0.4587206952571869
405,0.46245417857170107,0.4600111355185509
406,0.46249121117591857,0.46104809498786925
407,0.4627053553164005,0.46099831902980803
408,0.4619875828623772,0.4622075266242027
409,0.46172188308835027,0.4578538352251053
410,0.4622579952776432,0.4579592601656914
411,0.46219493663311007,0.46254893869161606
412,0.4629129408299923,0.45974401223659517
413,0.462712087392807,0.45844682306051254
414,0.46299035888910295,0.46174060195684435
415,0.46219594120979307,0.4591951783299446
416,0.46228907123208046,0.4584719390273094
417,0.4620927573144436,0.45802900910377503
418,0.46292139530181886,0.4584083693623543
419,0.4633604823946953,0.4634709557890892
420,0.4628251864314079,0.4597644281387329
421,0.4631945062577724,0.4589785315394402
422,0.4634659550189972,0.46226258850097657
423,0.46356752663850787,0.4596778925657272
424,0.46337128710746767,0.4571801216006279
425,0.4632714882493019,0.46317519384622574
426,0.4637102588713169,0.4587491570115089
427,0.46358301091194154,0.4669932078719139
428,0.46317884054780006,0.45879648411273954
429,0.4626464440524578,0.4596357386112213
430,0.46326916670799256,0.46096907538175586
431,0.46295355731248855,0.45957326620817185
432,0.463243337392807,0.4666842672228813
433,0.46311544048786163,0.459666924059391
434,0.463363472789526,0.4618790755867958
435,0.46349978718161583,0.46036158746480943
436,0.46360942658782006,0.4604461464881897
437,0.4633602254986763,0.4657428304553032
438,0.4634641881287098,0.46092596369981764
439,0.46346742400527,0.46211435210704804
440,0.4630478731393814,0.4594687244296074
441,0.4632108128368855,0.4586412360668182
442,0.46302279469370844,0.4596303244829178
443,0.4635942288935184,0.4648804475069046
444,0.46302070116996763,0.4634889525771141
445,0.46334660857915877,0.4611327615976334
446,0.46319767302274706,0.46386279553174975
447,0.46303557324409483,0.45939624655246736
448,0.46326456919312475,0.46083839374780655
449,0.46336330693960187,0.45902377247810366
450,0.4637214937508106,0.4631493062973022
451,0.46309221696853636,0.45857538533210757
452,0.46349062979221345,0.45906263130903247
453,0.4632228122651577,0.4576823006272316
454,0.4632075578868389,0.4600003228187561
455,0.46318973729014395,0.459820737183094
456,0.46304311248660085,0.45832158672809603
457,0.46329175201058387,0.46014228868484497
458,0.4629991134405136,0.46017765247821807
459,0.46386227089166643,0.4664946608543396
460,0.4640504255890846,0.46616395968198776
461,0.4646736756563187,0.46155483263731
462,0.46359900990128516,0.4596913189291954
463,0.4632801409065723,0.4623124723434448
464,0.46293789809942243,0.4584897525906563
465,0.46335629653930666,0.4608327277898788
466,0.46323863658308984,0.4619090080857277
467,0.4632191836833954,0.4585516967177391
468,0.46373052620887756,0.45893050932884216
469,0.46341606992483136,0.458609719991684
470,0.4638727090060711,0.4601888021826744
471,0.4635723637342453,0.4614045968055725
472,0.4634285463094711,0.4604703736305237
473,0.4636788299679756,0.46149603790044785
474,0.46368964889645575,0.4637218174934387
475,0.46358263406157496,0.46112094074487686
476,0.4638112741112709,0.45951276761293414
477,0.46386042061448096,0.45970789456367495
478,0.46412064650654794,0.46262482792139054
479,0.46389807200431826,0.46013374483585356
480,0.46341468963027,0.45997091609239577
481,0.46355221250653267,0.46986152428388595
482,0.4635697374641895,0.4630084534883499
483,0.46383964002132416,0.460441575050354
484,0.46332657903432845,0.4593841196894646
485,0.46409382301568985,0.45949370300769804
486,0.4636575231552124,0.4624319248795509
487,0.4633638335168362,0.4618381116986275
488,0.4639497998058796,0.45874090933799744
489,0.4631626879274845,0.46025181406736376
490,0.4637772767543793,0.46401578742265703
491,0.4639162942767143,0.46261644560098647
492,0.46362186735868455,0.4603297821879387
493,0.46415273544192315,0.4588744606375694
494,0.4635850315988064,0.45973025625944136
495,0.4636023506820202,0.45809452122449873
496,0.46369307482242583,0.4609282118678093
497,0.4642987752854824,0.45957287043333056
498,0.4639315918385983,0.4598686118721962
499,0.4638890388309956,0.45927910846471787
500,0.4638816246986389,0.46288173615932465
