epoch,loss,val_loss
0,1.4085195709506066,1.0925114100673579
1,1.0426395120765801,0.955505381342075
2,0.973740690416866,0.9093715846780249
3,0.955757501413576,0.9312688493670628
4,0.9573447091804684,0.9217967681544443
5,0.9703963615352197,0.9285213716225419
6,0.9561378312072724,0.9029053904037599
7,0.9638485663933597,0.9411207834396146
8,0.9641982202438282,0.8991673098090018
9,0.962587172146126,0.8968573417590096
10,0.9681083200166853,0.9222392654476955
11,0.9706715656052216,0.8665328316348215
12,0.9529508886526259,0.9536077618018844
13,0.9612820736640353,0.9261596170461768
14,0.9642260173638407,0.8974749378721016
15,0.960013310989444,0.8933699011125897
16,0.9651714700092975,0.8793419130623872
17,0.9575020226122762,0.9281995307596738
18,0.963936326430262,0.8816935332538824
19,0.9634704140064906,0.8739539671988383
20,0.9651050249799143,0.9246756306819962
21,0.9549688544389818,0.8973078739324045
22,0.9617952109814836,0.9264434102774634
23,0.9603403595517024,0.9260394670377392
24,0.9536081024939962,0.9327146798638145
25,0.9584291038558996,0.8832989714054779
26,0.958472719805254,0.8749755313990083
27,0.9598077538492586,0.8606538378119178
28,0.9519264903948534,0.9005977717822679
29,0.9580878833229777,0.9353765069423221
30,0.9481766236792382,0.8935097626622672
31,0.9536188176338725,0.9177591629562006
32,0.954710895367104,0.9322756286181769
33,0.948080426125263,0.8897745336155919
34,0.948911692043416,0.8961473325356563
35,0.9507613210939616,0.8703090472619706
36,0.9602853577074001,0.9186119167957476
37,0.9556473589974275,0.941960657696751
38,0.9502458908588434,0.8829664308562669
39,0.949975031246845,0.9004258890028224
40,0.9489386796808128,0.8840868702190056
41,0.9461456974856466,0.8998400729454733
42,0.9576650799227486,0.8969194982850446
43,0.9411140764780862,0.9159239154952576
44,0.9571878973057596,0.8976050941130057
45,0.9420950260040185,0.8779409223712757
46,0.9464955560153155,0.9096679127226007
47,0.9432925145515353,0.8854919701017022
48,0.9430635427598288,0.8686506129432672
49,0.9547119996039938,0.9139514004710431
50,0.9422486696222289,0.882235409182837
51,0.943178488193654,0.9435959787554404
52,0.9528723044382085,0.8901380165166615
53,0.9457607165253382,0.8868381324475699
54,0.9487827903418851,0.9096496010445427
55,0.9574799033715498,0.9174699602045862
56,0.9550477506829987,0.8939858208510901
57,0.9490778181102393,0.8895992128131647
58,0.9472758017414756,0.9071220511454252
59,0.9426335495314281,0.8794293554933305
60,0.9441691601724983,0.9134216443948986
61,0.944592736381068,0.9279871308890573
62,0.9598845653623652,0.9078144294308726
63,0.95335911752416,0.8850754357795839
64,0.9593404613560539,0.9144738937236386
65,0.9440283876977222,0.9107933766167046
66,0.9503602581657916,0.9100967861730107
67,0.9417998421612122,0.8938346004350729
68,0.9407899829509069,0.911599803966714
69,0.945375652242604,0.921753262564697
70,0.946394040381269,0.8984036509911413
71,0.9336914538000946,0.9088458213879631
72,0.9440997223838794,0.8945850914605535
73,0.9496737234443545,0.8782401756358553
74,0.9593271914962008,0.9426231851252906
75,0.9602651398023478,0.8828935062411541
76,0.9472987533951874,0.9073048997292746
77,0.9519371984003066,0.9037531818786677
78,0.9280157702459728,0.9000726597442534
79,0.8949008325847079,0.7885295832824243
80,0.868180912050655,0.8246113075440431
81,0.871319609417545,0.818828323896784
82,0.8821273680636175,0.8091373229935608
83,0.937122907397077,0.8930859166436919
84,0.9312994989087049,0.8477195277991376
85,0.8925909184999138,0.8460240705846677
86,0.9128098045472053,0.8515629256922157
87,0.9188525782908508,0.8807317317257253
88,0.9176717932649953,0.8393738772070514
89,0.9211621534547584,0.8431060663201609
90,0.9091492493072446,0.855665503820557
91,0.9065989397161955,0.8553423767445635
92,0.9016181350326996,0.8372983728495441
93,0.8926612037100536,0.7924077763174572
94,0.9034784073778112,0.8854900013114607
95,0.8843480128827718,0.823229668470098
96,0.8913291884098556,0.8299606628081514
97,0.8897057224074013,0.8318252100368293
98,0.8840297303073782,0.8013258368526158
99,0.884941949664926,0.809606860927325
100,0.8825727229217609,0.8042494374276754
101,0.8857874892013754,0.8561472899528992
102,0.9510096272675871,1.0138964048750692
103,0.9691835199240402,0.8111703149787024
104,0.8976110453554113,0.8150944354470339
105,0.8983161848387401,0.8102114300658233
106,0.8899630322229204,0.8478965516604743
107,0.889718386652567,0.802349116728737
108,0.8896160282737451,0.8283461670709256
109,0.8973300013187124,0.8111029046875426
110,0.9305905530555808,1.1438699855324899
111,1.0300112465699258,0.9412547149797426
112,1.007326869963645,0.9903135938269282
113,1.006607647367818,0.9816663959890677
114,0.9901911972807922,0.9273268475052987
115,0.9897418474559311,0.9320459034707811
116,0.9953873136026369,0.9517040890305388
117,0.8540905874261291,0.654765096314052
118,0.7047417504941109,0.5892349521222389
119,0.8109601173785518,0.8003247952132523
120,0.853323338662175,0.8701622992729812
121,0.8812984958279123,0.8162897222426879
122,0.9047800822196912,0.8296912501521547
123,0.9072198798123887,0.801668544803706
124,1.0003448321019486,0.9111545903839334
125,0.8864242033160525,0.8952552099490881
126,0.8936447617385367,0.8289857238458601
127,0.870774541953929,0.8192296785159703
128,0.8749292256404535,0.781879370157446
129,0.8899686741437599,0.8018819940641269
130,0.8972699019172079,0.8347425966947328
131,0.8851720622962146,0.7918579128826911
132,0.8992866437324435,0.8061941232946184
133,0.8991230301755824,0.8675698326161888
134,0.9135653473931947,0.8460637591567739
135,0.9263031241462363,0.8294916325532027
136,0.924576156634727,0.8981968646405291
137,0.9066716152682507,0.8050284063729056
138,0.9107090810043894,0.8037954515204232
139,0.9053793995260142,0.8207121607450963
140,0.9037413861009004,0.8294879287022067
141,0.9114882636060707,0.8486976948387721
142,0.9116464025311893,0.8617002389726848
143,0.8944696612697873,0.8936393406462688
144,0.8976018855913436,0.7888173297083871
145,0.9008169569331613,0.8547648269764698
146,0.9117335703632562,0.8505912078944823
147,0.8943413124502516,0.7916581655844188
148,0.8969568224837057,0.8741006464467045
149,0.8899675874685268,0.8475879001984824
150,0.8868222835304452,0.7933993815698956
151,0.8905235582155834,0.806642786623111
152,0.8826966492341365,0.8195090078282724
153,0.8904463873327589,0.8111767750490224
154,0.8898223864259102,0.8668086878768042
155,0.8840781666929002,0.7987739885617153
156,0.8900160543960605,0.8071246749003148
157,0.8937343167867348,0.8411902211008281
158,0.9665666112573362,1.0083964744526879
159,0.9462771203109415,1.0400282102489704
160,0.9617802930460442,0.915226092158733
161,0.9145091548741007,0.8953475111012331
162,0.9610783122271133,0.8958754022239381
163,0.9187174532249319,0.8275578358457616
164,0.9043467050079731,0.843660582494465
165,0.9008938227537826,0.8328690004851503
166,0.9027953544218508,0.8355203733537029
167,0.8984286777967448,0.8024392906283326
168,0.8848857481876691,0.874420674467899
169,1.0509963895532013,1.0116230128068606
170,1.0291341578750441,0.9734477199680517
171,1.0151555764140656,0.9838374524414297
172,1.0327477456570817,0.963446794635188
173,1.0273505622525516,0.9501333771347517
174,0.8864471458310218,0.8524103448435435
175,0.8828635950437825,0.8203592099799244
176,0.8932772642426533,0.8195319187322092
177,0.9072782514904669,0.8156757465437574
178,0.8953944744588471,0.8036303296383086
179,0.9152186382189095,0.8250813949233811
180,0.9150937129918626,0.8896003335545146
181,0.9229232076409343,0.8106907877318761
182,0.9487531348836241,0.8356352581401618
183,0.9918087781239167,0.9801007277677433
184,1.0235301557304957,0.9345866844891921
185,0.9095183736424717,0.7770634466134139
186,0.8168603788742168,0.7366362270647592
187,0.8150990897889515,0.7177084357827442
188,0.8067251509838432,0.739982603191846
189,0.7957867572696997,0.7619577974733645
190,0.7963637469337882,0.7800975725695262
191,0.7934253867432248,0.6864582437958451
192,0.7859582204738553,0.7124212149285922
193,0.7924553203740246,0.7234327683145209
194,0.7780079089039512,0.6889554791738614
195,0.7516975728891867,0.6921608386635297
196,0.7381175437433611,0.7147816351440411
197,0.7181578110441196,0.6008855452986143
198,0.7121447403493931,0.6064427596519173
199,0.7006680822735123,0.7312729879790753
200,0.7046100275577594,0.6728946670031799
201,0.6983855391164319,0.6882573661287915
202,0.7078282511692413,0.7330400211629303
203,0.7791710040801234,0.7879109972391493
204,0.8200604161732287,0.7600484425134032
205,0.8130088218624254,0.7371317405383566
206,0.8329450667286225,0.8048136563486716
207,0.8282983375368737,0.7858581168566501
208,0.8306946805040774,0.7247976424340205
209,0.8114070093708099,0.8790843000957276
210,0.8520109454472605,0.78110391631517
211,0.9241252922839981,0.9003507721163061
212,0.9305406572391168,0.8833669680265132
213,0.9438039434013412,0.8776387896657667
214,0.9231707584247101,0.8853105324028182
215,0.9326629892790957,0.9127408616057471
216,0.9835407753005994,0.9257269950775431
217,0.9811263265754816,0.930439144832181
218,0.9501887101521962,0.894040597954709
219,0.9541393785929088,0.9652502664877743
220,0.9556563077352828,0.9224510373183604
221,0.9481377291192619,0.8544545614032947
222,0.9452692273619463,1.0029487410214308
223,0.963556419667289,0.8638549259495948
224,0.9754233866142596,0.9182711646311281
225,0.9454699391074138,0.9035774242655591
226,0.929300844717064,0.9035123008011031
227,0.872803144640117,0.8239618055915213
228,0.8866713606805396,0.8231007564096845
229,0.8844883627324605,0.8193601457838691
230,0.886516422892304,0.8610293751602142
231,0.9036692272099235,0.846868461742695
232,0.9019266982332432,0.7934386452474154
233,0.892070846284648,0.845204767761246
234,0.9003667310536433,0.8019121711271523
235,0.8902067375049484,0.8515345105192861
236,0.8917940197179945,0.8060793172075608
237,0.8882393122816964,0.8193067167700545
238,0.879618404673232,0.8091924032929073
239,0.8884236835975281,0.7550113866799069
240,0.8721071282943026,0.7558489154966885
241,0.872975920561889,0.83398166663842
242,0.8718510433566198,0.826855295766009
243,0.8719548367804961,0.7775661157382182
244,0.8749910728085795,1.0546903548352813
245,0.8770084651328737,0.8314022369144993
246,0.8733646139037237,0.7570100480815983
247,0.8670499578201838,0.8107737789575588
248,0.8844337043426245,0.8833495366408973
249,0.8749355434464683,0.7810090932774525
250,0.8646686799150166,0.8170646923591911
251,0.881612540126515,0.7489557968874048
252,0.8828760173389489,0.8653978594704943
253,0.8909405198356836,0.7878481644686894
254,0.9072600993230115,0.8992265902779881
255,0.9364800874808963,0.9373206601622428
256,0.9570206041761739,0.876679812566304
257,0.9687504081892147,0.8228318191406114
258,0.9510755156210845,1.0187955473557972
259,1.0050118383738973,0.9893311636774693
260,0.9328447277064892,0.8263723069057171
261,0.9369163634397203,0.8556900935644844
262,0.9447184246334674,0.9910827695308231
263,0.9312419826217038,0.9474586437411745
264,0.9322164890000685,0.8398743383495767
265,0.9298986088189246,0.874159226113959
266,0.9612874790751714,0.7823785644474788
267,0.8944607985745057,0.8085581069541771
268,0.9566050294735987,0.9973353613032042
269,0.971554864302361,0.7534014120975937
270,0.8968045198268371,0.7903504750154314
271,0.9059087395715751,0.8374304039538245
272,0.9012485150101665,0.7997670817307505
273,0.9448057993399419,0.9894272523108093
274,0.9668090911604482,1.1036494671573314
275,0.9335852178742735,0.7735994246464286
276,0.8605645087549837,0.7920772384939789
277,0.8356906134333966,0.696084155484321
278,0.8179657797368648,0.7945663195650267
279,0.7986308890428421,0.7505600989976745
280,0.790489054375214,0.7308954801969382
281,0.7865417575101264,0.7265500580742411
282,0.8064868515543788,0.734987986880594
283,0.8186148934310871,0.7250009097418743
284,0.7948643942538789,0.7281595263071207
285,0.8432845358637641,0.7414184500797918
286,0.8813074500537854,0.8229551057165847
287,0.9253380242541277,0.9510222025161242
288,0.9495530180257258,0.8750558085588547
289,0.9612233128854998,0.9167862620086855
290,1.0094437748313045,0.9181930686725607
291,0.9998187160520576,0.9399140107854053
292,0.9995606376277245,0.9460360711895153
293,0.9916857170094673,0.9631784857527956
294,0.954371865722444,0.8834756765535762
295,0.9520129991398514,0.9076410355552463
296,0.9449155433260029,0.922005302279535
297,0.9463941902995968,0.9348526849847254
298,0.9541226985981409,0.8907922595280123
299,0.9407321039536555,0.9008616361304791
300,0.9495185946015189,0.8825112656665255
301,0.9599658398507975,0.9118022635905412
302,0.9540387933210338,0.8825756497530075
303,0.9547570014209915,0.9085959308725591
304,0.9544602607945808,0.943038958315915
305,0.9505669517074231,0.8880235686692781
306,0.9444155633640442,0.9244972122266635
307,0.9497470183072804,0.8799324815870782
308,0.9546797689053419,0.9064404175519363
309,0.9529970811070014,0.9244577074959717
310,0.9512431893089087,0.9202596707162293
311,0.9468049504596582,1.002167381170989
312,0.9516173589697259,0.879845169435549
313,0.9446104055313801,0.9203831371696423
314,0.9533510932071004,0.898041885071234
315,0.9405390128218908,0.8747704230182459
316,0.9458308647736442,0.916830530035138
317,0.9425164353522995,0.8717444860538813
318,0.9466735750460644,0.8824116655316473
319,0.9429977706330027,0.9255287390072366
320,0.9488237141799316,0.8753082234977418
321,0.9486417411994323,0.8731506752078357
322,0.9572347916298813,0.9121091912552678
323,0.9487211697095866,0.9099859123489089
324,0.9583457877294267,0.9076736632731516
325,0.9640223769735011,0.9067606557121338
326,0.941613030061424,0.9322514768451187
327,0.9421038998662232,0.9486565370435939
328,0.9797691226578217,0.9778126038290675
329,0.9897170170867223,0.9708773646524836
330,0.9889208375214575,0.9542651129078304
331,0.9907627749719842,0.953660261843713
332,0.9723563135099754,0.9102581517056344
333,0.9562251678555369,0.899641824029658
334,0.9497459103480829,0.9006456613830697
335,0.954668416964521,0.9069304324124561
336,0.9520936201246764,0.9019394019997806
337,0.9527523085009679,0.8754511831353954
338,0.9506262240646551,0.9043501827741964
339,0.9654803655928282,0.9300386485585524
340,0.9517526844914576,0.8995034609107786
341,0.9504898555570837,0.8929050016577227
342,0.9342415228999071,0.8471252417912448
343,0.9138645977616978,0.8482203453610027
344,0.9207625033571015,0.8405943202566346
345,0.9146518703457639,0.8389993269851511
346,0.898400209253554,0.822508064596419
347,0.902049159268745,0.8380839658382938
348,0.8956975885827223,0.8045143109941908
349,0.9087228692942757,0.8393983642743645
350,0.89871658562564,0.8018188116904302
351,0.8942220358012484,0.8258555116251244
352,0.8888572961736241,0.8350249211766907
353,0.888119986526865,0.7946689754893697
354,0.8890212139098334,0.8316580089049328
355,0.8963960402483364,0.7737962097920544
356,0.8855775324366778,0.8355414139866733
357,0.8984630610152566,0.8872061576769783
358,0.9069750484368436,0.8758262196209792
359,0.89284473178003,0.7975550944594377
360,1.0110697433937064,0.8802182783658971
361,0.9086307799510711,1.0203711734684329
362,1.0176434166150823,0.9550038355690429
363,0.9482256884189297,0.8354653724305338
364,0.8959359987389096,0.8054181655924783
365,0.8496430345756517,0.775014879833076
366,0.840358042592903,0.7440529170310893
367,0.82045661125353,0.7071764506127712
368,0.8118058305153186,0.6775554349194285
369,0.8159320829413813,0.7456190613886252
370,0.8150919206959424,0.8354576616536672
371,0.8130407176130385,0.7180049979193657
372,0.8022244107947529,0.6768290542386357
373,0.8079577663285528,0.7435008375894124
374,0.8066105574751206,0.7208168940000774
375,0.8108813998530253,0.8114121218377366
376,0.8197755464035764,0.6597732148417977
377,0.7911645583480335,0.7199713659547541
378,0.7996363773930063,0.6029905579917719
379,0.8646091913418162,0.7851087408682629
380,0.8395539702917691,0.7722176950053287
381,0.8323097364056864,0.7433715129372364
382,0.8394276822348229,0.7459457190850839
383,0.8894320424553678,0.7919403317490924
384,0.8911970491357762,0.8668837991074054
385,0.8973302382579128,0.7919030500106085
386,0.8803999475281749,0.7699812014027524
387,0.8858440979372701,0.8375790878127285
388,0.8902032851838798,0.8405941122929835
389,0.8978799113375936,0.8951728847195052
390,0.9149029883887885,0.895371245980166
391,0.9083301492745252,0.8864133358968532
392,0.920523811904214,0.9208145658851927
393,1.0231291811116894,0.9659446085359832
394,0.9497847243296422,0.8852331115284878
395,0.9065425002975784,0.8201993569937163
396,0.8786929797849433,0.7859289781987329
397,0.8688522248004703,0.7478565117835225
398,0.838731320716554,0.7952899662150857
399,0.8383429054024699,0.7423911102883524
400,0.8499518474452108,0.7262331920722008
401,0.851630635386567,0.7940270424324231
402,0.8406300570627897,0.8006512477498469
403,0.8457614982529007,0.7838976205313776
404,0.8537148828383347,0.8073200357704751
405,0.8552514323957259,0.7903216551786888
406,0.8589335336052388,0.7821810189679881
407,0.8550539713940495,0.7816027097845116
408,0.8591132388294364,0.7942093076593781
409,0.8780918902545285,0.8949652639038661
410,0.8637164999381173,0.8200405541707709
411,0.8768174906937574,0.8207968455064809
412,0.8910674072915407,0.838303730435615
413,0.8954646271930111,0.7885650122736105
414,0.9086044179476959,0.8528397060078716
415,0.8949779501144556,0.8449960292014086
416,0.8914372309911146,0.813834955754168
417,0.8882946355090894,0.8884860512597331
418,0.8952562505956456,0.8445159891032631
419,0.8937003359830885,0.7665588004939071
420,0.8884665185303761,0.8329715727792942
421,0.8723565474379243,0.8079984166809726
422,0.8824590072095442,0.7794284367116602
423,0.8844852062394086,0.8154635833997796
424,0.8953591246095249,0.8612790824142976
425,0.9041594022316776,0.8643303746047875
426,0.9189440104797232,0.8430711712086965
427,0.912678802032486,0.8357262631692446
428,0.9361236659739856,0.8742893455672438
429,0.9997776270962602,0.9450424300976527
430,1.0108663233114874,0.9140646241587154
431,1.024025297241272,0.9365931512955622
432,1.0173280545957,0.9792872080450994
433,1.0075244562591525,0.9715054052106172
434,1.0056160125043319,1.0198614132762052
435,0.9962577838197147,0.9611172449849817
436,0.9954504788733177,0.9288736020078141
437,0.9398688500026783,0.9659311585279373
438,0.9490268758480982,0.7915453686524675
439,1.0089792209305317,0.8595256202605712
440,0.9759396434402924,0.8438877894543867
441,1.0041284486711073,0.9361113748797921
442,1.0042763433521322,1.0908159900755778
443,1.0327746604708694,0.988394702631385
444,1.0326312763916197,1.008115610212015
445,1.0335768515868984,0.9773004714879966
446,1.038449225209063,0.9856031505634218
447,1.0353090265114084,0.9486725262191754
448,1.0280736780004371,1.0245937470101962
449,1.0383796676146306,0.9826782435202928
450,1.0290779910916037,0.950580425312726
451,1.037568105111798,0.9958990680330281
452,0.9122221171378707,0.802891927672322
453,0.8821603557508024,0.8122845919559568
454,0.8898180342608208,0.8369601404676569
455,0.8985042162090421,0.8406749057363709
456,0.9117488183910318,0.8423410872086604
457,0.9160733340595892,0.9064366642962793
458,0.9474256117884114,0.8584514152974688
459,0.9468661963319283,0.8933453296416191
460,0.9548396052982064,0.9874192715561303
461,0.963896804494415,0.8555564540532771
462,0.9415866940903416,0.8836468460592717
463,0.9790258960689517,0.9681848556359223
464,0.9846870856727954,0.8942840630604016
465,0.9573225480876416,0.851889299070168
466,0.932621811799186,0.8694307820060247
467,0.9267514718590593,0.9146886135346505
468,0.9952532428326466,0.9548355744122878
469,0.9379789904893351,0.807993684516916
470,0.9202187056537625,0.9783091313067434
471,1.027725385989639,0.9949765433070143
472,1.0411610282164176,0.9553282464894451
473,1.0348722764594351,0.9739325031553548
474,1.0280428512083042,0.9748917155795627
475,1.0373714904578997,0.9786318544923824
476,1.034202948773356,0.9909021988305635
477,1.030953476007124,1.0087487343260648
478,1.027072328224098,0.989756660788212
479,1.038185415433062,0.9886944588373467
480,1.0379368476957394,0.9758284355892172
481,1.034033135426722,0.9877017977657303
482,1.0366591520553785,0.9787033765855497
483,1.0308483507606485,0.9896593338478318
484,1.0318820559806687,0.9903871464419925
485,1.0204219709309317,0.9144745095899602
486,0.8933216286860436,0.8069773424909256
487,0.8931739378013641,0.8701868338596502
488,0.900862705454624,0.9007864892241052
489,0.9137164149120199,0.8391971912503919
490,0.9957909077238903,1.0143284763829647
491,1.0220378372457335,1.0071677585877932
492,0.9712961846298939,0.8187146187312024
493,0.8994847924304639,0.8554428332913531
494,0.9421144691202715,0.9846606767477297
495,1.021518988595952,1.007912536462148
496,1.0089178609552147,0.9105246339691236
497,1.0201931200426422,0.9522036284039104
498,0.992233086410191,0.864106044813761
499,0.916843995750189,0.8565378970763399
500,1.010432265728736,0.9921278645135674
