epoch,loss,val_loss
0,0.41136660477783804,0.40133907244755673
1,0.40115423617580254,0.4011907874206751
2,0.40102321279578856,0.4006722417126223
3,0.40086450466985235,0.40074498058844443
4,0.40084576440347186,0.40085875125735926
5,0.40077392337104867,0.4011795914646414
6,0.4007111946685733,0.40054678918410175
7,0.4006808637583502,0.40072870698223634
8,0.40066373654143644,0.4008108000305687
9,0.4005953161116731,0.4005762461249349
10,0.4005586393695671,0.4005613288867562
11,0.4005579701668011,0.4004566119119488
12,0.40053873010047464,0.40044466501134207
13,0.40056235321081357,0.40049459441719815
14,0.4005181570431328,0.4004826697315235
15,0.40049638531722387,0.40046279881491553
16,0.40052734683679503,0.4005635399972239
17,0.40048001697824476,0.4005838499027801
18,0.40048166000475927,0.4004253873014568
19,0.40046342345209573,0.40045125651596203
20,0.4004684848966105,0.4003920495362199
21,0.4004444475268515,0.40051585915070903
22,0.40045748190095665,0.4004715861664812
23,0.40045356601873056,0.4006369980629857
24,0.4004347180875607,0.40045493310201846
25,0.4004286510721191,0.4003535582616962
26,0.40042384097349937,0.4004553594748968
27,0.40043561007906453,0.4005606186744889
28,0.40042059574469424,0.4019404479055192
29,0.40042685680752516,0.40053341252632235
30,0.4004170236980708,0.40040559755365546
31,0.400411011049455,0.40040361714126455
32,0.4004132084695294,0.40043221173747895
33,0.40041499656864243,0.4003621385351896
34,0.40041273468947475,0.400400551125666
35,0.4003868490306474,0.400610326833228
36,0.40039361841079646,0.40049951923988003
37,0.40039631119918023,0.40046226123426454
38,0.4003975735399845,0.40040704992509657
39,0.400395075249411,0.40036416818427095
40,0.40038226179688746,0.4005719757701268
41,0.40038766506904283,0.40034548375505963
42,0.4003952807190322,0.4003610857071415
43,0.40039876140712755,0.40035304007104255
44,0.4003965460794706,0.40033364361036505
45,0.40038162296085045,0.40037815681758054
46,0.40037869084476313,0.4003281879070083
47,0.40038128852847393,0.4004183499748003
48,0.40038275374917653,0.400438190467896
49,0.40037810585137557,0.40035479636701105
50,0.40038392549464397,0.40032553492349665
51,0.4003781916612863,0.400360137135456
52,0.4003710708739675,0.4003685527788498
53,0.40037475816483575,0.400526841565338
54,0.40037126232847875,0.40047086894364275
55,0.40037551508923747,0.4009081525483143
56,0.4003732361828195,0.4003821182783425
57,0.40036882860782885,0.4003268713838705
58,0.40036613754106254,0.4003232734966515
59,0.4003704697316898,0.40062087323174583
60,0.4003653083154323,0.4004876616870795
61,0.40036407442411015,0.40032936084655024
62,0.4003647102677275,0.40040064891869614
63,0.4003612642403472,0.40034189073382775
64,0.40037423861460464,0.40034653554779126
65,0.4003422790089027,0.4003323484739062
66,0.40036429324425354,0.40034792056450474
67,0.400358315358506,0.4004700676383215
68,0.40036455525944387,0.4004129006164541
69,0.40036393314143653,0.40041435282520266
70,0.40035830792498384,0.40053711706592193
71,0.4003582880962103,0.4008795650514125
72,0.400362388988616,0.4003230255383712
73,0.4003537429030473,0.4003291640624811
74,0.40035607022339936,0.4003273027854285
75,0.40035852164022584,0.40031811205979906
76,0.4003499408865888,0.40037952649682096
77,0.40035961549403964,0.4003161015197006
78,0.4003500057736214,0.4003898409253019
79,0.4003525309364151,0.40048427395430153
80,0.400356923269668,0.4004158097668262
81,0.4003472176096021,0.4003091172751954
82,0.4003541718421651,0.4004362583012498
83,0.4003517025402377,0.40038950848520244
84,0.40035197318560256,0.40034486503518246
85,0.4003540306620391,0.4003228311799004
86,0.4003431284778356,0.40039245291028364
87,0.4003484637044904,0.40055140459507926
88,0.4003473500850093,0.4014145248581103
89,0.4003589748515861,0.40061247637194974
90,0.40035032356369576,0.4003643854084441
91,0.40034111435500036,0.4004746119230616
92,0.4003457984880174,0.40036110642825995
93,0.4003447258339604,0.4003064444579794
94,0.40034516991700125,0.40049997689410416
95,0.4003464820545553,0.40037028617953546
96,0.40035309026488397,0.40044669032688474
97,0.40034189484012167,0.40039891372839215
98,0.40035201004517607,0.40043226640218543
99,0.4003387464955858,0.40055190937099033
100,0.40034947215897854,0.4003600017308597
101,0.4003419360855798,0.40044271466749776
102,0.4003520142109776,0.40080287304173035
103,0.40034228493576307,0.4006837672098695
104,0.40033905331424374,0.4005442112314494
105,0.4003537622597072,0.40039783494348263
106,0.4003409278058171,0.4003863863110838
107,0.40034070429806234,0.4003068261643497
108,0.4003463930183374,0.40029223147160364
109,0.40033534466151444,0.4004780112070126
110,0.40034234731037793,0.40031882315948053
111,0.40034523573997843,0.40031220924765537
112,0.4003295121583749,0.40032865178792115
113,0.40033645346362196,0.40038408469917164
114,0.4003384591530953,0.40030185561026294
115,0.400338691201887,0.40036383578854223
116,0.40033760645903843,0.4003646373452975
117,0.40033551188361893,0.4003432363937274
118,0.400348008250886,0.4003488832608642
119,0.4003333831937479,0.4003357398450818
120,0.4003405791023558,0.40031447591024355
121,0.40034636466312024,0.40029163808739804
122,0.40034017792288995,0.4003121623921927
123,0.4003386155781143,0.4003074943575611
124,0.40033879959752566,0.4002985882552031
125,0.4003425316074568,0.40030862359196023
126,0.4003304418491599,0.4005971492076334
127,0.40034154931129934,0.4002929668420598
128,0.4003414099210245,0.4002901687663483
129,0.40032963610694405,0.4003483964698782
130,0.4003566237405711,0.4003201307345265
131,0.400325308606689,0.40029885106287877
132,0.40032817649914826,0.4004038797566672
133,0.40034823726505575,0.40046877747138143
134,0.40033311469675653,0.40030546417603124
135,0.400328294580808,0.400407173734149
136,0.40033697988336314,0.40077749052946976
137,0.4003435011908596,0.4003312140925055
138,0.40033929464202106,0.40031217463850677
139,0.40033538610181313,0.4003389877953541
140,0.40033396773632013,0.4005203763249494
141,0.4003491163757845,0.40035299235774624
142,0.4003296936602412,0.4002894648843013
143,0.4003362876842842,0.4003174093313903
144,0.4003318517745859,0.4003028404032326
145,0.4003416251630434,0.4003341507970843
146,0.4003265781849917,0.40033696986013845
147,0.40033538022977627,0.40040349078829174
148,0.4003229370393877,0.40033130984448323
149,0.4003402752800617,0.40030071432182274
150,0.40033597152353434,0.40030185527008755
151,0.40034637314696714,0.40033463825363086
152,0.4003261290412237,0.4003926754145705
153,0.40033306352429043,0.40031719544981015
154,0.40032339852831633,0.40044410691663584
155,0.40034014786064864,0.4003109264166716
156,0.40032497380750737,0.4003012174116471
157,0.4003329691496779,0.40029530823970255
158,0.40033732479966033,0.4003048570073272
159,0.4003376392498363,0.40058331075436426
160,0.4003378260198915,0.40029250333090277
161,0.40033236917565473,0.40031128368957464
162,0.4003365696599823,0.4003164243757281
