epoch,loss,val_loss
0,0.6050804868939804,0.6026723836550938
1,0.6009096279782733,0.6005841154910199
2,0.6006708478034974,0.6005083373699236
3,0.600583182535786,0.6004556747879047
4,0.6005622508211548,0.6004902377909526
5,0.6005206953851152,0.6003538619495798
6,0.6004811934407469,0.6004604072487976
7,0.6004424475952715,0.6007367205087364
8,0.6004159232388466,0.6006789754401366
9,0.6004086387807277,0.6007337721346626
10,0.6003827390066092,0.6003507606149016
11,0.6003761698657563,0.6003049656120186
12,0.6003692176028972,0.6002802089781086
13,0.6003418701918447,0.6003148396021083
14,0.6003553080712756,0.6003506503093331
15,0.600327048896347,0.600392258492652
16,0.6003299529411954,0.6003649209036721
17,0.600331315181959,0.6002815969232885
18,0.6003254347196448,0.6002991384371339
19,0.6003259599017147,0.6003114146571006
20,0.6003053452210659,0.6002665009747072
21,0.6003085924700601,0.600281657326606
22,0.6003204436918481,0.6002727947814884
23,0.6003045469687736,0.600377137459833
24,0.6002877418824611,0.6002986224650153
25,0.6002921204932593,0.6003604873238367
26,0.6002868375319921,0.6004010254928551
27,0.6002889940887955,0.600568775858536
28,0.6002878027981383,0.600258434380846
29,0.6002761804351209,0.6003420398193908
30,0.600274012949892,0.6004008834178631
31,0.6002804825382644,0.6002333367137105
32,0.6002733276215063,0.6002627184314112
33,0.600271200144853,0.600270634283203
34,0.6002743579352117,0.6002746222332749
35,0.6002640656035264,0.6002693558449189
36,0.6002672005084024,0.6002932398549972
37,0.6002617509182294,0.6002501416147199
38,0.6002623046708665,0.6003449634346122
39,0.6002609120830946,0.6002476398169846
40,0.6002599187780513,0.6006756563932073
41,0.6002595567130242,0.6002885813748571
42,0.6002572458914076,0.6002574424885638
43,0.6002586186212193,0.6002302040237351
44,0.6002598687679235,0.6002765184596514
45,0.600252442685174,0.6002465262306536
46,0.6002538050221746,0.6004313298549605
47,0.6002576115566465,0.6003875830037422
48,0.6002522375322673,0.6005862498401708
49,0.6002494871992634,0.6002451206555142
50,0.6002497681727554,0.6003576532486946
51,0.6002491470825911,0.6002512340214353
52,0.6002507625206296,0.6002315438119117
53,0.6002418275145196,0.6002768025504744
54,0.6002471847376477,0.6002788917894103
55,0.6002485031921377,0.6002558894547871
56,0.6002460013439492,0.600222719928467
57,0.6002499816367556,0.6003949904264351
58,0.6002437630992565,0.6002221499424123
59,0.6002501956907993,0.6002527007689843
60,0.6002423839294516,0.6002750867945384
61,0.6002461452411937,0.6004035550666507
62,0.6002422115002924,0.6003462296265822
63,0.6002488349574863,0.6002167095025774
64,0.600242595473444,0.6003508190954885
65,0.6002467253959093,0.6003425945123431
66,0.6002424710586775,0.6002222229470094
67,0.600247386316374,0.6002215889192397
68,0.6002358672322614,0.6002228145563868
69,0.6002474106209585,0.6002290826873211
70,0.6002322181329031,0.6002999131496136
71,0.6002392228236482,0.6002445437476298
72,0.6002428329998586,0.6003798156163237
73,0.6002460933599655,0.600219725615925
74,0.600233564847162,0.6002204895019532
75,0.6002354869287384,0.6004154743982604
76,0.6002353937941637,0.600232376916237
77,0.6002474911327049,0.6002299230980223
78,0.6002293129363655,0.6002445733280987
79,0.600242051769689,0.6002231547317789
80,0.6002405760859697,0.6002552375604142
81,0.6002303500994658,0.6002182524494143
82,0.6002415615981795,0.6002020060868181
83,0.6002365780500515,0.6002248691861742
84,0.6002349023234542,0.6004350049619935
85,0.6002390400852938,0.6003631776083196
86,0.6002361081806123,0.6002383881407991
87,0.6002316507169735,0.6002491559343361
88,0.6002377188178426,0.6002295111308322
89,0.600233937185887,0.6002119807392433
90,0.6002338032625858,0.6002219322893223
91,0.6002279003273461,0.6003156405820445
92,0.6002303997956401,0.6006792998491387
93,0.6002305986978723,0.6005707274891307
94,0.600238131905064,0.6002081329118525
95,0.6002272212638337,0.600228279873396
96,0.6002367689874858,0.6002044733937266
97,0.600229926015191,0.6002139199164606
98,0.6002284025403174,0.6004188676921665
99,0.6002594957082095,0.6001989310195961
100,0.6002219051970261,0.6002792646512204
101,0.600230781990773,0.6002678027519813
102,0.6002283752137323,0.6002068862725725
103,0.6002297047520467,0.6002645488412446
104,0.6002265633937676,0.6002243052641156
105,0.6002304357788255,0.6003097360246531
106,0.6002319965187303,0.6002596629168792
107,0.6002294469756245,0.600204783692845
108,0.6002299426515769,0.6002071653938766
109,0.600229912477322,0.600301282961966
110,0.6002258483139389,0.6002415101522252
111,0.6002289013794707,0.6002242177059278
112,0.6002282238849376,0.6002092773801931
113,0.6002231081654955,0.6005544631711899
114,0.6002285345175796,0.6002231591392687
115,0.6002252240929157,0.60025607637377
116,0.6002245347651712,0.6002119613936167
117,0.6002246743917001,0.6002256542813985
118,0.6002271766343028,0.6002294294591577
119,0.6002283647451937,0.6002273905070189
