epoch,loss,val_loss
0,0.06982368898863482,0.03963358996264988
1,0.037241764949348895,0.034766353274841164
2,0.03319211884361028,0.033633178827484546
3,0.031444991270841896,0.03117483142698669
4,0.029497356193552288,0.030639147765879005
5,0.028372716961359724,0.028686164689271088
6,0.027565677344836118,0.027356522582083126
7,0.02687570510092164,0.027547620472592987
8,0.026303798459831457,0.025443367637860273
9,0.02583280939127282,0.025179667268918998
10,0.025405867085182447,0.025517439117502632
11,0.02493995300921297,0.02471005996277847
12,0.024651018775436222,0.024274044255575826
13,0.024384044255105895,0.025597554204925415
14,0.024165273392011823,0.025508181246982023
15,0.023912351036746306,0.024268119941204418
16,0.02397407023257232,0.023962957296455763
17,0.023455830865007927,0.02418384573632671
18,0.023585903722172598,0.023934220409866598
19,0.023036055097259093,0.023890237319780048
20,0.022898763294869277,0.024399532412846685
21,0.022821649982060026,0.023563847958893692
22,0.022659850840512828,0.022991118489512734
23,0.022543100348828976,0.023029196183786498
24,0.022458378084019605,0.022943875255529992
25,0.02225931607138676,0.02369271144548214
26,0.02216037528278052,0.02279938213508715
27,0.02211683990533377,0.022174725877513957
28,0.02195178423553567,0.022438622851192802
29,0.021894877733302894,0.02319871652547834
30,0.021870023871436703,0.022288563424171348
31,0.02182707769200416,0.022520624525456806
32,0.02166365392318677,0.0233731352985275
33,0.021667281875910886,0.021985616135149825
34,0.021577931088522552,0.021983512625024276
35,0.02147564089910497,0.021930388458276506
36,0.02149027960448633,0.021815366976462285
37,0.021394294781385777,0.022359250793718817
38,0.021311946542655103,0.023964810256774608
39,0.021310019656720778,0.022013257948621627
40,0.021188933374912754,0.022119883974787615
41,0.021334398298588127,0.021886782962875093
42,0.021181985721669693,0.021826705737755848
43,0.02117305107080358,0.02205360642456387
44,0.02110131071198296,0.022523313598064868
45,0.021044701237337343,0.022450958414201996
46,0.020992149371603062,0.02159487965884191
47,0.020992713433361367,0.021436151745671372
48,0.020968357447329063,0.021675495000985954
49,0.02090971009971132,0.02177771267668337
50,0.02094383602233834,0.02252492005971466
51,0.02087315795155915,0.022207106420627006
52,0.020860372647555137,0.021951703945401288
53,0.020852490982498997,0.0218370653476298
54,0.02078068717426049,0.021635517431769714
55,0.020771186567068035,0.022005133475951167
56,0.02073868346618214,0.0214542087564989
57,0.020690418177850865,0.02149142997140624
58,0.020632788988614155,0.02165008092451628
59,0.02067941478385109,0.02208424915118194
60,0.020611157243491895,0.02146575112755482
61,0.020635730178912317,0.021479423944064168
62,0.020580251172673623,0.021380880167222498
63,0.020534370412213628,0.021794157001021188
64,0.020512725692741565,0.021592056631080565
65,0.020524254755924846,0.021295999048772284
66,0.02047354229555005,0.021532533454614006
67,0.020500374988116448,0.021828477497838863
68,0.020418131607130154,0.0218343718924904
69,0.020403273456422098,0.021495989386556166
70,0.020373357116898094,0.0215462715330328
71,0.02040872771882426,0.021095753000776468
72,0.02034899430946193,0.021361264549473083
73,0.020356492725905114,0.021441673373724924
74,0.02034623707201776,0.02148003440451977
75,0.020286214126335148,0.02198223518970291
76,0.02029552460888207,0.02090108635611185
77,0.02023571620252033,0.02181705036119699
78,0.02021920442810627,0.02100798269784628
