epoch,loss,val_loss
0,0.05824793590445541,0.0375873966424474
1,0.03506298175627899,0.03427367641893273
2,0.03177334267650857,0.029740321330226978
3,0.03010486846356873,0.029239271740167962
4,0.02873257964611246,0.029546180289821058
5,0.02782829853515227,0.031198498773071962
6,0.027017029016606357,0.026680373980966454
7,0.02638134959354452,0.027729024826814757
8,0.0260003423161364,0.0263558857882437
9,0.02540971418132161,0.025939220711403983
10,0.025118631879814217,0.02549013005796053
11,0.02472091371143265,0.024739044398143333
12,0.024439996032561983,0.024868827623779663
13,0.024254477232028265,0.024359916491669697
14,0.02428852501693655,0.024134131603257235
15,0.02382300038520897,0.023910796088594064
16,0.023650521650200235,0.02574448561476123
17,0.02351891279344427,0.023778610168112713
18,0.02329765737790934,0.023588022716324916
19,0.0231331796771319,0.02362328321296287
20,0.023025918354360988,0.02326937300654558
21,0.022955665533300952,0.02373597663515259
22,0.022833042569170858,0.023160017996323907
23,0.022698411847501977,0.023073470631323145
24,0.022708226047143003,0.02285791786466136
25,0.02251077965200693,0.02263398812644683
26,0.022416797420269422,0.022820208006291177
27,0.022283810949265435,0.022527081079355835
28,0.022223814256511265,0.022343170726047853
29,0.022232662230790994,0.022861772556569678
30,0.022067508154014065,0.02313432032265527
31,0.02196514467883652,0.02366826561633174
32,0.021971381766541974,0.022562644521592568
33,0.021903672976872735,0.023441867833545724
34,0.02181427414753213,0.02294235175230515
35,0.02175638773837916,0.022151496931540757
36,0.021646876925319636,0.022173037047199813
37,0.021613463514170695,0.021771142324871817
38,0.021551032955634587,0.02236730350139863
39,0.021499652441693228,0.02258369509250887
40,0.021480132167469478,0.022214237417535806
41,0.02141147352642859,0.02208932965309833
42,0.02146765342046658,0.022665111154835514
43,0.021317019663823402,0.02159352843411655
44,0.0212602883151281,0.022044742561266678
45,0.021240002201746017,0.022375570771009396
46,0.021189110645701986,0.021623771159768695
47,0.021163974742899085,0.022337818848288088
48,0.02110616592864014,0.021958502623305724
49,0.02105037145882782,0.021953697506310627
50,0.021064315923162255,0.021985737839829243
51,0.020996841901646537,0.02184506739505911
52,0.02098036756129478,0.022352731786206104
53,0.020953540802959393,0.021859359769867016
54,0.020921037151619346,0.021724525913965908
55,0.020897291309454044,0.02153786015477281
56,0.020856006511112954,0.022811710859461695
57,0.02085897471460968,0.021673017308559667
58,0.02079382663802549,0.021598503103586048
59,0.020753380591376044,0.021475179606202814
60,0.020807821970510943,0.021437284004673474
61,0.020792152622322663,0.021697051176990823
62,0.02067827153523237,0.02175518564103407
63,0.020654879515653316,0.02169321534263141
64,0.020650843438743405,0.021307208496273006
65,0.02062471186179974,0.02166075496090849
66,0.02059523341169667,0.021671474582652006
67,0.020630983772989994,0.02260219650735926
68,0.020573239503461495,0.021329263000571107
69,0.020598533635925037,0.021368763748343764
70,0.020572132830154695,0.02185090298743609
71,0.02048690725914441,0.02132399044376301
72,0.020501789476716218,0.02155859860552304
73,0.02045834377226893,0.0216453311294687
74,0.020472367218959852,0.021465707814353276
75,0.020414001314359397,0.021626106886280975
76,0.02035764331442198,0.02146347901199207
77,0.020347592650363393,0.021685507938857408
78,0.020347254929781313,0.021344985104819976
79,0.020298828876199874,0.020943952869466754
80,0.020276824729295616,0.021335859411851347
81,0.02022134751431312,0.021563166570352857
82,0.020226155926344306,0.021114879687577855
83,0.02019682738201455,0.021234447684684403
84,0.02017082716537084,0.021887050879652387
85,0.02017517031250087,0.02176320960943959
86,0.02013178166266342,0.020984948468082597
87,0.02009204726471125,0.021183557989579573
88,0.020089940446284267,0.021140199882110057
89,0.02005792177125605,0.02141065405908205
90,0.020068268750688567,0.020911609973971068
91,0.020038398112146007,0.021060719694156505
92,0.020058278096806385,0.020850022898862144
93,0.019988752558389205,0.02118511978102381
94,0.01998296572218826,0.020810433849692344
95,0.019955873242945035,0.020575735906587345
96,0.01995146756195545,0.021080568899624695
97,0.01995676510919775,0.020738531616759065
98,0.019941312139828322,0.021003790661027057
99,0.0199056916274895,0.021091409319683577
100,0.019889027425467797,0.02168219005943232
101,0.019901141696106864,0.020895172100948635
102,0.019871481497493126,0.02088257026657573
103,0.019864353433764515,0.021040657280988195
104,0.019872453244984347,0.021090685225856807
105,0.019787139106603548,0.021913749707987526
106,0.019784203397625776,0.020877222838827755
107,0.019774487685054288,0.02070732272736192
108,0.019797309446629822,0.02072885081024087
109,0.01980113168870403,0.020619016780377027
110,0.01973104025189008,0.020882882516156356
111,0.019765981912270365,0.020733998782433587
112,0.019716847619750687,0.02092636804519309
113,0.019726675389873747,0.021252944610698644
114,0.01974918801871468,0.020852901257814898
115,0.019744448292071566,0.020933304809348165
