epoch,loss,val_loss
0,0.46175643579476255,0.45089684565073207
1,0.45100891282159894,0.4508274422242091
2,0.4508739473414717,0.4512020348171442
3,0.45079304196746184,0.4508760642177118
4,0.4507193912650251,0.4507010850214189
5,0.4506824841914063,0.4508314784791866
6,0.45063683627936324,0.45111139770181247
7,0.450614346479234,0.4511627078204238
8,0.45055433546923634,0.45048872785591904
9,0.45055242370513787,0.4506116501302932
10,0.45052585175634335,0.4506504803674097
11,0.45050009767720883,0.4504471928694704
12,0.4504727733638338,0.4504240200626051
13,0.45048152183417056,0.4503719950728026
14,0.45044080590968605,0.45063515448984376
15,0.4504430911369841,0.450408149712139
16,0.4504306589385215,0.4504823400719882
17,0.4504110697167353,0.45035618314376247
18,0.450415723693246,0.4503617037614581
19,0.45039920591629334,0.4504491223442939
20,0.45041381750221854,0.4504352274366999
21,0.4503981975051908,0.45031225570378175
22,0.4504158543724915,0.450321538779635
23,0.45039036858209763,0.45039800695390914
24,0.4503856537534104,0.45057940157708104
25,0.45037636204591047,0.45041448781567234
26,0.4503656871353273,0.4503664998647297
27,0.45036486160732914,0.45032959970883635
28,0.45036216780293464,0.4505826147259317
29,0.4503538832499341,0.4505581059763508
30,0.45035415695950193,0.4502995384833949
31,0.4503471761469796,0.45036382652985546
32,0.4503422436336671,0.4508907576648532
33,0.4503468424138992,0.4503241813508216
34,0.45037032403015864,0.4502995560098227
35,0.450331214521096,0.4503076520954113
36,0.4503285668347512,0.45033354234162987
37,0.45033994060054533,0.4503167354291485
38,0.4503236103659106,0.45029833401107316
39,0.45033061095948235,0.45043903497549204
40,0.450340051936541,0.4502859568773369
41,0.45032158030125263,0.4502798961350699
42,0.4503343380427872,0.45035426159650455
43,0.45032096476917166,0.45027468884849076
44,0.4503142476808359,0.4505205222897731
45,0.4503292830745516,0.45035732423992964
46,0.4503179140874785,0.45028777416823224
47,0.4503154468660854,0.4506080688672977
48,0.45031456632205585,0.4504402516349669
49,0.45031160938667364,0.45043531406310294
50,0.450312662450972,0.45030014111149697
51,0.4503292233216072,0.4503131007438262
52,0.45031329606378334,0.4503171674075257
53,0.4503216372246705,0.450339607003309
54,0.45030167645298735,0.45029047054629173
55,0.45030228754514906,0.45032570129884386
56,0.4503124697086988,0.45034824290287406
57,0.45030632931251746,0.45028328743229434
58,0.4503028110225612,0.45026982037660207
59,0.450301727985948,0.4503163853738799
60,0.45030661552225076,0.45031700095822735
61,0.4503016041915947,0.45029585331900246
62,0.45029406774192493,0.4503329160491527
63,0.45030975742008844,0.45033330921795467
64,0.45030150277432435,0.45038488096102297
65,0.4503011923850358,0.45029466422852454
66,0.45029530542474966,0.4502953479958527
67,0.4502993290285608,0.45039755820340616
68,0.4502979021946031,0.45027349203751044
69,0.45029762388616706,0.4504818117648141
70,0.4503046957570683,0.4503927578701275
71,0.45029747503271517,0.4504067156510081
72,0.4502974712778931,0.4502782839847262
73,0.4502996153219099,0.45030765932783595
74,0.45030581729480645,0.45028494282928355
75,0.4503083635717692,0.45039905760779275
76,0.4502947832063073,0.4502686497295465
77,0.4502913832035005,0.4502790496307922
78,0.4503020850722861,0.4502901303708997
79,0.45029408306727847,0.4504561397632949
80,0.4502945384518604,0.4503175953333786
81,0.45029772199312,0.4502779598419483
82,0.45030176680497064,0.4502628738324045
83,0.45029530807678997,0.4503346616517817
84,0.4502903135592174,0.4503982754262446
85,0.4502916706434113,0.4504489807277992
86,0.45029071489408246,0.45026426455814844
87,0.45030061899531054,0.4504554154115634
88,0.45029971495563975,0.45049718747067985
89,0.45029223721845013,0.4502734200682297
90,0.45030166759050294,0.450666122282705
91,0.45029940706930294,0.45028043837464476
92,0.45029288983452626,0.45031769929393645
93,0.4502965908230011,0.450258663200563
94,0.45029143500387386,0.45025833590746517
95,0.45029165570379476,0.450325261452062
96,0.4502987076224709,0.4502767651311813
97,0.4502888964542718,0.4503160561728418
98,0.4502969031421578,0.4504023308345757
99,0.45029562831499254,0.4502604662040919
100,0.45030230802076165,0.45029842060789577
101,0.45029654757431387,0.45031526976128666
102,0.45028564010575045,0.45029828251147686
103,0.4502873020089229,0.45030292652676773
104,0.45029522834282815,0.45030159802354003
105,0.4502915125571202,0.4502806019990083
106,0.4503000438681912,0.45047708026528654
107,0.4502931059438617,0.4502621319246647
108,0.45028636387570453,0.450346276422884
109,0.45029872372284807,0.450249281030139
110,0.45029176509493457,0.4503019275647535
111,0.450290804143284,0.45026690794279794
112,0.4502878724137224,0.4504637719383902
113,0.450293525587034,0.4502628652540685
114,0.45028266049116417,0.45028591286159925
115,0.4502981177265163,0.4506170612706736
116,0.4502885607159902,0.4504447721074296
117,0.4502928357840206,0.45037966786188166
118,0.4502894059086857,0.45033425182917575
119,0.4502857550707501,0.4503216646593203
120,0.45028755541168736,0.4503283943934713
121,0.4502920312120314,0.45050613301859305
122,0.4502912989325935,0.4502752573703122
123,0.45028797079637084,0.4502724961222845
124,0.4502874239578127,0.45031688222222527
125,0.4502980685699005,0.45027593801690097
126,0.45028606882360195,0.45032720740320664
127,0.450282802238852,0.45035018836594104
128,0.45028561379004856,0.4502559462049167
129,0.45028514091280775,0.45028858640353675
