epoch,loss,val_loss
0,0.5547049774755497,0.5508829837105707
1,0.5510778737583123,0.5506404941194406
2,0.5507793913709722,0.5505772908035638
3,0.5507103205807867,0.5507501666066664
4,0.5506127948963621,0.5507668500206903
5,0.5505815698979298,0.5504037559476147
6,0.55051405708044,0.5504606064732553
7,0.5505039423218624,0.5505439059018498
8,0.5504847791023866,0.5505586600481133
9,0.5504647204185911,0.550391747223828
10,0.5504348600431836,0.5506480347134044
11,0.5504271555403789,0.5504005948308088
12,0.5504204000317731,0.55034269399146
13,0.5504224140378617,0.5503925169963695
14,0.5503930515195165,0.5505234753819317
15,0.5504469771970882,0.550335389272155
16,0.5503610618594615,0.5505276597167363
17,0.5503799895222268,0.550318985452723
18,0.5503692004843794,0.550339842700485
19,0.5503668395232673,0.5503988739574518
20,0.5503647936508873,0.5505171876391465
21,0.5503698286187793,0.5503274053261239
22,0.5503510771786478,0.5505713887013514
23,0.5503454029373137,0.5503905769021576
24,0.5503322863247173,0.5503984849447057
25,0.5503380981645031,0.5505430711410182
26,0.5017986091817931,0.5004251489272484
27,0.5003623313220431,0.5003645553778182
28,0.5003578251782406,0.5003149317156884
29,0.5003675253271584,0.5003167967050898
30,0.5003512462030669,0.5005680128303415
31,0.5003464950768461,0.5004412346087378
32,0.5003506613090717,0.5005048114076146
33,0.5003423903740061,0.5002952804044813
34,0.5003376743829805,0.5006186140086456
35,0.500330237884544,0.5002805692090586
36,0.5003326150939387,0.5008173198617126
37,0.5003252130909577,0.5003175064884403
38,0.5003254431747785,0.5003158523486211
39,0.5003270906842033,0.5003032423722241
40,0.5003146022793677,0.5003135239515943
41,0.5003155602023126,0.5004189202862401
42,0.5003121911109206,0.5002766196840158
43,0.5003108243201961,0.5002750811150884
44,0.5003063495883199,0.5002694420424052
45,0.5003086189783149,0.5003658516235446
46,0.5003080695374127,0.5003535399365957
47,0.5003071085293608,0.5003729697196714
48,0.500305271021207,0.5003507502913179
49,0.5003006598551895,0.5003041706960787
50,0.5003049362638333,0.5004044438118379
51,0.5003051025937731,0.500294432214117
52,0.5003018799727831,0.5002649078002342
53,0.5003021829648355,0.5003222508998426
54,0.5003022521182452,0.5002768446730621
55,0.5003004814656447,0.50026695160357
56,0.5002913467913502,0.5002722155367471
57,0.5002958654656882,0.5006883734213211
58,0.5003003267235906,0.5003143739759478
59,0.5002930655295919,0.5003071895308293
60,0.5002980843911903,0.500345960976764
61,0.5002914093651443,0.5004175670093697
62,0.5002908358105539,0.5003775782088192
63,0.5002960861782303,0.5003690120599997
64,0.5002904170508692,0.5003101921259026
65,0.5002865516556175,0.5002812639359505
66,0.5002898502533808,0.5002709557045778
67,0.5002977541127829,0.5002650139053761
68,0.5002874590012671,0.5003539230036677
