epoch,loss,val_loss
0,0.26780562378543554,0.21078488919898666
1,0.1830897484477952,0.17975739517264602
2,0.17888542357013285,0.1785905205342557
3,0.17858723097806165,0.17834296814315226
4,0.17838312607469986,0.17790393862982104
5,0.17814525322829314,0.1778518809821536
6,0.178171379746293,0.1784277688285546
7,0.17815332132563602,0.17776788975793542
8,0.17809393963844275,0.17820166832316833
9,0.1780259630365147,0.17779438515159213
10,0.17800431506787176,0.17796323684227214
11,0.17797433827325498,0.17781878866684558
12,0.17798770482925108,0.17834865862258137
13,0.17797105908274746,0.17791219266174155
14,0.17798706984443727,0.17782083641805324
15,0.17798385278379125,0.17789050213398666
16,0.17794121194371787,0.17772569130421062
17,0.17789592386054384,0.17771088860593826
18,0.1779290530428612,0.1778665186974037
19,0.17787859443542386,0.17794931370062253
20,0.17790067831961084,0.17770450976813226
21,0.17783818549389463,0.1779487823042798
22,0.1778976388222022,0.17790592756436957
23,0.17786944008988442,0.1779190347998182
24,0.1778260445196947,0.17759653294331085
25,0.17783900609405207,0.17823768991039038
26,0.17783420256597343,0.17771739710854467
27,0.17782732510237956,0.178168656464722
28,0.17786654749576994,0.17841693517864457
29,0.17782674266470613,0.1776482139220836
30,0.1778177514874773,0.17763066885738554
31,0.1777680298323921,0.17786636576938553
32,0.17784028363933,0.1776599564722606
33,0.177793291957973,0.1775919832083402
34,0.17776148467303085,0.17771394624894496
35,0.17776622699438144,0.17771899493171553
36,0.1777949777664803,0.17787590380625737
37,0.17775567246974705,0.17770107193969795
38,0.1777634165948815,0.17772140180443627
39,0.17776560611266504,0.17769421085468312
40,0.17775275409340763,0.177625880562704
41,0.1777446746266336,0.17771282926166537
42,0.17774347157525025,0.17795854403498423
43,0.17773369784883078,0.1776767635237258
44,0.17773023785518513,0.1777847452646367
45,0.17771140938039592,0.17762232852339652
46,0.17775427267181693,0.1777305673946051
47,0.17773084552715912,0.17787676846171893
48,0.17774519128955715,0.1775575164814304
49,0.1777258884432695,0.17767677436734902
50,0.17770413674420113,0.17755920061843078
51,0.17771155001233807,0.1776100598810786
52,0.17771177534624447,0.1776992116232227
53,0.17771336090841072,0.17774058184523986
54,0.17769967733646372,0.17756948531285552
55,0.17771157433541654,0.1775671964615654
56,0.17770057517609342,0.1777429229505625
57,0.17773106115923035,0.17764199999673402
58,0.17767181691172407,0.1778152223026649
59,0.1777068286610069,0.17762167914090612
60,0.1777017827002074,0.17762475970606212
61,0.1776902527748633,0.17758649213632074
62,0.1776686631959024,0.1776880755985263
63,0.17767035170829745,0.1776764618781202
64,0.17768844886482668,0.17758707279940714
65,0.17766390883808228,0.17768355138488143
66,0.17767432838273373,0.17768812094886377
67,0.17767286839650023,0.1776966088008203
68,0.1776742295776721,0.17763978900312907
69,0.17767485656993662,0.17779913150662027
70,0.1776588546881954,0.1776067229853715
71,0.17766955024975953,0.1776228986721671
72,0.17766819387483748,0.17775775607448915
73,0.17766451985715961,0.17769724945666382
74,0.17765624756268936,0.1776396376981261
75,0.17766358727793233,0.17747866235902768
76,0.1776665818753193,0.17770756517655284
77,0.17767502287094541,0.17764676785083294
78,0.17765005975127887,0.17752636308122452
79,0.17766104939339353,0.17754529683535364
80,0.1776457007685535,0.17748721076826834
81,0.17763005418600225,0.17774074092425035
82,0.17765350291411652,0.1776606989429048
83,0.17766588422463095,0.177635487213131
84,0.177643668040526,0.1776442744408241
85,0.1776530566058761,0.17757992174743947
86,0.17764698679474808,0.17753526836563116
87,0.1776434599305038,0.17765445657950643
88,0.17765206788822138,0.17752487254170987
89,0.1776665952399099,0.17763991343429358
90,0.17766252219033757,0.17751740349637493
91,0.17764881837496654,0.1775676671242093
92,0.17763709228673427,0.1776656294160691
93,0.17765215138117854,0.1776071435344812
94,0.17765268724527863,0.17755321630268653
95,0.17763408903571531,0.1774636786239958
96,0.1776577055001621,0.17750943689103568
97,0.17764899337725293,0.1775196080096801
98,0.1776342572604152,0.17769612945857347
99,0.17764795578712467,0.1775197456719467
100,0.17762399165869522,0.1777258070204892
101,0.17767094833840377,0.17752701087598266
102,0.1776271225105849,0.17755528277737379
103,0.17763216516001523,0.17752832107263564
104,0.17765502526248386,0.17755972354686816
105,0.17764127300940544,0.1775479571219025
106,0.17763990703985083,0.17768743280218452
107,0.17762760831702717,0.17751834264588148
108,0.1776214710337748,0.17753510569952188
109,0.1776255027686568,0.17754017960959376
110,0.17763627983397431,0.17762798654252182
111,0.17762972304908684,0.17775734386391404
112,0.17766534376273052,0.1775739535677593
113,0.1776260380014527,0.177550313316562
114,0.17762131885968618,0.17757175157130375
115,0.1776441227820375,0.17767739551172732
116,0.17763009241564,0.1775403408055806
117,0.17763779475558386,0.17760181131801364
118,0.1776328682065677,0.17765652238381785
119,0.17763358620788267,0.17750628345484987
120,0.17765514828937706,0.1776021992068829
121,0.17761631097963199,0.1775063306163782
122,0.17763392275852932,0.1774927222220655
123,0.1776163386140796,0.17773754740664596
124,0.1776239562699263,0.17751317182533743
125,0.17763647107149866,0.17788687044932508
126,0.1776445876184604,0.1777775247170404
127,0.1776123130493027,0.17756183746534723
128,0.17760842674665694,0.17748988374491423
129,0.17763820448391537,0.1775747221830612
130,0.17760935258403193,0.17770915245012495
131,0.17764192488458422,0.17765553815447635
132,0.177636490475169,0.17775860546419917
133,0.17763424548599646,0.17760627817336086
134,0.1776315324919687,0.17763263885675684
135,0.17761369626656426,0.17757767261297758
136,0.17760784905567634,0.17753016347713893
137,0.17766376157744612,0.17756563748491028
138,0.17762877453836223,0.17767090681461056
139,0.17763597124533878,0.17753714685281996
140,0.17761878237473688,0.17754512492511437
141,0.17763063867243645,0.17761875848979017
142,0.17763874087807277,0.17753887828071943
143,0.1776221132428526,0.17762816602683199
144,0.17762572937112728,0.1776242089864299
145,0.17761059025589893,0.17761089700408686
146,0.17763390773825413,0.17812797817641954
147,0.177623001124552,0.17751610322598876
148,0.17761252345822506,0.17755566693801247
149,0.17759780401734712,0.17759617008180625
150,0.1776391055455787,0.17756875509715211
151,0.1776432713730444,0.17752613220143337
152,0.17762101067603825,0.17757764722102254
153,0.1776240368088563,0.1777537379593198
154,0.17762546916064217,0.17775070332078927
155,0.17763327239609833,0.17766654325594747
156,0.17763676852297536,0.17757683491368131
157,0.1776388179090955,0.1776162188826533
158,0.17760486497009972,0.1775760758365339
159,0.1776134035200905,0.177529125805906
160,0.17761686284669773,0.17758715673751876
161,0.17763717410018404,0.17753241494027477
162,0.17759247963948788,0.17764535311083202
163,0.17763301736707215,0.1776920228302714
164,0.17760786567207912,0.17766440893216875
165,0.1776173221681425,0.17754390966308897
166,0.17764197238724677,0.1776271195466253
167,0.17764412531320997,0.17755403392599056
168,0.1776446725884311,0.17756953973090828
169,0.1776249903223688,0.17754332814145107
170,0.17762577630204263,0.1775469697759014
171,0.1776181300111907,0.17771569186058586
172,0.17762201562893096,0.17778176126888443
173,0.17761128847833446,0.17760402134721825
174,0.17762316083260102,0.17754651644894148
175,0.1776488145216287,0.1775332946968342
176,0.1776160354629981,0.1775522864443539
177,0.1776098766618019,0.1776166466530045
178,0.17761902172836086,0.1778799875124101
179,0.1775977474858435,0.17755535127331915
180,0.1776301806850685,0.17754231799091047
181,0.17761764304338695,0.17750548888306591
182,0.17761247446068185,0.17750075610020824
183,0.17761566476236812,0.1774983719849831
184,0.17764922763279778,0.17765617257700064
185,0.1776245495350622,0.17756988118742995
186,0.17762086739380964,0.17757794746707156
187,0.17762848405505446,0.17768689980634855
188,0.17761910853268717,0.1775222542418583
189,0.17760010094617865,0.17754800668267068
190,0.17761533786591105,0.17756189725816768
191,0.17762031764697303,0.17753244369586998
192,0.17762790413068638,0.17755339920944177
193,0.17761590254368734,0.17752034808108444
194,0.17763942122745285,0.177527026835632
195,0.17761271233133655,0.17771668471072544
196,0.1775905037288376,0.177633940867768
197,0.1776389988730375,0.17753029358885658
198,0.17762896909321146,0.1776754755200414
199,0.17760836922650713,0.1775380866374194
200,0.17761592706925958,0.17746986725147823
201,0.1776180210218822,0.17759659622914226
202,0.17764619216144228,0.17751739949764186
203,0.17760072896282356,0.17760023678158246
204,0.17761671885574082,0.17760710706368335
205,0.17762177771063065,0.17759120843028495
206,0.1776350953881975,0.1774747304047951
207,0.17760116259137884,0.17754526165826356
208,0.17762674359704475,0.17755949618360992
209,0.17762722636608005,0.17765812807508408
210,0.17761756462468614,0.1777509142774809
211,0.17762007220662374,0.1775913301799461
212,0.1776571490531631,0.17751484057897646
213,0.17759118779457445,0.17755464162756912
214,0.17762392943949817,0.17753215389357088
215,0.1776169894589223,0.17751963475414778
216,0.1776253449068748,0.17755645132478806
217,0.177622706239982,0.1776565038837969
218,0.17761385365784596,0.17756034504407583
219,0.17763197642984055,0.17753531348074902
220,0.177611342073678,0.1775249601257252
221,0.17762781745738548,0.1776124687884488
222,0.1776130133919674,0.17756978537072887
223,0.17759615882671329,0.17751575272527378
224,0.17763008441713501,0.17755778420837073
225,0.17762368049719732,0.1774920729689459
226,0.17759775241120732,0.17756299929724215
227,0.17760057237556132,0.17753433882484496
228,0.17761635846442742,0.17751663141158405
229,0.17762328216211973,0.17753499458178632
230,0.17759233586889187,0.177571556256715
231,0.17762332842599668,0.17753310805008746
232,0.17758858385536788,0.17754844073338497
233,0.1776267101915239,0.17746955450350785
234,0.1776029361094788,0.17751699857760717
235,0.1775989914290625,0.17805286686817492
236,0.17764729922481007,0.1774859074870714
237,0.1775860594426223,0.17763093658432588
238,0.17762938873182765,0.17751625024999515
239,0.17760673030722532,0.1775482431254052
240,0.17761233840271723,0.17754572400589486
241,0.17760560641900527,0.1776261996968863
242,0.1775974298624112,0.1775861229474091
243,0.1775935414216692,0.1776334836008799
244,0.1776255913299146,0.17764218255065986
245,0.1776246862183753,0.17761575526483622
246,0.17759416562666613,0.17754587190021373
247,0.1776025686725724,0.1777507711463588
248,0.1775883374204167,0.17758254678633237
249,0.1776121166958321,0.17757355489407173
250,0.17760843280955946,0.17757586238651457
251,0.17760904809291794,0.17756793847353136
252,0.17761499145858103,0.17748229489047976
253,0.1775997711135615,0.17751827250339897
254,0.17760711765999226,0.17759071812680507
255,0.17762608761838872,0.1776299199652465
256,0.1776058065841238,0.1775072475141113
257,0.1776048089090964,0.17746956513543344
258,0.17763580249653732,0.17755895280282893
259,0.17761684314524243,0.17760724219733934
260,0.17762379845578988,0.17752917780119692
261,0.17762278537336681,0.1775271723071891
262,0.17759255268614738,0.17787784563808245
263,0.17758415565549804,0.17754086980268347
264,0.17760808156620111,0.17749818707886134
265,0.17762216711215836,0.17758782313814667
266,0.17763504933277002,0.1775813273138763
267,0.1776246720557209,0.17758448177326733
268,0.1776240077033508,0.17748718569385977
269,0.1776102878850141,0.17763841306259995
270,0.1776092020656279,0.1775265314631699
271,0.17759833374112058,0.17759866919589024
272,0.17760664643905907,0.17752576447088322
273,0.1776094123316135,0.17757721594589945
274,0.17759151463147452,0.17755949759492745
275,0.1776203056819719,0.17755466327953262
276,0.177601723362216,0.17754684721473266
277,0.17761794072713594,0.17756534504815172
278,0.17760232820523253,0.17764146478983392
279,0.17761644990228825,0.17748308202932458
280,0.1776101849586081,0.17765177644042396
281,0.17762015783172144,0.1776100705130042
282,0.17760463992206693,0.17750523165868037
283,0.17762917249823074,0.17753326307155998
284,0.17760171948505535,0.17751370571500782
285,0.17761006004971375,0.1775526434018467
286,0.17761163539189895,0.17760060661734797
287,0.1776177102653719,0.17748496319801674
288,0.17761439451877828,0.17757111512589097
289,0.1775892882479085,0.17753967182929814
290,0.1776099987298274,0.1775516902567744
291,0.17758758750250586,0.17749649405056037
292,0.17761482076822138,0.1775242958420736
293,0.17763484819687242,0.17764026760443422
294,0.17760758116233835,0.1776011859984876
295,0.17760491206181897,0.1776650477650604
296,0.17760141651860054,0.17750077810500114
297,0.17762220372184576,0.17755973022710458
298,0.17761440732353312,0.17752910103728287
299,0.17756786241496114,0.17753174212991296
300,0.17759762826464254,0.17748597396012827
301,0.17760794807514318,0.17751535472196203
302,0.1776022591250692,0.17752052257873924
303,0.17762830930886317,0.17755012965710407
304,0.17760562020645057,0.17749784617510572
305,0.1776136115467329,0.17764795015859342
306,0.1776057050215731,0.17756610287863528
307,0.17759599457446523,0.1775792088556591
308,0.17761440615026022,0.17750622841346517
309,0.17760194603988022,0.17757650651184706
310,0.17761635998313088,0.17753040842306173
311,0.1776429657682145,0.17760234091492647
312,0.1775894978289886,0.17750698103383478
313,0.17761538069334915,0.17776058292003155
314,0.17762160509657993,0.17757097018357798
315,0.1775903237475861,0.17756463220341523
316,0.1776046210841881,0.1775865463779588
317,0.17761554766139634,0.1775278962307684
318,0.17761544491366135,0.1775123587652935
319,0.17761115234890143,0.17755117994786815
320,0.1776062982628862,0.17759607707597933
321,0.17759441252616193,0.17748097654346792
322,0.17764370154729373,0.17751053344949363
323,0.17760145935199434,0.177638068901053
324,0.17761549770498541,0.17751222497238922
325,0.17764314131246958,0.17754238598113373
326,0.17760340505533462,0.17752806831742235
327,0.17759305041590087,0.1775320301445432
328,0.1776150289437563,0.17760978686169743
329,0.17759976182266962,0.17780988227690686
330,0.17759287759935638,0.17779244347265977
331,0.1776054667518865,0.17755631550899525
332,0.1776115531317717,0.1777048699363725
333,0.1776054086540338,0.17747121876445265
334,0.17761547376307177,0.17758506865791193
335,0.1776209003943429,0.17751439419099452
336,0.17760034618403414,0.17760807236960863
337,0.17759979626448225,0.17750111924397635
338,0.17756340505002882,0.17748014559497396
339,0.17759350921919972,0.1775977068302099
340,0.1776146025096865,0.17765643067169867
341,0.17761412073525307,0.17749950828379124
342,0.17760117548546916,0.17756086903100138
343,0.17760621775373472,0.17776443704010092
344,0.1776149290488016,0.17751037407645864
345,0.17759267691609196,0.17759601411945536
346,0.17763963279178102,0.17747119240809728
347,0.17757556874522393,0.17753723463677193
348,0.1776135546519316,0.1775024068125045
349,0.17759312065742572,0.17752570318441835
350,0.1775876193476333,0.17753523512910271
351,0.1776411585706315,0.17746917618807603
352,0.17759575407139117,0.17756373712229936
353,0.17760036604629337,0.17762187634901258
354,0.1776135557477804,0.17757173638787907
355,0.1776147754393893,0.17759877796142987
356,0.17758910701596003,0.17759759673567954
357,0.1776312421396863,0.17753543881750897
358,0.1775873893623253,0.1775539750034826
359,0.17761125315507825,0.17776402093664154
360,0.17759046710128312,0.17749696357238923
361,0.1776225979772689,0.17755468655451132
362,0.1775944494931913,0.1775657777698753
363,0.1776065949996789,0.17749617394021674
364,0.17761416542086955,0.17751473883474164
365,0.1775840638722066,0.17751108252258874
366,0.17759759877201656,0.1776221742311047
367,0.17761592814128557,0.17763223056258795
368,0.17764670943780292,0.17751384411821614
369,0.17755808765820558,0.17762133676702804
370,0.17759486209812592,0.17750721554776863
371,0.17763326163414858,0.17751300412552887
372,0.17763185433203654,0.17750758647730525
373,0.17761428728044557,0.1775627238315772
374,0.17760276560374588,0.17747429224949893
375,0.17761536512514955,0.17777040292639007
376,0.17758463002104077,0.17751916937218376
377,0.17760230270888117,0.1775903351540253
378,0.17759695428786137,0.177677729452983
379,0.17762495797696254,0.1775193497385674
380,0.17759822978437853,0.17763821603090818
381,0.17762854999060826,0.17748765486285925
382,0.177619966397659,0.17759397545948497
383,0.1775984852541265,0.17745268671834385
384,0.17758225587655982,0.17770619872713428
385,0.17761298759783106,0.17756834333349422
386,0.17760832164642051,0.17751868144442176
387,0.17760238806001669,0.1775372884197318
388,0.17759978658646988,0.17753350674729698
389,0.17759966414323528,0.17751247868024184
390,0.17761437117243462,0.17751003118509745
391,0.17760342482825836,0.17753309009107154
392,0.17758569835449198,0.1775530776760196
393,0.1776144153101267,0.17758948689336934
394,0.17764623266615742,0.1776015702649751
395,0.17760361993698764,0.17772188915591025
396,0.17761343531757237,0.17751069003517644
397,0.1775946613374374,0.17748215725173513
398,0.17762322559488192,0.17767780626394095
399,0.17758461770465334,0.17747360117433575
400,0.17761222856174366,0.17759796646559625
401,0.17761762291312122,0.17777259955983887
402,0.17759793052236905,0.17752845319548083
403,0.17762017453745974,0.17756704529769418
404,0.17758996408882377,0.1776396596441141
405,0.17759062166956308,0.1775816019915556
406,0.17760693518330248,0.17751151049287656
407,0.17756704347644398,0.1775222227694768
408,0.1775979353226632,0.17752065323146196
409,0.17762226162316036,0.17752997610121143
410,0.17761074083981562,0.17750693785927854
411,0.17761612420888256,0.1775010263557592
412,0.17757244724378313,0.1774839549762768
413,0.17761561170899326,0.17753299399210698
414,0.17759321980791792,0.17751641165767962
415,0.1775978551589423,0.17763488618002787
416,0.17760158717918167,0.17754209980121632
417,0.17763280734527026,0.17755408204015824
418,0.17760343724589267,0.17770456884353295
419,0.1776045920799295,0.17760423613798929
420,0.17760179852314895,0.1775992991962862
421,0.17762842029928685,0.17752551076303058
422,0.17757278500343684,0.17749298403323308
423,0.17759902947407355,0.17774311653628722
424,0.17760958423098025,0.1777785947427283
425,0.17757586183117258,0.17760328802661624
426,0.17758956196592104,0.17754505414753893
427,0.177603876669344,0.1775310626040318
428,0.17758529419473987,0.1775827680338812
429,0.17761610098760858,0.17752299978211816
430,0.17763606128361015,0.17769481977940357
431,0.17759753438494474,0.17757102361370847
432,0.17763025400569019,0.1774914815563241
433,0.1776043834338943,0.17752088468754113
434,0.17761064674571264,0.1775336304728027
435,0.17759803859449977,0.1776121931346082
436,0.1776105209136848,0.1775832085531343
437,0.1776185067806789,0.1775536172462432
438,0.17760223191943195,0.17762844309199016
439,0.17760326165994772,0.17750525291077057
440,0.1775945523004833,0.17748233999383667
441,0.17756830986074026,0.17757388446024297
442,0.17759311695298036,0.17754670167260972
443,0.17760638961141154,0.17776482683424885
444,0.17762401619022317,0.17760705583285608
445,0.17759535717759295,0.1775000404093147
446,0.17762033901602434,0.17752471826117905
447,0.17759518235993327,0.1775613601224669
448,0.17757948327788728,0.1775337408848795
449,0.1775968579663266,0.1776601412607726
450,0.17760848546985814,0.1776940513287554
451,0.17761689653213647,0.17754094450842609
452,0.17759303568149928,0.1774545752141263
453,0.17761513311490357,0.17752025018268996
454,0.1776169012669179,0.17751962049984046
455,0.1776176907425876,0.1774876171218756
456,0.17759469979339176,0.177598474739853
457,0.17762017487097892,0.17753950522326067
458,0.17759212937882002,0.17769014053252521
459,0.17764772138268733,0.17764700332916714
460,0.17759647048848995,0.1775147642149357
461,0.17760351834465846,0.1776817550834183
462,0.17760313643540124,0.1775195742321466
463,0.17758497636285808,0.1775809969009145
464,0.17758298123316418,0.17760330166935262
465,0.17760705178995118,0.17759722123112184
466,0.17762571086676762,0.17757300937279247
467,0.17759061647023705,0.17752271847124634
468,0.17760482189847793,0.17749807138610468
469,0.17757839236042197,0.177509731762317
470,0.17758504221503207,0.17747520232586383
471,0.17761752957539212,0.17762397269658808
472,0.17759003364544312,0.17763139829686428
473,0.17762086783453143,0.17756489125075262
474,0.1776119714363111,0.17748304682871255
475,0.17761281445967875,0.17752512499113768
476,0.1776035655793145,0.1776421522308544
477,0.17759321246453993,0.17754296889056723
478,0.17759257550243374,0.17762125979141635
479,0.17758859041259348,0.17751893741038247
480,0.17757967137080208,0.17755087046945012
481,0.1775908942143027,0.17804740844463493
482,0.1775996840412287,0.17772590014392595
483,0.17761931844133078,0.17751442571041992
484,0.1776093182434662,0.1778621368268953
485,0.17759248262924923,0.1775900317913167
486,0.1776009285025936,0.17756541944810886
487,0.1775969079048704,0.1776763090912338
488,0.17761098521409466,0.17765417583316165
489,0.17759264659562365,0.17756072582931337
490,0.17758649759155384,0.1774956836720198
491,0.17759960845744105,0.17754939712448767
492,0.17757048604371165,0.17763221856638872
493,0.1775944438769663,0.1775476771753043
494,0.17760248937242798,0.17755168557590448
495,0.17760062444028998,0.17749645968497788
496,0.17761691416100822,0.17754724714684506
497,0.17761182281181967,0.17747298335831468
498,0.17758385199222634,0.17747854005660046
499,0.1776050342549142,0.1775359341076442
500,0.17759527369059153,0.17762334925881879
