epoch,loss,val_loss
0,0.5692955800438806,0.5635556444340841
1,0.5604509898383493,0.559618340976185
2,0.5598805248425748,0.5626609229864021
3,0.5598313422286112,0.5599001875586308
4,0.5595319182770445,0.5589081634954542
5,0.5594026844992557,0.55877645169535
6,0.5592840170163282,0.5587534868983418
7,0.5591662088709684,0.5588108964356832
8,0.5590538361602602,0.5586356812316194
9,0.5589471705566226,0.558563842489465
10,0.5589256225968097,0.5585062572441385
11,0.5587363798098858,0.5590765044351961
12,0.5586938630352754,0.5608235426339558
13,0.5586166672282467,0.5584273092504175
14,0.5585749978554451,0.5594777369617528
15,0.5585840328770777,0.5583684479332444
16,0.5584556665775631,0.5583249034420137
17,0.5584728285707553,0.5582086588549555
18,0.5583929587253937,0.5586238913737219
19,0.5583838506164653,0.5581865279017844
20,0.5583620199674592,0.5581401454899506
21,0.5583628620793862,0.5581703383336883
22,0.5583082520547311,0.5581119308104882
23,0.5583265575608364,0.5581398850635026
24,0.5582647307319097,0.5580091934937698
25,0.5582616120114211,0.558144754836932
26,0.5583343751666119,0.5582218757338323
27,0.5581659200243213,0.5604831831330993
28,0.5582010991114772,0.558605018147168
29,0.5582367049420477,0.5580391903373207
30,0.5581479761414994,0.5600040971197502
31,0.5582130940104267,0.5579826868793213
32,0.5581196327986058,0.5586841101386115
33,0.5580980072591207,0.5589825010181361
34,0.5581158431600445,0.5587776644354127
35,0.5580948535604138,0.5579440898102507
36,0.5581013932109259,0.5590504665528574
37,0.5581041174447612,0.5606434600524808
38,0.5580960165802585,0.5578310450904127
39,0.5580499692363984,0.5588190550839635
40,0.5580162269311122,0.557818405918093
41,0.5580648311581241,0.5583791314816061
42,0.5580092554800081,0.5578421560469691
43,0.5580492770657173,0.5577600676427704
44,0.5580248302775765,0.55843699478334
45,0.5580137017525418,0.5577875279019547
46,0.5580156518020207,0.557796814512674
47,0.5579799016174742,0.5589718459261854
48,0.5580262381252292,0.5578684190958368
49,0.5580135098369606,0.5581843370835183
50,0.5579879577183452,0.557708532609064
51,0.5579555109339478,0.557727497890037
52,0.5579225892781521,0.5582209927568365
53,0.5579759766144226,0.5578468012454788
54,0.5579279476900442,0.5585778227810824
55,0.5579622904844583,0.5583645291423087
56,0.5579145720783419,0.5579797488584116
57,0.5579206502170494,0.5582773004512929
58,0.5578951348310062,0.5579123314497785
59,0.5579187129442202,0.5593480754726874
60,0.5579870701770154,0.5577756718725484
61,0.557860895186129,0.5579886278206894
62,0.5578932965608444,0.5583673943656846
63,0.5579516274003814,0.5578096977534425
64,0.5579623587259827,0.5580259905559549
65,0.5578323987458881,0.5580866670786003
66,0.5578800147881403,0.5578417979162325
67,0.5578726723819158,0.5587921230727922
68,0.5578866695405138,0.5580068310496233
69,0.5578777870151415,0.5583342297201417
70,0.5579034323693016,0.5576968390947536
71,0.5579314047823172,0.558257287400532
72,0.55781286664591,0.5589579943687685
73,0.5578907993959287,0.5585638975978785
74,0.5578372556444995,0.5577843511666613
75,0.5578352405916358,0.5580201691196811
76,0.557887148471222,0.5576700505192759
77,0.5578910531272401,0.5580549841483237
78,0.5578165500521939,0.5582789125276855
79,0.5578402482392532,0.5582740862375454
80,0.5578564483756144,0.5577952108962956
81,0.557902528177387,0.5576798886874178
82,0.5578714758289859,0.5592042466842803
83,0.55776074968032,0.5583928506072638
84,0.5578497650368972,0.5575766105214065
85,0.5578660542808652,0.5586282017804849
86,0.5578307643830733,0.5577013131406704
87,0.5578321004647174,0.5576523013801196
88,0.5578470823111998,0.5577152703891025
89,0.5579118582688709,0.5579106209295855
90,0.5577947772558451,0.5584748343557637
91,0.5578296876791725,0.559513357732787
92,0.5578602469815743,0.5575780924733165
93,0.5577673907481024,0.5577153499605638
94,0.557792462755134,0.5577673242938134
95,0.5578066023910858,0.5576135335134218
96,0.5578075258801038,0.5582488042545082
97,0.5578099338782505,0.5580564379396273
98,0.557777767356611,0.55756796885365
99,0.5578243289052083,0.557826614586946
100,0.5578034916006868,0.5576433908259011
101,0.5577461529563118,0.5576966911036678
102,0.5578188005639534,0.5594204539104963
103,0.557801575061417,0.5576108741109483
104,0.557768550220587,0.5576722243879333
105,0.5577567288906533,0.558199438918613
106,0.5577729948468364,0.5577083160504513
107,0.5577813884257494,0.5576664463462072
108,0.557832326679336,0.558127993744597
109,0.5577282216316342,0.5575652608800467
110,0.5577333781650453,0.5580613811021999
111,0.5577915659182532,0.5575668807656831
112,0.5577322393606475,0.5577222244615294
113,0.5577527194908766,0.5575746359955288
114,0.5577528275161604,0.5578567797137844
115,0.557768985289294,0.5579121481987738
116,0.5577129786404332,0.5588050874232062
117,0.557771510184675,0.5575831950746163
118,0.5577605045764222,0.5576911944017813
119,0.5576874830910519,0.5586054285465931
120,0.557735477968029,0.5591096052460872
121,0.5577071859557617,0.55771806127676
122,0.5577526666291349,0.5588572388843035
123,0.5577516173307022,0.557643790931323
124,0.5577481331934556,0.5575361929815401
125,0.5577523433515774,0.5576073127408181
126,0.5576917436024417,0.5575143483377272
127,0.5577457128548811,0.5576511229534007
128,0.5577665036500942,0.557527739149761
129,0.5577084881319938,0.5574391618851693
130,0.5576789329258045,0.5576056200280675
131,0.5577074375966785,0.558647580744315
132,0.5576988825107211,0.5578761015577293
133,0.5577316275431583,0.5575717736710389
134,0.5576976385397526,0.5575940036300394
135,0.5577322145701449,0.55754324313133
136,0.5577134755319698,0.557586301674618
137,0.5576554080261494,0.5575191095508357
138,0.5577174609292833,0.5593535997139905
139,0.5577595734673242,0.5576776624317501
140,0.5577405013425135,0.5590017960917565
141,0.5577318875708961,0.5606411486938041
142,0.5577719421193676,0.5577083889071462
143,0.5576870054619102,0.5583470679394364
144,0.5577460784854115,0.5575161410324627
145,0.5577033100264989,0.5576165239509223
146,0.5576963136949656,0.5578288910702499
147,0.5577039129807148,0.5574962875979118
148,0.5576995055839993,0.5575129635576574
149,0.5577176970050428,0.5606825604923902
