epoch,loss,val_loss
0,0.5650523579719672,0.5840252777778777
1,0.5607835857471982,0.5604017030512429
2,0.5601274907140116,0.5595464574492007
3,0.559854957687317,0.5597704107353173
4,0.5595797559965758,0.5590089381480631
5,0.5592912174177069,0.5586463357319607
6,0.5591529724353741,0.5590952903402059
7,0.5589799495055155,0.5587058939353999
8,0.5590241386802347,0.5584487135593708
9,0.5588632498719744,0.5586158080373154
10,0.5587614330570059,0.5583610507158133
11,0.5586833677814895,0.5617195174652648
12,0.5585738980018042,0.5595498061357598
13,0.558485446400994,0.5582208426063765
14,0.5583983158814715,0.5590074403706022
15,0.5583175596535688,0.5580335875598728
16,0.5583037918514919,0.5580445448458934
17,0.5582820122152142,0.5580234325553288
18,0.5582294296106706,0.5582544989976339
19,0.5581781971060364,0.5579126760918213
20,0.5581219612521096,0.5582779850912449
21,0.5581814517345179,0.5579856835583008
22,0.5580864714676277,0.5583030863967782
23,0.5580953349861854,0.5579252382366
24,0.5580624709030131,0.5583850665068804
25,0.558014382983754,0.5579491006825166
26,0.5580814998355378,0.557859220841978
27,0.5580481931692813,0.557869033718819
28,0.5580519721428859,0.5581944608806676
29,0.5579959739431637,0.5580126291764878
30,0.5579913824134456,0.5588988100328753
31,0.5579560412000151,0.5587268440362537
32,0.5579762495316125,0.5580370532076057
33,0.5579697668928669,0.5577309927928537
34,0.5579189077027382,0.5577204884725528
35,0.5579514763587202,0.5577008699365053
36,0.5579516233891902,0.557758553241086
37,0.5579671694773577,0.5578560365045041
38,0.5579042262096781,0.5583388025056636
39,0.5578960113737049,0.5578028551106418
40,0.55795236861882,0.5577660610894707
41,0.5579054554177275,0.5591680689130173
42,0.5578864880603402,0.5578656515471693
43,0.5579298854858664,0.5578479357747819
44,0.5578682619458454,0.5577495209632382
45,0.5578217391231891,0.5577283492159311
46,0.5578464411351041,0.558761551539892
47,0.5578522295877125,0.5594830646408403
48,0.5578307151570406,0.5578696482826403
49,0.5578619008450102,0.5576415042723378
50,0.5578403439935262,0.5577226690263961
51,0.5578279320853016,0.5576112320937826
52,0.5578199692886033,0.5576506720287332
53,0.5577932039751503,0.5577253202942406
54,0.5578462824205114,0.5579966291896167
55,0.5578333473093868,0.5580109950034849
56,0.5578706241872258,0.5576037529088723
57,0.5577266361501341,0.5577685077196315
58,0.5578406079922249,0.5589129894602092
59,0.5578444865593292,0.5578183602754295
60,0.5577865098570962,0.5576147357228376
61,0.5578611475527677,0.5578110545208081
62,0.5577570780023332,0.5579408046921193
63,0.5578028908409908,0.5576060762772194
64,0.5577620870958725,0.5578222941524041
65,0.5578389538345562,0.5582849373296828
66,0.5577728636039733,0.5580164400874533
67,0.5578063495716599,0.5575965399186014
68,0.5577565799890829,0.5605422411899709
69,0.5577231729673189,0.5578745023488407
70,0.5577476327435152,0.5577740111362846
71,0.5577994287238823,0.5581088971559226
72,0.5577373489059315,0.5575409184318618
73,0.5577582006057782,0.5575952644975251
74,0.5577489273990596,0.5576161643707427
75,0.557796890705556,0.5578108279935775
76,0.5577546729338942,0.5585309308456724
77,0.557694430758198,0.5574690576226776
78,0.557739813782533,0.5580430809972304
79,0.55778865424307,0.5594125823406665
80,0.5577536450371583,0.5576723636232003
81,0.5577235975264683,0.5576287922137428
82,0.5577208010304515,0.5575570579498045
83,0.5577495981073041,0.5574790800771405
84,0.5577558929615615,0.557643653648367
85,0.5577505903135097,0.5590970207384739
86,0.55771368948741,0.5595282752815607
87,0.5578048349931903,0.5576176210609323
88,0.5576749659452621,0.5575170118814663
89,0.5577516591165076,0.5576048718196879
90,0.5577358723750108,0.5581066986171542
91,0.5576961949739607,0.5623404716439637
92,0.557702912553342,0.557957753768334
93,0.5577496129893362,0.5576394718279022
94,0.5577218117741191,0.5587892547730476
95,0.557695610876682,0.5586361696643214
96,0.5577554616934285,0.5575476474265011
97,0.5576617669166881,0.5582796504124814
