epoch,loss,val_loss
0,0.42007459383649437,0.41311752794694073
1,0.4138023307042444,0.41413131643169865
2,0.4132799663156355,0.41350738787769387
3,0.4127871584576584,0.41521337736333275
4,0.41247524087250864,0.4121145857031233
5,0.41234958059712556,0.41151720625591043
6,0.4119476776499728,0.4121301833660372
7,0.41187867123092636,0.4112183803068497
8,0.41156787337039324,0.4110922446174006
9,0.41160181169119514,0.4115559851709134
10,0.41134162182280104,0.4126608600539546
11,0.4112763571888443,0.41300705869499565
12,0.41119822475407575,0.41128412439272954
13,0.41112232399069487,0.41184002464225805
14,0.4109810653187656,0.4112200304533057
15,0.41098233521417715,0.41101769464779137
16,0.4109849382453541,0.41082596614698025
17,0.41088140949065954,0.4126610856494004
18,0.4108564530276275,0.41306227380525384
19,0.4109076391968899,0.4106883189814262
20,0.4108374353406371,0.4108585357813918
21,0.4107876191761796,0.4103633374789217
22,0.4107360913800334,0.4104353550645909
23,0.41073045599006397,0.4106456007170618
24,0.4107218337681249,0.4121209964858687
25,0.4106664878579039,0.41034614914108447
26,0.4106520061596351,0.4104623015110309
27,0.41069054126059534,0.41104099317164927
28,0.4106049648978122,0.41024133780458133
29,0.410581682349439,0.41182453945907704
30,0.41051335219356494,0.41101305246648956
31,0.41052078699680983,0.41188932978189907
32,0.41056561624208204,0.4113300320084574
33,0.4104812258564096,0.41129070833953973
34,0.4104974105380495,0.41024748264412136
35,0.4103661604074082,0.4111887940993676
36,0.4104662048012234,0.4101742702441535
37,0.41045311391389105,0.4102496166678871
38,0.4104315300205888,0.4105923218703447
39,0.41040035633385097,0.41017678699481575
40,0.4104019468567518,0.41143184290926155
41,0.41039845581213147,0.41060354431568835
42,0.41036894924429784,0.4112134138940286
43,0.4103140765950826,0.41009517174500687
44,0.41038757128150777,0.41017430474977046
45,0.4103632409457022,0.4101484297227031
46,0.4103233108494666,0.41043662584153356
47,0.4103168000598104,0.41020046870406746
48,0.4103142833441831,0.4101414449457495
49,0.410376623955035,0.4100088052507074
50,0.4103027908416075,0.41004895118270857
51,0.4102597985093182,0.41140634112855046
52,0.4102438937417741,0.4104268603821842
53,0.4103154329042529,0.4103607021845304
54,0.4102061599024857,0.41049849460497684
55,0.41024724129460755,0.4100126668478064
56,0.4102862526698971,0.4100949874143151
57,0.4102167794184,0.41108328282981
58,0.4102635225820604,0.4106501164418592
59,0.41019958185024097,0.411488253691652
60,0.41021251314304275,0.4099602543686519
61,0.41021622377060335,0.4100965676473329
62,0.41018089153285414,0.4099865930104078
63,0.4102073854255243,0.40998189665247725
64,0.4101756251708979,0.41028642124928555
65,0.4102131945738285,0.4101446050716097
66,0.4101934013772504,0.41080793192605525
67,0.4101525771876783,0.4099216760683888
68,0.4101755092281458,0.41007269088446946
69,0.41018582563604983,0.41004518390293454
70,0.4101723639482074,0.4099199867130213
71,0.41019926310055715,0.4098943209677713
72,0.4101190090556503,0.4104299989438826
73,0.4102555506128683,0.4099356834557157
74,0.41017933079492147,0.4101544504130153
75,0.41020157879160996,0.41024844264865806
76,0.4101386041904925,0.4106193295187749
77,0.4101228725833513,0.41063111187802354
78,0.41016964690966823,0.41088601347826254
79,0.4101939523674112,0.4101273966634244
80,0.410080875072233,0.4103630512287244
81,0.41017252394149056,0.41047350475865024
82,0.410201485116688,0.4114317233154259
83,0.4101190308245467,0.41006936685323125
84,0.41017973651724876,0.41230670715088286
85,0.41010797792367915,0.41000728855653673
86,0.4100990545819712,0.4103049301479945
87,0.41020100433026163,0.4100528033880087
88,0.4101597418721011,0.40997080603249314
89,0.4101609824302045,0.41053192157011764
90,0.41012447598466073,0.4099405247283633
91,0.4100878748951196,0.40998253193741696
