epoch,loss,val_loss
0,0.6155253222845944,0.6124433595844297
1,0.6093472057982541,0.608314612751859
2,0.6090754347543218,0.6108712675849498
3,0.6088052200226017,0.6085145997350329
4,0.6085152340844664,0.6084856607186292
5,0.6083337535386246,0.6078549403114887
6,0.6082447672101349,0.6079495766914216
7,0.6080440754690773,0.6079472627592442
8,0.6079487928269982,0.6078778020501433
9,0.6079174927628893,0.6104391588466634
10,0.6077981112689954,0.6100817475662043
11,0.6077731361340063,0.6075986387416091
12,0.6076121412867316,0.6076179013654552
13,0.607613560891868,0.6079782514359164
14,0.6076256169131676,0.6074097737780871
15,0.6075083905435653,0.6073292158969282
16,0.6075042702148282,0.607756560138674
17,0.6074815937014394,0.6073876492142973
18,0.60742194752565,0.6078552714944182
19,0.6074249266424858,0.6077492096879642
20,0.6074420387888375,0.6076794901201802
21,0.6073897862252641,0.6075599107198029
22,0.6073693065572884,0.6081353174545628
23,0.6073107050668647,0.6074059717412622
24,0.6073338326842594,0.6091956810087483
25,0.6072961526055823,0.6073180139804301
26,0.6072663158121928,0.6073640828097133
27,0.6072935029444063,0.6070204114795619
28,0.6073287448751354,0.6070959268373533
29,0.6072115249210724,0.6078399770608907
30,0.6072529960447915,0.607538842888683
31,0.6072169688174838,0.6071403221811905
32,0.6072033852493796,0.6073054619521716
33,0.6071486870116487,0.6070428696518796
34,0.6071888984367434,0.6069675687524876
35,0.6071628950539899,0.6071790506762843
36,0.6071863390222421,0.6068965018535074
37,0.6071559966278641,0.6075738807174171
38,0.6071645046247245,0.6074044769514287
39,0.6071756458956445,0.6069743540387591
40,0.6071231288971504,0.6073351487924088
41,0.6071534180558821,0.6070252725563333
42,0.6071624287571536,0.6068872463614414
43,0.6071270377252806,0.6071198991747115
44,0.6070922447482119,0.607813333340969
45,0.6071528284439056,0.6072073637403862
46,0.6071325552714221,0.607170476777382
47,0.6070868581159922,0.6074609999916986
48,0.6070995100030979,0.6080032239776687
49,0.6070817080912022,0.6069746843934355
50,0.60710416650307,0.6069472810766537
51,0.6071128759240463,0.6070842702098875
52,0.6071054913454905,0.6072761618765649
53,0.6070832861206426,0.6073699461615115
54,0.6070975097841479,0.6068685068090264
55,0.6070696259415472,0.606885616625509
56,0.6070712128074408,0.6073816640797087
57,0.6070847687515716,0.6077326569900323
58,0.6070979582645114,0.6068651433026524
59,0.6070447409128216,0.6068581428480503
60,0.6070448072729907,0.6076481440522831
61,0.6070669280040877,0.6071559461115608
62,0.6070784128956548,0.6072090969783792
63,0.6070073506156918,0.607066542634893
64,0.6070644999152764,0.606821578134674
65,0.6069661305791321,0.6079559251924899
66,0.6069970673042565,0.6069156424579194
67,0.6070456726995229,0.6074347465269028
68,0.6069810010209908,0.6069132645727683
69,0.6069763034191273,0.6070645743504943
70,0.6070042308705154,0.6067851596079749
71,0.6069664443418443,0.6068045470318191
72,0.6070036727611804,0.6072040980270423
73,0.6069362770136781,0.6101105388281659
74,0.6070005180519845,0.6070083988807338
75,0.6069202631259567,0.6068001519065933
76,0.6069348654829868,0.6072722169956557
77,0.6069857582290767,0.6068511578936139
78,0.6069368539854721,0.6070023021981971
79,0.6069363457482201,0.6071103325552739
80,0.6069948556919802,0.606829722820973
81,0.6069086788191651,0.6069840260238268
82,0.6069262087904402,0.6067396320125306
83,0.6069302832567081,0.6071167080041493
84,0.6069019985781761,0.6069144126203456
85,0.6069174935416015,0.6066807397837675
86,0.6069001884889004,0.6068401081982084
87,0.6069449959384561,0.6067467155882502
88,0.6068820838460542,0.6070210025564908
89,0.606933346425551,0.6078057947288967
90,0.6068756451931558,0.6068307809735054
91,0.6068774716947903,0.6071174650275086
92,0.6068701394470948,0.6066969297364095
93,0.6068956754176089,0.6073097351467047
94,0.606924227600392,0.6070502757138709
95,0.6068954672837207,0.6069543746801523
96,0.6068690690790619,0.606960380639391
97,0.6068912289912537,0.6068425901770296
98,0.6068582930221709,0.6067022017154741
99,0.6068609160114892,0.6077222944193383
100,0.6068595845168807,0.606718481681483
101,0.6069153131550881,0.607553413221913
102,0.6068694592595023,0.6077479271379949
103,0.6068997495951656,0.6067096954835556
104,0.6069203468166806,0.6067663118797851
105,0.6068436844617962,0.6079252948831979
