epoch,loss,val_loss
0,0.13772386631412473,0.0779914628029246
1,0.07358601076199378,0.07284326777861828
2,0.07272096798657704,0.07226805007283671
3,0.07262058126971685,0.07210142545302081
4,0.07252005645208698,0.07253613784003653
5,0.0725360042530951,0.07229361110958606
6,0.07237778509930551,0.07209300994284998
7,0.07235129643603862,0.07193584972441243
8,0.07229591257197203,0.07192326602897214
9,0.07234192791161873,0.07271818024559856
10,0.07220573428211262,0.07197162798284637
11,0.07225754560171653,0.07249170993384924
12,0.07218433729857564,0.07258757640149711
13,0.07215435503662633,0.07198701139124905
14,0.07223102601347782,0.07188349550600209
15,0.07207794469013679,0.07170507752269671
16,0.07210870917073542,0.07307813697051324
17,0.07208554592016313,0.0719426939794654
18,0.07202506060306307,0.07179380021842334
19,0.07206833524276599,0.07147487843939895
20,0.07202222372749917,0.07184173377861446
21,0.0720102233971528,0.0717453238184563
22,0.07198519969908454,0.07156398236728034
23,0.07196657916755794,0.0736946693923686
24,0.07188578230216444,0.07142011483141825
25,0.07196553887354194,0.07198969627000633
26,0.07196442846604865,0.0713993904975426
27,0.07189311539764694,0.07180810299861497
28,0.0718502116074665,0.07188691199413885
29,0.07185249762545577,0.07213129276658196
30,0.07185289160096102,0.07161504991687746
31,0.07184251535722583,0.07274361443430209
32,0.07180457454410007,0.07174706544312512
33,0.07183767388538301,0.07183828593570601
34,0.07182400845449796,0.07167799720847898
35,0.07179895864961912,0.07202492534361586
36,0.07181012139415188,0.07176036283597291
37,0.07173820946821206,0.07225360449671087
38,0.07174846194952512,0.07154529504683795
39,0.07172534505514314,0.07144724862281036
40,0.07176207941618087,0.07180172855353487
41,0.0717030048376317,0.07254562050033575
42,0.07172802505757121,0.0714178390995009
43,0.07173669426668462,0.0720000560053616
44,0.07167476744091006,0.07169189783373309
45,0.07164112935296828,0.0717707588363089
46,0.07169295675296196,0.07152344240573982
47,0.0716880965444872,0.07189006221957722
48,0.07165645262439378,0.07217158420098138
49,0.07172404559437844,0.0730233529454719
50,0.07162152152719925,0.0724310959735628
51,0.07167475713457135,0.07184333033748
52,0.07161875452390677,0.0718738260931073
53,0.07163837006230721,0.07187974608805392
54,0.07166037935730842,0.07173992808681826
55,0.0716007221088135,0.07139107789594354
56,0.07159331561528522,0.07294436223105172
57,0.07162253252810521,0.07159549118429069
58,0.07160253006574824,0.07158894921581671
59,0.07164898559117584,0.07195719690212793
60,0.07157812495347407,0.0717049777543065
61,0.07152346443596314,0.07195507826749603
62,0.07155367940497531,0.07209076601850206
63,0.07158691863076007,0.07147575129814382
64,0.07158880824629638,0.07146967919256712
65,0.07157480965653579,0.07172073710242312
66,0.07158243883070614,0.07146708387955024
67,0.07154584218629545,0.0715836192868597
68,0.07154579665199172,0.0712366001687844
69,0.07152136577535971,0.07152782864545214
70,0.07154326728112596,0.07195813092384737
71,0.0715600777742007,0.07170152671829207
72,0.0715341212378322,0.07127685600269848
73,0.07151909615936801,0.07207430189956147
74,0.07151162209544631,0.07152484563762218
75,0.07153780656538421,0.07218932104021335
76,0.07154157809275899,0.07173141167332266
77,0.07150854226901568,0.07152981570412441
78,0.07152191626963665,0.07134245592445111
79,0.07156021170598044,0.07141853836324616
80,0.07146560430205126,0.0715189171865312
81,0.07149995475126018,0.07136642662389314
82,0.07155334288410717,0.07161587924235621
83,0.07144157450309666,0.07131477869935363
84,0.07151705789849531,0.07184981759975723
85,0.07150691071395679,0.07220270248878256
86,0.07147478316125157,0.07198296484391145
87,0.07157608381599831,0.07139970679732882
88,0.07144255767599475,0.07323722727743771
89,0.07148889671984336,0.07173782256567864
90,0.07151169718491088,0.07151968311444924
91,0.07144978479277507,0.07128057938183775
92,0.07143954893382047,0.0713636804057466
93,0.0714881388838295,0.07276878213684862
94,0.07146467790186262,0.07271701954863818
95,0.07153106466245404,0.07130408876861469
96,0.07146159828983718,0.07203336160015476
97,0.07146006988750088,0.0713581147632358
98,0.07148195051258321,0.07348976700604197
99,0.07147914724503394,0.07136237608370295
100,0.07143963747721115,0.07157019875067468
101,0.07146335735643129,0.07177094311321826
102,0.07147564368544342,0.07189773031361195
103,0.07141200563521218,0.07180649926555185
104,0.07147266944166092,0.07147566355535527
105,0.07143789988389308,0.07163262846508456
106,0.07149725740285609,0.07130854090509588
107,0.07140056788474679,0.07225405405427682
108,0.0714586909672768,0.07129318575244677
109,0.07147691773174764,0.07136221516409914
110,0.07138614402674466,0.07165016870778099
111,0.07148626283835545,0.07141436110144068
112,0.07138819085786954,0.07285044982664775
113,0.07142030665104529,0.07211525042577344
114,0.07144030464364946,0.07139129709120143
115,0.07142374149674802,0.07138054193994993
116,0.07143322370654578,0.0717313975601471
117,0.07143975577527861,0.07131830335322006
118,0.0714062939343645,0.07238225931714817
119,0.07145578660767712,0.07109388507367498
120,0.07143476514888705,0.07127734116663026
121,0.07141967544065629,0.07153313183582197
122,0.07140027095290492,0.07125360243487
123,0.07143334290392393,0.07144448379879405
124,0.07139821842515306,0.07128202788761119
125,0.07144594737451425,0.07155843158476731
126,0.07142119145960354,0.07204341034580614
127,0.0713956464710329,0.07105800260120052
128,0.07137318686853877,0.07115619090968639
129,0.0714437217145658,0.07137796078715253
130,0.0714056073076767,0.07130580012052193
131,0.07138721579663473,0.07118669101687614
132,0.07145603471320215,0.07145962427240145
133,0.07134819571241487,0.07366175737875884
134,0.07145866186474915,0.0716872254229241
135,0.07135274994085065,0.0715769430785642
136,0.07143991719261347,0.07270134867837133
137,0.07142328579636882,0.0719198782376257
138,0.07138881067351567,0.07142274679164766
139,0.07138781695307302,0.07112072515224226
140,0.07141786748967725,0.07124578645827738
141,0.07138106960663311,0.07150816185886501
142,0.07141640928717588,0.0714000804671737
143,0.07140288287572724,0.07157438620042876
144,0.07139649566450565,0.0715900025056306
145,0.07140452511531177,0.07214516482441653
146,0.07136162918963307,0.07175736612660168
147,0.07137793605085567,0.07153809645699062
148,0.07141341221966237,0.07262577713947176
149,0.07136578354344283,0.07128359103941409
150,0.07140996025727807,0.07161125003256569
151,0.07139541793891566,0.07107387500173384
152,0.07135974286462096,0.07166426354209174
153,0.07142069971532844,0.07158703376974943
154,0.07135086534299152,0.07156236466217342
155,0.07139892460142584,0.07174946829359082
156,0.07142484981081278,0.07127921881290901
157,0.07138591260909082,0.07121079393913168
158,0.07138803201637489,0.07125333581346174
159,0.07138013802498555,0.07343222524297453
160,0.07138153438945469,0.07110601193738342
161,0.07141999624889912,0.07129382614954871
162,0.07138005372800892,0.07146603965157115
163,0.07135277752616374,0.07128959509596264
164,0.07138926114181249,0.07170065914610756
165,0.07135486502727445,0.0712570650966128
166,0.07138123460036579,0.07145538855558695
167,0.07140348089351166,0.0714687821120847
168,0.07140248906102588,0.07118532761355131
169,0.07132251205728304,0.07104695231404565
170,0.07140885850639461,0.07155392360127433
171,0.07134408929901158,0.07176098931983596
172,0.07137495354502846,0.07140376899264982
173,0.07137547068589692,0.07142962762334729
174,0.07134299021032597,0.07201925993271484
175,0.0713688159893028,0.07135240922975276
176,0.07134494101472325,0.07139216759775037
177,0.07140962945983755,0.0714886484178108
178,0.07136018144534075,0.0714760084872464
179,0.07135040904108664,0.0718451032169522
180,0.0713542861779102,0.07105659193637903
181,0.07137066003777903,0.0714882939360042
182,0.07138800759204952,0.071450675278314
183,0.07137158601809082,0.07164098885154385
184,0.07135833691743067,0.07138146254239161
185,0.07134181826258544,0.07137219595481019
186,0.07136662232337429,0.07315357538100388
187,0.0713601915521635,0.07239318396175765
188,0.07134563457384574,0.07120840369055567
189,0.07134269508157226,0.07202522577196006
190,0.0713644637246069,0.07136128862236274
191,0.07138498966023028,0.07128829598991346
192,0.07132379785716104,0.07351679641285937
193,0.07133447208838592,0.07110673536700156
194,0.0713595754692523,0.07136218503246933
195,0.07131689296756907,0.07307012766693743
196,0.07134390812066438,0.07180838708507799
197,0.07140249801244286,0.07272951406056992
198,0.07133689052242932,0.07156757771051485
199,0.07135600725905024,0.07132615463039305
200,0.07134092018174992,0.07145076124519463
201,0.07135468975400372,0.07110691295191351
202,0.07134888060897183,0.07102521482469909
203,0.07137095237926518,0.07164345314136715
204,0.0713241844654655,0.0716382454736739
205,0.07134596064841624,0.07129761073576624
206,0.07138569042277183,0.07102949640345367
207,0.07133512475865064,0.07147324975541754
208,0.071339236886548,0.07129142702143307
209,0.07135744317830038,0.0713756314134071
210,0.07138849425313475,0.07162187313153787
211,0.07134783873669535,0.07108350786150396
212,0.07132522424133561,0.0713341286921934
213,0.07134046243856565,0.07169301328032433
214,0.07134783373688527,0.07152018001583871
215,0.07134450758568389,0.07168729365718769
216,0.0713479544589226,0.0716285095936027
217,0.07135883856901257,0.07208328602957556
218,0.07136759431146794,0.07112419831065936
219,0.0713389118244465,0.07113763347750304
220,0.0713499931783842,0.07133365709455163
221,0.07132051361324214,0.07127066973917298
222,0.07132046840650191,0.07127728927130764
223,0.07135930880725527,0.07104906199857204
224,0.0713992964515059,0.07122277344364582
225,0.07131885038874894,0.07164426493710575
226,0.07130987088171413,0.07179856470888209
227,0.07135638959414001,0.07176816010084694
228,0.07132360152155756,0.07144283655598678
229,0.07134520233296852,0.07161055205958795
230,0.07131062760698996,0.07131906324187506
231,0.0713462235151435,0.07239285354291536
232,0.07136605878313668,0.07227877389283846
233,0.07130899638545027,0.07217570061441848
234,0.07137046885981167,0.07158478826354975
235,0.07133697739524616,0.07162140957252568
236,0.0713308991240464,0.07159316407453384
237,0.07134583225245957,0.0715620350195558
238,0.07134975718973066,0.07139621350117434
239,0.0713584752117606,0.07118423827045436
240,0.07134393716959073,0.07101430784508103
241,0.07133217735720768,0.07153159207072705
242,0.07134380410734317,0.07153765065117718
243,0.0713720283300566,0.07125801834165345
244,0.07129557946805569,0.07123485198736944
245,0.0713370289090726,0.07148702788418827
246,0.07136030489211079,0.07145406891486733
247,0.07131391488831583,0.07158294874636696
248,0.07138291437574905,0.07109039447960556
249,0.07128642377057236,0.07113266471058906
250,0.07141986773680631,0.07144149025900683
251,0.07130043254011302,0.0712549902304666
252,0.07140149520360213,0.07108257672122452
253,0.07131112803169769,0.07136890703213902
254,0.07129806360835843,0.07110662109144297
255,0.07134999885416622,0.07162395965869538
256,0.07131860814512157,0.07186072396780434
257,0.07135066945406554,0.07145916272451676
258,0.07133548278555119,0.07111312152601737
259,0.07133515263132625,0.07145054942995145
260,0.07131957042989114,0.07134375180211139
261,0.0713665457777411,0.07245860041222801
262,0.07133962724992125,0.07152987237146452
263,0.07131701130732644,0.07140425898446374
264,0.07137463077736034,0.0712339416346215
265,0.07132451942296242,0.07190034597900409
266,0.07131332879682048,0.07140726453809167
267,0.07133998357944732,0.07164125314721839
268,0.07134523327580744,0.07139014181017217
269,0.07131715324952258,0.07127170986257017
270,0.07134607743671377,0.07113358798277312
271,0.07130588002080064,0.07128725466101586
272,0.07135466513314026,0.07135339571132186
273,0.07133915462642074,0.07167368907931289
274,0.07132163135517987,0.07134544265463114
275,0.07133246974336158,0.07159766087921567
276,0.07136803360389386,0.07119366965288239
277,0.07131769136189937,0.07181167292637249
278,0.07128914829781301,0.07116642136835356
279,0.0713173737280446,0.07120084637318809
280,0.07137354234044405,0.07125623748235657
281,0.07136102401309734,0.07126827144020641
282,0.07132577571830304,0.07114967582093136
283,0.07137231143425218,0.07207424758147704
284,0.07135182611650223,0.07136660924838487
285,0.07130653927806946,0.07116739418366431
286,0.07135794313250782,0.07113082879226605
287,0.07133913721493203,0.07212447343304483
288,0.07128017770348312,0.0718868864434106
289,0.0713556903666801,0.0718491374681856
290,0.07134883921983526,0.07132252624468627
291,0.07133698466417791,0.07117447185299955
292,0.07134125843274888,0.07113902585988169
293,0.07133702956568852,0.07125674615648664
294,0.07133557954780775,0.07135899853028928
295,0.0713123571884027,0.07123582118617895
296,0.07134218126249542,0.07155811634934973
297,0.07136184142397747,0.07373444628390913
298,0.07134270371733714,0.07190803026790776
299,0.0713020223531601,0.07155866751589922
300,0.07136192024766588,0.07105894715487722
301,0.07135196528632007,0.07125147081611659
302,0.07134645123728554,0.0715414600383605
303,0.07130889809555668,0.07111576153075685
304,0.07133139729452172,0.07138543660681174
305,0.0713127998353766,0.07141430451348718
306,0.07131622723347658,0.07128525509454174
307,0.07133935294825015,0.07194426676351062
308,0.07132701786885635,0.07121021711600514
309,0.07134067189904282,0.07129628048370273
310,0.07133274842247211,0.07152724888796118
311,0.07136006664624699,0.07145600667151299
312,0.07136497592671122,0.07177288391007715
313,0.0712920728889253,0.07193285052171351
314,0.07134924387093261,0.07179056202673781
315,0.07137077567067078,0.07153987989782253
316,0.0713386803859477,0.07216596140010957
317,0.07129533160969222,0.07194089487300864
318,0.07134784812883412,0.07124208267881067
319,0.07137241579002614,0.0712348691583997
320,0.07131997165348318,0.07144496675166165
321,0.07131678406164038,0.07124001763896295
322,0.0713524680545957,0.07133058659679417
323,0.0713308678834225,0.07268373692303826
324,0.0713238047270609,0.07153226040015563
325,0.07132556969575364,0.07114954400387163
326,0.07134975457815625,0.07172466135321401
327,0.0713263561489056,0.07132289389290956
328,0.07128407001543006,0.07120458718797967
329,0.07135908916997585,0.07209074607776109
330,0.07133289240598441,0.07126291247339069
331,0.07129894100802599,0.07138292513193817
332,0.07130589745015645,0.07130411059699288
333,0.07136321250352261,0.07209300069871999
334,0.07133446025738804,0.0711531603933792
335,0.07136609100347324,0.07132045404240195
336,0.07134573064524112,0.071524384083857
337,0.07133594109452696,0.07118864687366945
338,0.0712892574657925,0.07150339034122093
339,0.0713287856635287,0.07134387289315768
340,0.07134791003237906,0.07169841134063634
341,0.07132291511820851,0.07240752328919348
342,0.071317437547836,0.07128541309154213
343,0.07127592135086763,0.07112319058288057
344,0.07136607869006366,0.07123834124068718
345,0.07131180664052447,0.07124987247546263
346,0.07131412662833715,0.07160934084922005
347,0.07134769622275203,0.0717694062178024
348,0.07131083445738164,0.0718170249718517
349,0.07132590417083885,0.07116567780393827
350,0.07130667679518056,0.07179148494609247
351,0.07132875049512068,0.07153358832060491
352,0.07135141076598998,0.0718508013233766
353,0.07133426533328543,0.07177052715677112
354,0.07130109981822072,0.07164723256157436
355,0.0713628226970073,0.07115587015248888
356,0.07133396284626448,0.07148477723256
357,0.0713141550876492,0.07149507822182204
358,0.07134400836402754,0.07129366864062898
359,0.0712859298762896,0.07120529635741
360,0.07141356054636881,0.0717146003349804
361,0.07129355875267494,0.07133799449679601
362,0.07126230238486442,0.07121307084126649
363,0.07132957842078903,0.07116760654579304
364,0.0713483879147626,0.07114637487265851
365,0.07133318821517684,0.07157135162070312
366,0.0713109637705161,0.07198870168512227
367,0.07132028661173978,0.07147667511133293
368,0.07130547182010613,0.07098949367758224
369,0.07131367773234511,0.07143963779886595
370,0.07133235416704897,0.07178932800006942
371,0.07132635092575677,0.07117099146157997
372,0.07129836031239477,0.07129666777864252
373,0.0713455513548508,0.07155648941775429
374,0.07132964969264995,0.0713541909770036
375,0.07132347006734899,0.07196738744991073
376,0.07133066753069942,0.07284501967650281
377,0.0713253264113677,0.07197241473945935
378,0.07129914173000246,0.07147466711223643
379,0.07132497052554128,0.07149896743077411
380,0.07133638086043102,0.07132059525648439
381,0.07130157460661815,0.07117633503327336
382,0.07133967379967181,0.07120064789489582
383,0.0712828640546873,0.07109366932438412
384,0.07131692796623965,0.07154319449471223
385,0.07130450416776202,0.07122729038606503
386,0.0713702748618204,0.07138507439804152
387,0.07130386775358022,0.07114075041936906
388,0.07133700324298381,0.07181384116293599
389,0.07129647357048367,0.07155659134428427
390,0.07131193560227263,0.071254984220606
391,0.07133287243801151,0.07125810925990649
392,0.07129027245552849,0.07168647252323125
393,0.07136156588649864,0.07170766626132598
394,0.07131817464610274,0.0716910740711977
395,0.07126050950776187,0.07141740975905894
396,0.07131495852645733,0.07114075103094
397,0.07130797953306914,0.07180989583058911
398,0.07131440983080178,0.07132840284749854
399,0.07129455180905706,0.07123564525368464
400,0.07136275597232328,0.07154306154859846
401,0.07130376231089103,0.07145080772458613
402,0.07131642672857888,0.07142474234762772
403,0.07133607700657692,0.07150096095798518
404,0.07130835425975225,0.07202397302181211
405,0.07127915054923005,0.07157386469506992
406,0.07132970742422709,0.0713830743787697
407,0.07131597484580332,0.07187123381442316
408,0.071306056035556,0.07144934946308008
409,0.07133933260060138,0.07122773685931406
410,0.07129462205355974,0.07128070478328308
411,0.07135337782944802,0.07191010515169544
412,0.07128803603809705,0.07163209093539095
413,0.07130368285292059,0.07123777380870286
414,0.07134336548791134,0.07250218005187886
415,0.0712619490212769,0.07177944410218906
416,0.07130553341395468,0.07123024925742454
417,0.07130867126974746,0.07172795229877368
418,0.0712930518600771,0.07191433293572917
419,0.07132135878066174,0.07174142404814451
420,0.07135999510935742,0.07158843899511783
421,0.07129343454953102,0.07287708161826574
422,0.07130404030211823,0.07117941329915785
423,0.07131015532594219,0.07388747224162297
424,0.07135212029234397,0.07129953409991306
425,0.07131406807487341,0.07192449668611987
426,0.07127954711993154,0.07124995374383189
427,0.07132458508455401,0.07132929362409587
428,0.07129822113066554,0.07145067658378275
429,0.07132145654645373,0.07241619359216732
430,0.07130472861426912,0.07110191603509479
431,0.07134871891469692,0.07128250646539439
432,0.07131758453302103,0.0715254359858753
433,0.07135691016698055,0.07171617835266156
434,0.07127415941213723,0.07127334311569217
435,0.07131267256802507,0.07159310356429363
436,0.07132572904050494,0.07170983245735951
437,0.07128581654527585,0.07171111526269092
438,0.07131559176625107,0.07144674449429893
439,0.07134456921228878,0.07136669827900069
440,0.07129446660681403,0.07110522085861042
441,0.07131521782720927,0.07133539732554435
442,0.07132147194193802,0.07142788314076041
443,0.07128473023156659,0.0717370972837062
444,0.07131144039922481,0.07121499671344222
445,0.0713165723484197,0.07127878550901691
446,0.07131238263264167,0.07117375328654649
447,0.07132962963683047,0.07164322396103755
448,0.07127927444416651,0.07128406307809261
449,0.07127509281027326,0.07113440656459699
450,0.07131596343021551,0.07149554628822967
451,0.07134610934735393,0.07200170308939566
452,0.07129070709506385,0.07112675660011236
453,0.07128856857147196,0.07158841953069654
454,0.0712766840571551,0.0710696614837684
455,0.0713614136915651,0.07136037103661234
456,0.07131102392904097,0.07118010543868969
457,0.07131359350683687,0.07107069726148363
458,0.07125008610977257,0.07177379651505268
459,0.07137200699078379,0.07100305118213607
460,0.07130809370383656,0.07146434313613971
461,0.07130167119169264,0.07126998976049408
462,0.07124982511611294,0.07106607349114617
463,0.07133413455504879,0.07176219286204513
464,0.07130484506755853,0.07110009654686031
465,0.07132722832989112,0.07146480741257168
466,0.07135379805767851,0.07144994420405909
467,0.07129542148120398,0.07120625221926863
468,0.07129299164199525,0.07127545321185286
469,0.07134115761763853,0.07161549062430624
470,0.07133009519389302,0.07147236173676993
471,0.07127088958696781,0.07154548802687224
472,0.07130532821031402,0.0712660284920198
473,0.07129129705627521,0.07111855395779237
474,0.07134108016673896,0.07134740175745481
475,0.07127164662789574,0.07161635703803426
476,0.07133594996554198,0.07107918757148493
477,0.07130374186795106,0.07106805659812929
478,0.07133714319895403,0.07246418186737594
479,0.0712969557320376,0.07267973577308204
480,0.07130222784416329,0.07144948601981459
481,0.07130949196519612,0.07104049091416263
482,0.07131380113146955,0.0711781781610769
483,0.07131936827854668,0.07128357906673682
484,0.07132235003842248,0.07126456571429757
485,0.07127546341263419,0.07116425170283103
486,0.07132283908476551,0.07264711717827262
487,0.07131683077219483,0.07113942920267817
488,0.07127829025879943,0.07126310096661125
489,0.07128735461520205,0.07158219513219459
490,0.07133105035117872,0.07133769965491712
491,0.07128495400210173,0.07132552598839025
492,0.07130442893536067,0.0712115716103879
493,0.07130308111580155,0.07119737165644117
494,0.0713019139177317,0.07179545598206034
495,0.07129938882305849,0.07116957452227586
496,0.07129695506202136,0.07163420171368846
497,0.07129345192230767,0.07142980740756244
498,0.07139618182592064,0.07110929487371595
499,0.07126974650799371,0.0710976625297986
500,0.07131703030600918,0.07144572592877739
