epoch,loss,val_loss
0,0.32999028345282605,0.3226552252329139
1,0.3227030737079877,0.32256944294086853
2,0.32009688433673644,0.3177436660172531
3,0.3152865402037196,0.3144870339389288
4,0.31478975541728865,0.31272830605365765
5,0.31406480497379097,0.3158010023615919
6,0.31398513956631213,0.3138865594705824
7,0.31456917256331274,0.3151445700342296
8,0.3143083633933898,0.3133940991093629
9,0.30895134365911203,0.30567331428638855
10,0.30367801520083065,0.2983698701014082
11,0.29908564169820456,0.2959126224586977
12,0.29842010551660086,0.29766403033376776
13,0.29699721903823834,0.29647116194278494
14,0.29261050030267494,0.2909225136241578
15,0.2901911207621427,0.2887389583435224
16,0.29007174207461917,0.2881341991738814
17,0.28982699167528314,0.293582301654492
18,0.29034158942117677,0.2898829832567224
19,0.29539285297635837,0.30017982815534183
20,0.30036403617853646,0.30024090633325534
21,0.30019572080908824,0.3020627603475842
22,0.29995387203270774,0.2998490756129127
23,0.29834071521183475,0.29609383288668006
24,0.29687663263304054,0.294695621884142
25,0.29765159172191324,0.32342075264256304
26,0.3067173297635371,0.3012545687376559
27,0.3023686852457998,0.30229956383839685
28,0.30160537203974863,0.3010488487574277
29,0.30147534917346197,0.30034498724536624
30,0.3014065393720933,0.3002234758851842
31,0.30096395079978555,0.3007815100234987
32,0.3003731449838165,0.30023591712575876
33,0.30038155461672683,0.3024291517514362
34,0.3001029875954326,0.29904763846883836
35,0.3000845642690417,0.3004502868007842
36,0.29993860604915973,0.2973853334043566
37,0.29974128905353215,0.3009722137672278
38,0.299688257810047,0.29990361152244727
39,0.29936426803529215,0.2992819209113399
40,0.2999273034171473,0.2995318504198856
41,0.29983040830976576,0.2994666934636699
42,0.300206654857722,0.2982544384679177
43,0.29794048193654565,0.2975044726925566
44,0.2970749528097401,0.30030304251125506
45,0.2978247471546812,0.29878736514930376
46,0.2975018143588357,0.2929540964897543
47,0.2936836173035782,0.29492167586897333
48,0.2943218287280042,0.2941560423929294
49,0.2995019493658813,0.28266002669424733
50,0.28639102711392156,0.2894169049721208
51,0.2952461409703385,0.29122915419425754
52,0.29119656514897524,0.31650768385078365
53,0.30063291040541745,0.29838309581108513
54,0.29674680729051955,0.29518270318491213
55,0.29654866480808273,0.29832074863523034
56,0.29585622712898313,0.2944004273699228
57,0.2946889433327863,0.2940119052307288
58,0.29381256225369246,0.29521752984484256
59,0.2934725056473109,0.29411660996284084
60,0.29308594136441546,0.2898382700820936
61,0.29291541809193805,0.29063862956760433
62,0.29264010706667803,0.291880520944202
63,0.29242051510716516,0.2919291234218707
64,0.293024075724524,0.2912443741368043
65,0.2928080005134991,0.2944560607317497
66,0.29324043966490304,0.2932251801195348
67,0.2932781563561073,0.2915175584774838
68,0.2926979593807559,0.29087499912531245
69,0.29288871081279433,0.29025037256205466
70,0.29294529212095277,0.289819949851228
71,0.29246016434259076,0.2921242276184561
72,0.2928784560921381,0.2916649240344739
73,0.29293114806322174,0.2942459779102782
74,0.29322133288025665,0.2909560227721059
75,0.293395646372073,0.2919819955585411
76,0.2931895171828884,0.2910638870090693
77,0.29315875539724395,0.29424116948668
78,0.2937244930409556,0.29489840320131394
79,0.2934025193242242,0.2938351836040816
80,0.2934494057683636,0.2931402584783374
81,0.2939672082614937,0.291698992458167
82,0.29395137832676477,0.291509571096374
83,0.29406071235414605,0.2916702224675275
84,0.2942913133237097,0.2932048545240321
85,0.28786872054854457,0.2835989493550328
86,0.2831217768958671,0.2809749762715085
