epoch,loss,lr,val_loss
0,0.43148126884353916,0.003,0.4083022701994302
1,0.3977809094970556,0.003,0.3909749244622763
2,0.38100431988136374,0.003,0.3772166651962494
3,0.3710168507292593,0.003,0.3654610924040509
4,0.3693423705587951,0.003,0.36714858153060187
5,0.3657303248925937,0.003,0.3600678730876594
6,0.3671000658465232,0.003,0.36576174670020334
7,0.3606596174869511,0.003,0.3569140162586507
8,0.3565778571734135,0.003,0.35347703884884235
9,0.35440570538302213,0.003,0.353121118415691
10,0.34968205072658715,0.003,0.34594574504794334
11,0.33918539220266203,0.003,0.3203366453382286
12,0.32270878940511,0.003,0.31489193761734485
13,0.3192078352695127,0.003,0.3198355147240194
14,0.3162996173976994,0.003,0.3142938780309463
15,0.31624288860556604,0.003,0.31446816616977585
16,0.31797290547229023,0.003,0.3224046714927328
17,0.3162357443802172,0.003,0.31104918688112293
18,0.31471321888738496,0.003,0.30349162335624447
19,0.31391361896856895,0.003,0.3197065336010827
20,0.3138481214088645,0.003,0.3137064536867315
21,0.31361463689487235,0.003,0.3225090050306862
22,0.31181703286050416,0.003,0.3106750771697337
23,0.31129834465354944,0.003,0.30290595193311937
24,0.30985136963814186,0.003,0.3179390678077866
25,0.29797517903726833,0.003,0.2914064011779844
26,0.295553674214154,0.003,0.28358958666260636
27,0.2968306530871504,0.003,0.3058784166446519
28,0.29737495766769495,0.003,0.29226505592312507
29,0.3007158291616219,0.003,0.29945636959930244
30,0.3001853458279614,0.003,0.29290451996187195
31,0.30027936430548213,0.003,0.2944638986543303
32,0.3037986542157037,0.003,0.33826044654648607
33,0.30392505017389876,0.003,0.29188127325878616
34,0.3000747485936498,0.003,0.29406376184797134
35,0.2969057555083367,0.003,0.28853245338846967
36,0.3041079275661426,0.003,0.3196567750426381
37,0.3024698336996573,0.003,0.30859060046845943
38,0.2986838642677529,0.003,0.28875843888911656
39,0.29796929340616024,0.003,0.29037101445065394
40,0.29942923179454656,0.003,0.2902693810513289
41,0.2989395568065411,0.003,0.2929944054715353
42,0.2997738267336008,0.003,0.29183100581451393
43,0.30166476191602926,0.003,0.29344681626290153
44,0.30340541962930245,0.003,0.2931507977979712
45,0.303601324579103,0.003,0.29646885726121625
46,0.3038163120381171,0.003,0.30153151088186203
47,0.3031801863534035,0.003,0.2879375729771609
48,0.3034191516598018,0.003,0.29191019022638814
49,0.3034835496841432,0.003,0.29583360305924816
50,0.303995432690989,0.003,0.3155310668151211
51,0.30841245234524794,0.003,0.2991054189621508
52,0.3066900250562232,0.003,0.29633280630763725
53,0.30607531745609146,0.003,0.3080756839867549
54,0.30645035377306806,0.003,0.3027123761287616
55,0.3063583853993294,0.003,0.29823709342808075
56,0.30502236902797153,0.003,0.30479890447412783
57,0.3069280681016443,0.003,0.3018413964003301
58,0.3046480668760794,0.003,0.3018030037114069
59,0.3045935831088528,0.003,0.2968122896686161
60,0.30467933980966927,0.003,0.28925580469613577
61,0.3056747356294204,0.003,0.2978015188142457
62,0.3067603034110997,0.003,0.2984585021082209
63,0.3066474352892545,0.003,0.3048516520796654
64,0.3066072673183217,0.003,0.29644092962134044
65,0.3072294305971296,0.003,0.31359441209681505
66,0.3073670449677846,0.003,0.3027190123967703
67,0.30876476710124745,0.003,0.29575210363966514
68,0.30976400530035736,0.003,0.3002637352944361
69,0.3103485089286769,0.003,0.2978108468059018
70,0.3097903292706544,0.003,0.30452621805216257
71,0.31134057988961344,0.003,0.300607507794084
72,0.3069602840339585,0.003,0.30082254561036237
73,0.30739435715843544,0.003,0.29499658283019686
74,0.30774157991905293,0.003,0.300898450014388
75,0.3091875235829279,0.003,0.3072528774719965
76,0.30851541151352924,0.003,0.2979809285421586
77,0.30928749964534524,0.003,0.30847488471910345
78,0.30869984438867687,0.003,0.30334923276420456
79,0.31043738517150893,0.003,0.3029198562924845
80,0.3098339934577997,0.003,0.3032206477393009
81,0.31024972534627554,0.003,0.30920403780034894
82,0.31396867651388133,0.003,0.31461805672088566
83,0.3159087838844763,0.003,0.30653441062854236
84,0.3191763535499287,0.003,0.3230613817496853
85,0.3149145616711282,0.003,0.30822029104125526
86,0.3147518357498754,0.003,0.3096030752961807
87,0.3132483430480738,0.003,0.31313424740918716
88,0.313953566831722,0.003,0.3118719757896949
89,0.31333253993917043,0.003,0.3153042525829249
90,0.3146648987127151,0.003,0.3174085128279116
91,0.31734644523639377,0.003,0.3063338442155011
92,0.31852853050727925,0.003,0.32052941029948706
93,0.3177055393239196,0.003,0.31720003499792804
94,0.3176251078198711,0.003,0.3176635721170629
95,0.3172995478129215,0.003,0.31295702943391657
96,0.31564647176985644,0.003,0.30841694126565716
97,0.31637750655341207,0.003,0.31432795268207814
98,0.3152738375831946,0.003,0.30554808984380494
99,0.31490389374996736,0.003,0.3050292524161448
100,0.31423239249119655,0.003,0.31662842831276683
101,0.3161160366194283,0.003,0.3153402115252889
102,0.31429957977230316,0.003,0.30908884719637497
103,0.3137442814491445,0.003,0.3097947786290907
104,0.3132065180555093,0.003,0.30568721178322206
105,0.3125851770563663,0.003,0.3047182780544214
106,0.3147379031998934,0.003,0.3127480762368972
107,0.31197421822687993,0.003,0.30899095422960965
108,0.31222137093222396,0.003,0.3123520177560428
109,0.31266257465540837,0.003,0.3051919390248236
110,0.3109948634327077,0.003,0.30738197691038827
111,0.31093100263929957,0.003,0.30980205503545977
112,0.31141812742935665,0.003,0.311794393229127
113,0.31134684869854284,0.003,0.3019532402117326
114,0.31178952805060656,0.003,0.30469999629372013
115,0.31227806656004237,0.003,0.30219977538394666
116,0.311812907153611,0.003,0.3125805413878237
117,0.3118207006574535,0.003,0.3030734215440389
118,0.3116303328052461,0.003,0.3112863074538269
119,0.311239947255948,0.003,0.30715010596855286
120,0.31052890326455534,0.003,0.3016333020429679
121,0.3117128518238056,0.003,0.31221166557699276
122,0.31176706586929437,0.003,0.3062790585086396
123,0.3116799214606186,0.003,0.3082212624570095
124,0.3129330908836459,0.003,0.30576305253094543
125,0.3161391119966261,0.003,0.30894559550656986
126,0.3121954113852492,0.003,0.30661645003586374
127,0.2974950082236819,9e-05,0.2823277675644469
128,0.29599641925758785,9e-05,0.28281967700021704
129,0.2951422646093807,9e-05,0.28301779674726296
130,0.2946335706684134,9e-05,0.28400302811245703
131,0.29512717190394394,9e-05,0.2836340966016266
132,0.29516449044469734,9e-05,0.28240326409769884
133,0.29422968125147975,9e-05,0.2823432931630933
134,0.29444854862267356,9e-05,0.2852510519519789
135,0.2938927955044021,9e-05,0.27813973546545623
136,0.29044903717416937,9e-05,0.27640560199965997
137,0.29067724187680477,9e-05,0.27818978540217115
138,0.29087246516994913,9e-05,0.27714566698837395
139,0.29105183247813315,9e-05,0.2772753550226329
140,0.2903752848267746,9e-05,0.27742527322380583
141,0.2903396064649335,9e-05,0.2763961484595463
142,0.2902251035630179,9e-05,0.2769527941906932
143,0.2901762153188006,9e-05,0.2794968848187997
144,0.28990248437348504,9e-05,0.2778910864747314
145,0.2900634509065359,9e-05,0.27747768645881193
146,0.2898525157891256,9e-05,0.2776925201632888
147,0.2901363382986981,9e-05,0.27953672780704575
148,0.2901157395844218,9e-05,0.2760795888144761
149,0.28995433135582005,9e-05,0.27767514734401794
150,0.2901786130627425,9e-05,0.27675329261086734
151,0.2898407895371115,9e-05,0.27634827488623176
152,0.29029725349063784,9e-05,0.2780047250292672
153,0.2901533285199071,9e-05,0.2770877424995073
154,0.2896650351292128,9e-05,0.27720346820453257
155,0.2899818196594953,9e-05,0.2763793667000678
156,0.28997534580475137,9e-05,0.2778211694384242
157,0.289890035754628,9e-05,0.27770944954658366
158,0.2902201663443653,9e-05,0.27687180667362915
159,0.29009196071101606,9e-05,0.27856901880785906
160,0.28938736903557866,9e-05,0.2776313709784608
161,0.28987357676398456,9e-05,0.2773572719275904
162,0.28991856962311374,9e-05,0.27811890759379637
163,0.28917326289806056,9e-05,0.27744874424038674
164,0.2895342639619879,9e-05,0.2775779590539887
165,0.28960146648075275,9e-05,0.2769579290344006
166,0.290321907006222,9e-05,0.27859583237129776
167,0.28973871457288497,9e-05,0.2789114477390742
168,0.29021204845737114,9e-05,0.27732957467942515
169,0.29003841581819156,9e-05,0.28088431894167637
170,0.2893524455319015,9e-05,0.27773288733251655
171,0.2900818905991902,9e-05,0.2770050498697357
172,0.2898660953626406,9e-05,0.2762311325359269
173,0.2893081736072695,9e-05,0.2777437992282241
174,0.28989573589844003,9e-05,0.2794622423299298
175,0.2905090597988986,9e-05,0.27807949961478445
176,0.2895546772604366,9e-05,0.2773146907598274
177,0.29033301888312174,9e-05,0.2770837782907881
178,0.2906601559415424,9e-05,0.27777632634025345
179,0.290524437809162,9e-05,0.27858748120544646
180,0.28979236756761867,9e-05,0.2786506091750976
181,0.28919836424952217,9e-05,0.2790368536182906
182,0.2897042001930358,9e-05,0.27783126215837844
183,0.28959317672417034,9e-05,0.27888296911494415
184,0.2901660947949528,9e-05,0.27712306861295977
185,0.2903974141023285,9e-05,0.27830693328013645
186,0.2895646237378879,9e-05,0.2784919914654982
187,0.2900099906382515,9e-05,0.27891285040642955
188,0.29026343584132136,9e-05,0.27864335567911686
189,0.28950418484844653,9e-05,0.27673966488150414
190,0.2896809269287746,9e-05,0.2788175859127632
191,0.28997959565523146,9e-05,0.2780853720659709
192,0.290303897410393,9e-05,0.2774938179008022
193,0.2905382238429704,9e-05,0.278655918387089
194,0.29083581387603596,9e-05,0.27848280145953563
195,0.290700340427631,9e-05,0.2778401312189678
196,0.29006048951515384,9e-05,0.2779085731402851
197,0.29042780030664683,9e-05,0.276426543505905
198,0.2906145493832709,9e-05,0.2776811532764427
199,0.2902170331221071,9e-05,0.2774244820215425
200,0.29067980929565945,9e-05,0.2774143724892679
201,0.2898498677956067,9e-05,0.27715761958376667
202,0.28998714064856135,9e-05,0.277176384303216
203,0.2897644075040194,9e-05,0.27798688457580467
204,0.2903518564731097,9e-05,0.2775035392795855
205,0.29031835410365764,9e-05,0.2773014265329422
206,0.29034020426831275,9e-05,0.27959545088407084
207,0.28980308403368954,9e-05,0.2790869157923049
208,0.2905892756410973,9e-05,0.2772205315924293
209,0.2901459966780994,9e-05,0.27965393443110426
210,0.29048303162141575,9e-05,0.2814765462935582
211,0.2902810270760319,9e-05,0.27703447609363624
212,0.29079436747242604,9e-05,0.27940483591809645
213,0.29046317965959567,9e-05,0.27809045644919517
214,0.29074525596093026,9e-05,0.27845593868815816
215,0.2901585799434202,9e-05,0.2776225356836439
216,0.2907115241213382,9e-05,0.2780639160756719
217,0.2902830569483012,9e-05,0.2766636484188646
218,0.29014055449649584,9e-05,0.2767289767207926
219,0.29058656417768447,9e-05,0.27817854901515504
220,0.2906759890357701,9e-05,0.2785949034714849
221,0.2905169536860631,9e-05,0.2792250733196312
222,0.2900378107726812,9e-05,0.2791434031953093
223,0.29071517876512426,9e-05,0.27806500417798546
224,0.29056869105076333,9e-05,0.2775789796776817
225,0.2899838148785247,9e-05,0.27873181520528273
226,0.2904975802647315,9e-05,0.2783235172081765
227,0.289832527846765,9e-05,0.27912160713628414
228,0.2897298568450242,9e-05,0.2801452582347741
229,0.29039118466653124,9e-05,0.2788443149970852
230,0.2900235753902476,9e-05,0.2791769718890973
231,0.2901390379460024,9e-05,0.2775971516908015
232,0.2897443829787721,9e-05,0.2784388555418156
233,0.28992741626146123,9e-05,0.2797170858874317
234,0.2898485406065921,9e-05,0.27784369604834064
235,0.29080252064694223,9e-05,0.27881833299959186
236,0.2902283808864135,9e-05,0.27784432434339457
237,0.2904361058130777,9e-05,0.27960109482530354
238,0.29011614618601084,9e-05,0.27800716756715865
239,0.29043298116107163,9e-05,0.2778026426553538
240,0.28952551161725937,9e-05,0.27932595774449037
241,0.2900114750249876,9e-05,0.27731274341798334
242,0.28968154172972144,9e-05,0.2781328127058642
243,0.2896273044689144,9e-05,0.27932103358109167
244,0.2904525662688233,9e-05,0.27720062961565195
245,0.28976767661152697,9e-05,0.2787218610237881
246,0.2899969321616786,9e-05,0.2773095628198151
247,0.29093207245607744,9e-05,0.2794512684538596
248,0.2901017793344794,9e-05,0.2776804084888856
