epoch,loss,val_loss
0,0.6753486969169545,0.6710885254631009
1,0.6710885737126034,0.6708083336450229
2,0.6706681582160152,0.6704200811522034
3,0.6703794270642837,0.6703579220787692
4,0.6702487075533206,0.6700151628618375
5,0.6700942186256624,0.6705983312845192
6,0.6700329531987643,0.6699226807417785
7,0.6699527856441095,0.6703402663254068
8,0.669896640930505,0.6717249757338274
9,0.6698903792434224,0.6700968171171259
10,0.6697693168310423,0.6696514342680079
11,0.6697698961505479,0.6695636353058079
12,0.6697270344606261,0.6696544864290533
13,0.6696772244755976,0.6694981262279499
14,0.6697013662999456,0.669982883416037
15,0.669675340200214,0.6695276198026319
16,0.6695857878063473,0.669461474799913
17,0.6695257153577748,0.6701008191094695
18,0.6700288241295632,0.6696680575557147
19,0.6695394203889842,0.6694557892295583
20,0.6695547752434893,0.6700165202471119
21,0.6694013547001102,0.6694861718051033
22,0.6694360733197087,0.6692016218292424
23,0.6694098863434017,0.6691168978684892
24,0.6695364576618409,0.6694911601610821
25,0.6696552795635987,0.6693857173295329
26,0.6692725519217636,0.6691015848464884
27,0.6696331824364654,0.669486070727098
28,0.6692673026242679,0.6690064061912863
29,0.6690468019490913,0.6692350759844335
30,0.6695515630036603,0.6692628582564728
31,0.6691268005735016,0.6690419543985906
32,0.6688384425626145,0.6686943816735439
33,0.6713891388219465,0.6696584124649936
34,0.6696926077048906,0.6692210618789298
35,0.6694182978261083,0.6692199626431988
36,0.6691930037340954,0.6690319402550674
37,0.6689921652380874,0.6688737084330955
38,0.6687457079085242,0.6685453065050885
39,0.6686582126232781,0.6685250916707435
40,0.6686969921110678,0.6687879282291946
41,0.6685981906880123,0.6684050829434784
42,0.6685896637877876,0.669068582525173
43,0.6685397437175431,0.6686460335651844
44,0.6686178714292711,0.6684015285302405
45,0.6685405775838692,0.6685346802473258
46,0.6684752765138808,0.6684785173614006
47,0.6685193788896662,0.6684416528777583
48,0.6697759459965538,0.6688009625543616
49,0.6686471881702353,0.6685064922150343
50,0.6689634588094506,0.6690041393358707
51,0.6687222520595809,0.670165144305807
52,0.6686888804528146,0.6691042246213882
53,0.668658127921318,0.669866725090138
54,0.668492207050598,0.6683805386083399
55,0.6684499962438546,0.6683782465792618
56,0.668419035498193,0.6682230616649484
57,0.6683999398303565,0.6683157682892101
58,0.6683971369922084,0.6683655346274774
59,0.6684805669726459,0.6683260112343014
60,0.6683748178697493,0.6691116775873068
61,0.6683456336822392,0.6684240619019703
62,0.6683564759878701,0.6682018364906993
63,0.6684024196307897,0.6685454832271336
64,0.6683346512017486,0.6688744323782189
65,0.6683411305891297,0.6684613281182681
66,0.6683683449907741,0.6683858231985514
67,0.6684629206911341,0.6683946874513879
68,0.668335045964841,0.6683763993890092
69,0.6683273015736175,0.6683067524122666
70,0.6684719536694095,0.668150587206476
71,0.6683211334790831,0.6683713958786653
72,0.6684110548729779,0.668302204185996
73,0.6683132187492091,0.6686579719628344
74,0.6683083731752026,0.6682513023352309
75,0.6684739025476821,0.668381402511265
76,0.6683053603658331,0.6685095552946058
77,0.6682727099521172,0.6683188693256856
78,0.6683001476600763,0.6683269255129481
79,0.6685083001031484,0.6692990705155561
80,0.6684370833182124,0.6682939810451485
81,0.6683347770566956,0.6682323889588863
82,0.6683878269898033,0.6683565362618237
83,0.6682608681699836,0.6681984304974756
84,0.6682757908500921,0.6681654645049877
85,0.6683749915828952,0.6685318074066222
86,0.6682631971234597,0.6685321469268705
87,0.6682610751098388,0.6682295445716625
88,0.6682711088274889,0.6681862765547774
89,0.668256686321642,0.6684265014518342
90,0.6682698357794431,0.668490670154033
