epoch,loss,val_loss
0,0.5657587521016743,0.5632654696357464
1,0.5617910830800269,0.5618448261658464
2,0.5610882869043781,0.5609213642957042
3,0.5605966369615756,0.560653048359971
4,0.5603061375877528,0.5604592571518658
5,0.5602178450433012,0.5599498389087936
6,0.5600288523850526,0.5599753060463176
7,0.5599655217374933,0.5603460951165319
8,0.559892487654357,0.5597428300938417
9,0.5598502758726541,0.5599550663459409
10,0.559715988306266,0.5594808805579512
11,0.5596664893581179,0.5598605040076878
12,0.5596625442178382,0.5597531460752104
13,0.5595271317972257,0.5592987069974575
14,0.5595891190478216,0.5598533719006618
15,0.5595054309551782,0.559588106592553
16,0.5594906374705934,0.5597794248184288
17,0.5594085221869506,0.5593878043508158
18,0.559288569936962,0.5591387954925533
19,0.5592723901650902,0.5592398680267361
20,0.5591714890168048,0.5589265549052267
21,0.5590687425185457,0.5588548256751941
22,0.5589836194995025,0.5588386590535326
23,0.5589447704070297,0.5587185131371428
24,0.5587568985118836,0.5589758428539835
25,0.5586946626434979,0.5583755853054201
26,0.5587037610951054,0.5584198066321975
27,0.55862093463186,0.5584030123727746
28,0.5585131768208431,0.5583701776392369
29,0.558462809650095,0.5596362804825086
30,0.5584381496060605,0.5584605308975779
31,0.5588568380966488,0.5583703892466112
32,0.5652195621675203,0.5595710024164274
33,0.5594882914387638,0.5594565685739664
34,0.5593769566182352,0.5597079134146449
35,0.5592812789101194,0.559141376902797
36,0.5591715775196077,0.558997831340629
37,0.5590789573550097,0.5587653077621771
38,0.5593466997616733,0.5592377351374215
39,0.5589953913488115,0.5740756513022877
40,0.5590576188626001,0.5593737225854739
41,0.5589755857295371,0.5592272412792092
42,0.5587988999188926,0.5585152888432445
43,0.5588116493309941,0.558638464368978
44,0.5588302123322344,0.5585830653349861
45,0.5586615708110197,0.5584817651398356
46,0.5585193388739426,0.5584658463549875
47,0.5586231928033661,0.5586074699868243
48,0.5584390621329117,0.5581943125635438
49,0.5584718402229185,0.558386370532566
50,0.5583505596819204,0.5582987219497516
51,0.558379622524065,0.5581030313251547
52,0.558352180880378,0.5585329575312976
53,0.558283369516179,0.5582501032966952
54,0.5582743221308283,0.5595935132080588
55,0.5582786094431891,0.5582113253780636
56,0.5582375974558508,0.5580677508986033
57,0.5582542190266874,0.5582148813720504
58,0.5582101906283092,0.559378846157008
59,0.5581458566777685,0.5581731874308208
60,0.5692016408438513,0.5606447484060869
61,0.5591459099615719,0.558494559262165
62,0.5583241445860285,0.5581346447219427
63,0.5582164959097211,0.5583275184283772
64,0.5580893124927122,0.5585136848990077
65,0.5581038713702096,0.5581879147333021
66,0.5580764629094533,0.5583740149402648
67,0.5580542610388716,0.5579975589468533
68,0.5580346038524256,0.5579334520074476
69,0.5580600479562462,0.5579265697155374
70,0.5580723020609947,0.5579292717927673
71,0.5579876086736447,0.5582014107128657
72,0.5580451808657799,0.5582311981979847
73,0.5579956176977061,0.5587261425648036
74,0.558093649985505,0.558316727001288
75,0.5580265008469366,0.5579140390292678
76,0.5579654356124807,0.5577547153831002
77,0.5579582320417006,0.5577823642380412
78,0.557927759886348,0.5577280280825561
79,0.5579579269086092,0.5584093252306649
80,0.5579349685413518,0.5582481655920046
81,0.5579347875637335,0.5578599663571704
82,0.5579373286781455,0.5578730923468411
83,0.5579025465485433,0.5578228747426318
84,0.5578897294169959,0.5579114258383993
85,0.5578862586764759,0.5577525305041855
86,0.5580455413818473,0.5584580575935194
87,0.5578812010902227,0.5581847610588355
88,0.5578519514289859,0.5581550559714349
89,0.5578695394460277,0.5578641630324633
90,0.5578443514181204,0.5580213108913887
91,0.5578495080846178,0.5577925166402977
92,0.5579213341852298,0.5577293872426233
93,0.5578584227678252,0.5578130164495891
94,0.5578262602049163,0.5576339603246574
95,0.5578219968599119,0.5577565504385021
96,0.5578526060956535,0.5587304222010158
97,0.5578181659925984,0.5579993759892906
98,0.5578542923312357,0.557926679090108
99,0.5579089096156225,0.557963357689041
100,0.5578394133621991,0.5578688735789262
101,0.5577883620504056,0.558331823171993
102,0.5578030296469139,0.5579861291575209
103,0.557797364422372,0.5576657385878739
104,0.5577997564681813,0.5577312169026548
105,0.5577909132287487,0.5576669197007174
106,0.5577972896309211,0.5582018716289483
107,0.5578049531904418,0.5577782893277395
108,0.5578237137376935,0.5577066322205577
109,0.5577798136667623,0.5579520372032873
110,0.5577827499915173,0.5576133743740177
111,0.5577777764757881,0.5577515345708669
112,0.5577809384925898,0.5577589011445999
113,0.5578312632202652,0.5578114230594541
114,0.5577879598654747,0.5580351442993113
115,0.557781199888973,0.5578806813802154
116,0.5577380123855418,0.5575907504073927
117,0.5577923659619608,0.5577240074667189
118,0.5577442946094805,0.5577477905292899
119,0.5577637263768054,0.5577109418578691
120,0.5577446239710215,0.5590115583130381
121,0.5577269500987911,0.557613207846383
122,0.5578096717665272,0.5580879910343959
123,0.5577362924882259,0.5610129874018008
124,0.5577214987800155,0.5576168699493215
125,0.557737515780215,0.5580208430228507
126,0.5577342806801133,0.5579709863878535
127,0.5577396278521691,0.5579833420511463
128,0.557724239821438,0.5578209446387876
129,0.557737131320061,0.5577310536548374
130,0.5577106656371095,0.5579518215020574
131,0.5577033894539442,0.5577807415046634
132,0.557715258064419,0.5576229664197285
133,0.5576857026378662,0.5578374892487419
134,0.5577453102146189,0.5575004501561995
135,0.5576842761910887,0.5576052587051628
136,0.5576927096975434,0.559150560675149
137,0.5577105953157998,0.557785001073884
138,0.5653686625902888,0.5581410308669479
139,0.9698600123913312,1.0
140,1.0,1.0
141,1.0,1.0
142,1.0,1.0
143,1.0,1.0
144,1.0,1.0
145,1.0,1.0
146,1.0,1.0
147,1.0,1.0
148,1.0,1.0
149,1.0,1.0
150,1.0,1.0
151,1.0,1.0
152,1.0,1.0
153,1.0,1.0
154,1.0,1.0
