epoch,loss,val_loss
0,0.891833062048946,0.8904352912793789
1,0.8904226336527651,0.8906218933835756
2,0.8902394650017585,0.890215780884761
3,0.8901213165815695,0.8900812524347925
4,0.8900802398923475,0.8899932632384574
5,0.8900176968021226,0.8899680710471167
6,0.8899889530327795,0.8899186290794655
7,0.8899588231335153,0.8898847940442524
8,0.88993493023459,0.8898808948668446
9,0.8899152467380456,0.8903919127189263
10,0.8898845850240914,0.8898988193143866
11,0.889887822455892,0.8897957169140674
12,0.889850978541256,0.8897916644513465
13,0.889834529214027,0.8898408361393364
14,0.889888033779909,0.8898909583306793
15,0.8898209885640405,0.8898047420672619
16,0.8897787582372068,0.8897090156920395
17,0.8897812425503766,0.8898821172069439
18,0.8897893911825434,0.8898375174848545
19,0.8897199162950072,0.8896988007839434
20,0.8897012526895574,0.8897881801921222
21,0.8897430085428782,0.8896239198672122
22,0.8896704537867537,0.8896995320459462
23,0.8897108753135461,0.8896627038296052
24,0.8896405911450666,0.8895895063725656
25,0.8896534553905782,0.8896222350681435
26,0.8895994101442652,0.8895287485998813
27,0.8896507572812857,0.8897400197337993
28,0.8896218629757733,0.8897134873608435
29,0.8895939775287753,0.8896516733497443
30,0.8895825513230653,0.889706224283567
31,0.8895807609821754,0.8895608578170124
32,0.8895741077329594,0.8895063508128636
33,0.8895669925442954,0.8896237352224916
34,0.8895534952472648,0.8895093031122284
35,0.8895496849834612,0.8896812389100263
36,0.8895517567756324,0.8895247942003841
37,0.8895393785595838,0.8895722437287316
38,0.8895448226241411,0.889898560066838
39,0.8895412077355657,0.8895517414678595
40,0.8895313617823868,0.8896204427970824
41,0.8895237175252471,0.8895503635565137
42,0.8895265291766807,0.8894614220394376
43,0.8895238788293531,0.889947426921132
44,0.8895126489055991,0.8894561960079262
45,0.889505999153537,0.8894849733519179
46,0.8895022234514903,0.8895220416622426
47,0.8895031408787742,0.8894922331493772
48,0.8894893251478719,0.8894855225627643
49,0.8894939726734001,0.8894924091189101
50,0.8894854603664081,0.8894608009471124
51,0.8894783063994458,0.8895606088963921
52,0.8894858203196653,0.889755193347001
53,0.8894753263947763,0.889504255558624
54,0.8894773724597738,0.8897316911087275
55,0.8894698831265146,0.8895174329179004
56,0.8894614323748748,0.8894947706630765
57,0.8894613214235542,0.8896094256731296
58,0.889464734068802,0.8895010745854761
59,0.8894592441740559,0.8894422857585702
60,0.8894673361954761,0.8896059878756172
61,0.8894694980069221,0.889441318203007
62,0.8894561118300158,0.8894403194868131
63,0.8894488108149672,0.8895289627345607
64,0.8894539522694167,0.8894214528750782
65,0.8894439776981172,0.8895450758000717
66,0.8894478364342021,0.8894432063318158
67,0.8894533508879061,0.8896504836989638
68,0.8894515622054727,0.8893932196399948
69,0.8894416271480294,0.8894185942847785
70,0.889437862887951,0.8894459326598159
71,0.8894370390524264,0.8894996571980035
72,0.8894382882242224,0.8894194124453746
73,0.8894353000826654,0.8896570545738797
74,0.8894358859105769,0.8894138870938574
75,0.8894470524631563,0.8893973685946562
76,0.8894227145548416,0.88941474181992
77,0.889427973377911,0.8894278440320986
78,0.8894331798276787,0.889487884291509
79,0.8894229399980211,0.8894172655706919
80,0.8894195857150548,0.8894392695619281
81,0.8894307754686692,0.8893954274350354
82,0.8894260802742547,0.8894417274323876
83,0.8894318143269038,0.8896689245828432
84,0.8894186218734741,0.889396766528111
85,0.8894180673866408,0.8895178238266855
86,0.889423779873047,0.8894412304099181
87,0.8894187990388122,0.8893974213178373
88,0.8894270822315399,0.8895340806740852
