epoch,loss,val_loss
0,0.5662245410429892,0.5625978384071709
1,0.5612182279607825,0.5605005592472196
2,0.5605239475096105,0.5600791633488811
3,0.5601573187416852,0.5603321507343588
4,0.5600581439245796,0.5596834095495171
5,0.5598931274840521,0.5598222548732195
6,0.559718490886514,0.5602573003204017
7,0.5598940298692751,0.559675129634228
8,0.5595327093972957,0.5594252230241902
9,0.5598249983397711,0.5592268834288998
10,0.5596799700413995,0.5594332638441125
11,0.5593303232897804,0.5592889252334847
12,0.5595988581309416,0.559223767115007
13,0.5597859596788366,0.5605602436440889
14,0.559363271105144,0.5591568193379632
15,0.5591766596261675,0.5592126744464028
16,0.5594727372792188,0.5597161733055372
17,0.5592148077741388,0.5589784719706604
18,0.5596649247905213,0.5598696411148184
19,0.5592349660522232,0.5587236069631478
20,0.5591307218314263,0.5586006601963873
21,0.5587909118880093,0.5584926451361897
22,0.5584548931797293,0.5591704449862626
23,0.5586439124462436,0.5589879231640739
24,0.5582605873034098,0.558122985056701
25,0.5581048037508142,0.5580213397140255
26,0.5582362429300733,0.5578346252157439
27,0.5587971625862903,0.5585192663623773
28,0.5583816048250644,0.5579362477984753
29,0.5580650388244377,0.5578342940299231
30,0.5580506769171262,0.5582727124781122
31,0.562343727628343,0.5598580521336619
32,0.5595543473497323,0.5591207425263414
33,0.5592520929635807,0.5684208760701495
34,0.5592415972891288,0.5581898063075756
35,0.5586792833743858,0.5581742116093769
36,0.5580662713540878,0.557871230617485
37,0.5579486735181339,0.5577240776254655
38,0.5579728916125422,0.5579118319867394
39,0.5579304867194733,0.558884360344614
40,0.5578724065573456,0.5578989368431981
41,0.5578601640771731,0.5576391142853786
42,0.5578966611547527,0.5581133234580395
43,0.5578502275801661,0.55775884309704
44,0.5578627769319496,0.5576791886736594
45,0.5580505619220116,0.5586329630268592
46,0.5578113460489973,0.5579848805362883
47,0.5577865802960206,0.5577423625500103
48,0.5578113126842476,0.5577180114969178
49,0.5577801482545115,0.5576388029346433
50,0.5577936254654863,0.5577953500474694
51,0.5577844773749593,0.5575539841999492
52,0.5577652187749291,0.5578297635137193
53,0.5577463839655128,0.557525116980445
54,0.5577429612523896,0.5580813572655524
55,0.5577444434371043,0.5576693687445401
56,0.5577354678248534,0.5577660100278692
57,0.5577133324207055,0.5574828411958436
58,0.5576906064546507,0.5577734312273613
59,0.5577543550616045,0.5576881772282579
60,0.5576914061567763,0.5589849857682365
61,0.5576684185360055,0.5576249692758833
62,0.5579046506595127,0.5579020048495946
63,0.5576625155349695,0.5582609741777129
64,0.5576379813352332,0.5576303320232414
65,0.5576662234465781,0.5575067395631598
66,0.557639159305811,0.5579505064704408
67,0.5576748464481358,0.5581052475918734
68,0.5405424382319869,0.4470239033159688
69,0.4470623596542638,0.4469919983751342
70,0.44705359023132285,0.447090006341286
71,0.44702407939732836,0.44804514101408427
72,0.4470533387681268,0.447159910128195
73,0.44706450337906994,0.44699091188714907
74,0.44700871916378476,0.4470192394725894
75,0.4470725173715984,0.4473406835072416
76,0.4470244483009253,0.44694315283018693
77,0.44701131272268807,0.4473963564012436
78,0.44701360230468673,0.44677325996100115
79,0.4470604411614354,0.4470732135916203
80,0.44702012914127276,0.4469882265710634
81,0.44697062073242994,0.4468576781911965
82,0.4469853122828849,0.4469101082688005
83,0.4469954254230429,0.4476413856887128
84,0.4469832323749265,0.44679419955687427
85,0.44699039554937814,0.44711984480555633
86,0.4469489739962881,0.44705433682807005
87,0.4469516320190541,0.44683818419727045
88,0.44693361726818087,0.4467323010396026
89,0.44694965539309117,0.44676199322780846
90,0.44691255986716155,0.446842013757835
91,0.44692317696467593,0.44705788661738094
92,0.4470514189505054,0.44686335190830107
93,0.44693030307272696,0.44789090581511587
94,0.44689365693936256,0.4471501195896461
95,0.44693601905096275,0.44679272247010116
96,0.44691174757043073,0.4470260433896451
97,0.4469270965308096,0.4467647722316617
98,0.4469971710114448,0.4468941601075804
99,0.4469357222979074,0.44668716699362976
100,0.44687721177957196,0.4468597332380945
101,0.446899049720151,0.44682000100385466
102,0.4468879503847479,0.44687266567358425
103,0.4469055981651808,0.4472776270961504
104,0.44946140786445987,0.4487412668408449
105,0.447322567643489,0.4468806663027297
106,0.44693469007527303,0.44666245154242523
107,0.4468806890208069,0.4468151845708809
108,0.44685625702122406,0.4473648637542653
109,0.44687403363038763,0.446855893407395
110,0.44687585093943405,0.4469444192301116
111,0.4468861284901979,0.44724660088604395
112,0.4468639917788078,0.44733443579844906
113,0.4468499840519055,0.44676169050966574
114,0.4468437320453963,0.44690202080258795
115,0.44688678177567304,0.44749981988199516
116,0.44684410244475914,0.4467630600794849
117,0.44684917691610937,0.44692572377467127
118,0.4468558878567308,0.4473071259502496
119,0.4468306946221383,0.44672531060601145
120,0.44682971234230945,0.44663390083712057
121,0.44682955121982504,0.4468388601732913
122,0.4468067585704157,0.44701043666544954
123,0.4468334987347934,0.44680207720470366
124,0.446839478929577,0.4471841897967507
125,0.44677395620187016,0.4467252486894031
126,0.4467845325301498,0.44680929335172315
127,0.4468254362406008,0.4466591944377612
128,0.44678726168274757,0.44697176025550633
129,0.4467612990565377,0.4466672775640135
130,0.446800259329281,0.4472019632543782
131,0.4467902628099586,0.4466679511476135
132,0.4467706306277493,0.44743456842360924
133,0.4467698344040437,0.4466481219402699
134,0.4468255042556504,0.44684688895538494
135,0.44675557600274746,0.44673226431795426
136,0.44680124311217223,0.44678123992209173
137,0.44755264827437874,0.44708074200753467
138,0.4468222521617942,0.4470309876786994
139,0.446773148457316,0.44670339709135093
140,0.44681505519545656,0.4470146389845839
