epoch,loss,val_loss
0,0.8918963173966715,0.8906189527031882
1,0.8904501795666193,0.8903796428988164
2,0.8902663630172614,0.890140929992793
3,0.8901567939664383,0.8900215070560392
4,0.890070705589737,0.8899777196732251
5,0.8900173031579461,0.889965901407757
6,0.8899818808515759,0.8900664693659518
7,0.8899523515004529,0.8899421880259217
8,0.8899252443526197,0.8898675760305437
9,0.8899018990602018,0.8898376020123244
10,0.8898754247394732,0.8898232667402973
11,0.88990656388692,0.8898484846637688
12,0.8898383960290225,0.8898378637067208
13,0.8898190670855963,0.8897616270422576
14,0.889815341731602,0.8898169176718991
15,0.8897681207006477,0.8897820181064384
16,0.8897816911113472,0.8897450458053106
17,0.8897242967676526,0.8896856783343929
18,0.8897658713179742,0.8897836781719932
19,0.8896940998990933,0.8896667165085685
20,0.8897019898171983,0.8896584847161974
21,0.8896530524728502,0.8895741377025251
22,0.8896497936440048,0.8896818309667396
23,0.8896240355890747,0.8896561231672981
24,0.8896976805915218,0.8899285774562631
25,0.8896762955041797,0.88954154952795
26,0.889634947523447,0.8899240664959105
27,0.8896473013237052,0.8895296788895265
28,0.8896015428130244,0.8895113890949499
29,0.8925394045063222,0.8899011606921728
30,0.889840534917486,0.8898318803071862
31,0.8898066846561615,0.8897478315060491
32,0.8898215992218633,0.8898134586620619
33,0.8896997123441001,0.8896768047011844
34,0.8897175858368912,0.8896469181163625
35,0.8896436580528482,0.8896023068936151
36,0.8898257611781945,0.8898316084373106
37,0.8896204813980292,0.8897350487329287
38,0.8895791121926049,0.8895170718918949
39,0.8895670505835624,0.8896607143104275
40,0.8895569163658245,0.8895302786654057
41,0.8896178351319635,0.889522139299516
42,0.8895395880729057,0.8894786999322922
43,0.8895299790234116,0.8895272265990158
44,0.8895275290168211,0.8895094101346067
45,0.8895123486512486,0.8894730335770287
46,0.8896054792390135,0.8897195575879796
47,0.8895301277445471,0.8895665567054131
48,0.88949700175339,0.889440447011599
49,0.8894857007183411,0.8894307192486582
50,0.8894912781772155,0.8894769040453864
51,0.8894849870078669,0.8895785331924851
52,0.8894860325362117,0.8895137213006065
53,0.8894842010691543,0.8894610426786382
54,0.889477054056271,0.8894754847979307
55,0.8894959724495205,0.8894263018885169
56,0.8894642253198676,0.8894795236870355
57,0.8902131975818395,0.8897608377563588
58,0.8896042871958124,0.8894800781181393
59,0.8895004078555248,0.8895497957837001
60,0.8895003391757123,0.8895296834803241
61,0.8894852615800055,0.8897937167934601
62,0.8895042399612576,0.8895090138919773
63,0.8894696040416395,0.8894808591831974
64,0.8895290195707256,0.8895309977215662
65,0.8907233887466629,0.8897674619176567
66,0.8896400454833507,0.8895982738400293
67,0.889545981140888,0.8895809035869521
68,0.8895044948259653,0.8895846327865277
69,0.8895001428732473,0.8894468147460858
70,0.8894759538122766,0.8894730123883678
71,0.8894725578994925,0.8894623128482231
72,0.8894797921246984,0.889610896181337
73,0.889454285726418,0.8894505619870229
74,0.8894626795226048,0.8894536289332764
75,0.8894547194677699,0.8894464052232728
