epoch,loss,val_loss
0,0.33271368663850354,0.21259553602293146
1,0.17229841247522573,0.16611545257146845
2,0.16775527684022482,0.1658368599913491
3,0.17009337688330933,0.1697690611691953
4,0.17102758017041797,0.16651428356213935
5,0.16973666947999067,0.16230149428347668
6,0.16868319264728485,0.1658463322137789
7,0.1675929693188027,0.17281570329662374
8,0.1670680839082987,0.16100779172230067
9,0.16593345249299524,0.16256455464351807
10,0.16503011248856903,0.1625295297757979
11,0.16564132938448856,0.1614929455514018
12,0.16081724248284535,0.15670333321675975
13,0.1602724253934779,0.15731667194459603
14,0.15998800400254443,0.15246448766413692
15,0.1589274694778317,0.16668939331712548
16,0.1570553332865,0.15511662166068754
17,0.15351016713763407,0.14957925363281344
18,0.15065147556799302,0.1510223712016488
19,0.1485122001851253,0.14403699984701956
20,0.14735512901469766,0.14324836325908893
21,0.14616390754826825,0.1433287295259259
22,0.14477301044739502,0.14236973093759384
23,0.14272257284842713,0.1398983449567089
24,0.14226225915131904,0.1385904695036003
25,0.13992822552017933,0.14079239919205397
26,0.13914019025737148,0.1349419938090192
27,0.13675045030270452,0.13644454966945355
28,0.13699741774706914,0.1361629012869208
29,0.13649174611833836,0.1378061729994174
30,0.13560450640168312,0.14445896020957402
31,0.13618347622888932,0.13701656724796016
32,0.13465067925308344,0.13057893575790272
33,0.13368784484090945,0.13169187099188448
34,0.13071388033606546,0.13042259649700694
35,0.13092925122006238,0.1285750806602137
36,0.12967643986562555,0.13154083980804554
37,0.12904505646652836,0.12654591061251316
38,0.12838917952492465,0.12903635621353127
39,0.12817488033637153,0.13516192088210874
40,0.12791828447573192,0.1241236204471095
41,0.12750409736181145,0.12314011427061522
42,0.12729010834611004,0.12246098778054013
43,0.12621089797035204,0.12469694865154486
44,0.12713765614717412,0.12390615175395099
45,0.12715089901221646,0.12602068487945842
46,0.12604546855143506,0.12632206094693083
47,0.12626506445659913,0.12279357280120572
48,0.12597344733840174,0.12366205304508239
49,0.12725953789923689,0.12865000268725213
50,0.12672291295550805,0.12491896805583537
51,0.12668615981912631,0.1262825266432367
52,0.12655594736802206,0.12507393645694526
53,0.12616206422078904,0.12646893986398627
54,0.12569574040653322,0.12683250186428274
55,0.12707949241550326,0.12308207037252239
56,0.12661465316963233,0.12597024951191896
57,0.12701483490131646,0.12500446435613904
58,0.12710245165953057,0.12348317914152107
59,0.12679247431260504,0.12564312782500237
60,0.126903524287313,0.12100565342942654
61,0.12800997323829302,0.12285146918133101
62,0.12784812016357525,0.12641052524805446
63,0.1276457951538902,0.12384601865895828
64,0.1272844426143322,0.12561977544730352
65,0.12678418367457905,0.12764251385628
66,0.1269794762712255,0.12671380453605585
67,0.12745611286230035,0.1305764273644058
68,0.1283520844986113,0.12771879027185237
69,0.12914093522478542,0.12893085433986118
70,0.1283180601567292,0.12845078825174397
71,0.12958107214811132,0.1259885236750274
72,0.12944373059020245,0.12718216082244382
73,0.13035266568287193,0.12482014861201901
74,0.1302509978234911,0.13059257220215184
75,0.13163173857400362,0.13267893928096533
76,0.13159311128308257,0.12987856225837566
77,0.13228982059861258,0.12902617471582228
78,0.13358088050314562,0.1353905006255234
79,0.13408509675833247,0.1341810352047692
80,0.13366765055736954,0.13347198032048527
81,0.1338397531355504,0.13101804125304287
82,0.1344918987626652,0.13307007061701265
83,0.13490597506185514,0.13643886740506872
84,0.13672029438743488,0.13247497968416846
85,0.13659591934711432,0.1440034686060712
86,0.13765090428810897,0.3745938022257121
87,0.13894207833065308,0.1386938078568597
88,0.13946338922535773,0.14045092237682538
89,0.1406747307137048,0.1353290485778284
90,0.1391903295976033,0.1417075367004926
91,0.13939934222103595,0.142590101117352
92,0.1413993690874603,0.13888816384344282
93,0.1396562447019523,0.14028822976416647
94,0.14046836897826118,0.1393885954379471
95,0.14112249011699435,0.14001300589908458
96,0.1415576622110429,0.14006555186850683
97,0.14391351253878204,0.14668324918448689
98,0.14393404462962128,0.15125448003281922
99,0.1443726630221835,0.14711934835565496
100,0.14565359625956423,0.14363627040489696
101,0.14749780025997228,0.1481348375812608
102,0.14752962161227762,0.14803323632469306
103,0.14928747293688982,0.1508746074766932
104,0.1501723750770616,0.14730051527977367
105,0.1495853527564463,0.14893326502596194
106,0.15162961372583034,0.1533612186161194
107,0.1529651463901301,0.15146435035103029
108,0.15500683438696927,0.1535286208013427
109,0.15646116352148004,0.15648336935532592
110,0.1566616289829798,0.15507206794142064
111,0.1582264155387688,0.15721352608329026
112,0.15857024107286208,0.15568633121750725
113,0.16001981584061917,0.15580375444940817
114,0.16050989201946034,0.16856750728299322
115,0.16355003822716974,0.15842617618327265
116,0.16111828510959944,0.1628955824399145
117,0.16260928437888003,0.1570168096504535
118,0.16223322525084446,0.16770736178075976
119,0.16452369857415688,0.16418853537389022
120,0.1652386282368911,0.17455734354873859
121,0.16659195491259426,0.17099145131263568
122,0.16835874831862302,0.16487149481427132
123,0.16800730172797834,0.16609175834913562
124,0.16834998705523382,0.16528604494226948
125,0.16884080790501418,0.1661465880832243
126,0.16879163570493627,0.1682646703842407
127,0.16853042889675268,0.16308022262829913
128,0.16789510299404747,0.1719343428806517
129,0.1700983454438327,0.16833438161516528
130,0.1701852639468549,0.1685663646214951
131,0.17159041654553822,0.17184313622486339
132,0.172665623392609,0.16918989337375057
133,0.17442647520181753,0.17233449519386232
134,0.17495090641277872,0.1772375340384579
135,0.17560075896439983,0.17359052433822694
136,0.17530320169066163,0.17647051293735158
137,0.17473029999209821,0.17225870198401863
138,0.17471221741512238,0.16889867019540414
139,0.17403289098009694,0.16964980588245315
140,0.1743768053017646,0.17581097721677177
141,0.17541559798111447,0.17070579771084773
142,0.17542466234198387,0.17545685707205566
143,0.17565365676447262,0.17325058094892523
144,0.17619269783143326,0.1746340611480594
145,0.177698508131323,0.17383768891102702
146,0.1779575544081146,0.17813437865442805
147,0.17882520626846263,0.1801180215971434
148,0.17951631144606334,0.17592055599286788
149,0.17920319848566604,0.1797292755524192
150,0.18060699537051,0.1780678894379615
151,0.1798042948666713,0.17414721419656945
152,0.18117536474570192,0.17889611221902843
153,0.18301490980753604,0.18812055393006732
154,0.18239798877450775,0.18905297432156556
155,0.18290203891926818,0.18329051475686733
156,0.18236016800744737,0.19020843984531247
157,0.18144336846068226,0.17970335017816233
158,0.1800436417964532,0.1814133068921534
159,0.18199066050070747,0.17456612266135574
160,0.18118910919681347,0.18636498894857062
161,0.18313481796273795,0.18549959601477176
162,0.18359023530325064,0.17778801173559775
163,0.18174144829944264,0.18271447191251575
164,0.18445921190779843,0.18162398677739744
165,0.1861536268243115,0.18880039057161457
166,0.18868042989600475,0.19002008031180456
167,0.19005203151183545,0.19020083391393558
168,0.18988036053429405,0.19177849121515264
169,0.18980812221813165,0.19208547415324997
170,0.18783470705973446,0.18589683614477173
171,0.18976876569046772,0.1904574347558507
172,0.19089409972814253,0.18691529864011644
173,0.1908544552006977,0.19584681687622252
174,0.18917654301051043,0.18466600558140567
175,0.18958583923219013,0.18681655003268038
176,0.1926801805909303,0.19630624662023316
177,0.1937337770260019,0.20191116338182644
178,0.1962158481041781,0.20153859318855152
179,0.20225849809001484,0.2077031768887835
180,0.2039954159185469,0.20391740335332378
181,0.20840921269641888,0.20805043503112838
182,0.21089302793109446,0.2115990258782702
183,0.21158208694460867,0.2164759404822043
184,0.2131624502553452,0.2163208732594631
185,0.21383146450316592,0.2127463366445257
186,0.21570905184836314,0.21737078265026036
187,0.2166404759974407,0.21724756338413814
188,0.21784969006510949,0.22127766666115037
189,0.21789888145445252,0.21985802428404363
190,0.21787430477633082,0.21768426388243378
191,0.21739691576892906,0.21673525327665183
192,0.21715036287701292,0.21784058602522374
193,0.21732565155513375,0.22056873128606094
194,0.21757415758905937,0.2170230031554494
195,0.21776611250724723,0.21854224763428404
196,0.21768576673252119,0.21858198048095584
197,0.2174504877423211,0.21814761581906392
198,0.21784544835011546,0.21859328048899124
199,0.21782434893716915,0.22111508653638112
200,0.21775585209889758,0.2175877173890631
201,0.21806999599095062,0.2222173662169674
202,0.21840126216888048,0.21995061567757387
203,0.21871801703382168,0.21981401652121224
204,0.2182943967880486,0.21903360438045782
205,0.21839772286317904,0.21957500164868235
206,0.21768076355151422,0.22024895919997012
207,0.21847251843777207,0.2197731578430042
208,0.21860807511708338,0.21891005186697773
209,0.21864773301507454,0.2191920704792688
210,0.21846363258709628,0.21832955308146804
211,0.21878313803248745,0.21987462907018113
212,0.21873514658565238,0.21876284425994402
213,0.2184990646003438,0.22305986962642083
214,0.21900289020926164,0.21863447613102674
215,0.2193261623966227,0.2175606076135914
216,0.21934351936089908,0.21868089428311177
217,0.21917534932839594,0.21844371767522033
218,0.2192923704521071,0.22167507689019875
219,0.2189543708849201,0.21865895358755913
220,0.2197226592891222,0.21981291911596376
221,0.2199653310062502,0.22190045301332753
222,0.21990860644266377,0.21955048421658016
223,0.2200142746146539,0.22269433500405456
224,0.22004215739113536,0.22222566728104545
225,0.22000864947990453,0.2213676887863531
226,0.22007712772448096,0.22338386357489212
227,0.22071227347321934,0.22222430237231522
228,0.22117258193228934,0.22322034821702255
229,0.2209295704484367,0.22226976079317934
230,0.22082401177198957,0.22359166491332727
231,0.22090808984091717,0.22122678741659813
232,0.2213153399640231,0.22273554439467524
233,0.22157989556102348,0.22357362941577855
234,0.22168189791633452,0.2218626292676745
235,0.22177334256666742,0.22110427505591768
236,0.22148859542574909,0.2242208957766207
237,0.22180974653227437,0.2230494492338131
238,0.22208838952149895,0.22439369349942587
239,0.22167088692303566,0.22254527698329046
240,0.22143402597982345,0.2234354371406379
241,0.22190351139822548,0.2234324394198224
242,0.22214409719101436,0.22275380014008955
243,0.2227182687758256,0.22369383170836163
244,0.22262386727533182,0.22191891732795463
245,0.22313817438009165,0.22471749643782696
246,0.22275147941425075,0.22463486600599614
247,0.2223577766979246,0.2226067340411628
248,0.2227967612498956,0.22316965752449577
249,0.22265582640084336,0.22176288149445283
250,0.22234134804263866,0.22575804840511662
251,0.2222646261445529,0.22256665071729798
252,0.22209534929286567,0.223283230293992
253,0.2222512455509721,0.2211347866241821
254,0.22210821645151224,0.22300613186400803
255,0.22187633269863258,0.22137534004454548
256,0.22100220932115278,0.2213230440723868
257,0.22139826824934744,0.2240922117948344
258,0.22133319334779902,0.22368387293420444
259,0.22153620253340137,0.22206400216049157
260,0.2218546967545478,0.22272583775239943
261,0.22201309374553693,0.2220337182495099
262,0.22240949560888856,0.224480957039812
263,0.22222154055663246,0.2239354985877107
264,0.22178900257932196,0.22346529192875575
265,0.2221975621821688,0.22232478234884584
266,0.22221484719563445,0.2230839242051696
267,0.22171160544780233,0.2225411313908629
268,0.22212749413496774,0.22292236066419682
269,0.22125392565600496,0.21970177658825477
270,0.22151318111484475,0.22404791799321735
271,0.22093183640762865,0.22340692058734848
272,0.22084005385470523,0.22017224683428527
273,0.2209178691537832,0.222196758099212
274,0.22114988311017444,0.22136358730936012
275,0.22078400569782555,0.22090725401958897
276,0.22104602276707153,0.22168084873208496
277,0.22084254900114142,0.22118471645189253
278,0.220906453845884,0.22144057290612382
279,0.2211719914841995,0.22152492439267008
280,0.22108331060023617,0.22205496937530475
281,0.22097890671018025,0.22203633172735984
282,0.22106993143602335,0.22038246712396722
283,0.22105748481530366,0.22172575150546636
284,0.22067289510600382,0.2211123383482705
285,0.22021256543868642,0.2220193799452793
286,0.220117038275174,0.22342812302268766
287,0.220313812093102,0.2217747615422427
288,0.220062993746772,0.22205709287898223
289,0.22032455099429443,0.22101383538065505
290,0.22049508755393832,0.22113214861292865
291,0.219788103176059,0.2203784080100229
292,0.21932620026891847,0.22194825823182843
293,0.21920529626113333,0.21871691429436255
294,0.2199816756742559,0.2207729172287913
295,0.21956410242332447,0.21773340781796327
296,0.21984879583191813,0.22230217602888994
297,0.21931154125457186,0.22160651689452643
298,0.21978852807355823,0.22019240106055374
299,0.21996396747257688,0.22109216732732312
300,0.2193092400971934,0.22126065725026964
301,0.21970772499041402,0.22227073192078953
302,0.2196614926965307,0.21916199189146957
303,0.219628930050168,0.2196937641386169
304,0.21913475950034877,0.2206955074252533
305,0.21915294225815293,0.21958976430081908
306,0.21924897632915244,0.22015487380919724
307,0.21853469109697213,0.22145388864021934
308,0.21792200277987525,0.21882674083901657
309,0.21736586122489948,0.21989441164949322
310,0.21750389890585967,0.21904439844291043
311,0.21804453329526358,0.2220432900874372
312,0.2182509860665583,0.219152933549674
313,0.21828685496017325,0.21828582754686487
314,0.218144954918481,0.2207099471796942
315,0.2183417919204294,0.21903636868111054
316,0.21897743118228577,0.21870769981380137
317,0.21792171245737138,0.21877083839773662
318,0.21774992169879323,0.21765809533816205
319,0.21821957536571793,0.2181021356286265
320,0.21802563930181956,0.21811419704248328
321,0.21763984299153924,0.21952379805983382
322,0.21790425032139016,0.22067722935749964
323,0.21815770649485927,0.21959801060577594
324,0.21801428020977193,0.21957338393769493
325,0.21718160660385039,0.21725509678555363
326,0.21760213921824806,0.21693373743765168
327,0.21754208139831024,0.2180371964975145
328,0.21798425566235322,0.21751899706771644
329,0.21775023241956934,0.21938951752180177
330,0.21700839301665054,0.21471711006471278
331,0.21668922597412868,0.21995618249030216
332,0.21722108313886762,0.21947537174399856
333,0.21717525452232475,0.21606131235538925
334,0.21691381679974395,0.21785916853769613
335,0.21690078211321437,0.21887006120787142
336,0.2169068800412017,0.21965029628707747
337,0.21664638750010926,0.21765476651048699
338,0.21711162576596324,0.21715435152836643
339,0.21677921777911227,0.22060522542944458
340,0.2169340674599393,0.21852799240961354
341,0.2168180977257131,0.21647897923707773
342,0.2172382085753097,0.21698860755894442
343,0.2167048663687077,0.21662729897410643
344,0.21657445169181275,0.21661776512414335
345,0.21631936029159574,0.21783655521995737
346,0.21616530371941536,0.21804588813196513
347,0.21682153991777167,0.21725724808042596
348,0.21694124634150597,0.21760366617127866
349,0.21622042002366315,0.21765031318026634
350,0.2162082517485348,0.21822636433963052
351,0.2160559385169229,0.21434205499990022
352,0.216193303430109,0.21737649153562258
353,0.21639808290582194,0.21533176953292024
354,0.21633015390780333,0.21533715716712382
355,0.21633830524200826,0.21768293062249977
356,0.21639315956097235,0.2183647621614122
357,0.21572346359991626,0.2169885062263439
358,0.216212683533736,0.21574794937986602
359,0.2163407882209495,0.21627510464276115
360,0.21576410238977245,0.21711108376637347
361,0.2165264598340344,0.21588817990334278
362,0.21588792218316755,0.21475935415103856
363,0.2161665161986717,0.21682460668431366
364,0.21600725046164698,0.2156299276434726
365,0.21583005084956197,0.21826036482602476
366,0.2165813570102151,0.2158783321528333
367,0.21566981345200711,0.21565599800708637
368,0.2156137440035002,0.21789128940784752
369,0.21568410734621454,0.21728576787974577
370,0.21606244011629494,0.21592371452720313
371,0.21586816718609786,0.2190926708192833
372,0.2160003541125287,0.21775455845794814
373,0.21623899809700503,0.21627940508024657
374,0.2156450287234202,0.2155608858357477
375,0.21603359241517994,0.21486585477297948
376,0.21612777135712352,0.21790494986801703
377,0.21587965235435705,0.21448263972880055
378,0.21550491938797786,0.21556643485411378
379,0.21570726532301457,0.21596617661504738
380,0.21538661593656175,0.2169878290173757
381,0.21573035227213735,0.21642800977405074
382,0.21501229142399428,0.21709637862542716
383,0.2154726781886068,0.21377230121003613
384,0.2154845183463596,0.21496006826434252
385,0.21541996769529642,0.21533313721724165
386,0.21550894470857107,0.2132348470101699
387,0.21527152484078868,0.21622958752284768
388,0.2151480438135606,0.214159993635639
389,0.21536421146300389,0.21692885478463056
390,0.21558773092967237,0.21551667755997453
391,0.21562277780567332,0.2138454314635886
392,0.21529228701222713,0.21733730589205014
393,0.21547626155457622,0.21652095249156456
394,0.21501968287044673,0.21548707179883944
395,0.21520255612645695,0.21484028661495697
396,0.2150455110793491,0.21711085991964815
397,0.215028445938413,0.21688338948359334
398,0.21527208489694183,0.21759142949530338
399,0.21527955800199586,0.21443837356548565
400,0.21499019215027873,0.21744132214817552
401,0.21514580484560067,0.21707791491061001
402,0.21534931006953775,0.21742886126088456
403,0.21589961570563268,0.21878813021326027
404,0.2152818875501958,0.2137674969204223
405,0.21511951877440003,0.215798471337618
406,0.2158049464785605,0.2172860214699886
407,0.21513466015875005,0.21652404773442313
408,0.2147851353176206,0.21394987501962598
409,0.2149941628273252,0.214281427044048
410,0.2150846948023799,0.2127587929567956
411,0.20807289292248224,0.20910147026522288
412,0.20421358411141532,0.2086699852674329
413,0.20158836335467872,0.20112582814204194
414,0.20178827446856373,0.20111516766079598
415,0.20192421256876486,0.20210215625747885
416,0.2019185803229098,0.197061438269284
417,0.2004522255939736,0.19908074278387386
418,0.19990776942597685,0.1985389892050104
419,0.20332534824439186,0.20244620818036133
420,0.20504948983399227,0.205827782484802
421,0.20666848623947942,0.20839239414649022
422,0.2078301142648065,0.21125305022371033
423,0.20511327813164318,0.20081062153887352
424,0.19558796512899543,0.18771793345767113
425,0.18589607337943848,0.1898132297662458
426,0.18253310969907888,0.17587750711446684
427,0.17602032627299916,0.17664184213719597
428,0.1693625757627064,0.16408229282312536
429,0.16725967946550924,0.1612349782835901
430,0.1670152819652161,0.16118482509723497
431,0.16894775778531648,0.17232292896429197
432,0.17302509864195167,0.17396638958164343
433,0.17137010341925588,0.16497920479422587
434,0.1667831107128343,0.16036979364262102
435,0.15956794712350048,0.15007066578496228
436,0.15078895419335767,0.146189715598593
437,0.14246279307656723,0.13810717005167972
438,0.13229830799807463,0.12651894803158203
439,0.12768079696013201,0.12288591189820088
440,0.12484928600484138,0.12201195402510447
441,0.12356389086428497,0.12416984517224304
442,0.12239921795461865,0.12258789436075757
443,0.12310008186814216,0.11907735327001434
444,0.1220328197014227,0.11864504020517044
445,0.12142954325135187,0.11971070920282588
446,0.12034515441238261,0.11940796457483906
447,0.11930784649200005,0.11891338332676003
448,0.118217779634644,0.11545081820630049
449,0.11864717072136492,0.11634257874483185
450,0.11937624543047637,0.11480202406480168
451,0.11766071872805044,0.11888332777871988
452,0.11738067688189631,0.12021553568136249
453,0.11651793318531878,0.11587350334510525
454,0.11693832707062042,0.11549911518076225
455,0.11640729940385461,0.12159952077347176
456,0.1166556147273353,0.11777097114965308
457,0.11625666274643726,0.11471402463991998
458,0.1161444854649375,0.1138280290160578
459,0.11630952227816022,0.11252142129658524
460,0.11548735527433365,0.11641580169842576
461,0.11503356869379394,0.11311261305892759
462,0.11524554890551442,0.11573036701286883
463,0.11523523247487348,0.11798214679547155
464,0.11555661283713355,0.1172298624488248
465,0.11540828169666702,0.1150582605515678
466,0.11664574531366309,0.11517701908393271
467,0.11484966985434651,0.11716898630101942
468,0.115195273426916,0.11451660729974109
469,0.1143705613410873,0.11476454250485105
470,0.11438451693962803,0.11249568954921653
471,0.11482314245520736,0.11069832117118135
472,0.11410390931687099,0.11126652302921712
473,0.1134727913960755,0.11137774330288196
474,0.11357871009160479,0.112061088791539
475,0.113638505131173,0.11123775526140277
476,0.11276563061036461,0.11031099609389677
477,0.11330478022591196,0.11351531321784127
478,0.11415049584089614,0.11278307430840141
479,0.1129127875786367,0.11173669461105033
480,0.1131755412548042,0.1114493740962167
481,0.11192641627612256,0.11288723431310037
482,0.11260271664384267,0.11324583683177629
483,0.1118291679242675,0.10914064131694792
484,0.11169563228790041,0.11145124602077885
485,0.11165266319049252,0.11160037212585405
486,0.11152138327249139,0.11960135423817217
487,0.1114406472237276,0.10938484907361966
488,0.11132225384719842,0.10948606116525188
489,0.11152521669447756,0.11160954736002619
490,0.11115836481348597,0.10842871887649055
491,0.11058299169599486,0.11299495831802311
492,0.11087326447573974,0.11035901871410617
493,0.1102855152262153,0.11057063462043618
494,0.11054706360570056,0.1121910402835027
495,0.11096725726930452,0.10856965366506915
496,0.11041120502600471,0.10937367034480623
497,0.11027611861769245,0.10793663433149468
498,0.1108782509897205,0.10807008924875658
499,0.11045548295398219,0.10876645858751664
500,0.11048466767624414,0.10697137618521206
501,0.11023933504172843,0.10952686418462383
502,0.11115669237254716,0.10937500797982468
503,0.11043804164210574,0.11411749877347284
504,0.11017514095841933,0.10991308253020307
505,0.11103640395781691,0.10827872760435119
506,0.11098093917663339,0.10792609382400196
507,0.11139384987388107,0.1155166003761935
508,0.11030317204211541,0.10877617489731772
509,0.11058464043027015,0.10967991035358117
510,0.11135917594083113,0.10957930098863314
511,0.1105917672679531,0.11131019831503482
512,0.11037877184762467,0.10964139035205345
513,0.11101894888827364,0.11028080685880115
514,0.11043452928594644,0.11021074607392042
515,0.10981356813538846,0.10839671436947165
516,0.1102063906886023,0.10492440184318087
517,0.11028744299694312,0.10815562067322591
518,0.10881110593128643,0.11414400738059016
519,0.11046735487943836,0.109022039852466
520,0.10980665405317366,0.11249560674603944
521,0.10960961473312118,0.10681731143897222
522,0.10960374991122862,0.10777154279065677
523,0.10911218926227159,0.1055121997396308
524,0.10923505183770883,0.11202030506605413
525,0.1103749781590905,0.10799436095363998
526,0.10914070509094224,0.11267751741098812
527,0.10971064052040533,0.10970213621760694
528,0.10986390621137085,0.10649871940253378
529,0.10931861757350674,0.11184326221177027
530,0.11005792346634834,0.10777797947484109
531,0.10903444554475095,0.1074722241242758
532,0.10924486177478382,0.10925895902427427
533,0.10900864112886975,0.10574945720425721
534,0.10924754725347796,0.10934531973893942
535,0.11017801805580263,0.10850127941642865
536,0.1090655095404763,0.10873311559280827
537,0.10968100610110972,0.10686570755261178
538,0.11027099185293432,0.10575677398606935
539,0.10988267972398338,0.11086126256972292
540,0.10952115988881468,0.10773917942086636
541,0.1098918145646056,0.11047027617598859
542,0.10968138937720007,0.10892689495620148
543,0.11004359584501226,0.1094941079393088
544,0.10934463440835905,0.106360102514865
545,0.1105887390446844,0.11249472775394369
546,0.10966890442261784,0.10617326938009865
547,0.10918047572437713,0.10958735396072633
548,0.10876722128497515,0.10436403132745763
549,0.10884778134876208,0.10754173621241277
550,0.10964330545753884,0.10799210439211944
551,0.10924177538814972,0.10604626940594193
552,0.10916656416525944,0.10722789354769376
553,0.1080763581946647,0.10538010999572117
554,0.10877961650800458,0.1064388471660693
555,0.1083300152032686,0.10789252512433346
556,0.10833602934944735,0.1065886065293318
557,0.10823968082047004,0.10453125591012749
558,0.10901484719152264,0.10792442807529325
559,0.10854481424478223,0.10653756434228727
560,0.1082706094342027,0.11144238636309271
561,0.10967238254839187,0.11391918382356744
562,0.10885775339701098,0.10803692719083935
563,0.1092346167529849,0.10624310879394024
564,0.10970829432006839,0.11078217629146275
565,0.10914639755785703,0.11055181978157212
566,0.10862469955456915,0.10948668062781008
567,0.1090820910309335,0.11518855903359408
568,0.10929538065986001,0.10596797432994504
569,0.10884164891344943,0.10641807662918516
570,0.10885553673314724,0.10409591838588089
571,0.10849141956959887,0.10595962379918666
572,0.10794627776058267,0.10607433330852777
573,0.10839090989433604,0.10537548229721652
574,0.1084305989614827,0.10661748981936861
575,0.10818729317671866,0.10488211557610165
576,0.10840010718344975,0.10658815622494365
577,0.10810670123504793,0.10737629341815717
578,0.10827803414621703,0.1049239092874734
579,0.10784994292375948,0.10864697117431953
580,0.10812265600720279,0.10630963553969279
581,0.10725396825707884,0.10732161125496041
582,0.10791731987901919,0.1081396761426045
583,0.1076772914027615,0.10878782131324721
584,0.10841838204615313,0.1120081197679184
585,0.10782489463162842,0.10927868508619874
586,0.10844230728981782,0.11123369270737188
587,0.10806453333114929,0.10581228536301555
588,0.10736534048279793,0.10521110428325191
589,0.10759390830147943,0.10955179653232645
590,0.1076070766726272,0.10343710151989816
591,0.10706069742401632,0.1046139638409336
592,0.10745553849793547,0.10566955830698985
593,0.10701477314106567,0.1108784894117146
594,0.10717212623484033,0.10568351066879335
595,0.10645542169015089,0.1080528220489633
596,0.10685948436137298,0.10690923496175207
597,0.10710298817613714,0.10687598548447323
598,0.10652908117031688,0.10289011862725843
599,0.10651818675388822,0.1062994769229697
600,0.10743629800187027,0.10618202578226411
601,0.10654358621790921,0.10647688354435358
602,0.1073204592841087,0.10271713348736232
603,0.10642431328574911,0.10983573338979798
604,0.10642089542570256,0.10675763671639969
605,0.10690242083941241,0.10389755149360896
606,0.10639234612599838,0.10408973725602301
607,0.10690937990205084,0.10451428897990518
608,0.10598167598390465,0.10369294269661689
609,0.106757890453918,0.10487571381614635
610,0.1066766121565438,0.10376845727121162
611,0.1068123728960014,0.10535109520617111
612,0.10601182654500008,0.10563131685250372
613,0.10637039462213131,0.10457010730077831
614,0.1054493637500907,0.10661254295727919
615,0.10620843482424887,0.10596834266030515
616,0.10629087846151454,0.10872412691129506
617,0.10569428559020459,0.10949325913176729
618,0.10580401538277892,0.10463233920139126
619,0.10544335493128554,0.1055399610910156
620,0.10616185072717145,0.10447821893156657
621,0.10565609384259636,0.10619432537948041
622,0.10558523914272741,0.10546317712448673
623,0.10560070767367391,0.10396178279016181
624,0.10655818691702007,0.10352492079597433
625,0.1056711728320562,0.10413126052954862
626,0.10577587947416173,0.10307594746845203
627,0.10541472376453029,0.10939944001545375
628,0.10491515868764034,0.10183910847345298
629,0.10137408073666951,0.10260690618732735
630,0.0998062249407065,0.09509300365279581
631,0.09918181718193846,0.09953442631670124
632,0.09881145667901142,0.09793898529698741
633,0.09831017002665834,0.09582352201324236
634,0.09819202670019021,0.10151407588934842
635,0.09874791597767318,0.09573576342382108
636,0.09891081462613494,0.09628831377604295
637,0.0982528079694195,0.10111958174815588
638,0.09854666970306926,0.09683599960479383
639,0.09766788974547272,0.09563546137327082
640,0.0968556834264196,0.09558772823193361
641,0.09732487465706852,0.09594685076232397
642,0.09699498561563061,0.09757035301488125
643,0.09758736616332564,0.09947746631049131
644,0.09715693676285893,0.09473095203278661
645,0.09768384130154964,0.09744188235374351
646,0.09628823149404366,0.09681793444017396
647,0.09634115857829292,0.09906443937636776
648,0.09530484046248033,0.09358322750938719
649,0.09609518556012143,0.09382160947655917
650,0.09557392134619273,0.09289797661853946
651,0.0951498225361085,0.0967417306721728
652,0.09451742736484221,0.09029467182782286
653,0.0943850344292623,0.0918883395623107
654,0.0939956732052598,0.09130305458145435
655,0.09404103050855614,0.09085792743534014
656,0.09319302435818431,0.09622664040435273
657,0.09334961836227029,0.09715311653212289
658,0.09304076356353234,0.09508473834209585
659,0.09245418702110017,0.0966118197673498
660,0.09337335724315102,0.08806261559617548
661,0.09275467715246215,0.09116619892988792
662,0.09263566129213328,0.09043984363868468
663,0.09209064165387841,0.08929168445888051
664,0.0923221790485626,0.086684667326704
665,0.09174941614758578,0.0902664425658634
666,0.0917894150391757,0.08982310652873982
667,0.0917237033482364,0.09373805903621611
668,0.09101719076005961,0.09717323793349722
669,0.09106908368019702,0.08596815808654866
670,0.09056468326434625,0.08399789852708367
671,0.09016332470869227,0.09254010829077805
672,0.09044507679512366,0.08929008083754669
673,0.08982230980041549,0.08623995253229669
674,0.09042727471523576,0.08768458730278753
675,0.09039572829739462,0.09688901847144611
676,0.08954124605889134,0.08491331904585567
677,0.08938730048904601,0.08713130872246781
678,0.08941435566444476,0.08644562692990808
679,0.08876695788408116,0.08561238314847637
680,0.08872054941017184,0.08942668573914689
681,0.08836585890165241,0.08634687307119464
682,0.0878130719944132,0.08697683153925398
683,0.0887417756333697,0.08467400825531725
684,0.08861064416267794,0.08792162274952092
685,0.08833998444525125,0.08936241939487473
686,0.08784507139981222,0.08567049982939165
687,0.08811357362474279,0.08598981579528987
688,0.08784609999385574,0.0882819243239999
689,0.08808811834836892,0.08660686648529443
690,0.0882204229996311,0.08284597009737941
691,0.08839894687648205,0.08735479027526813
692,0.08761478694889853,0.08973953521559816
693,0.08840419822554889,0.0858371465892517
694,0.08767388271038337,0.08493846118003248
695,0.08773696350512936,0.09326546198167289
696,0.08849936265715783,0.08619649229011106
697,0.08831329112031239,0.08635409857310361
698,0.08849073076497117,0.08421333110064338
699,0.08815527776126666,0.08554658427211179
700,0.08820850626348878,0.08685738398695707
701,0.08818138677248662,0.08648151197509683
702,0.08855401306486815,0.09177559811177928
703,0.08833716236662378,0.08402691634508598
704,0.0880863314448334,0.08478314290153952
705,0.08918879746938115,0.08861535230994036
706,0.0881789805208274,0.08484255985872145
707,0.08957920933989502,0.08829300069700759
708,0.08866375506364947,0.0898222293713569
709,0.0882843264552067,0.08838988622413814
710,0.08897038126181213,0.08311920310205236
711,0.08849935994433651,0.08620284819400678
712,0.08831251700588172,0.08986014507610965
713,0.08825064058915126,0.08621778417946131
714,0.08892473307766503,0.08449107651975837
715,0.08804033647219149,0.08757658936700768
716,0.08807476796954275,0.08761032107973438
717,0.08837797647292951,0.0832827486150737
718,0.08828255107892836,0.09136324713996008
719,0.08865211434144196,0.08695085860065523
720,0.08787983100560548,0.08569741268784113
721,0.08838134316160239,0.0868984669529272
722,0.08859814981000125,0.08316171786732436
723,0.08884921528809935,0.09039431629259942
724,0.0886821625121444,0.08186897827163868
725,0.08835607175406315,0.08545586740820071
726,0.08844041760465939,0.08597045173043798
727,0.08859830542201762,0.08670897451953428
728,0.08820100743874466,0.09202881084774174
729,0.08868636321023309,0.08297202053414429
730,0.0886271135192171,0.08676083706431062
731,0.0887874750365361,0.09690551644436657
732,0.0882457932196766,0.08849717927148423
733,0.08808456465667434,0.08627791383142723
734,0.08898037223876427,0.08437557656673719
735,0.08789278896485302,0.09221467481604127
736,0.08783139992835853,0.08499322963941727
737,0.08808553452602774,0.08431633717682574
738,0.08831364100279329,0.08614195742436347
739,0.08893306127531256,0.08877508080584286
740,0.08842578874997717,0.09349581316383974
741,0.0886499501889844,0.08589811256447925
742,0.08859624259388275,0.0889203701147717
743,0.0883327664526032,0.08341733097512607
744,0.08754225479636928,0.08743134242112748
745,0.0889235788808881,0.09076485954866037
746,0.08839987978327284,0.08725532104908808
747,0.08852057380350135,0.08556656934021022
748,0.08837401321668514,0.08591627547754109
749,0.0886024213183841,0.08616868769360417
750,0.08846693929674909,0.09041283508702443
751,0.08749354173906511,0.08950935903386799
752,0.08855968178194061,0.08772273024142777
753,0.08880288255729264,0.09052035634147905
754,0.0877060593008328,0.08596572064704187
755,0.08765730216539354,0.09146708821041337
756,0.0882458667323696,0.08623828824488967
757,0.08846718258709073,0.08694754748501549
758,0.0881555217901151,0.0876106361034543
759,0.08843055431642455,0.09136435494779506
760,0.0875937622621191,0.08950848599576819
761,0.08820575119095217,0.08755187821392948
762,0.08805963461347621,0.08620019879224457
763,0.08769117138511558,0.08816417672428073
764,0.08802282413710459,0.09198194801595706
765,0.08875797400109584,0.08481638292887123
766,0.08769635608692249,0.08542867928402294
767,0.08791804775673089,0.0873269841968778
768,0.08766621487032024,0.08985129006401045
769,0.08823298150115162,0.09513440547068475
770,0.08785651358578513,0.0853851153246982
771,0.08849785708748609,0.08974390577498438
772,0.08701719033965866,0.09271192191361252
773,0.08782171988658768,0.08700205695880806
774,0.08700873420017657,0.08479259520381006
775,0.08795906660362161,0.08587815142997439
776,0.08761016176276498,0.08672248453913284
777,0.08855350757483765,0.09080793416302507
778,0.08809994322975143,0.08432665245273778
779,0.08814760146113179,0.08753470823039383
780,0.08870298454432274,0.08454900740659792
781,0.08760849765236144,0.08568114753821372
782,0.0877678576770494,0.08673845367372365
783,0.08771927990942455,0.09211671914561301
784,0.08823818012142924,0.09454411999179137
785,0.08807917394422941,0.08541060981782478
786,0.0879535323543419,0.08751481482149018
787,0.08837752494600704,0.08401261071873728
788,0.08777192621517906,0.08894250457834425
789,0.08762978271191879,0.08792832653143318
790,0.08761786374238899,0.0860784929025192
791,0.08808724996265319,0.08792041140684201
792,0.08797460276005174,0.08269665259706194
793,0.08821837706037229,0.08754896337273747
794,0.08853677874632018,0.08542217351878452
795,0.08689080283260174,0.09130612176849603
796,0.08828379308207811,0.08770030761327251
797,0.08765951205911539,0.08727797329566944
798,0.08828034671060711,0.0867150497888145
799,0.08742998448832573,0.08997347920356817
800,0.08715394528494845,0.08531720305321813
801,0.0883124202585144,0.08859178015775537
802,0.0878043836407024,0.09062724045368284
803,0.08713253180858947,0.08368033102486391
804,0.08774309854010502,0.08898682547137789
805,0.0879952756942605,0.08403463132426602
806,0.08758874847549948,0.0863682154739524
807,0.08832605461106836,0.08792434320524159
808,0.08815606522093193,0.08836294353690408
809,0.08813385624917958,0.08611999226597321
810,0.08783392022869331,0.08983012350553966
811,0.08785518718441185,0.08755143141431326
812,0.08809683859634171,0.08688726602526471
813,0.08753342153452379,0.08931163414701196
814,0.08774505210794704,0.0877542725007837
815,0.08734297729004249,0.08527915909498247
816,0.08738645976580542,0.08490657078979894
817,0.08788728622420372,0.08523395416439285
818,0.08745858553710649,0.08825878660770128
819,0.0881781964797339,0.08873739882115783
820,0.08765084640704375,0.08367687370260588
821,0.08772015322794874,0.08729135595561956
822,0.0874377497681063,0.08928440904043373
823,0.08792808141073973,0.08146559530847075
824,0.08720058968944325,0.08520219180418359
825,0.08715629580614569,0.08729816058793215
826,0.08726101853608562,0.08737221465173348
827,0.08668291710948439,0.08920872081497475
828,0.08690953018705098,0.08556431076168167
829,0.08768287222448298,0.08553521944931763
830,0.08852457720414102,0.08440993254344202
831,0.08747699959493942,0.0948153346918094
832,0.08714079156482249,0.09136526799380733
833,0.08777001243736818,0.08755247414864793
834,0.08775069929814215,0.08395921541840991
835,0.08676790706009316,0.08875396449027705
836,0.08689276671273817,0.09188159271757153
837,0.08774249508178873,0.0853983137959463
838,0.08786681496637236,0.08501269436649385
839,0.08738174388180676,0.08998210577627948
840,0.08745512764880078,0.0916410717045875
841,0.08705426350110869,0.08732234957703663
842,0.08705404284987137,0.08602992078875968
843,0.08743727266591944,0.0840840021878975
844,0.08749432492849352,0.08666643365664847
845,0.08726957351189675,0.0870472181356132
846,0.08827222529486072,0.08836605269888206
847,0.08763737502030665,0.09073219759993978
848,0.08757972029997385,0.0870795646578003
849,0.08720491316279681,0.08528330947118852
850,0.08706391949971898,0.08808479878548665
851,0.0874229495887824,0.08528691739573098
852,0.0875694624183299,0.08692720054921524
853,0.08747036912762146,0.08899450375042098
854,0.08734993208393299,0.08587895763924767
855,0.08670136989425603,0.09001737982975562
856,0.08742208807743329,0.0902082364015346
857,0.08763855402852944,0.08679117007738225
858,0.0875588928540643,0.08308737996992109
859,0.08841806231476039,0.08934744819116668
860,0.08840719850616251,0.08722467751087122
861,0.08799884864966646,0.08683850085796478
862,0.08793633338138401,0.09064207671191059
863,0.08743685503139627,0.08698181479275462
864,0.0880343060088839,0.09178939050073781
865,0.08789651805042124,0.08629179418369269
866,0.08782838965408045,0.09296725709476429
867,0.0877662003233874,0.0850080041025178
868,0.08836789520607768,0.08600540298030615
869,0.08727082816644205,0.08735708109652233
870,0.08781698298194617,0.09252776274341434
871,0.08726360185963693,0.08356407944821616
872,0.08763677379091105,0.08510564066816619
873,0.08751533368973137,0.09478768102395412
874,0.08749126530081915,0.08756914898906058
875,0.08744585340459951,0.08261272054821277
876,0.08764313558767216,0.08831555038196606
877,0.08707426749854733,0.08815245746672389
878,0.0873546030515318,0.08647474306675987
879,0.08641116856057629,0.08918575995440735
880,0.08768364357249105,0.08781207993262004
881,0.08783977664411545,0.09232616149353623
882,0.08809995622955542,0.08903430315247651
883,0.08708540815934479,0.08343516194041828
884,0.08736395404534898,0.08428262480208981
885,0.08744809564819439,0.08942513120814205
886,0.08771549179542551,0.08914445430604886
887,0.08692022728369676,0.08771616581536318
888,0.08769151767035373,0.09119781002625764
889,0.08764242436692155,0.08526827654291912
890,0.08723856558164152,0.08439952908958519
891,0.08697024071894342,0.08793441798382137
892,0.08716968164818702,0.08486225941727833
893,0.08695831617934527,0.08915473896519067
894,0.08684921296958109,0.09580917447664272
895,0.08820628172023405,0.08444679944519462
896,0.08694746529312729,0.08986404685754897
897,0.08836127217891786,0.08950030809854934
898,0.08751224016519092,0.08533659457701723
899,0.08729144973125008,0.08722742882152194
900,0.08781967390563895,0.08464238390138325
901,0.08769678864642966,0.08834224104904809
902,0.08786271795106354,0.08890191027519735
903,0.08768647395038634,0.08634867456513028
904,0.08656128066823446,0.08639357194022203
905,0.08761579017761609,0.08435348438976689
906,0.08701356997688135,0.08579873923144664
907,0.08745213408919451,0.08682529435984808
908,0.08757059362759408,0.09176374472024973
909,0.0872389799033066,0.08214312104101057
910,0.08739444362126189,0.08525407591271607
911,0.08684562233021315,0.0898320386340605
912,0.0870230097463615,0.08231289115835101
913,0.08659170076197428,0.08478324031185332
914,0.0875492824895157,0.08522568096795605
915,0.08714318393076734,0.08645596118216074
916,0.08751430586992884,0.08566488699595008
917,0.08703717042645104,0.08904859686495285
918,0.08740547056392514,0.08708244680346894
919,0.08741427385073296,0.08325026811180664
920,0.08740707690850627,0.0848101936251325
921,0.08708831964196156,0.08763700472257131
922,0.08714500319906514,0.08853891052617364
923,0.08774266117732588,0.08378211372982543
