epoch,loss,val_loss
0,0.21070303373503313,0.040819008264987605
1,0.049657509233400544,0.06607445068627996
2,0.04691982301671228,0.039806942237157375
3,0.03953244583122879,0.012768687667132553
4,0.031738971181356795,0.018318958215168497
5,0.031735279510239904,0.024509890459260324
6,0.0318264421641374,0.02678990872002015
7,0.026587762335184322,0.03591480193734639
8,0.02597696471290825,0.014465048954026052
9,0.026853216866174225,0.024368388263689502
10,0.02602249420609781,0.024929832448064106
11,0.023181856346713433,0.014898458791230735
12,0.02190055630633609,0.029124913671022337
13,0.02438534369995947,0.023611509988721
14,0.023246824328559075,0.011339664589334353
15,0.022070145782948337,0.015633974927047527
16,0.02176296394664517,0.022883355457279847
17,0.02038770327906606,0.019315785154312166
18,0.02038889533994968,0.026940877288403525
19,0.018920899887899044,0.021880945837641195
20,0.019343984591738164,0.02402776488982841
21,0.01961496448238119,0.022758829383136912
22,0.018825900960910164,0.021738311358166663
23,0.01810321506715084,0.019676438792246294
24,0.018655461748484238,0.03493508240230082
25,0.01955889335622807,0.012715556404473232
26,0.01917772783620877,0.015231341621217384
27,0.01801430779009712,0.034685292008502705
28,0.019757603185711434,0.017526895150354084
29,0.017645793864771508,0.023314369890924128
30,0.016572132059890363,0.026346828545948702
31,0.01796587936760341,0.01926325961371153
32,0.015571965762100619,0.01958641661264902
33,0.01589128582181482,0.022999539634693582
34,0.015941508424220433,0.009186830389994802
35,0.016593303384563083,0.019536732564420803
36,0.01592392334751755,0.022091703607032595
37,0.01702586411339172,0.006913847311663764
38,0.0159625030194538,0.02455795378422022
39,0.015351508468609871,0.019778875419436334
40,0.015701194474980574,0.01938617608165214
41,0.014646267204237975,0.008799377694687768
42,0.015734784959199027,0.010293445330857055
43,0.015188235968022311,0.011727546986365939
44,0.017420840828748736,0.00625531810601172
45,0.014840831988298301,0.02552790679302193
46,0.015619477628060966,0.005071016168552609
47,0.013806056862750606,0.011002000177980363
48,0.014755276927008308,0.013317716655622059
49,0.014642962876023898,0.011632375428695657
50,0.014606674422519646,0.0083553450370991
51,0.013789628333092736,0.022227357170340953
52,0.014317666978867863,0.006437700459749777
53,0.013993379416976788,0.025387959273998062
54,0.013636284843749768,0.007689688277181647
55,0.01372570396165738,0.014715471570310201
56,0.01373613180529749,0.019312963579158758
57,0.014168191946474173,0.012062720302418874
58,0.013836994780403235,0.01646824241134367
59,0.01193910016319815,0.014130319755350923
60,0.012634817514193358,0.013605234779170534
61,0.012951091896064377,0.010191660438353326
62,0.012905934668737178,0.0090798021094975
63,0.013488170326792365,0.01290049531144967
64,0.012697875021780424,0.009854106130350407
65,0.01223132208281522,0.010324959951175793
66,0.01334030101186321,0.008408159945210134
67,0.012752082629343697,0.01845145526752993
68,0.012080803310660889,0.016081755572155222
69,0.011579879701024384,0.011152031291173307
70,0.0127769151399527,0.013391600142585168
71,0.011799194736683147,0.009920244256582849
72,0.011871188515157019,0.011399697091198147
73,0.012330555066140256,0.007140549881076521
74,0.01166118548172031,0.0131169052113909
75,0.011983487203227375,0.013442903955561868
76,0.011798549512346133,0.009443381608661556
77,0.011840462750609336,0.007682387746103114
78,0.012338759263230713,0.009341139051601608
79,0.011082444760053576,0.011586307079017444
80,0.01166014178904692,0.006327358301620175
81,0.0110686702607609,0.009107233040569896
82,0.010793486662260402,0.019909009738768663
83,0.010942169845917171,0.008680925371556087
84,0.011131042718059488,0.022127150833583197
85,0.011546125252851003,0.01334644334600987
86,0.011433338850746296,0.00956122704650016
87,0.010318703069124552,0.011503436141768684
88,0.01071898275178572,0.013162546253071446
89,0.011275766546269217,0.010692523221978542
90,0.012021806337952549,0.015342161500416314
91,0.010714447368580333,0.008330127930719973
92,0.010349039665161283,0.00433806827840937
93,0.010554296292009489,0.012746208737697672
94,0.011510088373973913,0.01459873970906708
95,0.010862606886061851,0.009337455957125353
96,0.010243921738890686,0.00486631469761375
97,0.011256544040233123,0.003564464085644968
98,0.0105173906788221,0.0180573639075471
99,0.010559973849574003,0.013944584029508371
100,0.010420906943359154,0.014617523350462541
101,0.010459135096765113,0.012638671838934955
102,0.010581864658065682,0.007246990986580019
103,0.010484585602530282,0.01161103148524956
104,0.010727467947638781,0.01575004170415739
105,0.010744834070664932,0.020597179149054786
106,0.010407262921819448,0.010946183658742302
107,0.009926351825155758,0.01055514855985107
108,0.010250634162967428,0.006747086973450695
109,0.010806088182173646,0.008957597374880794
110,0.010220869944682517,0.008154904963441293
111,0.010263179371644893,0.016180952554443687
112,0.010373038931475799,0.009250876587104778
113,0.009462919551134706,0.009997711084700751
114,0.009934597329584976,0.009908969406753003
115,0.01014239246166757,0.013538169792920187
116,0.010703786648884356,0.011770367315119896
117,0.009729357148378456,0.014626278738978583
118,0.010550613796020554,0.005474793037065931
119,0.009925391847754626,0.01080344340763251
120,0.00981616238738856,0.011041568104110088
121,0.010431218415228493,0.0033671208155645026
122,0.009957973304637175,0.007809012730980046
123,0.010331750465117747,0.006206880008982643
124,0.009495549930835056,0.011116171629853904
125,0.010227258308611209,0.009582256008124812
126,0.009513156536834792,0.00874356754585783
127,0.010005003566645998,0.007245127471118295
128,0.008990531218413868,0.011094932023938613
129,0.009263750171470497,0.007777748890765064
130,0.009952480196029687,0.00960670273468757
131,0.010421750391442641,0.012738511793244844
132,0.009489914046884845,0.011593753424926639
133,0.009493223128212745,0.012599411998282245
134,0.00962979167312321,0.007674825553441951
135,0.009311039080872363,0.006600471373703316
136,0.009649086985171295,0.009614605380144284
137,0.010146380933787046,0.007474433174231858
138,0.008902221827560829,0.012033556286618995
139,0.010157298480013875,0.010526729345574515
140,0.009913717937595445,0.00654508477376793
141,0.009385387507936568,0.010746975053739812
142,0.009613285072242394,0.013285331034058177
143,0.009515684318273133,0.007224559753430506
144,0.009319722233116806,0.012170752873548674
145,0.009871179258899777,0.010009443088219263
146,0.009933337422670703,0.014335163766790207
147,0.009313906157232201,0.008082404796286958
148,0.009152734209020302,0.005772026092175691
149,0.00969866814296901,0.011138079841580792
150,0.009535962718071417,0.008750067665458501
151,0.008485712667947247,0.010433772662632467
152,0.008916543603842732,0.005148596559954776
153,0.008806548544301017,0.006578537388524627
154,0.009108859064656017,0.011656853082224479
155,0.00968626236262397,0.004662157467109958
156,0.009246353902738634,0.008311066678015849
157,0.009127133435641916,0.008468522419734037
158,0.009294612421211209,0.008634687197742352
159,0.009781098637121658,0.008704781488918985
160,0.009277906745011888,0.011429182058986756
161,0.009333523162223733,0.021277305595841386
162,0.008861854803085113,0.0084679990620209
163,0.008695452075584127,0.006534456595155134
164,0.008815424372743574,0.006228901669324244
165,0.009346936122707124,0.0035574761253870557
166,0.008694556456406882,0.0032907459670244096
167,0.0092635238569209,0.014873559308850634
168,0.009205477237202626,0.015108811218459115
169,0.008791493790724473,0.015184062778591028
170,0.00895673104954197,0.010275734900169798
171,0.008210001217438092,0.005467820308379235
172,0.008522571560902168,0.006908621344253739
173,0.008852450732628612,0.008713789406984503
174,0.008976127054794676,0.008033886258567565
175,0.008636678309108374,0.007003810368816426
176,0.008823505926339013,0.007198991756386402
177,0.009004647158913397,0.012143114031878342
178,0.009134812450645376,0.006983659882907003
179,0.008512289736041729,0.008058178197039731
180,0.00859194309653552,0.006730421154812013
181,0.008384607624348929,0.0045654854160934195
182,0.008447015794815957,0.010575886618789953
183,0.008730933055944955,0.003346701978831519
184,0.009139983281906364,0.010021258252889693
185,0.008853577473163635,0.003603421335587103
186,0.008382836059346307,0.010162143358679954
187,0.008973940074976853,0.013099246540775003
188,0.008418025338272605,0.02065043499650641
189,0.00840322744333186,0.006324287392595973
190,0.007800020546437227,0.003929969825617963
191,0.008510015488655822,0.007823311943919548
192,0.008414745297588908,0.007277407137649141
193,0.008620780135830976,0.006428471783686197
194,0.008380224755079263,0.010778178492503648
195,0.00908849919776914,0.010298873869747793
196,0.008915677676714367,0.008468481566868693
197,0.00822352187149301,0.004731914988515315
198,0.008074940043798596,0.01138941332442067
199,0.008426969940253019,0.010908351481201947
200,0.008552835586642344,0.0096083082590949
201,0.00791115284213226,0.006572853678274362
202,0.00842055879791247,0.007335971026507154
203,0.008523491424989316,0.007811051860287045
204,0.008274851344543682,0.019159818063736338
205,0.008695108040297727,0.006243511321039278
206,0.007834470685873684,0.012211033689253614
207,0.008593989192596753,0.006932629293658504
208,0.008523373576484139,0.004515855194561201
209,0.008254713749309792,0.00895331413452032
210,0.008251793380137339,0.008691307609708246
211,0.008199283843402187,0.011212339411594779
212,0.0078430454428907,0.007792762993013849
213,0.007779541180385716,0.009280350167324859
214,0.008500938820797834,0.009636142778474228
215,0.008335958407960272,0.00850525565023498
216,0.00849057264117186,0.005319285267506797
217,0.008162889794035585,0.010237361284615302
218,0.008208149893609115,0.008630934892841207
219,0.007878892973223946,0.007360420143121491
220,0.008141052138676746,0.012325752284686539
221,0.007982046423276304,0.009915290071078426
222,0.008093074091887332,0.003250332519811914
223,0.008001533490855047,0.003786614224066239
224,0.007896583767043506,0.0029843875077268625
225,0.007911760008150933,0.012055121982600996
226,0.007579142117774565,0.012498723742152964
227,0.008046924981730078,0.008465357906910597
228,0.007914685410075933,0.013596668663039957
229,0.007917661719834901,0.01126857080453479
230,0.00874150540812952,0.009546041698874972
231,0.007863358789991637,0.004405941613144943
232,0.00925002462905478,0.01121952146329956
233,0.007977636820684334,0.005714875977080618
234,0.007720149856404685,0.004328734254473328
235,0.007728065842845225,0.008669760378096738
236,0.007795874385251035,0.007498657023247505
237,0.007683153899716322,0.009516601870828782
238,0.00926380083474854,0.005069079519276696
239,0.007573542139529408,0.0076719692900141774
240,0.007380856554858464,0.01096671897750392
241,0.007756696936270917,0.0056447992869450665
242,0.00787045000849454,0.008155647444743855
243,0.007668263715342712,0.017523331244953193
244,0.008088594765218494,0.008762913652428888
245,0.008598991705634766,0.008327437573918909
246,0.007682228868966438,0.006905641728363807
247,0.008530717676052813,0.007404486104058015
248,0.00785260137987973,0.008133780554116314
249,0.007257613937462048,0.004185758753082088
250,0.007954816351537492,0.007955672080469066
251,0.008446727430341477,0.007156627343110475
252,0.0076001897004978666,0.007425571118879125
253,0.008292428977180013,0.00598700780380332
254,0.00745899866934014,0.010407831885167577
255,0.007759769694030219,0.008008608223698392
256,0.008027664525322706,0.0077193646538111765
257,0.00792338457310291,0.004421803214893791
258,0.007607858089927798,0.005625000460942194
259,0.007957035106038013,0.005929813153921217
260,0.00797597011741099,0.008677683200984134
261,0.007798017655256585,0.004872304969926636
262,0.008056632947172229,0.01213064237005991
263,0.007752335457176678,0.012271309793348282
264,0.008060849523436067,0.011635094603204596
265,0.008220264865037092,0.0037121152288067997
266,0.00849236667665804,0.0076465572255509946
267,0.007590196521658313,0.005579339862590172
268,0.00866397017639854,0.00794348067948749
269,0.007837749197524484,0.008443339222096842
270,0.007795603368892896,0.005575163586134269
271,0.007817883887957278,0.005805122736994333
272,0.00763135427929391,0.008148298114053052
273,0.00855904759792276,0.006714851032404469
274,0.007590197261328326,0.006730153419418464
275,0.007925872401845047,0.0049246715528018705
276,0.007835553094691082,0.010244697136120855
277,0.007924396955731253,0.012481085000517055
278,0.007858393995983185,0.009422012093905491
279,0.008106089622373407,0.014489816991287418
280,0.007641026639747326,0.006747088024588251
281,0.007487682058836232,0.014684714474689565
282,0.008321711932198047,0.01235327473161676
283,0.007229334899975503,0.011523053984304019
284,0.0077907285178645995,0.0054626714466867385
285,0.007645044357889591,0.0062557481300606205
286,0.007224946045273949,0.004999223024082306
287,0.008131066154183107,0.007247405484298151
288,0.008059822230619922,0.006637319950379531
289,0.007545321833526196,0.007485960667545671
290,0.007635354517038158,0.008953825079254518
291,0.007830043514106546,0.0037102660165339615
292,0.0076032187154093725,0.004283933017855685
293,0.007811696827430263,0.006179614460438302
294,0.007497204345841554,0.005638493595816836
295,0.007798184296484742,0.0060221957327281994
296,0.007935660649563738,0.009909762918578657
297,0.007549067215564445,0.0034805935276076842
298,0.007464210384806021,0.008072611181199221
299,0.008064067759867505,0.00817760249163188
300,0.0074557377333320275,0.007800113461946962
301,0.007707316301957362,0.008328459013529833
302,0.008186832576399024,0.012203318556445785
303,0.007892196286014832,0.006698839517858618
304,0.007915588959453733,0.00787152833361899
305,0.007546850388570369,0.009051669469131149
306,0.007701461630066385,0.006526304760634687
307,0.00812598953260292,0.011312186538632122
308,0.008028942997363373,0.010473902895164564
309,0.007488406712761064,0.006185666363224705
310,0.0077744669049790655,0.006614029280335628
311,0.007829014568490614,0.010932636168662638
312,0.006656264611367258,0.00477251762137605
313,0.007508296089869984,0.015464764821983362
314,0.008356146095748649,0.006771044946777698
315,0.00733961538513296,0.006676321873116442
316,0.008089107953363376,0.008201492848514264
317,0.008285481075244062,0.007057146905409062
318,0.007353243572420801,0.0091226973615722
319,0.008011615756403306,0.006086934141406015
320,0.007279191572918183,0.013226721574711865
321,0.007756483867477111,0.004998538845998618
322,0.007425543983361954,0.0067025566974915005
323,0.007193784205913752,0.004976300173530968
324,0.007601736500270391,0.0073128598058580085
325,0.007868342135633102,0.007689366982654384
326,0.007516987867922121,0.010201506240950528
327,0.007390996862145559,0.0071611056565920855
328,0.007133574843749875,0.0068530236714870185
329,0.007722856115466423,0.003782483711787268
330,0.007823129948548717,0.0074785332726175005
331,0.007687538574493641,0.007708245194087065
332,0.007704319592251135,0.005391060813508734
333,0.007269914446390799,0.008986165840399246
334,0.0074691335216714,0.009954503482323795
335,0.007656478124457023,0.010169456793023265
336,0.008235547302788098,0.008435587937507746
337,0.00758490250953998,0.005225089450323427
338,0.007020748559486785,0.008055561709481613
339,0.007294229360520289,0.011233678355154412
340,0.00801376549076277,0.011224218704476777
341,0.007351547305425294,0.007848355345039878
342,0.007361959256838521,0.012321410880033764
343,0.007829995631954249,0.011712798000487551
344,0.007397424363025682,0.006973903968742068
345,0.0070323144970871184,0.01935222721860789
346,0.007854754857396591,0.00542732507090401
347,0.007712106590747735,0.007491482022250014
348,0.007572190385020757,0.00921621914120904
349,0.007325670705251336,0.00844926307096948
350,0.00788211910077166,0.01164639714646617
351,0.007943325299884287,0.010558317110365832
352,0.00812953718512473,0.013507781811234937
353,0.00727422472205293,0.0053444281308643446
354,0.007975490880198777,0.007018982941445019
355,0.007936421589986187,0.011653078079735235
356,0.007301906392043032,0.0036229808752710952
357,0.007033775607924268,0.005947546842313227
358,0.007246761894442415,0.00828947940431153
359,0.00738256164513034,0.005971585366222199
360,0.0069779655754679355,0.01251660299067692
361,0.006961576045687339,0.004287852858830517
362,0.008078353665666737,0.008183409372416649
363,0.007327322841254915,0.00620879415950452
364,0.007630693378949837,0.009621581956508975
365,0.007961629057317217,0.005464918290697856
366,0.007672907305891804,0.010249154449638271
367,0.007319733558874429,0.008823515487880384
368,0.007041521182713314,0.009059198680697648
369,0.007240499804473127,0.005606696316523988
370,0.007695727639918704,0.004104625889972652
371,0.007059351369596387,0.010436341001842563
372,0.0072812021743107165,0.0033410883327797585
373,0.00747221267603853,0.003170689428629443
374,0.007845321277749808,0.00964548984349903
375,0.008075134006800126,0.0053959014816702166
376,0.007336557850607937,0.010058518715243972
377,0.007010857604047973,0.009864154847334385
378,0.0072998366301706575,0.004590595571431548
379,0.007226916965838674,0.013197247514496803
380,0.007121566503545453,0.005626576096289912
381,0.006663329801507306,0.009793539605770134
382,0.007023448854845633,0.006796456226563021
383,0.006595106951395075,0.007509486373784439
384,0.006723822325888313,0.004798673614293584
385,0.007494845458095689,0.010465479523513904
386,0.007170477382074535,0.003980085983447549
387,0.007827051835850054,0.014827511458559919
388,0.007344078469584487,0.007076149404301781
389,0.006784891607693965,0.005240501790368472
390,0.006858415831309214,0.009169665596726473
391,0.007673873060042683,0.005966564802483794
392,0.007368123244239594,0.009407624306823197
393,0.006878331431830161,0.005674953688224212
394,0.006648433871930547,0.0027580389059453777
395,0.008014206436919056,0.007295705702952635
396,0.007158059330707748,0.008788114565041654
397,0.007200494482960674,0.005539256543503235
398,0.006842540969757987,0.0054752265791178645
399,0.007447330904811871,0.010826986845385727
400,0.007051104148995015,0.009865454726667977
401,0.007112625829256076,0.003997916876887513
402,0.006850872022233051,0.005647465491839394
403,0.007341353450626355,0.006778969974113715
404,0.006707633625752077,0.004806511057798046
405,0.00721118047231917,0.003100260228305267
406,0.0068799077665699804,0.005243284087892749
407,0.0076353489389668384,0.005384281783011148
408,0.007236088110360322,0.005674688576631713
409,0.00754704985854705,0.007496217541005565
410,0.006680713317689779,0.003334914143921274
411,0.007033233609918556,0.010798367104936323
412,0.006971453095962711,0.011289976725403305
413,0.007428337926751183,0.004570650955957626
414,0.00717165505589484,0.006076165224295389
415,0.0067873467422026445,0.00738919348894797
416,0.006877441872763697,0.012573467836595466
417,0.007188030638170691,0.010150851048205721
418,0.0073526598418951865,0.008879192130479906
419,0.007343971100412488,0.008879084994938538
420,0.007170296669155985,0.007284592914276689
421,0.008009107015058428,0.0065984810318800765
422,0.006846133827531098,0.006676361427863658
423,0.00743549130977966,0.008423916140281623
424,0.007001792811809091,0.0078999898811742
425,0.0072841133248041584,0.013800448997515154
426,0.008150340686980293,0.011650469730407493
427,0.007560183799328307,0.010970926725238726
428,0.0077846321934494644,0.0068199357874956104
429,0.00715734869654705,0.006911983697336305
430,0.006720385417977957,0.00581120094762205
431,0.008014214563936882,0.007812418840419804
432,0.007678326243794502,0.009394127296338236
433,0.0070725901530765975,0.005254175558821508
434,0.006873540751033758,0.006651480109949068
435,0.006808556745656663,0.005147633706928828
436,0.00634183555547011,0.009006203059621609
437,0.006683575789083828,0.0036097259406623707
438,0.00660743270044049,0.006503477942157352
439,0.007498831788024349,0.007519440082267174
440,0.006300082456392737,0.008941015867029788
441,0.007066372886216707,0.008708571187119811
442,0.006634781773996463,0.00700797189663634
443,0.007127886187552447,0.005628405578416826
444,0.007518090640859519,0.008101105121432582
445,0.007037413070911912,0.005659806394718746
446,0.006550901954313167,0.009456589301987813
447,0.0068520671020051264,0.00462073710252367
448,0.0066088896607131445,0.004301597672788795
449,0.00684683876483218,0.00833507568443866
450,0.006315497500966374,0.005673772972238845
451,0.007081981543243098,0.004824647691318414
452,0.007441153226652556,0.004555184332376027
453,0.006516381074608542,0.009466533856385555
454,0.007253606584936315,0.012430554992374512
455,0.007259818771537647,0.009277093642477266
456,0.006723971859601101,0.010472469325835251
457,0.006720558325021188,0.004202638147619348
458,0.007307567754477489,0.005031384889333382
459,0.006743848024734217,0.01136780329763113
460,0.006966296130967,0.005053265732525603
461,0.007142367809795016,0.009369683262304753
462,0.006831651991162506,0.010891125589644429
463,0.0073152518837521375,0.006650850877324568
464,0.006329297380427719,0.006276159798292753
465,0.007100544868503883,0.006537421415365156
466,0.006967024000132267,0.006475437752646707
467,0.00748046770084018,0.005989755063164088
468,0.007232157856975641,0.007881278567965824
469,0.006379208923838616,0.007190393101668019
470,0.006607154434227454,0.006769590571907885
471,0.006727578875934072,0.0076927398706344565
472,0.006623506875910449,0.003996718020326125
473,0.007183103599577404,0.006242855988963321
474,0.007856277377362535,0.005272176851031107
475,0.006840826059839756,0.005757039278339897
476,0.007339116076560621,0.007723236577063446
477,0.006622111140139889,0.004771928980302627
478,0.00683569579787603,0.007544739898838156
479,0.006687914785503936,0.008956290466524219
480,0.006676514501230036,0.0016349050959339917
481,0.007443187240413283,0.0031260786098064215
482,0.006741670999450044,0.005043683358598221
483,0.006983901569277322,0.006695287337786891
484,0.007187645490780818,0.007102962414974431
485,0.006628114881990053,0.004231040159809302
486,0.0067385132108136805,0.007918761596568782
487,0.006228445793829969,0.010277103492291828
488,0.007580700129989704,0.0053895406686681035
489,0.0059611914421824055,0.006210753742690715
490,0.006758121087392278,0.004305548191360171
491,0.007060102832825225,0.005270534197211078
492,0.007355801115747911,0.012257413713712813
493,0.006909087953799077,0.00866006883250839
494,0.0066375515551576544,0.009741666146804709
495,0.006757532656702737,0.007299619866498314
496,0.006516520072595119,0.004429801992944132
497,0.006861815571278366,0.01178572453990661
498,0.006339837533911671,0.012902657324249762
499,0.006678815536423594,0.006806669723692379
500,0.006601922552668595,0.004972524091604312
501,0.006895342612543034,0.005779807178719644
502,0.006964160622075962,0.009858294100527841
503,0.005954227530254911,0.0061395985192686155
504,0.006712683139731445,0.005455396740881825
505,0.006975508844412917,0.005965343090296144
506,0.007026099621115042,0.004589773221500071
507,0.006515953266493631,0.012479964484943587
508,0.00709612666685834,0.01117725797356257
509,0.006796387231137848,0.005332679643230285
510,0.006564716143227614,0.005704171305423824
511,0.0067312050207188985,0.011395042159410096
512,0.006714299905205444,0.004526631977562017
513,0.007226782746696405,0.008585229294040868
514,0.007109529256700076,0.008312920106599885
515,0.008087077598961488,0.007214963444947444
516,0.006671752705206003,0.003159573896888764
517,0.006902554499854197,0.008183952448882263
518,0.006846697746700109,0.003648164409933863
519,0.006586953285719743,0.005890423571286633
520,0.006398346525044452,0.004375935426671367
521,0.006748955522012114,0.009257669219542838
522,0.006426827271339029,0.004934960432665242
523,0.007432662386750188,0.007779037202807656
524,0.006612878389951351,0.0038900215909378963
525,0.0063833250160917916,0.004579628058786386
526,0.006198294790477293,0.006428834624241541
527,0.007470719954300431,0.006977882022707008
528,0.007021486639234273,0.009851572905750188
529,0.0069294069253606535,0.004267363691255568
530,0.0066876554532984585,0.00659174314459702
531,0.006687577990859711,0.0041723744464110535
532,0.006691320956838008,0.008586407116457714
533,0.006949358654739283,0.0038357046813187324
534,0.007286773295235559,0.009826753959618361
535,0.006840764050255436,0.007951208353542445
536,0.006985733009629892,0.005386458098632596
537,0.006529124457944485,0.0070572079346024955
538,0.00703302176339257,0.004699296202222451
539,0.006874440527429132,0.006048713921368616
540,0.006533578331906089,0.011703014380394849
541,0.006533169185371994,0.0038926380966887784
542,0.006455443480865752,0.0036419919275200168
543,0.006834719609059721,0.003197142346956912
544,0.007128923115295192,0.005782227108700476
545,0.007236135664995653,0.003911445136553216
546,0.006232745436892706,0.00735538807420476
547,0.006795508950073227,0.004265062749494623
548,0.006135784583609197,0.007378537911662998
549,0.007021409090996224,0.007242447631205737
550,0.006518091657943428,0.006706947610355567
551,0.00677039827812734,0.009457507663227812
552,0.006368947476684619,0.0026858822354751373
553,0.006692569465845448,0.00565079717228708
554,0.006795826295774496,0.00838869329668352
555,0.007008762832423546,0.005351231025492195
556,0.006331998465056394,0.015083906004806627
557,0.006541105014529618,0.0031563069001751664
558,0.007062004667689665,0.004649466693463082
559,0.006909539167488963,0.004990468620915839
560,0.0062925707131306335,0.008945242265840639
561,0.0066471665354667425,0.006550106086901256
562,0.006384543721287919,0.007256014191346345
563,0.0069532364018359705,0.0032107484822426853
564,0.006121745534126925,0.0033398348100824485
565,0.006277485201900213,0.007560804098162391
566,0.006629667159610634,0.004481104017149336
567,0.006872608864528807,0.010335459956794907
568,0.007458472361532803,0.00608772278381857
569,0.006290320484105387,0.008609000960219396
570,0.006987925052537108,0.006415076448340278
571,0.007035559819762608,0.0048624448248147725
572,0.006543600432880723,0.004665635078160449
573,0.007326479065607933,0.007404862281196731
574,0.0067217698973360855,0.0056441610016740255
575,0.006735936267026734,0.003331013306668109
576,0.006426773466894568,0.008861118265307834
577,0.007485692753258506,0.0068687343019506976
578,0.006349664404483916,0.006030723882211341
579,0.0066486983786621465,0.008373607448783675
580,0.006464369708022995,0.004670401291602718
