epoch,loss,val_loss
0,0.15277399080280635,0.0615989763433762
1,0.056019098747322124,0.05029177655419592
2,0.04843118765669094,0.047917914077721904
3,0.048051422315952684,0.04803042252854559
4,0.04819835097842413,0.04778265442931473
5,0.04783561167349632,0.04838761817531597
6,0.04801259022042286,0.04802329852095061
7,0.04792964544972118,0.0481925256573834
8,0.047952525724145434,0.04829582632552382
9,0.047987333943339275,0.049572980606189
10,0.047919092976825416,0.04744907197172753
11,0.047854542208137174,0.048605622013629474
12,0.04780992849630942,0.047694477387178386
13,0.047936999233816266,0.047989766012756674
14,0.047833301862485876,0.05023618125383931
15,0.047840492354689554,0.04790342240737664
16,0.04778078192775007,0.047540673740566856
17,0.047707719717928164,0.04769262560623409
18,0.04782487461261517,0.047701676518030776
19,0.04776765757369147,0.04791517696845409
20,0.04780839980214382,0.048769666065756695
21,0.047724073877830585,0.047794570221661954
22,0.04772625777790015,0.04748365586739689
23,0.04775538093460311,0.047401196354942804
24,0.04772480153631297,0.048881171360882415
25,0.04774576769642931,0.048404991076913706
26,0.047706882010022704,0.04826394088372247
27,0.047704585987946496,0.04813616349999135
28,0.04772217706483093,0.04743172107786293
29,0.04765810454926855,0.04785586342262582
30,0.04762611252000387,0.04769608690664349
31,0.04772679307323089,0.047615202939124586
32,0.047690396771120795,0.047604347754860825
33,0.04759955242258325,0.047403675554748025
34,0.047597802304428255,0.04772318709985704
35,0.04764347752000836,0.047797696022485875
36,0.04761928896740567,0.0474061854654113
37,0.04758550489185859,0.04734267414662908
38,0.047591309273819465,0.04774611339196504
39,0.04766128797956603,0.047393253018701745
40,0.047548954998203316,0.04801344213494186
41,0.047534916066020415,0.048155409217045454
42,0.04756617886003116,0.04757934653780172
43,0.04750900995507419,0.04751767782639968
44,0.04763695008778791,0.04766361667659213
45,0.04751427747386632,0.04763995222717923
46,0.04761217879823786,0.04745723298900035
47,0.047541496378900434,0.047609899278315576
48,0.04755059604367001,0.047665765078263485
49,0.04754738494765749,0.04789504525858112
50,0.047502364544905154,0.047408991194114784
51,0.04754489972341737,0.04766104066628307
52,0.047550421330235085,0.047921883928771086
53,0.04755436804303401,0.04755712736283312
54,0.047500054931921734,0.04770263238871013
55,0.04746568728116252,0.04788810744493518
56,0.04756971852903029,0.04792800797377408
57,0.04757906263061374,0.04728084142542582
58,0.04749290389474109,0.0473746473723824
59,0.04749546239940192,0.047705276239289954
60,0.047516671401693474,0.047894430803259995
61,0.04751193388808164,0.04759033892565387
62,0.047429590757718854,0.047581424232463525
63,0.04749993553056086,0.047473422815433715
64,0.04747600890964055,0.04770471785737947
65,0.04748179385666367,0.047676044450844945
66,0.04747106823072635,0.04725313458030113
67,0.04751847936905069,0.04740522438461797
68,0.04744886935984107,0.04729178476117216
69,0.04737462922573375,0.04754506851581014
70,0.04744021831710133,0.047202616230229644
71,0.047473406300043985,0.0473716999591573
72,0.04743930043356358,0.04746404885598874
73,0.04741774049165438,0.04730620813844894
74,0.04749690647200524,0.04747510859603099
75,0.04749188824392242,0.04716334330254685
76,0.04743130410389363,0.04749922627537572
77,0.047434892497962705,0.0487272575638759
78,0.047477421489991636,0.04740052184217919
79,0.047396696291024165,0.04739056460282985
80,0.04746888820335066,0.047558552161411874
81,0.047397725973471846,0.04733962651515628
82,0.04743104203523015,0.047272298561487035
83,0.04739115658334548,0.04763219632567057
84,0.04746821705701588,0.04744229339586531
85,0.04743477368323828,0.0475280164949002
86,0.04738883905672579,0.047743683823493865
87,0.04749058975244788,0.04781546233473279
88,0.04741524680734253,0.0472722801614344
89,0.04742682730551246,0.0472992446594052
90,0.047428392441116934,0.04785413562004832
91,0.047387671976281014,0.04738429246063108
92,0.047412231850395385,0.047631433584978004
93,0.04742504389499493,0.04820379793302883
94,0.04742350775173766,0.04744312079254341
95,0.047402255324949086,0.04800524888082386
96,0.047339699337546295,0.047242694923208754
97,0.047448003457652196,0.047296786926328056
98,0.04743626330801242,0.04752226728407906
99,0.04738988899599782,0.04742929841014656
100,0.047444968016075194,0.04781166131254624
101,0.04738024556093651,0.04796212752244561
102,0.04732928460510038,0.04799385143307221
103,0.047475597333553124,0.04753238283503498
104,0.04739525513969165,0.047249527484907725
105,0.04736488246225672,0.04756295096773093
106,0.04740577816909595,0.04731047215512068
107,0.04732972956288585,0.04716361102360671
108,0.0474267830621067,0.04762900595706847
109,0.04740927611097253,0.04752438862961676
110,0.047371840271220315,0.049156124594061976
111,0.047352273770564085,0.04772272088874393
112,0.04741016136620828,0.04736222823068864
113,0.04732701754261502,0.04744063700595613
114,0.047450836911666495,0.04721176111225359
115,0.047365150297526644,0.047225035318330034
116,0.047365990895435486,0.047779412915152454
117,0.04733659808846305,0.04731226391096518
118,0.047445314625898995,0.04733849310660889
119,0.04731399163032035,0.048264964097771194
120,0.04740420330336673,0.04763400156841846
121,0.04738391347253303,0.04725348649527392
122,0.0473034925472965,0.047210930637139076
123,0.04739574219534199,0.04767639641874215
124,0.04738501959936701,0.047328224130733426
125,0.04736931440081718,0.047499527541689734
126,0.04734197063900107,0.047440472408105935
127,0.04732486237135294,0.04720993350600293
128,0.04737868565741441,0.04767233709604042
129,0.04735409694728996,0.04729988278369783
130,0.0473348364266727,0.047222396530851946
131,0.04736556833554848,0.0471896292978417
132,0.04734406427150484,0.04828207910460756
133,0.04736532051143029,0.04766842749060941
134,0.04737550932631123,0.04749134306420279
135,0.04739388858498953,0.04738109433566291
136,0.04732646875464611,0.047378095132963996
137,0.04746185151114166,0.04830264960192938
138,0.04729266420935841,0.04726575455836358
139,0.047314644540301994,0.04748285180744263
140,0.04735563953312562,0.04813782356520666
141,0.047352423048693595,0.0479976857241299
142,0.04734942519353877,0.04739851758013396
143,0.047288896049931944,0.04734975460037624
144,0.04734696626520271,0.04717822028610682
145,0.047340853903576625,0.0473097530182601
146,0.04731729415079339,0.047354033988648354
147,0.04733735214111855,0.04724506825361557
148,0.047361117797337184,0.04781577941074368
149,0.047293641012635446,0.047487314631714066
150,0.047336252395817034,0.047876495488676014
151,0.047351093830274256,0.04717690869577776
152,0.0473020816762313,0.04798418422242084
153,0.04731926312900895,0.047469767655856795
154,0.04734275683754687,0.04712255312616466
155,0.04730585137967297,0.048036913416144786
156,0.047319787675790266,0.04722541443350848
157,0.04731984611460679,0.047335334754333595
158,0.04728332922446261,0.047410948844457484
159,0.04730264166687175,0.04714801342424296
160,0.04737796432388534,0.047319560378625246
161,0.04731118998718824,0.04780051012206661
162,0.04734736040746756,0.04727414871353565
163,0.04729156739128341,0.04732037673762396
164,0.047327301586322264,0.04715392846487692
165,0.04732264930919873,0.04723302407253419
166,0.04730508251668071,0.0471691382988617
167,0.047281511993014176,0.047148918890303856
168,0.047313984946536124,0.047122464113190314
169,0.04731944644098564,0.04847171337247459
170,0.0473332625510786,0.047552187163338665
171,0.04732396000241347,0.04758073965818184
172,0.04731559863300632,0.04761461310541432
173,0.047323875647368764,0.04727425208078564
174,0.04726954808326172,0.04765063375469823
175,0.04731317321590478,0.047056566068245466
176,0.04734443427978469,0.04718058998825142
177,0.04728511947807934,0.0472925402453403
178,0.04726719167336619,0.047198271686130375
179,0.04733622944403848,0.047180778008092554
180,0.04730655002942998,0.047773562474639375
181,0.04731037528615156,0.0475045689561749
182,0.04729384815485643,0.04713824765952253
183,0.04728498405588569,0.04724910433662154
184,0.04728912061108626,0.047202181553243176
185,0.04731648471310651,0.047104372933283505
186,0.047314285453286864,0.04833768712446364
187,0.047328776647921185,0.047793657225633855
188,0.04725262480560872,0.04735505114285233
189,0.04734015685143612,0.04719480415828226
190,0.04730170679023321,0.04721440626242166
191,0.04731777907430316,0.047431100953749625
192,0.04727618791591778,0.047784883899418686
193,0.04727619295741776,0.04728401985369335
194,0.04730585955387111,0.04734855398665099
195,0.04727033792818479,0.0471415863546595
196,0.04730412380086432,0.04728758480067599
197,0.047278777253237085,0.04726287392398082
198,0.04726158340218113,0.047243443203776866
199,0.047295217155862296,0.047320055230664
200,0.04734389238553844,0.04703353671761319
201,0.04726727101668942,0.047429990340921005
202,0.04728265368579913,0.04759205307961451
203,0.04735467068666367,0.04791191072977238
204,0.04725243212382713,0.04718781333202062
205,0.04729530297898703,0.04713593414251788
206,0.04728010582546298,0.04720314797058102
207,0.04731808235343221,0.04770780187732325
208,0.04736047272505663,0.04733074941005684
209,0.047255856270114964,0.04748783568427519
210,0.0473347533893266,0.04726383321710525
211,0.047276695149479436,0.047434177431965215
212,0.04732438768718025,0.0473644334761148
213,0.047357712125630495,0.047646639925951834
214,0.047232219550332764,0.04766645677969883
215,0.047255428512390854,0.04767718364285407
216,0.04731550569133126,0.04732821535998286
217,0.047316068144653625,0.0472490075525799
218,0.04725659737061206,0.04725328492678425
219,0.04731516871782992,0.0472417916593913
220,0.04723939964239546,0.047184738979602105
221,0.04731098221217414,0.047190801749901215
222,0.04729016477332937,0.04761790423032893
223,0.047302757966801896,0.047874809555186
224,0.04731828879139168,0.047112651525069715
225,0.04731215605233832,0.04726180470980051
226,0.047274557459685534,0.04742862631132402
227,0.04725200799759105,0.04718524269647926
228,0.04727947757952362,0.04726803479767636
229,0.047333404706191004,0.0473144739137076
230,0.04725610497418782,0.04738183628294349
231,0.04726618245619235,0.0474145891352159
232,0.04727413483279691,0.04727355216430602
233,0.04726473105510028,0.04798034572681293
234,0.04735059909921565,0.04731532179213172
235,0.047359107553565816,0.0484759742577855
236,0.04723515095774361,0.04717951476715076
237,0.047242600210219456,0.04818532512697443
238,0.04727980458616114,0.047117066758537066
239,0.0473289110606237,0.047423770076403395
240,0.04729804354939434,0.047192677714359886
241,0.04726046777302794,0.04736781439904914
242,0.047256448595739194,0.04710149812646616
243,0.04730371158453915,0.047304600324325895
244,0.04729596993102015,0.04739722453981003
245,0.0472585965144477,0.04800765249281298
246,0.04727382135899852,0.04716717189246967
247,0.04728059679400816,0.04721403810259575
248,0.04726484255920307,0.04775758810935288
249,0.047282453254163026,0.04725374558965522
250,0.047284033515756364,0.04721019805453853
251,0.04725461297606726,0.04705391640774171
252,0.04726053689488118,0.0471690696118004
253,0.047288726346729565,0.04709250243246885
254,0.04728091842115974,0.048410299621469505
255,0.04728233517645646,0.04717953074444159
256,0.047225339829528645,0.047127068604341904
257,0.04732436059619025,0.047156250546814986
258,0.047277014037009055,0.04722473404907578
259,0.047294140587167015,0.04850399652650343
260,0.04728967139421464,0.04745277002653741
261,0.04720721048095244,0.04715817417264361
262,0.047292965901293435,0.04729321407890734
263,0.047272790604524856,0.04759466158257005
264,0.047267183256473284,0.047202919454746764
265,0.04728161427024886,0.04722130551475564
266,0.04728904888957,0.04716093988461389
267,0.04728236904503297,0.04723588097326005
268,0.047239658097438006,0.04719390803925993
269,0.04733692857769611,0.04714061004927804
270,0.04719960206686307,0.047091123013630005
271,0.04733691126894322,0.0473095001630785
272,0.04724669003997632,0.047123335945789706
273,0.047306927662494655,0.04723383699144636
274,0.04727867146809515,0.047167339392341585
275,0.04725861412694128,0.0471528644813923
276,0.04720395446854005,0.047364011286348456
277,0.047295102606907925,0.047646037199267646
278,0.04729853297392432,0.047214468536808815
279,0.047291412127675486,0.047372298346039995
280,0.04729151380189555,0.04704251294718922
281,0.04722735351718349,0.04716397507885073
282,0.04732477502952472,0.04716114439334847
283,0.04724964134686952,0.048360154720724524
284,0.04733436924221514,0.047293254239712534
285,0.04724851914709039,0.04711482930566819
286,0.04726584958616826,0.04743235086068076
287,0.047253685357937995,0.04713129360396371
288,0.047319526707442355,0.04716624392471449
289,0.04722007587671185,0.04756930089704898
290,0.04724485218096122,0.047256272900687867
291,0.04728447259675494,0.04731796508700526
292,0.047289017389873136,0.047983219669198274
293,0.04724942912741435,0.047392294863452096
294,0.04730447994427477,0.047204670511721246
295,0.04725491767711967,0.04720771189811386
296,0.047235533224342825,0.04735558139838002
297,0.0472804422614624,0.04740140836718239
298,0.04725887669737248,0.04763202671764305
299,0.047234198200604996,0.04718477884344257
300,0.04728205468681314,0.047127380396732685
301,0.04725088559085135,0.047186727896509156
302,0.04725055113661108,0.047615950025953264
303,0.04727260953635811,0.04741673630786488
304,0.0472820373155254,0.0470616787601477
305,0.04727213631430976,0.047227074219400526
306,0.047248440799857974,0.04709955777358425
307,0.04727306789297947,0.04744658111385125
308,0.047289165067408295,0.04860751697795073
309,0.0472835051454157,0.047099100274416814
310,0.047230616920619466,0.047298511876867996
311,0.04727487665244477,0.04714462092850466
312,0.047241260868599186,0.04719127481766545
313,0.04729833775501457,0.04736525479530667
314,0.047261461850812585,0.047218471001054516
315,0.04724808577909696,0.04721715886089965
316,0.04728681731263368,0.04715883441345844
317,0.047267386622780516,0.047169859540937636
318,0.047230620306434865,0.04777430532457514
319,0.047322836269041615,0.04737307499703123
320,0.04721672334324875,0.0477516823510721
321,0.04727771648352476,0.04740130171861908
322,0.047243788425954315,0.04737306118964114
323,0.04730842379833773,0.047307972144262
324,0.04724608420980253,0.0478397622092935
325,0.04729226687186056,0.04715801154769775
326,0.04724133003214233,0.047098873169900114
327,0.04729441403121733,0.047234812173654266
328,0.0471978419833332,0.04710792056222365
329,0.04729804667762572,0.04736435907027716
330,0.04726648989239995,0.048273402218425375
331,0.047292318016433604,0.047141211047098217
332,0.04725429535263496,0.04759151992794559
333,0.047256242047599276,0.04836378256542624
334,0.04727981709015312,0.04726086771843371
335,0.04724300424639079,0.04807928017536862
336,0.04724848518322269,0.047312757360507114
337,0.047257664495056195,0.05069567454242292
338,0.047336501494455015,0.04739994880608808
339,0.04723936728656673,0.04713959905488715
340,0.04723498140343373,0.04727765588470585
341,0.047303535051637896,0.04804078882358727
342,0.047217573872287213,0.04823583771710614
343,0.04729202278196621,0.04720139988619414
344,0.04723646195321012,0.0471331387722972
345,0.047294582171048476,0.04755501066288237
346,0.04727836417631327,0.04721295811829834
347,0.047260871562037725,0.04731476726782256
348,0.04723473220205993,0.04730987677022803
349,0.04732355043041906,0.04724652590061043
350,0.047228438604018576,0.04726403154544503
351,0.04729823595423588,0.047051052077016965
352,0.04722353041344743,0.047123720917936
353,0.047314226496324455,0.04729782350378989
354,0.04724433287668476,0.04733875514417534
355,0.04729029565430183,0.04727634954271395
356,0.04720245891486664,0.047171040543229355
357,0.04724276156948625,0.04754745899372526
358,0.04732879009738052,0.047780654662903974
359,0.04722392758865246,0.047142492426410845
360,0.04723336049865523,0.047155519960640734
361,0.04729285590398274,0.047224734969372434
362,0.047264115006434355,0.04714058239627468
363,0.04726938763372809,0.047413897860116065
364,0.04728142518124325,0.04752292606653241
365,0.04720734807697655,0.04730203958270864
366,0.047290152872352005,0.04718831377934544
367,0.04724374170497739,0.04718123944718817
368,0.04727184726185888,0.04758918268022428
369,0.04725820360501274,0.04712073872455388
370,0.04725730861816332,0.04715138270086723
371,0.04722664382258098,0.04741737129197595
372,0.04732619329756922,0.04740767346161411
373,0.047240136502434214,0.04804286977310019
374,0.04734235600405317,0.047320003376504806
375,0.04718373271880104,0.04735148115923015
376,0.04722269918236563,0.0472407873364161
377,0.04728386733832834,0.04777816866525252
378,0.04721047257562336,0.047481196802388805
379,0.047319628899808314,0.04744778340057585
380,0.0472691227509964,0.04727052876339151
381,0.047260561383230315,0.047545801915798776
382,0.047217716497899916,0.047234408745590685
383,0.04725953713535881,0.05024652986918836
384,0.04724127727506353,0.04771854315061878
385,0.047255319249120166,0.04742199126939747
386,0.047288394712513206,0.047370495373161174
387,0.04724192036409601,0.04721109370018143
388,0.04726605773192468,0.04725565334992232
389,0.047308753638399495,0.047139324306641965
390,0.047224027949640694,0.04761767982789731
391,0.04726922868949761,0.04772840772226935
392,0.04720980338275814,0.04709259922239097
393,0.047219061562947806,0.047047502369323674
394,0.04727437307121609,0.0473045712747062
395,0.047264177833112785,0.04734041717935474
396,0.047293666038486504,0.04719803179154833
397,0.047197332961572636,0.047194063245967886
398,0.047226909640357556,0.04754663651901714
399,0.04724571708854821,0.047548617332609226
400,0.04725057563240484,0.04750952857304673
401,0.047310058932772264,0.04741550128739371
402,0.04725209587245441,0.04726116825850723
403,0.04725046650760418,0.04706023713160709
404,0.04726329376306131,0.04720376677452436
405,0.04728918392910993,0.04710229088117875
406,0.0472283393373902,0.047244823095995134
407,0.047277232669264105,0.04741332694688178
408,0.04725516478953173,0.04732794878855877
409,0.04721537627112999,0.047124616404805676
410,0.047254253469175285,0.04741668842597655
411,0.047249697462963064,0.04740491961059179
412,0.047253882942749535,0.04721555400172273
413,0.04717995020018207,0.04753013051922809
414,0.04729304781450118,0.04729367926387497
415,0.047200904128779704,0.04716657185022908
416,0.04730867675031356,0.04744153130202662
417,0.0472742942549723,0.04709265121474168
418,0.04721321209633855,0.04745889685595233
419,0.04729072061135805,0.04709099362521258
420,0.04728547883756774,0.04776944850160554
421,0.04723574189717869,0.0477327576205546
422,0.047244399523944686,0.04742777946492585
423,0.04723733097469683,0.04737987408404192
424,0.04724924719269327,0.0473281515066842
425,0.04721165981313451,0.047142411643181996
426,0.04726820511164234,0.04773137037478382
427,0.04720628013213476,0.047279064356104634
428,0.047283745259880355,0.04726533444441014
429,0.04723355085175815,0.047401347777555565
430,0.047232723791155215,0.04730844595884844
431,0.04730846767100118,0.04731657287516082
432,0.04722304103209628,0.05064096742536764
433,0.047247383718212826,0.047905259269518274
434,0.04724409571922512,0.04751796131011249
435,0.047221796871494234,0.04713210312983326
436,0.04729712588026179,0.047807337085539275
437,0.047233055358369955,0.04858581898197379
438,0.04730051983115103,0.04736127763186841
439,0.04726380814792965,0.047216015511384234
440,0.047233630113190504,0.04769006707862125
441,0.04726538741194325,0.04719123247813877
442,0.0472572681625827,0.04720689056716101
443,0.04728496207637514,0.047237502727084206
444,0.04723276219201936,0.04885572024224871
445,0.04723480817445701,0.04714958685808231
446,0.04726954663453771,0.047095459701394886
447,0.04719259167800276,0.04720057654411377
448,0.04727262031170819,0.047142155089172307
449,0.0472277738779283,0.04714083126154394
450,0.04730964662562267,0.04722792828409993
451,0.04717710112585581,0.047171336558265956
452,0.04724344782692065,0.04728136393928867
453,0.047246053534970106,0.047437376644823996
454,0.04726968956389111,0.047370456688358924
455,0.04723663685871638,0.048295675241039226
456,0.04722572609091358,0.04753258785537217
457,0.04726706452661757,0.04722749335131216
458,0.0472368629162403,0.047446388186741364
459,0.04720833480691643,0.04720183013517177
460,0.04722074815611855,0.047484701427306916
461,0.04724936753207688,0.04723046810587467
462,0.047257474643720994,0.04733561378063512
463,0.047283661842858385,0.04721661210177729
464,0.04722559401880113,0.04740870322946874
465,0.04721321705892551,0.047079249948921785
466,0.04723891406226978,0.04853063073500274
467,0.04722630493581104,0.04704543370415398
468,0.04727098734663735,0.04710658334471997
469,0.04723051861881448,0.047352935930665495
470,0.047293432863901176,0.04712176481122188
471,0.04722471516296494,0.047241117364205804
472,0.047265097058171945,0.04712192253477948
473,0.04723038749068046,0.04704013276895201
474,0.047233730244884295,0.04768930758395906
475,0.04723408578081335,0.04711214418875108
476,0.047277328709392046,0.04743462104435595
477,0.04728124370808891,0.04713361770585003
478,0.04717607931237665,0.0470482153610724
479,0.04728337920171847,0.04723549495732681
480,0.0472132612323518,0.04727212468128366
481,0.04728194973249134,0.04722930545365142
482,0.04722428826583947,0.047559697786676854
483,0.04730569353575806,0.047311405747564365
484,0.0471859742283559,0.047290792328547375
485,0.047252798452973366,0.04722883512619545
486,0.047261326903586004,0.04720180869784615
487,0.04719043459347207,0.04721690886363611
488,0.047272070092882375,0.0475531093799748
489,0.047244994398608485,0.04729197623286081
490,0.047232273753157715,0.04711566857505522
491,0.04724426633960528,0.04723707276919082
492,0.047252952181499636,0.047456021910943474
493,0.04725994656441643,0.04708076458080321
494,0.04722132009389303,0.047868269594899295
495,0.04721124403678971,0.04710144727787072
496,0.04726197332781044,0.04742872319827422
497,0.04724045990736222,0.04706621450249285
498,0.047252022207891056,0.047179956635976274
499,0.04721207071027214,0.047142153804285276
500,0.047275461735937906,0.047169959479862064
