epoch,loss,val_loss
0,0.28612925355835594,0.2152605910962646
1,0.18544196650135716,0.18058583707252449
2,0.1795890294045186,0.17994940743120807
3,0.17952713216070554,0.1802568424378405
4,0.1794650008817085,0.1802417356241568
5,0.17931246058308153,0.17976910155781067
6,0.1793055029855453,0.1794447368326955
7,0.17907576411247825,0.1791658026666837
8,0.17873827299530462,0.1793667724989678
9,0.1783688906952441,0.17799290695948777
10,0.17824676648961554,0.1785464033472698
11,0.17806866413040412,0.17784384203502862
12,0.17807091084077395,0.17796166472860275
13,0.17800217664999357,0.17805942230885105
14,0.17797082779909687,0.17842541043459192
15,0.1779520157918179,0.17778922548045675
16,0.17802413124784672,0.17779077397807902
17,0.17794197173022347,0.1779574860407785
18,0.17794177394738492,0.1777505717036662
19,0.1779384217638192,0.1780666161472626
20,0.17793184687955965,0.17764303580973217
21,0.177884447476942,0.17767566969381512
22,0.1778583891517062,0.1780776013609172
23,0.17786698797933584,0.17776395981483037
24,0.17785734022788102,0.17771191348122534
25,0.177862806059569,0.1778923784571552
26,0.1778647144385379,0.17786302165243695
27,0.17787265516728235,0.17775798577818233
28,0.17787055019065917,0.17775419281520707
29,0.17785892927413174,0.17783680531154397
30,0.17783652233491412,0.17783494029067687
31,0.17776465870374494,0.17758025902881336
32,0.17782674680391758,0.17767476772076518
33,0.1778132284788205,0.177759647816302
34,0.17778747177405133,0.17766965991554998
35,0.17781121268284789,0.1777429892236827
36,0.17779079560252975,0.1777207265477907
37,0.17779210546939112,0.17763491478273036
38,0.17776004613922844,0.17767552970287456
39,0.17777054989747673,0.1776771957397273
40,0.17776715764396198,0.17765563225407438
41,0.17776178210068475,0.17768960518449334
42,0.17778344445829863,0.1778168634650457
43,0.17775219037449902,0.17769684465550586
44,0.17775052118835022,0.17757589043645097
45,0.17769079822168457,0.1777175825086276
46,0.17774958388029719,0.17767588971822207
47,0.177747969915398,0.17765240811087904
48,0.17772401342217584,0.17777180157737085
49,0.1777317867540627,0.17786166158923034
50,0.1777307826707022,0.17763638952724936
51,0.17771646501325208,0.17768790524073633
52,0.17770994891175074,0.17770229151800288
53,0.1777122278007672,0.17767337110443387
54,0.1777369185186309,0.17768130014520417
55,0.17771379284554725,0.17772139938167444
56,0.17772843840596772,0.17788670578384927
57,0.17774182881454198,0.17767853150474996
58,0.1776833785988158,0.17764353606300082
59,0.17772115777126796,0.17767848744812026
60,0.17769450794378344,0.17755337215918862
61,0.17769807724834535,0.17761565649612926
62,0.17771109879064523,0.1776365928745872
63,0.17772285690863165,0.17764351403468598
64,0.17768269581951016,0.17769532244367306
65,0.17770643521555893,0.17755517509384428
66,0.17770680872132358,0.17779607935599107
67,0.17767754323977075,0.17766582430726258
68,0.17769742054904966,0.1775685289335138
69,0.17769556336527725,0.17759446544541838
70,0.17767989986258254,0.17755845610137613
71,0.177663400167708,0.17753214582553883
72,0.1776786164688073,0.17750067478479506
73,0.17765635085834874,0.17759323897517942
74,0.17769392465444492,0.17774861689948057
75,0.1776844996282999,0.17763966833547803
76,0.17769063548218433,0.17759309436217385
77,0.1776651714881547,0.17762344651035936
78,0.1776931579593274,0.1775812453163263
79,0.1776433935840067,0.1782033081095145
80,0.17765293751570055,0.17760126265655282
81,0.17766648299878926,0.17772363888389403
82,0.17768187409372543,0.17756080974390306
83,0.17765164280013976,0.17760309990974704
84,0.1776621291796557,0.17754893590591042
85,0.1776729574401697,0.1776248185109603
86,0.17763137749487834,0.1777193717770249
87,0.17765969658593575,0.17760240463591412
88,0.17764123958006178,0.17763790538815316
89,0.1776901757497963,0.17768359315988108
90,0.1776712438006767,0.1778939626258287
91,0.17766334573856646,0.17759310766384181
92,0.17765734582948836,0.1776188760878255
93,0.17767048584852668,0.17756938880225664
94,0.17765123977792635,0.17758953740677685
95,0.17765235005141639,0.17753493435380963
96,0.17767554975980573,0.1775795970973577
97,0.1776151531617895,0.17754050556514428
98,0.17766694761485124,0.17764974366094338
99,0.17765312822912332,0.17779828778570245
100,0.17764361189018718,0.1776776529830934
101,0.17763624055613336,0.17760994933963103
102,0.17766183654634024,0.1775394684231554
103,0.1776405662643633,0.17783781777899757
104,0.17766282856345272,0.1776255207237712
105,0.17765559684291637,0.17754776706447165
106,0.17765189994939512,0.17756506977066244
107,0.17764782195063614,0.17764876145449038
108,0.1776601112455868,0.1777995546901894
109,0.1776491259987787,0.17748829376631678
110,0.1776573734520246,0.17765793534791083
111,0.1776457412613572,0.17793264573450246
112,0.177629833711947,0.1775612443944273
113,0.1776697107856508,0.17752855443399349
114,0.17764405168289188,0.17762027186912727
115,0.1776269492294958,0.17758341664014696
116,0.17766495825027487,0.17754944988424232
117,0.17762778321806666,0.17761021908945987
118,0.17761144704288906,0.17778188125439864
119,0.1776584275989986,0.17761940306203988
120,0.17764067069160566,0.1776543322777127
121,0.17760800831109214,0.1776118662499403
122,0.17767633753214523,0.17766616730447257
123,0.17765452710391996,0.17763346405413175
124,0.17765240345022185,0.17752137624944583
125,0.17764133609813465,0.1775727161950922
126,0.177655226547274,0.1775020223107974
127,0.1776328604522464,0.1775948299769821
128,0.17765486373794642,0.1775156730799197
129,0.1776426125594752,0.17757233826777272
130,0.17765928554735025,0.17771504844091215
131,0.17765912089011462,0.17756821917283225
132,0.17764857421509272,0.1776169599655019
133,0.17764391967480322,0.17769661611614965
134,0.17765248244662554,0.17759321987534848
135,0.1776453081211693,0.1778124775605213
136,0.17765794990421963,0.17751169221177285
137,0.17763384863388815,0.17755313933883582
138,0.1776540399872237,0.1775760897027289
139,0.17766473509019895,0.17754759407222223
140,0.17763780825119987,0.17756498718506347
141,0.17761242965595136,0.17758255920592686
142,0.17764450073670998,0.17760525353329334
143,0.17764735157541234,0.17758224891600125
144,0.17763892374188303,0.17752759707849047
145,0.17765534442248676,0.17755041503727484
146,0.17762248545027465,0.1776140562619576
147,0.1776684904627377,0.1775748833437651
148,0.17767120622616592,0.17764780595722213
149,0.17763665890236266,0.17755573089421972
150,0.17764098682611298,0.17758789198692143
151,0.1776302294562951,0.17764298681349103
152,0.17765748273316237,0.17753764749420095
153,0.177624599830948,0.17751007801731836
154,0.17762135745262167,0.17751729682428966
155,0.17760565739384088,0.17766424711284998
156,0.17762014631935352,0.17755137949640956
157,0.17762721932644276,0.17751828366456865
158,0.17766891435372362,0.17752588495035856
159,0.17764340320246205,0.17765893461954527
160,0.17762604658361628,0.17761076663362763
161,0.17764252184225407,0.17767329239995816
162,0.17763102932466115,0.17758743730744886
163,0.1776259145397934,0.17753781859293263
164,0.17763687561837127,0.1775526907515507
165,0.17766164778638704,0.17759696230139427
166,0.17761945855512704,0.1775941298458646
167,0.1776455331215565,0.17757103008224726
168,0.17766414930542215,0.1775802791048056
169,0.17763815341378858,0.1776329115938745
170,0.17764826091549857,0.17763197845422854
171,0.1776514598291269,0.17751191180102358
172,0.17764737381995152,0.1775445499543421
173,0.1776161059487066,0.17749439693852118
174,0.17764187348093824,0.1775794029706279
175,0.17765173966364323,0.17792701229582458
176,0.17764441683876525,0.17771461099127472
177,0.17765432733187764,0.1779232938268943
178,0.17762411856274907,0.17760291135772158
179,0.1776586736289622,0.17752802537808574
180,0.17764051437234993,0.17800426841864175
181,0.17762980290906702,0.177528953142964
182,0.17764873271413464,0.17756236460421532
183,0.17763147490630618,0.17754808897424515
184,0.17765754246883256,0.1776896887697756
185,0.17765467856332456,0.17753664375339423
186,0.17763727506716476,0.1777311605713738
187,0.1776370907858979,0.17770667683447827
188,0.17764613765487663,0.17753200096555272
189,0.17763856186164464,0.17766662428909713
190,0.17761920388344285,0.17749191599515074
191,0.17764610348107052,0.17751074904001127
192,0.17760713434190772,0.17757963835487425
193,0.17763000400923043,0.17753270582458403
194,0.17762361489516273,0.17762269827683516
195,0.1776435372235773,0.177664982174077
196,0.17763014884589673,0.17754236374112123
197,0.1776448602763583,0.17757962785231945
198,0.1776495881491809,0.17757516539557863
199,0.17764072924804725,0.1775857718233622
200,0.1776213693223316,0.1777336592855845
201,0.17762457677643362,0.17757091119050414
202,0.17763748387995956,0.17756303850834823
203,0.1776211523561836,0.17755950178183622
204,0.1776362955034208,0.1775577711184004
205,0.17758990951078973,0.17758242511899808
206,0.1776211822895314,0.17756969330578032
207,0.1776274120588478,0.17762944817354853
208,0.1776525654393039,0.1775355478182682
209,0.17764446675944195,0.1775874123388891
210,0.17763776012914453,0.17755795050862275
211,0.17761766300093737,0.17754961088029247
212,0.17764298477285295,0.17752857733262084
213,0.1776306559260991,0.17751065519915477
214,0.17762949803083253,0.17753318248532754
215,0.17764865608214378,0.17756325926193592
216,0.17761459082460326,0.1776507427091192
217,0.1776130713230605,0.1782139911012755
218,0.17762863526431968,0.17763765941902512
219,0.17763256744967756,0.17758098254075838
220,0.17763767290196353,0.17752145019072477
221,0.17762725538820576,0.17753028552082456
222,0.17762511459995897,0.17753899175065094
223,0.17763861350351862,0.17752806872905666
224,0.17764698378711963,0.17754231736757856
225,0.17763325102109132,0.17757121848137997
226,0.17763292865692187,0.17752925555303328
227,0.17761259062065304,0.17765182387245482
228,0.17762886941861764,0.17795755009107356
229,0.17765009008365856,0.17754842777278543
230,0.1776410511595835,0.1775710368683325
231,0.17763185816155158,0.17754099611560473
232,0.17762363938500078,0.17752011653091743
233,0.17762633403547282,0.17769848450065695
234,0.17760827677617733,0.17757803254599824
235,0.17761209435004602,0.17759760937873265
236,0.1776645155333215,0.17754664015092525
237,0.1776506591567414,0.17775730587594982
238,0.17761581264835277,0.17769060283311258
239,0.17763932573376037,0.177575224647394
240,0.177640631765151,0.17753782648454997
241,0.17762677268468313,0.17751794310188143
242,0.17763339532174463,0.17769680477402391
243,0.17763253408584664,0.17758809289973648
244,0.17763711965317538,0.17751036851351526
245,0.17762791494028174,0.17767462280197416
246,0.17762062182243493,0.1775443648247617
247,0.1776055973186958,0.17758875010327835
248,0.17762023852549963,0.17765036626368313
249,0.17763684165897034,0.17759262632222841
250,0.17762198537397536,0.17759148274337389
251,0.17761226327751847,0.17756964348627058
252,0.17762081805679153,0.17760688848587688
253,0.1776251703750887,0.17756443875882225
254,0.17763851050564425,0.1775452935069964
255,0.1776184211019799,0.1774957654343502
256,0.17763378464584823,0.17756906730411742
257,0.1776200471688613,0.17758392349132518
258,0.17766414374279843,0.17774025310233718
259,0.17762653608259252,0.17763652609574485
260,0.17761804885286794,0.17754647679091817
261,0.17765403815286812,0.17753047055631713
262,0.1776142130605132,0.177694120283379
263,0.17762793745878314,0.17766865969127618
264,0.17763003121486767,0.17761134001666765
265,0.17760621728919013,0.1775880746466961
266,0.17762856719662531,0.17754315504335286
267,0.17765032003323236,0.17772521225598822
268,0.1776185791066987,0.17766051161402122
269,0.1776326666239926,0.1777453364094318
270,0.17762832008868004,0.17772360417724314
271,0.17763402935364644,0.17757039697695268
272,0.17762656011979738,0.1776154032116719
273,0.1776253149675713,0.17762775820310228
274,0.17762306468378153,0.1775687026784659
275,0.17761509922697105,0.17795209824192118
276,0.17763644064978348,0.17757659341372556
277,0.1776468989005287,0.1775721260056123
278,0.17761250293488315,0.17760978987250822
279,0.1776155860756608,0.17755199491319076
280,0.17761527459851081,0.17755440272678985
281,0.17762634651266412,0.17751211129076008
282,0.17763249517725907,0.17755029346402837
283,0.17762945866961177,0.1778735063070374
284,0.17761580844958433,0.177559478812643
285,0.17762628934985633,0.17774610636548538
286,0.1776370677968962,0.17752986753560843
287,0.1776323770995525,0.17757037031481185
288,0.17761542257978666,0.1775615697854508
289,0.17761814820585395,0.17768075609404738
290,0.17762825907253438,0.1775529412839388
291,0.17758623639837826,0.177525833307897
292,0.17762249214448136,0.1775400247762969
293,0.17763199149180564,0.17752155475759468
294,0.17761631239708855,0.17757625996643103
295,0.17761725297482084,0.17750737623803337
296,0.17763678506790972,0.17756251610915494
297,0.17762529216915202,0.1775360272663639
298,0.17763761623943453,0.17750654664205207
299,0.17761097260587794,0.177572116949658
300,0.1776006951284923,0.17756293942209483
301,0.1776123341563032,0.17753300822289234
302,0.17763953121136322,0.17770090261687418
303,0.17762696810310882,0.17761936947268206
304,0.17765201903957067,0.17765533237261572
305,0.17762136821457142,0.17754322896110983
306,0.1775992944372072,0.177560155539411
307,0.1776354122254774,0.17756448789619514
308,0.17763069750879595,0.17803695473317188
309,0.17760475612968374,0.17755675847453212
310,0.1776385709500427,0.1775317538438487
311,0.17763413011813337,0.17764068049714615
312,0.17766814467480047,0.1776155248790062
313,0.17762309883376487,0.17744794472663913
314,0.17761918759460357,0.17756505677477996
315,0.17762494909105828,0.17753669304365988
316,0.17760822514025904,0.1775116861783903
317,0.17765149995863294,0.17763167118687467
318,0.17761245045921117,0.17753036491919805
319,0.17764175604049154,0.17762749884997941
320,0.17763975565191462,0.17760214872875832
321,0.17760610751372924,0.1777602758173314
322,0.17764067072733986,0.1775712563987783
323,0.17761601055030532,0.1775330644874189
324,0.17759950503671199,0.17754850932341817
325,0.17760834874485512,0.17754552443383148
326,0.17761462139521095,0.1775434490913656
327,0.1775783175270525,0.1778248798781337
328,0.17764298502894804,0.1777781043451606
329,0.17761557004291662,0.17768024283313524
330,0.17761403586057356,0.17768368024993525
331,0.17763565081081611,0.17754306336651662
332,0.17760920942091732,0.17768907579927815
333,0.1776016790458529,0.17761321524606508
334,0.17762438036340603,0.17760815953022868
335,0.1775997189833201,0.17757326997257916
336,0.17762625970238213,0.177487439048883
337,0.1776399240314627,0.17751533410496476
338,0.17759898649178726,0.17751311741904566
339,0.17763265007905824,0.17755368355464635
340,0.17762567987926095,0.17754342567525516
341,0.17759589965251996,0.17784972299528384
342,0.17763755824282873,0.17752215784886924
343,0.17766873794589205,0.17751976860585697
344,0.1776397778607196,0.17750592383937563
345,0.1776162074457446,0.1782917182748489
346,0.17760145367025662,0.17758686991074749
347,0.17760636722393555,0.17752595405787489
348,0.17764869377576856,0.17758151747715595
349,0.17763471752881624,0.17757567900932014
350,0.17760463132203627,0.1775693828982449
351,0.1776384356841862,0.1775112252303156
352,0.1776351603410608,0.1775684342223448
353,0.17765762278740163,0.17756538023700277
354,0.17761597911612118,0.17750554561803167
355,0.17762338243823925,0.1774976365238828
356,0.1776297523332633,0.1777762324794033
357,0.17764104019513996,0.17757660691533017
358,0.17760376713211112,0.1776716275392034
359,0.17763754072711527,0.17798002246523242
360,0.17763289002825222,0.17766357948908018
361,0.17764527739571342,0.17752734194755931
362,0.1775995536947803,0.17765945591320648
363,0.17761271773911208,0.17772510062076957
364,0.1776370833114945,0.17750675424686452
365,0.17760675498764578,0.17764362999794514
366,0.17759909122277032,0.17750357659482166
367,0.17762108122130377,0.17753851721864472
368,0.17764079188414328,0.1775930439898981
369,0.17759297317642864,0.17765814633988544
370,0.17759888698395304,0.1775563238475298
371,0.1776209635426291,0.1778660070947897
372,0.17762473231549267,0.1776326333408574
373,0.17761561234625314,0.1776177472807614
374,0.17763468385528888,0.17755764150064388
375,0.1776212837091453,0.17756884384550442
376,0.17759774529414593,0.17754280858841484
377,0.17761021948975625,0.17763666226436703
378,0.17762520116010158,0.1775644794988557
379,0.1776259882534913,0.17757512506717946
380,0.1776186577457604,0.17769292737897588
381,0.17762768172698437,0.17756174783492146
382,0.1776365343805888,0.17771699605913924
383,0.17760805227606893,0.17748901177412332
384,0.1776178628801823,0.1775887141617246
385,0.17763832268669166,0.1775414621797056
386,0.1776268327121826,0.177675817000085
387,0.17760324447179773,0.177670460214931
388,0.17761785918169265,0.1775598366874922
389,0.17760787675563666,0.1775596951676243
390,0.1776266907640308,0.1775851276980297
391,0.1776260241842289,0.17765821147219063
392,0.17761447708860195,0.17749302540835943
393,0.17761422422745055,0.17753484020716767
394,0.1776228791041721,0.1775443141467005
395,0.17762206733631764,0.17751762450870417
396,0.17761992031840873,0.17757382629043772
397,0.1776258274019479,0.17758440116351293
398,0.17760287297310398,0.1777755529652831
399,0.17760457948362418,0.1775660798859201
400,0.1776567805561421,0.17761366462133585
401,0.17760575936733486,0.17753040160169353
402,0.17763564939931523,0.177531339645668
403,0.17761129707240944,0.1775971564163631
404,0.1776115099053017,0.1777648987055954
405,0.17761645856187594,0.17765556452259268
406,0.17762177765107365,0.1775650735459369
407,0.17762816158368241,0.17756736184446098
408,0.17758540647755042,0.17752091097333061
409,0.1776116187814519,0.17767538917092893
410,0.1776306136465854,0.17752313214018295
411,0.17762306885872717,0.17780357579264758
412,0.17763110961345174,0.1775882070518048
413,0.17761742707779654,0.1775824326225031
414,0.1776171054342668,0.17767447498998212
415,0.17761171697903214,0.17751772971066698
416,0.1776210728833239,0.1777134974499622
417,0.1776115835773097,0.1777098131701997
418,0.17760970538778367,0.17759185129719263
419,0.17759581058502769,0.17754411378665147
420,0.1776165339312584,0.1774936818944815
421,0.17759891901966288,0.17753419888094832
422,0.17761855320535974,0.17750694978491188
423,0.1776223521081092,0.17779806258646447
424,0.17763229335050026,0.17753050042920537
425,0.1776311260154493,0.17748694839257373
426,0.17761600248628764,0.17752755904348233
427,0.1776292468372771,0.17749402698514588
428,0.17760244987422613,0.17756785083071114
429,0.17760802037734016,0.17755105973889532
430,0.17762403438488641,0.1775205662002127
431,0.17763348848675842,0.17750434362239131
432,0.17762938752282056,0.1775099421309597
433,0.17760365433711037,0.17757985686211483
434,0.17759993378754904,0.17751348725481117
435,0.17761567472029838,0.17758435650707327
436,0.17760605432932897,0.17751082733285267
437,0.17762654380117962,0.17769083975804728
438,0.17762182864377635,0.17765776723646798
439,0.17760419018929907,0.17746105242076593
440,0.17761251851499416,0.17758256164044964
441,0.17762939381203968,0.17773701772740627
442,0.17761447708264624,0.17754471223233906
443,0.17763637709650967,0.1777889361015529
444,0.17761085621363443,0.1775402202908223
445,0.17763422553440172,0.17756767862644737
446,0.17761996177008016,0.17749887867150763
447,0.17762001258411186,0.17759085008499653
448,0.177624954236783,0.17750120043001874
449,0.1776123264317604,0.17755227149614877
450,0.17761404118496926,0.17765969330858036
451,0.1776268202111685,0.17753518176953814
452,0.17759455633249213,0.1777236125745826
453,0.17762127467434852,0.17749848337322122
454,0.17762257981238413,0.17752483247205228
455,0.17761803765019638,0.17748141846227758
456,0.17762690088112387,0.1776510820721865
457,0.17760854151895006,0.17751093985014482
458,0.17762886070542866,0.17765602097797317
459,0.177608162444606,0.17766234110496884
460,0.1776086620623164,0.17753602851302772
461,0.17763404097917268,0.17750272881636586
462,0.17764684579950824,0.17755804739557296
463,0.17760699772410732,0.17758412463935982
464,0.17763473829634183,0.1775395063640757
465,0.1776312788267978,0.17748982569271876
466,0.17760670063592832,0.17751691835596511
467,0.17765172982482696,0.17763355950624243
468,0.1775948849144123,0.1776102563364824
469,0.17763112859426738,0.17747956817791796
470,0.1776417450284024,0.1775542581137843
471,0.17760536406370853,0.17763915685047385
472,0.17761971537086318,0.17762492430097207
473,0.1776143055763557,0.17752411501701176
474,0.17762226904396244,0.17800501534669722
475,0.17760961302083364,0.1775502153240797
476,0.1776162434658177,0.17754324455616882
477,0.17762401149713164,0.1775928266469945
478,0.177603131915025,0.1779017537926348
479,0.17760490095443862,0.17763826772041366
480,0.17762163320748353,0.177563062324332
481,0.17763797135995352,0.17751417523683669
482,0.17760009079766598,0.17781505208600668
483,0.1776185994215911,0.17756040931782952
484,0.17761928432112595,0.17799626645979771
485,0.17760628700065764,0.1774692618315297
486,0.17762299011841856,0.17758059277013238
487,0.1776421566685136,0.17753966738364785
488,0.17765046719857733,0.17756408829339018
489,0.17759421128901742,0.17753350370120324
490,0.177630534405998,0.17758480391826043
491,0.1776290022605043,0.17791370635862508
492,0.17761600827522797,0.17754202494258098
493,0.1776080702146371,0.17754784024128692
494,0.1775966996042658,0.1775302581765469
495,0.17763378122727647,0.1775436757254431
496,0.17761275093022771,0.17755113271577394
497,0.17763959981507058,0.1775056868321141
498,0.1776122244106208,0.17750985501738356
499,0.1776226122709487,0.1776578904444906
500,0.17762620235494764,0.17755461140185147
