epoch,loss,val_loss
0,0.11274718676024256,0.08744615388123628
1,0.08164283197641206,0.07991189009720279
2,0.07430622965890989,0.07082159883774836
3,0.06798364195426762,0.06817181894264505
4,0.06488556560046149,0.06340567986145801
5,0.06355353530599744,0.06321590969861293
6,0.06285943287092313,0.06156821350379854
7,0.06158152968746479,0.06306638035082048
8,0.06049490496326909,0.061261119968985804
9,0.060069812830535634,0.061263558516283484
10,0.05933090897457417,0.05998062814583553
11,0.0584632549692995,0.05872433351597774
12,0.05721056421360361,0.057432684598134706
13,0.05633603897177877,0.05677742332811687
14,0.05552594184341945,0.05660379444694992
15,0.054816081983326534,0.05479874958841144
16,0.05437468240821138,0.05550228230488803
17,0.05392436900840289,0.05409348832984125
18,0.05339178027025648,0.05332841197070354
19,0.052896392256281025,0.05432891832391914
20,0.05250405604866642,0.05398540148701029
21,0.05211799007203809,0.05203388881853437
22,0.05186366117682443,0.05256215642314987
23,0.0517922528065414,0.052330626737760844
24,0.051521376538158706,0.05161384878213293
25,0.05113993735144827,0.051260530318205176
26,0.05103653149894234,0.05090556675498894
27,0.050843829126949874,0.05140885309531139
28,0.05075989477969935,0.05084136014540793
29,0.05055066087196411,0.05019846448660932
30,0.05057885343360832,0.051230927702806725
31,0.05022020594652797,0.05101621229728457
32,0.050196923598467856,0.051288130158378235
33,0.05001935256294474,0.051687274876954244
34,0.049798457462076486,0.0513045537615976
35,0.049596712609538775,0.0496523325518698
36,0.049490781234903254,0.05070147764298224
37,0.04932048829961801,0.05059823467033377
38,0.04926552315463103,0.0496560323345602
39,0.0490724723444701,0.04978799872451621
40,0.04896893155595545,0.04916668827680145
41,0.049102518175202704,0.04888458193716577
42,0.04888006625022199,0.05110694245982998
43,0.04876230354501264,0.049461226163445865
44,0.04873411322152043,0.04940827732568343
45,0.048723277383878744,0.050196780883718664
46,0.04868683851773666,0.04899560799521785
47,0.04856809914845504,0.04947122428612437
48,0.04849158522919004,0.050299803252625404
49,0.0483573598614164,0.048606318536748364
50,0.04823447935248377,0.04999608565537864
51,0.04816886514760135,0.04840501588272397
52,0.04807003189720224,0.0497053621664976
53,0.04786997118901956,0.0478159828143883
54,0.047796522941352046,0.04961775054337073
55,0.047761207617902826,0.049085878858125535
56,0.047624368590355556,0.047999279792640105
57,0.047556047348264394,0.04751067854482542
58,0.04757172604860215,0.047738359850038665
59,0.04737726985052731,0.04780247134177324
60,0.0472662843386867,0.04749079370875808
61,0.04721800350489418,0.04820670384368293
62,0.04709442448970843,0.04823681495843395
63,0.047113577097473304,0.048128811972534685
64,0.04703810450622268,0.04839771161452121
65,0.04699583965921883,0.04743991469959763
66,0.04679143699503665,0.04750971870113247
67,0.04669222363361325,0.04719377716554897
68,0.04664716262781673,0.047501020338709836
69,0.046510574124969714,0.04652153624605304
70,0.04633278494641356,0.04693622008224871
71,0.046357289249198796,0.046733171768283135
72,0.04621596819930214,0.04686011311692872
73,0.0461635648242574,0.04715853398919993
74,0.04603953879656953,0.04671734859311847
75,0.045923436852851766,0.04616526551267349
76,0.045828473434690126,0.045772114061466224
77,0.0458184831625145,0.04621660726389873
78,0.045758684875215776,0.04708428827689836
79,0.04564127742700274,0.046180633692158655
80,0.045635081794904164,0.04638876431337361
81,0.045547665583637306,0.04620922822181699
82,0.045523314575874885,0.04583329096362549
83,0.04543625161593478,0.045987444786960374
84,0.04536359557039557,0.045386551483245406
85,0.0452689895340375,0.04562918268347496
86,0.04538113747429895,0.045278847223106156
87,0.045270649323988596,0.04548472339846656
88,0.04520240130400882,0.04548484816148914
89,0.04518354053623827,0.04587489887147624
90,0.045026056254566446,0.04552526113671937
91,0.04494269313276787,0.04583143035398228
92,0.04490353693511093,0.045498300870654006
93,0.04491288496218074,0.04478669752073347
94,0.04480124261499467,0.04529453499737212
95,0.044789960119675634,0.04574277780709728
96,0.044627298812414624,0.04501063257603728
97,0.04458520165272666,0.044653631767105524
98,0.044507645656454944,0.04518686601563955
99,0.044467851196953935,0.045507121097213284
100,0.0443975706418543,0.04470255637435108
101,0.044311972205292684,0.04452926475674875
102,0.04433776785695322,0.045711718009733976
103,0.04426810621115447,0.04466099729276177
104,0.04410720564580489,0.04426902800465636
105,0.04413421880995405,0.04405713150689087
106,0.04395887666958714,0.04448283755638759
107,0.04407248269281489,0.04452764284115276
108,0.04398140712429293,0.043792809886169196
109,0.04384653590005955,0.04442224992120236
110,0.04389894109251507,0.04456883617133715
111,0.043899482426975424,0.04371923113394316
112,0.04378824868353337,0.044234067107326636
113,0.0437860183005733,0.04505849172067702
114,0.04370277487260198,0.043974191453261646
115,0.0436809098624136,0.04434301374346092
116,0.04365415579747753,0.04419577778421028
117,0.04364998491902945,0.043781008499283944
118,0.043609054504279335,0.04417585479488444
119,0.04361099680426106,0.04493146058606451
120,0.04353014264802568,0.043735402519294704
121,0.04346794316060271,0.04501106540855048
122,0.04344911961497084,0.044009685115172316
123,0.043427120393534274,0.04442472701369977
124,0.04344476458939518,0.044124451150225646
125,0.04338448767982013,0.04380747956910145
126,0.043375248354552934,0.04367998999083604
127,0.04331967242201517,0.04396348316638404
128,0.043410737991770414,0.043912123992262644
129,0.04333967934312857,0.0450974625297279
130,0.043256670457114295,0.044289824771452185
131,0.04324442215051945,0.04411293191664272
132,0.04328034336876347,0.043481906300073224
133,0.04326811281822218,0.04438839016422148
134,0.04323460249398705,0.04414849047255575
135,0.04321614555062324,0.04361833831290749
136,0.04319916679718442,0.044334480157191346
137,0.04314291903333273,0.043986016685702366
138,0.04316109278511838,0.04395390045332258
139,0.04309353598730317,0.04423215402378042
140,0.04309182523215054,0.043526764565306915
141,0.04306736644243309,0.04442464143370576
142,0.043069020034216206,0.04425694178558757
143,0.04303170751253581,0.04356071284368967
144,0.043082029367612254,0.04329179040995188
145,0.04301226510197463,0.04373067702275352
146,0.042956372267730907,0.04393411245816399
147,0.04293483803868002,0.04326086940414852
148,0.042964465309350705,0.04325620612457727
149,0.042979403796438796,0.04440944910086414
150,0.04291341988687646,0.04343412027835254
151,0.04295326278533216,0.043048888818353934
152,0.042932683161735374,0.044124979775389726
153,0.042900510906202505,0.044191822182229966
154,0.04289374678455454,0.04413422552623761
155,0.042842050646069316,0.04451714129956721
156,0.04289931473141707,0.044600747825194235
157,0.04282064750517267,0.04307445386429282
158,0.0427509955221245,0.04333365295387379
159,0.042851668917606715,0.04345905628822577
160,0.04285091229256526,0.043175056911357874
161,0.042727780316800384,0.04400553721056387
162,0.04289478529701935,0.04325441334664674
163,0.042803617286070156,0.04306264878816847
164,0.04280918225806447,0.04440032928516492
165,0.04275141689154863,0.04389955878405654
166,0.04274993313308842,0.04331535991124125
167,0.04278707211597492,0.043326350066709166
168,0.042685311741267024,0.04318659856323864
169,0.042667143501615365,0.04312005659782561
170,0.04263785442401018,0.045176001593803354
171,0.04263518726135016,0.04405188045600804
