epoch,loss,val_loss
0,0.11065099187298538,0.09246566964142376
1,0.084260014595877,0.08029455338459157
2,0.07554239935040895,0.07104239251566288
3,0.06908077295750328,0.06679417929119863
4,0.06480942419844322,0.06290538568354719
5,0.06227576636501996,0.06149595737937958
6,0.0605869306472106,0.06029890610399672
7,0.058717950466337494,0.05852826677688002
8,0.057226396758654166,0.05750543347955046
9,0.05578277117336483,0.05485969593854755
10,0.05482711743807605,0.05597687346061169
11,0.054440104947669654,0.05517914088503007
12,0.05388667921008105,0.0540204340300844
13,0.0535631353322678,0.05285479959571924
14,0.05301308920420733,0.05376530361937234
15,0.05279049351869585,0.05594205774607197
16,0.05235004433834402,0.05222257307127451
17,0.051996055836734646,0.05314260527639472
18,0.05163045700859027,0.05329518875768108
19,0.051234550651040246,0.05190485398060926
20,0.051013319366350424,0.05110538894721947
21,0.050824879888255375,0.05169612564165006
22,0.05054409906908648,0.050752103117943995
23,0.05028028447395498,0.04954263322591486
24,0.05015640627424239,0.05170326357887637
25,0.049899702373521274,0.050467449914728735
26,0.04974824609924537,0.049893284637120464
27,0.04963944019576391,0.05171900787032568
28,0.04944561690496756,0.05219612544028102
29,0.04921172043185287,0.04915134981829239
30,0.049078796725058584,0.04998532739414766
31,0.049034311616918576,0.04967572682400791
32,0.048842253711273424,0.04909177088079322
33,0.04869208645340655,0.04933313794119778
34,0.04864299948318135,0.05026892502387759
35,0.0484839455327602,0.04830307898945903
36,0.04843063711943753,0.049202123397115445
37,0.04828096536836869,0.04887245286709026
38,0.04827263459896141,0.048039607618641914
39,0.048155539835181775,0.04945157978582027
40,0.04807184599113667,0.048533274299897275
41,0.047992286417824145,0.04809708415204775
42,0.047969225206547846,0.04790643916162604
43,0.04778388587455257,0.048272039179248785
44,0.04778400171968721,0.04804993535463627
45,0.04764091190520091,0.04845975073558225
46,0.047584175137847746,0.04935917710843808
47,0.047531531726090835,0.04738672315408811
48,0.047326279943511254,0.048929894591679346
49,0.04720533311089367,0.04903614900396125
50,0.04715320591573077,0.04916397841374572
51,0.046917202179980244,0.04712297745030512
52,0.04697963463276393,0.048010981833520656
53,0.04685616636589686,0.04909868836772649
54,0.04676622583329409,0.04710025122162722
55,0.04660573668684368,0.046780599015891995
56,0.04660051667337355,0.04616536422269812
57,0.046566693295484136,0.04592441664292262
58,0.046481723324925894,0.04700040065916833
59,0.04643255052038558,0.04824252607619792
60,0.046157983211119524,0.04777749813076285
61,0.04617632234551168,0.0482569049979114
62,0.046124885464621436,0.04684772586297457
63,0.04603035453594522,0.04580383432229459
64,0.046014091376601694,0.046548839290591684
65,0.04585252163870815,0.04747612641444869
66,0.04575140851064638,0.04615351273389372
67,0.04584548886982173,0.046721190948122486
68,0.04578289383082738,0.0456969269174648
69,0.045647649376074045,0.045432466063324926
70,0.04562497357048596,0.046458318202800254
71,0.04577203197901334,0.04765630329476101
72,0.04557788394368562,0.045651337778006236
73,0.045469909118446596,0.04890378481585985
74,0.045407749407190695,0.04559824339694184
75,0.045400384724310947,0.045654358999530964
76,0.04522758427986115,0.04596358221532689
77,0.045186241894254006,0.04526238566444766
78,0.045104412268774506,0.045759677681748386
79,0.04505844894620652,0.04524702180925729
80,0.04499193766079398,0.04530620368627401
81,0.04485032073441999,0.04720622232511972
82,0.04479212809861234,0.04655613222947488
83,0.044924986082413416,0.04530283382379683
84,0.044811955765551345,0.045599794400758835
85,0.04479205824477255,0.04617070223091554
86,0.04472311310027079,0.04539503149373952
87,0.044671208038477475,0.045714962079418504
88,0.044581348711691275,0.044974698834398544
89,0.04457163543642625,0.045407189854025545
90,0.04439196426764692,0.04479189603300603
91,0.04443277098709103,0.04566372419446337
92,0.04442351475368658,0.045346959576787194
93,0.04432948257975907,0.04426380842184606
94,0.04423081256120183,0.044397803523552326
95,0.044350006392728035,0.04764846082471736
96,0.044142320424780175,0.045488414985518304
97,0.04412889995089199,0.04469534770467737
98,0.044032601983730046,0.04465745777890049
99,0.04400800781389362,0.044305973202359884
100,0.043955960522389204,0.044725140607534505
101,0.04386140970015696,0.04461553193647276
102,0.0438463441199595,0.04567548165250357
103,0.04381779729391132,0.045137645829256355
104,0.04380413505821772,0.044493938603486965
105,0.043720655022693504,0.04410846596283297
106,0.04368710148028891,0.04509757421633446
107,0.04363417118343853,0.04438535089121563
108,0.043608809768567104,0.044570890237246794
109,0.04356695726585646,0.0447023676139841
110,0.04355828045705785,0.04403438542786958
111,0.04355170810094126,0.043924169719367114
112,0.04354136658601723,0.043845901869366835
113,0.04343783841165373,0.04387223627926694
114,0.04354200972811927,0.044142939606981894
115,0.04340118525302004,0.04435318090003122
116,0.04329788846865345,0.04448451789525839
117,0.04345511176716868,0.04556414728092201
118,0.04339278184622023,0.04457586242750324
119,0.04346981035985412,0.043752506247747035
120,0.043194101376827804,0.04342073089727397
121,0.0432989552514131,0.04456667619070995
122,0.043297004823000876,0.04393952023746358
123,0.04323322846448233,0.044088572627927175
124,0.04321789247024389,0.044371043541295355
125,0.04324908742418342,0.0443378154142175
126,0.04333908129532517,0.04348951199325379
127,0.043206600034999786,0.043587439760528784
128,0.04314306916744714,0.04389460823745941
129,0.04307651930799235,0.04515333051606089
130,0.04318316588095327,0.04452249506308186
131,0.04305905135061577,0.04335491044756497
132,0.04306665507702373,0.0446016249008865
133,0.043067384064262616,0.043502910008131716
134,0.04300048340175718,0.04338031756522934
135,0.04306725598001532,0.04329868387384687
136,0.04305740359421364,0.04512565208427959
137,0.04300601884608921,0.04407092090095243
138,0.0429934392015921,0.0431965078224911
139,0.04292871654997017,0.04304480252801337
140,0.042943638985834906,0.04343915794682562
141,0.042844512818395214,0.044278516513168366
142,0.04298123166175993,0.045172911908283424
143,0.04282749878402522,0.04353976777521316
144,0.04279207103890628,0.0448996324785442
145,0.04287549161384547,0.044938996707831066
146,0.04280143186885438,0.043374716937911714
147,0.04280691330771788,0.045085369753038916
148,0.04282760135135773,0.04370942365738653
149,0.042808006017287153,0.04448377319216432
150,0.042729405298698134,0.04503018883410518
151,0.042805922244425636,0.044305784484514825
152,0.042710155423293455,0.043981931454712346
153,0.04267656982813833,0.043538936364369715
154,0.04268792308255143,0.04334459992925228
155,0.04262131611060654,0.043748457846289536
156,0.04264599695096523,0.044626864395277674
157,0.042678406518104776,0.04316256368537399
158,0.04259256142754874,0.04397138267126924
159,0.042613841668302815,0.043673335424354
