epoch,loss,val_loss
0,0.10651110118001535,0.09263110821211604
1,0.08352865637006607,0.08091655754791596
2,0.07442426786935578,0.07082180152681862
3,0.06692512675991028,0.06459074426377677
4,0.06315916559029275,0.06270261320005871
5,0.060794735066827865,0.06054004369206523
6,0.059901565362345185,0.059316221874198015
7,0.05907395983166384,0.0592978536731404
8,0.05855313961781483,0.05981944112601706
9,0.05841923460582847,0.058222399576204294
10,0.05808234936363276,0.06165387941057569
11,0.05770982836188799,0.05730510644300404
12,0.057373152065629866,0.059484653648164666
13,0.05711677978457056,0.0565179023124444
14,0.05673604780545485,0.05745037198806223
15,0.0565980232667724,0.056653682678642105
16,0.05624055727517421,0.05562235633877312
17,0.05597847568848152,0.05650861434841866
18,0.05560336388456561,0.05578508970348474
19,0.05557169777362227,0.055564708950427866
20,0.05530378663809942,0.055657675914078136
21,0.05496967972338368,0.05523807893393945
22,0.054753828332201035,0.05485335560908389
23,0.054303127840855295,0.05510619185476682
24,0.054181596533751195,0.05713768200232432
25,0.05399531883800253,0.053619055276177364
26,0.053881596493878144,0.0544187069919062
27,0.053678819586296916,0.05376573475100858
28,0.05353530172214589,0.05593652022128957
29,0.053400422667659056,0.05562315541816409
30,0.053261952089001,0.054791451561687604
31,0.05303797904365091,0.05339907219554887
32,0.05306181864748459,0.05390527582456989
33,0.05292836635906694,0.053645372320493455
34,0.052707356801007195,0.05283499590442435
35,0.0524987895750417,0.0523355122849752
36,0.05241874093965722,0.05269798973284052
37,0.052377785713253994,0.052260179281530546
38,0.052244119985240534,0.05266556458422919
39,0.05212442370932051,0.053066895388196186
40,0.05184712819101829,0.05193967606974003
41,0.05153059706311175,0.05139676559318976
42,0.051358503332253044,0.05144535167045688
43,0.05103845048944629,0.05198870011542926
44,0.05092445525086006,0.05146855381375211
45,0.05081593969412121,0.051281528679593916
46,0.050630099900353095,0.0508972026555621
47,0.05055778260701065,0.05105879333045879
48,0.05048548183005366,0.050807828247251344
49,0.05023566385593377,0.05183098307688242
50,0.050046703536394496,0.05185072962610657
51,0.04999225959364202,0.04973673267895471
52,0.049804293591163264,0.049931245358203244
53,0.04972928671991834,0.05074637183184659
54,0.04973006344666785,0.050082457302226026
55,0.04960872227589381,0.051014398788991694
56,0.04948003057544421,0.04974583836443371
57,0.04935780763021659,0.049709547383169975
58,0.04906232298502971,0.050238242475477694
59,0.049190132886917176,0.05147406948596313
60,0.0489314128538211,0.049662185094270755
61,0.048773218407163824,0.048743824708846306
62,0.048688732207908446,0.049311771110698545
63,0.04859155562693017,0.049139048658292876
64,0.0485196210030529,0.049992513357113966
65,0.04816871416258786,0.049198209853015526
66,0.0481297598734613,0.04861018285155296
67,0.04797182291064493,0.048726543323795495
68,0.04790197760523907,0.04838634580558642
69,0.047631976741177424,0.05028277899395148
70,0.04774714236356581,0.048027802356715235
71,0.04750792317115985,0.0482514867767063
72,0.04739803317319728,0.04856539628382948
73,0.04734034644338329,0.049785295206471056
74,0.04730579496509504,0.04766803581461717
75,0.047223098456019096,0.04709411378275076
76,0.047168168163333794,0.04772931208866406
77,0.0471417945984622,0.04768021682244968
78,0.04699930627309145,0.04700438110874249
79,0.046965737447831446,0.0475781614778947
80,0.04696671259242347,0.0487121486264482
81,0.04687215860457451,0.04775026725887069
82,0.046815907510586126,0.04702475256201055
83,0.04674457201505893,0.0468632229338065
84,0.0467078395968696,0.04693096944549244
85,0.046666822260158246,0.0467505434458664
86,0.04649263603047018,0.04680260638925929
87,0.04650484347754109,0.050959199160411396
88,0.04651509435985619,0.04743808306032612
89,0.04642532626173719,0.04719931603624271
90,0.04647265810345077,0.04779454334350141
91,0.04636978894009475,0.04758593138889698
92,0.04637572200861951,0.04664787827960906
93,0.04627594635061338,0.04648509274419425
94,0.04631728121427563,0.046732449106335935
95,0.04629143369420532,0.0469682741032049
96,0.04621221340298487,0.04718137636928641
97,0.04614415856914203,0.046865322198672565
98,0.046202929226106956,0.04672465865539558
99,0.04620297117359749,0.04728385746922741
100,0.04626894240225409,0.04623555778791532
101,0.04616523480596696,0.04726710416395079
102,0.04605925566159884,0.04686498060156926
103,0.04613662057805272,0.046815179741338225
104,0.046108068095367084,0.0464769823046831
105,0.04600886615617548,0.04658078631899197
106,0.046065861280528364,0.047022333354793173
107,0.04607941436917515,0.04648533860411005
108,0.04592822683231063,0.04615837370158721
109,0.04599620860316351,0.04739221486427056
110,0.04587510791035239,0.04623895687034941
111,0.0458394259559908,0.046324658024104
112,0.04591308114333472,0.046596106653917516
113,0.045786085670953665,0.045968908622454174
114,0.04591421551981822,0.04651297959256409
115,0.045841572304125354,0.04712603321442237
116,0.04574093386472503,0.04671233297503616
117,0.045752891833796695,0.045874388931924595
118,0.04558992207352445,0.046108880158393616
119,0.04576502522947595,0.04602244596549358
120,0.04564539765181176,0.045918482558676976
121,0.045740876173826675,0.0461684820078147
122,0.04569252523874883,0.046210014126806635
123,0.04558439629798246,0.045620368881423776
124,0.04552222917181578,0.045782235534699914
125,0.045498210642699745,0.04630066131613687
126,0.04543273489983863,0.04569411702065847
127,0.045376559024806175,0.045482733705203525
128,0.045352677211221236,0.04575247392613006
129,0.04545518889466319,0.046650204265827576
130,0.04528061207202687,0.045962952632022554
131,0.04529833808139784,0.045703634660385975
132,0.04528664471033712,0.04528515769663283
133,0.04520534190872533,0.04566185030503841
134,0.04518326899008096,0.0453726589772157
135,0.045104642571051345,0.046168564171264546
136,0.04515613599716564,0.046073292996318405
137,0.0451017277246557,0.04587292714834805
138,0.045079972444458154,0.045593231561461986
139,0.04507738578693809,0.04608230702301704
140,0.04516263854894141,0.04544670834545758
141,0.04504069254843848,0.04596336835593207
142,0.04507029662231056,0.04602874176156136
143,0.045024744394384066,0.045884190429528945
144,0.044997286621834526,0.04589157420818327
145,0.04497922151909861,0.045190601276404806
146,0.044978005108307115,0.04633185231582107
147,0.044983822578797655,0.04549298770818166
148,0.044916742521262695,0.04547335386978781
149,0.04485818799909756,0.044988288406846544
150,0.044865112683833815,0.04548170869019132
151,0.04489429117290732,0.04536782983810671
152,0.04486118842992235,0.045236123323662406
153,0.04488504959886359,0.04591110246833737
154,0.04488448903619911,0.045633198903231115
155,0.04483456212995538,0.045066006246852516
156,0.04484053476114594,0.045412753034318354
157,0.04484808000886272,0.04589001622522439
158,0.04474532894516153,0.04503172240763089
159,0.044721165770991854,0.04539893786827329
160,0.044825367880671214,0.04494046236644903
161,0.04473561705527597,0.04556042126035572
162,0.04475094253063877,0.04609165375419053
163,0.04479405814114116,0.04644482527898795
164,0.044734134830100504,0.04555038332051734
165,0.04473032584084476,0.04518595459332537
166,0.044704826959058766,0.04531118292037962
167,0.044703700004240385,0.045156194852022616
168,0.0446799071141449,0.045504792707581676
169,0.04466388216224569,0.04536528918457682
170,0.04461277724815096,0.045342963565113234
171,0.04464609142602357,0.0457075559490224
172,0.04464195575595913,0.04577599709146372
173,0.044605180655830946,0.046162787689908266
174,0.04451537338753746,0.044914716086523705
175,0.04453484619820486,0.046283213178587905
176,0.044539914773701575,0.045001261355933124
177,0.04444499225699503,0.04556945692516734
178,0.04451338090479778,0.04626998697631708
179,0.04451865306811678,0.04475952326216118
180,0.04433397762543955,0.04498403949787835
181,0.044440654083697725,0.04491203494980081
182,0.04437780141810921,0.04591983647707378
183,0.044438221852281454,0.04502770480498782
184,0.04434549854278882,0.04447374824369812
185,0.04431729828094919,0.04587707467580551
186,0.04425553799446025,0.04487848606690875
187,0.04432457307242268,0.04547179627507259
188,0.0443341388315707,0.046359376784959445
189,0.04423814255408129,0.04562183464727094
190,0.044353600625192835,0.045157848684944525
191,0.04435656581117533,0.04701669176777007
192,0.0444278331772904,0.044789793203693466
193,0.044266169485944626,0.045513801690810374
194,0.04428618568362791,0.04488467675247796
195,0.04435183811808118,0.045363229862587624
196,0.04427330830496314,0.045044568889120375
197,0.04423303749160908,0.045199312206829156
198,0.04419432781533477,0.044925402788902925
199,0.0442369288884118,0.04500607609674889
200,0.04416534816237991,0.044644464933251034
201,0.044209637739640574,0.04469915210054471
202,0.044239144114161986,0.045227408056001804
203,0.04420817551897475,0.04630134736300994
204,0.04413553564902258,0.04505896648535362
