epoch,loss,val_loss
0,0.4563288187142443,0.44878999595310787
1,0.4484632427071511,0.44752753862080447
2,0.4478489359440741,0.44776664112992676
3,0.4473097489855654,0.44748662094916064
4,0.44699918222210283,0.44765912667101726
5,0.44675795016706393,0.4464164424918721
6,0.4465997451837331,0.4462445496477501
7,0.4464615986546488,0.44639655872255046
8,0.4463682276323126,0.44623249362479367
9,0.4462934232718437,0.4463614372698308
10,0.4462110412781699,0.4460808265150037
11,0.446155389203624,0.4460255329721323
12,0.4460820971277124,0.446059539211595
13,0.4460688487461045,0.4463648138951427
14,0.4460054370919827,0.44699792137216987
15,0.44596007325904813,0.4459427438805772
16,0.4459631498608458,0.44598635779716833
17,0.44591116467215564,0.4459937243396532
18,0.4458584279376886,0.4459263253596521
19,0.44585480549835566,0.4457904471061366
20,0.44586263722731057,0.44599267103831763
21,0.44583611887071256,0.44574944514494674
22,0.4458126193579142,0.4457839278370216
23,0.4457779874086768,0.446059207111671
24,0.4457771775590328,0.4457507549828986
25,0.4457572155149698,0.4458891364096412
26,0.4457540144266221,0.44587416502441424
27,0.4457198316274632,0.4457089360683195
28,0.44573107859701855,0.44611088873139093
29,0.44571305441780024,0.4465499387189709
30,0.4457075918533761,0.44572793921229265
31,0.44570050875192835,0.44570456913328055
32,0.4456937284741182,0.4461337057887472
33,0.4456667189966561,0.44627073130595774
34,0.44565075203395554,0.44583846014131684
35,0.44567544851342417,0.44566030074881563
36,0.445660099525411,0.4460327287021997
37,0.4456460695456453,0.4455644418376847
38,0.44563388392461145,0.44592581339568715
39,0.4456394575536744,0.44572227471519643
40,0.44564600009169203,0.4456205230049105
41,0.4456268004642469,0.44607463242398304
42,0.44562980174242106,0.44575700699247733
43,0.4456292020184564,0.44572775263348524
44,0.44562809245236884,0.4458375792497441
45,0.44562745790795144,0.44577530637272533
46,0.4456232418107424,0.4455465586250532
47,0.44560322987290374,0.4458463867751895
48,0.4456140158011904,0.44566139436833024
49,0.4456201929110121,0.44578586281381233
50,0.44560411178436693,0.44563641138467247
51,0.44561342420255023,0.44598618716223365
52,0.4455791948491197,0.445526988497443
53,0.4455977450217175,0.44557470668929977
54,0.4455830780178531,0.44551024811143614
55,0.4455743694803644,0.44559289283551295
56,0.4455963235687511,0.44580930203717045
57,0.44557711863091476,0.4456694195051643
58,0.44558488461340884,0.44550564355649075
59,0.44556371641795484,0.4455900110618648
60,0.4455435566020503,0.44553577896974816
61,0.4455377267655444,0.4455298152957897
62,0.44554514940229806,0.44550739702752445
63,0.44553743224984493,0.44555477659696385
64,0.4455303598346523,0.44548809143804735
65,0.44551754769552765,0.4455635598516346
66,0.4455313276909158,0.4454993137206984
67,0.44551923438210334,0.4456628556878632
68,0.445525191499583,0.4456367419612023
69,0.4455182029324854,0.44565377220622365
70,0.44551986514842823,0.44551117507458915
71,0.44550089994178105,0.4455983543366416
72,0.4455061448724594,0.44600826957385536
73,0.4455327024081801,0.4456152860343308
74,0.44549613785952596,0.4456402686334425
75,0.44550234128741606,0.4456800461850746
76,0.4455062676472522,0.44545881406545046
77,0.44551701878624483,0.4458110072772497
78,0.4454861698967419,0.4457737100479325
79,0.4454960985052833,0.445492744209157
80,0.44548422279156413,0.445551872001984
81,0.44550145117095674,0.4454723897554147
82,0.4454919830049634,0.44568590245235057
83,0.4454894333928352,0.4455186996655192
84,0.44547787888087215,0.4455266405128072
85,0.4454956304114965,0.44561174529657765
86,0.4454907808509591,0.4455748974389533
87,0.44548611492922346,0.4456952451328486
88,0.4454844355049943,0.44545309877868916
89,0.4455024574703664,0.4459030366860903
90,0.44548352402470187,0.4455528632582861
91,0.44548577609400253,0.4454192141001633
92,0.4454717247436986,0.44549206641708355
93,0.4454793198837613,0.4454447913998114
94,0.44546198847394475,0.44546998350259387
95,0.4454660897343387,0.44544542189271513
96,0.4454812265050946,0.445482946595838
97,0.44548615656002416,0.44547201822472565
98,0.44546419880516414,0.44547077279824476
99,0.44547843027649064,0.44562407944989263
100,0.4454657678313143,0.44561282627044185
101,0.4455330031205192,0.4455177266603664
102,0.44546214477787865,0.44574291800742705
103,0.4454666388569488,0.445531554730891
104,0.44546354736799165,0.44549323888333797
105,0.44546042375203543,0.4462237567818786
106,0.44545549567193715,0.4454463644151948
107,0.4454750932990819,0.4454443283471517
108,0.44545467998654237,0.4455920585035982
109,0.4454572047375678,0.4454930990416714
110,0.4454591347764483,0.44546284486283144
111,0.445450853263197,0.44554466864015563
