epoch,loss,val_loss
0,0.10234694298569212,0.07900188043528691
1,0.07321428637979469,0.06916230290980256
2,0.0669827823251696,0.06815131289084851
3,0.065154391264999,0.06537148515062947
4,0.06329973895202871,0.062445569570839556
5,0.06176192758893817,0.06309089040009319
6,0.06110912926269372,0.06076202906538772
7,0.060618379034185876,0.06295264107602702
8,0.060245022998767744,0.05931891614834665
9,0.06009948379020758,0.060691695188913986
10,0.05969743483007452,0.059873496299198185
11,0.05928056589893552,0.05921336228846025
12,0.05903996832205246,0.06000318925818498
13,0.05890732127420521,0.059861522813145045
14,0.05874684758015898,0.05916266854917145
15,0.0586207173270209,0.058193954588757556
16,0.0584138400998712,0.05894104254896528
17,0.05809221069824623,0.05887041544315241
18,0.05776051912142748,0.05754998205761164
19,0.05677432444228261,0.05760894811737626
20,0.05601467716285226,0.05717489939025851
21,0.05547739613121222,0.05648443425078842
22,0.05492834316965709,0.05487021278432817
23,0.054317014689427255,0.054289499361520964
24,0.0536118510463853,0.05501807529118753
25,0.05327333663368826,0.05390311716212232
26,0.052945674032008776,0.05254670773487233
27,0.05271609866949314,0.053090017497835325
28,0.05219137216241319,0.054402171374846334
29,0.05203246094832804,0.052989811433603984
30,0.05195908837393217,0.051732998365356074
31,0.051733962552213325,0.05320950491219833
32,0.05152965951885221,0.05145192226723169
33,0.05133520837078131,0.051083731307433204
34,0.051103735775466605,0.05106554752765755
35,0.051038580534276685,0.051116219299750645
36,0.05087197000772821,0.051357794591865825
37,0.05079848524540226,0.05230713650658172
38,0.05074538916305138,0.051569107319078135
39,0.0505977361870058,0.05078081943409023
40,0.050553989409059384,0.0514222756508858
41,0.05048600940449136,0.050649765910345035
42,0.05034942097416724,0.05041756287919676
43,0.05012309985129014,0.050128607708896065
44,0.05007333490781168,0.05027346328344594
45,0.04991461798230012,0.05045727789032252
46,0.04983639315938559,0.05104036956988552
47,0.049738684905366384,0.05028557520239584
48,0.04969708086523593,0.050250788112506085
49,0.0495508287687541,0.05030569598152679
50,0.04935183972225791,0.049991338224919794
51,0.049094108978773955,0.04977242340410022
52,0.049047784901521084,0.04939372868787858
53,0.04892429128647449,0.05050421115889147
54,0.04889241759300909,0.04899345357756757
55,0.04882353473028697,0.04940060466971646
56,0.04875182320101571,0.04968954709453263
57,0.048799087593878666,0.04904772052287168
58,0.04880065177568721,0.04948526399935741
59,0.048693370083795484,0.04939146991772924
60,0.04869043679417834,0.04911245551172912
61,0.04864080443114444,0.04918300659943455
62,0.04867782954602013,0.049420235132239296
63,0.04863158088887437,0.04956900800575985
64,0.04857102320212695,0.04893367714976554
65,0.0485167025601185,0.050475788356796385
66,0.048482643385961297,0.04869475222329052
67,0.048417688861579614,0.04983138626362786
68,0.048352586238999705,0.04926021993530004
69,0.048319921806337124,0.04848079841315894
70,0.048292530230644656,0.050246439376850575
71,0.04828934172144389,0.049874157299548756
72,0.048318142269337526,0.04855782219090917
73,0.048234348568274875,0.04843252682619296
74,0.04814484265178895,0.04907017611429354
75,0.04821371464359621,0.04866108398505535
76,0.048004090613448715,0.048551191106697464
77,0.048039705038449905,0.04843133139255325
78,0.04801907444430235,0.04866543027292706
79,0.04793821122896714,0.0483951808427167
80,0.04793286982337203,0.04812960329075013
81,0.04787596835353015,0.0489618661182542
82,0.0479183646642937,0.049435482434835976
83,0.04784758918644934,0.049047416840534354
84,0.04776107368040266,0.048570201638392714
85,0.047773123729977336,0.04835770396011935
86,0.047766212480488394,0.048281080884022394
87,0.047696168676705585,0.048841176427919276
88,0.04759116433078184,0.04871785479502998
89,0.047544698519349844,0.04870015510517373
90,0.047522206100606895,0.04781435427831361
91,0.047467870775005916,0.04785730318714016
92,0.04737647476042515,0.04772088741028575
93,0.047361464350672164,0.04771821846441359
94,0.047360918028007626,0.04849121912981085
95,0.04729950389090224,0.04759467319208694
96,0.047239596171444624,0.04752759504185125
97,0.04726164133630404,0.04809061160713212
98,0.04726359726546155,0.048454144755124155
99,0.04721808330916031,0.0479896259477949
100,0.04725724722843429,0.04813190469005268
101,0.047123870113171235,0.048130554848214234
102,0.04722984140155038,0.04901091244358283
103,0.04717222456918358,0.04780072584637341
104,0.0471559947571069,0.047942565196649016
105,0.04722525682983898,0.047782602314617735
106,0.047186275359123696,0.04818926417539197
107,0.0471654045347792,0.047803707025187187
108,0.04717178252496774,0.04767014043169933
109,0.047123038384392066,0.04749697230885697
110,0.04701131545964176,0.048144229717793
111,0.04705873780624805,0.04757597176519872
112,0.04702801899492817,0.04773866590251106
113,0.04699111076330964,0.048031378073372856
114,0.047117043896794504,0.04744366263374501
115,0.046901548463555945,0.048014150012663515
116,0.0469168042878571,0.047553618137653055
117,0.04680772819958783,0.04757263847527374
118,0.04674920315381115,0.0473067382262747
119,0.046742345208226684,0.047097270207354804
120,0.04670725202956042,0.04786475520978495
121,0.04672906154588478,0.047068674389097294
122,0.04665071434382403,0.04707005358770231
123,0.046727621249095415,0.047317816350359476
124,0.046641254036235424,0.04774861244424697
125,0.046626990124893054,0.04765925129907894
126,0.046659102182680975,0.047910903246319914
127,0.04663915986819638,0.04780928254238429
128,0.04652872811446527,0.049488866031539645
129,0.046591381243628285,0.04702164882576791
130,0.04669464831283799,0.047321627252081194
131,0.046539358584910186,0.04838548394165027
132,0.046514992626660166,0.04740507281188929
133,0.04653824012172837,0.04726595871205957
134,0.04656553625202339,0.04737615828256749
135,0.0465126339314568,0.04728346631559485
136,0.04657163021114804,0.047342508881544655
137,0.046494203057828414,0.046839860786057584
138,0.04647096981313816,0.04727165043612864
139,0.04648328714865575,0.047128133057956365
140,0.04647099813342499,0.047001615810039324
141,0.046483981037799035,0.046834248560423
142,0.04645801935343899,0.04767862863968087
143,0.046472355492698104,0.04720840349460654
144,0.04641250080803132,0.0471062692570923
145,0.04647756635595875,0.04715008904265411
146,0.046418471224562156,0.047013525324630975
147,0.04640652355556492,0.04742818618974378
148,0.04643331814632598,0.046845823774118875
149,0.04636955343155204,0.04700998138109449
150,0.04637881090948081,0.04791909189474198
151,0.0463470031137587,0.046994293915574664
152,0.046354613788904646,0.046832027201247274
153,0.046217259139983514,0.04723673531272571
154,0.046397956564514266,0.0467479224480855
155,0.046343547906094795,0.047273728574993595
156,0.04628147896598576,0.04717961099396273
157,0.046292596675693305,0.04698636811180387
158,0.046226944733099046,0.04682491623771102
159,0.04621498627004839,0.0467250743608173
160,0.04623669331811213,0.04773253249027593
161,0.04617023743920088,0.047302979204997826
162,0.04622108743420622,0.04659979805239377
163,0.04620539245479702,0.04660073398397519
164,0.04617182362832912,0.04702326373264157
165,0.04621361178918606,0.04775745268569099
166,0.046152510332027614,0.04710482230442333
167,0.04603427103547864,0.04722802148711297
168,0.0461501258745346,0.046816079166923506
169,0.046060088206963064,0.04665413453398508
170,0.04612945622557867,0.046676467455202535
171,0.04606190481654446,0.04658766320673171
172,0.046054059862540304,0.04680424420805486
173,0.04609715301155519,0.046811664483461427
174,0.04603290988768572,0.046455754855504405
175,0.046092356027006426,0.04712225642637639
176,0.046087431171391184,0.04684917166755158
177,0.04604736468395607,0.047440671976239746
178,0.046010599368723565,0.04667281203582033
179,0.04609454234417654,0.047245199580864046
180,0.04594244755600134,0.04737408632232297
181,0.04594906199693852,0.04699993745490871
182,0.04601339407853751,0.04706212318231982
183,0.04600805242781405,0.04663304275377808
184,0.0459533162530443,0.04728686344941556
185,0.04596974255070427,0.04694449706719472
186,0.04596162788895615,0.047261695236559244
187,0.04595978852084414,0.04681441196547844
188,0.04592007412542954,0.046564745481493454
189,0.045929551396077545,0.0466585377975374
190,0.045986050743754565,0.046698150794869914
191,0.04590775590063145,0.046659237983874585
192,0.04593483960295348,0.046696190698714765
193,0.04592036028359322,0.04728714228600781
194,0.045902054791637545,0.04663488683163676
