epoch,loss,val_loss
0,0.45637689307275836,0.44918351824171193
1,0.44894473378546373,0.4477703242088962
2,0.44830012061434965,0.44753045487048904
3,0.3673943420599084,0.33654899823458556
4,0.3366566123820855,0.3359842944381846
5,0.3361717347706013,0.33560166727224594
6,0.3357438375745364,0.3353036813049695
7,0.3355583402821667,0.3363358959814455
8,0.3354255646059779,0.335780830522329
9,0.335428018762799,0.33505182739522854
10,0.33532931805926997,0.33583261426861766
11,0.33520728181507503,0.33504353860767544
12,0.3352779911792344,0.33664224107863
13,0.33515783609181643,0.3352966111439925
14,0.3351262193132003,0.33529310116992694
15,0.3350872172654094,0.33513410829432844
16,0.3350970441738856,0.33506499872018325
17,0.33503959637778014,0.33503244300338236
18,0.3350274561344808,0.3348253519600142
19,0.33501449371688624,0.33495768565989603
20,0.3349706005164098,0.3348389289071483
21,0.3349553101742208,0.3349556095103176
22,0.3349387452990995,0.3354550288273738
23,0.334921811634191,0.3347970188107739
24,0.33491012683818544,0.3348524329975876
25,0.33488859214291244,0.3352478727365546
26,0.3348786735114696,0.3347972206235228
27,0.3348633052255643,0.3349734812161467
28,0.3348298925396196,0.3363001042648817
29,0.33482710187738157,0.33505466654342103
30,0.3348133773867038,0.3348479215323777
31,0.3348110127961932,0.334896365022541
32,0.33478270948041267,0.3357408780613845
33,0.33477903562289363,0.33475107299187046
34,0.3347607628523683,0.3346494170631428
35,0.33474549685026106,0.3347267120115219
36,0.3347534683532557,0.3353519884883322
37,0.33474812534165577,0.33467779807358167
38,0.33471444111029325,0.33470863086118297
39,0.3347453095481413,0.33464100023653015
40,0.3347190053899425,0.3346105831876286
41,0.3347213321494377,0.33522037844504077
42,0.33470957132854035,0.33461156400202524
43,0.3346964905823828,0.3356012305314133
44,0.3346748802057527,0.33494541433549696
45,0.3346973317674368,0.33526341511357216
46,0.3346906909102714,0.3347558368820115
47,0.3346642488424283,0.33457535067503863
48,0.33466437251924613,0.33471275230791075
49,0.33466783456220467,0.3348977474805439
50,0.33466365212942073,0.3346090839607248
51,0.3346533669989477,0.33473719001999563
52,0.334654905917499,0.3347213159128099
53,0.3346561625566533,0.33459952770924156
54,0.33461609141478693,0.33513437033291194
55,0.3346626638275201,0.33466663684501835
56,0.3346298246042672,0.3348241903350016
57,0.33464838909527944,0.3346834630587556
58,0.3346240695758857,0.3345497799570448
59,0.3346198300974155,0.3351085718748883
60,0.33464341512194756,0.33496611539838334
61,0.33461874623134946,0.33464852939764267
62,0.33462373172630555,0.3346917167342922
63,0.3346128401964096,0.33462513061078547
64,0.33462472395696485,0.33457514513515063
65,0.33460929634368786,0.33481568342107104
66,0.334608842528874,0.3345395630997405
67,0.3346057618373967,0.3346048804873568
68,0.3346017869859269,0.3348004543455895
69,0.3346057659767725,0.33477768498673927
70,0.33458524985862503,0.33456363055309646
71,0.3346150991813667,0.33459043455478865
72,0.3346066238739399,0.3346589895838839
73,0.33460872839569367,0.3345703747520967
74,0.3345852495415161,0.3346577722144778
75,0.3345965704250591,0.3349535356088548
76,0.3345930632402257,0.3346078560606717
77,0.33460260341794756,0.33515633270699097
78,0.33456268568777664,0.33476270253841695
79,0.33459944605789466,0.334630529460481
80,0.3345562273962123,0.33450177777789664
81,0.33458996800749,0.3348923880911938
82,0.3345879952918227,0.33461289879110256
83,0.334603528674335,0.33455069390479153
84,0.33457046550473896,0.3347272714225589
85,0.3345953253110786,0.3346605161727214
86,0.3345751773362736,0.3345463020482075
87,0.3345662529824992,0.33479898379695033
88,0.3345853520438196,0.33456140811330926
89,0.3345751967836487,0.335990712852691
90,0.3345938750915212,0.3345314190642118
91,0.33457896363927514,0.3346297919010702
92,0.3345941792470952,0.33456930850930605
93,0.3345714109503944,0.3345746828959538
94,0.33457227867517747,0.33452241800854876
95,0.3345646665165416,0.33460034952861795
96,0.33457514897632357,0.3345877485003128
97,0.3345572692540234,0.3345636538477157
98,0.3345593592191367,0.33459596690114024
99,0.33455729772717036,0.33454255918711057
100,0.33455588429382543,0.3345395234027512
