epoch,loss,val_loss
0,0.10670281971618534,0.04884892588108778
1,0.048849962402135134,0.049502546697855
2,0.04870945613458753,0.048778906606137755
3,0.04863339152932167,0.048428780496120455
4,0.0486301584802568,0.04849506917595863
5,0.048582091208547354,0.04842865311354399
6,0.048565768666565416,0.04990445041656494
7,0.04849843907728791,0.048652688428759576
8,0.048514858346432446,0.04864829071611166
9,0.04850827529653907,0.04893712306022644
10,0.048468680646270516,0.048368812084198
11,0.04845698978379369,0.048334583587944506
12,0.048418209493160246,0.04835736069083214
13,0.04843542695045471,0.04877884466946125
14,0.04841283424198627,0.04820095010846853
15,0.04838583897054195,0.04801712733507156
16,0.0483828379586339,0.048223242081701756
17,0.048374086789786816,0.04796297653019428
18,0.048315753880888226,0.04845157789438963
19,0.04831117844209075,0.048185418710112574
20,0.04837405867874622,0.048273466967046263
21,0.04824176333844662,0.04797144580632448
22,0.048341392509639265,0.048260546416044235
23,0.048224150907248256,0.048210123643279076
24,0.04829878814145923,0.048015235535800456
25,0.048221526049077514,0.04808327726274729
26,0.04823910845816135,0.047791697651147845
27,0.04820988619700074,0.04833833300322294
28,0.048222951531410214,0.04850578621029854
29,0.048223352685570715,0.04840795234590769
30,0.04821510379016399,0.04785668886452913
31,0.048185585208237174,0.04804455593973398
32,0.04820040214806795,0.048321022301912306
33,0.048177970577031375,0.04824393419921398
34,0.048172253865748645,0.048062243074178695
35,0.04816539528220892,0.04883719974011183
36,0.04821564798429608,0.047965581081807616
37,0.04815031274780631,0.047892634689807895
38,0.04817519925534725,0.04793076261132956
39,0.0481402951925993,0.04816826739162207
40,0.04815847570076585,0.04858016108721495
41,0.048184007924050094,0.047864231027662754
42,0.04814979090169072,0.04903772154450416
43,0.04813732030615211,0.04815766124427318
44,0.04812070677056909,0.04779161638021469
45,0.04812336194887757,0.04786003605276346
46,0.04808940447866917,0.047819055184721945
47,0.048147690303623675,0.04825975054502487
48,0.048092463694512845,0.04792134476453066
49,0.04814137162640691,0.048472737275063994
50,0.048077237397432325,0.0481821651160717
51,0.048113960653543474,0.04780613481253385
52,0.04811574140563607,0.048130023926496505
53,0.04810805641114712,0.04796212191879749
54,0.04808645990863442,0.048209217563271525
55,0.04810914946720004,0.047801900088787076
56,0.048099627323448656,0.04779317999631166
57,0.04809670469909906,0.04819658810645342
58,0.048110260028392075,0.04786134880036116
59,0.04807226460799575,0.04794066335260868
60,0.04807704091817141,0.04830322743952274
61,0.048088938031345604,0.04784759920090437
62,0.04808431303873658,0.04892812520265579
63,0.04805406319350004,0.04800673896819353
64,0.04810076268389821,0.047862342663109306
65,0.04807687497884035,0.047840199746191504
66,0.04804874034225941,0.04802739506959915
67,0.048092127349227666,0.047789780534803865
68,0.04805311616510153,0.047984552882611754
69,0.048068347696214916,0.04818377590924501
70,0.04806264690682292,0.047904975078999996
71,0.04808943830803037,0.04778688178211451
72,0.04809109846875072,0.04818791973590851
73,0.04803939571604133,0.048065816156566146
74,0.048059438183903694,0.04820022404193878
75,0.04803989489376545,0.04789986774325371
76,0.04810375094041228,0.04810644531995058
77,0.04804617017135024,0.047966419599950315
78,0.04805882089585066,0.04802081077545881
79,0.04803945627808571,0.0479588697180152
80,0.04808109974488616,0.04790537692606449
81,0.04802501686662435,0.047924688398838046
82,0.04804467284306884,0.04793644259870052
83,0.04803084912151098,0.04792954804003239
84,0.04805002337321639,0.048048329159617424
85,0.048068746022880075,0.047796394884586334
86,0.04804387990757823,0.04837181869149208
87,0.04804942870885134,0.047809632599353794
88,0.048041200049221515,0.04774921584129334
89,0.048033612851053474,0.04804897980391979
90,0.048046040553599595,0.04794487595558167
91,0.04802875116094947,0.04835044376552105
92,0.04803508915752173,0.049435723342001435
93,0.04802875864133239,0.047964896015822885
94,0.04805124004557729,0.04779573031514883
95,0.048056195102632045,0.047969549380242824
96,0.0480163340754807,0.04783364702016115
97,0.04806584553048015,0.047838757276535034
98,0.048013896949589255,0.04828746340423822
99,0.048052436858415606,0.04795538517087698
100,0.048027596063911916,0.047860801212489604
101,0.04803395594656468,0.04772682693600654
102,0.04804225829616189,0.04785836910456419
103,0.04801742040738463,0.04813359881192446
104,0.048024357937276364,0.04792151030898094
105,0.048038556858897206,0.0479425286501646
106,0.04804883993044495,0.04782728608697653
107,0.048023625653237104,0.0478494109660387
108,0.04803220408782363,0.04781102479249239
109,0.048022333573549986,0.04786375906318426
110,0.04804381992667914,0.04794596046209335
111,0.048037203636020424,0.04866788662970066
112,0.04803529604151845,0.047814162261784074
113,0.04802104820311069,0.04828222567588091
114,0.04802208429574967,0.047817220076918604
115,0.04801623509079218,0.0479001273214817
116,0.048055098753422495,0.047733471520245076
117,0.04800165318325162,0.04780102925002575
118,0.04801997192576528,0.04864912557601929
119,0.048028755754232405,0.04779751290380955
120,0.048004568405449394,0.0479656485542655
121,0.048006830114871266,0.047775877311825754
122,0.04803802769258619,0.048048858463764194
123,0.048012961532920596,0.047693220920860764
124,0.04802200150862336,0.04799452660232782
125,0.04800393508002162,0.04811680179089308
126,0.04803003347292543,0.04783399295061827
127,0.04800541762635112,0.04783494359999895
128,0.04803898936137557,0.04790771882981062
129,0.04800000586733222,0.04778986275196075
130,0.048012378934770825,0.04781339195370674
131,0.04799643797427416,0.04775161461532116
132,0.048005651600658894,0.04778748594969511
133,0.04800360870733857,0.04783217078447342
134,0.04803138629719615,0.04772546137869358
135,0.04799171543121338,0.04778392190486193
136,0.048030419502407315,0.0477745745703578
137,0.04800693810358644,0.04840794864296913
138,0.04801962441951037,0.04795295181125402
139,0.048016484882682564,0.04808602410554886
140,0.04801523108780384,0.047805271089077
141,0.04800173401087522,0.04769116400927305
142,0.048010643806308505,0.04830766966938972
143,0.048003908105194566,0.04783136243373155
144,0.04801057056710124,0.04769586512446403
145,0.04801415323466063,0.04812722934037447
146,0.047991423632949594,0.047709773540496825
147,0.04797878422960639,0.048012451604008674
148,0.04800910624116659,0.047897808097302916
149,0.0479986177161336,0.047846477024257185
150,0.04803312848135829,0.0477374137416482
151,0.04800086151063442,0.047761347107589246
152,0.047994292091578246,0.04795434226840734
153,0.048030146468430755,0.04774030127376318
154,0.04797951766848564,0.04774743368476629
155,0.04800959496572614,0.04771832161396742
156,0.048014194570481776,0.04781747794151306
157,0.04800114156678319,0.047784332804381845
158,0.04802866204455495,0.047778739288449286
159,0.04797542935609817,0.04780883123725653
160,0.047992801927030086,0.04776833891123533
161,0.04800620516389608,0.04791035161167383
162,0.04799389460682869,0.04770440895855427
163,0.048015927985310555,0.0481487241461873
164,0.04800713031366467,0.04819911998510361
165,0.0480311627201736,0.047712442569434646
166,0.04798958296701312,0.048111675657331945
167,0.04798235696926713,0.047981680855154994
168,0.04800775720924139,0.047906889900565144
169,0.048000775657594204,0.047809593118727206
170,0.048005148377269505,0.04799140771478415
171,0.04799609094485641,0.04811939397454262
172,0.04800622267276049,0.04784176187217236
173,0.04800731393694878,0.047751619055867195
174,0.04798843608051538,0.0482200630903244
175,0.04800345941632986,0.04813134144991636
176,0.04800784306228161,0.04790554646402598
177,0.048022787321358916,0.047800306364893914
178,0.04796405469998717,0.047722288355231283
179,0.048011069051921366,0.04790243144333363
180,0.047987118907272815,0.04767947840690613
181,0.04802093813568354,0.04891638131439686
182,0.048014266043901445,0.04779955191910267
183,0.048009794153273104,0.04815054821223021
184,0.04799461409449577,0.04816771949082613
185,0.047968019396066666,0.04788247034698725
186,0.04800882958248258,0.04791785805672407
187,0.04800817240774632,0.04831024618446827
188,0.04798489309847355,0.04834439175575972
189,0.048014585573226215,0.04777411056309938
190,0.048013335432857275,0.04781371324509382
191,0.047989843599498275,0.04776712331920862
192,0.04799435118213296,0.0479968007132411
193,0.04800929856672883,0.047776794619858266
194,0.048024834323674444,0.04808152472227812
195,0.04797556931897998,0.0478367804735899
196,0.048000033397227526,0.047986873418092726
197,0.04799403918161988,0.04775285276770592
198,0.04797424203157425,0.04794276902079582
199,0.04799804593995213,0.04778390435129404
200,0.04804406495392322,0.047781708873808386
201,0.047956071708351374,0.04789992775768041
202,0.04799265152215958,0.04817811147868633
203,0.04803946418315172,0.047769264198839666
204,0.04796310643106699,0.04770519008487463
205,0.047996935915201905,0.047886070378124715
206,0.047983212422579524,0.047964150309562685
207,0.04800610901415348,0.04784258188307285
208,0.04800791332125664,0.047741319663822654
209,0.047980370618402955,0.0479511681497097
210,0.04801146626845002,0.047856641180813314
211,0.04799599703401327,0.047765566766262056
212,0.047984359331429007,0.047854881152510645
213,0.04798895703628659,0.0480480545014143
214,0.04799460880458355,0.04784023231267929
215,0.047988201819360254,0.047885345712304114
216,0.04800765331089497,0.047860753774642946
217,0.04796927925571799,0.047861023761332035
218,0.04799161785840988,0.048308216273784635
219,0.04797313063591719,0.04786472288519144
220,0.047993098706007,0.047998623833060264
221,0.04804135742783546,0.04780056455731392
222,0.04801339093223214,0.04785834410041571
223,0.047951270408928395,0.047695436291396616
224,0.048013088524341586,0.04821889835596085
225,0.048003027249127625,0.04812505252659321
226,0.04800666619837284,0.04784883013367653
227,0.04794939241185785,0.047897320829331874
228,0.04798973043635488,0.04846875920146704
229,0.048003462225198745,0.04773865509033203
230,0.04799196938425303,0.04790577428787947
231,0.047955864623188973,0.04827381245046854
232,0.04797857002541423,0.04817226362228393
233,0.048009159684181214,0.04796469012647867
234,0.04795355951413512,0.04794012870639563
235,0.04801563671976328,0.04785850383341313
236,0.047967538837343456,0.047911987230181696
237,0.04794817955419421,0.04773781216144562
238,0.04800352726876736,0.04790661209076643
239,0.04795146006345749,0.04789422257244587
240,0.04796333469077945,0.047978279240429404
241,0.04799336127564311,0.048071648873388766
242,0.04797158881649375,0.04782344602048397
243,0.04798671313375234,0.04776716432720423
244,0.047955846037715674,0.0478248735293746
245,0.04796325180307031,0.04775914569199085
246,0.04799210600927472,0.04777867537736893
247,0.04797266873344779,0.04768559528887272
248,0.0479789652004838,0.04772122801095247
249,0.0479815895408392,0.047853507600724696
250,0.047975114677101374,0.04783459097892046
251,0.0479852291867137,0.04785806785523891
252,0.04797474055737257,0.04815777726471424
253,0.04800627239048481,0.047801277495920655
254,0.047963294964283705,0.047798046588897705
255,0.04801903010904789,0.048302446492016315
256,0.04794698241725564,0.04786141708493233
257,0.04796755823120475,0.04791183686256409
258,0.047978995744138955,0.04776082155108452
259,0.04799241130799055,0.048023010537028316
260,0.04795253374055028,0.04777628107368946
261,0.04798404095321894,0.0476821998655796
262,0.04796188830584287,0.04783945931494236
263,0.047965509377419946,0.04784764245152474
264,0.047983120508491996,0.047733142353594306
265,0.047982115034013985,0.04823418064415455
266,0.04799556728824973,0.0476372879371047
267,0.047994843546301125,0.04788802057504654
268,0.04795966683700681,0.04874268689751625
269,0.04796706932038069,0.0481529855504632
270,0.0479630505554378,0.04811840142309666
271,0.04796513428166509,0.04792385137826204
272,0.04796822200715542,0.04804056183993816
273,0.04795464124903083,0.047721308559179304
274,0.047988991156220434,0.04795031031966209
275,0.04795625015720725,0.04803716569393873
276,0.047951140262186526,0.047751003608107565
277,0.04798781059682369,0.0476618163511157
278,0.0479641391672194,0.04776272983103991
279,0.04798476308584213,0.04770391550660134
280,0.04796660998091102,0.047959705732762814
281,0.04795153274014592,0.04827549526840448
282,0.04796187611669302,0.04779126277565956
283,0.04798613723739981,0.04775580537319184
284,0.04798188587278128,0.04819480445235968
285,0.04799031741544604,0.04792585424333811
286,0.04794180994480848,0.04814561826735735
287,0.047994916066527366,0.04779904096573591
288,0.047959448032081124,0.04796706790477037
289,0.047966258827596905,0.04789156794548035
290,0.04794682755321264,0.047889841362833974
291,0.047940153572708366,0.048149429827928546
292,0.04796635382622481,0.0478406188338995
293,0.04798587824404239,0.04783731679618359
294,0.04796325647830963,0.04887713778764009
295,0.04795086961612106,0.04774991025030613
296,0.047985971722751854,0.04844655304402113
297,0.04796503235399723,0.04808009019494057
298,0.0479611453153193,0.04783241695910692
299,0.0479753506667912,0.04777938696742058
300,0.047978539999574424,0.04775052820146084
301,0.047945330671966074,0.047909439019858835
302,0.04795922939479351,0.04776216541975736
303,0.047958560418337584,0.04777370998263359
304,0.04800314250215888,0.04795791550725698
305,0.04794593896716833,0.048125151969492436
306,0.04796660538762808,0.04781702983379364
307,0.04796947231516242,0.047760133005678655
308,0.047959375366568566,0.04833297590911388
309,0.0479615122564137,0.04795320552587509
310,0.04798928214237094,0.04776604622602463
311,0.047958490118384364,0.047829304568469524
312,0.04795508171245456,0.04804742008447647
313,0.047959394358098505,0.04793777285516262
314,0.047964406080543996,0.04826069413125515
315,0.04797882895171642,0.04791398543119431
316,0.04794942652061582,0.047871663197875024
317,0.047966670349240306,0.0480058960840106
318,0.04795576088875532,0.04787651478499174
319,0.04800095844268799,0.04774305583536625
320,0.04796066319942474,0.047771940417587755
321,0.04797506609931588,0.0477675936743617
322,0.04794670804217458,0.047769236147403714
323,0.047984653502702715,0.04808487371355295
324,0.04796943997591734,0.04798444067686796
325,0.04795186511054635,0.047823271714150906
326,0.047962618824094534,0.04780267278105021
327,0.047939965263009074,0.04815724216401577
328,0.047946973517537114,0.04787496534734964
329,0.047996441818773744,0.047711799144744875
330,0.04797896916791797,0.048100128963589665
331,0.047960731014609334,0.0481713947057724
332,0.0479659773260355,0.0478141523078084
333,0.04793477008491755,0.04777136853337288
334,0.047960573319345716,0.04775074096769095
335,0.047967329472303394,0.04778193079680204
336,0.04798541269078851,0.04782537658512592
337,0.04793793011084199,0.04779235525429249
338,0.04796211151406169,0.047877517201006414
339,0.047946771211922166,0.04789493086934089
340,0.04797038106620312,0.04788976837694645
341,0.04796107114106417,0.0481660608574748
342,0.04793817702308297,0.04768860699236393
343,0.04797211205214262,0.047706489495933056
344,0.04797401341795921,0.048118457317352294
345,0.047972085386514665,0.047810536116361615
346,0.047951809410005805,0.047760951548814774
347,0.04795123489573598,0.047731969594955445
348,0.047978391367942096,0.04770156666636467
349,0.04795521992072463,0.04794015272706747
350,0.04795716193690896,0.04773466474562883
351,0.047941882945597175,0.04781693286448717
352,0.0479941243045032,0.04879590040445328
353,0.04795336080342531,0.047810516923666
354,0.04797062447667122,0.047749193608760836
355,0.04792940677329898,0.04790848266333342
356,0.04796993786841631,0.048060672521591186
357,0.04796287144348026,0.047659500606358055
358,0.04796378432959318,0.04772386626154184
359,0.04795569332689047,0.047719641730189326
360,0.04796177989244461,0.04781491333991289
361,0.0479487354978919,0.04775035762041807
362,0.04799877622723579,0.04770793319493532
363,0.047947503987699744,0.048231964148581025
364,0.047972916889935734,0.04785083521902561
365,0.0479664012864232,0.04820175275206566
366,0.04796150928363204,0.048330523036420346
367,0.04797477386146784,0.047801193252205845
368,0.04794590339809656,0.04781552327424288
369,0.047980536930263044,0.04775110892951488
370,0.04796539008244872,0.047711277015507224
371,0.04799422600120306,0.04769131537526846
372,0.04794020390883088,0.047735590271651744
373,0.04796370074525475,0.04772832158207893
374,0.04795273097604513,0.04789486411958933
375,0.04796822530403733,0.04914063204079867
376,0.04797510951757431,0.047785699211061
377,0.047940419267863035,0.0477202743217349
378,0.04797536451742053,0.048432658530771736
379,0.047992193058133126,0.04772769447416067
380,0.04794324594736099,0.047779363296926024
381,0.047955794896930456,0.04813196028023958
382,0.04796203535050154,0.04769880677759648
383,0.047976253360509875,0.04779230649769306
384,0.04795802655816078,0.04857406595349312
385,0.04794347790628672,0.04821806925535202
386,0.04796663497015834,0.04788674391061067
387,0.04798171156644821,0.048558483682572845
388,0.04795050276815891,0.04815166840702295
389,0.04799888977780938,0.04826374314725399
390,0.047942448683083054,0.047787629820406435
391,0.04796296439319849,0.047742969907820225
392,0.047976563941687346,0.04776540952920914
393,0.04794093212112784,0.04781478254497051
394,0.04798272250592708,0.047759151846170425
395,0.04792378141731024,0.047716966919600964
396,0.047976267632097,0.04768639904260635
397,0.047971857309341434,0.04779298918694258
398,0.04794516121968627,0.04794043217599392
399,0.04797619839012623,0.047729825742542746
400,0.04796404174342751,0.04784632160514593
401,0.047970643017441035,0.04774773735553026
402,0.04795889386534691,0.0478323759585619
403,0.04799807622656226,0.047789881408214566
404,0.04795904886722565,0.047694855146110056
405,0.04795161164179444,0.0477600752338767
406,0.04798741192743182,0.047707750022411344
407,0.047980767596513034,0.0485340236723423
408,0.04794913240894675,0.047853706255555156
409,0.04793793188408017,0.04809489594399929
410,0.04800195365771651,0.04768763354420662
411,0.04795013335719705,0.04768309632688761
412,0.04796835305914283,0.047703489020466804
413,0.04795712682232261,0.0478176146671176
414,0.048028925955295565,0.04827331241220236
415,0.047946059104055166,0.04767720647901297
416,0.047956063397228715,0.04779900750517845
417,0.04797985463961959,0.047748838163912295
418,0.047955590110272166,0.04856733739376068
419,0.04795363837108016,0.04794396474212408
420,0.047997201893478635,0.047912393122911456
421,0.0479549901150167,0.048115591809153556
422,0.04792538436874747,0.04791043417155743
423,0.04796510859951377,0.04779165078699589
424,0.0479735820479691,0.04801977817714214
425,0.047973392169922593,0.04769138892740011
426,0.047945451233536,0.04774918219447136
427,0.04797521038725972,0.04800499849766493
428,0.04797022083774209,0.047810672774910926
429,0.047947885986417534,0.047757498852908614
430,0.04796334085986018,0.047804966434836386
431,0.04795636384561658,0.047902696147561076
432,0.04797769969701767,0.0479107116162777
433,0.04797094390541315,0.04785451121628284
434,0.04793398287147284,0.04767631188035011
435,0.048006375789642335,0.04787664093822241
436,0.04796373939886689,0.04827635166049003
437,0.04795545930787921,0.047713023364543916
438,0.047948591087013485,0.048587238892912867
439,0.04795489028841257,0.04785080057382583
440,0.047966053884476424,0.048047293089330194
441,0.0479668007157743,0.0477772169560194
442,0.04796284223720431,0.047808224722743035
443,0.0479726230353117,0.04766640096157789
444,0.04796418627351522,0.04774309415370226
445,0.04792969787493348,0.047696740046143535
446,0.04795885852724314,0.04800163185596466
447,0.047958649564534425,0.048300389118492604
448,0.047946756947785614,0.04779278749972582
449,0.047933636873960496,0.04769718823581934
450,0.0479696645103395,0.04796076384186745
451,0.04797372030839324,0.047859855093061926
452,0.04797020095214248,0.04773873018473387
453,0.04794924375042319,0.04768082559108734
454,0.047967583630234005,0.047988455630838874
455,0.04795958168432116,0.04817258862406015
456,0.04795235071331263,0.04769699767231941
457,0.04795219765976071,0.048101694963872434
458,0.04796519830822945,0.04774300936609507
459,0.04797663303464651,0.04788218852877617
460,0.047948026813566684,0.04776906557381153
461,0.04797421139478684,0.047718582928180694
462,0.047930065091699364,0.04780990243703127
463,0.0479838193282485,0.04771195655316114
464,0.047927676174789664,0.048020519331097605
465,0.047959828674793245,0.048229006111621855
466,0.047936028346419336,0.047801775977015494
467,0.047951095942407845,0.04779980648308992
468,0.047978219587355854,0.047772030033171174
469,0.04796354442089796,0.04772067451477051
470,0.04793163035437465,0.047890504732728004
471,0.04796615815535188,0.047772908180952076
472,0.04797398188710213,0.04777298993617296
473,0.04793634558469057,0.04784898724406958
474,0.04796437033638358,0.04781553728878498
475,0.04793584579229355,0.04806186820566654
476,0.04794644844532013,0.048286793008446696
477,0.047972615949809554,0.04812380275130272
478,0.04794722566381097,0.04825561216473579
479,0.04795252625271678,0.047874862119555474
480,0.047977849043905736,0.04816159352660179
481,0.04794011411070824,0.04773324738442898
482,0.047976267870515586,0.048160186856985095
483,0.047980950437486174,0.047919643424451354
484,0.04794529221579433,0.047723813086748126
485,0.047958596423268315,0.0477976763471961
486,0.04795002319663763,0.04776973540335894
487,0.047960101794451475,0.04777623877674341
488,0.04796666394174099,0.04807636996358633
489,0.04796992165595293,0.048431126855313776
490,0.04794630426168442,0.047788605324923995
491,0.047977623589336875,0.0479689059779048
492,0.04795439269393682,0.047964039504528044
493,0.04795066430419683,0.04825701726973057
494,0.04796378919109702,0.04804953445494175
495,0.04795487514138222,0.047682247929275036
496,0.04798996850848198,0.047991987258195874
497,0.04793852424621582,0.04774738186597824
498,0.04796319834887981,0.048009955853223804
499,0.04796097994223237,0.04772682812809944
500,0.04794076357036829,0.04779900635778904
