epoch,loss,val_loss
0,0.09067604336328805,0.03799106762185693
1,0.03621404602378607,0.03524987713247538
2,0.03391428564116359,0.03333871857821941
3,0.03356331660412252,0.03410936558991671
4,0.03279225724004209,0.030451772794127464
5,0.0286494264844805,0.026887937750667334
6,0.027798534911125897,0.027241229694336653
7,0.027732313508167863,0.026743674736469984
8,0.0275348276887089,0.027405542869120836
9,0.02756222841143608,0.0291082386597991
10,0.02747003801167011,0.026489486768841743
11,0.027440375450998544,0.026910352732986212
12,0.027240456137806176,0.0261250443123281
13,0.027220037158578635,0.026801879458129407
14,0.027125540181994437,0.026151839155703783
15,0.02714605475589633,0.025855162508785726
16,0.027016848253086208,0.027825725350528956
17,0.027105759842321275,0.025907356034964323
18,0.02709791455231607,0.026077964689582588
19,0.026986143410205842,0.026014657247811556
20,0.02700981660746038,0.027149799924343826
21,0.02691597205772996,0.026141509868204595
22,0.02693164459243417,0.025733393482863902
23,0.02692680157534778,0.027108654219657184
24,0.02693634632602334,0.02696720026060939
25,0.026793457178398965,0.026387509871274233
26,0.026839571194723248,0.025847962018102407
27,0.026801047269254922,0.02610543728992343
28,0.026959183890372516,0.02559486086294055
29,0.026698140555992723,0.02611850880086422
30,0.026780116379261018,0.025753957360982894
31,0.02671740136295557,0.02779952099174261
32,0.026666315427049996,0.025886025615036487
33,0.026821305407211185,0.026039747048169373
34,0.026788162464275955,0.02546980022266507
35,0.0267406418081373,0.025849519826471806
36,0.026739500293508172,0.025773865994066
37,0.026751474808901547,0.026205792240798473
38,0.02664491979777813,0.02597240125760436
39,0.026764819258823992,0.026486552368849517
40,0.02664352416805923,0.02560391127318144
41,0.02672217564843595,0.027035840701311827
42,0.026621354058384894,0.025867067202925684
43,0.02655264051631093,0.025617954321205616
44,0.02655432067811489,0.02633295938000083
45,0.026619177643209695,0.02635435566678643
46,0.02658639705367386,0.025760628778487445
47,0.026678883422166108,0.025491803236305715
48,0.02653674072213471,0.02656539198756218
49,0.026549510484561323,0.025770096942782404
50,0.026621232576668263,0.025597306061536075
51,0.026558420803397893,0.025554404065012932
52,0.026611301938071846,0.026462408274412156
53,0.02654298011958599,0.026312188025563954
54,0.026429276302456856,0.025797975562512874
55,0.026516270216554404,0.025862847086042164
56,0.026584741516038776,0.025625364635139702
57,0.02668873672373593,0.025565485171973705
58,0.02651160185970366,0.02568605848774314
59,0.026549242217093705,0.025794624488800762
60,0.026451273960992693,0.025961978111416102
61,0.026390101984143256,0.02545016896724701
62,0.026426907343789934,0.02697969540581107
63,0.026464124023914338,0.02692937134951353
64,0.026531599367037414,0.0259672608114779
65,0.026532576721161605,0.025392103139311076
66,0.026450078068301082,0.025799336094409226
67,0.02649562514014542,0.026854261990636587
68,0.026436068454757333,0.025639940451830625
69,0.02641044151969254,0.025454637855291368
70,0.026351928574964403,0.025881292182952164
71,0.026469218894839285,0.02559654100984335
72,0.026503839084878564,0.028265515450388193
73,0.02654047346673906,0.026172256875783204
74,0.026473393581807614,0.026257347516715525
75,0.026357950627803804,0.0260161098241806
76,0.026468516409397125,0.02560899229720235
77,0.026450813936069607,0.02670914911478758
78,0.026417405430227518,0.025719565361738205
79,0.026392155980691313,0.0255731989890337
80,0.026383428908884524,0.02599925595149398
81,0.026411157719790936,0.026356323327869177
82,0.026428098898380995,0.02559809696301818
83,0.02636867056787014,0.025586521863937377
84,0.026325528739020228,0.025770808830857278
85,0.02639739703014493,0.025951603043824434
86,0.026464558012783527,0.02621570846438408
87,0.026313446685671805,0.026319632396101952
88,0.02648500523157418,0.02677642061933875
89,0.02642368431016803,0.02554330037534237
90,0.02632645004428923,0.025658590782433748
91,0.026344292465597392,0.02540365505218506
92,0.026354952687397598,0.025666397627443074
93,0.02645566315576434,0.02620728624612093
94,0.026281076669692992,0.02529408109933138
95,0.02640299024991691,0.025366108246147632
96,0.026473995085805654,0.02679352431744337
97,0.02628857401944697,0.0257666707970202
98,0.026411450508981943,0.025367826506495477
99,0.026334017476066948,0.025546048998832702
100,0.026363094329833983,0.026580587450414896
101,0.026354031827300787,0.025591162484139205
102,0.026397483449429274,0.025897725697606802
103,0.026349638044834138,0.025633747819811106
104,0.026411105260252952,0.02577386062592268
105,0.026318893691524865,0.025951677799224852
106,0.026299257973209023,0.025458807986229657
107,0.026274419616907834,0.02545155956596136
108,0.026356122676283122,0.02551284957677126
109,0.02629124820418656,0.0257995589338243
110,0.02629866044037044,0.025278249230235816
111,0.026368388002738358,0.025501004714518785
112,0.026364451728761198,0.025393975425511597
113,0.02632181442156434,0.025516063600778578
114,0.02640688017383218,0.026306267999112606
115,0.02628622520714998,0.026976532559841872
116,0.02637174606695771,0.025420925557613373
117,0.0262644248791039,0.026229184187948704
118,0.026352610053494572,0.02542204884439707
119,0.026482977168634535,0.025566498707979918
120,0.026291366873309015,0.026057647429406642
121,0.02646393456310034,0.025423508994281294
122,0.02623855317570269,0.025610492140054703
123,0.02628838283009827,0.025832628928124903
124,0.026245153173804284,0.02535793263465166
125,0.026288955060765146,0.02540909506380558
126,0.02624297159165144,0.025423854287713765
127,0.026218267472460866,0.025376077160239218
128,0.026298561016097666,0.026900694992393254
129,0.026416736984625457,0.02551831177994609
130,0.02632925717718899,0.025738755017519
131,0.026420833501964808,0.03162797375395894
132,0.026295049272477628,0.025527436934411524
133,0.02621438534371555,0.02630020108819008
134,0.02623340693861246,0.02616909832507372
135,0.026342324770987035,0.025364947538822888
136,0.026264805026352405,0.025404608093202115
137,0.02617461384087801,0.025580727085471152
138,0.026307942513376474,0.025621056102216242
139,0.026221158094704152,0.025364450439810754
140,0.026309676762670278,0.02529160759598017
141,0.02637295902520418,0.025488740239292384
142,0.026236268877983093,0.025596482682973147
143,0.026362252734601497,0.025449767336249353
144,0.02618034029752016,0.025496527303010226
145,0.026325864404439927,0.025358188956975936
146,0.026242545858025552,0.025451092906296255
147,0.026309731038287282,0.025775989405810832
148,0.026253850147128104,0.025391807820647955
149,0.026303050383925438,0.025473349690437318
150,0.026227659340947868,0.02547030698508024
151,0.026320857571437956,0.028066638242453337
152,0.026277787685394287,0.027190927032381296
153,0.0262717440482229,0.026176196221262216
154,0.026224013406783344,0.027960201278328895
155,0.026206714168190957,0.025547091100364922
156,0.026351638872176408,0.025486527826637028
157,0.026299376193434,0.026072990033775566
158,0.026352389661595227,0.02550883198156953
159,0.02618899942934513,0.026044164545834064
160,0.026280565129593016,0.025487288523465396
161,0.026198776114732026,0.025326446745544674
162,0.026315594621002674,0.025467319253832103
163,0.026376290783286096,0.02610788119584322
164,0.026248482666909694,0.026369847033172845
165,0.026333237243816258,0.025423397365957497
166,0.02629631187207997,0.025460365787148477
167,0.026247982507571578,0.026345249995589258
168,0.026232697952538728,0.028608496181666852
169,0.0261831103079021,0.025345874957740308
170,0.026318070830777286,0.02535722430422902
171,0.02619947038590908,0.025399653393775225
172,0.026346134681254626,0.025343256883323194
173,0.026249102169647813,0.025459432266652583
174,0.02624384180828929,0.02544511537998915
175,0.026238374589011074,0.025428955357521772
176,0.026243656240403652,0.026531884524971246
177,0.026156499521806837,0.02576852895319462
178,0.026304562443867325,0.025343667954206468
179,0.026171355394646524,0.026313704904168844
180,0.026264908630400895,0.025492321461439132
181,0.026294346371665597,0.025830761786550284
182,0.02628506322950125,0.025304646994918585
183,0.026211499465629458,0.02552749478816986
184,0.026193096471950412,0.02529485856741667
185,0.026276557011529804,0.025792943444103003
186,0.0263831105902791,0.02525850287824869
187,0.026197270391508938,0.025406473711133002
188,0.026216712214052678,0.026028250996023416
189,0.026254747431725265,0.0258817686624825
190,0.026239971777424216,0.02543673250451684
191,0.026259042194113135,0.02540254618227482
192,0.026331369023770094,0.025749791137874126
193,0.026247106056660415,0.02570746460556984
194,0.02618783661723137,0.025864481925964355
195,0.026277787001803516,0.025420620925724505
196,0.02628315730020404,0.02539744706451893
197,0.026274300023913382,0.02561782894283533
198,0.026241201469674708,0.025323099225759507
199,0.02622179965674877,0.025437775243073703
200,0.026213965190574527,0.025388986721634865
201,0.026317405035719277,0.025504505977034568
202,0.026252825859934093,0.025355103362351656
203,0.026369487840682267,0.025619845386594533
204,0.026113997343927622,0.0269913642257452
205,0.026184059483930468,0.025325522270053625
206,0.026265929268673063,0.02541827780753374
207,0.026185572762042284,0.02536860154941678
208,0.02625426786765456,0.02559224010258913
209,0.02622989888675511,0.025466339200735093
210,0.026269194189459086,0.02530558520555496
211,0.02617233756557107,0.025624639246612787
212,0.026210611015558244,0.02533833608403802
213,0.02625757093541324,0.02553136156499386
214,0.026201644400134682,0.025409351158887147
215,0.026163515159860252,0.02574984469637275
216,0.026108555302023887,0.02634540020674467
217,0.026320471441373228,0.02704904983192682
218,0.026254256600514055,0.030384034905582665
219,0.026174749828875066,0.02694427928701043
220,0.026266185767948626,0.025509457111358644
221,0.026212413255125286,0.025298425294458866
222,0.026155097568407656,0.025687469083815813
223,0.0262750453799963,0.025689781419932844
224,0.026244629418477414,0.025441847685724498
225,0.02624577189050615,0.025484569106251
226,0.026203637897968292,0.0265111348554492
227,0.026242904406040907,0.025438099425286055
228,0.02622761139087379,0.025951943777501582
229,0.026217842118814588,0.025445841174572707
230,0.026278012802824376,0.0255119310580194
231,0.026143537044525145,0.025630407486110927
232,0.0262467570155859,0.025452019546180964
233,0.026292053509503602,0.02533890165016055
234,0.026170397339388727,0.025333690475672483
235,0.02620773564465344,0.02537268280982971
236,0.02618270250968635,0.026313831061124802
237,0.0263077431935817,0.02531868650019169
238,0.026207663053646683,0.027285272408276797
239,0.02626556060835719,0.025370708730071783
240,0.02620432971417904,0.02548084320500493
241,0.02627427366934717,0.02529659838601947
242,0.02614974114112556,0.025555197335779666
243,0.02618045097589493,0.025307810500264167
244,0.02635169923119247,0.025403439916670323
245,0.02624104618281126,0.02563762714341283
246,0.02616048015654087,0.025652428179979325
247,0.02619424101896584,0.025722482461482288
248,0.02618335846439004,0.025669106919318438
249,0.026234909143298863,0.025752396501600744
250,0.026351784186437726,0.02559508767724037
251,0.026104058403521778,0.025520102966576814
252,0.02633875720947981,0.025308877862989902
253,0.026200645757839085,0.025602559383958577
254,0.0262599979005754,0.0254976436085999
255,0.026199055977165698,0.025439768098294735
256,0.026204515589401126,0.025322671346366406
257,0.02622722692973912,0.025649842958897353
258,0.026246513476595283,0.02754342533275485
259,0.026113402936607598,0.025664643060415982
260,0.026176592828705908,0.02529127074033022
261,0.02622985952720046,0.025308366898447274
262,0.026270118484273554,0.02542522594332695
263,0.02615580339729786,0.025231530293822288
264,0.02628438499197364,0.02543280592933297
265,0.02626327846199274,0.025630283631384372
266,0.026177167244255544,0.025645295273512603
267,0.02628183551505208,0.025255836345255377
268,0.026258875297382474,0.025321309078484774
269,0.02614926200732589,0.025418491169810296
270,0.02618729868531227,0.02670557510107756
271,0.026219530256465076,0.025375876531004905
272,0.026170499769970774,0.02565737311914563
273,0.026243327878415584,0.025429147232323885
274,0.026256852217018605,0.0253414196819067
275,0.026150870120152832,0.025448696933686732
276,0.02618388761766255,0.025320720735937358
277,0.026170958824455737,0.025397176973521708
278,0.026265342380851507,0.025592313971370458
279,0.026340797863900662,0.02545993894711137
280,0.026193746196106076,0.02542002835869789
281,0.026208768457174302,0.02645873149111867
282,0.026105289690196515,0.025635375782847403
283,0.026272648634389044,0.025554353546351195
284,0.02615366207063198,0.025501958400011064
285,0.026182815844193102,0.026299658678472043
286,0.02617754288390279,0.025529625531286
287,0.026207357548177244,0.02532929117977619
288,0.02618583875708282,0.025359320145100357
289,0.026219116743654014,0.026275063779205084
290,0.026187512051314116,0.025490038461983205
291,0.026200618509203195,0.025536792661994694
292,0.02620755112543702,0.025443174060434105
293,0.026167178584262728,0.026592178337275982
294,0.026119560193270445,0.026344804350286723
295,0.026210910938680172,0.025393390741199257
296,0.026235395109280944,0.025440943073481322
297,0.026170373687520624,0.025487776275724173
298,0.026196566335856916,0.02530197424441576
299,0.026216044491156935,0.025462909400463106
300,0.026044207772240043,0.025825817998498677
301,0.026233115762472153,0.02534404168650508
302,0.0263121178727597,0.027535911589860917
303,0.026158145962283014,0.025455988984555006
304,0.026191254314035177,0.025400518234819175
305,0.026166093505918978,0.0254673629142344
306,0.02623662198893726,0.02682968433573842
307,0.026198063254356384,0.02525627300515771
308,0.02618441137112677,0.025821810584515333
309,0.02613728723116219,0.02563153566420078
310,0.026246413895860313,0.02532789459452033
311,0.02620197038166225,0.02538777472451329
312,0.026112123019993307,0.025690384339541197
313,0.0262114996612072,0.025586885888129473
314,0.02616417248547077,0.02533491600304842
315,0.026216030444949866,0.025642711367458104
316,0.026189685944467783,0.025314965963363648
317,0.026274169897660613,0.025368195813149214
318,0.026118867764249445,0.025382835790514945
319,0.026307991672307254,0.025857526678591966
320,0.026167668167501688,0.025983741231262684
321,0.02617194704338908,0.025334131818264723
322,0.02616725058667362,0.02578731491789222
323,0.026182097766548396,0.02526664173603058
324,0.026238223873078823,0.02528679620847106
325,0.02612335260026157,0.025435041289776562
326,0.026336892414838074,0.0254940683208406
327,0.02617908500880003,0.025298335276544095
328,0.026165573619306087,0.025325473703444006
329,0.026215406285598875,0.025498153176158667
330,0.026252741562202572,0.025378580614924432
331,0.02616165462881327,0.025354973416775464
332,0.026173921944573523,0.025792512021958827
333,0.026165590109303593,0.025373202085494994
334,0.0261009286493063,0.025412371817976235
335,0.026167978649958967,0.02561526796221733
336,0.026171475891023876,0.02531299339979887
337,0.026214097905904055,0.025302085410803556
338,0.026107409603893756,0.02563765586167574
339,0.026350822571665048,0.02664978751912713
340,0.026157882157713176,0.025452400986105204
341,0.0263862919639796,0.02685489620268345
342,0.026091311553493143,0.025364261776208877
343,0.026135666748508812,0.025606915853917597
344,0.02614099088869989,0.026977267645299435
345,0.02622062505595386,0.025358611915260554
346,0.026192574612796306,0.025267684787511825
347,0.026130034079775214,0.0259900312833488
348,0.026186837332323194,0.027477515425533058
349,0.026204189067706465,0.025570692032575608
350,0.02611258568242192,0.025784536570310594
351,0.026115173682570457,0.02530883361399174
352,0.02624758293107152,0.025439841125160456
353,0.02624944684840739,0.025899073038250207
354,0.0260895818490535,0.026612508933991193
355,0.026211608489975332,0.02537672842666507
356,0.02613045327551663,0.02555572371557355
357,0.02613357006199658,0.025426518846303224
358,0.02615854575484991,0.02539790551364422
359,0.026128877770155667,0.02608612110093236
360,0.026155155211687087,0.02712843071296811
361,0.026176945004612207,0.025883151311427356
362,0.026162509202957155,0.02530265836417675
363,0.026178703108802437,0.026707230802625416
364,0.02616875695437193,0.026189709149301053
365,0.026153992427513005,0.026261978898197414
366,0.026139115750789643,0.025459919147193432
367,0.026294363226741554,0.0258457213640213
368,0.02615191491879523,0.0278588426746428
369,0.026109010672196745,0.025396194469183682
370,0.026141224443912505,0.02532615748420358
371,0.026138435332104564,0.025356100548058747
372,0.02617596222087741,0.025532798405736686
373,0.026226587049663068,0.02541804302111268
374,0.02613430787436664,0.025412945877760648
375,0.02626043262705207,0.02556805419921875
376,0.026109181504696606,0.025526791386306286
377,0.02623293895088136,0.025274539288133384
378,0.026087390668690206,0.025600562632083892
379,0.02627516964636743,0.025861905485391617
380,0.026191074596717955,0.025392184481024743
381,0.026073729626834394,0.02532207676768303
382,0.026133128322660924,0.025493295840919018
383,0.026163730692118407,0.025363162226974965
384,0.026224667644128202,0.025459553435444832
385,0.02612462649680674,0.02543148487061262
386,0.02615456835925579,0.026244400672614573
387,0.026218197096139192,0.025354529444128276
388,0.02616791900806129,0.025390302415937184
389,0.02619105521030724,0.02564199547097087
390,0.02618172905780375,0.02526196312904358
391,0.026238365666940808,0.025390849150717258
392,0.026148430807515978,0.026196643587201834
393,0.026148396456614136,0.025330090925097467
394,0.02606052641198039,0.02524580667540431
395,0.026183510780334474,0.02568811246007681
396,0.02617366642318666,0.025348799042403697
397,0.02613629387319088,0.02562680308148265
398,0.02616648544371128,0.025326162222772838
399,0.026170714361593128,0.025303091071546078
400,0.026183928376063703,0.026341642804443836
401,0.026206292267888783,0.02556877662613988
402,0.02611877211742103,0.02545893409475684
403,0.026136163625866175,0.025426790289580822
404,0.026175461614504455,0.025389869447797538
405,0.026199914505705236,0.025449742250144482
406,0.02612964703887701,0.025288191597908734
407,0.026231553193181753,0.025299100786447527
408,0.026117578193545342,0.025803973518311978
409,0.026137208865955473,0.0256060225404799
410,0.026195898529142142,0.025413988687098026
411,0.02619540792517364,0.025315327614545823
412,0.026142059843987226,0.025417084854096175
413,0.026268525931984185,0.025352996468544005
414,0.026184138506650925,0.025529355455189945
415,0.026184586538001896,0.025434210296720265
416,0.026032639959827065,0.02654044033586979
417,0.026241298817098142,0.02544568010419607
418,0.026155370913445948,0.026240948904305696
419,0.026159164546057583,0.0254007865563035
420,0.026125622378662228,0.026418012768030165
421,0.02614146366715431,0.025961933191865683
422,0.026203147875145077,0.025869315009564162
423,0.02621802896633744,0.02671600141748786
424,0.0261950872130692,0.025323411740362643
425,0.02611544244363904,0.025631910767406226
426,0.026206380750983953,0.025748854991048575
427,0.02625177472271025,0.025753289185464382
428,0.02615637094900012,0.025445345535874367
429,0.02608476884290576,0.025302518103271724
430,0.02622411084920168,0.025341153956949712
431,0.026208176737651228,0.025646841928362845
432,0.026143316866829993,0.025455250434577466
433,0.026243647208437325,0.02550873102620244
434,0.0261745810136199,0.025796361420303584
435,0.02617665402404964,0.025273104950785635
436,0.026203411532565953,0.02543194776773453
437,0.026037369076162577,0.02530832678824663
438,0.0261673737000674,0.028360549371689556
439,0.02615940182842314,0.02612292520329356
440,0.026173644106835127,0.025966747902333737
441,0.026158149482682348,0.025615560118108987
442,0.026138469321653247,0.025552826896309853
443,0.026094191700220107,0.025302410855889322
444,0.026216023061424495,0.025359320476651192
445,0.0261490266751498,0.025386839155107737
446,0.026207196006551386,0.02541201297938824
447,0.026140199532732368,0.025350570507347583
448,0.026341341795399785,0.02534015281870961
449,0.02612490229681134,0.02560479136928916
450,0.02615838697180152,0.02540992112830281
451,0.026197567250579597,0.026116959497332573
452,0.02611660951934755,0.025591189913451672
453,0.026185428164899348,0.025473922111093998
454,0.026125815542414783,0.025742035113275052
455,0.026119431430473922,0.02549545317143202
456,0.026273899169638754,0.025242599692195652
457,0.02623295591585338,0.025297509007155897
458,0.02623928191512823,0.025753757141530515
459,0.0260599451828748,0.025447701279073955
460,0.026154118575155736,0.025502054408192636
461,0.0260978374928236,0.02603692092746496
462,0.026241819355636836,0.025496245998889208
463,0.026168720895424484,0.0253936104811728
464,0.02616769575700164,0.02538320944458246
465,0.026189936872571706,0.02526689397916198
466,0.026192569684237242,0.02539914804697037
467,0.026142510985955596,0.02540264881774783
468,0.02612455519475043,0.025953167483210565
469,0.026211066516116262,0.02549209602177143
470,0.02616714149713516,0.02550081158429384
471,0.02619480998069048,0.02525386482104659
472,0.026145405439659954,0.025329007267951967
473,0.02615257657505572,0.025810968559235335
474,0.026157809469848872,0.025866453621536493
475,0.026120098473504185,0.025823963712900876
476,0.026106156274676322,0.02534118139743805
477,0.026267083857208492,0.025397033203393222
478,0.026114743875339626,0.02567462507635355
479,0.02618032676167786,0.025509368356317282
480,0.02608548459224403,0.02686013378202915
481,0.026293828954920172,0.02536881598457694
482,0.02624139279872179,0.025270547457039355
483,0.026106121925637125,0.02558072905614972
484,0.026314068350940942,0.02541394902765751
485,0.02611325606703758,0.02532106467708945
486,0.026128040965646505,0.025319079961627723
487,0.026212128898128868,0.026407903324812652
488,0.02613380644097924,0.029897187918424606
489,0.026291020568460225,0.025415626730769872
490,0.026173503164201976,0.025339962776750328
491,0.02615692079998553,0.025275233179330826
492,0.026125528464093804,0.025448209173977374
493,0.02616162673197687,0.025627323508262634
494,0.026172770354896784,0.025646303225308656
495,0.026152914552018045,0.025683244861662388
496,0.026164695430547,0.02538522296398878
497,0.026158581485971808,0.025296711210161447
498,0.026278452703729274,0.0253720345236361
499,0.02610184295475483,0.02534601577371359
500,0.026200457179918885,0.025399020593613385
