epoch,loss,val_loss
0,0.1579958178999303,0.057844312986522185
1,0.039218705982047256,0.02537602901711601
2,0.025072686549136153,0.023444585555072082
3,0.024232347581467088,0.02434137744510042
4,0.024251882563070426,0.023562338410479024
5,0.024133717264536378,0.025154245339610394
6,0.02404441914821176,0.02401404046316079
7,0.023995718884495476,0.02486268475051931
8,0.02408353967158843,0.023794307912263987
9,0.02393585799573113,0.023980471551794655
10,0.024076490913131396,0.02363350410264312
11,0.023939428853986266,0.023349529201342728
12,0.02391838584151819,0.0232985265605922
13,0.023854408301502393,0.024842770295342594
14,0.023830963407369923,0.02431740719698599
15,0.0238040045840289,0.023418844053440895
16,0.0238944685502018,0.023744028568820588
17,0.0238079150251264,0.02341958206226342
18,0.023777552552783278,0.024346345128534154
19,0.02377337818409947,0.023601761073074008
20,0.023759943630388504,0.024623225102731818
21,0.023804689316059665,0.02407529768287759
22,0.023740514121252856,0.02360510858453534
23,0.02375356296075882,0.023584796220134728
24,0.023814343382045328,0.02346106739633885
25,0.023718603719904315,0.023931449152758577
26,0.023674107820754475,0.023416490669655537
27,0.02355353253633737,0.02432482093337397
28,0.023648187735502858,0.023056648997994228
29,0.023640985072081944,0.023607111876299745
30,0.023713957089528764,0.023162806977024678
31,0.023463644027757607,0.023740626714282745
32,0.023620730545148433,0.023739909886984534
33,0.023677039572851454,0.023145731585578082
34,0.023570215015364684,0.024037496036105298
35,0.02357836790624068,0.024651186431933786
36,0.0235358221347717,0.02291202519732897
37,0.023560712575543222,0.02331501365754674
38,0.023647233479761248,0.02404557505876837
39,0.023471727543663112,0.023509916379730253
40,0.023568345708020633,0.025629658147622116
41,0.023545165813500458,0.02382799331613338
42,0.023608681815062208,0.023124313387716956
43,0.02344040260117927,0.023374323742706756
44,0.02351566640471073,0.024463706090458285
45,0.023554520427638725,0.02303836198454545
46,0.023452428008744614,0.023117498151411103
47,0.02355340726935654,0.02368122754852275
48,0.023358734072201688,0.02518115637363791
49,0.02347830692149824,0.02337494091334405
50,0.02348164851359612,0.023702252964947105
51,0.023482383518434354,0.02333552797413898
52,0.0234938242884396,0.023457564567910375
53,0.023439926789890375,0.023944082129643766
54,0.02340295205680396,0.023161815347086754
55,0.0233808206945217,0.022935256554547406
56,0.023423663050913028,0.02321693975399024
57,0.023515802957742905,0.023332984671114276
58,0.023366518958890848,0.023403356819110023
59,0.023416897992966035,0.023291022877702114
60,0.023356652032467815,0.023735909761703665
61,0.023431323814860208,0.023490626761879428
62,0.023368158204247244,0.024111604553242322
63,0.02347429674773884,0.022934839895381736
64,0.023376419296790418,0.023032006021844843
65,0.023326843231023072,0.02458723259894229
66,0.023419835609194042,0.024227236626168453
67,0.023515485457891373,0.023207435729871516
68,0.023309415373072732,0.02320081186528599
69,0.02335669961627677,0.024020848782540495
70,0.023351221343876124,0.02368672207680008
71,0.023398073061073808,0.02299096870023666
72,0.02327951447194,0.02289938776156238
73,0.023409465391882697,0.0232310918113474
74,0.023285046327028342,0.0231100876610535
75,0.023431594722526823,0.02467242597316369
76,0.023330718305685536,0.02276545195695492
77,0.023276334790755613,0.023437737482111098
78,0.02331561399482304,0.022956554209717917
79,0.023385275738964453,0.02305748603573538
80,0.02332935162889157,0.0237795225041018
81,0.023307948799090657,0.02366072410495618
82,0.023291835698375788,0.023232748779014704
83,0.023374183762291497,0.02285491450062726
84,0.023355566307628375,0.02299688328219241
85,0.023329315899158837,0.023342381217520632
86,0.023347601915399235,0.022993654087656298
87,0.023263287925564174,0.023256735942358095
88,0.023327036524752823,0.02337026878185835
89,0.023224202158907765,0.02288727459057448
90,0.02336480561643839,0.024055020526439635
91,0.023252304237660507,0.0229259270751274
92,0.02321858606863317,0.02379832608182786
93,0.023349730180298015,0.02314263779814072
94,0.02328659134353403,0.024584480220982665
95,0.023218845879341917,0.02267506585001428
96,0.023331905136720166,0.022784178826631574
97,0.023288766369610716,0.02314334730422911
98,0.023207826157220356,0.022835849151426914
99,0.0233164061996922,0.0239966095490609
100,0.023266048670160494,0.022818839289218587
101,0.023220211937487554,0.02466713151679137
102,0.023291333649995374,0.023205047058736893
103,0.02333503784157699,0.023432009880619907
104,0.023229947810222824,0.023186832907497176
105,0.023219535449634402,0.022745275018764652
106,0.02333185734595064,0.022820956396393262
107,0.023249533305839478,0.022689723625085253
108,0.02325205708951425,0.02295824582229097
109,0.02319712063623704,0.023372754647198773
110,0.02319518378678915,0.023458444220091097
111,0.023288641482305757,0.023675109950006715
112,0.023200803106542017,0.022914674435907587
113,0.02320827067651742,0.025746866906298457
114,0.023302221664791102,0.022900807479397933
115,0.023236123439993598,0.02313309297518365
116,0.02317125396095782,0.023414598310391267
117,0.023215126310237685,0.02302060048106908
118,0.023291828230672555,0.022712628412242
119,0.02322268534338565,0.023853343675514328
120,0.023171381500782632,0.023035269148277315
121,0.023142936918661178,0.023142441286872293
122,0.023279687353997207,0.023258598565455486
123,0.023198359756828022,0.0248234338011672
124,0.023159298380251696,0.022767662859412282
125,0.023212752991365635,0.023893304826322747
126,0.023268630184667953,0.022685813350748527
127,0.023127963931726322,0.02277441643731229
128,0.023199099917068994,0.022731197756827585
129,0.023264812681523205,0.022904107382413715
130,0.023204737566977288,0.023468858679284613
131,0.023158761971205068,0.022870741099495537
132,0.02319522364009961,0.02278691732075474
133,0.023226383354345098,0.022859361488739616
134,0.02316562538381389,0.023156596149223097
135,0.023170646229426828,0.023235328929188597
136,0.02317163428599886,0.024664617919060973
137,0.023222435413183067,0.023097135203037095
138,0.02316383785492987,0.02390267313020664
139,0.0232708214541717,0.022935426012622436
140,0.02318704275371169,0.023474756501844385
141,0.02317006279342919,0.024722420955231177
142,0.0231955126188487,0.022946951505099587
143,0.023215485123290622,0.02326926382312929
144,0.023171074889439473,0.0235777909969639
145,0.02318180386545799,0.023040202383801705
146,0.023150268048762704,0.023093962811092363
147,0.023174691264131228,0.022820848016025706
148,0.023225196979665977,0.022712388320663544
149,0.023147754216318032,0.022824306884852562
150,0.02309242971643484,0.022755846726666216
151,0.023195793006500657,0.023645623501069732
152,0.023140650320735624,0.02346653963755978
153,0.02316342831494735,0.02274046220685096
154,0.023293219115897764,0.02317929678194478
155,0.023023907050526114,0.022815838232695257
156,0.023187064512116873,0.023445232389840257
157,0.023143411401084526,0.022727425981257127
158,0.023179265261023974,0.0229324477665191
159,0.023266245520187558,0.022929812917499064
160,0.02300631858968287,0.0229591553106069
161,0.02318201081114088,0.022672793686084138
162,0.023093128709389055,0.02298691259269274
163,0.023170467947783182,0.022719782966041338
164,0.023043363128783557,0.02388160868056101
165,0.02323067631292567,0.02327824412053414
166,0.023241896368414283,0.02433819494900406
167,0.023122681314490443,0.024458997308819803
168,0.02319950369937862,0.023098839332232723
169,0.02301231298080499,0.02284652363117887
170,0.02316464560119797,0.022756766051571484
171,0.023138722709322768,0.023943703996507127
172,0.02306186472721618,0.022802659353769097
173,0.023223066718118798,0.02313224422497691
174,0.02311434391900885,0.023216535324773264
175,0.023122964104522855,0.023038654012609957
176,0.023107050198891893,0.022908264659374553
177,0.023122353613269416,0.022873044875468807
178,0.02309683179460484,0.02291145979999414
179,0.023125517935448175,0.02286967030199334
180,0.023171192687228143,0.022729541362508036
181,0.023067404219000744,0.023126574659509836
182,0.02308324780791617,0.02277662011558791
183,0.023097061842447704,0.0227555926527531
184,0.023150610945952072,0.02273047100473269
185,0.023170084653081274,0.02308138112383935
186,0.023060694507373084,0.0230399656999671
187,0.02309197088633534,0.023250672473750813
188,0.023056856365494732,0.023038316500426845
189,0.023178888909923707,0.022810887768805826
190,0.02310118238351566,0.022802030372168006
191,0.02317510661017671,0.023309545648808355
192,0.023080645217675624,0.022623588614042293
193,0.02311853713971629,0.02387232517187014
194,0.023077778708037854,0.023029487518315815
195,0.02303812275383827,0.023552558980970376
196,0.023245284010728392,0.023782653723797086
197,0.023055368866161,0.023300266241759134
198,0.02310459151027276,0.023309060145278285
199,0.023055896079606956,0.022958402529993958
200,0.023132664390462195,0.023511340344749575
201,0.023100659092642563,0.0238718807479718
202,0.023176056798919736,0.02301163192259202
203,0.022992824663599427,0.022746740486810975
204,0.023114096983778868,0.02422186162913749
205,0.0231929944484211,0.022780276682072016
206,0.023049602359473752,0.022833636337810364
207,0.02311423749288471,0.022769106893073224
208,0.02304336057006598,0.023749895005736092
209,0.023120527894204136,0.023947237313805176
210,0.02304234792538684,0.023368405051758745
211,0.02314783951980795,0.023568784973886224
212,0.022998477510964985,0.022698325377719177
213,0.023123208122204343,0.023010148713107925
214,0.023159791724376683,0.022807412062666503
215,0.023092573668679697,0.024575190728893408
216,0.023091510579966716,0.0230699263354315
217,0.02304371034832214,0.02270486792983177
218,0.023095036177880328,0.02316652606781675
219,0.023140696037432653,0.02370073329201578
220,0.023018294573127984,0.022778161378737595
221,0.023065916170998155,0.02278966383292577
222,0.02318502820545821,0.02335551471082639
223,0.023029893775173515,0.022862718467789554
224,0.02313365728455148,0.02372621561840894
225,0.023023420938854212,0.023816928216024658
226,0.023084937745212412,0.02315540620711674
227,0.023151459263936938,0.022819483683583486
228,0.022965236171651228,0.022841369809660745
229,0.02310293083854145,0.023697524385169536
230,0.02319958663845567,0.02277093534758454
231,0.023027146794199704,0.022964609163536175
232,0.023020246725746814,0.022678576689140008
233,0.023133246181942194,0.022685722969090178
234,0.023094119575562524,0.022877517775959543
235,0.023004540062839272,0.022756771047047583
236,0.023153633914804524,0.02491467598834514
237,0.023144668417809298,0.022798475804249884
238,0.02306296223540791,0.022855461308263658
239,0.02303436894913753,0.023271341691265542
240,0.023078544155436215,0.02339671212729969
241,0.023017292382191124,0.022694040245678636
242,0.023123668457607,0.02286491379723976
243,0.02308466389245219,0.022935410968859364
244,0.023038544914693378,0.022850085430629347
245,0.023108309629164058,0.022881201173648554
246,0.023095588212450155,0.022818642408949423
247,0.023005212460615508,0.022956621056185903
248,0.02318666425855945,0.022787286130374777
249,0.02307035396177825,0.022941383095818328
250,0.023031175111254437,0.022903814869208797
251,0.023074402900443946,0.024830092359172516
252,0.023080529317521838,0.022757368485701302
253,0.02313023526593745,0.022829938894571425
254,0.022999127943375462,0.023130150114927785
255,0.023189313298792577,0.023236739251471544
256,0.02300300273812003,0.02284652878836844
257,0.023056616798954474,0.02315051203274595
258,0.023102398955826754,0.022846636485129055
259,0.023038502498198565,0.023141944517793857
260,0.023068161894955176,0.022855291759041038
261,0.02303337188382491,0.02261933453098798
262,0.023102455770970583,0.02298866520064641
263,0.0230222734995633,0.02279821491190883
264,0.02311127946498416,0.022761738210057968
265,0.02311460143156189,0.02402503475776176
266,0.023056910729868044,0.023661073569234845
267,0.023161833220683367,0.02278588667964738
268,0.023029036536294636,0.023274125106450414
269,0.022972151010984376,0.022844660718467354
270,0.023086472945235713,0.023330708581957182
271,0.023084748428401282,0.023323013996315832
272,0.023048560071787197,0.02292681933066792
273,0.023138198567529043,0.02279488705157434
274,0.022972236372542372,0.022837127583144025
275,0.02308524338205417,0.023052183268760826
276,0.023066626640586115,0.022814872231402075
277,0.0231154316501747,0.023249159960315843
278,0.023023812965356664,0.023854761029392976
279,0.023015742957723035,0.023186860547269435
280,0.02309815021459576,0.023444762982680934
281,0.023072205699807544,0.022863891459384018
282,0.02303010681130403,0.02268590406318443
283,0.02305602803037202,0.022896546360337555
284,0.022990155537768328,0.023257940820908585
285,0.02313271122980866,0.022784220376702493
286,0.02302875686109328,0.022715627182724914
287,0.02305022356875366,0.022899153018289414
288,0.02309079562871457,0.02578642042890344
289,0.02307640005284243,0.02278713341846462
290,0.023097369533261473,0.022856286918742974
291,0.02306220212506114,0.02326913536529938
292,0.02297304910000899,0.022798868362228043
293,0.023115840984685578,0.023614728264657645
294,0.023062720836001,0.022937352267030007
295,0.023044652118683336,0.022775473503870765
296,0.023060736340953767,0.023378524107486597
297,0.02305321343582597,0.02296762722349581
298,0.023087051680697194,0.022709579619372464
299,0.02304794008789255,0.02385345190445927
300,0.023067629261822296,0.023086647677287495
301,0.02299365969888455,0.023066828893269716
302,0.02299274142673738,0.022717434211671588
303,0.02318563675887579,0.02276863057780849
304,0.02307310732428452,0.02324474241434587
305,0.022982694609142797,0.022902984792497465
306,0.023141220501578637,0.022749572169056254
307,0.02300278571762627,0.023181658264634735
308,0.02308216756827635,0.02311993328870613
309,0.023034365349661388,0.02307382449742933
310,0.022970988025827754,0.023077447049690215
311,0.02309085178649802,0.023343209168434895
312,0.02315369209901487,0.023080217576311533
313,0.022901102245378075,0.02312226547920619
314,0.023018409209928925,0.023082828160960467
315,0.02311605596088534,0.02273776314876262
316,0.02306517968989081,0.023137674626512797
317,0.022995715976493965,0.022890058629091273
318,0.0230404542994311,0.023035982029766856
319,0.023094626794979395,0.0228575961039517
320,0.022993193009494543,0.022724452864411035
321,0.023072363234770528,0.023125013887835187
322,0.02300445155592726,0.022798850441435328
323,0.02305146151086052,0.02270900884138945
324,0.02305556698624107,0.022898662855941287
325,0.023057940011794904,0.024123220584680926
326,0.02294544441302379,0.024389914561124798
327,0.023129254343549458,0.02303853007834684
328,0.023051093990574305,0.023141039626550845
329,0.023073857380665367,0.02270460326662662
330,0.023050568352410976,0.022730501280434506
331,0.023007529338063906,0.022754725915598135
332,0.022994577547432563,0.02274948119640868
333,0.023070060343538923,0.02305614751570321
334,0.022993762299215955,0.02290959386618098
335,0.023187213838636447,0.022730767621049378
336,0.02300575355530905,0.02323269405223623
337,0.022997135846621747,0.023096381380107334
338,0.023171887172461984,0.0230479678660984
339,0.02291440608189832,0.022770943093659752
340,0.023077999415109865,0.022924069591578104
341,0.02303056918132267,0.02382699180403232
342,0.02300384049069324,0.023493758312352266
343,0.02306564230855992,0.02279137160361472
344,0.02305102012947285,0.023525304520457112
345,0.02304376531571007,0.02391148601006643
346,0.02307097462760054,0.023078776909231012
347,0.0231536827426103,0.02274637678880671
348,0.022944764721004082,0.02293953184411812
349,0.022974394790405372,0.022775517093001525
350,0.02311139449486129,0.023681276700596877
351,0.02300966578460545,0.022949725577656264
352,0.023049007594990407,0.02290855302683415
353,0.023073196088780553,0.02288666850466049
354,0.022999760248868777,0.02270360315702238
355,0.023044490231592638,0.02290223487568306
356,0.02310863511933149,0.022883420542541128
357,0.023061104284094677,0.022824736933893544
358,0.02300823829341516,0.022824807767333623
359,0.023021460253206328,0.022722923497492248
360,0.022977912255066284,0.022748112694699178
361,0.023086207602426207,0.02280892468048017
362,0.02304737516146579,0.02427512309833738
363,0.023132937456325567,0.022811935048759124
364,0.02308559246870468,0.02279583796059041
365,0.02295305316584359,0.022841154449952335
366,0.02304611370476673,0.023015496534925326
367,0.02303010377017476,0.022887677240943288
368,0.023042820453596152,0.02273142523475538
369,0.023041433299616942,0.02283308765429771
370,0.023155025064313918,0.023078723024832704
371,0.022964429055198396,0.0228080904109796
372,0.022999356366056715,0.02278138853715411
373,0.023011439756827533,0.022896717975082224
374,0.023084046504498242,0.02298701524987358
375,0.023010743592086314,0.02285994255169932
376,0.02310128788576185,0.023040421312967435
377,0.023119392204020234,0.022940189534270492
378,0.0229098394953852,0.023008925430094435
379,0.023188583147105316,0.022951441805959687
380,0.022992348155493645,0.023862175861022183
381,0.022949416695131387,0.023046435891182382
382,0.023154906481861783,0.023048206084740848
383,0.02296695572515424,0.02369246270063597
384,0.02305844965518164,0.023506670006813266
385,0.023031787158434482,0.02316413537967412
386,0.02310822185033636,0.022769024966089107
387,0.023064547146913958,0.022772586275988802
388,0.022937014656547877,0.02287493954576558
389,0.023025259211045996,0.0240845486474677
390,0.023134310796803278,0.022940723175490195
391,0.02295597420884765,0.022835733441028804
392,0.02307622766064154,0.02275285276642397
393,0.02296900685778339,0.022704667269877778
394,0.023029750202604525,0.023284139296873497
395,0.02304551036035319,0.024776536984561746
396,0.022994226471578283,0.023801278297943023
397,0.02311443133304993,0.022653912627024264
398,0.023048929721980596,0.022852387386591018
399,0.02302958568235,0.023271141637002002
400,0.02312483727637169,0.022769582386539505
401,0.02305924844556599,0.023151986612611242
402,0.022931513110760877,0.023556726726673208
403,0.023078174213413523,0.023086638959461343
404,0.023012992047476206,0.022990426269154804
405,0.023028441651208365,0.02338471055918777
406,0.023090874055604473,0.023523393874339635
407,0.023024056113505963,0.023430117219980534
408,0.023054799409679992,0.025152279025836072
409,0.023063105800532276,0.02300357886523173
410,0.023046510716190013,0.022816226500856095
411,0.023046241620545097,0.022709101029828295
412,0.022990400715322375,0.022747288757219215
413,0.02300376055477787,0.0237043151027731
414,0.023056928470409174,0.022698013472128967
415,0.023077683099698154,0.02302257441448808
416,0.02305245273437598,0.023116919792006592
417,0.023013993598175325,0.02358229391294478
418,0.022955629874101217,0.02351230853505509
419,0.023012047425079212,0.02276352113634701
420,0.02304550163599727,0.022803608235486304
421,0.02300390514428262,0.022735799238638513
422,0.02304335592015327,0.023025634640499937
423,0.02310922826684231,0.02276256103465523
424,0.02293679576149757,0.022873827054120464
425,0.02303855066492165,0.023227074897268107
426,0.022964303247737797,0.022921434466175047
427,0.023036830907435916,0.022965920675948746
428,0.023108984192581675,0.02272017204865002
429,0.02301961393784181,0.023009615348271242
430,0.023135108809224328,0.02268831724273048
431,0.02287879078645262,0.022985575132618858
432,0.023071328660459828,0.022725385664458714
433,0.023026231641350366,0.022793382138672453
434,0.023047391211332605,0.023577354204471223
435,0.023038811888620198,0.022947753327527475
436,0.023044013077293417,0.02272779080978556
437,0.02294342303730482,0.02333602316724614
438,0.023048892508534122,0.02295846346950992
439,0.023037515260535275,0.022730799100781483
440,0.023044458274051344,0.022960379488924966
441,0.023025791666996802,0.0227856678651512
442,0.02305754839698021,0.022691236301703818
443,0.022966208429240305,0.022980038244233135
444,0.02309241647319161,0.022779342156100574
445,0.02300222037578944,0.022955047379776352
446,0.023020315074847995,0.0233773274189883
447,0.02307093086065077,0.02299951023077438
448,0.0229902136460435,0.022770905399720032
449,0.022963827083573685,0.022751759573076312
450,0.023126371000870335,0.022814503395319832
451,0.022993510425221814,0.023118246683370154
452,0.02304979459085553,0.0226535528968805
453,0.02300629946146366,0.022703949806016546
454,0.02309777945440879,0.02408000645128497
455,0.02295724492517116,0.023967668293565864
456,0.022995125200840637,0.02334392508278706
457,0.023159973426081008,0.023406456219474913
458,0.023066184504313483,0.024339090557893902
459,0.023009129190932124,0.022644264655865453
460,0.022983109189136375,0.022764265382899104
461,0.023126247968021436,0.023168991804240535
462,0.0230168044272301,0.02268136863985585
463,0.022977214330415743,0.022751881124270932
464,0.023185740621071114,0.022773522264732088
465,0.022930105804926534,0.022817753278889238
466,0.023102689941646718,0.022654510706651372
467,0.022895190304965615,0.02272748285294426
468,0.023120437071269317,0.023086264285522837
469,0.023053097077083293,0.02310038782103427
470,0.022955678182272173,0.02278872367050484
471,0.023081457650335094,0.02272030206627985
472,0.022980753877323023,0.02311103693382328
473,0.023081250785054158,0.022760915026750823
474,0.022919446512830437,0.023159066628261917
475,0.023081035537870047,0.02288259477475871
476,0.02297689826663235,0.023921015010095525
477,0.02303630416076794,0.02302756220772686
478,0.023045300156157984,0.023187092679604924
479,0.02309890158420844,0.022944854431283596
480,0.022989548939309247,0.02265354234140128
481,0.02303135356189107,0.023563206823573588
482,0.023013205189320395,0.023555675303914836
483,0.023013117696366294,0.02313431927635854
484,0.02301356689088779,0.022719215800149194
485,0.023024178465171685,0.02327004998728292
486,0.023037637696325254,0.02263848977523614
487,0.02300628277061464,0.022950845466957567
488,0.022971313851747773,0.0228978480699736
489,0.023130043656926315,0.022709630997211988
490,0.022919167824786344,0.02295104503020021
491,0.023101234160137357,0.022805967789375603
492,0.022967344161858565,0.022933062071887732
493,0.02306157357612555,0.02518561343796957
494,0.02302786306687277,0.022637601962405673
495,0.0229696474335105,0.02293745388336415
496,0.022984680345953464,0.022696567659619856
497,0.02304909098223388,0.02392272759543551
498,0.02309440076500058,0.022811108420955073
499,0.02305188370819429,0.023514238032552794
500,0.022919536318085035,0.02305928848672073
