epoch,loss,val_loss
0,0.1381965160949065,0.04519916502222266
1,0.0458672738780709,0.12450206217421447
2,0.041420685774315416,0.04978526650024571
3,0.03461578650307729,0.04084739957266467
4,0.03137045769061116,0.035535677944052005
5,0.033302077642201985,0.03037835355633436
6,0.02743041055533085,0.04448833217184282
7,0.02574958217045148,0.02642853597462789
8,0.024562554280582568,0.023398573065636755
9,0.025496002437054015,0.027019160094758424
10,0.02420479420990907,0.01155261641357979
11,0.02510293388421343,0.033938721701467514
12,0.02299474746075948,0.02387062056782496
13,0.022562135861878344,0.019774227802242552
14,0.021727821536006317,0.021012869617227693
15,0.019697524681255567,0.023043911280764683
16,0.022025352346336395,0.019439622805392825
17,0.02153213866122758,0.019531148166087732
18,0.021507038399938207,0.016243231502650474
19,0.01873479850313289,0.030298447756842074
20,0.019355442658026547,0.022700146337546225
21,0.018589895459258262,0.017572181935891825
22,0.017841260809880154,0.023711053725117382
23,0.017250661488263597,0.012123385809608915
24,0.017639615152367682,0.01679846043415491
25,0.016856017793777385,0.023745972404422586
26,0.017797533263021307,0.012610969501940773
27,0.015742334515804784,0.009164258765296359
28,0.016339076843729122,0.01405747739514358
29,0.014777801348920837,0.007053864046625481
30,0.015551927285998477,0.014249206120008639
31,0.016058286393268242,0.009103582856254894
32,0.014786962784162696,0.011757495255160257
33,0.01533154483788165,0.01939793133368714
34,0.01488541935490136,0.006276844255699708
35,0.014078466715641039,0.02498975520675683
36,0.014607299475645503,0.01642913185501061
37,0.015826109227993126,0.011523805120584997
38,0.014738401796722369,0.0166815547765054
39,0.013840414528406675,0.01063938721302888
40,0.014052646999101458,0.013640096812452401
41,0.014207072907963471,0.012678473630674541
42,0.0137252556846859,0.013651724216758311
43,0.013874532148274754,0.01744010266660468
44,0.013462768790187787,0.008380460555811473
45,0.012425362428506578,0.017233214753473378
46,0.013887758672179328,0.015190525360452489
47,0.013498713593851092,0.01568723800897175
48,0.013644179475376848,0.021548797124327876
49,0.013616679107686944,0.017622245159573505
50,0.013750900895309469,0.01395229779583738
51,0.013875788048119675,0.01659492877089281
52,0.01283316201145882,0.02053229078862172
53,0.012894420518460188,0.015790428444390325
54,0.014075518727933856,0.010863674517894412
55,0.012732371715248096,0.019848610478105655
56,0.012351558244467781,0.011558406229918175
57,0.012705769338220697,0.012596542955079977
58,0.012970971487399986,0.010362263580000626
59,0.011989767856554959,0.012435569344110487
60,0.012608490995694248,0.011242315361324784
61,0.011745955246194697,0.01206383394590493
62,0.012714982090006433,0.011419453578776936
63,0.013609758828101094,0.008648998001494813
64,0.011654598144464475,0.012150897432027507
65,0.011222481827637245,0.01347993848802729
66,0.012289298532942352,0.009644208567094973
67,0.01224104001260862,0.009691757904902254
68,0.010734240272842484,0.012498546592397256
69,0.012255069062796433,0.007849022012495016
70,0.012671149079334273,0.01164703224965716
71,0.011571274826125943,0.012196116054602609
72,0.011614214480879882,0.005124362783569728
73,0.010827676920915583,0.008608568226367283
74,0.012087306927340172,0.007360402123463041
75,0.01159338783694254,0.010528215520295602
76,0.0116168412424216,0.013842770922414505
77,0.011520029749530706,0.019865337762196608
78,0.010335561187418966,0.01439189307623923
79,0.011314705381341886,0.010846886564790027
80,0.010982273376642092,0.015735628439852968
81,0.010984230983100063,0.004878489101407042
82,0.011451895903166143,0.018547288769151907
83,0.011861274380506359,0.013204050223889225
84,0.010545944432366184,0.013166335226869432
85,0.010850086871856193,0.012623879543984133
86,0.01110481458148814,0.006357400517487324
87,0.01005327128602354,0.008389706702810295
88,0.011235315362914658,0.006117130196032179
89,0.01011690688101749,0.02087361002436471
90,0.011085005451572968,0.01137454382157881
91,0.010069247035177158,0.0077338169131136916
92,0.010114566721435306,0.012835741100425596
93,0.01019065094859355,0.013465101630724643
94,0.010511622460243359,0.00592326067848206
95,0.010799530796691043,0.008068448159367364
96,0.011621844395883471,0.009981723921263227
97,0.01089646942544279,0.00884229262582164
98,0.010063835454331956,0.00656869333169784
99,0.009999603423350257,0.007521844825883055
100,0.010763701726049691,0.008225173650466747
101,0.009922084728178444,0.019897588283917335
102,0.010388464298114913,0.009172166798384339
103,0.011182689487537313,0.013209274179069141
104,0.010641007987353549,0.01249396738073632
105,0.01020818546438198,0.006422397993716699
106,0.010768474881733797,0.011738163314689165
107,0.01048221140863563,0.004600612862710418
108,0.010383627319196276,0.008610066233001408
109,0.009378536354484622,0.009712119512524582
110,0.010125624856332407,0.009321740313176575
111,0.010512660387333938,0.0058147482553404335
112,0.009427234397283185,0.014035587712105044
113,0.010655664113557917,0.018068388970340906
114,0.010546343629903566,0.01006726999256257
115,0.010917300823238416,0.009651265823779938
116,0.010333867231793374,0.006190362472040101
117,0.009901282206314692,0.008983080019187932
118,0.00952039982092088,0.005973724217610559
119,0.011040885766449241,0.012702845591219656
120,0.009956959974308082,0.010977622463375965
121,0.010323668829817547,0.012089276718653463
122,0.009351378551488527,0.016148766511558735
123,0.010456736943927214,0.01065370966933944
124,0.009561391875258,0.006195828107633314
125,0.009567455753113041,0.005049663126151112
126,0.009560074237976328,0.005367037101451017
127,0.00981361380510991,0.011582787066327604
128,0.00976957190766198,0.0074173820781320825
129,0.009115488634245257,0.011582044029686286
130,0.009577179879812207,0.0134429795294118
131,0.010150132612116801,0.010318481917592279
132,0.010170458288540204,0.008054363229639105
133,0.00986921573871096,0.011320640993081827
134,0.009217362556190377,0.012517872344387875
135,0.009713147947792527,0.01152246067889958
136,0.009685704485884756,0.00834229613721206
137,0.00949491806075924,0.006022800370939105
138,0.009305942012816013,0.013460341252198395
139,0.009798307097974798,0.006430207122478931
140,0.009311914531490597,0.0062378168888184244
141,0.009763231408856005,0.004665340076038215
142,0.010044791592120511,0.005653130888039189
143,0.009219580964422781,0.0055117577479030545
144,0.01018474604744616,0.012076014559495469
145,0.009369666175488725,0.00806238855828473
146,0.00884594160618244,0.012142032489986193
147,0.009022310105462124,0.006641973918134783
148,0.008672309103611706,0.012744316865043934
149,0.010004743444286644,0.012003489069481864
150,0.009566186754636729,0.006761915314333968
151,0.009090147614065888,0.007316783450590924
152,0.009286948243996574,0.012073604254773874
153,0.009584375044262464,0.0020804770042584663
154,0.008856335438681478,0.011245350093208106
155,0.00956996647779905,0.005502152913812351
156,0.009137972634450214,0.007196666817265345
157,0.009697471107214802,0.01567825770274616
158,0.009665467319444275,0.01271049952576997
159,0.00884594005351286,0.010784590702089345
160,0.009232085091426676,0.009277624002383652
161,0.008924953342280644,0.010218234065311483
162,0.008620309145867283,0.005774090348080612
163,0.009503136860388372,0.012813999236729687
164,0.010201828667244834,0.008747487721101755
165,0.0091048591057595,0.00932536954493883
166,0.009139866664742145,0.0024940784954066786
167,0.009223752529367798,0.006288290713291142
168,0.009233609628653322,0.029599258186620524
169,0.009028055553725042,0.008431976098396713
170,0.009670474578616776,0.010976658876758912
171,0.009331087037145967,0.0071020397900117835
172,0.00862428137902647,0.01114589537199125
173,0.00947374965642675,0.007390193663237597
174,0.009305665159965013,0.0057507431764529035
175,0.0090902243374395,0.009530223889868844
176,0.010604048320140651,0.007774522490564207
177,0.008881143600714179,0.010343136613557869
178,0.008839488796927749,0.008145644879314075
179,0.009765444592822888,0.01112470378909604
180,0.009547710434241826,0.006554118389206415
181,0.00872293960483228,0.012994176806660035
182,0.009596462901715163,0.009214918950944551
183,0.009474564974250602,0.00949920746391226
184,0.008587618506395167,0.002517045120140442
185,0.00845394740037495,0.008859797624904948
186,0.00907091147087285,0.004890083612090575
187,0.009081802211145757,0.007914594285287133
188,0.009075262505344475,0.008587994659062249
189,0.008883047307808723,0.00651237298385332
190,0.008988583075842238,0.008427649657017807
191,0.008709495921777806,0.012798520421790107
192,0.008910808139194032,0.008839227515695457
193,0.008952885585316686,0.004197577268529122
194,0.009202394389091796,0.01103182538649936
195,0.008705952458253367,0.01054061562684383
196,0.00938605937565551,0.006476495027962569
197,0.008351365484970641,0.008827248236845118
198,0.008620130993853168,0.006117388999329228
199,0.009730574437979159,0.010083207499673966
200,0.0100373545267748,0.011150005003753476
201,0.008957236089917133,0.013586323243002065
202,0.008734543079627212,0.009808431053864928
203,0.009239946242900554,0.008466371982678148
204,0.008567972147899072,0.0060893870491737345
205,0.009064080695127347,0.007873814107942812
206,0.009026697890231495,0.012550800459513818
207,0.00855427747378297,0.005678145894846911
208,0.009015882935588635,0.005764935397187978
209,0.008907998211124984,0.013773837319377518
210,0.008583319338718257,0.010892499461711252
211,0.008742852448375983,0.007461977179508418
212,0.008919147449712322,0.008016632599337136
213,0.008991946289085036,0.017324597660037553
214,0.009186457008418206,0.007644484667864576
215,0.008142512040879044,0.008689082127311447
216,0.008934710564152848,0.006762030765990526
217,0.008187071899500051,0.005893703659256919
218,0.008355391773597735,0.010152338601166608
219,0.009042696501455939,0.0053662071169898705
220,0.008634989730363115,0.006614889767632512
221,0.008405735737440898,0.007517914607130056
222,0.00893474243338228,0.005814755250550601
223,0.008977826197927953,0.009930825481322118
224,0.008850984696706803,0.0067643813866807324
225,0.008899909210578203,0.006285640828226176
226,0.009306233000124899,0.006537104391911153
227,0.009283658625709889,0.014474544576394953
228,0.00881369020209181,0.01139985344386656
229,0.0091271087351675,0.009959794407461982
230,0.009121359545375697,0.0057516988832136025
231,0.007929501041277147,0.0033734745587477343
232,0.010052608187886612,0.012551013625799528
233,0.008518994950278433,0.007495855143324611
234,0.008916442887373656,0.012876921370860715
235,0.009414906222406748,0.004879392366694623
236,0.008674667649556229,0.014394027853550737
237,0.00821181350370138,0.004812799688155197
238,0.008877297423107715,0.007786113524040606
239,0.009769317677257944,0.006570174903465522
240,0.008861059104360426,0.005728326860635932
241,0.008991689924679273,0.010149559511817056
242,0.00827750998722623,0.00928843940880911
243,0.008640445082997092,0.010438243852635726
244,0.008853947954456345,0.010623407284063953
245,0.008759473546052264,0.011152144752284064
246,0.008542753096917818,0.00822968076952772
247,0.009562928285498134,0.009017831232801561
248,0.008915364150710547,0.005984542281649883
249,0.009150611980409501,0.010859749591582247
250,0.0082821539843449,0.007415307303133473
251,0.008984192354354463,0.006550175287035289
252,0.008856928908079266,0.005681070406871959
253,0.008975280976711329,0.003823433958410029
254,0.009163914377976813,0.004910480943688536
255,0.007997696100418523,0.0060798189196303405
256,0.00804421198565504,0.010125811680733876
257,0.009087163087023016,0.00859947666384709
258,0.008615420965191578,0.008534746318055874
259,0.008193692739522137,0.00819762266000649
260,0.008918613516794462,0.009419746745095516
261,0.009012405425764257,0.005948038402380276
262,0.008246901750134275,0.002619371026895511
263,0.008734522245006917,0.008682588102103409
264,0.007931268733492841,0.004367350933275053
265,0.00821607676297456,0.015234071146123459
266,0.00803698555908451,0.00764767141996544
267,0.008678480081050266,0.012338776308999065
268,0.008889282403847308,0.006207693537995631
269,0.008562365112428685,0.006129085972402377
270,0.009677908150106966,0.010109003603858278
271,0.008514436995993992,0.005945009059598339
272,0.008490276121762213,0.007050385444344925
273,0.008364121341868657,0.008164356381433186
274,0.008574873653164566,0.007128210456405297
275,0.008975762007798966,0.0105123943476493
276,0.008757111250901584,0.007897605503532204
277,0.007810207199957445,0.0017928254939270248
278,0.008536667450514289,0.01270881647077972
279,0.009206095586350705,0.016348912922375863
280,0.00876442757624981,0.007562186219453836
281,0.008109156323837297,0.009560621596414128
282,0.008204988320451155,0.006915924533681199
283,0.008829076400791242,0.006421239476947918
284,0.0081893786062415,0.0058602929422551
285,0.008715940224804092,0.007427347385145918
286,0.009077451346504638,0.01145331606404134
287,0.009351017393890566,0.008508019909724275
288,0.00825830907050928,0.009803267827973463
289,0.00830660941837494,0.008743230486472431
290,0.008831320598972387,0.0036040335351890857
291,0.008229259882947888,0.0060307268625170865
292,0.00922750122203074,0.00953529611224016
293,0.008490901858211577,0.007516954236038341
294,0.00845541549566612,0.012411447333049944
295,0.007766952683820094,0.006519368502378299
296,0.00839581570874112,0.017746636801308877
297,0.008178950243245746,0.013033918491708029
298,0.008283761568037312,0.004264422562436422
299,0.007666123358000124,0.0078033854282257495
300,0.008769471824878632,0.010613404376830702
301,0.00788776323224956,0.008811491180281872
302,0.008702285469883381,0.0033480162949513733
303,0.007382165524409898,0.01692306002324128
304,0.008241446869675633,0.009563054160994861
305,0.008254337622292733,0.004798194559639424
306,0.008124095196336906,0.007847270608204105
307,0.008539757336866554,0.004612654046579643
308,0.0074347672850186884,0.009254192793778575
309,0.007923128063759605,0.00944567296283515
310,0.008478987278590956,0.011139479794355011
311,0.008491768486251374,0.01089005408868864
312,0.008392895120464051,0.006047517967196483
313,0.007922768316825004,0.010643577798554158
314,0.007851640123771214,0.0055580354812419025
315,0.007732840910076359,0.007987612200167322
316,0.007611103656461282,0.00975875877176177
317,0.007942696024911652,0.0137280862331508
318,0.007489295853718781,0.0034237380379159663
319,0.008144895816564286,0.009493960365329611
320,0.008899799667575734,0.011492599676574133
321,0.008163043516280456,0.009148336792601406
322,0.008339654197397127,0.007469602018130183
323,0.00752578715063843,0.006193225353224101
324,0.007051592335390816,0.009645687756529218
325,0.007686076043129003,0.010344694050994791
326,0.007974733848576632,0.009330038675169542
327,0.007567903943837052,0.006614046576693831
328,0.007072968270460651,0.00314247486311663
329,0.008789587262954613,0.004038883429373473
330,0.007636442556225365,0.008347786241155867
331,0.00800558056026849,0.009216496548170684
332,0.008036725605159795,0.006151099687467175
333,0.007183352778058985,0.003685207431805162
334,0.00787825562669594,0.007421640639546921
335,0.007601669980871895,0.0049384963899356885
336,0.007701998575219064,0.01071441242575716
337,0.0074243831600778725,0.013174421768473797
338,0.007760374847208437,0.005157584101388021
339,0.007932185539235023,0.00530289397475728
340,0.00870027789770872,0.004103359906517422
341,0.007944897943113795,0.007870969732660263
342,0.007531732649279596,0.008617285952918767
343,0.008346843722218321,0.006053497382655046
344,0.007624815650962496,0.006623646427804476
345,0.008098429818968954,0.01177751637213138
346,0.007330581543875559,0.014581699219797668
347,0.00771678956173402,0.012322578393951964
348,0.007767899730000838,0.005270038782850484
349,0.00736617843295149,0.021394495744237584
350,0.007386219217910987,0.014272430472828642
351,0.00878613564879265,0.010365465234732807
352,0.008275740824976294,0.005291366193299465
353,0.008307175547853082,0.006773921107210296
354,0.007396262335992283,0.006682444718867047
355,0.00760520823474089,0.0033254653807867672
356,0.007763896381287433,0.005201180680892367
357,0.007886564708407894,0.009085140200574377
358,0.008109307533940026,0.013308537918883182
359,0.007981851040677865,0.008934118936386697
360,0.007413019620750894,0.011545709935593952
361,0.007523050445015077,0.006764290199395278
362,0.008122107014246135,0.0065590940079936245
363,0.007602153654149968,0.008160648293037559
364,0.007410760521780786,0.005621618288036233
365,0.007227889884231265,0.006828528789225628
366,0.008198883294944557,0.008175307751398742
367,0.00842270912728358,0.006810179428986164
368,0.008405328185452397,0.005862664533139522
369,0.006984092640972657,0.0023631594357343176
370,0.007391457817127123,0.009458316996511316
371,0.007916603921086257,0.00930167833268172
372,0.008156866491154331,0.012745726440504675
373,0.007036368180863666,0.004674345900649359
374,0.008060087066357411,0.01097622850943642
375,0.0077617021916295695,0.00668697420106326
376,0.007988962232225316,0.006476854930845719
377,0.007789802492233656,0.010579832755293823
378,0.007620914795005666,0.005797204383279196
379,0.007718445920608014,0.006052487409631733
380,0.007323731949607239,0.007956275583377906
381,0.007123899538575082,0.006258595939916753
382,0.0070602848937327,0.012853493398730221
383,0.007662341752790099,0.00444216234517602
384,0.007066636523648763,0.009000497990697269
385,0.007452163395784917,0.004694098017186562
386,0.0077112834200078395,0.009855679642841302
387,0.007599444025651002,0.005719252361092002
388,0.007162794114282574,0.010348503283815254
389,0.007670387990108663,0.003202013775776857
390,0.007217976823142044,0.007383844380405891
391,0.007770966354785093,0.008562966879095585
392,0.007348194295506207,0.004641065337079935
393,0.007516402431367654,0.005503931341894212
394,0.007410862021470929,0.007069522856007718
395,0.00786955404216513,0.006045719377487757
396,0.007604597685140201,0.004075507093301806
397,0.008040215021963764,0.0038046422164560822
398,0.0072789087596678475,0.005451882947545025
399,0.007751618643930788,0.00945905428497384
400,0.007732409993179148,0.006139903785785823
401,0.008093650463029003,0.007494461850572639
402,0.007482522462351734,0.013559331907210806
403,0.00774462089008785,0.006348885742810738
404,0.007647192496679825,0.00793592619908872
405,0.008219784000243762,0.005784750879310724
406,0.008102045226696995,0.008398076132360342
407,0.007285916845440391,0.009595959481137093
408,0.007708877066543384,0.002253405251426309
409,0.007844090031245522,0.004793695732069091
410,0.007983593465976244,0.007235750457126391
411,0.007773500596017515,0.005049903516899486
412,0.007009261260948164,0.005726183189818637
413,0.007642368795389278,0.017035540075709524
414,0.007862720837843397,0.014614791596115765
415,0.007519888567651133,0.0035191902103550855
416,0.00760369664460099,0.004385544087307053
417,0.007481396381782709,0.014749242391969477
418,0.007147964984952784,0.0050970359481929935
419,0.007425489680965146,0.0053841059350488735
420,0.007610901360318874,0.01457175702935683
421,0.007517669570455842,0.008458028661767822
422,0.007799867280594391,0.0064400486106342605
423,0.007458493583738881,0.0036556737013411105
424,0.0076096570729720986,0.007663537793364244
425,0.0069995801405442195,0.003858337429849741
426,0.007775170283143049,0.010839340010923999
427,0.007412814087499466,0.005160757469494064
428,0.008014835024566697,0.0037179162366361295
429,0.007432162481258518,0.0051970260016379055
430,0.008095050633097326,0.010328649387392785
431,0.007313826825930555,0.00769214295424174
432,0.0076460795502902735,0.00861519767631554
433,0.007543497302390406,0.005484745710582458
434,0.007779112191134535,0.006403918575786566
435,0.007416231657717478,0.005283594459674564
436,0.00711120328297176,0.006875555364719365
437,0.007874140257874189,0.0066574245250997765
438,0.0073603045288957265,0.005574862451396218
439,0.007616987294829387,0.002762362579818765
440,0.006948003065597406,0.012443879961044232
441,0.007456023992094354,0.006539610086998299
442,0.0075621342282373005,0.004701826712241559
443,0.00801468872363574,0.005787997985083754
444,0.00680017554497854,0.006372348128302697
445,0.007531394807176648,0.006050769015837934
446,0.007461551607654934,0.0064205433063403115
447,0.0069869039337345056,0.002525609314085911
448,0.007077058007718056,0.004866125252121367
449,0.007602087364325093,0.005701401259165019
450,0.007859399909046378,0.013951132054886859
451,0.007670024215306292,0.005630960107296587
452,0.006823831141537739,0.00820658163585786
453,0.006874024114522377,0.01205572986720981
454,0.006853150853414094,0.0076472424735162985
455,0.006298937287014484,0.003199503162027511
456,0.008282061005400182,0.011823693052192984
457,0.007087688119676289,0.003761340595337826
458,0.007079086894412144,0.00779740263038295
459,0.0070597110088165705,0.010017209875249638
460,0.007349767264810284,0.004114298139101199
461,0.007381914259618719,0.00646282231138215
462,0.007569460064559121,0.005324601764322479
463,0.007851203467254321,0.004065553325279112
464,0.007306131262363468,0.005691189494942504
465,0.006964610547101279,0.005992486279813577
466,0.006732103589642644,0.004590323470509372
467,0.007614585871893472,0.006548146363318366
468,0.006742121914796588,0.008788612337111134
469,0.006900840955652404,0.011363472328642597
470,0.007810167440077027,0.005274323249293084
471,0.006875495867916107,0.006007915055092598
472,0.007787250806570059,0.00898756806598278
473,0.007655565703087088,0.010527194086565168
474,0.006918556967952685,0.006597991615986626
475,0.00812951039350171,0.007150768726511367
476,0.007014441982719029,0.002718117120605912
477,0.007621228258241993,0.005856231151585303
478,0.007003235537167952,0.006804261711994282
479,0.006861471035527058,0.009494323962262958
480,0.006918190541142281,0.011674912645677788
481,0.007069573083484499,0.005079196465011295
482,0.007550039548530347,0.016677927959419275
483,0.006997458148114145,0.004592147049727102
484,0.006932664441447675,0.005013763964479024
485,0.007839027155141572,0.006976369344250791
486,0.007720468283949538,0.0076356469219860685
487,0.006622884314500546,0.006243514825811208
488,0.007449024078053914,0.005414992964502362
489,0.007088380591418269,0.009717049566703983
490,0.007239521168143325,0.005725206985140562
491,0.006477718330894803,0.01147983212835481
492,0.0073114584731351255,0.0077420942931514655
493,0.007587940047337241,0.0041312578045296314
494,0.0067830552103379065,0.008250947044934452
495,0.00693990074549999,0.009109997189064946
496,0.007180007411024461,0.005016770520730455
497,0.007192336757359155,0.005206947696366551
498,0.007201599684148598,0.006655737755477616
499,0.007095745827952068,0.004659752711733096
500,0.006883496243879274,0.006651556741184575
