epoch,loss,val_loss
0,0.1576317062364708,0.061692815570964905
1,0.055927317656523035,0.05035047379822927
2,0.04831033891482319,0.04759512794657589
3,0.048004857175868096,0.04877435028164897
4,0.04804677369413997,0.04887863938956159
5,0.04798083859447429,0.04767931199793563
6,0.04789273294476535,0.048160447476647834
7,0.047900222151054085,0.04847163844327336
8,0.04788951906446311,0.0475642443050196
9,0.04792509026539554,0.04789512551844637
10,0.0477682460608671,0.0487069497303927
11,0.04790515710951851,0.047833995965633605
12,0.04784108406092099,0.04772128625504596
13,0.047853320975490894,0.0479890952870285
14,0.04781210547436675,0.04799444054642247
15,0.047770571315007435,0.04798238456025779
16,0.04774433415945914,0.04857174634357184
17,0.0478373412206638,0.04829681711749195
18,0.047779107424650163,0.04787876427573488
19,0.047788514850212994,0.047467619968664956
20,0.04782194507231625,0.04764690371884449
21,0.04770175269324717,0.04736698074847013
22,0.047739665986572526,0.04749234978935807
23,0.047658432546041185,0.04799330060759114
24,0.047686939822326746,0.04759125736113505
25,0.04765180039326016,0.04783303808970722
26,0.04774787266858571,0.04790069240468077
27,0.04767835776445915,0.04822313195151801
28,0.04767493801198894,0.04785301230830194
29,0.04764053120994739,0.047701029287799665
30,0.047669257349271375,0.047564108418660926
31,0.047582759248683874,0.047723051581028984
32,0.04760257375659607,0.047847684014121095
33,0.047664268865442866,0.04735499351993262
34,0.0477094032707141,0.04761903713903468
35,0.047580357757117824,0.04777626869957468
36,0.047607025508281234,0.0473982397299304
37,0.047574929349559196,0.047414672452935853
38,0.047658556777474693,0.04751326336621674
39,0.047555899448531995,0.047192655042131396
40,0.047560471533645066,0.047648416924707136
41,0.04759912585897697,0.04749425944020264
42,0.0475548759406562,0.04754474236326323
43,0.047511834853725565,0.04744855670556838
44,0.04759609790073691,0.04771757360192011
45,0.04758202401306227,0.04769586183383602
46,0.04753263976177771,0.047483994016143026
47,0.04751678649708331,0.04729380508577532
48,0.047466678555301435,0.047408467798178464
49,0.04756255266960147,0.047456746940054854
50,0.04753389190003979,0.04736802292709851
51,0.04746158753218744,0.04792593584205564
52,0.047516872673083264,0.04793010027557259
53,0.04751549432311746,0.047732335780677405
54,0.047483843941089635,0.04764379421285785
55,0.04746607257772407,0.04746737068588092
56,0.04753079936712337,0.047577152618198955
57,0.04741043013503416,0.04788000395649422
58,0.047528549403452476,0.047489733041955806
59,0.04744584762679635,0.04769643350271324
60,0.047518435572322416,0.04756859362701685
61,0.04739756543013594,0.04745153977808373
62,0.047446990923153506,0.04740980512741145
63,0.047463272941662825,0.047733999715255014
64,0.04740250649914848,0.047199094010886004
65,0.04745579795907441,0.047313159142033545
66,0.04744995432160646,0.04735924381448137
67,0.04745155585398205,0.047209368643792674
68,0.04745165405305122,0.0474313173851773
69,0.04734447310499246,0.047652544440509016
70,0.047457508981037295,0.04734474162688007
71,0.04743915861643714,0.04766780599340173
72,0.04742393047093964,0.047271242937118686
73,0.04738304100120715,0.048037378310028175
74,0.04750834865797814,0.04790624884422501
75,0.04742188018104203,0.04724590778762464
76,0.04736692100304732,0.047139690928719793
77,0.047394869394963686,0.0472349449345326
78,0.047488119947514854,0.047874063700319935
79,0.047407531251700566,0.047941550838848504
80,0.04740921296715308,0.047350217306717415
81,0.04742302722651229,0.049072284436686923
82,0.047490454193273135,0.04725328323908368
83,0.047317957250977594,0.050720894587209304
84,0.047419429045739314,0.047666861160401766
85,0.047400551058238836,0.04732734234246477
86,0.047444642483473395,0.05007381665490233
87,0.04748463640354282,0.04767792404356582
88,0.047424492281046414,0.04739970017309817
89,0.04738927852484486,0.048164349405099394
90,0.04732149674875035,0.04719029273764299
91,0.04739628944674032,0.04737378858858991
92,0.04740195741935028,0.047548154496897276
93,0.04739316229780706,0.047520350423753965
94,0.047394038019456165,0.04774334512786218
95,0.047451302925829025,0.04722890981723685
96,0.04733526359627144,0.04739682798897928
97,0.04735956161017184,0.04763864420336725
98,0.04739841085067279,0.04719473551532464
99,0.04736793185654971,0.04826907491004175
100,0.04735591748415185,0.047877750179385614
101,0.047394036149366395,0.047632247835821116
102,0.0474013414332192,0.04732211810649147
103,0.04735211872880598,0.04747808854012576
104,0.047366853014265985,0.04756223949314858
105,0.047376850540999126,0.04731411673863666
106,0.04737618204048402,0.04737063321478271
107,0.047332473645667186,0.04721635629753005
108,0.04738390461194048,0.04734120100748379
109,0.047387409493696395,0.04749746004379727
110,0.04737067954997412,0.048541184029620564
111,0.04737198968335307,0.04718633751137198
112,0.04727526533482172,0.04772397448568243
113,0.04733848611531641,0.04726925010674566
114,0.04732044778770204,0.047182946773900135
115,0.04735483646059303,0.04736539582415369
116,0.047336363158435174,0.04723424144271517
117,0.04739717348403544,0.047832078123266716
118,0.04734727878311126,0.04763807365766358
119,0.04734999378123205,0.04712677387125208
120,0.04736701206421014,0.04756978576401603
121,0.047361343024040964,0.04730077724736228
122,0.04732920666583341,0.04744308622702427
123,0.04728410619762923,0.047259981372785455
124,0.04739895370378673,0.047881178684303305
125,0.04727312180546405,0.049494045727019625
126,0.04733333806488678,0.04749703863907632
127,0.04727735260366012,0.0475878224553042
128,0.04736985060885894,0.04717030343853214
129,0.047307081548846976,0.047326359762600675
130,0.047336446371474425,0.04722841385084527
131,0.04730870562950246,0.04736802008682193
132,0.047357236908422674,0.047313669930199705
133,0.047371066600489294,0.04732440984510209
134,0.047310173910537025,0.04748562880701311
135,0.04737837911158395,0.047886669397612866
136,0.047310352099122856,0.047355660870259636
137,0.0473515880982772,0.047176603216092794
138,0.04729775753435042,0.04769945290783492
139,0.04733727127164721,0.04742478528416524
140,0.047309634947984056,0.04762589579246697
141,0.04735439944026663,0.047365014115679234
142,0.047313418690499355,0.0474704429536658
143,0.047319621224400046,0.04719067251437653
144,0.04731290208415495,0.0472361471359901
145,0.04732995145737553,0.04718913812992981
146,0.04732605371234133,0.047471071733860115
147,0.04727563720276887,0.04728638840620219
148,0.0473250002800513,0.047142389958875805
149,0.047317337082456244,0.0477112221495552
150,0.047300038594219516,0.047327789212646874
151,0.04731832444221139,0.04756768202466483
152,0.0474432728541412,0.04708451620393507
153,0.047322260696801254,0.04708403266301848
154,0.04727820941596199,0.04729390488650823
155,0.04734637793287528,0.04806206170131394
156,0.047278308066175424,0.047286942989316245
157,0.04733693806810392,0.04727645428599856
158,0.047270634727512334,0.047471513343944075
159,0.04730084941213985,0.04713333644496237
160,0.0473125645850631,0.047175715723749026
161,0.047326138150765834,0.04728027297611677
162,0.04732063593421813,0.04715287684806238
163,0.04727953665560003,0.04718860087661924
164,0.04731935444924471,0.04724015480152904
165,0.047315754416249065,0.047146251764745344
166,0.04729736838593995,0.047651685465600606
167,0.047324104118440076,0.04727304664211849
168,0.04727567864401783,0.04735144261555965
169,0.04732871707007706,0.04771531615538586
170,0.047242875996348764,0.04724739187918221
171,0.04731007854489209,0.04877350696648494
172,0.04731080309896589,0.04731922489668124
173,0.04728922740869718,0.047877544082918784
174,0.04731881727042387,0.04733782767332155
175,0.04731765628563796,0.04738817665058511
176,0.04735281184125099,0.04729963112519591
177,0.04727488068892039,0.047161958735339175
178,0.047275670180968246,0.04751459884603567
179,0.04727404703386873,0.04711037899213884
180,0.047379995376872215,0.04756906783265586
181,0.04740618440738732,0.04764040180238665
182,0.047200089068912106,0.047387239835633005
183,0.04731180365506312,0.04774621800293862
184,0.04726463539911498,0.04730977043039044
185,0.04726223423511242,0.047440379878598685
186,0.04727639790049655,0.04772411479416944
187,0.0472852309926046,0.047060685363122585
188,0.04729020232550627,0.04713804706719416
189,0.04727462612890559,0.047332287143442515
190,0.04725840695643072,0.04842272495531904
191,0.04734333983207826,0.04738065571286778
192,0.047240031810163216,0.04744969857320037
193,0.04729113197452921,0.04737044567714174
194,0.04733376775672443,0.047244801308780365
195,0.04727591410410299,0.047325315208254407
196,0.047303222687088614,0.04792553688904481
197,0.0472786278932167,0.04809289257723512
198,0.04729238218612236,0.04725725886183361
199,0.04731760455889525,0.047757434128727044
200,0.04726931316812309,0.04753034478369527
201,0.04725497423840179,0.047201585356842934
202,0.047282835185754116,0.04729310869758959
203,0.0473107464617486,0.04710332053436382
204,0.047267912971161063,0.04712571883493272
205,0.047251550108492135,0.04770650632014967
206,0.04729470598707192,0.04727410363958121
207,0.04724595666699987,0.04748583649121219
208,0.04730640492177934,0.047415465154724036
209,0.04722980935748914,0.047474409738039534
210,0.047265583585253915,0.04719712144762113
211,0.04733941762847342,0.04836869607631767
212,0.047245618016969006,0.04724300864440019
213,0.04728643222005485,0.047280349684166174
214,0.04724533148526812,0.04714686935730778
215,0.04725342354536962,0.047277934978633016
216,0.04723175420916433,0.047070496781025706
217,0.04729135245156231,0.04715883709790204
218,0.04730978417995689,0.04721327981049373
219,0.047214721659307096,0.047541995577649425
220,0.04723353754970239,0.047069276000160636
221,0.04727467323849194,0.04747468050813336
222,0.047238183548029285,0.04737173878509131
223,0.04730444501856153,0.04710336842801313
224,0.04721838587539183,0.04712565053598375
225,0.04726704579445241,0.04729334255878909
226,0.04726939679955026,0.047057306163171754
227,0.04726979868124715,0.04708702506493092
228,0.04724073258312724,0.04735293553373243
229,0.047312851122719685,0.047390937622880595
230,0.047241678209804135,0.04748677502326732
231,0.04726992555701142,0.047441178816646314
232,0.04725550217099851,0.04753856287994249
233,0.04725964250062391,0.05057008353068589
234,0.04722618863439198,0.04731371398976965
235,0.0472889821723306,0.0472074415514153
236,0.047232329376417095,0.04709856755496389
237,0.04727160197337993,0.04720522768225083
238,0.04728941905269806,0.04734125863334374
239,0.04721242132530414,0.04740524556908254
240,0.047308440387939854,0.04720193524304674
241,0.04721481018483067,0.047369383516608965
242,0.047246933397319585,0.04723661385576557
243,0.047271842251626325,0.04710549593336392
244,0.047227345993645566,0.047637623038669225
245,0.04725891640551275,0.04722537132951812
246,0.047270698909112494,0.04746525882851353
247,0.04722061208624253,0.04736667889410714
248,0.047295699500554,0.047156039954713694
249,0.04725891408427871,0.04727579079327286
250,0.047297138187715665,0.047254853479817054
251,0.04729195875521425,0.047147474800778265
252,0.047235162081502136,0.0476212686820113
253,0.047251753512022494,0.04711855219378656
254,0.04726241143207422,0.0473661581620327
255,0.04726454953578927,0.04727186656012343
256,0.04722283958352441,0.04787661531247675
257,0.04723306366657134,0.04744103741732844
258,0.047232677043377636,0.04728464377366283
259,0.047306310954234966,0.047156377900582934
260,0.047243718048937317,0.04711817890029304
261,0.04728738147524192,0.04727623480259666
262,0.047220111079365135,0.04707487441464118
263,0.047233443171214716,0.04726656823585893
264,0.047276601074732465,0.047118509830737926
265,0.047252133385919264,0.04725536291547055
266,0.04717763520473485,0.04766031708671243
267,0.04725408553630471,0.047275991467928075
268,0.04725059683022977,0.048279372568006296
269,0.04724777286215652,0.04729542947111867
270,0.047219475825055895,0.04755273923254333
271,0.04727814992894229,0.04720201647613306
272,0.04725309986796834,0.047415705696159965
273,0.04726647998360421,0.047245374330170245
274,0.04726336069619484,0.04729891407002872
275,0.047255915154120046,0.04727219970163249
276,0.0471958864798887,0.04722452372159653
277,0.04726073180707239,0.047194327844487655
278,0.04723986621341593,0.04734241507870999
279,0.04727975069601044,0.04716897046674211
280,0.0471943722521182,0.047638503015747014
281,0.04721783670774705,0.047850938062547414
282,0.04723792890314576,0.047153877336958215
283,0.04724377308407133,0.047165796933982346
284,0.04725867012838761,0.047419764374948055
285,0.04726149142979623,0.047214826732144735
286,0.04727186739808031,0.048838998257949205
287,0.047218836013147296,0.04724329505365668
288,0.04725226941857216,0.04708687473608926
289,0.047242513635187604,0.047982558408118464
290,0.04725480797312719,0.04737005990230858
291,0.04723531364810934,0.04723518945117964
292,0.047193833215118976,0.047684431158376665
293,0.04728578956876632,0.0473889993722738
294,0.04726033418816771,0.04788729858356098
295,0.04722441932548293,0.047065466568873636
296,0.04723124898118462,0.047445801837221316
297,0.0472545921340954,0.04750083971712753
298,0.04722623632465907,0.04716397777799555
299,0.04725675989421819,0.047161861898373125
300,0.047254957135120554,0.04904247882122493
301,0.04720061800057749,0.04721096162438016
302,0.04723907380456404,0.04765868056109785
303,0.04725871517134608,0.047402298649818576
304,0.04721427838400685,0.04712379880796386
305,0.04723711576696923,0.04715828991244417
306,0.04727721158310855,0.04733653143401116
307,0.047194682146540934,0.047310557142899744
308,0.047256983971471885,0.047101971567641496
309,0.047194016741500866,0.04717464954978195
310,0.04725104513065182,0.04756854940573343
311,0.04726060326371214,0.04715333369449545
312,0.047192264995950875,0.04731152921432854
313,0.0472752035399683,0.04710956035445032
314,0.047213121772193604,0.04706150581494221
315,0.04724549345052738,0.0470957163612534
316,0.04721305741192244,0.047098292106940415
317,0.04726356777588098,0.0472195053498107
318,0.0472595977360944,0.04744946602040986
319,0.04723153691247499,0.04715158132029126
320,0.047212666805854425,0.04722278249386078
321,0.047241985075753466,0.04712790196089643
322,0.04725118956977515,0.047488327881272795
323,0.04724752961797156,0.0471422029298972
324,0.04725496401395395,0.047485063683121054
325,0.04725918090410179,0.04732668549175233
326,0.047194643577428266,0.04794654829961254
327,0.04723466371448873,0.04713776240150291
328,0.04723002359890442,0.047148325592985096
329,0.047206384380706116,0.04745309770801167
330,0.047263362130029594,0.04725612070185045
331,0.047264826505613936,0.04715732380383205
332,0.04718163658490331,0.047196248524190874
333,0.047238934774705164,0.0475657762137801
334,0.047276461011559655,0.04747609230200889
335,0.04724138016126853,0.04730538660167895
336,0.04724494000073436,0.04786353350426611
337,0.047274627116062846,0.0473590425076735
338,0.04721528076254826,0.04748272771734653
339,0.0472142969419678,0.047875914387493126
340,0.04723859077645577,0.047215314859843385
341,0.047213110447430214,0.04723822198155459
342,0.0472057361757274,0.04805713740854444
343,0.04728100908329066,0.04741421914361741
344,0.04720463943358758,0.04733081146686587
345,0.047264554540066124,0.047306589867505106
346,0.04723590039473167,0.04728564201033106
347,0.0472541115240013,0.0471192390173556
348,0.04719245428893921,0.04717327424728598
349,0.047298897172418905,0.04715317622085867
350,0.04720184653491187,0.048134990645118274
351,0.04722051386483948,0.047392904708469206
352,0.04726025780036057,0.047164648909477525
353,0.04720468774920316,0.047335038856906785
354,0.04725572358009865,0.04714283621160647
355,0.04724106529830314,0.047179111850689785
356,0.04726068894092223,0.0472053798516858
357,0.04716196165030761,0.04734672907954516
358,0.047205959926906536,0.0475702275122915
359,0.047267807960260116,0.04728708010469729
360,0.047206847637379576,0.047112872616785574
361,0.04725156604445619,0.047153578466943805
362,0.04722009849199336,0.047078735700087374
363,0.047234708435839406,0.04708827155235722
364,0.047268119386786656,0.04713496579931962
365,0.047162071363233644,0.04743661296913355
366,0.04730742695264155,0.04721836427604484
367,0.04721640830161236,0.04746558543091791
368,0.04721208796989051,0.047244851472298746
369,0.04724948298927548,0.04724287463391778
370,0.0472501686451842,0.048274664577293694
371,0.04723794610916282,0.04730517069655511
372,0.04725059734539782,0.047146141493800316
373,0.047229730300039505,0.04742896788251522
374,0.047212132308587465,0.047083529904661164
375,0.04720048577212792,0.047095898782868226
376,0.04726225480312209,0.047144182364514425
377,0.04728717605868499,0.04717842815848157
378,0.04719202378563744,0.047048894522363216
379,0.047212962953032823,0.04709824563930989
380,0.04720519078846315,0.04706914898158061
381,0.04721066876084542,0.04733585222567643
382,0.047245683915299666,0.04760866376976376
383,0.04726385782293374,0.04726676031323804
384,0.04720912625690063,0.047217776094752216
385,0.04717511957664665,0.04746973819460282
386,0.04727027816571396,0.04717452920849811
387,0.04720502467803675,0.047075013532329
388,0.04721023150675779,0.0471908322461214
389,0.04723694542055126,0.04749317471917069
390,0.047228463693893406,0.047145003372040334
391,0.047228126963086835,0.04713599735190291
392,0.04727831188080122,0.04729685401389612
393,0.047200208010195165,0.047435104320650505
394,0.04723121101806442,0.047309493379933495
395,0.047211596780984424,0.04713988882778381
396,0.0472175420003591,0.047507064156792914
397,0.04723962629400045,0.04713139998790497
398,0.04722861521583286,0.04709383780937921
399,0.0471870603529717,0.047095677211892444
400,0.04719755282963542,0.047203396871133216
401,0.04725491430321567,0.048228902005735305
402,0.0472342896071984,0.04760696667510408
403,0.047208185557076496,0.04742942162110943
404,0.04719251509812429,0.047108007940421824
405,0.04722764053278499,0.04892130060843247
406,0.04723115794235568,0.04716604643434451
407,0.04719327941542859,0.047380298620123704
408,0.047318529217041654,0.04714404505801747
409,0.04714918521632679,0.047127696943499484
410,0.04726974901368768,0.04789348903105498
411,0.04721457946399371,0.047683159714151574
412,0.04722887257651555,0.047143350598632394
413,0.04720069561228096,0.047698127336641326
414,0.04723388935289652,0.047303005406117
415,0.047191412333282924,0.04715685607261232
416,0.047258839247931395,0.04739452957013224
417,0.047193916131862156,0.04738539650789282
418,0.04720511507216117,0.04722297557092315
419,0.047248531461988895,0.04725733963036123
420,0.04723755120159053,0.04736088404774478
421,0.04720042950714187,0.04718161611020236
422,0.04723178700720378,0.04732327886813724
423,0.0472511279104139,0.04711976226921992
424,0.047206747606932685,0.04725243526363147
425,0.047198230074606926,0.0471918631577313
426,0.04722140780348572,0.047107436051026234
427,0.04723429787073204,0.04735568510375817
428,0.04722157680540443,0.04773469054637787
429,0.047212329406520544,0.04728111463592292
430,0.04728843713347479,0.047436361466464606
431,0.04719199897419158,0.04721440237835814
432,0.04720658668689876,0.04712853228471932
433,0.04724183849555602,0.047120902846084396
434,0.04724916348086416,0.047079966057330114
435,0.04723507494514556,0.04712956013259402
436,0.04720160316714613,0.04709322818194023
437,0.04724391280628032,0.04729541377021087
438,0.04720675314722254,0.04715747013394063
439,0.04719798052184683,0.047357334116592875
440,0.04724548519741622,0.04743826398427503
441,0.04719587423943644,0.047426441074264455
442,0.04727624601377048,0.04745397171933254
443,0.04721485544070542,0.04718797015880353
444,0.04720988111357561,0.04812098436216341
445,0.04723226338130631,0.04764628884600859
446,0.04715457036317014,0.04719312308501708
447,0.04722173071557955,0.04710778044191231
448,0.04725487076407142,0.04709946692295684
449,0.04721714566044098,0.0471126638593971
450,0.047195969167337426,0.04748257114342469
451,0.04724803545641051,0.04703498993365898
452,0.04718366909703667,0.04731211806599701
453,0.04723200297130526,0.04709895183909287
454,0.04721590368409189,0.04708175517283468
455,0.047229448835150324,0.04757044698099217
456,0.047216175697285305,0.04727292573336738
457,0.04726411956552264,0.04718143423547308
458,0.04720409431730767,0.04708286964620487
459,0.047178750939601714,0.04726109666942421
460,0.04721001107588137,0.047162762321914006
461,0.047226961048470316,0.04707185399219476
462,0.04717411667995935,0.04714680634197892
463,0.047250923692441577,0.047336023030383624
464,0.04719980836784144,0.047047722429013575
465,0.0473031732309565,0.0470820041204308
466,0.0471939595638038,0.04721843518887153
467,0.04720075520948112,0.04786730367446285
468,0.04722914018695779,0.04768743525070286
469,0.047198319203145114,0.04764725097058886
470,0.04723544124600222,0.04814778192478931
471,0.047188112294847824,0.04878918337911344
472,0.047238740015873235,0.04707966852218689
473,0.04718227504784588,0.04713116758506695
474,0.04725783936929503,0.04714642262825744
475,0.047210776908911296,0.04708929892097201
476,0.047170725587806064,0.047129049667854805
477,0.047248645128010754,0.04775204316616623
478,0.04720848977273936,0.04721092983151197
479,0.04717816742245766,0.04720978772572015
480,0.0471956536164887,0.04709836979409137
481,0.04723718925286159,0.04719837274234786
482,0.047260042229335275,0.04710373668486713
483,0.04719866522186571,0.04719904679643327
484,0.047206741722701166,0.0470793659151212
485,0.04718397812788292,0.047338933105438644
486,0.04724709615022016,0.047199189415952775
487,0.04720225529544216,0.04715879189457683
488,0.047234556788830255,0.0473511839034102
489,0.047199801958019406,0.04724627617090917
490,0.0471931086029771,0.04749758868245224
491,0.04724266323790276,0.04716833677339855
492,0.047175184685847076,0.047201890054422754
493,0.047228344015592484,0.047257971768315234
494,0.04718361572949863,0.04716979986572698
495,0.0472550603816454,0.04747439998230693
496,0.04722974307650475,0.04706134568038378
497,0.04720036366836821,0.047563549272286766
498,0.047231382875741246,0.0484929306266481
499,0.04724086928430745,0.047125911129889946
500,0.04721582414274164,0.04719562859413374
501,0.047181159859414484,0.04744545778740365
502,0.047231940764019625,0.04738992268562129
503,0.04723655305755176,0.047269995644065275
504,0.04723427093756809,0.047126174043649376
505,0.04720093485870235,0.04772801711367356
506,0.04724789268190531,0.04724024654305066
507,0.04722767914656541,0.047242408061154546
508,0.0471980205396835,0.04709660002245805
509,0.04723766060035339,0.047033771416782486
510,0.04723427514527008,0.04714170354988129
511,0.047221865802765085,0.047321560597833726
512,0.0471956752595022,0.047121020017784225
513,0.04724260863455699,0.04725944734786379
514,0.04720157340502472,0.04747488230302189
515,0.047243513772896914,0.04723902142826459
516,0.04719011591290303,0.04708588730188082
517,0.04718621562776282,0.0484278386116216
518,0.047234770029687956,0.048352199264793956
519,0.04719518246553499,0.04758656189292552
520,0.04719930788059887,0.04770006738667801
521,0.047202540874231064,0.047450689967918694
522,0.04719195705350879,0.047196603946875845
523,0.04718608710524752,0.04711004574478096
524,0.04727580963814859,0.04741566063984699
525,0.047205809100295044,0.0472123248777525
526,0.04718559004997702,0.047303984701727544
527,0.04725368660863498,0.04720229474973189
528,0.04719955605461443,0.04717583914346928
529,0.047215229902359886,0.04717044387344968
530,0.047270046669147095,0.04709947706092128
531,0.04714856240198576,0.04729789287004776
532,0.047210232715764876,0.0475438033401872
533,0.047211551243702854,0.04721465760337714
534,0.04724297217494673,0.04709675634645907
535,0.04721168035881029,0.04751593253230522
536,0.04721161661495408,0.04735686265714261
537,0.04722006369283874,0.0471062363223147
538,0.04720565561446355,0.04748050232830251
539,0.0471740190719934,0.04707419394788163
540,0.04722615289274785,0.047618080512712394
541,0.047253309404380696,0.04799764292004453
542,0.04718529053038354,0.047147235976445365
543,0.0472739111724422,0.047306483739365156
544,0.04719058620028025,0.047332645868022515
545,0.04719100741417907,0.047095296276702406
546,0.04719199910521698,0.0472120829102978
547,0.04717237520352494,0.04733826775153792
548,0.04727516348044173,0.04705493646102715
549,0.047243186334471145,0.04734651809345104
550,0.04720143770737995,0.047788461248354355
551,0.047168691702883875,0.04705207938388661
552,0.04723283270155069,0.04719900759708816
553,0.047235461553450014,0.04815567873459495
554,0.04719442862877362,0.047115156140351916
555,0.047180784136640556,0.049426652482271946
556,0.04720994362460195,0.04750421693535329
557,0.04722251006060367,0.04713855196310952
558,0.04719290831129995,0.04720669371188393
559,0.047233119553370444,0.047213142042378316
560,0.04720761328280496,0.047173672718096644
561,0.0472751131890227,0.04714943215709647
562,0.047176401188178695,0.04718945570578233
563,0.04723047727583457,0.04744931031092001
564,0.047224740555091536,0.04728568601109611
565,0.04718120336431346,0.04712182502743759
566,0.04721382194065409,0.0472373293026188
567,0.04726051683906171,0.047162656640691275
568,0.04723029553616266,0.047303250513753274
569,0.04717437819027596,0.047098549322505213
570,0.047197608195310777,0.047249764256949676
571,0.04721771018783585,0.04712608124952008
572,0.04721041244389913,0.0475362345764462
573,0.047307771204008184,0.04750217222435887
574,0.047213054923928806,0.047075601934139996
575,0.047187323158653045,0.047261197172875656
576,0.04724540428625499,0.047557452718573666
577,0.04718034646267609,0.04724523736768194
578,0.04720493325953194,0.04708486108878229
579,0.04715639549187667,0.0474221743849101
580,0.047215120682268026,0.047080140751981324
581,0.04724626559957707,0.047153231000561555
582,0.04719293809724416,0.04736921673121656
583,0.04720117730631245,0.04716555148527767
584,0.04718815017012145,0.04715259212062598
585,0.0472416032885881,0.04711432954636068
586,0.04723431770767954,0.04728636929461028
587,0.04719190820932483,0.04710819154695535
588,0.04722752319507414,0.04794267935188812
589,0.04724112330830926,0.04714005151447482
590,0.047240662821036256,0.04703940663724879
591,0.047164009910800476,0.047123177737091695
592,0.047239910565513216,0.047093326900663014
593,0.047196581236106885,0.04724971441097775
594,0.047213911789831975,0.04717659889687303
595,0.04727843763838283,0.04719595194462725
596,0.04717851161873407,0.04743922815232551
597,0.04717294400711235,0.0473220861577903
598,0.0472760872124768,0.047176493356782055
599,0.04724698029696751,0.04734942386398752
600,0.047185606213746595,0.04746443528355626
601,0.047270805227289575,0.04763482681871778
602,0.04711914292836694,0.04728283214176275
603,0.04720579330726779,0.04740654870326724
604,0.047249264205150084,0.04715576779976452
605,0.047177779416052654,0.047431282119879875
606,0.047199871458059595,0.04736413362699884
607,0.04727051803748385,0.04811058670646954
608,0.0471696985467113,0.047496662769928255
609,0.04722355940877248,0.04710951308119269
