epoch,loss,val_loss
0,0.5128982217787362,0.45566784716913245
1,0.4525401629060864,0.448668834207184
2,0.4523318707704735,0.4464142067091806
3,0.4539966228292238,0.4471785508466689
4,0.45292275584191916,0.4504214807721509
5,0.45262880929463584,0.4471159129746805
6,0.4518753093280952,0.44922538345125407
7,0.4520667912862856,0.4540603886040158
8,0.452058447708043,0.4474231923482695
9,0.45110945685876075,0.44997574867652734
10,0.4520938884106567,0.4498614056569531
11,0.45116890894232703,0.44704315139255657
12,0.4509551510584059,0.4476507644579932
13,0.450761094713192,0.44918269968070473
14,0.45072349317544563,0.45239754807977295
15,0.44934342402538996,0.4478254450430716
16,0.4508525887362772,0.4473474899096666
17,0.451078068057029,0.450147613000945
18,0.45114947261093713,0.44554699012964094
19,0.45147372940652,0.45052563043306826
20,0.4516095242006697,0.45138864770778636
21,0.4520613379734788,0.4507393596345454
22,0.4525599939336213,0.4486530615809214
23,0.45255201675003764,0.45461117588542255
24,0.45249596703872025,0.45057913903279295
25,0.45277958765304344,0.45077054107292674
26,0.45316040757701076,0.45495085033640303
27,0.4532278289945482,0.45142069494244424
28,0.45263559465928616,0.44874961181428363
29,0.4531751294120801,0.4480956721089445
30,0.45196519996956,0.4521623951248419
31,0.45274965597285355,0.4458699916748899
32,0.4518062768937301,0.44568205858274246
33,0.450823706307476,0.44559618790693517
34,0.45014153710372157,0.44709716552622975
35,0.44950842640573363,0.44620057310094585
36,0.45047126722326286,0.45076239704144877
37,0.44939116069929397,0.44910401973841035
38,0.44963606665555617,0.4450256687830825
39,0.4499041970065839,0.4433451554110978
40,0.44959711482961306,0.44840307351445813
41,0.44946666211961844,0.4486262286706712
42,0.4503222301328401,0.4446211452312891
43,0.4502732679783869,0.44847911448109873
44,0.4495865228555376,0.4473010039790559
45,0.4498438252081021,0.4442540207949791
46,0.44991210014890615,0.4467771618076451
47,0.4494640401584639,0.4518923594571515
48,0.44871741192613385,0.4449498110054606
49,0.44892366743869155,0.44639834763971764
50,0.4500345036589937,0.44524116057905516
51,0.44835798157681284,0.442303071623255
52,0.44761762134939265,0.44291805821134994
53,0.44725162018355513,0.44680643719110136
54,0.44804734868301954,0.443003722317311
55,0.4480538196343598,0.44437839680049207
56,0.44795409377387385,0.44795125283024495
57,0.44772165646846535,0.4450145883172539
58,0.44849118778555036,0.4435305491666109
59,0.44812252086034116,0.4443071570656106
60,0.44836752985021194,0.44544257151864136
61,0.44868436342568324,0.4440421474760879
62,0.4488103841182044,0.44555616606947185
63,0.44966303769776006,0.4442877040524697
64,0.44899743995506414,0.44478843561664
65,0.4492699113681162,0.4458091398958343
66,0.44990785714152526,0.44513792869794433
67,0.4494906761687246,0.44736151845321565
68,0.44991460990467425,0.4451214263264175
69,0.449767939823804,0.4476697851845667
70,0.4500067048817039,0.44929299381838694
71,0.44951134341226207,0.4470252567797829
72,0.44824858070563356,0.4471058099168252
73,0.4488642164152398,0.4455835971431461
74,0.44853621452070064,0.44519136797845504
75,0.4482311913602167,0.4457776495906059
76,0.44897905753242023,0.44782314177282045
77,0.44995818585514735,0.44630403382719835
78,0.4499155589573675,0.4497250351222745
79,0.4495265621551983,0.4465330985698911
80,0.4496773774746797,0.4449853370202839
81,0.4495023637176227,0.44394909876862565
82,0.44987997120852286,0.4491051941427925
83,0.45000919711580284,0.44418256606938994
84,0.4499404808576349,0.44996239596591187
85,0.45020592508079715,0.4479959814823229
86,0.4503055069681933,0.4480234664212839
87,0.4510366715472951,0.44431303903731006
88,0.44973798602414455,0.4459940089470021
89,0.450183228706475,0.4459035850784961
90,0.4503400388548224,0.44569298015773623
91,0.45063172796552037,0.44712810393572794
92,0.450137242031612,0.4521526006280482
93,0.45081646123426045,0.4494765790645401
94,0.4503575278390988,0.4474831809419859
95,0.4498028016323857,0.4487230873239633
96,0.4498864339409972,0.4467759350669036
97,0.45041605692020326,0.44705808517870793
98,0.4508314243109106,0.4493599651879745
99,0.450699218266683,0.444885561103038
100,0.45029311413339956,0.44735525570803963
101,0.450643651324401,0.44475109645863076
102,0.450422132174841,0.4520732773836899
103,0.4501828753071533,0.4457263871027714
104,0.4497422402520641,0.4451776968981209
105,0.4492577026001841,0.44360180924798714
106,0.4496868243701548,0.44536145460727933
107,0.44921306586808724,0.4472695805938016
108,0.4504223295110021,0.44919655310326706
109,0.4502835897780913,0.44489073492263187
110,0.4498980661376203,0.446726365642653
111,0.4500405256220286,0.4460177494487898
112,0.4495497520664613,0.44497269208542267
113,0.4504825707962759,0.44740216265819915
114,0.452229578241551,0.45249447322964387
115,0.4521242230773258,0.4463670223175115
116,0.4515770102957551,0.44782160541252913
117,0.4523167608977317,0.44844975653556546
118,0.45175255919627244,0.4522207726525244
119,0.4509646582612984,0.4454986652052111
120,0.45150600159339765,0.4460781754098168
121,0.4507447832779919,0.44507725904941936
122,0.4520842406770689,0.44813443340461084
123,0.45149006055508684,0.44639233822604285
124,0.4517804621030196,0.44863942858263933
125,0.45227183271750365,0.447839053013989
126,0.4524060019390951,0.448896822467411
127,0.4516790148308523,0.4475450704863623
128,0.45267516119684054,0.4471634086559585
129,0.45325388574152353,0.44996648354142693
130,0.4532307222259226,0.4513327174517896
131,0.4535297032931059,0.45247008015814033
132,0.4536175292839916,0.4481170150879903
133,0.4529529812214948,0.4497955094996455
134,0.4530282453667346,0.4505962866822283
135,0.452998651076945,0.4458879282743609
136,0.4531646397092836,0.4513497917832779
137,0.452725699765505,0.45185755486081886
138,0.4526437819361401,0.44956522683694594
139,0.45369181992243424,0.45115032429853197
140,0.45372919778791454,0.45034290267994015
141,0.45391539667102454,0.45062775845215275
142,0.45331187429521486,0.44768015432282515
143,0.453335542711232,0.45054872170525834
144,0.4539991549069552,0.44980966433259384
145,0.4539354368746519,0.4502892416343975
146,0.4544727852185377,0.4507294009074322
147,0.45372305571032373,0.45106793976526327
148,0.4548133747826377,0.4495436487794393
149,0.4553566645684955,0.4492674682586327
150,0.4551183385528821,0.45273361230987963
151,0.4548827005233124,0.4501358269939483
152,0.45530698407325243,0.45101547859838464
153,0.4558233934507477,0.4529292510782722
154,0.4550531634943281,0.4522946059656783
155,0.4561496364960758,0.4521077891081078
156,0.4554988601439291,0.45062122609827965
157,0.45516013494021984,0.44907350728807244
158,0.45492133293315756,0.45147652605338273
159,0.45437021680968365,0.4528433882587993
160,0.455131120878539,0.4503641124070867
161,0.4555124491453171,0.45017685415995057
162,0.45504491489758786,0.44867452461604723
163,0.4556991800749235,0.45042123637899417
164,0.45524027321836075,0.4519994091639485
165,0.4552956294837139,0.4506685420247449
166,0.4557773610241979,0.45127332438703777
167,0.4563944220876427,0.45304695162231184
168,0.45635238478033185,0.4514589945255722
169,0.4560794642241262,0.4503336590203885
170,0.4557711035966111,0.4513764155833102
171,0.45632362664698795,0.45213776944468315
172,0.4563380405366373,0.4521495227796785
173,0.4562074677716437,0.4537219426108799
174,0.4560333466906246,0.4520482791627404
175,0.4570659791751445,0.4563361316707629
176,0.4576378672910061,0.45283638610083377
177,0.4583163208526959,0.45254037525113777
178,0.45814949506335406,0.45168405827708197
179,0.4562219274248913,0.4512496777143456
180,0.4572141805498434,0.45623592438430605
181,0.45878504400106546,0.45341717357134953
182,0.45763553281148656,0.4546675092137133
183,0.4585302252706578,0.45528279253132437
184,0.45877187656794044,0.45671262238659815
185,0.4587458230013089,0.4534188616718
186,0.45937200747043205,0.45776731436800183
187,0.4590874989922765,0.4576640793349485
188,0.46004705700418835,0.4581201697957732
189,0.458960895343936,0.45837827813653564
190,0.45959873435546833,0.457998422980779
191,0.46011333422456907,0.4560219788513695
192,0.4606194127020504,0.4586263298517903
193,0.4615801845094283,0.45500693882461973
194,0.4607160794291851,0.4586466214698228
195,0.4606049566698684,0.45528271759036215
196,0.4604516554055073,0.4583938486386023
197,0.4613854367550996,0.4557523245922486
198,0.4617998220866247,0.4569703857072621
199,0.46139216606470224,0.4572636294101483
200,0.46195560587729384,0.4615996567489787
201,0.46215608964959304,0.46263875023718415
202,0.46238841078311893,0.458507309114265
203,0.46251060288968227,0.45785873580280023
204,0.46250555091958157,0.4565148596793719
205,0.4634443353310668,0.45798224013154676
206,0.4628030715300311,0.4608432546599041
207,0.46293065109127146,0.4579086070373102
208,0.46264213682126276,0.45964866443798125
209,0.4631396237728026,0.46052287037954054
210,0.46380022027604967,0.4584668283868984
211,0.4635092531986755,0.46220015938487125
212,0.4638563012547916,0.4600131001967375
213,0.4640541113228154,0.45824497091365596
214,0.4647713615406427,0.4603102538608244
215,0.465543093810455,0.46209531382678903
216,0.4652238478310865,0.45941516935778304
217,0.4657506219607939,0.46395937845569574
218,0.4654143988538227,0.4609209524663114
219,0.46549223445588167,0.46332964526920123
220,0.4658461539960689,0.45974039963219426
221,0.4660556154618923,0.46207173748475505
222,0.4662655002946,0.4611388281187676
223,0.46555274324737295,0.459321238788546
224,0.46512399924744807,0.46024712052228606
225,0.4658965703895052,0.46229113458458043
226,0.46632857076365125,0.46315263798600026
227,0.46607630077502327,0.46222980173441397
228,0.4664916930724677,0.4618559128765808
229,0.4670408838372722,0.46476667707796254
230,0.46718180642949403,0.4610726266464288
231,0.4665190211946158,0.4626111162395673
232,0.4666054437605502,0.4619696030912196
233,0.46688655679889146,0.4627686557848809
234,0.4668277777213273,0.46579683861962057
235,0.4666476505670807,0.46190400923813246
236,0.466738399913271,0.4666510499784489
237,0.4669368294812888,0.46180849408858765
238,0.4665403607413828,0.46142961667011173
239,0.46749528540934115,0.46359336759598124
240,0.467772441206695,0.46471432693473164
241,0.46747672144505237,0.4662623403574786
242,0.4675927189209288,0.46374220316957654
243,0.4683054348976492,0.4637901902481055
244,0.4683598755813426,0.4647401265017894
245,0.4680590747500495,0.4628115914050481
246,0.4683661216216312,0.46479021176260665
247,0.4681092038524332,0.4649305532979702
248,0.46851073353172396,0.4647570948198073
249,0.46843803560228753,0.4661386124289873
250,0.4686495496286191,0.46343326262818046
251,0.4688218577112035,0.46853861532629054
252,0.46911083215432203,0.46628479180885474
253,0.46922585249042437,0.46731592182014153
254,0.46908759126226773,0.4647876414945959
255,0.46894548380737017,0.467875511536188
256,0.46952656965604506,0.46391724500490533
257,0.46927527927285095,0.4682938600960169
258,0.46932052802458274,0.46334705610583876
259,0.4693388558930154,0.46556259422388807
260,0.4695110399779275,0.46709769585514593
261,0.46936119519930475,0.4645690416715798
262,0.46955918965579796,0.464939383982483
263,0.4692613476876923,0.46787582447233406
264,0.47003904243500877,0.46458456922254887
265,0.4695579749193313,0.4648466581609556
266,0.47011609588690895,0.46756796843439175
267,0.4697061756865488,0.46824958485322576
268,0.46952871391050915,0.46996860092045667
269,0.46992584830708356,0.46563196680916513
270,0.4697418798216813,0.46508072364866593
271,0.4700647571342264,0.4660240717073454
272,0.47022406064825567,0.46718255101740597
273,0.47013623447869896,0.46845160578778156
274,0.470575375582198,0.46737629316317914
275,0.47059492880015447,0.4678241674506768
276,0.4713041014570317,0.4685228626936933
277,0.4714750823357122,0.468151303191964
278,0.47193997118065206,0.47004655720967425
279,0.4716116806252493,0.4720032558774233
280,0.47194102698331064,0.4689472553620869
281,0.4721481776137432,0.47144158954872517
282,0.4718355841154484,0.46788244778562366
283,0.47084242337756305,0.4660570650657708
284,0.47001782042993534,0.46553775503490513
285,0.47021574526429655,0.46793359859119554
286,0.46994534979383057,0.4651154953142556
287,0.4701434205785739,0.4693009374691166
288,0.47048068196653464,0.46536925141041735
289,0.4702295824635229,0.4667401264856063
290,0.47070950575822074,0.46927841030055367
291,0.4706403066119035,0.4687535926970141
292,0.4708625918312324,0.46757532857305534
293,0.4707441507793254,0.46705954763582586
294,0.4708550905676292,0.4686137655163338
295,0.47052838600320307,0.4674352430742184
296,0.4708150741722372,0.4672321045408121
297,0.4710238078396193,0.4686690237499544
298,0.47050335246929637,0.46858488360821215
299,0.47080036856049445,0.4715850169769685
300,0.47158827666613123,0.470049858493135
301,0.4710838837112835,0.46757047389940476
302,0.4710945571116883,0.4669951599182439
303,0.4708537044142076,0.4692868246934314
304,0.47097492519375994,0.4682229553373573
305,0.4709548261478174,0.46627975255838977
306,0.4710331725107013,0.4653958152059316
307,0.4709899802025941,0.4669814531550976
308,0.47095410831921775,0.46997047425633637
309,0.47160539474132823,0.46705368220006377
310,0.4719615874649714,0.4685247539768279
311,0.47142253076429846,0.4709359225835401
312,0.4718634093479573,0.47063730519497216
313,0.47214238970971506,0.4676974749320496
314,0.4716725173256666,0.46936714618621894
315,0.47187102371030193,0.4704778516443113
316,0.4717355680813511,0.4726272997135427
317,0.47176501243043956,0.4725230304434625
318,0.4718612096459269,0.46960765257442477
319,0.47175284609091367,0.46689673841893437
320,0.4718191581283161,0.4685461693799863
321,0.47183291567601177,0.4702626698677617
322,0.47203175255434693,0.47120310593140624
323,0.47212303453069226,0.4675823663197452
324,0.47209398948746045,0.467786154176837
325,0.4718885478927649,0.4708210975990205
326,0.4720413351683117,0.47039455236556876
327,0.47217619121312904,0.46991152808528863
328,0.4724390292815644,0.4694616572068447
329,0.4722764294782131,0.468478627367667
330,0.4722620454623545,0.4705452485731858
331,0.47244259487572526,0.46738877607878493
332,0.47247167111491317,0.4681745304446006
333,0.4728004461545929,0.4691393154055092
334,0.47261620324244985,0.47129501015441855
335,0.4725328998790561,0.4693776504110895
336,0.4726795729496877,0.46866115271433567
337,0.47249751387359046,0.4688398359371342
338,0.47228394240307675,0.4711376721922958
339,0.4726083120710844,0.4691031660587654
340,0.47233725109879826,0.470901674893115
341,0.4723115115881347,0.46860412231278215
342,0.4727525502610073,0.47419752776857993
343,0.4724784500235848,0.46908110787102625
344,0.4722607147445877,0.4721331549330593
345,0.4736277543478828,0.4716976278394625
346,0.4730740772615329,0.47015731995182897
347,0.473288345727608,0.4689193273870232
348,0.47326235358806534,0.46965491197762194
349,0.4727660892226046,0.47132965908242475
350,0.47291516077270707,0.47009281238986456
351,0.4729535460805626,0.4698900679198418
352,0.47366673726257946,0.4699363135501166
353,0.47335974102635847,0.47435293493067643
354,0.47392307192110994,0.4698976140701592
355,0.4739971079533811,0.46869571966831386
356,0.4735071856340916,0.4689152868319047
357,0.4733073341546299,0.47422810055274334
358,0.4733610767826474,0.47047481888753745
359,0.4736935826156923,0.4711193835161385
360,0.4731455733426374,0.47305250205481814
361,0.4732781770132143,0.4711530602815684
362,0.4736498921609325,0.47235971376382185
363,0.47332370820805897,0.47059583334633
364,0.47343623625050535,0.47182817071464556
365,0.47368748239476044,0.4692717499401782
366,0.47343932501941943,0.47048460303466905
367,0.473955683106427,0.47101985048664397
368,0.4734733368305089,0.46987102745834447
369,0.47316795421971214,0.470413481991594
370,0.47371564851962117,0.4729180874180963
371,0.4737953635738146,0.468875701750181
372,0.47324505227980473,0.4716400143755828
373,0.4736994544950892,0.47168181197983877
374,0.4735597388731013,0.47017803315393736
375,0.4736079701440607,0.46976457365686347
376,0.4734072767549472,0.47155881393774346
377,0.473527206029061,0.4700684535663337
378,0.47356060168725983,0.46966234338782203
379,0.473244266317998,0.47249404915506293
380,0.4730095817721624,0.46936795844651624
381,0.4729608682443579,0.4697951887570316
382,0.4735925181640043,0.47072205387332255
383,0.47329335660337923,0.47213929719876
384,0.473406582058286,0.4695291282769348
385,0.4734650374316483,0.4714004086902411
386,0.4737450555741168,0.4716266363788611
387,0.4740377964971544,0.4710768125569058
388,0.4739880045112088,0.4711506176437086
389,0.4738410953923667,0.46973609143387357
390,0.4735628591834022,0.47056988982488157
391,0.4736091580679663,0.47043543216649625
392,0.47313317606489147,0.4689617037726088
393,0.4733105204540858,0.4703494572884094
394,0.47320676949336754,0.47088248005699906
395,0.47322085018542936,0.4685579099896016
396,0.47328873948275235,0.47069237847542705
397,0.4731243873099915,0.47045290011445084
398,0.47274489387524404,0.47230286370513
399,0.4730019812270415,0.4705686965323661
400,0.47268759642097113,0.4708061683526073
401,0.47271911868993804,0.47113262407405226
402,0.4730706244802399,0.47140013176621465
403,0.4732966290937244,0.46956532871337414
404,0.47346735628341124,0.46924495073689565
405,0.4729164760532997,0.47117997067315237
406,0.47289683054581727,0.4702089956734438
407,0.47290918585970154,0.4681399782859348
408,0.4724090870836084,0.4686411353858701
409,0.4726180079743731,0.4694207644688396
410,0.4728600421040464,0.4696332468183001
411,0.4728791550647536,0.47091345687785674
412,0.47282030063567404,0.46973047401365
413,0.47272445867768675,0.46803644504148184
414,0.4723981823519075,0.46736954748865744
415,0.47243369407028696,0.47252817163809885
416,0.4722934703318049,0.4683994445964494
417,0.47226909194871197,0.46900854561398514
418,0.4727798179804469,0.47097716024755587
419,0.47256050592989657,0.46922032526843455
420,0.4726771871201235,0.4701512936964313
421,0.4725679655988916,0.4681507212822138
422,0.4725743253096688,0.4699520690523929
423,0.47209518231886277,0.4686593619405329
424,0.4719399214386464,0.46781526577689087
425,0.4723080501710768,0.46947284352149
426,0.4723227339849579,0.4692487200132579
427,0.47214181166139246,0.46848658120058234
428,0.4718859109470694,0.46811807165017916
429,0.4725577168160682,0.46852116224421414
430,0.47265012651610433,0.4692604271276033
431,0.47277592662141193,0.4701186175081047
432,0.47278013764668425,0.46945084244506796
433,0.4726113850216595,0.4684761192917165
434,0.4731118230225085,0.46799337934487995
435,0.4729057029187441,0.4702786338686849
436,0.4731027192110829,0.4706329728969929
437,0.4739688245250548,0.47140209467371524
438,0.47484929785787533,0.47156120186352596
439,0.4747393517661914,0.4730905324761662
440,0.4752986773931913,0.4717430370994318
441,0.47505937243918245,0.47289534881064155
442,0.4754099950468321,0.47120522502471635
443,0.4749856608972656,0.470951035630543
444,0.4750162092663592,0.4710831229810933
445,0.4744196715090963,0.47136691410238574
446,0.4741044855541844,0.4729763492177393
447,0.47314477089545326,0.4698469122987896
448,0.47251517347675814,0.4671264048063012
449,0.471715869556228,0.4686493328827615
450,0.47198100095029644,0.4687800513964143
451,0.4721079837146709,0.46749500150556345
452,0.47169212429977053,0.466913467283407
453,0.47072960488754306,0.4661220986728322
454,0.46985913279483454,0.46824590371364483
455,0.4698177305557173,0.46628340711815675
456,0.47010701714897996,0.4648265949411475
457,0.47015186244968793,0.46652028470314105
458,0.4700787296707777,0.46834347305941415
459,0.4696681590365182,0.4645344368002033
460,0.4694059613964064,0.4638994375174687
461,0.46965299815916234,0.4669525058794511
462,0.4691986936888249,0.46565526836767096
463,0.4692273524930056,0.4644352052516606
464,0.4690994800780889,0.4669570345622682
465,0.46852144002199747,0.4633457959639151
466,0.4647754358349563,0.46123838697537345
467,0.46238353103994845,0.45598117926032317
468,0.4587232455980482,0.4536023183939677
469,0.45567014849157356,0.44845878252290605
470,0.45168005953208623,0.44395964777930663
471,0.447879286943008,0.44276814519088853
472,0.4457152372689175,0.43920466974201217
473,0.4440989354841238,0.43885313937677206
474,0.4437294311160378,0.4388896172782428
475,0.44393609725028205,0.44019410239963336
476,0.4444014160371989,0.4407974098409925
477,0.4456549101739193,0.4414619645125864
478,0.44704042532318217,0.4431967156885549
479,0.4489112994153437,0.4471960186534918
480,0.44979410777560813,0.44469866340049347
481,0.4512266082872304,0.4450302040050043
482,0.45224660824385765,0.4499307406776612
483,0.4538134001761222,0.4499646866989587
484,0.4532868276587684,0.4467777019894396
485,0.45045296065241314,0.4437384907900111
486,0.4485433403012469,0.4404854947596718
487,0.44497160302649297,0.44312741994951876
488,0.44308970258723823,0.4384747123097282
489,0.44075395434880427,0.4335915614463442
490,0.43696825166972136,0.4277906928743635
491,0.41761454333551973,0.4048385440174199
492,0.33395117044234446,0.2828070326122413
493,0.2813028692008018,0.26235988195147586
494,0.26547444218116034,0.24922728602022473
495,0.2575284886083824,0.2563641526469492
496,0.2583996152801575,0.24956391977577014
497,0.2574064151036272,0.24764401677940057
498,0.25836464002144804,0.25994027651193674
499,0.25953929550308497,0.2515241476665262
500,0.26068582325625855,0.2504536676519766
501,0.2608553919193747,0.25274892415977784
502,0.2603587333223136,0.2549364995608296
503,0.2610699814334095,0.2562266190689948
504,0.2607113160818315,0.2590720282004589
505,0.2618246337623714,0.25376082478119055
506,0.2634766457511557,0.2609143148704881
507,0.2630815814010245,0.2512283283326225
508,0.2632312029481029,0.25583778709855337
509,0.2643031521464328,0.26206339315908955
510,0.26450668763723684,0.26142453068857036
511,0.2656231713976315,0.2637450021604148
512,0.2656364000851302,0.25871631345508034
513,0.26588513113135437,0.257858994398516
514,0.2672614905831339,0.25804815202034076
515,0.2666160194672269,0.2705256003583616
516,0.26796807008657714,0.26203156799524907
517,0.2682495477864687,0.26328315481767
518,0.27010450817102627,0.2594127556707507
519,0.2695670515942059,0.2612694885872816
520,0.27120209427522146,0.26467975864705834
521,0.27181392048093245,0.26473815012326274
522,0.2723408646339612,0.26320775348366765
523,0.2736978258112733,0.27004208323423
524,0.2743668968705155,0.2658144258544872
525,0.27446345784824244,0.2671406347284001
526,0.2742333845328465,0.2759250846897982
527,0.2757108137726212,0.2645361042789521
528,0.2750880383461309,0.26398263789342913
529,0.2759552092122422,0.2702750748504121
530,0.2783425610771568,0.2682047851013215
531,0.27898402698486924,0.26796953689421643
532,0.2815214716356626,0.26715375672387814
533,0.2826959714055252,0.27830816340804004
534,0.2835520416271868,0.2802356514718087
535,0.28413944571114463,0.2737737419855529
536,0.2853140420288586,0.2761563737042419
537,0.2877005671711563,0.2762942535489586
538,0.2881990018234455,0.27959469392389974
539,0.2884937590070003,0.27781332248341123
540,0.28893001661073864,0.27764632860411786
541,0.2884060326609299,0.27495778022126693
542,0.28847776181239493,0.2850074742309861
543,0.28877376980609076,0.28282011680793084
544,0.28903047714254365,0.27791827878287767
545,0.28889292959781954,0.27862067621762865
546,0.28941590478308765,0.28505615530140116
547,0.29013881363647637,0.29009181126987454
548,0.29131992011190316,0.2829566473624983
549,0.2904280669254651,0.280695045003763
550,0.29127029419469413,0.28342334914367406
551,0.2910789297841531,0.2817774819358654
552,0.29166068978232446,0.2790808477619076
553,0.29107976778091,0.28388766748000055
554,0.2921083923176134,0.2861142263533849
555,0.29193983598054646,0.2793586634234735
556,0.2917948075764471,0.28292126399659695
557,0.29160731755119623,0.2821591522459355
558,0.2918550580096759,0.28238050943062637
559,0.2918307456752951,0.28762338011163185
560,0.2914715641848951,0.2875646634208187
561,0.2904580416772768,0.28379558664235716
562,0.2914694889272145,0.28756387722285226
563,0.290717113861363,0.2856764581698363
564,0.2907030428770921,0.2795985576526895
565,0.2897828942020353,0.28214318405810357
566,0.29112997788676825,0.28194966869930066
567,0.29045072072248856,0.28615952526008226
568,0.291262801781261,0.28051375999352834
569,0.29119523416915766,0.28868110028654925
570,0.2910933230075238,0.2809116902460521
571,0.29149408805832494,0.2835736755860915
572,0.29043742116811655,0.28407163286453735
573,0.29048516286863124,0.27978790915426344
574,0.29204012267142654,0.2839433914366536
575,0.29042791608545326,0.2828075295724357
576,0.2913722886646585,0.2825790744013173
577,0.2896198299672487,0.27667949953790527
578,0.29112420261477967,0.28707845178568747
579,0.29022948758350575,0.2762454489647354
580,0.2900731932404611,0.2827891851727569
581,0.29074665300732705,0.2765456413248908
582,0.290526142616352,0.2790862048058032
583,0.290889080128462,0.2819864044249669
584,0.29110332101369074,0.28333939928282126
585,0.29041718129964944,0.2784652135084253
586,0.2915748860255229,0.27993834497379144
587,0.29103995206282673,0.2845915169370579
588,0.2906954028992821,0.278157688930172
589,0.2909637896253241,0.28548312550609095
590,0.2918298829028265,0.28959013667507444
591,0.29065276166613246,0.28096914523073135
592,0.2917490329542797,0.2897386203601592
593,0.2914925582534213,0.282022318022874
594,0.2918496048695845,0.28423536001412814
595,0.29092554547946803,0.2833493512473712
596,0.29085539199179594,0.2829287901062051
597,0.2908358089298272,0.2981179197096128
