epoch,loss,val_loss
0,0.06921573538635807,0.06326537249866877
1,0.06172132328955953,0.06438271962733322
2,0.06073222251807857,0.05944584925730436
3,0.06014585676725253,0.060119400230396525
4,0.059942973499537436,0.05947935577095672
5,0.059603599164788586,0.059672450274347366
6,0.05929294750597768,0.05905499236505288
7,0.05927438674933531,0.059079907052437805
8,0.0591741996884604,0.05951920155467155
9,0.05892700134882177,0.05899697171939173
10,0.0583988860044628,0.0578272892849936
11,0.05819104837801328,0.05806198525521298
12,0.05782400098193711,0.05791265856162866
13,0.05777264417183692,0.05793949438468135
14,0.0576201229581081,0.057776861220221964
15,0.057348177795830325,0.057497967000857256
16,0.057156632336524786,0.057703140651553096
17,0.05693035033596397,0.057072620489246335
18,0.05684801104725107,0.05712784002941029
19,0.05682106344550594,0.05796602829978431
20,0.05678692711844506,0.05695465061492947
21,0.05599655677262313,0.056287545785047584
22,0.055839982769934085,0.05619926740040765
23,0.05540462626453389,0.05582958899544277
24,0.05516291163671502,0.05499953461335598
25,0.05415058559794887,0.05317546784086811
26,0.05311997178414577,0.052816506544427114
27,0.05250942863828783,0.0528297077881269
28,0.05216932085896278,0.05268405580797616
29,0.05200696365142071,0.05217612420642245
30,0.05196955202420574,0.05157684004716652
31,0.051860697499428746,0.05198211527870409
32,0.05172163240620279,0.05121376994040058
33,0.051103105760833566,0.050175301835493465
34,0.0500437858176825,0.04908589914672423
35,0.049713449526415224,0.05028219010718776
36,0.04944589900970715,0.04871117378818278
37,0.049223555421092406,0.04914273283633212
38,0.04900373319629669,0.04824745915066975
39,0.0487163087048719,0.04843917649626207
40,0.048651168032927204,0.04833577776986473
41,0.04846383849886565,0.049033805119648416
42,0.048403279503154234,0.048621299848012535
43,0.04842767139941158,0.048415459631543624
44,0.0482210568144819,0.04837549195934145
45,0.04827648263560186,0.04738284364311335
46,0.04813750963772841,0.04796403815828729
47,0.0481522674551243,0.04806441450658674
48,0.04799526253704077,0.0478349028212001
49,0.04799049830538778,0.0478261382683901
50,0.04804303697485989,0.04787621255600208
51,0.047911700274571055,0.04780654213113933
52,0.04788667220527078,0.048833627703680826
53,0.04778050537737719,0.04783167972082853
54,0.04771562646404842,0.04787495518785058
55,0.04774791198011094,0.04717539276599964
56,0.04767657649203747,0.04771375161300879
57,0.0476025653074222,0.04791804590322076
58,0.04749892817944484,0.04720608689164844
59,0.04754831505535979,0.047560223598463285
60,0.04735536515429065,0.046661676281561155
61,0.04735688569016724,0.04704800149748581
62,0.04727255353282443,0.04837446636021166
63,0.04727986776251392,0.04726984751615919
64,0.047262505202800904,0.04794191295076656
65,0.047205210318209546,0.047198754113078195
66,0.04714605800039232,0.04766844119639984
67,0.04704385596410573,0.04693166605805203
68,0.047101274649135105,0.04762177057333535
69,0.04703358794426469,0.046798639604518605
70,0.04692130835378712,0.04694401874457354
71,0.047009517233824565,0.047131517778520635
72,0.04699890971867767,0.046851285925551794
73,0.04688933879732141,0.047240114003083845
74,0.04699179521987031,0.04739773874220624
75,0.04688769883514843,0.046947757213744584
76,0.04684933047355804,0.046747035788848694
77,0.04699385570747257,0.04697025577586966
78,0.0468786794836752,0.046939847178902726
79,0.04679057654811134,0.04633083951576529
80,0.046855456483702936,0.04624214830867649
81,0.046751733075853265,0.04682138270781459
82,0.04683475374766383,0.0463286822668265
83,0.046782131035670194,0.047267374409250565
84,0.04676626671232546,0.047094213521607635
85,0.04679833623282634,0.046189612588595684
86,0.04679804152392689,0.04679266746500967
87,0.046815084304564894,0.04661004071247986
88,0.046780567515183676,0.04662498519444572
89,0.0467591567367803,0.04715656994210315
90,0.046686721161375955,0.046886615180057704
91,0.046690059412556655,0.046753140820560944
92,0.04663085247537299,0.04657679840352055
93,0.04665056845596962,0.046386936790407014
94,0.04665839514875442,0.046399400257430785
95,0.04655680675568458,0.04707323303006913
96,0.04661827289467303,0.047004458401159896
97,0.046694541277252394,0.046441134009335756
98,0.046597541705360276,0.04645941277638454
99,0.046723636079364174,0.04618465594772225
100,0.046556027789747975,0.0467839632269095
101,0.046514055810072195,0.04742135071355837
102,0.04652522426250602,0.04673809145720862
103,0.04660349924318496,0.046886790819774926
104,0.04656278561571645,0.0464301998744032
105,0.046578775842618055,0.04662208925451677
106,0.04652984880059191,0.0473188816480858
107,0.046427266306619204,0.04683639660429719
108,0.04646546360276421,0.04661371815007263
109,0.04644886655610417,0.04673670091377434
110,0.0464886084443579,0.0465396145574319
111,0.04653038708750152,0.047149793437907046
112,0.046441647013092884,0.046703368784321124
113,0.04647526314291585,0.0466763301994619
114,0.046444333521177626,0.04721054529579827
115,0.04645264980060234,0.04688982151203805
116,0.04640539564047895,0.046637235934348716
117,0.046422199674396196,0.046789255262377226
118,0.04649710512127406,0.04681182800152788
119,0.04642463712059559,0.04627083066397737
