epoch,loss,val_loss
0,0.670802249258285,0.6682570931579038
1,0.6682409489442808,0.6680645274466629
2,0.6681713656228856,0.6679280842838542
3,0.6680392202054743,0.6678422094953236
4,0.6679617188065293,0.6678094829200316
5,0.6678972585202667,0.6681305405420407
6,0.6678591915700023,0.6676420559102398
7,0.6677359851995278,0.6680549423960025
8,0.5079370663247876,0.44611336752992403
9,0.44622290988012364,0.4460676642700057
10,0.446155146262578,0.4462720418787578
11,0.44613458939295053,0.445942206923803
12,0.44610814939852145,0.44607092595126907
13,0.4460696332588084,0.44612214780665965
14,0.446066192622722,0.4459414987388406
15,0.4460596645063046,0.4459568376302227
16,0.446054920206398,0.446013250120655
17,0.44603475452560337,0.4459296347428754
18,0.4460215585517501,0.44616328203736816
19,0.4460257031088825,0.4459780874835587
20,0.4459984559646561,0.4458837385535032
21,0.4459844870685074,0.44590239151803507
22,0.4459910782462974,0.4459768733264379
23,0.44597021187992564,0.4458333591307764
24,0.4459896596561856,0.44583830008558645
25,0.4459826703656554,0.44603129095438265
26,0.4459837094950406,0.44591576360522217
27,0.44595637936272386,0.44630899311191075
28,0.445951154697939,0.44584365349753385
29,0.4459294222600304,0.4458258131278476
30,0.44594532561810807,0.44584866419933855
31,0.44592417066081025,0.44586043676033993
32,0.4459192952903974,0.44578909360455654
33,0.44591872606814986,0.44591947141026095
34,0.4459094551288006,0.44582146449242016
35,0.44589412261829714,0.4463789490067393
36,0.4458958153764836,0.44582096715285435
37,0.44591531258578576,0.4458888037485491
38,0.4458747797430489,0.4458340087901681
39,0.4458964812048976,0.44578018809133474
40,0.4458871841029558,0.4458078212949687
41,0.44586560267449765,0.446555679897401
42,0.4458647440362371,0.4458008243514372
43,0.44586413418358406,0.4459005785102937
44,0.4458631400492434,0.44574712404272226
45,0.44584952044687515,0.4458244488705751
46,0.4458625438124971,0.4458923000550675
47,0.44585035913514826,0.44574890484862123
48,0.445851216040805,0.44584913389473013
49,0.44584736287622634,0.44591573159979014
50,0.44584834709433907,0.4459944304581084
51,0.4458343762117896,0.4457535686707031
52,0.4458249129137885,0.4458168207515284
53,0.4458552997972715,0.4458375559906477
54,0.4458417080078669,0.4457853036455376
55,0.4458308366457259,0.4457371228386225
56,0.4458199061092318,0.44570446792710144
57,0.44582517648411024,0.445772511267238
58,0.4458271359749259,0.44584424260809097
59,0.44582365808135166,0.4458507797832392
60,0.4458259965138621,0.4459218372872884
61,0.4458232618704132,0.446059860193258
62,0.4458014697406973,0.4458810103394899
63,0.4458104980668153,0.44572828441730505
64,0.4458140118587715,0.44576985054031637
65,0.44581644359828376,0.4458317151708756
66,0.44581638005238944,0.4457872478199399
67,0.44581051193513876,0.4458594250029679
68,0.4457942999040234,0.4457430321937973
69,0.4457958016275624,0.44590464728454454
70,0.44582472157446623,0.44581023640948403
71,0.44581227409015883,0.445767227249693
72,0.44580217738686106,0.4463094599345042
73,0.4457947001544172,0.44574638995524907
74,0.44580991842725326,0.4457323885832928
75,0.445807181260821,0.44580981864216634
76,0.44579408875945886,0.44579495871296115
