epoch,loss,val_loss
0,0.06918663685703327,0.06525592517793387
1,0.06151693208449256,0.06012065489953172
2,0.0606236128780856,0.05999568484431319
3,0.0596493452527982,0.06447213592606157
4,0.0593511206977446,0.0588516688510617
5,0.05903545672737996,0.05838553935948423
6,0.05868225144024007,0.05840466378591819
7,0.058494211721686666,0.05794381409852736
8,0.058293324363112985,0.05832091781414415
9,0.05830945295053085,0.05912085182962436
10,0.058300890857113284,0.05791803729513798
11,0.05828037297185861,0.057701827771577154
12,0.058190938441930094,0.05835259457665889
13,0.058190747799391165,0.057777572971630685
14,0.058147335202195005,0.05913755371832381
15,0.058011344423182974,0.05798434095339764
16,0.058019583501329484,0.05815908831170183
17,0.058010991881966054,0.05776017754548255
18,0.05792934124024415,0.05709319328112779
19,0.05703307950128382,0.05694391418053779
20,0.056703399670654166,0.0583310005208751
21,0.05669565154097736,0.056174175545800405
22,0.056670058564546565,0.056099158092180815
23,0.056127995405932656,0.05586167979185044
24,0.0559015301355686,0.055081640666580556
25,0.054680442060568456,0.05443371379768989
26,0.05316930213102914,0.05258250993430823
27,0.052603984692324565,0.052648969588877284
28,0.05230823941186901,0.052434164291812406
29,0.05203994308327762,0.05154610803131619
30,0.0519187754180308,0.052211148945068356
31,0.05176767460153467,0.05158498546465633
32,0.05160093260438144,0.051265733852676076
33,0.051429777701211175,0.05112842386622471
34,0.051352381061194906,0.05148848677159056
35,0.051196725917268364,0.05065399647360688
36,0.0510585098199865,0.050587987207049025
37,0.05110736590029434,0.05037388303067919
38,0.0511046010180197,0.05044653259998056
39,0.05099295689037974,0.0500904532473038
40,0.05104767077592888,0.05134051930773409
41,0.05090117241695222,0.05046966038549658
42,0.0509990514568284,0.05059159277750918
43,0.050980231934667206,0.05025813129075476
44,0.050858567535691464,0.051464869684841597
45,0.05082353076093963,0.05026592706857086
46,0.05082774864516123,0.05097328193680373
47,0.050839381058348364,0.05026516414825592
48,0.05076955483879187,0.05042437770579478
49,0.050811769229506774,0.05016345341481494
50,0.05060995683094506,0.05023917445816231
51,0.05077416962933021,0.050634497161366004
52,0.0505951464416171,0.05002374186631477
53,0.05056907047044199,0.05032473507729058
54,0.05073312114330693,0.04988541427854202
55,0.05056574939328169,0.05019173258775039
56,0.05058634076917873,0.04991978786608279
57,0.05059776919445456,0.05019236456251403
58,0.050518106442653456,0.05073368542247752
59,0.050468854572454945,0.05066707446740528
60,0.05040673981050175,0.0502727176622562
61,0.050391692800102035,0.050295550769293464
62,0.05038776786185658,0.050598772838552006
63,0.05020344997031687,0.05022192566495993
64,0.050144399738498636,0.05010426258075227
65,0.050105420412290755,0.05038648279233217
66,0.05007650816739814,0.04964685531258252
67,0.0500423642613175,0.0495347016789309
68,0.04990062092618409,0.04946534177346094
69,0.04969089780360579,0.05043673046597019
70,0.04961851833354772,0.049467228848042846
71,0.04954002028363834,0.04871515833357269
72,0.04937464034192048,0.049055948831455726
73,0.04914718990190191,0.04898948111222773
74,0.04913572564578531,0.04907130851897362
75,0.049106429986825746,0.04971696772817176
76,0.04899202283267893,0.048774818393150524
77,0.04888725207218868,0.04864790485510731
78,0.04890630366321409,0.048510485472344246
79,0.048939144648205556,0.04848713955398408
80,0.048811425393862524,0.04871826616336386
81,0.048715576867578506,0.04812383781870088
82,0.04873485011879353,0.04868779571027946
83,0.0487143006675783,0.04842029144265419
84,0.04868993500666809,0.0481768131984656
85,0.048566380473296505,0.047771097042112576
86,0.048434524306446965,0.04798340332103198
87,0.04827679086060003,0.049016423475210846
88,0.048280877911276505,0.04794262101400773
89,0.04815055980100245,0.04853408823503551
90,0.04827515649415191,0.04778170073767262
91,0.04819786964971347,0.04789373531170889
92,0.048122393759091074,0.04780042708634133
93,0.04811544492520809,0.047645690688519975
94,0.047943945360916555,0.04811991533086743
95,0.04781654105677484,0.04848266298305412
96,0.04785682802137939,0.047285100303907396
97,0.047854368611504175,0.04754062648537222
98,0.0478027491613757,0.04736918717021102
99,0.0476883695580267,0.04789451648221923
100,0.047732594408643546,0.04739621625726604
101,0.04772352246320108,0.0473837595085729
102,0.047675289350366634,0.048385717766144996
103,0.04750897435077594,0.048569510069838284
104,0.04756875774741679,0.04695020961725032
105,0.04756136757101414,0.047562233108316636
106,0.04755718900805778,0.04732047704580745
107,0.047486630084979976,0.04746609727890648
108,0.04751458710878929,0.05024808705206833
109,0.0475370895461365,0.04695240339113121
110,0.047492922573612296,0.04702159909364939
111,0.04743757358611482,0.04691780507487637
112,0.04739054732554991,0.04721243030644394
113,0.0474753895582472,0.04725285721370412
114,0.04738554966244491,0.047347406822403015
115,0.04731017263006812,0.048047754699114355
116,0.04733671251774967,0.04763787246060898
117,0.047348935523434534,0.04694691418741258
118,0.04726946497731922,0.04679798756542543
119,0.04726574543259337,0.04758536027369044
120,0.04721235601497664,0.046685180752376196
121,0.04731176968280154,0.04701699426893736
122,0.04719953456044874,0.046765852891848175
123,0.04718825372994844,0.047228752839372654
124,0.04712296662404905,0.04680759494150155
125,0.04722799463044943,0.04673831867891511
126,0.04709883409620181,0.0469058015207336
127,0.04713131139188609,0.047588891849337074
128,0.04714142096428002,0.046818320163934876
129,0.04701700376358256,0.04665774456273403
130,0.04702073471686359,0.04649308803882488
131,0.047040539689763995,0.047901248797325886
132,0.04696417468107633,0.047162700239915034
133,0.04700831880968324,0.046497708961795926
134,0.04691111129953443,0.046073840914936895
135,0.04693672115822745,0.04757261920746369
136,0.04687272430219948,0.04637613370041417
137,0.046885961559044065,0.047077584964540745
138,0.04674877808439315,0.046051334921014445
139,0.04668095994260566,0.04641461601649151
140,0.04680946181865009,0.046050999502312555
141,0.04665679456798051,0.046388976044310394
142,0.04667075614569758,0.04626954353654221
143,0.046643304724513196,0.046397014582588526
144,0.04663414944718592,0.04597083227041909
145,0.04671144780872611,0.04592890689826582
146,0.04654809446202896,0.04642876557389365
147,0.04662275411215668,0.0467237370262922
148,0.046429329323009944,0.04659407198466378
149,0.04638711719862197,0.047145178008215834
150,0.04645717534346223,0.045549960528027546
151,0.046307540063446215,0.046049664273257004
152,0.04623706103236137,0.045958504742030656
153,0.04645977544109095,0.04608012441656945
154,0.04628781162510139,0.04617998851171837
155,0.04626697431824694,0.04630082135829866
156,0.04624539262973057,0.04571847072468971
157,0.04624064927056899,0.046316805840359715
158,0.046160386296402005,0.045715550957278674
159,0.04613272305810074,0.04581145398917465
160,0.04601099269952104,0.04663523960159315
161,0.04602675475958352,0.0461102733665115
162,0.045978517177630754,0.04612086530628707
163,0.045873801129295934,0.04573443673958694
164,0.04577477825288325,0.04575532017332189
165,0.0459367777020962,0.045691210449709765
166,0.04590547021827435,0.04581323718557178
167,0.045789943610646026,0.04664166249575592
168,0.04578620292617276,0.04574025879669222
169,0.04572951444514815,0.04573478610904842
170,0.04576487570913397,0.04526200639008553
171,0.04566793937343274,0.045403335515746324
172,0.04564125900881736,0.046082364207576464
173,0.04559251624223081,0.0461515302235775
174,0.04567603194063008,0.045683567800877234
175,0.04566949457084963,0.04669924112939306
176,0.045683744457569904,0.04560944726147859
177,0.0456406401759116,0.04555473928185225
178,0.04562681530695928,0.04547913082811271
179,0.04566085058666397,0.045335089733265964
180,0.045517752161907614,0.04507568551602228
181,0.04554229518096864,0.045335488175159554
182,0.04547794098239651,0.045027744285442844
183,0.04554580846535537,0.04501639841719267
184,0.04555682616033643,0.04513563881132013
185,0.04552170306675287,0.04570796583051935
186,0.04550526701387927,0.045048348825411304
187,0.045549761275478065,0.045295615363271535
188,0.04544656047056471,0.04477120793075652
189,0.04547908056892912,0.04501247880304472
190,0.04550563278366423,0.04541657991338759
191,0.04544445704829356,0.045206042479446235
192,0.04544699538752742,0.045852451302301644
193,0.04543640407144156,0.04656551731343646
194,0.045443028570079515,0.04535935677727603
195,0.04538776944699278,0.04559479500700249
196,0.04546026244208483,0.044902772897059046
197,0.04540278371379976,0.04514114783134099
198,0.04537330864409082,0.04569649352942461
199,0.045414170601030035,0.04537163627045092
200,0.04544795188595241,0.045652651220911486
201,0.04529068320648452,0.04529838478634906
202,0.04539540612613574,0.04480004838549638
203,0.04535273417384893,0.046004446947493685
204,0.045392377736766805,0.044806312059438455
205,0.04532010100664929,0.04547841333613635
206,0.0452548380549044,0.046022127107660155
207,0.04524885989905091,0.04517179244130315
208,0.04520750459480865,0.04512316009276147
