epoch,loss,val_loss
0,0.45107158909129413,0.4466545535767667
1,0.4472103545255832,0.45104339544179045
2,0.44688036494719763,0.4469301169526677
3,0.4466930677921667,0.44646482848782226
4,0.3790952924070088,0.3356258384321386
5,0.33570381637507823,0.33543785989559016
6,0.33566293378992973,0.33568332652515964
7,0.33555303911392376,0.3356474776111445
8,0.33550011376894695,0.33527341123675664
9,0.33546414957468706,0.33528843381744877
10,0.33543156040553546,0.3352818948556757
11,0.3353941524329391,0.33587415818801203
12,0.33536571045709634,0.3352989555186121
13,0.3353531019834149,0.3358632327048991
14,0.3353035340933748,0.33532270868183867
15,0.3352622207126558,0.33513792525288866
16,0.3352717375237777,0.3350682389301706
17,0.3352328391769264,0.33553003246810337
18,0.3352094380316035,0.33515038767115773
19,0.33517334463334036,0.334983871518212
20,0.33518928675512344,0.33499524244831275
21,0.33513907473779736,0.3371356032009028
22,0.3351173675109888,0.335014087400475
23,0.3351078961066661,0.3353123997901761
24,0.335083037927188,0.3349841052371395
25,0.3351000267686042,0.3349692303097511
26,0.3351047950601228,0.33494479997547655
27,0.33508843098898716,0.3351638325224874
28,0.33507735687316365,0.3358143147625998
29,0.33507912010884255,0.3349515889842718
30,0.33505976297323614,0.3351627365476426
31,0.33507061819293726,0.33530322225089676
32,0.3350571005745907,0.3349388500390705
33,0.3350351390663935,0.33499774463416776
34,0.3350365750754241,0.33495026071270023
35,0.3350304186760634,0.3349811477743105
36,0.3350192705382654,0.334900694521378
37,0.33500482133284903,0.3349783282649504
38,0.33502356611924383,0.3349288965627014
39,0.33502279973868115,0.3349327519145564
40,0.33501513693286084,0.33512092894157647
41,0.3349999814305266,0.3350194731515155
42,0.3350099430844034,0.3350789323579286
43,0.33500593562540815,0.33492441774029874
44,0.33499317802554124,0.33524265071314746
45,0.3349691923350963,0.3351889240381092
46,0.3350094454045311,0.3349652963724329
47,0.33498329264685206,0.33504653510137533
48,0.3349956743279109,0.3348908993494365
49,0.33496946156290364,0.334879174111513
50,0.3349728269817832,0.335665229787822
51,0.33496448265571227,0.33504523316063123
52,0.33496856021495536,0.33486579219670604
53,0.3349637820756374,0.33495445544991925
54,0.33495764291574304,0.33489481111840824
55,0.33493226030633977,0.3349989095135721
56,0.3349426860899707,0.3350384734122549
57,0.3349333517344851,0.3350245107449822
58,0.33493048186137386,0.33491432840944907
59,0.33493140845729863,0.3350918448163495
60,0.33492294058983724,0.3348319756855979
61,0.33491376109374765,0.3350219471796895
62,0.3349324888639071,0.33494001545091273
63,0.3349251716032826,0.33491710441271916
64,0.33492067694463645,0.33479557793462617
65,0.3348993110180854,0.33483032496965215
66,0.3348968166291524,0.33490459826591945
67,0.33488527055905265,0.33502966819849583
68,0.3349193283409878,0.33477130196237254
69,0.33488200979133176,0.33505993323542305
70,0.3349008433226916,0.33484974505410264
71,0.33488238098699036,0.33480691023813425
72,0.3349010833178888,0.3348436543198262
73,0.3348657264394946,0.33508277783010315
74,0.3348678044229731,0.3348289671584275
75,0.3348827689103799,0.3347199541653113
76,0.3348676625655987,0.33506179166603073
77,0.33486960876391636,0.33486394438409267
78,0.3348600490011417,0.3350358549798313
79,0.33485542737869006,0.3352082533667499
80,0.3348632270493593,0.3348786132154303
81,0.33485471436433384,0.3347594763208651
82,0.33485293160343743,0.3347487012266034
83,0.3348555323646952,0.33494642687606796
84,0.3348457453180713,0.3350141846520268
85,0.3348435264476421,0.33485285132503406
86,0.33483720278733936,0.33488984207690886
87,0.33484675641638917,0.33488805273070643
88,0.3348451975112082,0.33508425449092594
89,0.3348330138924317,0.3347655832838478
90,0.3348340484589914,0.334732157731219
91,0.3348313620444783,0.33476294238964527
92,0.33483855266845297,0.3347883713549236
93,0.3348240183223054,0.33485047732892065
94,0.33482192915104997,0.33486104059336735
95,0.33482703172899536,0.3349736025593897
