epoch,loss,val_loss
0,0.5611058652163935,0.5572893899576009
1,0.5576809663519914,0.5577157440167752
2,0.5576499520699394,0.557286093764898
3,0.5374426817766117,0.44644974455135633
4,0.4466447467842275,0.44735862982969765
5,0.4466674136719658,0.4463876379502658
6,0.4465332864759393,0.44627467093390855
7,0.4464734448943495,0.4463320073791585
8,0.4464250421779541,0.44613763066687545
9,0.4463144462515886,0.44610798652586303
10,0.4462890891013636,0.44627034944098054
11,0.44625600511687435,0.4464003231263414
12,0.44612946317184643,0.446819306184266
13,0.44608112673158645,0.4463271565838278
14,0.4460482223135487,0.4459462753691256
15,0.44606888684676993,0.4461376986343444
16,0.4460233941720476,0.4461500769842233
17,0.4460273377191444,0.44601723035640406
18,0.4460176351382344,0.44844709848607933
19,0.44600932894088324,0.4460360740756769
20,0.44598022901459,0.44618094665049673
21,0.44596816582616866,0.44582091723384604
22,0.4459555810938517,0.44594238350386467
23,0.44596910232570053,0.4457963736606852
24,0.44595374782142355,0.4458129814248701
25,0.4459347433515292,0.4458453956934049
26,0.44594853831504794,0.44578056631626656
27,0.44592187904251906,0.4457914153413014
28,0.4459148835374118,0.44586322628043273
29,0.44589362991911824,0.4457535703295429
30,0.4459140149620201,0.44576708549816724
31,0.4459053766149098,0.4458076369981075
32,0.44588011423373114,0.44622800353549485
33,0.44588350134486465,0.44585499461348027
34,0.44587130849848444,0.445847413524079
35,0.44587726988763515,0.44580803576330924
36,0.44587506745781297,0.44578621061677043
37,0.44586343063840217,0.4461078056791992
38,0.4458504921035122,0.4457740926361092
39,0.4458433407557671,0.4458281863099226
40,0.4458577647834104,0.44577927497931846
41,0.4458390400124736,0.44584203249398763
42,0.4458478845717691,0.4458248310000514
43,0.44583943406939075,0.445783536287836
44,0.4458331684420447,0.44590176610941357
45,0.44585340709294624,0.4457357381168047
46,0.4458308999833765,0.44621863376721327
47,0.4458315866085569,0.4458134037025281
48,0.44582871282239583,0.4459457262624005
49,0.44584173515626474,0.4459110117889083
50,0.4458026577266948,0.44575714174293046
51,0.4458013095235604,0.4459280051233012
52,0.44580658331178263,0.44584453303046845
53,0.4458215506023947,0.4458536519021936
54,0.4458023801314724,0.44580371754309933
55,0.4458042698679299,0.4462681140609255
56,0.4457993535072206,0.4458357898918659
57,0.4457993520861937,0.44596307252974327
58,0.44580253418136034,0.4461368976490108
59,0.44579328305829646,0.44576907709030306
60,0.4457952632522083,0.4456783455739007
61,0.44578039464822805,0.4460405373130315
62,0.4457993340642358,0.4460483810670493
63,0.44579103589629804,0.4457709524335039
64,0.44579396207449495,0.4460020423721128
65,0.4457828396764915,0.44574771059994395
66,0.4457890282325515,0.4458479705274493
67,0.44578456808399564,0.4457062037550156
68,0.4457669786632807,0.4457268976130636
69,0.44578265322577,0.44589019327177326
70,0.44576938034174346,0.44573262269030833
71,0.4457748206247838,0.44590329289275427
72,0.4457910565532493,0.4457023558123293
73,0.4457702003302804,0.4456844183969672
74,0.44577969952981866,0.4457102023681535
75,0.4457781639844192,0.44611793034972513
76,0.4457746544581074,0.445737441449444
77,0.4457635386783504,0.44595554292353445
78,0.44577203567508883,0.44581693621245533
79,0.4457635358788919,0.44568312576087066
80,0.4457759308548151,0.4456952333933061
