epoch,loss,val_loss
0,0.561377149368778,0.5578553125378214
1,0.5576558582194788,0.5572313193917483
2,0.5574870818142944,0.5571671114405962
3,0.5573952892292702,0.5571253717665031
4,0.5573569131798176,0.5578432596210678
5,0.557297878064331,0.5570930117735016
6,0.5572711943734482,0.5571140201437828
7,0.5572658920290137,0.557088369379086
8,0.5572154423830938,0.5573895677263934
9,0.5571908698160251,0.5571186124748402
10,0.5571835711366193,0.5577120591633582
11,0.5571404407349638,0.5573567231297398
12,0.5571496346288604,0.5570774002029382
13,0.5571311857854212,0.5570092835662213
14,0.5571119059153433,0.5579550586627819
15,0.5571234304188059,0.5573880259046408
16,0.557114325578296,0.5577080704464654
17,0.557114151294452,0.5569748265252561
18,0.5571141182759863,0.5571013162519244
19,0.5571128484667619,0.5569921179396663
20,0.557095336114375,0.5571739527229583
21,0.5571105493718104,0.5570447914123686
22,0.5570749320219033,0.557014753004663
23,0.5570800884505768,0.5577607126023555
24,0.5570502295927732,0.5572821303731168
25,0.5570407380661098,0.5569548497308677
26,0.5570632223412402,0.5570953376656281
27,0.5570233676827128,0.5569455563993667
28,0.5570330680865292,0.5569338981776232
29,0.5570305773012384,0.557006015959516
30,0.557031825303241,0.5569279887798534
31,0.5570202881154469,0.5569193729459624
32,0.557040617195603,0.5569678131826382
33,0.5570094551815733,0.5570009844973671
34,0.5570050681169091,0.5569434333116418
35,0.556999960660223,0.5571527122665592
36,0.5570009163475622,0.557230616521699
37,0.5570112402055428,0.5572275999464344
38,0.5570046535915644,0.5570605990999139
39,0.5569946894210146,0.5569870513176869
40,0.5569950235800498,0.5580830564948704
41,0.5569975390315756,0.5572616766942424
42,0.5569899096674131,0.5571628766522173
43,0.5569942268808938,0.5569438294028222
44,0.5569953541263716,0.557898534888102
45,0.5569843162810474,0.556936707111584
46,0.5569798263873573,0.5569301845536301
47,0.5569970120222677,0.5571361916139426
48,0.5569824994963573,0.5568787180915491
49,0.5569833719378651,0.5569126523968453
50,0.556977660341622,0.556944586477413
51,0.5569814820734243,0.5569889947774392
52,0.5569666473431684,0.5569395448681815
53,0.5569855650316232,0.5570343760047354
54,0.5569654123859799,0.5569991379839022
55,0.5569633623986642,0.5568744396101355
56,0.5569688923850641,0.5570578307637492
57,0.5569720098227171,0.556883956390429
58,0.5569644552212144,0.5568611956984917
59,0.5569887393288898,0.5569419195552809
60,0.5569639227565514,0.5572608036712482
61,0.5569783458149541,0.5569481661116412
62,0.5569456437362806,0.5573761768902941
63,0.5569500480141835,0.5568837729383692
64,0.5569294993847768,0.5568522089518156
65,0.556930167257174,0.5577028852162597
66,0.5569249574439544,0.55684696318934
67,0.5568906341620906,0.5570413351238805
68,0.5568888049498238,0.5567763443880656
69,0.5568850626925902,0.5570509581456435
70,0.5568723899662478,0.5568496642963496
71,0.5568510458626946,0.5567480730067667
72,0.5568301380408304,0.5567826750743421
73,0.556816058966387,0.5567055112438692
74,0.5567947251764208,0.5573063185664799
75,0.5568111514122583,0.5568609343211917
76,0.5567940716468114,0.5568531964749822
77,0.5567749176226093,0.5566708955553499
78,0.5567613427748982,0.5567482624741912
79,0.5567560023277743,0.5567058043544664
80,0.5567475876725059,0.5566858059927946
81,0.5567265938589901,0.5566692981612821
82,0.5567360271278882,0.5566639269801081
83,0.556740769157031,0.5566611760795088
84,0.5567295763531188,0.5566277070349883
85,0.5567198790607323,0.5567149616279772
86,0.5567249009245064,0.556619912352811
87,0.5567286460884757,0.5568892648953833
88,0.5567357649923974,0.5566428581816782
89,0.5567171394545352,0.5567043465963711
90,0.5567216348244836,0.5566591840708882
91,0.5567268727186623,0.5566795723663922
92,0.5567283825934846,0.556601570644359
93,0.5567138608756637,0.5570361421461122
94,0.5567152919515261,0.5570708084564578
95,0.5567147367591093,0.5566396535067629
96,0.5567101043403239,0.5567545266980233
97,0.5567055225649973,0.5566343295871407
98,0.5567112805487178,0.5569769449701228
99,0.5567051778265487,0.5566810122866356
100,0.5567037642829954,0.5566523980342795
101,0.5566972215642741,0.5566433494443531
102,0.5567019584969667,0.5566321163825313
103,0.5567036474188143,0.5566738399367721
104,0.5566993822011937,0.556628958098336
105,0.5566969502167585,0.5566749818337916
106,0.5566914530330869,0.5567474068867625
107,0.5566953303383612,0.5569851746942688
108,0.5567047170359909,0.5566543112089658
109,0.5566904418018559,0.5566468640643679
110,0.5566923249050796,0.5566151625195325
111,0.5566918590003236,0.5566927422005468
112,0.5566902142651956,0.556647423654203
