epoch,loss,val_loss
0,0.452907677835279,0.44738646314004804
1,0.44723308859894567,0.4466253560233423
2,0.4470206567826083,0.446463204696668
3,0.4467456084561248,0.4467801064328578
4,0.44663018664385806,0.4465144227043076
5,0.44653020510507746,0.4464529775566992
6,0.4464555700789345,0.4463992224329139
7,0.4464472033719854,0.4461783303383591
8,0.4463957800510812,0.4461531347346832
9,0.4462853618788945,0.4490902249195357
10,0.44624313287547346,0.4460666044985697
11,0.44615671632733617,0.4469470255111198
12,0.44609228003801,0.4458940416285779
13,0.44606081404056797,0.44597830194480004
14,0.4460180389573659,0.44585144834062573
15,0.4460191834257452,0.44644805231472223
16,0.44599640434097054,0.445862140994574
17,0.4459899086437264,0.44583598775051125
18,0.4459442414909175,0.4458509865986727
19,0.44597334399146626,0.445932557161827
20,0.445945980359909,0.44594137312846466
21,0.4459659764056645,0.4457968159698391
22,0.4459066577075534,0.44582217354348147
23,0.44594589345186675,0.44610050465211765
24,0.4459130117499481,0.44577869629744443
25,0.44589122035756484,0.44575227021328584
26,0.4458991625409058,0.44611824215480744
27,0.4458781264647559,0.4457951170339534
28,0.44590410788634416,0.4457228871514083
29,0.4458861259845413,0.44611854174694826
30,0.445895112974276,0.4460821100879666
31,0.4458800183053429,0.44574826648637794
32,0.4458715690695835,0.4460311890126448
33,0.445874788199007,0.4457315559522186
34,0.44586994996046536,0.4457320582659373
35,0.4458586410829491,0.44587636404526276
36,0.44585421849872514,0.4458789266829304
37,0.44585205535183736,0.44612506158118664
38,0.4458640368534945,0.445893979884716
39,0.4458407753902272,0.4457517243106535
40,0.44583748335695605,0.4457906243941965
41,0.4458342197627602,0.44574986025276914
42,0.4458188354088327,0.44581527116801484
43,0.4458298436375974,0.44629121561248813
44,0.44582484245621334,0.445784388010949
45,0.44582181531766263,0.4457374130527576
46,0.44581200997931053,0.44573171679105045
47,0.4457995666746681,0.44585377547510735
48,0.4458194141138615,0.44574355912744307
