epoch,loss,val_loss
0,0.6706836954427408,0.668131624400966
1,0.6682875147410244,0.6683573110180846
2,0.6681730043646955,0.6679371483689057
3,0.6309669071457896,0.5572043066983073
4,0.5573690538851982,0.5572237475951626
5,0.557348858596521,0.5586194220622116
6,0.5572211385866535,0.5569580332360533
7,0.5571272859350007,0.5569485185381835
8,0.5570248642662203,0.5570801084138522
9,0.556943066347228,0.5568255871056337
10,0.46379447675826735,0.4460933647170717
11,0.4461140640257111,0.44591576341827727
12,0.44608770151688637,0.4463316675205164
13,0.44607798250917335,0.445919798234824
14,0.4460577540740473,0.4459261029546973
15,0.4460432395771177,0.44592909181242957
16,0.44601685230464105,0.4459199290938542
17,0.4460206143383256,0.4461157707320294
18,0.4460027872984825,0.4460893343020114
19,0.446022650368972,0.44595509552664087
20,0.4459959263127212,0.44614453935113924
21,0.4459786880597832,0.44620539071220283
22,0.44600454416872587,0.4459001325805622
23,0.44600028503572725,0.44615439496542775
24,0.4459760962415688,0.44595251755239623
25,0.4459798287785918,0.4460552325225244
26,0.44599486181171477,0.44604429899604997
27,0.44596920357140346,0.446481806175641
28,0.44595971293115644,0.44594571906147407
29,0.44595381807607937,0.4459845925349555
30,0.44595179936476553,0.4459782849091546
31,0.4459402220713165,0.44589673366757904
32,0.4459612080538025,0.4459946652182477
33,0.4459493263555237,0.4461002768042051
34,0.44595561550751095,0.4461158981739916
35,0.44595186634687883,0.44633227918987445
36,0.44594286868406063,0.4460091454813892
37,0.44593234498642953,0.4458689549995525
38,0.44592946813439205,0.4458708879501645
39,0.44593478204089004,0.4458272929028403
40,0.4459212729354926,0.4461408800926022
41,0.4459215125656717,0.44590074548754255
42,0.445930161172336,0.44597956204539313
43,0.445907187899086,0.4462752225111454
44,0.44591595981641624,0.4459987046539888
45,0.4459160429786347,0.4459122939963217
46,0.44592412622640676,0.445897643348329
47,0.4459259548949917,0.44591225871817164
48,0.4459113792270536,0.4458687050803154
49,0.4459138459306118,0.4459208253902993
50,0.44591422229036026,0.4464272257707905
51,0.4459283113727298,0.4461498233710506
52,0.4459186563295678,0.4459360040320808
53,0.4459288624229498,0.4458977386192119
54,0.44590432656120754,0.44584094622607684
55,0.44591845415644354,0.4462808634774049
56,0.4459139544358573,0.4458607856846242
57,0.44590749160661475,0.44590256972617337
58,0.44590406625061035,0.4458208919158337
59,0.4459099188623789,0.44584273697081606
60,0.44592428515286625,0.4460066737935754
61,0.445910807994544,0.4458445131314904
62,0.44589531142977606,0.44586120763808673
63,0.445905063264473,0.4458595538647644
64,0.44590133094535656,0.446231721849674
65,0.445904735994835,0.4459538640286102
66,0.4459061343271294,0.44594154794083257
67,0.4459060974557601,0.4459005529674742
68,0.4458987271667337,0.4459090415274167
69,0.44590076135868245,0.44585952149490826
70,0.44590820845947904,0.4459333874833041
71,0.4459042406977365,0.4461069663275759
72,0.4459108504421523,0.4458984369836536
73,0.4458984328623171,0.4458736275583482
74,0.44589881479199417,0.4461704841445926
75,0.4459024589447319,0.44585056123287503
76,0.4458924960622959,0.4458443778970042
77,0.44589790734778917,0.4459924572622926
78,0.44589669762516754,0.4458455402727674
