epoch,loss,val_loss
0,0.7807268467746594,0.778648362105586
1,0.7788571888761221,0.7788652604310043
2,0.7788309917313678,0.7786823298763771
3,0.7787287705125735,0.7787568464683544
4,0.7786627892341124,0.7785848033026852
5,0.7786278898238417,0.7784909514021984
6,0.778582841076075,0.7785254837227792
7,0.7785476090855563,0.778623292947622
8,0.7785493708895596,0.7785988866771727
9,0.7785087535966877,0.7786209887647622
10,0.7784891147530448,0.7785325570628627
11,0.7784541355515013,0.7786399116587295
12,0.7784335824700958,0.7784009929429885
13,0.7784199493393777,0.7783547725841434
14,0.7784214798338804,0.7783550986490951
15,0.7784153500171493,0.7784444635891623
16,0.7783966541627102,0.7783471544063033
17,0.7784051530486296,0.778431143853633
18,0.7783930527094057,0.7783378934754215
19,0.7783934538014513,0.7783501882278221
20,0.7783838335178382,0.7783416392491964
21,0.778383697828896,0.7784049383360033
22,0.7783772773882988,0.7783500147240681
23,0.7783850720419897,0.7783336878125774
24,0.7783774710936329,0.7783282921676581
25,0.7783728131985127,0.7784427800726773
26,0.778374665056498,0.7783576200855371
27,0.7783694501022609,0.7783437928112987
28,0.778364307134889,0.7783906252749178
29,0.7783714800050984,0.7783744010837074
30,0.7783594112660741,0.7783428102764834
31,0.7783717305550588,0.7783534693702812
32,0.778356941557969,0.7783410034947156
33,0.778356505419842,0.7783883765460538
34,0.7783674118491647,0.7783318828907925
35,0.7783471996469936,0.7786233194227993
36,0.7783521517562124,0.7783071436218673
37,0.778343240990196,0.7783058660076179
38,0.7783539463877911,0.7783102202797875
39,0.7783547955789637,0.7783666511831046
40,0.7783459229594151,0.7789450065520181
41,0.778343927731922,0.7783100076453997
42,0.7783468479166036,0.7783111278994114
43,0.778342452434238,0.7784128104985395
44,0.7783449828599878,0.778329541257436
45,0.7783376571388696,0.7783488609998287
46,0.7783387555027542,0.7782908197630203
47,0.7783397980912338,0.7783172542904604
48,0.7783442194222484,0.7783834722915944
49,0.7783353767014533,0.7782892521050159
50,0.7783318676756363,0.7783261547774687
51,0.7783282602613547,0.7783096529991831
52,0.7783328782951514,0.7784091594608432
53,0.7783370227369215,0.7783141224530457
54,0.7783314700334166,0.7782893491459589
55,0.7783305539033176,0.7783184200643604
56,0.7783290978709411,0.7783019112768259
57,0.7783275177509286,0.778334219053054
58,0.7783262604102983,0.7783576455478992
59,0.7783218991043599,0.7785201055938826
60,0.7783312627748854,0.7783060349537037
61,0.7783211343240793,0.7783727613123178
62,0.7783200743929977,0.778301171779784
63,0.7783247319359178,0.7782829428724359
64,0.7783233677780783,0.7782798369517303
65,0.7783222126717172,0.7783032372222356
66,0.7783191670083472,0.7782948431191377
67,0.7783198701946241,0.7782855774649404
68,0.7783212915260204,0.7783275461109816
69,0.7783117952823206,0.7783053825540317
70,0.7783166295602871,0.7783099116740652
71,0.7783190238888895,0.7782849262484638
72,0.7783132257890625,0.778369866558838
73,0.7783147580421993,0.7783107169520311
74,0.7783198102626265,0.7782988429722643
75,0.7783166279302277,0.7783415207545569
76,0.7783140418694796,0.7783148616235257
77,0.7783151843968142,0.7783038861622447
78,0.7783120452398907,0.7782915874863685
79,0.7783106158784896,0.7784015131939475
80,0.7783113417716171,0.7782892059556678
81,0.7783150693169034,0.7783051855094247
82,0.7783101815999636,0.77831556782072
83,0.7783073444481368,0.7782909713918602
84,0.7783108005741265,0.7782871608925714
