epoch,loss,val_loss
0,0.07012173806448961,0.0611666206513603
1,0.06199927641168938,0.062224522866906204
2,0.062021755513757236,0.060708837752266404
3,0.060399939233492066,0.05986009810486066
4,0.060026270114104045,0.05910014862462947
5,0.05992648829792319,0.05982657540184327
6,0.05958917830931282,0.05961598829706879
7,0.05924958745290832,0.058820845106963
8,0.059180442067246056,0.05890461855460173
9,0.058991441829188904,0.0588008600127556
10,0.059030035220638884,0.05938833800116541
11,0.0589253370994209,0.05897467637549076
12,0.05877881330207067,0.05764232613430272
13,0.05690266859152817,0.05758396109244559
14,0.05634143774032536,0.05785616735025722
15,0.056096090409600466,0.05560704285469115
16,0.05568593514111574,0.055999107832940674
17,0.05552226836086179,0.055232731529746816
18,0.05541523615745066,0.05501941254704703
19,0.05542059618762106,0.05513570515984072
20,0.05539535657854178,0.0558022869551489
21,0.05543828360663948,0.05601072990052593
22,0.055264518147212525,0.055618573429483883
23,0.05525345434682476,0.05535796088309554
24,0.05522044819688618,0.0552546102067017
25,0.05521394250012151,0.05511821533689518
26,0.0552433416996434,0.055519520461870475
27,0.055223213352456085,0.05511594437283406
28,0.05527922561441131,0.055278616898058804
29,0.05517790505863865,0.05496598101163788
30,0.05519579465620434,0.05499880904651562
31,0.055076903643356434,0.055355779490169926
32,0.05474622640157908,0.054634797247208045
33,0.05475891341978238,0.05461991687652983
34,0.054634309063371564,0.05464193110728578
35,0.05460367700120183,0.0543272037876065
36,0.05458493667410232,0.054350237100748516
37,0.05455092742338675,0.05456226616988409
38,0.05454492256365003,0.05449848708782297
39,0.05451084507480179,0.054463261417477815
40,0.0545321506798349,0.05467468508656335
41,0.05450902066116311,0.055700809621616394
42,0.05442273792331276,0.05428973466411709
43,0.05445105543703576,0.05427253030817935
44,0.05433544530978773,0.05430207894536731
45,0.05423874100790449,0.05353606431346404
46,0.053691722167587184,0.05281810592922101
47,0.05299277100868466,0.0523315631381177
48,0.05249983652092306,0.052052892525945846
49,0.05221754623934314,0.05190370124048168
50,0.05198103754711618,0.0519119115270957
51,0.05180660174900366,0.05199791563398827
52,0.05173764204441394,0.05111674817652575
53,0.05171852461697943,0.0510836612246546
54,0.05183428982466062,0.05157208010999195
55,0.05170126218890969,0.051091397128649005
56,0.05168192412491031,0.05075850710879177
57,0.05154985079499811,0.0511083699248427
58,0.051603579125772445,0.05072341624890526
59,0.05151775903729197,0.051405846420217026
60,0.05153139940815299,0.05122702828717455
61,0.05147797929992415,0.05086071255628823
62,0.05148481197560397,0.05097587695675098
63,0.05151613007320129,0.05145814964671693
64,0.05149977933819425,0.05101962554244431
65,0.05148880081302844,0.05098277433824616
66,0.051426769453927594,0.05160863057834318
67,0.05149103901174578,0.051151616258639294
68,0.051533716732394194,0.05102194072635794
69,0.05151836600610936,0.0520690279284086
70,0.05142318373591792,0.050963014159401875
71,0.051378329073145663,0.05082342399342516
72,0.0513539957590361,0.05096421251332304
73,0.05126164613614328,0.051744904322971214
74,0.051239676695900425,0.05118251271600314
75,0.051243672291633076,0.051245930596206406
76,0.05119629796190293,0.05157218587285889
77,0.05124358437661107,0.05047615396093452
78,0.051314423986275885,0.05083268008533406
79,0.05133835453058252,0.05042684672920074
80,0.05117355034648522,0.05034306747103795
81,0.05119661015943155,0.051496800362243855
82,0.05112457889901943,0.051847112709524724
83,0.05115969438739254,0.052037008438299
84,0.05109693247240726,0.051330309694732575
85,0.05101569978286974,0.05034241267125441
86,0.05095655197188543,0.05117366576429154
87,0.050893280960658545,0.05007201124855866
88,0.05077815086391063,0.05001260075340725
89,0.05058205935339685,0.05086910815080381
90,0.05036610771400899,0.05027962487240656
91,0.050205295889682484,0.049396315827961
92,0.05030809538794678,0.04973271253376925
93,0.050182100424448525,0.04987614025782314
94,0.05011842373139567,0.04964078387355869
95,0.05003012939508155,0.04931749971721032
96,0.05007310175526413,0.04945180184662352
97,0.04994118774053061,0.04993259170200165
98,0.049955626123262195,0.0500813618260046
99,0.04990527787328739,0.049016348020334374
100,0.04968247675275476,0.049092706374212335
101,0.049559404989306576,0.04928406315702014
102,0.049044487405018496,0.04913442028600327
103,0.04872547770300436,0.048321310155080656
104,0.0485612042021715,0.048701664486866546
105,0.04853375445376514,0.0483402775652909
106,0.04837505452827537,0.04885397149018893
107,0.048344310110372116,0.048777421947781036
108,0.048250933060835444,0.04799953054229106
109,0.04814819086236093,0.04795614238642067
110,0.04827836299150198,0.04800622046114491
111,0.048119251383017106,0.04770568380898732
112,0.04804537835643014,0.04864390345569242
113,0.04807663243391524,0.047952230120506936
114,0.048017870927304224,0.04871510876094479
115,0.047994803395547625,0.04828334686417196
116,0.04801853664272229,0.04830106641793745
117,0.047979743045666906,0.04995260354352126
118,0.04802211749201145,0.048013045067552995
119,0.04799271762715967,0.04832644840858892
120,0.04800742668879857,0.048674558813948283
121,0.047914988510968065,0.047708648443902386
122,0.047996358623160845,0.04753883520671611
123,0.04811681705645593,0.04807570595732019
124,0.04792676842079882,0.047899067054322376
125,0.04801568226120298,0.04775006776935589
126,0.0479221687878563,0.04808749156364098
127,0.04785900245065101,0.04795705934663164
128,0.04796135781366658,0.04768555681757322
129,0.04771753138999894,0.048158176054289764
130,0.04799096386925803,0.048169313938849
131,0.047893012770341276,0.04771636327297059
132,0.047852732821465536,0.04755654576361269
133,0.04781583632133996,0.047731153366885215
134,0.04792583928828384,0.04799018941620891
135,0.0478075479403406,0.04899396506792305
136,0.04782218959455402,0.047545683483685014
137,0.04790029240858292,0.047839678044961725
138,0.047800220069687496,0.04754468997162766
139,0.047862016913867406,0.047675805950970075
140,0.04787828255352401,0.04778093431480389
141,0.04774762671859521,0.04823745255208695
142,0.047870146660461244,0.047557268704351154
