epoch,loss,val_loss
0,0.6221312553223359,0.6190186552315137
1,0.619034836578012,0.6200224265567127
2,0.618587569637398,0.618504630158616
3,0.6183558804748331,0.6194812419100967
4,0.6182311142300747,0.6205299484226899
5,0.6181105243247971,0.6179720843104511
6,0.6180624503315105,0.6184025561543316
7,0.6180072619372579,0.6181095919005628
8,0.6180215135852312,0.6178612160327712
9,0.6179613847657195,0.6183459960793147
10,0.617960326730226,0.6189825969653449
11,0.6179206054048575,0.6178437475531036
12,0.6179334378073998,0.6178203628021789
13,0.6179055371588152,0.6178250557139848
14,0.6178957652912185,0.6177915744391032
15,0.6178835565740849,0.6178066624896994
16,0.6178723323294857,0.6177966311610957
17,0.6178712574745981,0.6178243926381947
18,0.6178752750174481,0.6179052534529352
19,0.6178514889501986,0.6181435644478716
20,0.6178471550280934,0.6177685183863486
21,0.6178405404728254,0.618072237477409
22,0.6178225266209455,0.6178707764698909
23,0.6178359005398225,0.6178374638332622
24,0.6178145261040622,0.6177302919309725
25,0.6178291774978062,0.6177932701099008
26,0.617825459034421,0.6177579147939942
27,0.6178093067680969,0.6178184459286351
28,0.6178015561638078,0.6177610069883077
29,0.6178224737820799,0.6177833654744453
30,0.6178221646474225,0.6180882390616254
31,0.6178040142525429,0.6179393124343739
32,0.6178023412355704,0.6177722848970304
33,0.617794377237487,0.6177521823653512
34,0.6177886844650017,0.6177145274637946
35,0.6177875096048462,0.6177182895374062
36,0.6177765747686785,0.6182378933979915
37,0.6177832994861658,0.6177167036988895
38,0.6177686581215831,0.6178777472552828
39,0.6177731626553873,0.6178044386892105
40,0.6177678922159783,0.6177358612824906
41,0.6177737287942041,0.6178294396577935
42,0.6177706419455286,0.6177145529917393
43,0.6177704028564456,0.617700520342692
44,0.6177704795494748,0.6176865991528513
45,0.6177529993990087,0.6177088747545152
46,0.6177681848530835,0.6177151408443972
47,0.6177602420618563,0.6177054531521005
48,0.6177603400650784,0.6176889090620851
49,0.6177546096836327,0.6177660761045167
50,0.6177615191139114,0.617891052550181
51,0.6177592520643695,0.6177318006236263
52,0.6177437415910048,0.6177370824825675
53,0.6177513613381675,0.6178576057365456
54,0.6177538747474216,0.6177199987560584
55,0.6177462465030018,0.617700810615833
56,0.6177550910368321,0.6177144218615208
57,0.6177488365445454,0.6177206356531337
58,0.6177491959930295,0.6176814239315005
59,0.6177385402892288,0.6177270580757936
60,0.6177549788733557,0.6176943868324716
61,0.6177547101787629,0.6178643270994238
62,0.6177408916140162,0.6177113559346636
63,0.6177432676827654,0.6179339984510436
64,0.6177341606561093,0.6176973362122813
65,0.6177262331223965,0.6177344052430713
66,0.6177362857891542,0.617695271495554
67,0.6177357307775474,0.617790896158952
68,0.6177483033290496,0.6176898983808664
69,0.6177346463273541,0.617870722663018
70,0.6177226002247798,0.617740897357316
71,0.6177251743469822,0.6176938550643826
72,0.6177330150890876,0.6176851803848229
73,0.6177327298961538,0.617806479386597
74,0.6177343208836745,0.617692291056252
75,0.6177326426367714,0.6176789319840613
76,0.6177320659481667,0.6176550004085891
77,0.6177283197338068,0.6177696667001502
78,0.6177139618362019,0.61779812473813
79,0.6177332302127823,0.6176769363377289
80,0.6177400659223362,0.6179363442118055
81,0.6177281550706609,0.6176816942674055
82,0.6177245037578507,0.6177237245048542
83,0.6177287897097377,0.6181542169367409
84,0.6177253529376782,0.6178817040571208
85,0.6177262125647457,0.6177464746659802
86,0.6177346795922377,0.61813653438322
87,0.6177237755811081,0.617722404358109
88,0.6177348248052477,0.6177243314073341
89,0.6177217961012393,0.617677330142511
90,0.6177161186580516,0.6176787416337441
91,0.6177319782123321,0.6176555307568155
92,0.6177321443198223,0.6176753299407864
93,0.6177237009595417,0.6176945955818404
94,0.6177306290108979,0.6177001961111727
95,0.6177154870914606,0.6177568438035382
96,0.6177267407538285,0.617712297806373
