epoch,loss,val_loss
0,0.6215393343914419,0.619459930188011
1,0.6186226200264504,0.6181675925444137
2,0.6182904567283198,0.618013333268556
3,0.6181889487514094,0.6179910853246305
4,0.6180964310569534,0.6179661886567809
5,0.6180684088396942,0.6182877173790565
6,0.6179899968410696,0.6179292247845576
7,0.6179994669811054,0.6181448846241973
8,0.6179637457291982,0.6179090702504142
9,0.6179321453053565,0.6178492399954026
10,0.6179278399072776,0.6177829644520288
11,0.6178855357833857,0.6179014935978588
12,0.6179000148244868,0.6177646749368673
13,0.6178653459348209,0.6178543455251689
14,0.6178676405105216,0.6181008280358894
15,0.6178437066397504,0.61781972756161
16,0.6178560551829864,0.6182349136390402
17,0.6178382042738181,0.617783703105917
18,0.6178250772131927,0.6177820207759109
19,0.6178283720529786,0.6185733559409679
20,0.617813871938333,0.6177410884767253
21,0.6178222044990213,0.6177953212787732
22,0.6178072254031826,0.6177232726040313
23,0.6178064523444841,0.6178052373027092
24,0.6178083400796934,0.6179462084995014
25,0.617815286693754,0.6180097649765961
26,0.617801087142359,0.617764086551761
27,0.6177961510990405,0.6177687961765318
28,0.6177808440092408,0.6191547949024229
29,0.6178025209006504,0.6177270506510959
30,0.6178175128252015,0.617705555707586
31,0.6177810305181939,0.6177503629298718
32,0.6177834612148709,0.6177708896454748
33,0.6177729217527883,0.6177743461528428
34,0.6178001252760622,0.6179350185335126
35,0.6177699407624857,0.617710790799806
36,0.617775366705168,0.617980783600961
37,0.6177685212291326,0.6176942523300796
38,0.6177809085448505,0.617680903108185
39,0.6177751750136139,0.6180717245520788
40,0.6177882242239991,0.617716882335341
41,0.6177728857845907,0.6177105648937651
42,0.6177587873144252,0.6177715993696643
43,0.6177661237720966,0.6178619312885085
44,0.6177693139619944,0.6178012608594398
45,0.6177590340109671,0.6178406898791974
46,0.6177663738345682,0.6179567091814046
47,0.6177639564272791,0.6178331160072061
48,0.6177519220009392,0.6177284285389164
49,0.6177707033849876,0.6179889081429607
50,0.6177702106781845,0.6177643214502643
51,0.6177669412883615,0.6176991591086755
52,0.6177594894330183,0.6179198128413917
53,0.6177547450047375,0.6176844519657769
54,0.6177505230993867,0.6176703966580904
55,0.6177683578099687,0.6176891728902869
56,0.617747416879458,0.6176676728589363
57,0.6177482719328999,0.6177730140555882
58,0.6177451422910853,0.6179222834317323
59,0.6177542453002397,0.617761534999677
60,0.6177495350668709,0.6177353628811706
61,0.6177485750314442,0.6178941169092732
62,0.6177460035486608,0.617719379133977
63,0.6177532473308555,0.6178306463930211
64,0.6177310642649795,0.6176987980494724
65,0.6177496848653389,0.6179941322608267
66,0.6177431790563438,0.617751884194225
67,0.6177461874931335,0.6176847385117789
68,0.6177327408103803,0.6176941156387329
69,0.6177365305254581,0.6176929490442016
70,0.6177388515852753,0.617706373903355
71,0.6177334116929558,0.6179349109197668
72,0.6177366627937978,0.6176914097949234
73,0.6177348354915028,0.6182740616443435
74,0.6177414474270724,0.6177237235878597
75,0.6177373849005077,0.617698793671563
76,0.6177438551112655,0.617685041918648
