epoch,loss,val_loss
0,0.2931843433976355,0.2881164232939112
1,0.28735154408232016,0.2868040253595442
2,0.28686876913332177,0.2861452480551623
3,0.28644906749663623,0.28811921668111834
4,0.2862929012369301,0.28587776489056665
5,0.2861773127664592,0.28591423015440665
6,0.2860577399773973,0.28632926892110194
7,0.2860058341534974,0.28572829850849973
8,0.28591764312826606,0.28667784581705
9,0.28588218141068467,0.2863948022905118
10,0.2858392203017917,0.28560346339831577
11,0.2858453009268856,0.2858063274666334
12,0.28581687808036804,0.28677624687367576
13,0.2857547899177985,0.2857045178229992
14,0.2857569184767241,0.2860795356499646
15,0.2857173587455654,0.28585704276638646
16,0.2857230359919405,0.28557486182111075
17,0.2857239482484398,0.2857479480448787
18,0.2857099491236876,0.2854823714746139
19,0.2857086716117457,0.28584558598456844
20,0.2856631892905105,0.2856576501139932
21,0.2856595382526069,0.2856240550134673
22,0.28564728868758466,0.2856636073541996
23,0.2856490626647015,0.2863914794277021
24,0.28561924183758836,0.2858859224443696
25,0.2856296769657085,0.2855094939544242
26,0.2855931971253666,0.2881618715693282
27,0.2856069339955191,0.2858717073725707
28,0.28559017157968286,0.2854731579128625
29,0.28558801212906326,0.2854618837164886
30,0.28559462595979257,0.2854651147615229
31,0.2855843275770064,0.2855833055511598
32,0.28557319254532265,0.2855007957879722
33,0.28557203347671817,0.28547509706049934
34,0.28557878333179254,0.28544433681899795
35,0.28555452846712137,0.2854413129111969
36,0.28554867651226823,0.28574447896581134
37,0.28554257636367736,0.2854421678606985
38,0.2855539831955704,0.285493774065013
39,0.28554332970719365,0.28538405191217997
40,0.285534142899246,0.28666932247116905
41,0.2855221314609364,0.2855727121049062
42,0.2855465373049513,0.2853929878464408
43,0.28551715087643564,0.28549225436842474
44,0.285510795490266,0.2855326039915345
45,0.2855202629534135,0.28556988937387395
46,0.28551775513813427,0.28535224921058483
47,0.285509034847106,0.28541147942578526
48,0.28550462803294013,0.28703026172540913
49,0.2855005122391761,0.285450947003684
50,0.28548894919288115,0.2857499363552548
51,0.28549246123255745,0.2859245248083441
52,0.28550470493855856,0.28537446915659653
53,0.28546939808096106,0.28542514385715606
54,0.28548962966563507,0.2854293135939993
55,0.2854949182260046,0.28545749801264214
56,0.285493663745873,0.28548524217037646
57,0.2854833730955749,0.2855306264188686
58,0.28546031296361274,0.28537041148535963
59,0.28549805159937075,0.2857659828278326
60,0.28547913008433784,0.2854060532881072
61,0.2854491429205798,0.2854354075995036
62,0.2854975461202564,0.2857086370955626
63,0.2854596139727233,0.28536541580266456
64,0.28548509207480344,0.2853632771495554
65,0.28546557573916176,0.2869515243889972
66,0.28547494636221427,0.28545976566617604
