epoch,loss,val_loss
0,0.5420313220468166,0.4878901403159162
1,0.46096320689725073,0.4470710302537694
2,0.44436026087624847,0.43516281388270733
3,0.4388398400051512,0.42536322013919714
4,0.3531191324730285,0.3406419549622494
5,0.34930410997854244,0.3384758000215773
6,0.24437890290546951,0.19122765118575227
7,0.19363542368634046,0.2048412075688167
8,0.22387015994051568,0.22634031467768934
9,0.23761202984576602,0.24713333345061697
10,0.24040813564801577,0.23814429867286427
11,0.24008017471678061,0.2334229018665621
12,0.23889236424943144,0.2488583306581276
13,0.23426378364090344,0.2379147875304286
14,0.22952508723302234,0.21787078036458452
15,0.2296710942836879,0.23758264409338478
16,0.22479816527961255,0.22047932139041393
17,0.22659644492262368,0.2119989255068334
18,0.22457388731286965,0.21039015242878434
19,0.22209037529478828,0.21351819708296513
20,0.22141493690147293,0.2199481603849
21,0.2193766497700906,0.2109537016785606
22,0.21556118881697658,0.2043261907894779
23,0.21323806090320616,0.20415408876390087
24,0.19894751192902108,0.18477212039617072
25,0.18857266998691238,0.17643472144193506
26,0.18186523203107474,0.16477106099958577
27,0.18054399125391155,0.18064107868788087
28,0.18349559040223476,0.16384662400222522
29,0.18259658489069588,0.17923097187784026
30,0.18240246919693232,0.17033712086050926
31,0.17788628174615898,0.16753642264556584
32,0.17334644122422932,0.16166257143796856
33,0.16585227400124025,0.15214091464112664
34,0.16371911421989938,0.1438536079690131
35,0.1625679497488683,0.15716516127149796
36,0.15883098797892017,0.14921331298614735
37,0.1537775812085441,0.16255221766402803
38,0.14928588706800502,0.1383308914873011
39,0.15040893352729715,0.14248151465039038
40,0.14967561246965716,0.12986627323428004
41,0.1425586591402499,0.12178431063796369
42,0.13929989928905245,0.11408620401805276
43,0.136789394103342,0.13288217989967485
44,0.14364948066220962,0.12634442864249049
45,0.14323044353001696,0.13472497430295574
46,0.1391108515713331,0.1258606854429279
47,0.1341101114960502,0.12971119522084001
48,0.12730781305179323,0.12328492821250832
49,0.12744344873346394,0.11325529274760783
50,0.13320309823032,0.10589233404811951
51,0.13245048238743218,0.12790212185719677
52,0.12998974652325126,0.13921496048628484
53,0.1311120488476172,0.13267577249018714
54,0.13307105480350084,0.10979664390987548
55,0.1372757655896729,0.11012858284112498
56,0.13318096368397167,0.13401086089784175
57,0.13501566680048485,0.1449717033445694
58,0.1447132579106793,0.13388191869786714
59,0.1410599765297082,0.1603738985126566
60,0.14764535603977794,0.14172657318089832
61,0.14763582737254297,0.12961403008817968
62,0.156248019300967,0.12236532044391887
63,0.16214827979675872,0.1795724920263983
64,0.18353323714374353,0.1140009840243241
65,0.1996188185257401,0.5216560402815984
66,0.17667944694189525,0.12246262899584533
67,0.17881765835386196,0.13261684604230226
68,0.1881986643901641,0.14526601115737078
69,0.19865883537512316,0.30609056040726973
70,0.2167763276476797,0.20266078453696235
71,0.24865293620134907,0.17430992533865178
72,0.22713978906913246,0.2189901798210844
73,0.26274854540348436,0.1686707686782824
74,0.24477053187686285,0.4315503615512562
75,0.28072158949111675,0.21951970829677658
76,0.26789372670445605,0.20567526154943405
77,0.27017846283652514,0.21041859230048654
78,0.28619430661439704,0.2280816845095995
79,0.3277995118396364,0.3342488850301518
80,0.3171191057986874,0.3285994258280711
81,0.3631611164156005,0.3111383930001564
82,0.3346276462352057,0.41444389433868306
83,0.4811404978366588,0.4755930373211404
84,0.3960965744001593,0.28101811978463215
85,0.274430810053238,0.25048881384596267
86,0.26592067417075976,0.27221312717885227
87,0.25715171110977847,0.25129764450048026
88,0.24741025952745876,0.23897079434231125
89,0.2418377996384383,0.23775416471493366
90,0.24123677045559522,0.23376212890635537
91,0.24151238428650618,0.2402580483936379
92,0.24694249943363294,0.25769945485157203
93,0.2570799911420027,0.26970261275391927
94,0.2814250620339605,0.25220428298991215
95,0.22987961625571635,0.20893752830133913
96,0.22071413068081455,0.21019800740052325
97,0.22641254472527667,0.2467277060720802
98,0.2599526706287901,0.23312852212360927
99,0.22030294356610086,0.20190338038890118
100,0.21839379959945962,0.1963252982781831
101,0.21406852517673056,0.1996021303212257
102,0.20609604572053913,0.21213943043748695
103,0.20341155734017408,0.1864813733566626
104,0.19762570103652757,0.18885934138824925
105,0.20041445206752498,0.19704768700259073
106,0.20633769892960144,0.20356318089984587
107,0.23784041047382126,0.2644160617710383
108,0.269963038351229,0.2639762019207841
109,0.26494029562750593,0.2581277090024083
110,0.26575237963434983,0.2581886016155851
111,0.2660223010370581,0.2633776714365221
112,0.26532101204736436,0.25601613355746117
113,0.2629128944137685,0.23869123483325141
114,0.25855698924270465,0.25467959182791194
115,0.2584624988891238,0.2508514107990754
116,0.25400771107152403,0.2378839642021161
117,0.2482832671105147,0.2425891915667029
118,0.24589121475113002,0.25184085806383333
119,0.24361364981181902,0.23593862337113933
120,0.23508006720829736,0.23762541149626026
121,0.22486443993904226,0.2298722310431284
122,0.2190847832271807,0.20070167135185582
123,0.2121292260779942,0.19942462405494188
124,0.21053520068347598,0.20241212716653956
125,0.2100995664092467,0.21570441230320045
126,0.2082427715500005,0.18451791353694266
127,0.19074606804920138,0.16462996719080158
128,0.17459863382015678,0.15610946362048694
129,0.15822111678530845,0.1404068337043346
130,0.14139936184830706,0.14813099887983575
131,0.1363635511724926,0.11805873708806831
132,0.1308441592051352,0.1096617293139095
133,0.1253126145755168,0.11970899661601578
134,0.13537901294209975,0.1301968568537587
135,0.1356075441183375,0.13625059353853647
136,0.13774274789886795,0.12719757384499322
137,0.1353794162769874,0.14645401180825462
138,0.13436904012096776,0.11105437255696038
139,0.13636288756756282,0.11882294708570347
140,0.14224212239090678,0.15087614573638272
141,0.142509135491342,0.12699783708673815
142,0.13401396107747496,0.10678918729076822
143,0.134982674194278,0.10148821607079202
144,0.12671901512560513,0.09587776342196641
145,0.13222746559374815,0.12274908099761607
146,0.1406288526946311,0.14403793211635305
147,0.1439601388707054,0.11687537703748378
148,0.13368409931016484,0.13675103325399715
149,0.1347523249870391,0.10631423776391556
150,0.13447702558432742,0.12783959729048616
151,0.14052735490323923,0.10198576062706012
152,0.12994668449310184,0.11231831812844469
153,0.13263077564912734,0.12012621970889882
154,0.14403866626006617,0.14071998424716323
155,0.1359499040410387,0.11835117960950005
156,0.1254464036060704,0.1108404879282569
157,0.13218089776764289,0.11405714215518173
158,0.13080378051558367,0.12017663025489075
159,0.14326538636589603,0.09017568818736754
160,0.1290217207001744,0.1440409976333356
161,0.13050416712280657,0.10487475324989588
162,0.1318040537200481,0.11264068569808658
163,0.13490390345204076,0.10788117768426721
164,0.1317548395233522,0.11522772779428027
165,0.1338448408190057,0.13727573562933879
166,0.13884342701839122,0.13183638947444726
167,0.13875132000489201,0.13228703222010393
168,0.14740237614197982,0.15721016951734473
169,0.1435749400838864,0.13309968586925833
170,0.17542482787470737,0.4850178006698319
171,0.14846386716103288,0.13751916249812637
172,0.1607234627008438,0.1099953259728796
173,0.17649935192758326,0.10809004628456007
174,0.15356037189825167,0.2008874171134893
175,0.19189277625114892,0.152263337559557
176,0.18136371592942663,0.10845608066623383
177,0.21101968194083345,0.13586164540489923
178,0.18931202436510702,0.1059446163481394
179,0.1648558590391414,0.19161217968437552
180,0.2020992819788597,0.1594647442261911
181,0.19914070113326052,0.1189126376512489
182,0.2458940897014835,0.23870864015398952
183,0.2351977598431299,0.33402447455401674
184,0.22265169355902167,0.3090549565810525
185,0.23070608178893628,0.16202752445048954
186,0.24715124180824827,0.2446520193152853
187,0.26060354077725484,0.1939246258400704
188,0.2594295402498935,0.2589201844387762
189,0.3996145227830187,0.46809619161775945
190,0.4239572191791092,0.3991968696900212
191,0.40205015037223685,0.40160054916364524
192,0.4033167277046626,0.3960535631889232
193,0.4033277351960099,0.39675259314942
194,0.40393381206680545,0.40606668753800845
195,0.4032402662969798,0.4026496548208554
196,0.4053926107813891,0.45636532491553744
197,0.43769254458608103,0.37315438206777296
198,0.44393197971163134,0.47456036264631063
199,0.4174478668793976,0.26405326327001755
200,0.2189577619770734,0.22082563999513988
201,0.22782515781484158,0.22509186717827864
202,0.23193768837111745,0.2308494528518856
203,0.2367693932293702,0.23332984217434485
204,0.23485115746990573,0.22187859346853436
205,0.23223424976844964,0.2151634027944744
206,0.23075748927039588,0.22189416047759006
207,0.22915832533967867,0.2151078119603498
208,0.229571949955609,0.22141291855025122
209,0.22940938204503078,0.23282995569536605
210,0.23173974516342202,0.22460571548886063
211,0.2339156824800608,0.23137708732765683
212,0.2343678661792589,0.23052982717823023
213,0.2343803767225058,0.2295081848197785
214,0.23587129964864703,0.2276651866928084
215,0.23584506134811542,0.22428968261806817
216,0.23432662486910916,0.22020129855919185
217,0.23134696106616257,0.22671876319676001
218,0.22676020359202065,0.22065897718742314
219,0.2260790697211842,0.2157760324234462
220,0.22296687771233437,0.21126209034774843
221,0.2194175856183473,0.2102852304360955
222,0.22180104056755892,0.21129906529174042
223,0.21715870288183553,0.20460867065562915
224,0.21499660436650642,0.19665378368597097
225,0.21034651438442828,0.19924940501693297
226,0.2085568466596752,0.19424706865646
227,0.20344025599989865,0.1872624970602067
228,0.19664289676052013,0.18430646631834352
229,0.19058426591656286,0.17876087957089024
230,0.18382680738012758,0.1766836603584493
231,0.17958456482723367,0.17863506862001335
232,0.17952007808678633,0.16426745404642967
233,0.17923545305558342,0.1632255338773355
234,0.17987929661568405,0.15814825599011983
235,0.16799350612038236,0.14573082327842712
236,0.15898771813030627,0.16730322082539478
237,0.1513985509542729,0.1260566017410373
238,0.14762876072614123,0.14113866325523688
239,0.14387195754191762,0.12141287563208435
240,0.14270129502951193,0.1298032284382769
241,0.14104223243898148,0.1470846138547609
242,0.14350603850220414,0.14903858071744394
243,0.13333106907211142,0.10663328785522773
244,0.12657590969789514,0.12089575099117095
245,0.12235470431492769,0.09893491405526202
246,0.12055845772750753,0.12129788659365985
247,0.12318231219605957,0.12041187809740547
248,0.12761827499019823,0.117527071930521
249,0.12867818318075128,0.11001195774458485
250,0.13099885327841262,0.12186245229786179
251,0.12997897259360977,0.11783912549149642
252,0.13221613179258018,0.12165287594533662
253,0.1282384802999018,0.12175881316930925
254,0.1339607619100528,0.11758657822410422
255,0.13507859375205733,0.1306937214960333
256,0.1264583166721437,0.11173958042026413
257,0.12438982581015495,0.11216108278086925
258,0.12420560185798257,0.11449439509609316
259,0.12438344235698001,0.12687981580314245
260,0.12642804522522919,0.10181193474765453
261,0.12249220329091894,0.10030811940979185
262,0.12125327520006947,0.09994219851569106
263,0.12330930890570536,0.10557573600345083
264,0.12551922354695322,0.10886291033443543
265,0.12232170767075629,0.1188995339382137
266,0.12165825104982637,0.12295331797123708
267,0.12303230047916813,0.10652325038328449
268,0.12214721988240401,0.12660223543173513
269,0.1246295611111285,0.12343301162441227
270,0.12474183387738719,0.08545169966690824
271,0.1240433402014055,0.1037532187639585
272,0.12248423558583171,0.12006935923585951
273,0.13985343705966985,0.15133210240430311
274,0.13937955788023276,0.13553815139215014
275,0.14176054482908843,0.14686694348432364
276,0.13874390366659176,0.09874932741380246
277,0.1278910266248871,0.11934868252197399
278,0.13037068964384918,0.14102818482300383
279,0.1319939449465246,0.10564844272060477
280,0.1443542343981975,0.2132663026675523
281,0.16210307008463987,0.1811495811664503
282,0.16537430223157937,0.14335833456376074
283,0.14227730462209975,0.10517388017114543
284,0.13275711758019065,0.11587408976519117
285,0.1564998764374988,0.1287906396995874
286,0.13823349717006886,0.10632660138790496
287,0.12736114953681052,0.10288089336187894
288,0.129376833765603,0.12047031515328642
289,0.1310879898180874,0.1517443679267248
290,0.1316710939790181,0.12294988594096574
291,0.13163859284014628,0.140131120882405
292,0.1345576651358633,0.12659426559800696
293,0.13028450579130108,0.12096279163880902
294,0.1302782990988329,0.12463155402945268
295,0.14874466412442383,0.14304131847507104
296,0.1378041600360335,0.12763087794878583
297,0.12945978187149662,0.14183065257584287
298,0.13342228916575677,0.11772521996860347
299,0.13190766993007785,0.1507671494698468
300,0.14299132686546095,0.1423982034577755
301,0.19412961009023286,0.2140976492353754
302,0.18039221589049276,0.15469195417348286
303,0.15675736353587474,0.1178246830790741
304,0.13651942895304003,0.09216074811055044
305,0.13684745827357736,0.1378366923534503
306,0.1402513014314939,0.1494939473370162
307,0.14259999172447874,0.11084562630613864
308,0.14798690793480423,0.118297391480692
309,0.2497810778989018,0.138670403136921
310,0.15694169279375522,0.13034990869738874
311,0.1536389841235799,0.13210272409709872
312,0.1417546080534073,0.13928094107566524
313,0.13843147931910818,0.12617271568776117
314,0.13214200420333422,0.10876762423584944
315,0.1306960641605248,0.11470367245511362
316,0.13183423817205392,0.13521035214931643
317,0.1322121783155951,0.111423653321842
318,0.1341896140032249,0.11258015893958362
319,0.13242555337010337,0.1322836189603561
320,0.13188996560853733,0.11715890655342574
321,0.1315830676086086,0.11726903509063427
322,0.13190203951857835,0.13403899561916643
323,0.13665015132521555,0.11460525384312459
324,0.1342098789302994,0.10632481493038179
325,0.13249209059251965,0.14603236159449406
326,0.1371677970762352,0.13546692801091081
327,0.13725525202701608,0.13144594280382924
328,0.13851050137401485,0.12527668127979738
329,0.14101101224013657,0.12534693970794084
330,0.14871335106132794,0.14947402790106462
331,0.15110864270207502,0.13853853298226207
332,0.14627830631179298,0.12452308289065733
333,0.1464672910956313,0.15724234635211767
334,0.1407532959098486,0.14553884984873935
335,0.14018707029479777,0.12635863331847053
336,0.13638197185753062,0.13367657522776039
337,0.1376031553901309,0.12397593914897967
338,0.1378864462135269,0.12296219859286943
339,0.14081176131558742,0.14274336893961198
340,0.14341592109150927,0.12386671079715218
341,0.14863613322317648,0.13206217909009793
342,0.14335898183685222,0.13283757416159503
343,0.1432748431954786,0.12071690049783959
344,0.14663662744773853,0.1351059418827319
345,0.15158945769309806,0.13734146491010638
346,0.147604804789777,0.14112292902857276
347,0.14691741020082952,0.11466018181667614
348,0.14634247243904666,0.13790650529332676
349,0.15571134208405998,0.16087809731359076
350,0.15533019389978034,0.14881200119911825
351,0.15071138578484194,0.1536917813069348
352,0.15002519779091925,0.12542971195366406
353,0.148821495172622,0.1552602996624824
354,0.14868445863588442,0.1485410584305908
355,0.14893445809134287,0.13537145561840747
356,0.15162878661311502,0.14790847728759543
357,0.15001927006194632,0.12948811886319045
358,0.14936720047125238,0.13865726616971588
359,0.1488040048602245,0.14733540173840504
360,0.14908223952368485,0.1343301903712251
361,0.14493920928020654,0.12508582450808176
362,0.1445236706363259,0.11519103262635226
363,0.14804480650680338,0.1344812632065734
364,0.14309795480742635,0.12244445907617989
365,0.13755314891263068,0.1626432924792347
366,0.13747912014035774,0.13432404493594038
367,0.13857300455371538,0.1253727982739529
368,0.1388359554677749,0.13119376104416203
369,0.14068042900231625,0.12084585639935548
370,0.14695469900477323,0.15508638103011094
371,0.1460419316068113,0.1283789583215021
372,0.14451139541469413,0.13809326060569088
373,0.14424812881280477,0.12925873628002316
374,0.14169220690675777,0.1249611836982319
375,0.13785495453005692,0.13375305571397084
376,0.14043428268518857,0.15585390207281993
377,0.13695596972648666,0.12165271225014163
378,0.13670400215341127,0.13005045169836532
379,0.1340397638257602,0.12634759296346293
380,0.13110957060345738,0.10772868959731537
381,0.13066479986567767,0.12574746001632361
382,0.13069084504221698,0.10055699855700759
383,0.12982231051587373,0.13701396305540367
384,0.1318917779369558,0.12540869294844373
385,0.13190530139288836,0.12129863573277946
386,0.13154641129404043,0.138882668361056
387,0.1313611516396967,0.12671501916298833
388,0.13669703147418016,0.13392041112577813
389,0.13307762910707963,0.1117110126537889
390,0.13621708153070305,0.1353876659412881
391,0.1389585100322795,0.13867652867850866
392,0.13197511859792027,0.09961067794600903
393,0.13721039523776296,0.12809757704845826
394,0.13399557159434883,0.12105430676745164
395,0.13930348341437362,0.15235604206430883
396,0.1377214486126324,0.11498440919707117
397,0.13340431784423326,0.09971692330176753
398,0.1369951331376029,0.12367501623793295
399,0.1430489244095856,0.18647981795534527
400,0.14664009451973353,0.11840017806171148
401,0.1475275309501792,0.15504442965104623
402,0.15012380073098636,0.13102531622457242
403,0.14557059736643954,0.1341236575896945
404,0.14589224543741092,0.12145767021621412
405,0.1488756857764759,0.12107299478179183
406,0.15439363942145826,0.12181544684949783
407,0.146017140991015,0.13798882237737725
408,0.14445922773578565,0.13383007424147747
409,0.13388649199446806,0.14333437257920464
410,0.13567192798598016,0.11403548771599285
411,0.13863926224535603,0.12979886833146131
412,0.1485700365379274,0.14909219258445025
413,0.16414968170029082,0.15487750784303603
414,0.15508710140649745,0.139121974188461
415,0.15234467692726808,0.14100304607010866
416,0.16899629451519102,0.15913676700445265
417,0.1759779076281783,0.18635868118236454
418,0.18934068187094516,0.21775814253416415
419,0.20079547520592916,0.1868907631078666
420,0.17953322297460933,0.21724511519509596
421,0.17248698974327503,0.14201744044259862
422,0.14849389992136178,0.16756526897672414
423,0.16872499970723684,0.18139192381992808
424,0.2320425882995081,0.16345331731422172
425,0.14573381796812745,0.12219854900003327
426,0.13063929523888537,0.11792959900309744
427,0.12494392861886848,0.10698748262924007
428,0.12573661465498565,0.12060765020590461
429,0.1235114829503089,0.10909280853659126
430,0.12456217355174508,0.10451491685744431
431,0.12881378620731934,0.11941407876120087
432,0.12986151707603585,0.10608694073174446
433,0.1303950093841429,0.10610356742858698
434,0.1319722833393289,0.10290100616009666
435,0.13017590064629853,0.10282964327011695
436,0.13290689553883817,0.1082891308612116
437,0.13189711788599248,0.11380020147387965
438,0.13185791615292514,0.1443271792560651
439,0.13104700020772758,0.11820518421839803
440,0.12931430189431808,0.11815152173801587
441,0.12970314218664913,0.11765923614495367
442,0.12863812266255645,0.10808401645970514
443,0.12785191321484954,0.13680653249361238
444,0.13192981424972974,0.11601013353869213
445,0.13273658855653686,0.1301997574524044
446,0.1312066775967749,0.11410744268897018
447,0.13152130072315535,0.10754407377768052
448,0.12931999285444082,0.11330406804111122
449,0.13070001349234275,0.12449494392361901
450,0.13241804064773352,0.1215429759533648
451,0.1319137287320946,0.11705052005840082
452,0.13246801334748165,0.12713891238962088
453,0.13394066855180367,0.12403019440037676
454,0.13583281916751563,0.14605699005024397
455,0.13669493910875158,0.1216090602451831
456,0.13603505494890453,0.11244151500166168
457,0.1352434146205346,0.12083227079782133
458,0.13075450424858326,0.12995862809098793
459,0.1354808438000538,0.12616002767831205
460,0.1343042869403732,0.13158597465495755
461,0.13048361979430909,0.12703244042918732
462,0.12712410469647412,0.12573541859613221
463,0.13013970991559357,0.10372900925194455
464,0.1316576100212874,0.11717552302997697
465,0.13865186878852992,0.11261804460091392
466,0.1391025031153723,0.12223364973195255
467,0.14087619368049453,0.12225178380415208
468,0.14375931330972153,0.115730046731991
469,0.1433615201740242,0.1393808212481151
470,0.1428131612507607,0.15161774231043026
471,0.14255576312756366,0.11543973235394321
472,0.1403870596159562,0.13240758336686487
473,0.14093177683419175,0.1502788193176935
474,0.14241583354705625,0.11824398924138664
475,0.1401035705511328,0.12407548620932292
476,0.13938850730800514,0.13897468139665184
477,0.1415733471542573,0.12735005408737166
478,0.1401370582189396,0.1274187297816811
479,0.1365741670375867,0.14189692529031586
480,0.13781219529662486,0.13306345947633696
481,0.13853295451457456,0.13270958977580163
482,0.1386295744328857,0.12839437773614393
483,0.14006718806773544,0.13403195604364423
484,0.1356193642500493,0.10471855288616955
485,0.13606385617471523,0.12062190790038083
486,0.13672348168744838,0.13416753680501853
487,0.13772896876176008,0.11161625735173568
488,0.1365881616340505,0.11675121211803327
489,0.12936865489819735,0.12373459717257342
490,0.131227053416004,0.12193565122965479
491,0.13645016175689553,0.11070784286617198
492,0.13354163458474058,0.12251824298145833
493,0.13025850309528036,0.14259778652942923
494,0.13332414545482107,0.10410356214644877
495,0.13417142793702946,0.12631623678632675
496,0.13349483157102343,0.11748040371648702
497,0.13508716052313216,0.12641842146393062
498,0.13546536436422074,0.1296849151530789
499,0.1363118694250961,0.12700442681066992
500,0.13564915696291518,0.10334740283927676
