epoch,loss,val_loss
0,0.7314225442309081,0.7294900523521765
1,0.7007769472220928,0.6187668444205159
2,0.6186300893488156,0.6190666257299797
3,0.618393401336434,0.6180616818645752
4,0.6181890184475328,0.6181929136919916
5,0.6180610394894661,0.618137342610371
6,0.618001795210582,0.6178988496955512
7,0.6179619421761527,0.6178487781555422
8,0.61793400732319,0.6177950316564025
9,0.6179035291280999,0.6182092187718186
10,0.6178845415309597,0.6178747975500878
11,0.617892714762558,0.6177837573860774
12,0.6178600589702508,0.6181323066834481
13,0.6178540133194311,0.6178131591889167
14,0.6178347069166004,0.6178452487027379
15,0.6178232541319171,0.6178171123819375
16,0.6177983002787231,0.6178367296460249
17,0.6178055737587204,0.6177942615880564
18,0.6177983449871368,0.6177235747093598
19,0.6178024809985666,0.6179526142387769
20,0.6177893844955666,0.617804606025923
21,0.617776261126657,0.6176959299567911
22,0.6177811530121639,0.6179674887479683
23,0.6177638051836779,0.6177743480755733
24,0.6177717605196393,0.6176940712384491
25,0.617771369512507,0.6177159609333162
26,0.6177613979364955,0.617796081230599
27,0.6177590745109826,0.6178837663186691
28,0.6177794233052667,0.6177693607789411
29,0.6177571286501813,0.617934703176134
30,0.6177646670194643,0.6178674571567374
31,0.6177595377526874,0.6176933760086892
32,0.6177593728860238,0.6177260961781069
33,0.6177524615104949,0.6178577498821703
34,0.6177555683039018,0.6176798689749933
35,0.617767115433222,0.6177013955400245
36,0.6177432055207398,0.6177120539449876
37,0.6177495676438963,0.6176768889498179
38,0.6177449459359792,0.6177503059874693
39,0.6177426421901513,0.6178722078687796
40,0.6177517080454991,0.6178013446313276
41,0.6177333227841336,0.6176520803134435
42,0.6177431512990584,0.6176992842932197
43,0.6177287086355568,0.6177680079457778
44,0.6177469083700603,0.6176852670260162
45,0.6177397895485013,0.6177279802764911
46,0.6177350597458834,0.6178506276743584
47,0.6177356713645878,0.6176948961194041
48,0.6177306980917354,0.617692329984149
49,0.6177412199148314,0.617756158956523
50,0.6177399404962919,0.6176786404685406
51,0.6177285383906628,0.6178596589760508
52,0.6177436203638927,0.6178527222673591
53,0.6177233987452737,0.6177129931840353
54,0.6177342797525964,0.6177356564081632
55,0.617728149933023,0.6176657674626145
56,0.6177238757922602,0.6177094729603372
57,0.6177257246137875,0.6176668756061393
58,0.6177324797571659,0.6176929799262111
59,0.6177206620455871,0.6176759576679164
60,0.617724963632837,0.6176627373872856
61,0.6177415643795245,0.6178964151342217
