epoch,loss,val_loss
0,0.6218922841004786,0.6188682802557649
1,0.6191128123104884,0.6199680095866655
2,0.6186860577111126,0.6185738177216674
3,0.618535769749965,0.6182765568160538
4,0.6183147406652529,0.618956130254949
5,0.618151529141425,0.618082869496594
6,0.6180446223945959,0.6180566602250187
7,0.6179718690248185,0.6178625320974118
8,0.617926073818048,0.617868132745066
9,0.6179298035277563,0.6184756075773878
10,0.6179058036872859,0.6178083005377436
11,0.6179058287396795,0.6182182103469414
12,0.6178780215167471,0.6178089373756579
13,0.6178629537447905,0.617786368217421
14,0.6178580993917276,0.6178048584360638
15,0.6178453448070834,0.6178670428526905
16,0.6178443063787028,0.6178902482868128
17,0.6178271366660382,0.6177614003493828
18,0.6178357550325796,0.6179083647266511
19,0.6178259146978538,0.6182325006122921
20,0.6178271780747837,0.6177576254082673
21,0.6178123780287391,0.6179444659140803
22,0.617796372112915,0.6180651213927542
23,0.6178088103703667,0.6179025846142923
24,0.6177894066545385,0.6177670217329456
25,0.6177820496344835,0.6177659853220577
26,0.6177743614517446,0.6176946260497232
27,0.6177937585706028,0.6177671575960392
28,0.6177730914226266,0.6177236739518329
29,0.6177748724096649,0.6179387147314199
30,0.6177739037649677,0.6177562555663343
31,0.6177698146485833,0.6176866125232233
32,0.6177774700744438,0.6177888434223147
33,0.6177593956571263,0.61794041939468
34,0.6177517160757698,0.6177152033479278
35,0.6177636070402983,0.6177151303433307
36,0.617760559884667,0.6177007544425226
37,0.6177577100938421,0.6176988098816599
38,0.6177520884058177,0.6177675869269643
39,0.6177520891370615,0.6178354475989235
40,0.6177570211392134,0.617827513910109
41,0.6177519771289842,0.6177000346609736
42,0.6177583449553684,0.6178325228892249
43,0.6177472005827759,0.6177579354115811
44,0.6177432109407781,0.6178254753129359
45,0.6177417255134533,0.6180620952516277
46,0.6177485674586939,0.6177798967503436
47,0.6177491674863573,0.6177393952019458
48,0.6177371429282578,0.6177124551153065
49,0.6177299125395764,0.6177698132417929
50,0.6177335130944496,0.6177325327106504
51,0.6177294628144421,0.6176913301347208
