epoch,loss,val_loss
0,0.047484710231246195,0.02222195194200881
1,0.023589256132261503,0.0232167005596917
2,0.020307016688758582,0.020591335220796918
3,0.020377348707179166,0.01988408701547284
4,0.019293496929145035,0.018205425125523533
5,0.01912338112619897,0.018449405681434175
6,0.01867808379768702,0.01903636315229636
7,0.01838290118938377,0.01784971213831667
8,0.01871888414681861,0.01886700330355659
9,0.017877141668163732,0.018996041975365245
10,0.017600051719918585,0.01733455955284123
11,0.01752881510440007,0.017486506098757425
12,0.0177043761010737,0.017157650388743534
13,0.017192321891905615,0.017598936618293173
14,0.017364124650345175,0.017239429597290728
15,0.017154589777037203,0.016859416692102544
16,0.017249531988274024,0.01707752658203907
17,0.016939561384024724,0.01813894526796924
18,0.017007043808658723,0.01678492614469342
19,0.016857495251871076,0.0177789287086578
20,0.016880495338302704,0.016820159866534467
21,0.016631528822779483,0.01642125648789064
22,0.016550693517363227,0.018211270414741836
23,0.01655600273974505,0.01678426966418101
24,0.016601214564394975,0.015861272753617282
25,0.01636462008446506,0.016261480739779448
26,0.01651448254640222,0.01660772655378126
27,0.01631425698010256,0.016585092475791312
28,0.016221547305524893,0.016702209725104566
29,0.016284431672145966,0.01690606798323536
30,0.0161210284395973,0.016267941803969437
31,0.016127150435762665,0.016082621221376617
32,0.016214534218093563,0.016236322068952275
33,0.016002030264821446,0.01579078687153779
34,0.016024639814969033,0.016007395956516787
35,0.015918451164434962,0.0158072875647594
36,0.01593084087328642,0.016020360031461425
37,0.015925598772506433,0.017404368050527776
38,0.015803965195367423,0.0156698648403571
39,0.01582516772429472,0.016940275864944523
40,0.01580519474521915,0.016497828722578704
41,0.015822031971304842,0.016039089214178598
42,0.01566765313897551,0.016124106239532195
43,0.015706830712575344,0.01642551026285601
44,0.01563689222253142,0.015974684994595593
45,0.015693434729472933,0.01580029013108924
46,0.01564049970394131,0.015984027160706384
47,0.01554318637382023,0.015191220861858288
48,0.015552583522917173,0.015564507663567066
49,0.01557239364293592,0.015195347030767045
50,0.01547528716285746,0.015390944371213794
51,0.015496702034706012,0.015651328375523684
52,0.015476664665477603,0.015230805150766979
53,0.015456612622232184,0.015956620826334596
54,0.015547383808847478,0.015127308940098142
55,0.015338841453384424,0.015489533275149304
56,0.01539481136645488,0.015053407846742492
57,0.01539219061277463,0.01549470539806579
58,0.0153575969414075,0.015282416162926308
59,0.01533972642575255,0.01572939062908727
60,0.01528082495640805,0.015242650466962965
61,0.015391547950540591,0.015087702120711225
62,0.015249103386554906,0.01601751371984451
63,0.015304267725213608,0.015644908397049847
64,0.01525877014055586,0.015393580921314928
65,0.015225491927085026,0.015406822563886018
66,0.015292633233175612,0.015193001454560288
67,0.01524680675519243,0.015546927276193594
68,0.01528121195862467,0.015264461491992308
69,0.01516826548397088,0.016246566977556005
70,0.015228089055065014,0.01563962981281147
71,0.015181851002054008,0.015142847275385379
72,0.015221453493693795,0.015437824254710868
73,0.01516752116296044,0.015479982502469212
74,0.015156479857013688,0.015425156869159292
75,0.015171831485786684,0.01572948777918006
76,0.015152903048584954,0.015287486675177795
