epoch,loss,val_loss
0,0.5561690141288064,0.486863639982174
1,0.4827589539048956,0.4795199778393237
2,0.4753090973206765,0.4619867067847519
3,0.47389548678127075,0.4691427705110038
4,0.4725873994054176,0.4612447073908231
5,0.47094238709935765,0.4781276451216804
6,0.4725134055957115,0.46649608506676826
7,0.47149826639933623,0.4690211148447654
8,0.47136212830499613,0.45614028653765926
9,0.47200031598822606,0.4658549551014386
10,0.47185059822350145,0.4643271346935294
11,0.47089933045059323,0.45938185362533546
12,0.47226660208906335,0.4627259018115657
13,0.4724629736118454,0.47436013670346644
14,0.47174792652658887,0.4670038121750175
15,0.47218841336983697,0.461433653776373
16,0.47238385654669746,0.465565247402284
17,0.4731286137079219,0.4592898850603405
18,0.47264815643847324,0.46870442470784895
19,0.47330464178128084,0.467908345579811
20,0.4734561343351491,0.4633852510991758
21,0.4737217925113139,0.47309756240318773
22,0.4732948571825333,0.4742818445764899
23,0.4736728117144327,0.46410323765252726
24,0.4756930662785844,0.47921096314188916
25,0.475518594010531,0.46903447351219785
26,0.47541665107465153,0.47885140585686653
27,0.47575602494925856,0.481325126743278
28,0.47665995323629357,0.4818408065033655
29,0.47590486297281004,0.46711001580842415
30,0.47718563370460315,0.4645556289300818
31,0.47645555830316794,0.46931755228537614
32,0.4759519022044609,0.4811236077658258
33,0.4786231339431172,0.46768648430572135
34,0.4813570426143199,0.4772286960630038
35,0.4822835298277456,0.48150988226486047
36,0.4244497778346006,0.32212712838701957
37,0.3265427875163271,0.30667312116953577
38,0.31665860547768393,0.30970676002807956
39,0.3173419164301301,0.3110207196714814
40,0.3140702653375027,0.2854805684196011
41,0.3137637493047741,0.30176264764280314
42,0.3109620797505276,0.27630250375878007
43,0.3110842671904495,0.29496172886260236
44,0.3125760445685936,0.3252624248404476
45,0.3088313819672032,0.3027599965738071
46,0.31155208251875244,0.2961135866529847
47,0.31362613061483235,0.3132760998734786
48,0.3111657807774979,0.30455347026689983
49,0.3083119250899606,0.29761733838628196
50,0.3090185110596679,0.29842414280938984
51,0.3066437368014987,0.29074022345492634
52,0.3076636359882985,0.2776202301208507
53,0.30441264304711974,0.2984706181776011
54,0.29770309010369955,0.24602485943014604
55,0.2389781845210074,0.17560692706779069
56,0.21806700932707568,0.21510043771694273
57,0.21922518390479137,0.29517657031204675
58,0.20307151234154705,0.1845025820091113
59,0.21404612256442193,0.15443855417108304
60,0.23937070954313652,0.19742843868862006
61,0.21442475282640053,0.2809772784160775
62,0.2179860789880598,0.20905867413544404
63,0.200008774297036,0.24633763928724708
64,0.21185381919909135,0.16279240704269207
65,0.21438925719265942,0.19656127651387467
66,0.21759398196271365,0.22438821777858486
67,0.21921827444274297,0.24268184822212846
68,0.21751720378931472,0.20284630283290356
69,0.24861833412018272,0.16786783426661658
70,0.21842409488114956,0.22480676236765615
71,0.23340111817594908,0.20927295328056725
72,0.24449925900126,0.22317246929572446
73,0.24472257443028894,0.1889699795264494
74,0.23791280988934901,0.17834235884895774
75,0.25653071440249275,0.25631972529834013
76,0.254508569848547,0.23856162667177794
77,0.2450523743028637,0.13309935717832144
78,0.24772706773397538,0.24295039032642568
79,0.247468190272156,0.22886650831063202
80,0.2539048041519019,0.20441176090313956
81,0.23842921956264085,0.2406078764001045
82,0.2485466156068375,0.22555966510921596
83,0.2591426390244829,0.24712414888473225
84,0.2531046035100786,0.17492542148168166
85,0.24853829617758957,0.21768914180032045
86,0.24851478250313988,0.22512105073468625
87,0.26103674257703546,0.24177200577409888
88,0.2545247386076195,0.22578014136085836
89,0.25966016904676886,0.2618362408339832
90,0.25443869320939694,0.22770923952551653
91,0.2585063220036803,0.26098685054786785
92,0.26103078919329387,0.1985556392870777
93,0.2554829478550186,0.2527473994076784
94,0.2591180877150107,0.24397164486523865
95,0.2535450917611225,0.18120798226884005
96,0.259414939056214,0.24355707802815063
97,0.2629527825059845,0.23257689522420694
98,0.25915820715282323,0.24292530964180792
99,0.2597245477420316,0.2745676077509545
100,0.26195916683197595,0.24770109119786543
101,0.2573545822818533,0.2440012741746307
102,0.26811220225474663,0.2580658152324827
103,0.2617843653783023,0.24314080998120227
104,0.26581487999117975,0.2547432098172103
105,0.2626950998333476,0.2537251432204962
106,0.25838155266616325,0.23732950949900922
107,0.26036105743401333,0.2222341806759993
108,0.2601001957913128,0.24403972807736873
109,0.26116963873823895,0.2234673839657653
110,0.2619786069417496,0.24960315967128224
111,0.26662380365823346,0.2425519043439206
112,0.26801181145555214,0.26062395512477615
113,0.26524945903268216,0.26215613449093583
114,0.2685886762314457,0.24710315966258084
115,0.26835308251402873,0.26323855421162196
116,0.27130907717898334,0.2508993805760015
117,0.26799240096317856,0.24748617210043994
118,0.26497988990419286,0.2564384167936887
119,0.26731412320303094,0.2724547596574313
120,0.265261300105014,0.24268161961680396
121,0.262002435395773,0.2644884306680644
122,0.2678488573436741,0.23934172519270425
123,0.26087111372461885,0.24966393245591056
124,0.25930781255038476,0.24933004668110864
125,0.2623087474591642,0.2598009988097572
126,0.26462918334454893,0.21936860577855183
127,0.2652211445596239,0.2454913364419682
128,0.2703159257495184,0.2999363300622428
129,0.2729224096342408,0.2623407845925434
130,0.27241487928731045,0.2542598726226369
131,0.26848719963987316,0.2653148480527109
132,0.2668173758266829,0.24145342674278575
133,0.26745712913399794,0.2875905337487404
134,0.2644754324773486,0.2466001653468232
135,0.26927864076114827,0.247641004325893
136,0.2651656451966879,0.2526334176460902
137,0.26397558447239017,0.2919941639643999
138,0.2659653819459166,0.2386615240322509
139,0.2612769547954285,0.26822926901697824
140,0.2667292438990312,0.24649779989239848
141,0.2634772471397566,0.23786441456082383
142,0.2698325724292508,0.2262408316908865
143,0.26268385790342136,0.24010622280212504
144,0.26541202295842986,0.2763746525708583
145,0.26915808640020766,0.24003429312050487
146,0.2623079886631645,0.25015574484604314
147,0.26199361000708143,0.2555003670034424
148,0.26139318831473757,0.23512223323041215
149,0.26771560085234974,0.23118877705769722
150,0.2656773753744588,0.24245906024808722
151,0.2681598137792728,0.23588636747145209
152,0.26909219370401793,0.2553843032970529
153,0.265852641776574,0.2553533836897079
154,0.2633125486793377,0.2522889851001057
155,0.26297631979680614,0.24280011905274154
156,0.2678064872817195,0.23004810145881635
157,0.26593823602693,0.2445152346815216
158,0.2670124421676127,0.24358173322600266
159,0.2646627510376603,0.23637604916472796
160,0.2669563147368385,0.23394534052240104
161,0.266879477644797,0.2273638270680535
162,0.2603237231711658,0.23449860638897302
163,0.26391667077501263,0.22376695109738243
164,0.2644707192305186,0.24593637843781724
165,0.2615792903485443,0.25548283511656433
166,0.26352832148416794,0.23821799303590044
167,0.2615295148807301,0.25671749704027214
168,0.2628294140864029,0.23678205574999373
169,0.25976480477399305,0.21276124929956372
170,0.25609940236167394,0.24409326697062983
171,0.2614607431704374,0.2258277420869999
172,0.2566751170816948,0.23722199051484574
173,0.2625740564542355,0.253434132606347
174,0.26290685798617913,0.2333451988053148
175,0.26359966733128287,0.22868758133051362
176,0.2640975340306043,0.25433826119021874
177,0.26730070674748685,0.24885515361081656
178,0.2667074444486772,0.2619892671909742
179,0.2649443940676337,0.26181832348681616
180,0.26772073616353487,0.2646203328223124
181,0.26965215663202674,0.24867557073789984
182,0.26461875408267477,0.248969902292752
183,0.26211214239140146,0.24559608061963334
184,0.26496025371709,0.2540582194380517
185,0.2639555754579956,0.275644766141125
186,0.2638779358388043,0.27162748711774337
187,0.26094906991295475,0.23689549189704467
188,0.26513485052735447,0.24166973754582324
189,0.2594323265817377,0.2414440678346476
190,0.2616384963126923,0.24993365717823682
191,0.258324083057139,0.2524568869128811
192,0.25895778647511364,0.26533441359157595
193,0.257540167278772,0.24834599594275156
194,0.25809800086783063,0.2445746495026645
195,0.25550364041991763,0.23404258314372076
196,0.2627459926377114,0.26783918069081875
197,0.2690711300477111,0.27946913894945685
198,0.26752320377587124,0.23580788415520537
199,0.2633130310701312,0.2605560879371849
200,0.26851842678886495,0.2434340348257249
201,0.2678079266217444,0.26406827850595105
202,0.2654851567003133,0.2301339754367977
203,0.2624644740067834,0.23612902605330566
204,0.2637126600389198,0.22162172520972806
205,0.2608770204542445,0.24196247345581348
206,0.2645075303838671,0.2447177870115998
207,0.25559271470583184,0.21579321101005736
208,0.25908382065158736,0.21912840235939088
209,0.2542962479748852,0.22632164862807552
210,0.2607629110364078,0.264128015037484
211,0.26997737307325187,0.25902950283916426
212,0.2722880994920448,0.2702525068929499
213,0.26957374521858507,0.2507049529197636
214,0.26857163686099483,0.25832935860750644
215,0.26717405661857063,0.27319811903308877
216,0.26646693089038875,0.2781479775373856
217,0.2655839513692024,0.2446093336049851
218,0.26867611186684753,0.2366817894498217
219,0.26726968765998477,0.2534369117756346
220,0.26577775594327235,0.22909199254887913
221,0.26813943029714643,0.23490859809824827
222,0.26914012825207484,0.26665429134051777
223,0.27084358034132,0.23115940981779462
224,0.2687891989385633,0.2661166797661723
225,0.2696668366559321,0.2536462090383771
226,0.26548467634963074,0.2650392788605098
227,0.26621879425475464,0.2509099607146666
228,0.26528885015685433,0.2550406255619563
229,0.26594732827048384,0.26071234072791977
230,0.26370072413125545,0.21639429348228623
231,0.2677877738391809,0.24960975504849658
232,0.26690253610607145,0.24782732767200238
233,0.26790851765603807,0.2411279611392226
234,0.2629652781139096,0.2531842921965507
235,0.2626347226665629,0.24512874445630975
236,0.26195874154639304,0.26246919027935267
237,0.2679172946964864,0.24912335040215447
238,0.26765146479308843,0.26398123463574985
239,0.2650027059024577,0.2814391561740796
240,0.2667323839459255,0.23601896414308168
241,0.2612117556415146,0.2542061049669425
242,0.26353346076820067,0.2366078517853682
243,0.2653858389278905,0.2371679155785962
244,0.2676099010641046,0.25920249643793747
245,0.2665585669949114,0.23722691066557086
246,0.26459398510768184,0.26814985786476275
247,0.2643251992565236,0.24174251944575964
248,0.26461778865087693,0.2510110052832722
249,0.266408181827578,0.2563933017214236
250,0.26451998617383743,0.25021028925950994
251,0.265732699263993,0.23190437541294176
252,0.2659616579023526,0.2598550721749192
253,0.27017763392437544,0.24481294035234785
254,0.27040216161476505,0.2393207849159728
255,0.26968507701941163,0.25338093462700007
256,0.26754942778542673,0.251737822218823
257,0.26728845072732726,0.24627456622498844
258,0.27213950589406577,0.2366419435997659
259,0.2694980721470353,0.2354055728887216
260,0.2721181050348606,0.28963353991846874
261,0.26491113211079725,0.25542036764813164
262,0.2685597828440994,0.2539334371988114
263,0.2681971631341691,0.2384155722696029
264,0.266437673301483,0.23895766486361658
265,0.2647899501115155,0.2211691354313036
266,0.26960340452442366,0.23208532505951948
267,0.26609306997232574,0.25526043529783143
268,0.2667528308564133,0.23232220718750407
269,0.2680546405782597,0.24937181858782448
270,0.2660604369482868,0.2547722833725078
271,0.26844143913425,0.22701001044027416
272,0.2679255278087598,0.23769242239742866
273,0.2650796304746949,0.22092526560137163
274,0.2659671112501306,0.25023422161206327
275,0.26717864546635517,0.24911491676790387
276,0.2689765880795552,0.2505709867431976
277,0.2680538491762763,0.2623429331152012
278,0.26756377743066456,0.2994940346899984
279,0.2725956192712864,0.26569271620607726
280,0.26562012555457953,0.23454775682379342
281,0.2677051819222655,0.2522716908220924
282,0.2638459991308763,0.25243269054510686
283,0.27241786897444936,0.2350788336044777
284,0.26852517402630216,0.24732727625702614
285,0.2661857964385978,0.24183923389161396
286,0.2741864742017728,0.25622181282571344
287,0.26752059238018083,0.24690484900302453
288,0.2671284334863826,0.25655609955414466
289,0.26515469463874664,0.2583687016249476
290,0.26522989343222475,0.2452744382334645
291,0.2656294988979808,0.2511293571336619
292,0.26954356653748557,0.24947430768683976
293,0.26719286639371614,0.24266263348294387
294,0.26605209486307,0.2514010766175155
295,0.27017474904047956,0.24356889647385596
296,0.27144763427820084,0.2510660383895656
297,0.2685156410650982,0.23886458231294821
298,0.26892220123325755,0.23276491999771184
299,0.26858547737328314,0.2585971470731888
300,0.26702561481796905,0.2555528506938752
301,0.2638201374915526,0.25884690833642826
302,0.2657957761954841,0.23708989324360868
303,0.2673315848466203,0.23404535339406518
304,0.2684388601655861,0.2364942926221617
305,0.2639333319673546,0.237404371337589
306,0.2640489362675348,0.24442847149215474
307,0.266679055923171,0.2639910271398826
308,0.2672540058342336,0.2511622984043873
309,0.27079844365628647,0.24865230741485386
310,0.2714917474658228,0.2593070546109214
311,0.2714421006920244,0.24755675409107022
312,0.26472464753829356,0.25380690150500695
313,0.2649640695119591,0.2327192873729503
314,0.26536600495740065,0.24795268190796552
315,0.2627578562407421,0.28976055589373867
316,0.2702616260791894,0.2627790019895038
317,0.2622094408715602,0.21996463774812966
318,0.26808293110685794,0.24906372503110866
319,0.2652074699703935,0.2587050754827691
320,0.2656895468612496,0.2646149536602302
321,0.2692779537746675,0.2552496732393127
322,0.2663125554867703,0.2635642629711974
323,0.2699027180826788,0.2490879843874086
324,0.26791485274930876,0.22975970260853315
325,0.2710779740320768,0.23256405616377004
326,0.26432188783434507,0.257938679914985
327,0.26905820970300487,0.273694850969682
328,0.269276911904327,0.26753092021209285
329,0.2647995946345757,0.23730563165110877
330,0.2684438776752775,0.24856447142647808
331,0.27054041958122466,0.2434470245172024
332,0.26895060492836065,0.2487413371759803
333,0.2690218686699581,0.24402625244851048
334,0.2694109640329527,0.2366558741672389
335,0.26748416094397237,0.25511577526003193
336,0.2657253013206444,0.2613061533187911
337,0.2659513238456557,0.24421127203365506
338,0.26991157643526814,0.24215376235707833
339,0.2678230726499382,0.2534881174588532
340,0.2709163643533082,0.24966185900706733
341,0.2687011709253343,0.2378208730656832
342,0.26640566280357736,0.23967711391820234
343,0.2660044141775899,0.24396442018286155
344,0.2720449637350223,0.24323324900232285
345,0.27121136310078603,0.268830932984967
346,0.2701858257452806,0.25501702415295374
347,0.2623835805597737,0.2505638374730232
348,0.26668420171527696,0.2616545271191864
349,0.26627259558921246,0.22411438759902774
350,0.2644629764368383,0.2491221812229667
351,0.2675741491339701,0.2463962103135201
352,0.2656861588275366,0.2360025039917071
353,0.2628794996391496,0.242324181777234
354,0.26794315467747426,0.25096709587568206
355,0.26911612894174286,0.2669223220679012
356,0.2676232558569973,0.2580826023150921
357,0.26630170061719044,0.2431785392741894
358,0.2676905537899539,0.264290308804891
359,0.26441491055813093,0.260767209583052
360,0.2676225383046439,0.25480888072108215
361,0.2628644208153121,0.24914342589186925
362,0.2673281971827519,0.23680011474883178
363,0.2689142451585055,0.28668511632923566
364,0.26508938783617186,0.25751683335911424
365,0.2730185540200616,0.2509960559742874
366,0.2671785196774096,0.2590301074419965
367,0.2683687092567845,0.26997756034691744
368,0.26933558786912765,0.26296827395273625
369,0.2745451083581289,0.23304128806376398
370,0.2650582132230194,0.24137441468306509
371,0.2662770612966165,0.24406571924348044
372,0.26695826482042684,0.2582301519938049
373,0.2673852147700025,0.2509192371648787
374,0.273521264175399,0.2594507136967544
375,0.26501143238156005,0.2482455541158438
376,0.2687128315373265,0.2449748672466402
377,0.26630185045200505,0.24791653476057263
378,0.26536635798607183,0.22552611048590915
379,0.2672138135429856,0.2379428841240118
380,0.26895051109518786,0.260891461519816
381,0.2656366658733309,0.2458288698470022
382,0.26991654397417203,0.26553246374064504
383,0.2669438974286099,0.24163341483543874
384,0.2700659401350922,0.2649679531653722
385,0.27251539152082777,0.260381952943303
386,0.267683558088479,0.23705937506121924
387,0.2613379920514418,0.27573704938287186
388,0.26215643592602356,0.25987308423449523
389,0.26693845925042875,0.2498499642806815
390,0.26403894789033744,0.28205991440300815
391,0.26458972750948945,0.2414823043351239
392,0.2653314849082902,0.2514021572598769
393,0.26765257847294793,0.253324676205352
394,0.2653570457923116,0.24539280032009395
395,0.26623363611553075,0.24510151638505137
396,0.27258675247788716,0.258672349837768
397,0.2660746259914578,0.23478627497359011
398,0.2654444338131944,0.24630667243850782
399,0.26477490803353587,0.2361831794835065
400,0.26587639654202877,0.29969078870392
401,0.2668399035489206,0.2392230181435889
402,0.2670966062763388,0.26753810851775045
403,0.2657431308045876,0.23799953930569392
404,0.2670738093549008,0.22224423590222706
405,0.26690375261468063,0.22778620274204214
406,0.2647991744313744,0.26356789947087844
407,0.26670631827164687,0.2375456239644435
408,0.26928848381324993,0.24670709510064184
409,0.2655207275377931,0.24636558932157812
410,0.26642363719504963,0.2513897377885848
411,0.2660699404531522,0.24643965113820435
412,0.26324923454617577,0.2326063633762717
413,0.2657719981059539,0.2539991120424874
414,0.26763970654806774,0.22655956623569698
415,0.26593934966503285,0.24432075588034113
416,0.2642671531550974,0.22982006306727534
417,0.26534935033874957,0.24715273627302844
418,0.2652713944486755,0.22614571282946763
419,0.2669995661923368,0.24447467253639363
420,0.26418655519012074,0.25758949612227283
421,0.26432671531545726,0.2562006111925246
422,0.2627398282814446,0.23260337323409605
423,0.26285975962710245,0.23492407758885636
424,0.2612352023919742,0.2554487721255806
425,0.2640141996147157,0.2464866338830988
426,0.26345048180286934,0.22572581596908198
427,0.26518702479578954,0.2546173612929319
428,0.2695755780077248,0.2690807843923762
429,0.2668939657252822,0.24431951122852427
430,0.26956287101567317,0.2526103857684116
431,0.2690869562262244,0.24480035154198787
432,0.26941809902866903,0.2648079054247337
433,0.26428904450588747,0.26114535635066827
434,0.2640240555576938,0.24748171418784407
435,0.26475331668642826,0.2389109863416992
436,0.26381028422100056,0.2412696593265077
437,0.26502826670893104,0.24951991507751808
438,0.2624374787995012,0.2771312213122893
439,0.2666099738595102,0.2664938717959668
440,0.26628003401265704,0.2328379033956698
441,0.25875099109496186,0.2533824676579803
442,0.25879075992598927,0.2476860176762815
443,0.2647624145074784,0.25160914330780265
444,0.2682402021437287,0.2433527423082477
445,0.2666901605273839,0.24387304788184958
446,0.2695667799398172,0.2375544306353061
447,0.2692308812212047,0.2547312081222697
448,0.2692626592419069,0.25900557610627023
449,0.26723409223379946,0.28344917599495506
450,0.2650424798635887,0.2651609372821941
451,0.26614991389364123,0.2518047860310702
452,0.2611247473497024,0.22652320080381627
453,0.26407616770415426,0.2695413191968217
454,0.267409635172356,0.24789579575224224
455,0.2672999542448118,0.2609424683637766
456,0.26422215469652793,0.23048348046857364
457,0.26439044275600687,0.27617674433933653
458,0.2666082982603219,0.25945313544362325
459,0.2645670854098039,0.23196243442178063
460,0.26514993505992346,0.25511334650369555
461,0.266373818061703,0.22796392277644498
462,0.26899940337988737,0.24898569876840224
463,0.26286812962962686,0.2633175276830152
464,0.2680336555318416,0.24446012495449668
465,0.26500894882685666,0.2477754743381525
466,0.2645878113442368,0.25453509685235204
467,0.26964759307088043,0.2862197534760516
468,0.26858874524326876,0.21617128186997417
469,0.26839437353028783,0.2679424860665011
470,0.26675575218790526,0.23695116636961916
471,0.26760243612518303,0.23689919818926902
472,0.2674663458780063,0.2571739775686852
473,0.2684668162651211,0.22915490940877895
474,0.26791656298266114,0.2748560291161309
475,0.2656124821536726,0.24521727832177742
476,0.2689356676953807,0.24667860856408136
477,0.2660232640092997,0.2414203201936496
478,0.26474237629921554,0.23947673522401222
479,0.26714388672426476,0.25687350075320314
480,0.266741108915823,0.24997248351332238
481,0.26727988805362374,0.23783627573010985
482,0.2650696993816653,0.2409223230723337
483,0.2697895552464921,0.24429585984685223
484,0.2667177877813172,0.25809526831419216
485,0.26768031540968784,0.2499745454328
486,0.267653554242501,0.2531661985491894
487,0.2645434539278953,0.2612056996724708
488,0.2653478746048158,0.2528504201022958
489,0.2653284401441212,0.245686812799149
490,0.26691537457790443,0.23495630739862514
491,0.2647427664913112,0.2507026413061323
492,0.2613826422296685,0.28218810276006745
493,0.2642935432666679,0.22948552058996075
494,0.26042226968620946,0.2771905967353904
495,0.2581154669555213,0.24335122490354602
496,0.2599460545709555,0.2181215804592923
497,0.26614097671641457,0.24075727645739828
498,0.26970865442048464,0.2612746480100056
499,0.2694169653831624,0.2672329427672902
500,0.26636412084174216,0.24114261028588738
