epoch,loss,val_loss
0,0.6405431507477414,0.5566646549812249
1,0.5570468362996006,0.5559572804886632
2,0.5559167165351317,0.5563414850858955
3,0.5559204209133015,0.5558560921101982
4,0.5563303624838941,0.5558099433015372
5,0.9515518275446723,1.0
6,1.0,1.0
7,1.0,1.0
8,1.0,1.0
9,1.0,1.0
10,1.0,1.0
11,1.0,1.0
12,1.0,1.0
13,1.0,1.0
14,1.0,1.0
15,1.0,1.0
16,1.0,1.0
17,1.0,1.0
18,1.0,1.0
19,1.0,1.0
20,1.0,1.0
21,1.0,1.0
22,1.0,1.0
23,1.0,1.0
24,1.0,1.0
