epoch,loss,val_loss
0,0.8908347620114321,0.8889529911207551
1,0.8891036651552666,0.8889981806230901
2,0.8889924103843435,0.8889560203183468
3,0.8893989988169159,0.8889933363140359
4,0.8889619132464464,0.8890097192947839
5,0.8889673354521154,0.8889439272439459
6,0.8889903648557315,0.8889332245896312
7,0.8893696129181251,0.8889309393899563
8,0.8889475648047749,0.8889794490659958
9,0.8889534780456448,0.8890147423041856
10,0.8889554174894505,0.8889397479142956
11,0.8889587382006067,0.8889701286345905
12,0.8890016964974837,0.8889408405241331
13,0.8889426217297062,0.8889369842541186
14,0.8889834616225205,0.8889312949685306
15,0.8889372022071473,0.8889340370661573
16,0.8889464803249898,0.888929702240985
17,0.8889454711020489,0.888930224262004
18,0.8889405548904231,0.8889666220129757
19,0.8889430357786144,0.8889260671243642
20,0.8889410938599424,0.8889744161840126
21,0.8889401492174096,0.8889273257412303
22,0.8889411585586708,0.8889607902990744
23,0.8889388267079248,0.8889253918322302
24,0.8889370533550707,0.8890106165496171
25,0.888937201610813,0.8889391388337688
26,0.8889363703116432,0.8889999060483514
27,0.8889384335898792,0.8889481421925065
28,0.8889353941316207,0.8889381627591996
29,0.8889354340761628,0.8889409709974416
30,0.8889360400086669,0.8889695880374058
31,0.8889342702018723,0.8889300694290714
32,0.8889376789796237,0.8889268864066294
33,0.8889359315373399,0.8889370089923652
34,0.8889343614228871,0.8889772405752364
35,0.8889327377830871,0.888939788592549
36,0.8889347211012467,0.8889515071998461
37,0.888934513849026,0.8889307573198685
38,0.888936371555584,0.8889328265154155
39,0.888933933779764,0.8889335742758933
40,0.8889344187372451,0.8889275361038833
41,0.8889323342331342,0.888928854699284
42,0.8889327592085288,0.8889247401424755
43,0.8889335132390147,0.8889353733810902
44,0.8889324931357325,0.888924945000904
45,0.8889329354422916,0.8889311246310072
46,0.8889333316074794,0.8889227869947203
47,0.8889323846395581,0.888930469751358
48,0.8889324314044773,0.8889234655335421
49,0.888931745569085,0.888927730001191
50,0.8889322095779553,0.8889280175129081
51,0.8889309640188726,0.8889632017125548
52,0.8889388733604396,0.8889317381414171
53,0.8889298196382476,0.8889218187434381
54,0.8889306683044724,0.8889363362464675
55,0.8889300748165041,0.8889363498011524
56,0.8889302164916653,0.8889467304985694
57,0.8889339631586969,0.8889272331774982
58,0.8889283456034359,0.8889262765499265
59,0.8889292710094527,0.8889361683936541
60,0.8889285490851828,0.8889257785761681
61,0.8889289406985884,0.8889481495993089
62,0.8889290862562332,0.8889460200040098
63,0.8889290775671841,0.8890065422403788
64,0.888929979936631,0.8889258084494821
65,0.8889273381395235,0.8889263391409561
66,0.8889295479424758,0.888933471574544
67,0.8889283978832647,0.8889499494096902
68,0.8889297873920192,0.8889609935530901
69,0.8889289044748255,0.888931748520406
70,0.8889279988985038,0.8889228625583028
71,0.8889280507622396,0.8889400730516223
72,0.8889331813300374,0.888921765523315
73,0.8889269413164748,0.8889391486306256
74,0.8889266465371993,0.8889498233804631
75,0.8889280736363162,0.8889216954876208
76,0.888927184538464,0.8889254509825281
77,0.8889293736590261,0.8889221094403169
78,0.8889269770523635,0.8889270032731923
79,0.8889279547965804,0.8889196678269604
80,0.8889269687478553,0.8889228489468244
81,0.888927648388785,0.8889189128395261
82,0.8889277060470607,0.8889431605334128
83,0.8889272675433164,0.8889218117531205
84,0.8889262907397458,0.8889267669890974
85,0.888929118545057,0.8889207524431306
86,0.8889274491705133,0.888947530101931
87,0.8889277077654659,0.8889196040953306
88,0.8889277798142521,0.888954056720611
89,0.8889272833627417,0.8889228870741087
90,0.8889268175707845,0.8889400517067796
91,0.8889276492682993,0.8889297748465793
92,0.8889269273672991,0.8889190214284549
93,0.8889284750691243,0.8889393792211848
94,0.8889248247645193,0.8889544926002818
95,0.8889270716222373,0.8889324049287435
96,0.8889263149161347,0.8889199706160948
97,0.8889273750479665,0.8889212770908432
98,0.8889260655123037,0.88892066920771
99,0.888926788200134,0.8889893531486953
100,0.8889267686433645,0.8889209264201627
101,0.8889264197846084,0.8889194965523464
