epoch,loss,val_loss
0,0.34353383897144035,0.33363785145679165
1,0.3363436724654946,0.33371510935128823
2,0.3338176364024358,0.33391409171740744
3,0.3343012180178544,0.33362773556084185
4,0.33382378738292345,0.3336466348358652
5,0.30741799642548406,0.2226798412027256
6,0.22274108845544466,0.22285804981671953
7,0.22272730635916102,0.22252378866315475
8,0.2226442988002727,0.2227064855012209
9,0.22264634819529663,0.22268549009875985
10,0.22261985458490668,0.22258766692404483
11,0.2230550979904865,0.22254048154167436
12,0.22259881510921709,0.22300362390564682
13,0.22259557888990386,0.22249225893956964
14,0.2226044041161538,0.2225129487463571
15,0.2225875187917961,0.2229838104123196
16,0.22256628927318042,0.22261874729136502
17,0.22256925990569806,0.22271708999647305
18,0.23688542618924086,0.22556612696939374
19,0.22295160617129933,0.22260669868499186
20,0.22262676957925506,0.22256293582035017
21,0.222627087648503,0.22388211985594775
22,0.22269614390547268,0.22288417576446748
23,0.22258762741122076,0.22256919493632826
24,0.2225955868592697,0.22252534942549715
25,0.22260247360779936,0.22272469925420404
26,0.22320441777723563,0.22263407464895965
27,0.22253039692084334,0.22248955092743236
28,0.22255033850829592,0.2226077712254712
29,0.2225500090834535,0.2225564093259056
30,0.22254553825343307,0.22252072714658433
31,0.22254439800760983,0.22249718021310963
32,0.22253772755935358,0.2224842930466708
33,0.22253117076672735,0.2224601686630284
34,0.22254335801133113,0.22249537993536614
35,0.22255766863714146,0.22275691929413663
36,0.222530245688162,0.2224781570539922
37,0.22252085833760124,0.22257268224464669
38,0.2225328851077215,0.22254565684013902
39,0.22251775201554974,0.2224927145147089
40,0.22252038945225805,0.2224481971903379
41,0.22251823122907274,0.22247162523398575
42,0.22250986202398754,0.2224665345730281
43,0.22252169978096278,0.22246690705827973
44,0.22251943819680317,0.22287627723087522
45,0.22250158239437734,0.22297395330957143
46,0.2225073085065504,0.22247970130129505
47,0.2225072979582948,0.2225026222073371
48,0.22250042568921302,0.2225521847567843
49,0.22251398889460008,0.22249660017529385
50,0.22249765819925738,0.22252619057202766
51,0.2225025486980064,0.22245281148623225
52,0.2224975201005248,0.2224491249917234
53,0.22249659736194075,0.2224656099461555
54,0.2224964672663939,0.22276111592683448
55,0.22248914202516318,0.2227323093993315
56,0.22249114979263715,0.22246061038650064
57,0.2224915128367166,0.22246029232349854
58,0.2224894619652524,0.2226407090224159
59,0.222486018560668,0.22252225711035392
60,0.22249072754738522,0.22246399159414987
