epoch,loss,val_loss
0,0.05154965573927186,0.025228947647299268
1,0.02153961883342204,0.01848992868603916
2,0.020775989567043702,0.02016750712741012
3,0.020057039643976548,0.01848621203735523
4,0.019290439081605586,0.020006516225188165
5,0.018946691250148816,0.019494908565129716
6,0.018830370591348348,0.018614562543347767
7,0.018416160024477542,0.01728312441193565
8,0.01811673358547351,0.01750999358029347
9,0.017900514438822013,0.01923690767463593
10,0.017739197028102643,0.017910020233128838
11,0.017808616987875423,0.017616313205680214
12,0.01749131471821883,0.018110476681666515
13,0.017539989920100148,0.017437638328892096
14,0.017249475732469922,0.017855259714086406
15,0.017049104648156507,0.01653839730001999
16,0.017045594974344838,0.0174027056864683
17,0.016888822313624582,0.016870448714998036
18,0.01684003386988923,0.017889677845970994
19,0.016840698259448117,0.01799382557046826
20,0.01667977396513504,0.016650982359277814
21,0.01667244057455601,0.01697630718958573
22,0.016642474187544623,0.01655723297674483
23,0.01645821618911707,0.01719326039411486
24,0.016433039530170824,0.016881635804950945
25,0.016412557486750842,0.01628347536476797
26,0.016967991103460946,0.01665123656101623
27,0.01643084149270665,0.016809886911987777
28,0.016477007009162204,0.016857503940482493
29,0.016403531725120768,0.016899421244796986
30,0.016373903908033324,0.01663031552511384
31,0.016491000993591895,0.01708820099377854
32,0.01628318982416137,0.01665453631484108
33,0.01637634910576595,0.017820204533601076
34,0.016211719912735397,0.017344835360885158
35,0.016305518080966773,0.016502534530640395
36,0.016429227930697295,0.016275581541254216
37,0.016223318123699204,0.016428107625899645
38,0.01615200247264189,0.01682617878596073
39,0.016113059075690158,0.017475214741200597
40,0.016098582383529174,0.01631006633731814
41,0.016114190741023136,0.01672823377836857
42,0.016035060875912596,0.015963124485997897
43,0.015980854959881413,0.01662315043119534
44,0.01601437352685665,0.016042652525488695
45,0.015974488004821607,0.01617219445720251
46,0.01599558154369822,0.016065124077558262
47,0.015939982304339694,0.015979461816188475
48,0.015863199695193255,0.015669439999380457
49,0.015913286391757753,0.017002156470932287
50,0.015932025741130937,0.016154971516373018
51,0.015914816173916674,0.016046466533617024
52,0.0159039248866849,0.015742196282172216
53,0.01626649546279963,0.01654630213035562
54,0.01576935608708227,0.017100109901617606
55,0.015830098559891644,0.0156334600860526
56,0.01578373630802363,0.015756435126151398
57,0.01581577283780255,0.0157698129745381
58,0.01578042481763084,0.01653624134741952
59,0.01573706705236478,0.015936926003425427
60,0.01572668729766988,0.016181855264528155
61,0.015725895655807363,0.01574694477037963
62,0.015763315267449382,0.016062206613754463
63,0.015682864474087906,0.01609985663204893
64,0.01568110037542874,0.01616389217730437
65,0.015688962729511157,0.015541739935019583
66,0.01569185515116408,0.01649464949856327
67,0.01571147050134802,0.015660218158903953
68,0.015659244909991106,0.01593534668059468
69,0.01564411192099834,0.015898700468452185
70,0.015669829843552842,0.01644991966714582
71,0.015602880897087706,0.016192652315714207
72,0.015669702030398615,0.01607842358421994
73,0.015633594806086795,0.015620515149587205
74,0.015642975388664188,0.016164083753996295
75,0.015672877852160785,0.016596198721339356
76,0.015600160122473781,0.016292474609535684
77,0.015606871443821599,0.016790959195834204
78,0.015628200645769856,0.016244560971661482
79,0.01562537411152701,0.01606658942407633
80,0.015593035627529131,0.015570614083537118
81,0.01558335293724915,0.01577531234005533
82,0.015578977559759793,0.015861685347265765
83,0.015627921808516958,0.015572821057662048
84,0.01554384407081265,0.0164751625340003
85,0.01552323215893455,0.01581884345712076
