epoch,loss,val_loss
0,0.5968001677638359,0.7792665297708304
1,0.7782657227250853,0.7779731729427406
2,0.7779538963950832,0.778130854995398
3,0.7786230403653794,0.7779227589328497
4,0.7806035027270671,0.7778918596701299
5,0.7779040265155251,0.7778802022434935
6,0.7778965564404741,0.777917701137507
7,0.7779070837738911,0.7778766596290788
8,0.7780643696505012,0.7779722431121752
9,0.7779275818840752,0.7779352094552735
10,0.7778940064796468,0.7778703617078455
11,0.7778903911142404,0.7778654290377687
12,0.7778897552017363,0.7778602293110545
13,0.777889097633066,0.7778782402738345
14,0.7807865028576119,0.7779125952476431
15,0.7779284045734705,0.7778775152449042
16,0.7778857665830812,0.7778759488079573
17,0.7778893778210808,0.7778799312539152
18,0.7779013063777518,0.7778906839621225
19,0.7779043596305809,0.7778602535949541
20,0.7778744906224723,0.7778767458650826
21,0.7778881072388303,0.77786539491915
22,0.777874969398506,0.7779323422939073
23,0.7778723417387035,0.7779918100240591
24,0.7778793488867264,0.777846584731631
25,0.7778860583735856,0.7778639348609231
26,0.7778685542894219,0.777858160815959
27,0.7778697506339606,0.7778548256204074
28,0.7778645367311966,0.7778900816778692
29,0.7778657062821012,0.7779969917094118
30,0.7778669285869045,0.7779341448776984
31,0.68761636936824,0.6671246524621556
32,0.6668857729522445,0.6668746518117579
33,0.6668258619458186,0.666969560873552
34,0.6668194402238125,0.6667882891160941
35,0.6668125838056096,0.6668440024209473
36,0.6668068559067998,0.6668103988991856
37,0.6668072193382797,0.6667777399884646
38,0.666807861612078,0.6668421278562889
39,0.6668172495493102,0.6667754979328218
40,0.6668344902323502,0.6667682821123642
41,0.6667987750745368,0.6667810662958534
42,0.6667970196543088,0.6667767621533007
43,0.6667996055348155,0.6668233655219193
44,0.6667933071301801,0.6667648439504276
45,0.6667962745025788,0.6667681673566216
46,0.6667940574812988,0.6668403418419644
47,0.6667892272589582,0.6668308457344586
48,0.6668026336059275,0.6667974015938322
49,0.66679516474997,0.6667760419849367
50,0.6667867743294617,0.6668469704757404
51,0.6667902200448418,0.6668537576008888
52,0.6667839401380091,0.6667662685364603
53,0.6668570002074407,0.6668176508070989
54,0.6667849722393651,0.66676955772938
55,0.666785727310281,0.6670229785571462
56,0.666790199283177,0.6667622934547098
57,0.6667896024049375,0.6669506745829135
58,0.6668810596824307,0.666799832326525
59,0.666774179689002,0.6667721387941307
60,0.6667803821686017,0.6669787812019049
61,0.6667859667657404,0.6668155517761
62,0.6667862740944622,0.6667853498413427
63,0.6667840031991845,0.6668826184074746
64,0.6667816847198166,0.6667684161494568
65,0.6667852392603014,0.6667678762527237
66,0.6667819411187443,0.6667730506969214
67,0.6667839905049928,0.6668175686649506
68,0.6667796572397846,0.6667588218840717
69,0.6667959114820649,0.6667642593005166
70,0.666781726126009,0.6667764622369645
71,0.6667811660820651,0.6667800629131374
72,0.6667846611788207,0.6668099103909892
73,0.6667798768789586,0.6667632657619853
74,0.6667797459504368,0.6667620977210832
75,0.6667795787969689,0.6668245144565843
76,0.6667822102726015,0.6667726798787919
77,0.6667803135357229,0.666768538501313
78,0.666780440364446,0.6667813344410304
79,0.6667796720586147,0.6668085381400496
80,0.6667778290162812,0.6667673650413766
81,0.6667782028110426,0.6667740610084288
82,0.6667780551555786,0.6668034169017767
83,0.6667815144304662,0.6668290989217596
84,0.6667766283069064,0.6668422477565645
85,0.6667768705022699,0.6667670130739141
86,0.6667795672374691,0.6667675681723401
87,0.6667771699291669,0.666767382519537
88,0.6667766477126205,0.6667818263047685
