epoch,loss,val_loss
0,0.670444259141356,0.666940727545493
1,0.6703717927357955,0.666891746593313
2,0.6668244679767829,0.6668295527670673
3,0.6668661111793089,0.6668117229893451
4,0.6668866822221319,0.6668238834443501
5,0.6668661387033737,0.6674036657846181
6,0.6668691606474657,0.6669486762087024
7,0.6668570133098374,0.6669372909548398
8,0.6668415931168853,0.6668238111416537
9,0.6668489485218083,0.6667847503541632
10,0.6668373262451468,0.6667900167373659
11,0.6668372765439119,0.6669952734010417
12,0.6668284151995001,0.6668390243398361
13,0.6668183634032954,0.6669781070456384
14,0.6668285393608889,0.6667951325092767
15,0.6668429825810724,0.6671083486750331
16,0.6668387812564192,0.6668006252708635
17,0.6668248093845146,0.6667918984153942
18,0.666816909129553,0.6669516487501719
19,0.6668274193704181,0.6667893397556292
20,0.6668129044359006,0.6667722211113918
21,0.6668040810009216,0.6667702270440115
22,0.6668129926925972,0.6667809011691219
23,0.6668164278269864,0.6667991748959068
24,0.6668039460747509,0.66683032368031
25,0.6668043328654206,0.6667647002631943
26,0.6667980822602182,0.6667831525672745
27,0.6668029673023304,0.666769470068809
28,0.6667967401663558,0.6668166444048685
29,0.6667991551970683,0.6667991997335417
30,0.6667902637653793,0.6667924622978618
31,0.6667933376134358,0.6667647336198353
32,0.6667933640607859,0.6668491795580974
33,0.6667957176686649,0.6667810419740915
34,0.6667937043468412,0.6667663752748717
35,0.6667915119219872,0.6668157939241105
36,0.6667929955060367,0.6667652007784562
37,0.666788521991427,0.6668344302481841
38,0.6667867456474355,0.6667620516285284
39,0.6667874901977038,0.6667661821537403
40,0.6667919098619797,0.6667728445748403
41,0.6668479124657931,0.6668413207278056
42,0.6668969907588156,0.6668184806292674
43,0.66679098104045,0.6668098972338579
44,0.666801640010733,0.6667735182057681
45,0.6667858447187355,0.6667655346335656
46,0.6667867887318042,0.6668075566606444
47,0.6668035784839177,0.6667803265858363
48,0.6667977968885906,0.6667943552067795
49,0.6667858891192204,0.66675941229851
50,0.6667835325746313,0.6667941382750265
51,0.666781992098233,0.6668144260367951
52,0.6668019094793223,0.6668668832876615
53,0.6667801476451272,0.6668482503427936
54,0.6667856132751386,0.6667755224107654
55,0.6667815572501918,0.6668163985700215
56,0.6667913975796064,0.9972353172156476
57,0.7781169103886066,0.5559278625059605
58,0.5558255622160025,0.5557937606925413
59,0.5557627843108409,0.5557516366077715
60,0.5557599218566103,0.5557638068217711
61,0.5557544993314765,0.5558155737539237
62,0.5557547630469377,0.5557254501064561
63,0.5557540731216067,0.5558358291576679
64,0.5557587859808492,0.5557433115464838
65,0.5557496087890476,0.5557608125237069
66,0.5557590252564617,0.5557042668835784
67,0.5557406098195787,0.5558508413025779
68,0.5557517283132092,0.5559513780575471
69,0.5557323832431191,0.5557082751563225
70,0.5557400436880549,0.5558342063769625
71,0.5557402315353505,0.5557051086134241
72,0.5557304487391865,0.5559112291942234
73,0.5557238595316268,0.555690835927694
74,0.5557289096585734,0.5557196658434178
75,0.5557234506722473,0.5556883064833864
76,0.5557174847441323,0.5556989138668182
77,0.555721284548815,0.5556999782030215
78,0.5557191268261246,0.5557002119361474
79,0.5557207603385712,0.5556911762903773
80,0.5557249969861754,0.5556869612897561
81,0.555763944229289,0.5559915355392651
82,0.5557188595598708,0.555683618450763
83,0.5557154811190523,0.5556857277282329
84,0.5557125194406213,0.5556794493533854
85,0.5557152128159182,0.5560250332597061
86,0.5557153461692176,0.5557024547632334
87,0.5557090539192102,0.555681288199745
88,0.5557148803110009,0.5558389158822136
89,0.5557050253907202,0.5557361538682416
90,0.5557140482368331,0.5557017033774455
91,0.5557130478705617,0.5556907843167165
92,0.5557521363904915,0.555688035560067
93,0.5557138557079973,0.5557175982996114
94,0.5557141871231845,0.5556977103442564
95,0.5557111573064536,0.5557114218641354
96,0.5557117268625617,0.5557227946613182
97,0.555711528209861,0.5556804169136815
98,0.5557078560917237,0.5556791048353203
99,0.5557112513320541,0.5556853896136206
100,0.5557038247779736,0.5557308202227543
101,0.5557125963287081,0.5557144801919945
102,0.555707704922541,0.5557134410957126
103,0.5557811333380837,0.5557237948494069
104,0.5559401259855544,0.555698499762673
105,0.5557143961194466,0.5556914976746086
106,0.5557094314260741,0.5557260690311676
107,0.5557109492279627,0.555702809821202
108,0.5557413549014997,0.5557761209075822
109,0.5557082854205168,0.5557446553202797
110,0.5557074149963702,0.5558615720364827
111,0.5557104098869178,0.5557100658702987
112,0.555703206850551,0.5558117682808483
113,0.5557080199641693,0.5557087387890215
114,0.5557029184270482,0.5558052891130313
115,0.5557086543507358,0.5556769119248762
116,0.5557063175025343,0.5556823458816582
117,0.5557034375779156,0.5557351988640138
118,0.5557053826999129,0.5557148085286812
119,0.5557061409426018,0.5556875664468074
120,0.5556997661665449,0.5556824703963954
121,0.5557022013432622,0.5556739603827563
122,0.5557015658464568,0.5556951806491115
123,0.5557031208021058,0.5556920365064659
124,0.5557010428127113,0.5557596442792953
125,0.5556989915818492,0.5556890066699488
126,0.5556993685578493,0.5557116757541758
127,0.5556983236293884,0.5556706204023629
128,0.5557028508247394,0.5556763591644441
129,0.555700702907253,0.5556779828017829
130,0.5556965094134322,0.5556732594342161
131,0.5557003189862452,0.5556714894876833
132,0.5556995369962756,0.5557087871580441
133,0.5556968431981808,0.5557508415810093
134,0.555703700828378,0.5556906524945653
135,0.5556963441444125,0.555695486699132
136,0.5556985774169869,0.5558338307029996
137,0.5557005160092807,0.555686329624398
138,0.5556952506718894,0.5556804013570301
139,0.5557012045336993,0.5556880305243879
140,0.5556933441396668,0.5556685167616353
141,0.5556982776236913,0.5556707813642471
142,0.5556943974073429,0.5556919575636777
143,0.5556939210821173,0.5557102666301388
144,0.5556973340452525,0.5557010948175246
145,0.5556945538121995,0.555683010302594
146,0.555698615267654,0.5556745691083245
147,0.5556915227594157,0.5557692218947565
148,0.5556928963181981,0.5557339373128233
149,0.5556945467745075,0.5557896871358151
150,0.5556946584862333,0.5558588901398314
151,0.5557187318200812,0.5557002992512253
152,0.5556959722041248,0.555752252139079
153,0.5556904398828708,0.5556967657237502
154,0.5556934137569706,0.5557908465109951
155,0.5556910228588684,0.5556849811225538
156,0.5556928114801697,0.5559648380727072
157,0.5556919113264677,0.5556985608676095
158,0.5556927824349001,0.5556920217780512
159,0.5556879203141927,0.5556886300115674
160,0.5556897299740283,0.555678361282285
