epoch,loss,val_loss
0,0.45425211599753174,0.44476334796087014
1,0.44518059174302854,0.4447549294508202
2,0.4449633260792134,0.44473832748192577
3,0.44484255958099767,0.4447565343368805
4,0.4448501308394364,0.44501736820245785
5,0.4448034602771577,0.4450476476104748
6,0.4447930253049688,0.4448315020859459
7,0.4447765683263596,0.44477469009199805
8,0.4447601299729448,0.4449864559671851
9,0.444788550739872,0.44470163761187453
10,0.4447304669214495,0.44467116395869066
11,0.44471799818780056,0.4448174439679446
12,0.44473921518556386,0.4447545613871693
13,0.44493145378836496,0.444654487446128
14,0.4446857057780147,0.44462720861894206
15,0.4447087830278004,0.44465865939263977
16,0.44471375263324064,0.44494357672460083
17,0.4446982869068866,0.4446504283527808
18,0.44470501820077046,0.44467271674629694
19,0.4447232298382165,0.4446815540601436
20,0.44469010203143416,0.44468138171828736
21,0.444692353402086,0.4446553543945977
22,0.4446849198296392,0.4446343714346181
23,0.444686938156412,0.44505551578091007
24,0.445097794821998,0.4446187078933858
25,0.4446578190582846,0.4446454684455489
26,0.44467276443558096,0.44492310991699174
27,0.44468159890491493,0.44464623559149785
28,0.44467899074094697,0.44464410277554134
29,0.4446758182117802,0.44463070497988744
30,0.44467292107668366,0.4446777748847663
31,0.4449436552273633,0.4446399413665666
32,0.44465793328510594,0.44465513020749126
33,0.44466975714585383,0.4446749563006649
34,0.4446655991808611,0.44463689928161204
35,0.4446643955832875,0.4447719850189178
36,0.4446660763195389,0.4449322064097616
37,0.4446644509631084,0.4446485415089219
38,0.4446684084932994,0.44463628632257113
39,0.44472771444239717,0.4446584669885246
40,0.4447140647032545,0.444672222393116
41,0.444658526465047,0.44464636059134505
42,0.44465718801012566,0.44461891536194315
43,0.44465845853479363,0.4446277042381419
44,0.4446581870612668,0.4446562265727905
