epoch,loss,val_loss
0,0.5084072799913326,0.5558760901500408
1,0.5558495184655936,0.5557413853519168
2,0.555905612427279,0.5559148475804631
3,0.5558756472219979,0.5559370601358954
4,0.5558259737407443,0.5557314018247543
5,0.5558317018959147,0.5562954754683258
6,0.5582164429574386,0.5558289265431959
7,0.555904762755726,0.5557219996487544
8,0.5557742546839449,0.5558168271174029
9,0.5558267557090217,0.5557187463019184
10,0.5558931832999733,0.555782133853869
11,0.5559004388334837,0.5557714483842824
12,0.555767761985529,0.5557053489014518
13,0.5557614124621814,0.5557291286652744
14,0.5557615513299959,0.5557193057734341
15,0.5557580601547697,0.5557263342136236
16,0.5557538310784822,0.5572297209943308
17,0.5557582634767843,0.5558687419158345
18,0.5557492520174235,0.5557421766776441
19,0.5557382156609633,0.5557426591373463
20,0.5557589293957133,0.5560371759099886
21,0.5557327907090799,0.5557343644084525
22,0.5557395113957452,0.5557168059184738
23,0.5557404110063568,0.5557055470204001
24,0.555732318365727,0.5558246727101062
25,0.5557288568265831,0.5556909150077328
26,0.5557300953672993,0.5556924973089619
27,0.5557189696230004,0.5556852502474164
28,0.5557281960956053,0.5558025027402378
29,0.5557233883174442,0.555690727277239
30,0.5557214245469829,0.55571659267829
31,0.5557227669192925,0.555783306977778
32,0.5557433739307007,0.5557054499037326
33,0.5557284525761741,0.5557074899595466
34,0.5557181692783956,0.5558744907871359
35,0.5557149447935976,0.5557443036746463
36,0.5557421256987624,0.5558880885498891
37,0.5557137371052966,0.5557109013292095
38,0.5557114283053188,0.5557977120961881
39,0.555714453276833,0.5557617174882405
40,0.5557222802508998,0.5557016205253801
41,0.5557117654408986,0.55572589104547
42,0.5557129497002008,0.5557576264060261
43,0.5557079280044415,0.5557302443142901
44,0.5557137175418222,0.5556901308947638
45,0.5557065983862725,0.555717708341504
46,0.555708494510252,0.5557115213613918
47,0.5557093231231562,0.5557287616381025
