epoch,loss,val_loss
0,0.05545452803077437,0.03488322070002442
1,0.037577466038940195,0.03845114835545513
2,0.033560983999834273,0.0311118084203753
3,0.03166394833522014,0.035061833966208086
4,0.03109500469094749,0.026577874681352857
5,0.029466519693242675,0.026579583029408993
6,0.029240547702418653,0.02716067803542063
7,0.02864402877414662,0.02816127842963357
8,0.027943949262140277,0.026419440614630755
9,0.027983080478976706,0.025564853361162477
10,0.02759663372894379,0.027087422559070047
11,0.027226513887972856,0.024492143712936648
12,0.02669340945204501,0.024787748360121053
13,0.027809322432551322,0.025009199150311287
14,0.026811958018247165,0.024807479340294387
15,0.026671028264605958,0.024358684336389456
16,0.02642090722500544,0.023697806731749687
17,0.02658946725601556,0.024213012628454277
18,0.0267728494670711,0.023367352875599445
19,0.025501405096808094,0.0241186665464237
20,0.025834160418162264,0.023600859309216685
21,0.025512719047566437,0.023969734792401033
22,0.025896766365595538,0.02359699542548851
23,0.02522452957024263,0.023664308884337116
24,0.02530229593875794,0.02290827197506219
25,0.02542306002405281,0.023501657277560997
26,0.025053484475449722,0.022981544364301724
27,0.025079495129814444,0.022643169390541402
28,0.024763521972717042,0.02266031742194744
29,0.02509661371504567,0.025339488469626845
30,0.024830310935278068,0.02484641430014471
31,0.024841501122166765,0.022889996282028664
32,0.02492106288307264,0.022399549424111116
33,0.024753753264681218,0.026920395676559523
34,0.024707826026675313,0.022585855041832744
35,0.024784426049669565,0.025018047224875193
36,0.0245271454832292,0.023287907491689668
37,0.02456448209513986,0.023283293629658232
38,0.024584145958832276,0.022774035575325924
39,0.024377323426636312,0.024353313555653174
40,0.02446574371517885,0.023617974163531636
41,0.024347892152660013,0.02449370156572793
42,0.024348882126156084,0.022347939094433604
43,0.024095638713885686,0.02272291625386238
44,0.02435540077752798,0.02215903044379662
45,0.024195824429014978,0.023664154670807187
46,0.02418350317704702,0.022944041587263275
47,0.024216565798194287,0.022859401332842456
48,0.024168397535236384,0.022859319387252545
49,0.024126690974748087,0.03772214442528211
50,0.02405569505022417,0.022501844900861507
51,0.023800215596375903,0.022958541793160984
52,0.02388829260750389,0.022283082609848005
53,0.023941679576383212,0.022701466965569104
54,0.024139057085433405,0.022532637448168254
55,0.02403233937734363,0.023020639595271994
56,0.02436848495957341,0.022181808911615943
57,0.02389598685654589,0.0230863599438112
58,0.02409037556412598,0.022441450552445463
59,0.023912322475227486,0.022441602194744177
60,0.023832785808272153,0.022090700023661314
61,0.023871671423093953,0.023085874109562237
62,0.023719981946960955,0.022522436010898133
63,0.02374840952682088,0.02204421932199857
64,0.023579404933413387,0.022017593152642994
65,0.02371536236410498,0.022188997047374873
66,0.023678007226691004,0.02288862529474155
67,0.023723177996578384,0.022006500505780003
68,0.02359064712076555,0.022140083698831216
69,0.023553430684020243,0.022478592933973626
70,0.023511502573867065,0.022388147524539815
71,0.023936611770003686,0.022302314316079184
72,0.02363512855015085,0.02202732894637373
73,0.023859521751819344,0.021976160517425927
74,0.023504287082870355,0.021703321707525317
75,0.023671688783352546,0.02276702556362453
76,0.02350496714535314,0.022574977201260407
77,0.023485478671183436,0.022207302279321942
78,0.023489626078245382,0.022767608762494375
79,0.023564077826068536,0.022945781545638116
80,0.02349099644581808,0.021907415176888642
81,0.023693426744601054,0.022902917980539013
82,0.023328119104770832,0.022915615264399693
83,0.023399332297046226,0.022831068045066422
84,0.02354776313971023,0.02199617513501743
85,0.023465791013510928,0.022121282737055516
86,0.02344659704824238,0.023016705507466092
87,0.023452403835996997,0.022160157958707894
88,0.023342174810139615,0.022447169014001737
89,0.023370984434878662,0.02183792924810759
90,0.02336393476930289,0.023673491412115576
91,0.023560274805982166,0.02238901185348916
92,0.023221852761941605,0.0222338843683681
93,0.0232591615623492,0.02202464366778057
94,0.02333462287921255,0.02253869405354697
