epoch,loss,val_loss
0,0.2604594123069114,0.33562590109889273
1,0.33854458681808713,0.33460805628656376
2,0.2624958000660441,0.2230448185491225
3,0.22573705197906552,0.22292852058251814
4,0.22531196946850945,0.22295946394292554
5,0.22551539775097487,0.22452376698295673
6,0.22476370020547926,0.22327402491895704
7,0.22500368297059445,0.22300353565702782
8,0.22463517845354553,0.23002811888673863
9,0.2078680095725883,0.11630009325824314
10,0.11704246550706718,0.11193346450771152
11,0.1134789915585811,0.11178709192821785
12,0.11443840568791278,0.11199404066997955
13,0.11383243982076591,0.11190308014140046
14,0.11355737024592683,0.11181523286223848
15,0.11299625622538094,0.18470440622864592
16,0.1137338528120566,0.11171701975960721
17,0.11318719590161115,0.11181712597525742
18,0.11327637250593481,0.11174394366962485
19,0.11341770729612494,0.11177173497299363
20,0.11325116920262908,0.1117082314862464
21,0.11335069057676628,0.1120249626003543
22,0.11320908092159489,0.11184402592912049
23,0.11319810961428842,0.11193055655332204
24,0.11375358318045217,0.11177470412638352
25,0.11323057717417088,0.11176014168618954
26,0.11324902846600234,0.11175349879254419
27,0.11326276333902349,0.1117207359966871
28,0.11308328800723107,0.11172855516035765
29,0.1131024475220871,0.11186286478427757
30,0.11376928437610367,0.11184145165946023
31,0.11288614046225619,0.11173318890916538
32,0.11335256916321082,0.11169882492059201
33,0.11295886136173813,0.11170770642441549
34,0.11325905674747516,0.11175080299689805
35,0.11304618210835712,0.11181980503638131
36,0.11319468098514986,0.11171202590946112
37,0.11329279022793584,0.11177454478666009
38,0.11327482044987285,0.11171803530438733
39,0.11312148711625274,0.11172047550796667
40,0.11318963211880761,0.11174508235781878
41,0.11332990866787519,0.1117141706869302
42,0.11323420525674277,0.1137161270725797
43,0.1128998127594617,0.11169325227439356
44,0.11315201512914445,0.11182371425911683
45,0.11309826343389275,0.1117039833946116
46,0.11294282219403151,0.11173914830640079
47,0.11313909198087403,0.11180510022999163
48,0.11295437977447886,0.11165380394608326
49,0.11222840661636228,0.25475913463806715
50,0.11401155701201765,0.11175384964070396
51,0.1127284611138722,0.11169281137856639
52,0.11318568947760069,0.11168686262594721
53,0.11703744242577702,0.11174031996255605
54,0.12126281381453424,0.11174380658343801
55,0.11395013330178018,0.11171823050320973
56,0.113361847049885,0.11192560838220403
57,0.11309236282618085,0.11167577638978407
58,0.11345690217215967,0.11172559620847736
59,0.11302286564458404,0.11169216162156108
60,0.11325786309319527,0.11165775512728934
61,0.11340809350814895,0.11172010699588476
62,0.11299986307552116,0.11167159184993346
63,0.11331791968290213,0.11173003043329241
64,0.11333118185617982,0.11182409191434016
65,0.11318611139648578,0.11164897202449184
66,0.11312408298486709,0.11166099051203787
67,0.11318065649526701,0.11166179438969229
68,0.11277026858822427,0.11166206146940194
69,0.11312953574803787,0.11164748290698927
70,0.11313454815146239,0.11163660070752555
71,0.11368341773299372,0.11167094612407442
72,0.11300905693978827,0.11169868002413322
73,0.11313767228234742,0.11170020902300706
74,0.1128990052903967,0.11161274488495326
75,0.11312966835286267,0.11166138378957993
76,0.1129032379269424,0.11172643358061499
77,0.11312903389791691,0.11170535140261302
78,0.11292907103382532,0.11163155764059754
79,0.11310897690645451,0.11165041252923368
80,0.1129742449442665,0.11164193136781118
81,0.11307015955956731,0.111657842313399
82,0.11313566807838535,0.111699020268497
83,0.11307755056534603,0.11163143568984456
84,0.11289441164828261,0.11164671763344683
85,0.11321168290598885,0.1117419524336308
86,0.11298741843238021,0.11199656932982865
87,0.11317500495865959,0.11523199109048508
88,0.11295140059100174,0.11166069346731648
89,0.1130666596391884,0.11166455630110676
90,0.11297132832191357,0.1117724854861751
91,0.1130761830968551,0.11168222061133733
92,0.11300392985780534,0.11166652365607914
93,0.11290354147128773,0.11165903171215888
94,0.11277300089711487,0.11164127349053675
