epoch,loss,val_loss
0,0.8911704659056531,0.8890659508770262
1,0.8899121354924887,0.8890309654068564
2,0.8895477932487709,0.8890138155215314
3,0.8892998860528968,0.8890117825790873
4,0.8893906267857501,0.8890334299694683
5,0.8893231760948572,0.8889814628028143
6,0.8894484430715008,0.8890335200248265
7,0.8893041816886968,0.889084311615991
8,0.8892596498370069,0.8890154745790038
9,0.8909636806683515,0.889044506631807
10,0.8899302849674021,0.8889950853984697
11,0.8061449255280357,0.7779766937768968
12,0.780596860674502,0.7779529731681049
13,0.77845073414195,0.7779489986874176
14,0.7785354828436504,0.7783374273201502
15,0.7784020092874684,0.7779498114337121
16,0.7784145161382023,0.7779832080808806
17,0.778435376830721,0.7779517151381036
18,0.7786556666437241,0.7780660606905337
19,0.7783829142948464,0.7779566483240535
20,0.77845475212179,0.7781712318841135
21,0.7783015409438324,0.7779319455117408
22,0.7783381796283417,0.7779417956502017
23,0.7784077089400651,0.7779410580178755
24,0.7782791439654264,0.778038987876575
25,0.7783044708690363,0.7779259931071895
26,0.778330458300113,0.7779190273858146
27,0.7783376180221753,0.7779364972970628
28,0.7783587704393332,0.7780092591915279
29,0.7795095050499868,0.7780043552399666
30,0.7782452337661883,0.77793261470332
31,0.7783657133039319,0.7779431249227565
32,0.7782834701491641,0.7779130865339818
33,0.7782791027532794,0.7779258300865456
34,0.7783580017801185,0.7779227860658836
35,0.778239575509924,0.777922791461254
36,0.7783395759598396,0.7779235425062817
37,0.7936859031198178,0.7779823145460132
38,0.7782255998959425,0.7779394728959089
39,0.778376034587657,0.7780602481775252
40,0.7785953564151079,0.7779228760644483
41,0.7783828978779035,0.7779155854660499
42,0.7783711317138854,0.7779165515307871
43,0.7783992875614422,0.7779224697977887
44,0.7783041014600144,0.7779166789372535
45,0.778350946095527,0.7779078851034665
46,0.7783870923865182,0.7779159988034845
47,0.7783343963530063,0.7779304764091695
48,0.7782616070059647,0.7779241438439787
49,0.7783274002422962,0.7779196599929962
50,0.778317616997304,0.7779220470705164
51,0.7782909932944237,0.7779131210028264
52,0.7783187235300227,0.7779201062374576
53,0.778302547870965,0.7779161305404455
54,0.7783274454292168,0.7779117473651819
55,0.7782526941346356,0.7779163691341375
56,0.7782906679474908,0.7779172898351683
57,0.7798675603326153,0.7781378045969205
58,0.7782031820943454,0.7779292346883316
59,0.7782669343167734,0.777914475032559
60,0.7783850436837667,0.7779090432055283
61,0.7783383029062723,0.7779064393666352
62,0.7783477491631907,0.7780181385561343
63,0.7782848066752672,0.7779075489576911
64,0.7782510782882001,0.7779260530857239
65,0.7783284295576034,0.7780901457991924
66,0.7783696725842775,0.7779191971175421
67,0.7782858158828265,0.7779180181439157
68,0.7783027691161399,0.7779220182100175
69,0.7782983562067705,0.7779120607226164
70,0.7782692240916341,0.7779266714330361
71,0.7782898180365363,0.7780352941302623
72,0.7782038816004662,0.7779182289230534
73,0.778233614804073,0.777918865420581
74,0.7782385124768783,0.7779383877733311
75,0.7782717021523644,0.7779314599142049
76,0.7196627364232179,0.6668767570805622
77,0.6674157037644872,0.6668664494809488
78,0.6673287057542608,0.6668620269715417
79,0.6673556307093261,0.6669010519839401
80,0.667429959126332,0.6668953548608667
81,0.6673460358949485,0.6668727311734758
82,0.6674060558227131,0.6668984957804883
83,0.6673242561892594,0.6668929566423799
84,0.6674088366564388,0.6668869011152618
85,0.6673179630715698,0.6668732746481915
86,0.6673658688809218,0.666863453942896
87,0.6674001445053369,0.6669140167135614
88,0.6673373835132747,0.6668712686163406
89,0.6673334456197194,0.6668597604048258
90,0.6673307856947572,0.6668701001163587
91,0.6674039222637906,0.6668906310436857
92,0.6673748913874553,0.6668675740559896
93,0.6677946518845015,0.6668940276092095
94,0.6674049629181275,0.666874432130259
95,0.6673956783794361,0.6668851876592038
96,0.6673412206192237,0.6668853732788773
97,0.667359683575515,0.6669244685541434
98,0.6673563223380752,0.6669034165286897
99,0.6674297174381683,0.6669014830219759
100,0.6673273769087235,0.6668675223740204
101,0.6673890932854792,0.6668814560979704
102,0.6673680967091844,0.6668708068720212
103,0.6677617173320557,0.6669448095076383
104,0.6673237616920062,0.6669483481985776
105,0.6674113858564664,0.6668870384463701
106,0.6673865179185208,0.6669180207457337
107,0.6673267661097051,0.6669028971722264
108,0.667416822888459,0.6668721909738446
109,0.6674343330491593,0.6668781756464973
