epoch,loss,val_loss
0,0.055675767580468036,0.03298586786899001
1,0.03653397736801924,0.05289193444463948
2,0.03260222760008856,0.04061760145378705
3,0.033721844734424376,0.02752070838657375
4,0.0294731570486271,0.026448098552330906
5,0.02950351998315505,0.027987652815575494
6,0.028042497800862,0.0305458277857917
7,0.028320772390830456,0.02448863419079264
8,0.027567256996353443,0.025189813055193896
9,0.026934077651921167,0.02440827104158147
10,0.027216079564246962,0.03156227075591108
11,0.026968711837364004,0.0247677817405464
12,0.026420807756978873,0.025342790404524272
13,0.026704840540513808,0.02439498682202449
14,0.026466257790454337,0.02337185694531851
15,0.026135236459190705,0.0234452676163637
16,0.026246451560851307,0.024582044380748482
17,0.02584780132076215,0.02510413011615572
18,0.02562569199906404,0.02483304008276243
19,0.0254906289901456,0.024667047996876166
20,0.025693116274035643,0.023628073736711122
21,0.02540403038306557,0.022576622034137458
22,0.02540744864610017,0.02279059563899359
23,0.02521129764132461,0.022636307360998115
24,0.025060810412262137,0.023803142605108938
25,0.02527285739185406,0.023669367363344837
26,0.02490055429463293,0.023239907101568733
27,0.024816008909160404,0.02342308705475324
28,0.024939773471582497,0.022752288936751075
29,0.025064189118241296,0.024617558172600022
30,0.02491175940136141,0.02344558315250442
31,0.024575138763489053,0.022946768862632947
32,0.024705742328547674,0.023181391381347286
33,0.02436414238363525,0.023100040060504548
34,0.02475641574633576,0.022515873716958075
35,0.024563559247491595,0.022156602041702674
36,0.024384879606396397,0.024348935182683308
37,0.024515881499094474,0.022348197599379258
38,0.02453716432125616,0.022763421597872955
39,0.024345564751028743,0.02240170453124462
40,0.024093671047136632,0.06602121123058163
41,0.024528278516535995,0.02413468060903198
42,0.024155518583656544,0.023117214942752384
43,0.02443167005165087,0.022863331233172406
44,0.024212339881225356,0.022150661425991286
45,0.024317272013233478,0.023836319195040073
46,0.02391616628042318,0.02234351000268937
47,0.024055976307534123,0.022417160908444447
48,0.023764347214427092,0.022699974247307526
49,0.02402462661366899,0.02218182168287776
50,0.024125210706637597,0.023437279267232155
51,0.023818426315730258,0.023129218884613452
52,0.023967922873231483,0.022313975090492558
53,0.024002797934094537,0.024279316352603122
54,0.023863204347910283,0.0219193395610697
55,0.023889602464554266,0.02320727135551857
56,0.023973370926613027,0.022444434780778347
57,0.02378492055812407,0.02190786844398368
58,0.023663718894682502,0.022068674616221022
59,0.023793228799212047,0.022002100289472564
60,0.023899621663735486,0.022266068342955993
61,0.02371572444360273,0.02200880159879935
62,0.023617106338307062,0.023587630372535872
63,0.023858626066872127,0.022042350733585566
64,0.023705640212572033,0.022916302682954047
65,0.02376691167364578,0.02163453334940981
66,0.023697762886052763,0.021925127587704308
67,0.023562544831679594,0.02252341566478092
68,0.023747144767112816,0.021690290185939525
69,0.023465048510898773,0.0217034583335971
70,0.02354245504385484,0.021980254018609157
71,0.0237486972400197,0.021836167197702316
72,0.023577379037653383,0.022182844384879996
73,0.023448409396937805,0.022357012076521958
74,0.023714946860953802,0.022334308328740896
75,0.02359178831214677,0.022112057918550473
76,0.02345242547781693,0.02226746282125404
77,0.023502072674065844,0.0219306602247464
78,0.02339536480225153,0.02330870434585045
79,0.023538836929195926,0.021993873540323294
80,0.02345500532593531,0.023287600562924764
81,0.023554486814123584,0.021661925970326606
82,0.023508423765909413,0.022407734984162545
83,0.023428991408204012,0.021868654619355145
84,0.023375255753476463,0.023072332944141218
85,0.023485682351967258,0.023034598241751397
