epoch,loss,val_loss
0,0.3469520286347268,0.33447863126068017
1,0.33712552676659824,0.3341481218039658
2,0.3374165288944598,0.3395125541007195
3,0.33619800339875344,0.3341008189563356
4,0.33552122576059074,0.33398060975793015
5,0.3359083714005545,0.33393370057593
6,0.3359560278058782,0.3339459013045355
7,0.33558594559546767,0.33465317009516476
8,0.3365843294341297,0.33411486043624505
9,0.33516713959664163,0.3340078510092008
10,0.33540545483636236,0.333897248494998
11,0.33516383373547315,0.33389739536502655
12,0.3354662146756475,0.333846035641357
13,0.33607050232543445,0.33395017205495126
14,0.3353668040487285,0.3338344400319406
15,0.33500342754543494,0.3338332476645438
16,0.33505881832735096,0.3337799267970855
17,0.33535980528093867,0.3338876370874798
18,0.33527580463375983,0.33462954452061666
19,0.33503929687007616,0.3339440181049181
20,0.33511789308586015,0.333800401302563
21,0.335228375819721,0.33425624555957983
22,0.33494433814478747,0.33388173197997606
23,0.3351753602097576,0.33383617903791724
24,0.3349991148780178,0.3337933100560023
25,0.33489879301867187,0.3338612955331575
26,0.3351170719018936,0.33378379767956157
27,0.35247932545578414,0.33418472722463805
28,0.3347033526406843,0.33385134927901233
29,0.33472231913468925,0.3338841460106845
30,0.3349489315379852,0.3338081141857187
31,0.3354538989033396,0.33385091609466033
32,0.3355257655203753,0.3344145386426699
33,0.3349670288681521,0.3338222462818209
34,0.3353152231340459,0.3338056151495295
35,0.3350741530752914,0.33377161997120325
36,0.3351563918257829,0.33435440338687783
37,0.3347858876044933,0.33383025126512494
38,0.3352366577138833,0.3338926588166644
39,0.3381477400752312,0.33446500163684484
40,0.33791835874300735,0.3338897698395438
41,0.33482027146063686,0.33379908341944586
42,0.33519072737785727,0.3337629958336479
43,0.3351870377970227,0.3338189490692037
44,0.3349893004414255,0.3337510232085252
45,0.33504510857949965,0.3337593120261755
46,0.33493942143049765,0.33378494470454934
47,0.3349758928272456,0.3371701886232872
48,0.33495820907033935,0.33417363401176403
49,0.33465877022520435,0.3338719943255229
50,0.33500946886725125,0.3338003035422373
51,0.33502882616160407,0.3372998910493012
52,0.3348346343926023,0.33374914273025685
53,0.33772738066306124,0.33376435782628455
54,0.3349796286117667,0.3338259240881269
55,0.3348937673027828,0.33374877549484266
56,0.33500322728219767,0.33378163414785594
57,0.33477363781212566,0.33373190014868176
58,0.335020219004319,0.33378701753013945
59,0.33491840389750666,0.3337743163927597
60,0.3348698219840163,0.3337693887039349
61,0.3351211775194177,0.3338052283322336
62,0.3349315843339313,0.3337605760336793
63,0.3347886959382254,0.33428869832455593
64,0.33498760831388624,0.3337404263697296
65,0.3347793464677146,0.3337806048034694
66,0.3372198814615791,0.33375691604629404
67,0.3349595142035007,0.36025272331314273
68,0.33470490970657607,0.333797012891621
69,0.334973418009675,0.3338417666278719
70,0.3348266058356325,0.3337566296349485
71,0.3347943530325843,0.33373305617778554
72,0.33484583554894226,0.3337657025016753
73,0.3346592358998274,0.3337318301603153
74,0.33474850170593107,0.3337556834336934
75,0.3347944987986701,0.33377333809141696
76,0.33492696722658266,0.33384166455598263
77,0.3347229860120127,0.3337818495935157
78,0.334738271001333,0.33379392763423754
79,0.3347424963582217,0.33374705148468287
80,0.33481193991394825,0.33412218824613465
81,0.3348491488222865,0.333760698352406
82,0.3348221319928812,0.3337618217182212
83,0.33465466135288574,0.33377608110247026
84,0.3347080756238067,0.3337573160443852
85,0.33487014228932094,0.3338365222804978
86,0.33458604023887056,0.3337801973157522
87,0.3346962273543678,0.3339699510806171
88,0.3349245117086322,0.33376948679318896
89,0.3347909221851371,0.33375222685887207
90,0.3347776636486314,0.3337852560505519
91,0.33466269679392835,0.3337554406562229
92,0.33463312524662775,0.3337535020168081
93,0.33479973322803575,0.333784835003417
