epoch,loss,val_loss
0,0.055316113288729186,0.045467216268593555
1,0.04029057048277632,0.03090375379746644
2,0.03360454605557269,0.02873256088249126
3,0.03218155421975125,0.026300585831383713
4,0.031158551562241777,0.02793982888091097
5,0.030419655681672313,0.03154902564347197
6,0.02899251899177146,0.06710572839960544
7,0.02821003979597847,0.030180232813535976
8,0.028140288309698742,0.02484059727960588
9,0.027453840929774685,0.025567187359877497
10,0.027625621708004387,0.024683759584892776
11,0.026995339769985725,0.024954561248382624
12,0.026718182980169643,0.026955786546106867
13,0.026795708163567487,0.0250705683452138
14,0.026394242080239612,0.02372539826827495
15,0.026337667821340487,0.024789680259020362
16,0.026038111428305637,0.023536005012359133
17,0.026306226856038936,0.023300422363667115
18,0.02601337938392246,0.024041674933423643
19,0.02616164501666531,0.025612275817484605
20,0.02582820300533806,0.023997089379136218
21,0.025635620725051877,0.022953258811725295
22,0.02547738221533183,0.02372315132455675
23,0.025040668592631363,0.02557394511811938
24,0.025111655110037438,0.022508256840115103
25,0.02513926077305979,0.0231954603224794
26,0.024931491822515757,0.023007833192041253
27,0.024955775380346868,0.02236850848300177
28,0.024756945455669983,0.023388914714750908
29,0.02492597356689673,0.022789464392210492
30,0.02473700906992946,0.023507120592967185
31,0.024635420203282576,0.022899940437998884
32,0.02457953384746015,0.023941997684478022
33,0.024620764891762553,0.022768924420390958
34,0.024572894951976672,0.022656288854298618
35,0.02436084601609401,0.02321536899099861
36,0.024285970191494467,0.022850677716148356
37,0.024456541646507526,0.022701228520663908
38,0.02415588512042826,0.021974098459578317
39,0.02426748883004766,0.022546004774769195
40,0.02417960942007321,0.022409569905123976
41,0.02422471137260687,0.022412988143605227
42,0.023982620448340892,0.023762931436053583
43,0.024093113685095056,0.024610312167795873
44,0.02407351160558147,0.022341472058213404
45,0.023968639781866537,0.0221593057544781
46,0.023929028735206175,0.023958821885618466
47,0.023885565129477475,0.022466526051818477
48,0.023852298297619298,0.02193589609437849
49,0.02393001475040721,0.022794317371645736
50,0.023865108332598094,0.023144272590662155
51,0.023779480288086668,0.022704314996146894
52,0.023830968224069413,0.02237122913114685
53,0.023670955904261146,0.023277701895266335
54,0.023772841048217135,0.02324066834337329
55,0.02376615265562598,0.022538529018365228
56,0.023780920139298167,0.022046802910208958
57,0.02367815674949598,0.022242918003593643
58,0.02364980700455649,0.023305658911196143
59,0.023625253925656235,0.02379742784621435
60,0.02362509945770322,0.022455588321821054
61,0.023693546671034932,0.02338539288242149
62,0.023642466108328614,0.02202439849885062
63,0.02345351560066735,0.02202988610969262
64,0.023630118018615254,0.022545887759863166
65,0.023563772307585818,0.02278212394394668
66,0.02351306128172429,0.02315251671377678
67,0.023529674122580394,0.022309539607571188
68,0.023562158846401386,0.022137901831740105
