epoch,loss,val_loss
0,0.3487890545826438,0.3344126305817535
1,0.3372182382352322,0.33404614688461504
2,0.3377932747361018,0.3342921741097356
3,0.33834361980157285,0.33396690695820036
4,0.33619584113847917,0.6917100395544078
5,0.33745324166956936,0.33403202293126266
6,0.33634256555967246,0.33401591678271125
7,0.33656122404166117,0.33419487812896936
8,0.3355872300422949,0.333930883054338
9,0.3361283496988606,0.3339248705860621
10,0.33552923633997267,0.33389027807633803
11,0.33556999439989726,0.333873211265519
12,0.3352784879325048,0.3338884935907017
13,0.3353555441869781,0.3338505714866724
14,0.33571887011583296,0.33389839476274086
15,0.33546332124003264,0.3338725093136293
16,0.3353501943085424,0.3338665418801316
17,0.3371674396743541,0.33381570125498883
18,0.3353861411694685,0.33384438891514573
19,0.33538399561266957,0.33386626239757755
20,0.3351944626100198,0.33388619416665327
21,0.33519151717203727,0.3338079208066506
22,0.33567163705939396,0.3364117210353767
23,0.33583373485971435,0.33399320106165964
24,0.33502547607289546,0.33383678776585185
25,0.3354473457215534,0.3338214082648418
26,0.3349887588451954,0.33383816930724075
27,0.3351780079976196,0.33379030280431643
28,0.33499542530921245,0.33377460490072725
29,0.3350021635857694,0.33380371717416957
30,0.3350971739346036,0.333763384894282
31,0.33504870705270984,0.333786529911706
32,0.3349031256212864,0.33384530045351224
33,0.33511282222880096,0.3338904898020319
34,0.3348069918940765,0.3722023839598064
35,0.3348569251609795,0.3337874709565961
36,0.33522108681438084,0.3337855178727334
37,0.33482240093021215,0.33374640740050726
38,0.3389702940451866,0.3338754661706623
39,0.33504231280290475,0.33377725207533027
40,0.3348680441570768,0.3338778450202427
41,0.33499175779274915,0.33373898834259863
42,0.33508732867773977,0.33379965233285974
43,0.33500135784299767,0.3346509713917966
44,0.33497098703096234,0.33374945538487344
45,0.33509540767386875,0.3337352057738173
46,0.3346871423524271,0.3337944344275335
47,0.3348495830773457,0.3337774193460116
48,0.33509522465364744,0.3337612085012438
49,0.33472266119476035,0.33371904066664576
50,0.33496105074456556,0.3337735499354304
51,0.3348915345677769,0.33381664590862453
52,0.33493297241278486,0.3504405053755736
53,0.3349316248913726,0.3337723765559512
54,0.3346989702118098,0.33379063798460445
55,0.33487844205773803,0.3337255527959166
56,0.33502586774723603,0.33384136415453625
57,0.33488100341576904,0.33374393943739217
58,0.337371922085276,0.3337865696481358
59,0.3349459839964648,0.3337663155364407
60,0.33497830691297326,0.3337311528804133
61,0.3347655699844479,0.33377732870852134
62,0.33490704629884216,0.36536845942044877
63,0.33485308993908414,0.33374148823305483
64,0.33490620280479244,0.33374020548610434
65,0.33476933429993966,0.3337906957765941
66,0.335062142750018,0.3337429107532286
67,0.33495944916085446,0.3338729805921361
68,0.3347800498715037,0.3337504875263336
69,0.3347559726890906,0.33374162692483766
