epoch,loss,val_loss
0,0.05309871302858156,0.0393148681674817
1,0.037031929438775514,0.031156488688334608
2,0.03348518379398271,0.03186868944711012
3,0.03162596999983001,0.03664632441678018
4,0.030323561805864277,0.028737651325149376
5,0.02925437821161386,0.031090425249477246
6,0.02873825500636394,0.025000105667959887
7,0.028736689874354803,0.025277602666897568
8,0.027975266915259964,0.025607759154722513
9,0.027192380764680855,0.024643560443756807
10,0.027216906756937838,0.060632002710164945
11,0.027129619708879726,0.024660224769777965
12,0.026409097470429535,0.024669580221692612
13,0.026441093262131447,0.027499655499753826
14,0.026149211470145296,0.025207342373715098
15,0.02628985335947046,0.02735368735622097
16,0.02568210787206111,0.02672359812280025
17,0.025818536783162246,0.02501561788221496
18,0.025272105424726386,0.024429661873742826
19,0.02534069186756309,0.023958983814025236
20,0.025664949213189205,0.024501292287373976
21,0.024997401285244827,0.02311961343344813
22,0.02517556904095596,0.02278453464292514
23,0.02518371562475787,0.023390711119600505
24,0.025024025190526687,0.022855180595572983
25,0.024778321682552458,0.023272133507017904
26,0.024859706724327957,0.023396147649536434
27,0.024777076612280617,0.023629415272493244
28,0.02462590628165356,0.023140427710455012
29,0.024532557387691712,0.022728610241246405
30,0.02436023125735091,0.022425414750029193
31,0.024324638799843153,0.02274774571073759
32,0.02435497895350866,0.02260661606469965
33,0.024408661614122484,0.023760790551444838
34,0.024042496908385416,0.024400638581834982
35,0.02413036821402258,0.02471903466598993
36,0.024368794897769552,0.022652813448776694
37,0.024108402723459564,0.02457356924807562
38,0.02405087785968239,0.023260078429380084
39,0.024201153917250133,0.02276614859045896
40,0.02396438815202092,0.02205802207333177
41,0.023870010581626133,0.023043463920264233
42,0.024175813486412037,0.023541526937490776
43,0.02403087151307165,0.0224844701042405
44,0.023841126755805218,0.021940455494523378
45,0.023728985430614552,0.022032488311117503
46,0.02394383861148002,0.022984126193914194
47,0.023719624147441578,0.024051170946865427
48,0.023783885905930058,0.02250508909272401
49,0.023766145354819176,0.024701326880506413
50,0.023821234494635343,0.022712564141629626
51,0.023634867724860315,0.021981195030517715
52,0.023725070793446178,0.022160082520691956
53,0.0237883527725652,0.02232182425637155
54,0.023708414350415912,0.021983747263018227
55,0.023559325586191244,0.0230600700331522
56,0.02370790332555327,0.022289237810814377
57,0.023540082409681817,0.023287541973535476
58,0.023587203421027426,0.02250684075637568
59,0.023506118486453884,0.022744147699712
60,0.023421787811257828,0.021977013588124407
61,0.023580509195072454,0.022064271231242705
62,0.02339489143552661,0.022703459072320926
63,0.0235268239150072,0.021930551212307612
64,0.02348194629799628,0.02184796834603243
65,0.023593959387783272,0.02254772134004251
66,0.023499996320092146,0.022387526095521644
67,0.023392206447106018,0.0226100650156023
68,0.023500778225253136,0.022788697329011273
69,0.023494102283323288,0.02256315350477809
70,0.023278108739922695,0.02304317144689171
71,0.023410144259335124,0.023705185070510837
72,0.023154659745136738,0.021722714987426537
73,0.02354943599950187,0.022256835129458682
74,0.02333367668508147,0.022647438808605348
75,0.02332059756060686,0.02219236794503029
76,0.023394802937382674,0.021665570665948354
77,0.02327001595859024,0.021926536999627468
78,0.02352368422985752,0.022133354918520417
79,0.023456420135824156,0.02222008224508974
80,0.023263418394621743,0.022882059477245986
81,0.023206440572951757,0.021603994351531142
82,0.02332140175786881,0.021973105333020774
83,0.02333891805000773,0.02169154721761987
84,0.023205053788448424,0.023582373509322255
85,0.023188091572589917,0.022096301388079487
86,0.02332640609901522,0.021876500785686235
87,0.023087536468084844,0.021676082627344044
88,0.02328862441178865,0.02211806700222238
89,0.023257699584155196,0.021900209318047807
90,0.023343043139782513,0.02483351067597736
91,0.023041675831878702,0.021940955983311274
92,0.02317974883480278,0.021795920319591953
93,0.02329473425315511,0.022672216900829472
94,0.02318271986223295,0.021656124599467877
95,0.02309962322933823,0.02224049411583334
96,0.023136933286270533,0.022591146649871177
97,0.02333326452454066,0.022417038129232923
98,0.022958466825354518,0.021815400426207256
99,0.02305337422490749,0.02231863135143899
100,0.023204823463335928,0.022034255205228396
101,0.023138846762551957,0.022222917651047978
