epoch,loss,val_loss
0,0.054391962301657,0.032921813601000556
1,0.03550249496919857,0.030014467602088393
2,0.03200986535201089,0.0303656193934297
3,0.030300398540750763,0.02602592724135386
4,0.029860021867882905,0.026302542566808824
5,0.03084290567313083,0.030034788831866117
6,0.028749638751980475,0.026462946906632586
7,0.02817526436103797,0.02621584121817899
8,0.027947750349636938,0.027167090200146873
9,0.027327979681777675,0.02575528037714955
10,0.027080306912916234,0.025537533680018768
11,0.02693572905870621,0.024273053928189202
12,0.026534596182354136,0.025453782546037727
13,0.02686267843017538,0.02320266189186764
14,0.026339472919237925,0.024291168265038774
15,0.02675073122790939,0.023386038883669222
16,0.025648286574309762,0.024448656186781503
17,0.026085004416176897,0.02395373072298603
18,0.025843242011134648,0.023517301315520114
19,0.02573902965906272,0.023169096051769297
20,0.025299823882943606,0.025083557233685883
21,0.025534388173633064,0.02382715582437618
22,0.02568398839733799,0.025676213297963366
23,0.025565381100915125,0.02488810216529688
24,0.031034189353755293,0.023959128220345394
25,0.025541645998058953,0.02303843305111807
26,0.024857986748686493,0.031279293285161894
27,0.025209468627392283,0.023795741968293482
28,0.024849641492975378,0.02329969730597047
29,0.024982024086405295,0.025373599154507005
30,0.024849390652187307,0.02399017311828156
31,0.024848016509561994,0.02273323190489768
32,0.0245315731592506,0.023331232753410588
33,0.024700346600252453,0.022255727308684727
34,0.02440661937269518,0.023870668597773783
35,0.024385600035165426,0.02311315201444746
36,0.024513803389604807,0.02415770082649483
37,0.024439123110380403,0.023008218844703252
38,0.02437995076866255,0.0227813006221789
39,0.02416510772853166,0.022421216830014898
40,0.024195415523989704,0.02258567043312565
41,0.024186448520089818,0.022363802868022756
42,0.024025047063065137,0.022494089128356383
43,0.02414994849868864,0.02240319165269678
44,0.024070485315325747,0.02224679598672032
45,0.023890090295382412,0.02270080256045849
46,0.024042323939474385,0.02195229527972519
47,0.02402069806275938,0.023574740327235055
48,0.024195971302369397,0.023077333688914032
49,0.02365230753398078,0.022288781469851988
50,0.023909056170153088,0.02262897694541672
51,0.02398010579649408,0.0226476857518845
52,0.02389254421574989,0.02230897160595715
53,0.02376778945270603,0.02221598918013581
54,0.023863326480697486,0.022568254219789613
55,0.023751155382474874,0.02344846830243203
56,0.02378460400066459,0.022099611612812705
57,0.02360117168101955,0.02235514158545701
58,0.023691020340338823,0.02248572887004141
59,0.02355899638470303,0.022048084234145282
60,0.02366980957290394,0.0224248180758224
61,0.023585672921175714,0.022105029655470485
62,0.02352698734585925,0.02206380330265747
63,0.02367130239781891,0.0249701414477806
64,0.023506362308475023,0.022512889229357527
65,0.023643220782834495,0.02187328991533859
66,0.023579786578554737,0.023629354064692833
67,0.023566657467619375,0.022162742463007215
68,0.02339622230372502,0.022200604058504554
69,0.023431548860481637,0.023317744049980316
70,0.02357864561096529,0.022265241085511006
71,0.023560683263257505,0.022223017678523756
72,0.023568479448309018,0.02187887808232281
73,0.023332639196971483,0.021919935502360974
74,0.023251007691402783,0.021813344324786467
75,0.023503552864380727,0.021636582838913596
76,0.023476102038569355,0.02217108727322898
77,0.02334935284409383,0.022799215651190773
78,0.02359146530124494,0.023003261400144432
79,0.023132641951771053,0.02184993907910125
80,0.02320003023254592,0.022707929526870854
81,0.023277684443082855,0.02306399831879036
82,0.023123116809999626,0.021941992059487263
83,0.023391140940586492,0.023803792246826654
84,0.02327619001498931,0.02141582620158148
85,0.023193482391060637,0.022464870204206934
86,0.023160622661371318,0.021594949523943918
87,0.023270754373901248,0.02204486874312432
88,0.023339847870191728,0.02240730934874423
89,0.02315622201102125,0.021713822230750513
90,0.023230182441930185,0.021481270421851276
91,0.023346979980496493,0.022806536135696644
92,0.023294452194828983,0.021934690174071493
93,0.023126987985764194,0.0229806035186321
94,0.02329972715921671,0.021975915704268004
95,0.02329104031428769,0.021889388412461974
96,0.02311877175404929,0.02174918870968877
97,0.023133364737462164,0.02194354044856515
98,0.023334992971410968,0.02144996611493432
99,0.023148890573528456,0.022409607310141504
100,0.023239568863269756,0.022195574742154278
101,0.023220847334013642,0.022074371092973936
102,0.02300978065434508,0.0223169450792183
103,0.023113887109179103,0.02209193934719759
104,0.023141494523619355,0.02138759079489106
105,0.02319503827702778,0.02172610617133456
106,0.02310956712613432,0.02160284913535312
107,0.02327556303683949,0.0215482165980318
108,0.023091090455101784,0.02233046252578935
109,0.02299503350575593,0.022422582925898826
110,0.02321576412516456,0.022121164289373968
111,0.022987051118591135,0.02205583972431044
112,0.023187537311612733,0.022158744280330503
113,0.023237008908948958,0.02261321436785657
114,0.022745473416013875,0.038060829758629906
115,0.02326025971644946,0.021578565686488575
116,0.02311297757539427,0.021735474990175887
117,0.022998832694827873,0.02287398662549166
118,0.023091628374059876,0.021656664759092233
119,0.022896223992093127,0.02204886483709164
120,0.023056703342894187,0.021314693244870137
121,0.023267242525664252,0.02317474339071857
122,0.022991586403945316,0.021762798233920546
123,0.02303177907623572,0.021671069394610734
124,0.02300854225584737,0.021556690948094943
125,0.023057313370550402,0.03232921560572829
126,0.022946361275969867,0.021838583210040976
127,0.023115308072543667,0.021629132967716184
128,0.022945937328199592,0.021878909189931423
129,0.022936132684461628,0.021950342338807303
130,0.02300704075466432,0.021524913390284638
131,0.02281934919429986,0.02161672921729704
132,0.02302253511542067,0.02213936634122147
133,0.022959732811674443,0.021810777547414437
134,0.023027225933684607,0.021877185478158697
135,0.022973731450048638,0.021759876490055768
136,0.023010227824719273,0.021405781060264962
137,0.023073526709055898,0.021532279929483086
138,0.022912756088187283,0.021718478755179745
139,0.02299954275009177,0.021558286028942105
140,0.022696253291031185,0.021514283299708774
