epoch,loss,val_loss
0,0.5602609092013593,0.5566350842858754
1,0.46512476938595315,0.44556618329597236
2,0.4488846205503607,0.4450926353117578
3,0.44725034868138924,0.44508468407628193
4,0.4471260172387838,0.44513864158561767
5,0.4465766492628241,0.4449962856056048
6,0.44682469680748865,0.44500302966717825
7,0.4474487055422104,0.4449287907309015
8,0.44662604003958706,0.44490618146429445
9,0.4464483154996773,0.4449749651557399
10,0.446265097889107,0.4449964886774085
11,0.4459312530276176,0.4448964079590247
12,0.4464420787637844,0.4449720376182856
13,0.44601251215417675,0.44489022476277085
14,0.4466196550834479,0.44492529479354
15,0.4460495261929091,0.4487148653363848
16,0.44733368718859257,0.444854073693814
17,0.4460925718405436,0.4448087145070793
18,0.4463117400058028,0.4448566085500567
19,0.4461075452096644,0.44479441364473704
20,0.4459420847759217,0.44480363124464173
21,0.44606984806144245,0.4448044517503308
22,0.4463954823325321,0.4448078657372217
23,0.44591156673003707,0.44485173589164384
24,0.44598299764535065,0.44482529057819575
25,0.445771670257011,0.44483144609714587
26,0.44584657963028673,0.44481105989589753
27,0.4457780630136138,0.4448122264814695
28,0.4458862300243784,0.44733803987512516
29,0.44563163775743536,0.4449786411399252
30,0.4457719883057501,0.4447884092269217
31,0.4457252189044036,0.4447931651560223
32,0.445786313225344,0.44481543463971174
33,0.4458220580198313,0.4448407205898118
34,0.44584925697239286,0.4462367195008349
35,0.44736850869519384,0.4448196861111438
36,0.44574520267462414,0.44479766359580253
37,0.48601270100826777,0.4448821006813976
38,0.44554292574599125,0.4448096420351467
39,0.445667491804361,0.4448067663429426
40,0.4458125643464432,0.44479120459436555
41,0.4461098872006582,0.4447849490338892
42,0.4459779569530684,0.44477882140995073
43,0.4458168610983983,0.4448487143564247
44,0.44603691894956166,0.4447932752996697
45,0.4459640263721912,0.4448220280592302
46,0.4457341289263824,0.44479954887784356
47,0.4458817998676546,0.44477303817629227
48,0.445983180208264,0.4449589216597443
49,0.4460660861492334,0.44481283608496863
50,0.4458911827031123,0.4447976593907265
51,0.4456312894839704,0.44486619480757633
52,0.4457803790279752,0.44477942291802786
53,0.4459337515857639,0.4447736435581507
54,0.4457049059631376,0.4447620564677402
55,0.445832722304274,0.4447802739596204
56,0.44584348859798,0.4447823040671286
57,0.44575995150551856,0.44479705826837107
58,0.4458130176778915,0.44483068365321493
59,0.46850147599463304,0.44478415261805576
60,0.44586265518286894,0.4448624583573801
61,0.4463144880667749,0.4447897248974637
62,0.44587373831391125,0.44837106105513436
63,0.4459321607197037,0.44478821950629344
64,0.44587981578415975,0.4447671309201059
65,0.4457290681170839,0.46020088222115046
66,0.44589676921151844,0.44475867633916505
67,0.44575250800047617,0.4447907559243539
68,0.4457567131190703,0.44476810473477213
69,0.44579552793454374,0.4447514599318426
70,0.4455761668691201,0.44475820714781467
71,0.44582753089775057,0.4448355400758224
72,0.44584281733905823,0.4447697726946057
73,0.4457320279045592,0.44476963662241725
74,0.44582973452221347,0.4447859596482947
75,0.4495508273495173,0.4448282248267337
76,0.4455837650172296,0.44481746735971506
77,0.4457521268146395,0.4447525899235514
78,0.44574079963218255,0.44478596482595717
79,0.4456143692892371,0.44479864133631064
80,0.44572630405427605,0.44477005466660263
81,0.44590680466926597,0.44488012858831977
82,0.4602204406413367,0.4449343834653892
83,0.4463149507879257,0.44478977251634044
84,0.44575461783459885,0.4448061522858965
85,0.4456442722010444,0.44476174456090306
86,0.4456679812954819,0.4447894310272552
87,0.44578680123923586,0.4455286142905402
88,0.445771378604547,0.44478353644545654
89,0.44562507257205375,0.4447576555114181
