epoch,loss,val_loss
0,0.7840209144065126,0.7782018922171139
1,0.7597659558685474,0.6674132756587151
2,0.672190035414623,0.6676468682067629
3,0.6679992683515454,0.6670308866414907
4,0.6678212483046904,0.6670188730162856
5,0.6678486718556244,0.6670277986296287
6,0.6680361820929122,0.6672824529621247
7,0.6678740807705904,0.6669914180917818
8,0.6676612419956893,0.6669275785308424
9,0.6675975723632038,0.6673474518651146
10,0.6677234598269326,0.6669234910076793
11,0.6676857276075849,0.6669329713692225
12,0.6675685032488996,0.66692507089519
13,0.6676134584518406,0.6669082587458547
14,0.6691194816187275,0.6669260544948811
15,0.6675316112603275,0.6671299895247108
16,0.6677119665706807,0.666950086033191
17,0.6673953108473688,0.6668833877115717
18,0.6675511941195325,0.6668995999714411
19,0.6676177124065509,0.66692473698802
20,0.6674543683762717,0.6668901237936764
21,0.6690816903906749,0.6668924652803165
22,0.6675653570720321,0.6668921002456455
23,0.667521653131607,0.6668707801270753
24,0.6675487720992448,0.6668662877665524
25,0.667523244494021,0.6670183200002834
26,0.6675190327599412,0.6670812285143325
27,0.6674457312027017,0.6668754401085054
28,0.6673817153642013,0.666882467748855
29,0.6677972035893701,0.6669923242442434
30,0.6674313430823143,0.6668730029108336
31,0.6674618022350537,0.6668866685180034
32,0.6673825379553907,0.6668556685180386
33,0.681544864762285,0.6670434679117244
34,0.6674656894654298,0.6669620372093498
35,0.667514688262586,0.6668728657643038
36,0.667435067589924,0.6668615961133516
37,0.667367598490363,0.6668961496841194
38,0.6674453532442486,0.6668573052841121
39,0.6675701629878317,0.6669093678778308
40,0.6674808602407468,0.6669132894270947
41,0.6674023834273117,0.6671486716337084
42,0.6678342208527253,0.666896411676681
43,0.6683895298813354,0.6668652138038724
44,0.667469001626366,0.6668741530192283
45,0.6674450195403522,0.6668541910005824
46,0.6675591716577708,0.6669078175985985
47,0.6673697953983735,0.6668568154176077
48,0.6674648083735242,0.6668679079489612
49,0.6674699608976276,0.6668804194580019
50,0.6674673255320176,0.6668825975311774
51,0.6674427848301859,0.6668639460953338
52,0.6673793497874342,0.6668723682496251
53,0.667400404788326,0.6668829360244122
54,0.6675193185583107,0.6668693134334895
55,0.6674698075627886,0.6668791841311513
56,0.6673877162989575,0.6668563183478103
57,0.667423782575445,0.6683262930903451
58,0.6673887164972141,0.6668574727251735
59,0.6674433405964563,0.6668698432162695
60,0.6673892147645468,0.6668516532407784
61,0.6673683876229353,0.6668597501394237
62,0.6674523204374749,0.66687910307281
63,0.6674153236983551,0.6668650587863613
64,0.6674622963682747,0.6668837670581728
65,0.6674460619012622,0.6668875882109517
66,0.6675233083191512,0.6668678822073649
67,0.6673639321636105,0.6668635031922159
68,0.6673852855166565,0.6668673612038938
69,0.6674164079900109,0.6668609590052953
70,0.6674314576502925,0.6668609994895045
71,0.6674403298139135,0.6723190607183298
72,0.6673428880257063,0.6668603542978582
73,0.6673744645844064,0.6668662636577657
74,0.6674117554137831,0.6668620121957992
75,0.6674680299594745,0.6668625490446214
76,0.6674355540484953,0.6668623919683505
77,0.6674193485013329,0.6668693264202408
78,0.6674032043994849,0.6668633526803123
79,0.667404468226829,0.6668792481988086
80,0.6674583329711712,0.6669104398527429
