epoch,loss,val_loss
0,0.054115944197043915,0.03903886345604857
1,0.03657853860485395,0.0302408889976663
2,0.03419171883987245,0.03159027011351882
3,0.030846932802076427,0.03176838486182211
4,0.030653351690798823,0.028641913863831008
5,0.02943180030829056,0.026450383122324145
6,0.028884201300080244,0.026727027492708624
7,0.028440212368552212,0.026416949698562772
8,0.02833000868169166,0.026231439989971225
9,0.02786693510981689,0.024968984677109198
10,0.027241407256954703,0.02876328577594978
11,0.02679429726169987,0.02658379051126794
12,0.026743299286890117,0.027004544426194113
13,0.02624051213869181,0.024467860829639438
14,0.02629057985299962,0.023673742309411463
15,0.026399070678190348,0.023798635514248656
16,0.02616990958792086,0.024917768089082082
17,0.025589633215444406,0.024089213675064017
18,0.0254816607545128,0.02500693794125145
19,0.025888550160773852,0.02379672413373007
20,0.025259484021962833,0.024277692762592045
21,0.025352383310986867,0.02474718736622193
22,0.02506296288743448,0.02365465815458136
23,0.024963671100152674,0.027316258098129688
24,0.024845153426113882,0.023297424678780508
25,0.024748335944790572,0.024414734510098193
26,0.024620643052286468,0.022657761770973953
27,0.02473625815079928,0.022388967903922814
28,0.02439932906922105,0.022832623653484183
29,0.024543545329786094,0.023224985863325998
30,0.024465231813020412,0.022118108185034496
31,0.024407947174567304,0.0234101155931945
32,0.024117898986965574,0.02261267754654371
33,0.024342707794834842,0.02374603454582955
34,0.02438686722556089,0.023292463921274938
35,0.024120208781733647,0.022364231382081205
36,0.0239549686133012,0.022892454479493726
37,0.02432806891692122,0.02284866878850102
38,0.024345911394693075,0.023234080004569262
39,0.023959905784161902,0.02257042380768024
40,0.024077920067956025,0.022318847189623816
41,0.023877106449298482,0.022471129170954535
42,0.023863670463966632,0.02303857066782009
43,0.0240266041084419,0.023194576288596072
44,0.023852652660130882,0.023370405937722036
45,0.0238639531699239,0.025155608124299778
46,0.02385366314754621,0.021892104440895087
47,0.023676061813440907,0.02226631051270779
48,0.02385342919476999,0.021924994317618
49,0.023728974903921594,0.021725557541806884
50,0.023635351028704114,0.02275098697618845
51,0.023806817203977954,0.021974686287255945
52,0.023578288548162393,0.022050837647925297
53,0.02369433410738692,0.022479112479674244
54,0.0235885244541952,0.021985943465703192
55,0.02356712526110029,0.021887935807625842
56,0.023552015160598305,0.021844058891242746
57,0.023565501493132284,0.02208459569595024
58,0.023424105074798245,0.022229244634441054
59,0.023405342964473715,0.022665327801849065
60,0.023590115674082455,0.02201682163996402
61,0.023465791029841594,0.022352609776681603
62,0.02329562110719207,0.02231008795069166
63,0.023291887898497923,0.022107358439991863
64,0.023649525354755882,0.023034548625936863
65,0.02351209662205734,0.022471555207845793
66,0.02339400692237686,0.02219198722008078
67,0.023402466572591353,0.0220941534888976
68,0.02338600661393113,0.02265158902595791
69,0.02330407503975631,0.021924637370530325
