epoch,loss,val_loss
0,0.06081128873607549,0.03128590360440625
1,0.0356150381539947,0.030330808005448472
2,0.03275530990265291,0.031139060526723016
3,0.03155597552375229,0.02811273172313171
4,0.03128841709873657,0.027655508423930164
5,0.029875489247566053,0.029343430206063666
6,0.02901578233948695,0.04326498857200174
7,0.02846624047207518,0.02507156167254479
8,0.027479858279904214,0.02442458668639104
9,0.02771899935879311,0.025040445869857448
10,0.027096896225593893,0.02566187126168291
11,0.027143435804220864,0.026513936341134837
12,0.027105079527016473,0.02690732997283221
13,0.026580546401652153,0.025343232907870113
14,0.0262200759908695,0.030950983049241806
15,0.027840336132578313,0.023919464000162788
16,0.02599736465431444,0.024647237096373474
17,0.02590898116662968,0.025390005408853826
18,0.025938125018462793,0.024648215729158745
19,0.025622582849083163,0.02427329613839149
20,0.02570364901767352,0.023880656567094996
21,0.025370561539202127,0.024016131674292562
22,0.025539014839660427,0.022863396012299832
23,0.02555849276459469,0.022509960003853274
24,0.025193684009710678,0.024849835814302054
25,0.025153611439960376,0.022768168660773774
26,0.024897357607435423,0.022719554499274437
27,0.02499922098099674,0.02412625008148959
28,0.025171978774497894,0.02277729068601015
29,0.024737972154247764,0.024301408195644216
30,0.024773417985937053,0.02268310661350917
31,0.024873011793912887,0.02285907278525128
32,0.02477440759867943,0.026100504551880323
33,0.025433503272993947,0.022276677676515436
34,0.02457213815552545,0.022548624441487312
35,0.02437930349451237,0.023711269975258152
36,0.024185149376302575,0.024115369426243614
37,0.024536697083930005,0.023758573483481083
38,0.024301547193502453,0.022745623932218118
39,0.024299073295699726,0.024363913216887106
40,0.024203922800809515,0.023052325384309482
41,0.024238428635085813,0.023956432501311145
42,0.024338740391035858,0.021963703082405577
43,0.024071190735379187,0.022653251561580698
44,0.024196725732143275,0.02218276822363595
45,0.027336918441855505,0.023123565123576068
46,0.02394906872238852,0.023596153828974033
47,0.02408320130823785,0.022515228555852935
48,0.023938599559660347,0.022257826730433826
49,0.023878223646387028,0.022486776184649747
50,0.02391616916485048,0.02289841696753097
51,0.023768790664647182,0.03160745756573737
52,0.02406612493244598,0.022136276018135375
53,0.023854536441249907,0.024740515281078748
54,0.02404364387253443,0.022341726814796452
55,0.023830501575670272,0.02267594670420443
56,0.023779237037885398,0.022166317953759642
57,0.02360545941791607,0.022362110082386068
58,0.02398769103537711,0.022490897121173234
59,0.02379957535094511,0.022075089048319143
60,0.02374804896652509,0.02281066879761128
61,0.02368195497797956,0.0220294561001493
62,0.023898657157071485,0.022523318005692315
