epoch,loss,val_loss
0,0.0561139443905098,0.04039115040615256
1,0.047877490828553804,0.02852542947017027
2,0.03303552895796555,0.02829152051544585
3,0.03219406611467719,0.028865735874506422
4,0.03141037470685255,0.029355726185733504
5,0.029813758622998978,0.030939000229634746
6,0.029492148606792983,0.02915185121312082
7,0.028889818873323467,0.02743183798678024
8,0.028667555575515077,0.029145294687553485
9,0.028096211650684794,0.024297984452568835
10,0.027877653862225273,0.026434451318260922
11,0.02756427081005798,0.025566053749366054
12,0.02755922978247939,0.024545298931430697
13,0.02689935131679709,0.04752498457102675
14,0.026899534808950073,0.024686738982313335
15,0.02658365440550363,0.02567331522939218
16,0.026552478012906344,0.025328598177847016
17,0.025954627272732834,0.027012703693724018
18,0.025766953179539656,0.023622648810666974
19,0.025978915161407726,0.023566369058918377
20,0.02590392714132474,0.024369161141799975
21,0.025649283267826308,0.025094752702510024
22,0.025486317797554153,0.02427699999939677
23,0.02531201244622724,0.024022730347050103
24,0.02553159786115636,0.024461119530235317
25,0.02517924557570696,0.024099694314027198
26,0.0250926699614183,0.02286678337751908
27,0.024844780281664366,0.02336437094532757
28,0.024723453283509306,0.022893938116435825
29,0.02498514226091036,0.023052680359232497
30,0.024632292404313888,0.022951205716138134
31,0.02500493559190575,0.022677301477723098
32,0.024459973427360185,0.02325053719606393
33,0.024510022701527856,0.02359977734088957
34,0.024716907244535343,0.023428716291406523
35,0.024355898758161923,0.023196761483202023
36,0.02435777411610125,0.02426186068939234
37,0.02435271414439962,0.022770150647508577
38,0.024453358267158828,0.023420351336989536
39,0.02422413258662112,0.024454621744692817
40,0.024578109591728212,0.023812778646604697
41,0.024205594122449457,0.023405485023780342
42,0.02431582703372396,0.022797583043604866
43,0.024009572290950895,0.02234241527337945
44,0.024057097561832247,0.02284224882304233
45,0.024125492018276292,0.02296340526058697
46,0.02406692581018234,0.02246779235191105
47,0.02407146826832322,0.022136144479211643
48,0.02406272108554558,0.022692810393747417
49,0.023859911607379533,0.02283566125494212
50,0.023959440108787082,0.02299945147182128
51,0.02382522970053339,0.02222578531749072
52,0.023803303027887468,0.0221140260490334
53,0.0238534534821581,0.0237381521823754
54,0.023707414362473714,0.02235705279744422
55,0.023684652486537665,0.02331905530343252
56,0.023729292347698792,0.023844605743617638
57,0.023857858240145614,0.022599985591498718
58,0.023696422263182925,0.022538217931778206
59,0.023619277264718238,0.022703252845083354
60,0.023781231522216104,0.022167796885799715
61,0.02363971464769365,0.021755934857087596
62,0.02350356279281046,0.02277910214798087
63,0.023691147153667946,0.021818863466007546
64,0.023708409367380723,0.022065971482841527
65,0.023648909091015424,0.022505337676059705
66,0.023653061769518313,0.02230485398030982
67,0.023593576978952112,0.02278275065593172
68,0.02351581637531041,0.022176551906123096
69,0.02358673988494543,0.022075900082012476
70,0.023558313194053108,0.02170545811529292
71,0.023439169731858684,0.022344563259156437
72,0.023513206495845894,0.023892865139767423
73,0.023401830296252323,0.022713898063180454
74,0.023622063909333132,0.02164257079397182
75,0.02356092175884341,0.02289216391254457
76,0.02346646415053344,0.02447408120447676
77,0.023489661007731887,0.021967435093179204
78,0.0231822711714058,0.021981688794763206
79,0.02333385267178897,0.038297456967377734
80,0.023402167807554598,0.022060738740986123
81,0.023397162328678296,0.022252804739984946
82,0.023298622383381946,0.022564456024030732
83,0.02322766091073721,0.021724601764434838
84,0.023480009238258645,0.022305592635286475
85,0.023265387473166265,0.022541547694466965
86,0.023252295339496867,0.02228650769119118
87,0.023207857642401093,0.02198493585003221
88,0.02329987799153171,0.022193532165173044
89,0.023195368516296038,0.02159527964725539
90,0.023273312512054594,0.02216374620711539
91,0.023245598045225118,0.02279015188382716
92,0.023276042770614448,0.022152921849187615
93,0.02342013017301659,0.024361307433190656
94,0.023051163194585354,0.021710457848803533
95,0.023265880260284283,0.02187288486389439
96,0.023206764641101014,0.0222167809253799
97,0.023329075739116287,0.022374465091150132
98,0.023222019207102138,0.021992196429583555
99,0.023071271366859592,0.022296116110327883
100,0.02308464984097805,0.021563804929752694
101,0.023226788896550568,0.0220740805468786
102,0.02335897016263692,0.021876206196021073
103,0.023135148959786925,0.021700621652819913
104,0.023045729103012672,0.02308077282735648
105,0.02325356296457773,0.021536417094860757
106,0.02315779096591646,0.02155188661270117
107,0.0231595579133959,0.022205100958725847
108,0.02321065304960243,0.02214063493848765
109,0.023154349332112564,0.021675390677521566
110,0.023046419356688712,0.02162314221033392
111,0.02323884170697431,0.021530351577655288
112,0.022999896249974346,0.02161661953228569
113,0.023095587850496715,0.02210228757625743
114,0.023343987573393662,0.022280849107819637
115,0.02316649451239192,0.021897698077791024
116,0.022934053581968764,0.022050295637857494
117,0.023287314236592215,0.02159828100396666
118,0.022986286552729218,0.02179290344379576
119,0.023004288784808324,0.02172521499361401
120,0.02307941252543497,0.02213301409875398
121,0.02300172416590652,0.022891538623277894
122,0.022954984704540687,0.021692429859178165
123,0.023203266492858383,0.02166741684767494
124,0.023090921873409234,0.021593983318924086
125,0.023074830101676158,0.021832920565129827
126,0.022898937796833527,0.021760632170990467
127,0.023150221268634114,0.02249093412087243
128,0.023061769001587542,0.022048564796297986
129,0.02304744225510339,0.022255488522131897
130,0.023038668733047787,0.021624533698845424
131,0.023023575544566827,0.02252659206214286
