epoch,loss,val_loss
0,0.40945795137139324,0.3352079626272761
1,0.33811833922331685,0.3345015042473139
2,0.3363455606531393,0.33481665611342815
3,0.33620812442673487,0.33437409032918886
4,0.33535655884515975,0.33398804476531097
5,0.3359550807594711,0.3339952729714566
6,0.3355123979944967,0.33401234525100415
7,0.3356990624320663,0.3339636306502771
8,0.34499997849862035,0.3339747743903218
9,0.3351839315686414,0.3340579084111373
10,0.33553273025865243,0.3341912797600272
11,0.3357174788969556,0.3340575269560824
12,0.33533264696509313,0.33383356195196984
13,0.335445914681187,0.3338783592842336
14,0.33521101233972245,0.33389055923666294
15,0.33517717361068416,0.3337915374733104
16,0.3351656680207232,0.33392777169330057
17,0.3354366786254258,0.3372164778180665
18,0.33503340440940776,0.3337898408020605
19,0.3350882817012945,0.3338472575010791
20,0.33527325824088156,0.33387443119426635
21,0.3351296035330416,0.3340018458791019
22,0.3352032226590342,0.3338524321629847
23,0.3347933378709498,0.3337676912612417
24,0.3351137285505406,0.3337869491793153
25,0.3352003974246262,0.3338402756006922
26,0.3349139538036135,0.33378291998531245
27,0.33490313115828246,0.3338299582089548
28,0.3350139585495424,0.3339028242388017
29,0.3349919493975034,0.33386690955096165
30,0.33500413423221825,0.3337708677974072
31,0.3349384188287612,0.33376847027463913
32,0.3349932687975304,0.33377547291643905
33,0.3347871874925153,0.3337717717349274
34,0.3349161680877503,0.33380920969201816
35,0.3348922483585116,0.3338090415505051
36,0.33483093425956806,0.3338831172460637
37,0.334867903055572,0.333796075864862
38,0.33491471398162836,0.33403273026195807
39,0.33470959138644485,0.33377180638598397
40,0.33475726070130307,0.3337666739641494
41,0.33497603839080653,0.33385118694935445
42,0.3347248245485115,0.33379562029208915
43,0.33466370325192085,0.33377138788981797
44,0.3348170940188109,0.3343907847032673
45,0.33477125949226116,0.33377264656347755
46,0.3348918480655225,0.3337658358761786
47,0.3365489951119249,0.33385387574166786
48,0.3347069487445303,0.3337808548741555
49,0.3348521901622324,0.3341601942576396
50,0.3347049075499912,0.33378832099720546
51,0.3348643487907735,0.3337633493889584
52,0.33629723792679483,0.3337834362418042
53,0.3346753512453045,0.3337496236636371
54,0.33488713492941063,0.33373193220144154
55,0.33536150743829335,0.33374403828152477
56,0.3349272784046586,0.3337530899477588
57,0.3346914516780843,0.33378630211822036
58,0.3349211157065162,0.3337725726894979
59,0.33414418541316354,0.40112466896945226
60,0.3388283299701059,0.33377789485799103
61,0.33463233307125156,0.33373780242598244
62,0.3348351537310073,0.33373696817156434
63,0.33474057823948267,0.3337835684283794
64,0.3368552375432725,0.3353731090920831
65,0.33477835092200986,0.33373930270101637
66,0.3349389674922634,0.3337374345137805
67,0.33472967209156507,0.3337337516575971
68,0.3347976747555763,0.33372468527714677
69,0.33483145832881345,0.33375680946879716
70,0.3346650746474136,0.3337402070881508
71,0.3349056050762243,0.33373374120288374
72,0.33465736726303624,0.33409675779712944
73,0.3348113947854625,0.3337950390758109
74,0.3347514906005969,0.3337813657116129
75,0.3346182887601039,0.3337444205482517
76,0.334793587649659,0.33376576384325074
77,0.334693190866935,0.3337705411455906
78,0.33484703717963793,0.33375245960521305
79,0.33467939364409,0.3337374211200101
80,0.3347518016250536,0.33372983393478683
81,0.33469494717693177,0.333749948178603
82,0.33472801871708247,0.333729467392725
83,0.33466959575853694,0.33375162075526454
84,0.33491176017899155,0.33384320721070465
85,0.33469204025930926,0.3337432231688397
86,0.3346850245555448,0.33376182853105957
87,0.3346984071489232,0.33379001758089893
88,0.3347419231166332,0.3337592689436694
