epoch,loss,val_loss
0,0.5651981287983928,0.5578214509517063
1,0.6455479897529356,0.7782071884310358
2,0.7787556648404267,0.7781651815488563
3,0.7786022116962527,0.7780400751620337
4,0.7787964924515929,0.7784872380337754
5,0.8206196792331879,0.7780634003800969
6,0.7785163733335209,0.7802685944924606
7,0.7785911529354473,0.777974010138582
8,0.7785290899286956,0.7780509293457999
9,0.778553942502749,0.778005688412333
10,0.7784628572882023,0.7779676953449843
11,0.77855076558311,0.7779737699499428
12,0.7783740246529494,0.7779478548972857
13,0.7784806693266078,0.7779633248441084
14,0.778372411872193,0.777994999771783
15,0.7783968084602819,0.7780923891705483
16,0.7784323652794906,0.7779613522067607
17,0.7784665261896048,0.777967216586317
18,0.7783089872329517,0.777973996456112
19,0.7784060217078315,0.7779465107543329
20,0.7783727774768224,0.7779538702194286
