epoch,loss,val_loss
0,0.5153074576426372,0.2960757798417497
1,0.27405122043393687,0.25461284638674314
2,0.2667584945138791,0.25524026094314706
3,0.2638400986397581,0.25541297898531523
4,0.26182544860336704,0.2503076956181801
5,0.26361487707574305,0.2633735216924687
6,0.2643487121609094,0.256126075112735
7,0.26356296500356363,0.25066759310892084
8,0.2644852222882205,0.2652079774906246
9,0.26640041051008145,0.2535482508842646
10,0.2650968975645842,0.2906916816472631
11,0.2663655173149612,0.269295940565235
12,0.26546755257985005,0.25168118220713537
13,0.26657337632825334,0.26935503498343094
14,0.2665042417000333,0.26861440228634964
15,0.2685434763058484,0.26602939901478007
16,0.26708786445651217,0.2650165901987592
17,0.26741094640095076,0.26310146245414473
18,0.2667109044812185,0.2786307935768352
19,0.2678569596853378,0.25566524042561944
20,0.2688831519320619,0.25559743317968747
21,0.26719668094845983,0.2710003566581994
22,0.2685417074629729,0.26446638804961115
23,0.2692276400496824,0.2572170455999608
24,0.268738268757705,0.2762306961330167
25,0.2677747415219375,0.2638764352711901
26,0.2690738203178207,0.26564104070603234
27,0.26817378489305077,0.25075736494871603
28,0.2676478167720359,0.26719834623180605
29,0.2690831198811912,0.2663537086044227
30,0.26823041234895,0.26163996431473774
31,0.26874371706176814,0.2711333024073701
32,0.267688039991019,0.2633593406678187
33,0.26785735337496946,0.27323969240111445
34,0.26775236546302394,0.2669691400750942
35,0.26710055336106026,0.25506869588861714
36,0.2673956485901424,0.26430752138359487
37,0.26813251834860047,0.2528559395009924
38,0.26694496434560117,0.2603152316201834
39,0.2682181407305167,0.2563170306237551
40,0.2687776874866989,0.26493083976720766
41,0.26815846761305934,0.25583940690299517
42,0.26737709063515486,0.26063559416625665
43,0.269464526370132,0.2508097388961697
44,0.26581473508589176,0.25582148603971494
45,0.26671295173519805,0.2615642198541546
46,0.26643569132597517,0.2674790164595433
47,0.2676736614544043,0.25788261830195164
48,0.2679789954964682,0.26168522417498274
49,0.26778155924390545,0.260358086136635
50,0.2682663335038318,0.2728243822080466
51,0.2689124359120187,0.2503999789093269
52,0.26810458263190245,0.26629350712521394
53,0.2698757772167905,0.25648647071624614
54,0.26907197317535836,0.2845154036991974
55,0.2695711280563943,0.2676543059340592
56,0.2697915114956699,0.2627501353656766
57,0.2705305069744539,0.26335545235858154
58,0.2701894092402584,0.27359925181073474
59,0.270051218265538,0.2593241997163128
60,0.2705062567044219,0.26425441228082636
61,0.2701632921501315,0.2682802584360412
62,0.27081341112998847,0.2727201135260154
63,0.27364868196628267,0.27278523127112503
64,0.2731218626745027,0.2738852093985632
65,0.2732650106676,0.2676241274720209
66,0.2743589213545279,0.26782037701160777
67,0.27557820670133965,0.26569230685153156
68,0.27424252627612494,0.27320901300367073
69,0.2739191951094676,0.26297270433114284
70,0.27380336771646946,0.2560282482485557
71,0.2773071750105142,0.2702458489101142
72,0.27690678628252374,0.26476997426389803
73,0.2779009898098634,0.2695412888429065
74,0.2766762444798609,0.2586894139659245
75,0.2767276151253165,0.27247034547219806
76,0.2773415027833957,0.26483655372236126
77,0.2784851521944447,0.2659438912239993
78,0.28003814814092637,0.27429588280188916
79,0.2805889975324237,0.2660736896174106
80,0.28046341139159137,0.2711701841691205
81,0.28009386889511445,0.27859084940888135
82,0.28039607558128454,0.26490730297734816
83,0.2827268598689069,0.28475151417428524
84,0.28339341842084764,0.2686690639089955
85,0.28340450055498206,0.2668854366067647
86,0.28380122255507134,0.2763120299286041
87,0.28456073537242593,0.2728730484361054
88,0.28353031466809586,0.2643900512943328
89,0.28401091376201903,0.2791456965451741
90,0.28451014516784323,0.2675193675691534
91,0.2819696753788337,0.2808799542657202
92,0.2834204785305438,0.2737099677324295
93,0.2816883559695346,0.27982107302337156
94,0.28293302014386723,0.27824965578040084
95,0.2829335917123883,0.26419219907429053
96,0.28157906969197743,0.27748870536767317
97,0.2821225940966778,0.26964044138118803
98,0.28166385488115625,0.2743044414431821
99,0.28138679930632066,0.26756596769887625
100,0.2826138004112682,0.2706455046982867
101,0.28246159387006464,0.2853735126937198
102,0.2821436399797932,0.26652129596627033
103,0.28155011914188055,0.2707405175834353
104,0.2806409302172806,0.2677674742434659
105,0.2806498413082126,0.2785892575838101
106,0.2801101040735329,0.27470570552179735
107,0.28205010300274375,0.2678923163601236
108,0.2825862115187992,0.27573306987910357
109,0.2813598985115973,0.2654919165415188
110,0.28129747688031786,0.2804358079500244
111,0.2811065657878761,0.27307123162187547
112,0.2824031117972996,0.2682273577143098
113,0.282308659524464,0.28065110132650967
114,0.28258979950043606,0.2749766427979473
115,0.28231518323139415,0.2771676797963732
116,0.28211585171431375,0.27293495923257194
117,0.28276340418653806,0.26566320979980945
118,0.2803259352378422,0.2780293491452156
119,0.2824163179067399,0.281929805028034
120,0.2806952831913813,0.29452461175967504
121,0.28210825326559924,0.2838902058287126
122,0.28206980511915386,0.26722944604898874
123,0.28106557398581866,0.27628015627424457
124,0.282095992105375,0.2925723751605545
125,0.28261720694655135,0.26990054183196344
126,0.2822197673680018,0.2770838641635809
127,0.28138182346197627,0.26925903202373397
128,0.2822247796076284,0.2715196098012066
129,0.2824999299004591,0.26931310720865237
130,0.28293051798757224,0.2749706195415995
131,0.2811536738555208,0.2838706251854208
132,0.28020308091104934,0.2760926301119924
133,0.28106592520535423,0.2652320805010875
134,0.28033585748155054,0.27675091858068224
135,0.28063588499498787,0.28293802641514443
136,0.2812584263386486,0.28029591536653636
137,0.2800975801478282,0.2713471178638719
138,0.28076836294669516,0.26435658599131673
139,0.28037412288329966,0.2758564387213647
140,0.28148586255350083,0.27993664808788915
141,0.28072832981578644,0.2777307584775934
142,0.27992638512004575,0.28249617788908327
143,0.28158226213771564,0.2697149050710892
144,0.28091944835716776,0.2751820426737124
145,0.2810427086542455,0.2797794109408839
146,0.2826133088397084,0.2666615434608407
147,0.28236679100304196,0.2701235010032119
148,0.281804819669512,0.27866262317456497
149,0.28066475561363613,0.270601260351589
150,0.2812097815932225,0.2747387361742891
151,0.2798840894425611,0.26431005932067264
152,0.2794631167198066,0.2668916056286941
153,0.2812526212702933,0.27544770683231745
154,0.2814446346674987,0.27197902112752315
155,0.28172653724106667,0.28997824395747285
156,0.2794916284777563,0.26730633588785624
157,0.2819739449248135,0.2768303296089925
158,0.28210555131939485,0.270421835963615
159,0.2811750286071897,0.2704321970103195
160,0.28137110620975303,0.2719973706549891
161,0.2817921535812503,0.2702022573918739
162,0.2816115168930529,0.26847627854243733
163,0.28073775418084873,0.29803381428628245
164,0.2829199801329419,0.2788959678671166
165,0.28142795827891903,0.26447295767402873
166,0.28087449600870945,0.26807213093035787
167,0.28091116763538215,0.2714957246511304
168,0.28061306641565903,0.2807341671262845
169,0.28051899867854435,0.2763550861458564
170,0.2815990377363446,0.27815502286898214
171,0.2810174899814512,0.27458577781280574
172,0.28085118743608134,0.27091777572833187
173,0.28108527304695474,0.26677814837553976
174,0.2809651207199676,0.26486944278441926
175,0.2806691932175562,0.27577879630917157
176,0.2805784927259723,0.28940967950843505
177,0.2815721530696566,0.26457554093711283
178,0.280796087575521,0.28138409805467207
179,0.28073797003923656,0.2652528711492468
180,0.2809852999415424,0.2742394771318127
181,0.28094735645728525,0.27071165805645786
182,0.2801481481197831,0.26370176870519946
183,0.2799513095336185,0.2851998484219353
184,0.2808585059252098,0.27375819248859584
185,0.2799753153102575,0.266311861756945
186,0.2794809927471536,0.27046498022356086
187,0.28032823728857564,0.275659116850938
188,0.2813249891050619,0.2679049466408042
189,0.27961661743460225,0.265012708852022
190,0.27941915055783056,0.2663750832675476
191,0.28141708460023745,0.27386551884891674
192,0.2804305787852628,0.270901037772622
193,0.28152841961474345,0.27565589617723163
194,0.2808940176971906,0.2792809209253436
195,0.2803017743390432,0.2635860680569413
196,0.28083649989988785,0.27669887845687446
197,0.28177858172632236,0.2656982756545436
198,0.2800795880141113,0.2711569231235802
199,0.2816739442834942,0.27567226594371314
200,0.2802739556935384,0.2747107446076085
201,0.2811965424177363,0.2676106980915792
202,0.2801568324474408,0.2648014103039664
203,0.28112931914037936,0.27836349886425293
204,0.28076114525183216,0.27665552462803256
205,0.2815906900546248,0.27263527079511085
206,0.2812555438275341,0.2713366122041618
207,0.2802512691044312,0.27550501776851816
208,0.28115415178257214,0.26510834472802275
209,0.2797131631180918,0.26980340971237293
210,0.2812564179634781,0.2719967775017423
211,0.2802439630865384,0.2713981649728864
212,0.28257441220523644,0.27223742301057624
213,0.27991593310491836,0.2738534321019098
214,0.2814421775958521,0.27173918077535486
215,0.2820664420843029,0.27951306150527855
216,0.28112087158157195,0.2771396428911161
217,0.28140297650004464,0.2794421154891024
218,0.28151749329958603,0.2674799426484503
219,0.28164824353252577,0.2708156689848595
220,0.28195260184036075,0.2686043030860957
221,0.28067978954524825,0.2718289573313029
222,0.2809060089272275,0.26940871758684926
223,0.28007172407220593,0.26617659680139577
224,0.28176542020720735,0.27408669415005754
225,0.28174734119769573,0.2711442350964896
226,0.2804657366099975,0.27628882304598423
227,0.281295653227136,0.27041150457810115
228,0.28038345292794237,0.2719217002415337
229,0.2806694122622434,0.2704568333341648
230,0.27985465431289613,0.2672672635848445
231,0.2815442827703665,0.27729336900934987
232,0.2800661984452908,0.26699916129283485
233,0.2821756660473718,0.2687828628068471
234,0.2809335851400114,0.2754474173946087
235,0.27978972849442807,0.27520189184369115
236,0.2830604537666368,0.27936051690681957
237,0.28006713427633023,0.270988689989863
238,0.28059163678893084,0.2821051649390569
239,0.2802810279621209,0.2651601643922673
240,0.28106429562460983,0.2696807304633915
241,0.2807755464617964,0.27174316147884797
242,0.2814329839843831,0.27052360428489847
243,0.28017284652645547,0.27115211163624686
244,0.2788116440808268,0.26966684921435136
245,0.28123877071838776,0.267937376812959
246,0.2804824331109758,0.26853403036248147
247,0.27929944435445714,0.2665428928178224
248,0.27992705287312053,0.26267477605365447
249,0.28091551031735684,0.2691946106462283
250,0.28039366876978955,0.26839605825287954
251,0.2805873726745494,0.26728457859302
252,0.2801777027148328,0.26782484491368214
253,0.2798878915137429,0.27278879481267065
254,0.2812359182240008,0.26436410827860646
255,0.2802664618209588,0.2741600892255884
256,0.2788769237631612,0.28581260845664924
257,0.2801165100064971,0.2740775562452348
258,0.28101574335333634,0.27397130040456297
259,0.2788186915736976,0.2728936904725261
260,0.28036161983827895,0.2649030986623493
261,0.2807839731756541,0.2763006570495389
262,0.2795180240981013,0.2721767190905566
263,0.2810824940459048,0.27714745313423117
264,0.27948541384782916,0.26817215402811273
265,0.28046355175552706,0.27304439660640994
266,0.28020216063034237,0.2721847813361822
267,0.2811074456174692,0.26281621769929175
268,0.2802329802398773,0.2707329046307536
269,0.2809426083589058,0.27082899751490086
270,0.2801379579410469,0.2810721969101122
271,0.28062109228708954,0.2729623474727584
272,0.2803836425336049,0.2741664238891549
273,0.28084016943292367,0.2715099628459024
274,0.27908149894645556,0.26963792085036015
275,0.2809758988453997,0.2863451508950698
276,0.28061291264544286,0.2787629631013501
277,0.27982885475091035,0.26703890959343385
278,0.28048388250201917,0.2679399146912318
279,0.2796485111486616,0.26643400975071546
280,0.2810393755110524,0.2682028284389011
281,0.27966196416355343,0.27136734667827317
282,0.27926240766720234,0.2723391436646092
283,0.2809543561437528,0.27187183604008963
284,0.28038740279577334,0.27330370869519865
285,0.2805403332463462,0.2667471292974823
286,0.28050062012114974,0.2680237577271066
287,0.2804935148818125,0.2730443438466553
288,0.28055299950732315,0.27228842488686306
289,0.28148629975547607,0.2659892384918449
290,0.2795016019345283,0.2640378500592925
291,0.2800147987360196,0.27343445203627953
292,0.2805980596658614,0.26428941686085666
293,0.2805625516638386,0.26422871716302876
294,0.28036713937846874,0.2781609853445872
295,0.28001673979986963,0.26960639583848084
296,0.2804110932597916,0.2710762072028188
297,0.28165673517542394,0.27230741297671807
298,0.27963640231737413,0.2745678308754336
299,0.28063184541644903,0.26766305484448066
300,0.28016917396792407,0.2652125207570564
301,0.2813126206350365,0.27440065581824896
302,0.2790730967641258,0.2681522663056427
303,0.27931515949902586,0.2687467549293175
304,0.2805562276336596,0.2808871496448201
305,0.28001505432488155,0.26883433712168575
306,0.2803116717534385,0.2638677036023648
307,0.27907350562888084,0.2732049897724752
308,0.279289005572895,0.26117806650562936
309,0.2795246082375185,0.2747939514097682
310,0.2798227004045777,0.26791632708217933
311,0.27951961750392434,0.26187996842678646
312,0.27988476509289395,0.2836537930846873
313,0.27988714197104114,0.2668150005349044
314,0.2795160263598108,0.2710539221222606
315,0.2790241765675785,0.2701720916434546
316,0.2797804518128566,0.27001178949106935
317,0.27902027514341066,0.27403048582921935
318,0.2801231859887628,0.26623510369985426
319,0.2798478535348944,0.26038467252499115
320,0.28145156974653357,0.2680664363345859
321,0.2803672966565922,0.2738196137225242
322,0.27894741694608943,0.26191784385018396
323,0.2800067384942449,0.2650270311730813
324,0.2796737675865491,0.2713034650356448
325,0.2801813342207246,0.2845202095177386
326,0.28015239549269205,0.2681367384488882
327,0.28020430310405225,0.280563679859689
328,0.2809624078510095,0.2697287038168572
329,0.28014867697998014,0.2736986911522655
330,0.280239100150353,0.2746437602303775
331,0.28014947554404784,0.2647766168651942
332,0.27947913801117386,0.2638651983372885
333,0.280313301173379,0.2666009772618925
334,0.28017102361178037,0.2756993380370061
335,0.27961203062253226,0.2700582930396275
336,0.28013309700597677,0.28567115561455936
337,0.2808172712020642,0.26444786864655545
338,0.27924978977842013,0.2679760062092387
339,0.27842953347330757,0.27186018937717954
340,0.27902367193516875,0.27731544654390056
341,0.2790878743207236,0.2868705199709443
342,0.2799636316325644,0.26976075640276087
343,0.2799097912298213,0.2751415422349439
344,0.2803232684898243,0.26994109665350174
345,0.28144782825077563,0.2727790594618435
346,0.27980417798129587,0.2738693519873984
347,0.28076645113724313,0.2755492736762588
348,0.27971711184242837,0.273548604410374
349,0.2801110590283247,0.2758663078298132
350,0.2805684697296884,0.28600221559487654
351,0.27981695968756,0.2663299469328717
352,0.2803385724409593,0.27227309149790674
353,0.2807921644964283,0.27696058394030126
354,0.2810292217633326,0.27637141653657804
355,0.2797679759734731,0.28347920805756843
356,0.28201931186145446,0.2673059789774074
357,0.2797967798465924,0.2684724472386685
358,0.28095840245818826,0.2631448231396378
359,0.27969276736513504,0.2837020891241512
360,0.28018099144041586,0.2763063172797284
361,0.2790573214312537,0.26856959489451304
362,0.27978507993961693,0.27095117476998865
363,0.2800302305858103,0.28607407861463463
364,0.2795977599198203,0.26897073730579396
365,0.27951461479937334,0.2640485546206901
366,0.2800174022881057,0.27890785909959814
367,0.28080453544402484,0.2747101260271238
368,0.27927390633107757,0.2707511651158427
369,0.2804360993260102,0.26919287440808815
370,0.2814681078497169,0.26647832245222675
371,0.28106118326516843,0.26455709313490117
372,0.2796363287108789,0.2736560768420619
373,0.2804502685257285,0.26892308859064906
374,0.2813984011407855,0.27419610780199966
375,0.27995245654782136,0.2740667559847459
376,0.2810270581766665,0.2797805457695695
377,0.2811104090546342,0.27614865772537855
378,0.28180364412155084,0.2693085706577399
379,0.2787375841781104,0.2730063443919666
380,0.2814675552501,0.26817513186111164
381,0.2800767290101444,0.28010791441353644
382,0.28129422443090296,0.27086389001279526
383,0.2795965928944657,0.2644532056144588
384,0.2815164411894614,0.27614829628695253
385,0.2803634045352276,0.2739124604822052
386,0.2803237100335048,0.26548696612173306
387,0.28058217374159755,0.2694678799599856
388,0.280803454222439,0.27424110159360243
389,0.2799176576314308,0.26886799335244516
390,0.280595106734551,0.2724029671491933
391,0.2816122258476597,0.27572618085000117
392,0.281273203168651,0.27625342225031113
393,0.27937377957726933,0.2715505624767731
394,0.28024999055264,0.27277049990319413
395,0.2798794931430611,0.269113434447768
396,0.2799130975008964,0.27380375784028677
397,0.27983352441867765,0.26774923167034875
398,0.2796523091461447,0.2593754159717364
399,0.2806768040183923,0.29371501581821274
400,0.2799438522230807,0.2678900302726637
401,0.27992783703630586,0.2733547920045085
402,0.2807293549763689,0.26339949258171674
403,0.28151594395998664,0.26804934382062306
404,0.2800663916601075,0.26358527556685074
405,0.2799108676153788,0.2650444715532997
406,0.2788840624973547,0.27006954479236345
407,0.2802210689591561,0.2650530577740899
408,0.2808571674650331,0.2655279288493279
409,0.2778169494047821,0.26618667981854177
410,0.2799259992978937,0.2694324575476319
411,0.27848385931919517,0.27608385823237774
412,0.27869069679892605,0.26432607602254554
413,0.27957325088058255,0.2769618943251299
414,0.2786172420787011,0.269001410787465
415,0.27862585249612276,0.27096718787300184
416,0.2791936198215214,0.2782621050831269
417,0.278788462322917,0.2655099316337679
418,0.2783848417879676,0.27142836873279186
419,0.27856353616757357,0.2603949163852946
420,0.27786494611645585,0.26440204956348995
421,0.2787147271011373,0.26936890657670687
422,0.27822849660111276,0.2641077469843245
423,0.27834017067361505,0.26235440466332455
424,0.2792013747622069,0.2626452769057997
425,0.27814961566055996,0.2720078807956324
426,0.27970284252739447,0.2767242207688051
427,0.27882811212711195,0.26982705600871376
428,0.2790027077404334,0.2614847460457351
429,0.2781363324307614,0.2797467018923801
430,0.27953022068067135,0.2691294260164274
431,0.27926144419575955,0.25856269233887275
432,0.2775701405607063,0.2646665816337176
433,0.27893009556712006,0.27019791581448177
434,0.2787384082325738,0.2744233655877817
435,0.2778751179992819,0.2756730125777441
436,0.2781210311418243,0.26186445645911544
437,0.2788516384579962,0.2826494920907664
438,0.2773721486294298,0.2828868540752188
439,0.2769939666338485,0.27084525565792467
440,0.27838537663364293,0.2646070494718597
441,0.2785021947215882,0.26386227280536595
442,0.27726391087666596,0.2760350532953252
443,0.2767214030444288,0.269475874791676
444,0.2783755147033077,0.2697916037469938
445,0.27788304640568323,0.26184631276055403
446,0.2779300453887283,0.2774434868707935
447,0.27760453338769797,0.2713427638198413
448,0.27720128423232826,0.26596198965455004
449,0.27535216504340165,0.2658538997361485
450,0.2789258554661207,0.2625257004619868
451,0.27726241610318925,0.28608712561034555
452,0.27906071806220795,0.26496498606622737
453,0.2776030239929779,0.27339961487379427
454,0.27728667889805814,0.2712116559354358
455,0.27825000770777153,0.26905003469951905
456,0.2771186198857572,0.2678782616601559
457,0.2767089755176831,0.2736548351531153
458,0.27768250228427677,0.26607599065307563
459,0.2763390766678573,0.2574195922150232
460,0.27762970007318766,0.2791732263875553
461,0.2758950926155019,0.2678390899180613
462,0.27669871338218044,0.2649999144233487
463,0.27627811174122074,0.2759153381778014
464,0.27666235784236953,0.2702285702198438
465,0.2780580359289972,0.2725099894999517
466,0.2774783236910399,0.29007689488997307
467,0.27781568631398784,0.274500941515157
468,0.2768562858541616,0.2691530491436384
469,0.27745833409299475,0.2757027922014411
470,0.2770865270488268,0.2601200163999503
471,0.27799671705511453,0.27006450808227017
472,0.2771081370915726,0.2675712904712772
473,0.27643902778482554,0.2686901755260499
474,0.27656719436367255,0.2782686100809614
475,0.2774192670778595,0.269970123739156
476,0.27585776482554647,0.27623280076032186
477,0.27671338535613005,0.25846905479444326
478,0.27686323577480065,0.2640283750259886
479,0.27752603303423695,0.26898251137539636
480,0.27572145768635564,0.25539840628476057
481,0.2766430615294847,0.2682464704705489
482,0.27687749054601535,0.2631873700123842
483,0.27704850731969927,0.2680356660600525
484,0.27562575087511093,0.26476851613764324
485,0.27543575306542867,0.2700670173460796
486,0.27699894455077645,0.26927933973078666
487,0.2765072556577331,0.26805288688630313
488,0.27664794326185893,0.2728547473756366
489,0.2744142525880743,0.2724851082419446
490,0.27680563372816686,0.2681225441696141
491,0.27738535286878035,0.26235959573627554
492,0.2769920455692388,0.2774442439132915
493,0.2769039699154125,0.26938112792812563
494,0.2768190494722885,0.27719684019273155
495,0.2764562430451337,0.26906673917171986
496,0.2764802526036422,0.26218043983970557
497,0.27665775422927,0.26937010803134215
498,0.27801108556233056,0.27903680723298696
499,0.27617972601446317,0.2708323243667313
500,0.2783447897715344,0.26154240448360094
