epoch,loss,val_loss
0,0.41576953963052743,0.37389340802686083
1,0.3826411250088331,0.35692153542928085
2,0.35188350185072964,0.34078712833144104
3,0.4059474216245538,0.4139931175002171
4,0.4076617375123415,0.3978370604264802
5,0.3909879844013354,0.382233943869584
6,0.3827021706292479,0.37809158780486357
7,0.37362297372423486,0.36354953248197863
8,0.36601193517827685,0.3671681641026943
9,0.36201879987232594,0.36106459033141103
10,0.3591838643478928,0.35884265361710993
11,0.3576310955577617,0.36134969574217735
12,0.35659594835042,0.36098260674169896
13,0.35661852640285197,0.35026014743824124
14,0.3547126267977851,0.34931071537775416
15,0.355482114513191,0.3599687547620677
16,0.35450413142986814,0.3519309031370595
17,0.3532100797509499,0.352166459434787
18,0.35316367993513936,0.3444019893232818
19,0.3518747961957106,0.3447342005270903
20,0.3516954288696595,0.35001314174451503
21,0.35020731473497924,0.3471343963985473
22,0.35092093160660337,0.34774911431882355
23,0.34817912675541557,0.34989787039553544
24,0.34877863735389364,0.3459569361493074
25,0.34748711391128034,0.347652223017052
26,0.3469088020787346,0.3476120486867268
27,0.3447860485191444,0.3404958157814104
28,0.34095164455122035,0.3342779672630396
29,0.3336096480667448,0.3452171712596302
30,0.3310957061205741,0.3301120779132316
31,0.32737188826766994,0.3247125949460687
32,0.3259462626229564,0.32045814074464174
33,0.3256330765920768,0.3191195998543722
34,0.3244359937550829,0.3206654787357623
35,0.3232976274072028,0.31829160388379746
36,0.32322514021425225,0.3149428461702583
37,0.322734682956974,0.3222457461217867
38,0.3229919969201755,0.3155899151642208
39,0.32140036557408735,0.31963415715575877
40,0.3293277467076155,0.32106366414861975
41,0.320994084383801,0.32438498539019495
42,0.320604531072098,0.31005586593778656
43,0.3196226233999125,0.3108312121541743
44,0.3192911144200084,0.313155125235608
45,0.3193092623697244,0.3185873467948555
46,0.3203110768557262,0.31656818051882024
47,0.31981128054878694,0.3208509260448962
48,0.32337083606173,0.32788882228739163
49,0.32178174217137023,0.321738464456425
50,0.32040262249388474,0.3158333179230001
51,0.31950547139969565,0.32903567225846514
52,0.31894508072976874,0.30998160218453913
53,0.32137617928911744,0.3169220714244018
54,0.32140692307961455,0.31292543092767555
55,0.3206240292206752,0.3215922498759456
56,0.32091634692869886,0.32027593005710264
57,0.3213958955652041,0.3171940724164741
58,0.33154398110880556,0.32459263791695486
59,0.3230412779011124,0.33446147735653287
60,0.3224517625185559,0.3199910118576101
61,0.32286638325805384,0.31236850403854954
62,0.31437929966252487,0.3025982081478472
63,0.3114783992822603,0.30703062652929997
64,0.31066051830681296,0.30791531596700317
65,0.30991656559524683,0.30459111384994514
66,0.31123686831393876,0.30814998314055103
67,0.31048590396281533,0.3031919067629981
68,0.31121501839942306,0.303695467660158
69,0.31200840697585824,0.303185582572584
70,0.31531452749380107,0.32750289811331545
71,0.3162854060703378,0.30723432193333083
72,0.3135427641485044,0.31041501327796345
73,0.31690602323455774,0.3126649802525681
74,0.3128597366777684,0.3066207490973145
75,0.31005933988008566,0.29791985966718
76,330.56456196140783,2.9973618440865155
77,6.686663165926743,1.5529930394234013
78,1.247024235167473,0.9375678623814044
79,0.8579770892882328,0.7078657625647351
80,0.6629849872131237,0.5949151757648825
81,0.5670832381915036,0.5383167888413477
82,0.5225428632504457,0.5084850191599568
83,0.49888384637596317,0.4899961504417794
84,0.48571317784077256,0.4817552833972997
85,0.47786946289187715,0.4755276490264552
86,0.47217213053950113,0.4702266105983609
87,0.46829824015009797,0.4663125048049718
88,0.4645595777985289,0.4627626576617466
89,0.46018657620123726,0.45825548411215394
90,0.45561446425178165,0.4533236856971468
91,0.4672351048814116,0.4711877876317868
92,0.4599281623006629,0.4531623337597196
93,0.44701563353709084,0.4427515975395901
94,407.0761279282774,8.472966561801055
95,3.546385623187089,1.9806801821645452
96,1.5226871373413278,1.1648077133516674
97,0.9961633326576578,0.8464937887280215
98,0.7915140338581529,0.677723831211194
99,1.0851971880137492,14.304215159958146
100,0.9931641465766158,0.6349426868659075
101,0.552834738995865,0.5240243668267364
