epoch,loss,val_loss
0,0.1720207864991862,0.08849559977780014
1,0.07461841238869561,0.06846494788352485
2,0.06754602694944989,0.06695590989742113
3,0.06721966384167818,0.06708338246596264
4,0.06724757124200094,0.0673323243638852
5,0.06721599686959331,0.06806184876866009
6,0.06706279801051442,0.06864347640239732
7,0.06722647664572695,0.06718192805242802
8,0.0671416298463214,0.06802199103802607
9,0.06715020218746458,0.06705031838582648
10,0.06709831607469219,0.06755378476587354
11,0.06713191834207681,0.06707996953846247
12,0.06697994337337528,0.06687469701058486
13,0.06700446845429073,0.06843275793231936
14,0.06704197395190918,0.06670344677101747
15,0.0670133633472079,0.06683095660422295
16,0.06699101907386483,0.06679951776504141
17,0.06687781815793065,0.06775316135882861
18,0.06696135476588917,0.06682417632889917
19,0.06692231037050224,0.06688000531992107
20,0.06690652602814513,0.06722653820087521
21,0.06686462216722451,0.06746146066118716
22,0.06684632881058396,0.06675090548165595
23,0.06686298770727299,0.06654246514861567
24,0.06689164230970741,0.06686340116299601
25,0.06685995964629711,0.06734216224399249
26,0.06684954595014297,0.06703541820961467
27,0.0667974468660083,0.06669910036280292
28,0.06685064390426775,0.06684034161016804
29,0.06680534212000602,0.06684955433246274
30,0.06677493826745988,0.06676865383782722
31,0.06682556659298883,0.06704996965219867
32,0.06675121024828687,0.06698928812508426
33,0.06681377585712288,0.06646384469629651
34,0.06677853003096619,0.06685894506306468
35,0.0667063006930214,0.06736554532078842
36,0.06677616932105532,0.06672232151737154
37,0.06673938168181504,0.06698322141779721
38,0.06670816449357642,0.06727826837876602
39,0.06671517948619277,0.066396432448746
40,0.06670766832421628,0.06699544229289633
41,0.06677711191479203,0.06670171068282982
42,0.06665586332063214,0.06662581959517339
43,0.06673094851644538,0.06661521701911066
44,0.0667077346305124,0.06645657695776944
45,0.0666722892898974,0.0666616713773715
46,0.06670723161954198,0.06688168567282625
47,0.06669611324646252,0.06703686480422894
48,0.06668514627323066,0.06647023791778059
49,0.06669214161054836,0.06733586736782009
50,0.06669998056084799,0.06649620182100674
51,0.0666603170213201,0.06679951057320235
52,0.06664829879111761,0.06657401007771398
53,0.06662841059928604,0.0664522746914517
54,0.06665327336243111,0.06632897343071972
55,0.06660137762971442,0.06649716396616873
56,0.06663334146320676,0.06657782849438941
57,0.06661462720385272,0.06679808841496353
58,0.06667427985901407,0.06668270909431043
59,0.06656984868440792,0.06652283544733756
60,0.06664219932804863,0.06645600624153157
61,0.0665737322057418,0.06674669501272448
62,0.0666072363068136,0.06839751594515418
63,0.06658752351927814,0.06639804345597503
64,0.06656478788795993,0.06672856101991158
65,0.06659000259276918,0.0668591692684999
66,0.06658866875570454,0.06679408777955016
67,0.06660432440431999,0.0664363913590878
68,0.0665798251130741,0.06644886996429458
69,0.06660433234773475,0.06658310285271767
70,0.06654700801985489,0.06646664619104732
71,0.06660038906839683,0.06652190505388034
72,0.06657237485259604,0.06682178380751384
73,0.06654864427544993,0.06738326749995927
74,0.06661982099405772,0.06704306145269945
75,0.06651654187366544,0.06633938680202263
76,0.06655588651077449,0.06642574301811308
77,0.06653274115410258,0.0666442997224376
78,0.06657401702666788,0.0663558334000438
79,0.06652672570362556,0.06719434399807557
80,0.06657360590768041,0.06648763980431263
81,0.06654287368613039,0.06722895318573163
82,0.06655906932763488,0.06647598635531733
83,0.06651829121311267,0.06659020014818767
84,0.06652885221308179,0.06634141462131006
85,0.06654549253245386,0.06636141699863025
86,0.06653454572075515,0.06671690375153813
87,0.06652352288454699,0.06636490228555761
88,0.06654789693635717,0.0664069190056849
89,0.06653255226014615,0.06642109205345047
90,0.06651771388989654,0.0666200444807946
91,0.06654770880621924,0.06641495224873475
92,0.06652477443170586,0.06668546307764377
93,0.06653599607513296,0.06637149293272629
94,0.06651319529441335,0.06658474429736197
95,0.06652870161725367,0.06663380015785522
96,0.06655475852949966,0.06644469970321222
97,0.06649954382964461,0.06647220326274422
98,0.0665552610297688,0.06649808402172486
99,0.06656196524651883,0.06666969062191534
100,0.0664970559714962,0.0663962618204535
101,0.06655269430773102,0.06644366326100165
102,0.0664957777830027,0.06645493473396023
103,0.06649743844207814,0.06698782906383158
104,0.06650491263404738,0.06653617855511318
105,0.06654530950039506,0.06640823352155764
106,0.06649881312779957,0.06628427427223844
107,0.06656787225858961,0.06636276096987649
108,0.06648005459823911,0.06662403043850539
109,0.06653663528104908,0.0664176544955187
110,0.06650444484657521,0.06660621394803887
111,0.06650886784116332,0.066494204936036
112,0.06654854092172248,0.06648557871615407
113,0.06648967793132428,0.06663447295645607
114,0.0665125794646194,0.06651161369686062
115,0.06651175095231461,0.0663095504580611
116,0.06652692891955138,0.06665318926477301
117,0.06648018649019163,0.06645115845981506
118,0.06651056992362062,0.06667751655123699
119,0.06648769835791857,0.06660265505208024
120,0.06652253910118966,0.06651240752770285
121,0.06647644100411476,0.06636306891348669
122,0.06652942002653409,0.06660183439444348
123,0.0665041776500541,0.06662072572083858
124,0.06649607567817901,0.06629291691044793
125,0.06650136755727273,0.0671597664004108
126,0.06651419913954586,0.0664455015903255
127,0.06648009520420116,0.06780775453551321
128,0.06648002417950179,0.0664729764413062
129,0.06648782058972583,0.06647459839212679
130,0.06653291776889472,0.06648478243020735
131,0.06649506992424468,0.06647790872860161
132,0.06651071182859364,0.0663491515994025
133,0.06653452400478432,0.06631678454254496
134,0.06649513985309527,0.06637606128238747
135,0.0664989552248439,0.06641357831051242
136,0.06651556341619276,0.06632553716649572
137,0.06646637187497936,0.06657471925302481
138,0.06651262017629511,0.06649371061030108
139,0.06648703125401509,0.06666881070364246
140,0.06649752721178541,0.06641426707464311
141,0.06651520279707383,0.0668290192474506
142,0.06649926660521377,0.06628397488474093
143,0.06647836827605272,0.06639267152561949
144,0.06647996937515115,0.06629339107198327
145,0.0665076042977359,0.06641435648749076
146,0.06649169391639036,0.06630661681106266
147,0.06648342875238183,0.06632942050965922
148,0.06649856996848333,0.06643737959010261
149,0.0664594242309066,0.06628932463094862
150,0.06647683020910437,0.06639411272782458
151,0.0664765658936531,0.06649442361381079
152,0.06653517351703916,0.06650001588905996
153,0.06643311334974902,0.06676878499333183
154,0.06650570845104856,0.06657494264107194
155,0.06649224909482528,0.06689735168874876
156,0.066470767113028,0.0665242776080625
157,0.06650467572226036,0.06643217691200497
158,0.06645339218338282,0.0663446819949263
159,0.06652020645751465,0.06640619470869451
160,0.0664640129234889,0.06637351705318563
161,0.06649681290449332,0.0663566626431957
162,0.06646161844922627,0.06649830066190993
163,0.06648505506642478,0.06633894486557149
164,0.06645954912491173,0.06637668074788591
165,0.06647887083141209,0.06658450926006453
166,0.06646910478933443,0.0665343942322078
167,0.0665061222337228,0.06647048304599858
168,0.06646304646228476,0.06870295259669341
169,0.06647161143027144,0.06734420740778463
170,0.06648090796219074,0.06660389352145869
171,0.066480395371477,0.06631594939538128
172,0.06647576700351078,0.0667592854472061
173,0.06647408126349405,0.06634076371577281
174,0.06644235574584499,0.06696218724091314
175,0.06646072805571042,0.06634237033909668
176,0.06648741417723023,0.06624936223347637
177,0.06644116619156658,0.06669039739664841
178,0.06648040475766007,0.0664582916174522
179,0.06649426632463265,0.06633160947494932
180,0.06645851077096497,0.06630757711857158
181,0.06648730796625574,0.06661853862848448
182,0.0664725718315509,0.06641392811144912
183,0.06647303318984503,0.06624676384202306
184,0.06647138188270738,0.06636647457858193
185,0.06648567514263277,0.06676362680113965
186,0.06644442907685666,0.06643818121847432
187,0.0665094296750929,0.06645824645529042
188,0.06647763455020105,0.06693239346287716
189,0.0664695673194125,0.06635555440608497
190,0.06643823093826251,0.06687019724507641
191,0.06650506843069046,0.06649491861580203
192,0.06643859100945705,0.06639875085537793
193,0.06651735236700014,0.06642501464594323
194,0.06645298141429273,0.0663795083373103
195,0.06645643824397279,0.06632337262876031
196,0.06646271563059897,0.06632451631934415
197,0.06651075131488408,0.06626270019288315
198,0.06643698236895361,0.06634399907306225
199,0.06646810724682135,0.06635963485150612
200,0.0664442216204725,0.06646436110327068
201,0.06647683563623592,0.06647965383158017
202,0.06646000895259097,0.06634263018618067
203,0.06649072511161831,0.06634184375593487
204,0.06644907249785442,0.06657194661089728
205,0.06649823213587229,0.06625260704071294
206,0.06645499393016362,0.06627971096215704
207,0.06648424467731484,0.06645533236974134
208,0.0664840079724884,0.06644236836832343
209,0.066438144693772,0.06633440149917129
210,0.06647463261985855,0.06664844402997816
211,0.06645762652670928,0.06664174875713468
212,0.06644942207808355,0.06633650786122094
213,0.06648702964299827,0.0666173249453706
214,0.06645421936012191,0.0663520002145182
215,0.06642637454080495,0.06658849391818705
216,0.06652253289386141,0.0663641054439046
217,0.06641888661648063,0.0662468876792581
218,0.06645994321804205,0.06628201761368982
219,0.06645069416347359,0.06638481905470707
220,0.06649040320901561,0.06625260637915784
221,0.06645678271718924,0.0663066600062006
222,0.06646751943561766,0.06650047768098497
223,0.06649401719621617,0.06649303917597388
224,0.06645773430998854,0.06777084565588407
225,0.06643338254589638,0.06644564437155848
226,0.0664430912732959,0.06654066059976557
227,0.06646375525013196,0.06621615219076224
228,0.06647594855111137,0.06677004405912586
229,0.06646387003880325,0.0663639076448089
230,0.06646206506567416,0.06650994369949802
231,0.06648024787410177,0.06633625331833877
232,0.06643854161288193,0.0666058207549678
233,0.06647039585851794,0.06640832887664026
234,0.06645411426435224,0.06623687164089109
235,0.06642663801799147,0.06625065470045255
236,0.06647824948366217,0.0675146554368118
237,0.06642615401017056,0.06627358345942602
238,0.06651765071778751,0.06632748731039317
239,0.0664317404939164,0.0664083424252888
240,0.06648220958189666,0.06626610480243048
241,0.06648709322605059,0.06634557181006355
242,0.06644393015149638,0.06640086714957488
243,0.06646485218880989,0.06645497680004413
244,0.06647881783163852,0.06626470120301751
245,0.06644907638543754,0.06634857979821425
246,0.06644168190455599,0.06641868952935195
247,0.06646439804286837,0.0663960589406146
248,0.06647875761355666,0.06629659037304941
249,0.06644660845952784,0.06637587098973703
250,0.06645199456672779,0.06655281025625254
251,0.06647267724595053,0.06634191398662474
252,0.06642274877769674,0.06651553115274554
253,0.06647291095654885,0.0664575569884412
254,0.06647404259164556,0.06667966690229071
255,0.06644236304902201,0.06634342013295937
256,0.06646320257606886,0.06630824767964603
257,0.06643674304213026,0.06632115927119846
258,0.06646830672256762,0.06640257749885861
259,0.06646187865822245,0.06626491619078494
260,0.06645892810621422,0.06650376605971084
261,0.06645099375155761,0.06633404517089088
262,0.06645895730403306,0.06642118240129599
263,0.0664462386552307,0.06636185060536758
264,0.06645395053173903,0.06652308440669466
265,0.06647978967381753,0.06690065921140921
266,0.06643319671168077,0.06636842660129588
267,0.0664690269662036,0.06675425247122381
268,0.06642623557050308,0.0663117404377357
269,0.0664412926831882,0.06655089068796188
270,0.06645869915124228,0.06642273834949887
271,0.06645243659579783,0.06680049928641733
272,0.0664651832304341,0.06652454744609868
273,0.06644426189738212,0.06639394560136377
274,0.06644239065815791,0.06649699763945453
275,0.06645645881644922,0.06679176371882728
276,0.06643972399649765,0.0663693441752853
277,0.06644487315022068,0.06633041145157983
278,0.06643450620631092,0.06636616155128829
279,0.06646027220048302,0.06619080046710765
280,0.06643741145033202,0.06622769195224792
281,0.06647037034876627,0.06647092925756581
282,0.06642117895346751,0.06633809417627323
283,0.06648281442044641,0.06638692838640409
284,0.06644892997497753,0.06640451970997531
285,0.06645864445409425,0.06630904719398166
286,0.06643692272857463,0.06661516343020697
287,0.06647243524501792,0.06628564160667072
288,0.066427369583413,0.06646451920906013
289,0.06642964056772675,0.06645735529058075
290,0.06644670955604501,0.06654216663731113
291,0.06645565173126382,0.06673938670469817
292,0.06647586822956443,0.0662902701784281
293,0.06648270887502139,0.06696231231305104
294,0.06643555110854973,0.06655014129304096
295,0.06643442865863121,0.06660955136122906
296,0.0664292724667598,0.06680874533263265
297,0.06645249337148514,0.06628406052525437
298,0.06645117617315716,0.0664842482553332
299,0.06647086506642455,0.06628209643577532
300,0.06643270842915626,0.06635136761200551
301,0.0664612086821827,0.06642691746953913
302,0.06643248126685,0.06631246746327336
303,0.06646393213590844,0.06630578666231532
304,0.06646920058230082,0.06644759376569348
305,0.0664519306933351,0.06642966075038101
306,0.0664340392332807,0.06691837262276974
307,0.06644658537374602,0.06644541766397484
308,0.06644667982370209,0.06753249204443398
309,0.06648949418755934,0.0663266672025822
310,0.06642655466499327,0.06640723341489366
311,0.06646487686178572,0.06635779394946799
312,0.06643870653961298,0.06635547108248452
313,0.06642851407239905,0.06642325215141606
314,0.06649722022374423,0.06629008892703075
315,0.06644858080569169,0.06626862852048385
316,0.0664092731207228,0.06631307962520347
317,0.06647222214114132,0.06674310901946878
318,0.06642524242180763,0.06653739540193056
319,0.06646966901001075,0.06627949378390714
320,0.06643610648947845,0.06698728140499428
321,0.06643197381590529,0.06679725552002745
322,0.06646865274277713,0.06630543194234889
323,0.06644561883213995,0.06652950516651254
324,0.0664601308374787,0.06652642901466414
325,0.06642629823935546,0.06655736174360917
326,0.06641998387081065,0.06631863180727307
327,0.06644713326835995,0.06658074203305293
328,0.06645829070636408,0.06659525646677428
329,0.06641083963656073,0.06627955444409984
330,0.06644176034559068,0.06659139454035469
331,0.06644965438611454,0.06674800880823722
332,0.06640925100720901,0.06655926155933453
333,0.06645968417785199,0.0662161792351349
334,0.06646465278006525,0.06662500205713646
335,0.06643798552918062,0.06634370882678615
336,0.06645733731196557,0.06628289704976255
337,0.06644591159350295,0.06628494893495455
338,0.06645459136951694,0.06637085778690174
339,0.06641818584202767,0.06656037792916268
340,0.0664488704090448,0.06625837061169021
341,0.06646306868300116,0.06632177630217412
342,0.06645845286369467,0.06628424838632227
343,0.06644294647087487,0.06624305447021053
344,0.06642449452139014,0.06637070293596342
345,0.06640130264772405,0.0663920436304389
346,0.06645272462833508,0.0663697469888377
347,0.0664157820068937,0.0663087079896876
348,0.06645080517623111,0.066666101247378
349,0.06644611946231932,0.06622604966081308
350,0.06642637608333124,0.06626306473326758
351,0.06644278718716949,0.06655955385496133
352,0.06644201353877235,0.06634295197246388
353,0.06642421427444159,0.06638583674697586
354,0.06644659215133253,0.06630673096019071
355,0.06644756623136577,0.06627683924553708
356,0.06641523983272955,0.06650721958905294
357,0.0664327653194908,0.06625196410617964
358,0.0664435152938183,0.06657014948910583
359,0.06642378944841078,0.06693919295858189
360,0.06643298561040827,0.06629865104957368
361,0.06645676517914191,0.06629440367174788
362,0.06646632855321816,0.06631325166187328
363,0.06641356024941762,0.06626334133974755
364,0.06644690127151427,0.06638491804687263
365,0.06641211541597362,0.06633341444719468
366,0.06646071546387186,0.06633071428798462
367,0.0664340118683285,0.06630618380413529
368,0.06640575369812554,0.06687116295381522
369,0.0664375569599924,0.0664468022694057
370,0.06641783262733265,0.06626076126896027
371,0.06647878853406171,0.06625611417660021
372,0.06641811976651493,0.06651678646678706
373,0.06644519431729444,0.06657084636831245
374,0.06640657065488356,0.06631356938473804
375,0.06641014718519841,0.0663354205557137
376,0.06644929130431369,0.06632629022496181
377,0.06642662179168704,0.06635332696475
378,0.0664478919441275,0.06643961368815204
379,0.06639824370495516,0.06634322187224521
380,0.06642758936214027,0.0662998893278362
381,0.06642417231653568,0.06629175143852983
382,0.0664448992882987,0.06628407345351123
383,0.06641933405928188,0.06641039257279606
384,0.06644455697700132,0.06642404100442366
385,0.06640613187762569,0.06637533041688995
386,0.0664315953356423,0.06658888970455412
387,0.0664110652742078,0.06633046676346704
388,0.06642569467830334,0.06630839007864717
389,0.06642885986629198,0.06633630665144115
390,0.06639290695264043,0.06669332908838399
391,0.06643224846598485,0.0664823331032904
392,0.06637367575937848,0.06636957251176462
393,0.06644567512094879,0.06638653690749581
394,0.06642760504796494,0.06629749736215716
395,0.06643557594828516,0.06638687556784456
396,0.0664156757765632,0.0666612438804631
397,0.06642871960211429,0.06628066937908848
398,0.06644146657324762,0.06689250768524695
399,0.06642984130905925,0.06667377299025666
400,0.06642126582628437,0.06631800253017738
401,0.06640226049400824,0.0663450266563149
402,0.06644380196101135,0.06627747298004406
403,0.06640344904475122,0.06647152789142909
404,0.06640810443075013,0.06635452019846054
405,0.0664667212646261,0.06638283700915237
406,0.06639639252303935,0.06628212273626602
407,0.06640332160617331,0.06629401369530476
408,0.06638677320260701,0.06665918337153279
409,0.06645074728236114,0.06653999212920525
410,0.06640777634464198,0.06653915143967992
411,0.06644589864730024,0.06636107741210436
412,0.06642481177705797,0.06645286683619446
413,0.06641966977017484,0.06631901662652664
414,0.06641995347738504,0.06650254448497964
415,0.0663833879678846,0.06657484309614034
416,0.06643842580578596,0.06693119319316056
417,0.06639923857187005,0.06650269004768429
418,0.06643607477835424,0.06625193351881185
419,0.06639803999619519,0.06637574725541057
420,0.06642415130333744,0.06627041829460328
421,0.06640446405533215,0.06638653426127539
422,0.06643257793828214,0.06664782886017752
423,0.0664025107361406,0.06646550762825061
424,0.06644961344961116,0.06634992634217478
425,0.06644384335759256,0.0663633432971415
426,0.06644558709868185,0.06624527272033992
427,0.06639487166061914,0.06635713978319913
428,0.06640893455258282,0.066243409322488
429,0.066439931548173,0.06662339338740215
430,0.06640617047651685,0.06652444512851613
431,0.06643286201176789,0.06632727792085205
432,0.06641192017026323,0.06647075389547902
433,0.06639437182254786,0.06650291582909078
434,0.06644156557335842,0.06648087931389685
435,0.06643137786474874,0.06636998917093029
436,0.06642028403510865,0.06626203254853165
437,0.06641523201885126,0.06658838087459107
438,0.0664145832391475,0.06637853266114123
439,0.06642966528983711,0.06631860421013437
440,0.06643782054587043,0.06630859541065032
441,0.06641416248979329,0.06629495654069917
442,0.0664119320057279,0.06651198001021273
443,0.0664218758016253,0.06631895378761246
444,0.06641881634368837,0.06631647928925885
445,0.06646044213893555,0.06683092393516177
446,0.06640695439849635,0.06644299661633342
447,0.06641409698900559,0.06742954192993296
448,0.06640661080523456,0.06638363897859251
449,0.0664441561077734,0.06634885524035723
450,0.06640534486761578,0.0662541161743364
451,0.06642327557424371,0.0667077120314128
452,0.06639295614076604,0.06642808360301235
453,0.0664408876003026,0.06620349625938506
454,0.0663927498770108,0.06633673979656002
455,0.0664189587266063,0.06629771729541653
456,0.06646073741658176,0.06637703967828307
457,0.06637804640634216,0.0663463911181279
458,0.06643833167892661,0.06637749432835319
459,0.06641254630937374,0.06622916637039974
460,0.06644990223703338,0.06637311773264418
461,0.06639674985758978,0.06678146860711483
462,0.06642186952729544,0.06632323000336032
463,0.06641871538564122,0.06622209355246861
464,0.06639726752702661,0.06628204501677237
465,0.06643756163521684,0.06640230631713051
466,0.06644183339076123,0.06635368402809164
467,0.06639514155209446,0.06634267910891568
468,0.06641824226781762,0.0664021616159176
469,0.06640897373959934,0.06623225313359203
470,0.06640772670686101,0.06646577706935373
471,0.06647062928919836,0.06669568260448037
472,0.0664112881230984,0.06633505054941399
473,0.06643851077724561,0.06627481799181653
474,0.06642061705998094,0.0664520892208029
475,0.06642917288001254,0.06635368642439124
476,0.06640366745068968,0.06629025457454837
477,0.0664219536173115,0.06765897914873115
478,0.0664412071965605,0.06697425245356635
479,0.06639923056592044,0.0663225999000558
480,0.06639966273830711,0.06640068665676072
481,0.06643905607666328,0.06622662225586745
482,0.06642464339006528,0.06623538637323556
483,0.06644660535511925,0.06634974295027912
484,0.06641222988601497,0.06626747608267142
485,0.06645361515436526,0.06623438724861337
486,0.06638561832092459,0.06634107745754596
487,0.06641442446614342,0.06626442966551976
488,0.06642683974052552,0.06640240990195861
489,0.06645420850585881,0.06644149278691178
490,0.06639278653434379,0.06692784877924723
491,0.06641449312345206,0.0663682444178409
492,0.06646461118099024,0.0663254963294342
493,0.0663792542729089,0.06628544896770483
494,0.06643834024173417,0.06643561865978573
495,0.06642812636675689,0.06636964851709548
496,0.06638335962619761,0.06624056879598603
497,0.06645650959176888,0.066341079895009
498,0.06637475816317075,0.0665610001820133
499,0.06640710430346328,0.06685646040322467
500,0.06642640305669617,0.06686091470078587
