epoch,loss,val_loss
0,0.2614560895841375,0.19821459761781776
1,0.18074213955208934,0.1795807283698054
2,0.1787576971175097,0.17881149513427913
3,0.17834263891100788,0.17836866102636378
4,0.17827265744181656,0.17886086937331175
5,0.17819649231233756,0.17799079913319615
6,0.1781642957152032,0.17813973499266483
7,0.1780516882237199,0.17799553870213908
8,0.17807858667785315,0.17779360330518815
9,0.17808787717069272,0.1777489874879488
10,0.17804421675052765,0.1787744027569055
11,0.17800758328202435,0.17792968738944678
12,0.1780218486901191,0.17811529782924862
13,0.17803774242826123,0.17778217598454824
14,0.1779085480147224,0.1777593035606672
15,0.17796247192828965,0.1778218381124495
16,0.17793090766568265,0.17800053548370653
17,0.17792756822135905,0.17846212252068916
18,0.17791816993035095,0.1776800357928498
19,0.17790239720011977,0.17782613651528542
20,0.17785130113625316,0.1776727858075215
21,0.17784384750038218,0.17776189375177742
22,0.17788567159363597,0.17778283539915424
23,0.177874451257485,0.17765852240897015
24,0.17786924380788224,0.1777106671819747
25,0.1778514348000264,0.17789645580061797
26,0.1778475473300635,0.17764495354331
27,0.17780788820519816,0.1778716634556169
28,0.17778529946228488,0.1776391591321039
29,0.1778124335477297,0.17776964825961
30,0.17783097772718334,0.17782912467442447
31,0.17782012832393462,0.17765221921778515
32,0.17780441063628208,0.17771311227787925
33,0.17781330910113027,0.17770839920642345
34,0.17777127173426244,0.17767134447594563
35,0.177794905291568,0.1777405102091129
36,0.1777738491229588,0.17772806208248484
37,0.17776173616437127,0.17774502114461177
38,0.17776687430749408,0.17767533429419796
39,0.17775147942473277,0.1777575623241107
40,0.17776949257015895,0.17758670078786037
41,0.17779531398956344,0.17770769674663198
42,0.17773629334285487,0.17757937042799726
43,0.17771923667092404,0.17764831396097636
44,0.17772887213576993,0.1777443908149084
45,0.17770970635991587,0.1777392687553859
46,0.17776386898389157,0.17766996593624002
47,0.17769784148005272,0.17805582560134292
48,0.1777105276509345,0.17762751476258487
49,0.1777234463502082,0.1777826457415967
50,0.1777108977023932,0.17765631299133647
51,0.17770581346431033,0.17765818356338597
52,0.1777104708097345,0.17762656859177348
53,0.17767676684281808,0.1775725026039411
54,0.1777012204225782,0.1777127202961891
55,0.17768266086550735,0.177879729464756
56,0.17769520677370038,0.1776184210790455
57,0.17766681028832254,0.17767374411566386
58,0.17770231746845871,0.17774688458950763
59,0.17772206022656506,0.17764248794801799
60,0.1776766219704176,0.17760645746949533
61,0.17772058766784904,0.17758246087237617
62,0.17766198840477673,0.1775799156082081
63,0.17770207317160377,0.17780764082236467
64,0.1777067620822375,0.17760140023649257
65,0.17766127104667737,0.17769443955869305
66,0.17770396042570508,0.17756069666208388
67,0.17765902280569268,0.17799446412495204
68,0.17767014215699584,0.17761852303497794
69,0.1776846888111078,0.17771197283888954
70,0.17769498351237756,0.17764738827779147
71,0.17770398912622298,0.1776389796713157
72,0.17765775919675256,0.17764134402809503
73,0.177695241155956,0.17764053468452068
74,0.177678204572601,0.1777997813948328
75,0.17768993957651605,0.17765209778567045
76,0.17764895404581066,0.17766104184602693
77,0.17767462860361086,0.17772919117181246
78,0.17765038104937803,0.1775626364122156
79,0.17767173577126838,0.1775642120306569
80,0.1776809149520765,0.1779153748770445
81,0.17766463216379297,0.17754638529049663
82,0.177645736145411,0.17768988464889135
83,0.17763587930719915,0.17772869331778365
84,0.17762474675210926,0.1775557601084931
85,0.17765655158925875,0.17771654777763957
86,0.17764542220855692,0.17751356967575643
87,0.17761902363418486,0.17757462983584912
88,0.1776462329579867,0.17754221830484712
89,0.17766600092061513,0.17753746350543556
90,0.17766875775455,0.1776123893312704
91,0.1776626998250433,0.17768304813256297
92,0.1776459734800527,0.17759384771172418
93,0.17763214282614054,0.17779922852294128
94,0.1776443471034749,0.17761631200609004
95,0.17764920251165553,0.17759302364340332
96,0.17763671932293834,0.17764549052611806
97,0.1776529201727024,0.1775962412004501
98,0.17764329660138925,0.17767169808155925
99,0.17768190951227283,0.17758349696763784
100,0.1776451633321486,0.17752494975254116
101,0.17764497337509974,0.17760227121936117
102,0.17765958962156522,0.1775455849323107
103,0.17764281910910404,0.17771165203464812
104,0.17764543600195795,0.1776293748556015
105,0.17762863768828954,0.177513517362919
106,0.17765536730428585,0.17760294584091385
107,0.17763627406290108,0.17764512024343532
108,0.17764780787136153,0.1776088271422375
109,0.17764247092101976,0.17756385082745044
110,0.1776921694501222,0.17756931583713903
111,0.17762910621129066,0.1775554677658224
112,0.17762831380541663,0.1775163286369244
113,0.17763917477463456,0.17754936561682325
114,0.17763542452995346,0.1775860954031948
115,0.17762054222450555,0.17756749483761866
116,0.1776591284359864,0.1776480772595003
117,0.17762976181473758,0.17763567825848414
118,0.17764909411791704,0.177557953260692
119,0.17762878948716904,0.17748681771632904
120,0.1776465670787078,0.1775198258230229
121,0.17766129206434236,0.17744424694527203
122,0.17762827452757565,0.17752095146638347
123,0.17763808482199264,0.1775615456401596
124,0.17764621800322422,0.17761716802899255
125,0.17764178776650502,0.17755635467305744
126,0.17761643836014182,0.17757194224030556
127,0.17762813249604403,0.1775643382494903
128,0.1776215500420899,0.17787913573522124
129,0.17764403337507034,0.17765826070365137
130,0.177623899196454,0.17750078927793178
131,0.1776140683906065,0.17801805921398756
132,0.17763168979987062,0.17756760381485592
133,0.17766064519195152,0.1775435174579402
134,0.1776249248215811,0.17755872645101495
135,0.17765418674162536,0.17753010144973233
136,0.17763397660401228,0.17758719186756491
137,0.1776065368541806,0.1775253619513553
138,0.17761305387881543,0.17772031458419613
139,0.17763943723041853,0.17751282270065705
140,0.17765340267968693,0.17761390077004588
141,0.17763435608929962,0.1776241453477691
142,0.1776334759440544,0.17756191599340823
143,0.17765017969311953,0.17768598122679538
144,0.17762784770042966,0.1775832969016133
145,0.1776249906380209,0.17757669633405831
146,0.17764142971578167,0.17755580581165997
147,0.17763888383273788,0.17766042764062664
148,0.1776449682353307,0.1775464118703106
149,0.17763405823879105,0.17757260811168937
150,0.17764369203008526,0.17764614845884064
151,0.17764664121526036,0.17755418118521654
152,0.1776358621071378,0.17761446938988912
153,0.17762709010562164,0.1776122542799413
154,0.17762483294299847,0.17763761949049928
155,0.1776260445408112,0.1775608184940719
156,0.17760601137682117,0.17778215612025364
157,0.17761655352551112,0.17763295789685132
158,0.17763548304470514,0.17763932759637616
159,0.1776203428455394,0.17752063255565978
160,0.17762782698650537,0.17759054051249068
161,0.1776287862591797,0.17761372669578634
162,0.17764452318374296,0.1775369609470149
163,0.17761606613485267,0.17755817102699084
164,0.17762004461982173,0.17749484297367374
165,0.17763256606199948,0.17771656012666817
166,0.17764619940357337,0.1775543688198856
167,0.17761391562690362,0.1775269080144548
168,0.177610822760468,0.17756664349558604
169,0.17760629548753004,0.17792291340624714
170,0.17764812617374362,0.17750550111448474
171,0.17761258450414924,0.17750675432919139
172,0.17763106776870413,0.17761169245794428
173,0.17762615178509963,0.177956262757765
174,0.1776322246872359,0.17751805661885683
175,0.1775961215261647,0.17771369658686934
176,0.17763345870230315,0.17756694181283442
177,0.17763269131036877,0.17759108659829695
178,0.17763603148128776,0.1777137165805347
179,0.17764706476677142,0.17759412158965687
180,0.17761687026749984,0.17752008630519978
181,0.17762061216824537,0.17762499483156693
182,0.1776433651157611,0.17757749062357875
183,0.17764729114292527,0.17763245204535638
184,0.17763547215172998,0.17750488408644932
185,0.17762013774314564,0.17761718577631083
186,0.17761832065910077,0.17755075749347976
187,0.1776383555800223,0.17759117925129447
188,0.17763038720491883,0.17762124265566903
189,0.17765640138055114,0.17758039974893466
190,0.17761067672075032,0.17755488599720393
191,0.17761590352637782,0.1775519860454121
192,0.17764676816695982,0.17756880951520487
193,0.17761295232222044,0.17754807941256873
194,0.17763229236185407,0.1775058333151154
195,0.17762765553381613,0.17753380257121765
196,0.17762727136139295,0.17751420645047664
197,0.1776135692969977,0.17745955651824458
198,0.17767375361600177,0.17752158906437226
199,0.17764476550926123,0.17755800178649395
200,0.17761203941466996,0.17753630607214704
201,0.1776366548227082,0.17760369881411284
202,0.17763866153028277,0.17753734137942306
203,0.1776311569493547,0.17754264929770672
204,0.17761122365054086,0.1775112985600236
205,0.17764705190245958,0.17749653026261664
206,0.17762703996458404,0.17753551435828116
207,0.17763311859014794,0.1775592154490261
208,0.17763274787760658,0.17762415548573354
209,0.17761909490009006,0.17758115745004746
210,0.17764324711547863,0.177550669003869
211,0.17762905702316503,0.1776139438857972
212,0.17764157782212722,0.17755889746741976
213,0.1776092905732844,0.17751191037794503
214,0.17761829897439738,0.17754209816644018
215,0.17763457242414343,0.1775431634994972
216,0.177609159512152,0.1775593074786917
217,0.17761588579625914,0.17776927867082506
218,0.17761705526940638,0.17761107357167408
219,0.17761030468008787,0.17761429316337032
220,0.17763857586349516,0.17755681655024955
221,0.1776129108288591,0.17750100502134217
222,0.1776255106956934,0.1775425016033245
223,0.17761354385424766,0.1774841940887537
224,0.17763713844340864,0.17774067690923823
225,0.17759581318171286,0.17756079697147917
226,0.17763903772206807,0.17755095745365546
227,0.17764095554082132,0.1775164300753737
228,0.17764246540008594,0.17765122385079596
229,0.17758862977976994,0.17755923066773374
230,0.17762510686350477,0.1775554263201302
231,0.17762031595555428,0.17750172907429224
232,0.1776099542347933,0.17754685190736352
233,0.1776007032103771,0.17763200418725197
234,0.17762261504630486,0.17765081320443113
235,0.17762323081803075,0.17752338683595786
236,0.17761927098631383,0.17749731199141083
237,0.17760331468949977,0.17770047044791665
238,0.1776240278574393,0.17757678071908717
239,0.17758544174124963,0.1776196941345248
240,0.17761547517457263,0.17755581868993267
241,0.17760909152783746,0.17767380406137706
242,0.17761844431729817,0.17753885338272554
243,0.17764054347189973,0.1775253612104136
244,0.17763960996953895,0.17767510148560614
245,0.17760320608135607,0.1776285584436784
246,0.1776235792979443,0.1775172118629728
247,0.17760161597499077,0.1775939361072471
248,0.17761858398441693,0.1776396563980837
249,0.17761027206667512,0.17752030119005865
250,0.17763456882094497,0.17763736140756223
251,0.1776047649322082,0.17763146830997603
252,0.17760813757955884,0.17754370129381283
253,0.17763160829611724,0.17753817457426413
254,0.17761406690168152,0.17747845972910958
255,0.177632241238126,0.17750663277946688
256,0.17758091067453083,0.17882425056354398
257,0.1776055165832277,0.1775051926710329
258,0.17761993489200645,0.17771982126990546
259,0.17761725336789705,0.17756264850250264
260,0.17765497004123423,0.17754105510867857
261,0.17762780549238436,0.17755593315954743
262,0.17759381898110815,0.17764553280683984
263,0.1776084013932424,0.1775174819303481
264,0.17760728549161595,0.17761704830221992
265,0.1775951305036541,0.17752764554548753
266,0.17760143870953843,0.17757675545650292
267,0.1776011227060565,0.17751166864276968
268,0.17765799551892528,0.17755291199909953
269,0.1776009779706371,0.17755842684005882
270,0.17763520676574165,0.17762295840618267
271,0.17764363947103348,0.1774795452792906
272,0.17760058940290738,0.17752767544189776
273,0.17761818776361282,0.1775126369124618
274,0.17760384170342977,0.1776250940589521
275,0.1776134327625771,0.1775137442439771
276,0.17761126281522352,0.17762598441215416
277,0.17762572988331746,0.17753934893160236
278,0.17761935538453735,0.177591030557229
279,0.17766899097380306,0.17756207262613496
280,0.17757402540897008,0.17757282479597813
281,0.17761797572878435,0.17748799893031839
282,0.17760780579347213,0.17748418430361865
283,0.177604490791341,0.177475010516047
284,0.1776068900152743,0.17758851369582676
285,0.17761617453454687,0.17748835118341935
286,0.17762361757522768,0.17791052243798006
287,0.17761574148965015,0.17749378542638522
288,0.17761843599718538,0.1774781757484954
289,0.17761698745185142,0.17747923080245623
290,0.1776217513149686,0.17757638010483798
291,0.17763267807084784,0.17760463449413041
292,0.1776166563864044,0.17754046083813874
293,0.17759619093984721,0.1775414391281855
294,0.1776382609618177,0.17752548445371916
295,0.17761814945655094,0.1775509257342934
296,0.17761137534221777,0.17755769503662316
297,0.17759793356573172,0.17749434627222094
298,0.17763790818784447,0.17761841457522376
299,0.17762457571631904,0.17746866924280996
300,0.17763049273396567,0.1774991505853567
301,0.1776125516048629,0.17758419600498423
302,0.17761656978457188,0.17758996695303597
303,0.17759895060273956,0.17780495423826534
304,0.17763837226193777,0.17753369326467297
305,0.17761894563833872,0.17754777403873256
306,0.17759749957983442,0.17768579675582985
307,0.17761306065044624,0.1775397848640734
308,0.17762082920586178,0.17754594809960078
309,0.17762061210273267,0.1774958623213004
310,0.17762180152747462,0.17752046118642556
311,0.17761078161253727,0.17753287906381401
312,0.17758791065878338,0.17746530189792661
313,0.1776410803067789,0.17751075212138792
314,0.17758358518282572,0.1776071714197639
315,0.17763364648552155,0.1775458601392341
316,0.1776088143436076,0.17752015681227268
317,0.17759279660779317,0.17756166626076672
318,0.17760892747212753,0.17751250310779654
319,0.17763187393224497,0.17753148514074704
320,0.17761247398422586,0.1775532149384129
321,0.17762826243750482,0.17757102675389003
322,0.17761125213665357,0.17777496164674916
323,0.1775932576623466,0.17749331835084012
324,0.1776095929322578,0.17753284740325684
325,0.17762073646965834,0.17787005391851032
326,0.177605936894838,0.17775808488795772
327,0.17758979352948953,0.17757396312943574
328,0.17759509960548292,0.1775088738223748
329,0.17759828440410247,0.17753235895801173
330,0.17759431954577481,0.17749042569085569
331,0.177613252316781,0.17750275331448642
332,0.17759956612432604,0.1776653467526846
333,0.17763261054512217,0.1776426892254234
334,0.17760726419403303,0.17789300521152077
335,0.17759316196616035,0.17749514658336293
336,0.17760374879451107,0.17792435516121827
337,0.17759837610996979,0.17761559829104107
338,0.1776123830645109,0.17751123121665421
339,0.17761618717849778,0.17757882291911245
340,0.1775909397456286,0.17752141052094048
341,0.1776282942409424,0.1774843679042717
342,0.177595895959986,0.17753673758248975
343,0.17763173750502695,0.17752232992376224
344,0.17757521760311248,0.17750855292404555
345,0.17760736252263867,0.17754588471968152
346,0.17762597469831828,0.17751994717281075
347,0.1776013969303035,0.17757846567935612
348,0.17763113711091827,0.17749984949333233
349,0.1776013179160327,0.17770797350600467
350,0.17763522662800088,0.1777739126732148
351,0.17761490604788852,0.17761469260152155
352,0.17759177114346997,0.1775422961507713
353,0.17759000183009416,0.17766050922654233
354,0.17759588712172733,0.17752395318593203
355,0.17761180488516293,0.17756355990785827
356,0.17760429181736245,0.1775748261148382
357,0.1775941528755126,0.17761660332555554
358,0.1776304826509657,0.17758854430965673
359,0.17762318477451466,0.177711717919656
360,0.17760257179931485,0.17754749357465127
361,0.17758678649064544,0.1775085192876438
362,0.17760428900031638,0.1775264826198215
363,0.17763525808600786,0.17757788141740996
364,0.177627079123311,0.17751761597023297
365,0.17759967589978692,0.17751108474541388
366,0.17760692403423223,0.1775162881556325
367,0.17760753262933973,0.17784691767233418
368,0.17761363103973876,0.1775577769518463
369,0.17761557471814107,0.1777591480922774
370,0.17763708798076322,0.17780229246983306
371,0.17758975427547138,0.17774856792676139
372,0.17762142150617427,0.17756240869612797
373,0.17761899906096698,0.17759283988985755
374,0.17761129155743133,0.17760118643364384
375,0.17760759338939028,0.17757094456816436
376,0.17760702170175519,0.17756512547066197
377,0.1776132437584402,0.17760578699956847
378,0.17756595241604187,0.17763445946816486
379,0.1776011239448421,0.17752723787465055
380,0.17760876197513822,0.17761661220509514
381,0.17761773182500562,0.17752468529515317
382,0.17759690443865306,0.17754859531970127
383,0.17759444871895033,0.1777408025635446
384,0.17762412926514182,0.17759564116703025
385,0.17764730946265822,0.17778425539631304
386,0.17759051402624276,0.1776093844009744
387,0.17764232143295183,0.17746875569777124
388,0.17760075774672124,0.17767987185655473
389,0.17762017540103622,0.17750448615370346
390,0.1775953549680283,0.17762927050042923
391,0.17762182984087202,0.17799438109243584
392,0.17758638909656843,0.17767390836950542
393,0.17762010594566377,0.1775483489624609
394,0.17758062798723423,0.17757921688840816
395,0.17761453603811972,0.17762324038743033
396,0.17762148030084385,0.17759985152717264
397,0.17761856501551268,0.1774968043875299
398,0.1776024454729639,0.17751975685663832
399,0.17759011868688224,0.17762135717232772
400,0.17759755347296297,0.17751244866622182
401,0.17761579673472258,0.17751991955803056
402,0.1776153413499955,0.17757655861298682
403,0.17760699170885041,0.1775683618923201
404,0.17760139461949193,0.1775241133351917
405,0.1776280708485942,0.17765291215118312
406,0.1776034141556441,0.17786366518972047
407,0.17760439770375128,0.17748815178777066
408,0.17763725869494568,0.17757662897892795
409,0.17761806760736698,0.17749647199872354
410,0.1775901574465773,0.17761477709239923
411,0.17761809813628476,0.17756839782211287
412,0.1775956652540383,0.1775134756820072
413,0.17760890999810397,0.17757886437656564
414,0.17759049131120327,0.17755807800940293
415,0.1776087482293828,0.17754433685715215
416,0.17760496912933557,0.177663616559688
417,0.17761806956083653,0.17748784836625714
418,0.17760831666149968,0.1777697688331732
419,0.1776056764461249,0.17755706442465627
420,0.17760882427175936,0.1775883231797177
421,0.17759197008767003,0.17753369414674644
422,0.1775756857389931,0.1776785564380268
423,0.17759569852257803,0.17750519822221528
424,0.1776294345668942,0.1778364332059094
425,0.1776274338209753,0.177558497182478
426,0.17760259417487945,0.17751359998380092
427,0.17762305659594105,0.17762119124842707
428,0.17760091044491144,0.17754007425473822
429,0.1776066816312899,0.17758818629367576
430,0.17764274588972925,0.1775449205545713
431,0.17760990951939834,0.17759544441760197
432,0.1776232982841994,0.17748101335533417
433,0.17760679598668402,0.177650883711504
434,0.1776134749825338,0.1776763357651356
435,0.17760595162328388,0.17756141221184568
436,0.17761241814358342,0.17774790252581674
437,0.1776174951990922,0.17757203838631405
438,0.17760133833812772,0.17766551020677954
439,0.17759492021980142,0.1776067788265028
440,0.1776164690498635,0.17749897589952623
441,0.17761032672808896,0.17747658137129158
442,0.1776112560793269,0.17773795144334023
443,0.1776119205031654,0.17763624192695499
444,0.17760257880321795,0.1780657556787098
445,0.17761312412629596,0.17751036338572815
446,0.17758484869051894,0.17757715168390673
447,0.17759083449649962,0.17751073981940324
448,0.17760501695360592,0.17758128549183272
449,0.17758856399310866,0.17755337634609739
450,0.17762781047134948,0.1775108667086125
451,0.17758109676633044,0.17748101419036372
452,0.1776006955811255,0.17750051011931925
453,0.17759171690491082,0.17747465232365134
454,0.17759666824750572,0.17768962082659626
455,0.1775853376892164,0.17804614847912598
456,0.17759652004586898,0.17755127979858523
457,0.17762117672690766,0.17765419119300105
458,0.17758732077052936,0.17754604776214217
459,0.17760075980143772,0.17750237538716693
460,0.17761483395414102,0.17758276980978913
461,0.17759441860693154,0.17756437826034302
462,0.1776113929174882,0.17759909227361054
463,0.17762265325211984,0.17753332268796573
464,0.17759569802825495,0.17756333078045305
465,0.1776199889518946,0.1776262196905517
466,0.1776265156485861,0.17753030191563016
467,0.17757743097347417,0.17754620390090778
468,0.1776110116276238,0.1775686276198939
469,0.17760671211851778,0.177751091503683
470,0.1775796401688902,0.17755170880383925
471,0.17759582697511386,0.1775766626741346
472,0.17758963930664018,0.17753447198265634
473,0.17761081067635287,0.17756207581336045
474,0.17760736874634508,0.1777018709100883
475,0.17762434177642628,0.17752665879929638
476,0.1775775146570137,0.17758929952920283
477,0.17759168520272017,0.1774972287942409
478,0.17760394570186175,0.17761382981605575
479,0.17760175331343087,0.17752924310991683
480,0.17760343453009353,0.1774830443824288
481,0.1775772626653945,0.1776524750426141
482,0.1776033621564281,0.1776061353362632
483,0.17760831601232838,0.17752327060219614
484,0.17757446006190578,0.17749999930469088
485,0.17761618944166377,0.17752603866636235
486,0.1776059429160506,0.17749246667950005
487,0.17758128734277212,0.17759480222107016
488,0.17761592441897311,0.1778573415932358
489,0.17759495461396843,0.17746569586722233
490,0.1776337155775963,0.17750688760461258
491,0.1776076272296772,0.17752681460875455
492,0.17760072187554066,0.17755039941869388
493,0.1776034424928643,0.17757840836810238
494,0.17760536882231276,0.17763123058529473
495,0.17761272673221895,0.17773305176042062
496,0.1775882782743608,0.1775028031104742
497,0.17760761176272452,0.17755317877340054
498,0.17762996770923944,0.1776417861938853
499,0.1776320012234193,0.17749881352744143
500,0.17758521027297233,0.17748915682228514
