epoch,loss,val_loss
0,0.614111607539452,0.6086275230566266
1,0.6091397234717688,0.6080940052829961
2,0.6074127882620042,0.6068446063522074
3,0.6068066599971367,0.6066425163160187
4,0.606581955078891,0.6063350266321718
5,0.6063659923897736,0.6060904814055185
6,0.6061992145462148,0.6066111000240885
7,0.606017784817472,0.6058838890444848
8,0.6057835914323458,0.6053356945366777
9,0.605673872875979,0.6054445275597774
10,0.605632129481909,0.6053605243230872
11,0.605580214367191,0.6052885590356869
12,0.6054830780554468,0.605179531994292
13,0.6054555576338687,0.6051357891068565
14,0.6053784409581371,0.6054233016210513
15,0.6053973633625738,0.6051363934358356
16,0.6053195657538071,0.6056684782428127
17,0.6052505288130269,0.6052136684469787
18,0.6052282661433457,0.6053592630118945
19,0.6052138502361065,0.6052882497718849
20,0.6051610215794937,0.6060766046455421
21,0.6051387375475571,0.6051030107230762
22,0.6051013279801442,0.6048226298528628
23,0.6050711068144559,0.6050974540911597
24,0.6050293345855614,0.6047764112576658
25,0.6049844684187926,0.6048012662170543
26,0.6049967802578542,0.6047170234968882
27,0.6049798788209146,0.6047682260165439
28,0.6049445555564802,0.6055438576501889
29,0.6049013380705462,0.6051282164476646
30,0.6049123849771086,0.6047102578816284
31,0.6048887598063505,0.6053952800724701
32,0.6048720809483206,0.6049737084000637
33,0.6048677427878417,0.6047496237766654
34,0.6048544063469796,0.6050120719904936
35,0.6048471758888814,0.6048100784753747
36,0.604829571116187,0.6046423623342964
37,0.6048063193538048,0.604850420999172
38,0.6048138280607825,0.605239485244893
39,0.604792941687994,0.6046016907573634
40,0.6047686983725561,0.604628309807174
41,0.6047710369719675,0.6047535819096246
42,0.6047699202878891,0.6046826268839777
43,0.6047828015417708,0.6048807219891039
44,0.6047409348333496,0.6052441615620558
45,0.6047776492309568,0.604559351847722
46,0.6047145884712665,0.6052000281828509
47,0.6047724423505881,0.6045294695397465
48,0.604720739732767,0.604874510090641
49,0.604727848051079,0.6044825088593268
50,0.6047097982010259,0.6045459016972676
51,0.6047193595248643,0.6053088562068514
52,0.6047068081155345,0.6045078477256055
53,0.6047166823438401,0.60445123032364
54,0.604697661556755,0.6046959269727135
55,0.6046731042269686,0.6048236667666187
56,0.6047094697621657,0.6052358558988453
57,0.6046820199549071,0.6046106167821671
58,0.6046726058816217,0.6048307684751657
59,0.6046665875802634,0.6045276609602992
60,0.6046678432913614,0.605091547877262
61,0.6047004272955728,0.6045397743102043
62,0.6046811043589038,0.6053283209540412
63,0.604637689180011,0.6044456740762696
64,0.6046300992655405,0.6047346791617628
65,0.6046651100822392,0.6046970089079429
66,0.6046622477253816,0.6045928726716905
67,0.6046587376617198,0.6045789096254864
68,0.6046347193003531,0.6045436823634297
69,0.6046754571270458,0.6045586867900403
70,0.6046510022707707,0.6044601383635188
71,0.6046345696194204,0.6051964944112981
72,0.6046444221794053,0.6047209309880845
73,0.6046391050950093,0.6046850560025009
74,0.6046549026568621,0.6046346215397194
75,0.6046431005341053,0.6051098495795768
76,0.6046327462036818,0.6045766127612395
77,0.6046480213262202,0.6046511714275067
78,0.6046199056296684,0.60446975757703
79,0.6046271534206878,0.6046865272462811
80,0.6046460558953809,0.6047512257956985
81,0.6046240855772491,0.6044795263789724
82,0.6046100022123543,0.6045692766866376
83,0.6046208160620026,0.6043999277036776
84,0.6046096884583192,0.6046327384174905
85,0.6046222691694599,0.6052846417829357
86,0.6046299220166412,0.6048427274150233
87,0.6045966824804503,0.6044229960323267
88,0.604618072572083,0.6051526748808679
89,0.6046361374721887,0.604523562704659
90,0.6046113618002888,0.604493356283486
91,0.6046120235143146,0.6047033719921822
92,0.6046300554343036,0.6050648454105292
93,0.6046051415644427,0.6046703709857931
94,0.6046096492638143,0.6044462982537433
95,0.6045951354582673,0.6056695895810281
96,0.6046434167153647,0.6044549414892646
97,0.6046013527754491,0.6044667629095224
98,0.6045941153196563,0.6045065743160011
99,0.6045904529269658,0.6045130170012822
100,0.604603572698819,0.6044108705544294
101,0.604599361968008,0.6048953957652335
102,0.6046153667321429,0.6045600539401507
103,0.6045923584739151,0.6045687038312775
