epoch,loss,val_loss
0,0.42397465607867574,0.41508691478012216
1,0.4129528905394956,0.41159920451363025
2,0.411563088616428,0.41039773685760594
3,0.4109336309850526,0.4100482384856818
4,0.41045296529550995,0.4108776277259325
5,0.41010395680586,0.41053550996200616
6,0.40957741852392643,0.4101211219804163
7,0.40927882498833174,0.4083821433501563
8,0.4089187151243236,0.40815230715955164
9,0.40874885070896794,0.40972991109485957
10,0.4085840118499953,0.4133483215981618
11,0.4085456728560548,0.40873412633356326
12,0.4083921266208563,0.40800451917328845
13,0.4083946185436145,0.40794326411583287
14,0.4082487133389514,0.4087055962967222
15,0.4082265376939764,0.4081231026436496
16,0.40817512473227874,0.4077633104016704
17,0.40812585409376934,0.4085285915630331
18,0.40800522611293955,0.40775509306573987
19,0.4080203758161387,0.40788655017800723
20,0.4080241502287389,0.4075619941609669
21,0.407922487239995,0.40869453570091396
22,0.40791433631961255,0.4075580301710749
23,0.40785230382188553,0.4076873981627282
24,0.40784997222253516,0.4074182076282596
25,0.407782078483081,0.4075961102918715
26,0.40778079223013425,0.407422870856065
27,0.40774685862573595,0.40739376757931767
28,0.40773803115386437,0.407359957295671
29,0.4076828909522795,0.4072637017104525
30,0.40762876989025465,0.4072805880021221
31,0.40761129113759215,0.4079331333968539
32,0.40763592044597624,0.4073301204824566
33,0.4075974686168722,0.4081103440106063
34,0.4076231028954904,0.40739630181203706
35,0.4075612740755614,0.4077393584008844
36,0.4074912411157747,0.40735180107298913
37,0.40750338231986677,0.4072768162261168
38,0.40752129444210045,0.4071546426186195
39,0.40751675508626584,0.4072198284323103
40,0.4074450546391921,0.4074399224729751
41,0.40744964226776054,0.4078675675480892
42,0.4074438297263121,0.40715232172024163
43,0.40740918801532616,0.4077852232432543
44,0.40745637994569456,0.40753579247678184
45,0.4073927777418475,0.4070405832739089
46,0.4073902754030079,0.4071348024952796
47,0.4074212804603718,0.4075333080427818
48,0.40735094472861566,0.40721714644514895
49,0.40736470992953167,0.40723842230091617
50,0.40733022407363634,0.40735633450169717
51,0.4073761647407144,0.4074215873299402
52,0.4073301769675794,0.4071039806524518
53,0.40727840641390484,0.40706565276564793
54,0.40730583001865833,0.4071422492304156
55,0.40727405319154103,0.4075965805030047
56,0.40726531306109004,0.40795058585869765
57,0.407263820292536,0.4073095157631574
58,0.40723885486881045,0.40756250732294086
59,0.4072370215974527,0.4068523870212564
60,0.40721587719108404,0.40698123590526153
61,0.40720177638559285,0.4071681245237071
62,0.4071991181589262,0.40759006302350803
63,0.40716850618607353,0.4080099029517351
64,0.4071950928461189,0.4067612055661365
65,0.4071777718981358,0.40787271108875794
66,0.4071433055625822,0.4068334513059621
67,0.40712444048307694,0.40686818895209814
68,0.40715174102945384,0.4070634650681214
69,0.40714813952759243,0.4078073871194873
70,0.40708845690084255,0.40696944246812733
71,0.40711598864092147,0.4070351436771175
72,0.4071298183368224,0.4070096741391175
73,0.4070792139938025,0.40677396699453405
74,0.4071216426499965,0.40937074579612787
75,0.40709541208591554,0.4069084529989115
76,0.40708917761014335,0.4069818520664281
77,0.4070670529159737,0.4072357756328346
78,0.4070402948167486,0.4071624135704845
79,0.40705714110276714,0.40703758112254274
80,0.4070498285394896,0.40683049053767184
81,0.4070253679665768,0.40716134528664144
82,0.40703401169118275,0.4071627202016248
83,0.40701605996188706,0.40689132991558863
84,0.40702890922799795,0.4070246783142942
