epoch,loss,val_loss
0,0.42096422306227066,0.41242953136600274
1,0.41250537260677606,0.4121687177836747
2,0.4116463576722184,0.41137201053924655
3,0.41080701591048413,0.41052580307198516
4,0.41009396894567435,0.41067729025857325
5,0.40966618538622246,0.40904716299130367
6,0.4093571699535223,0.4122303062130145
7,0.4091033048947406,0.40893055928256317
8,0.40892165782490725,0.4088292459844064
9,0.4088671861263977,0.40871128189948297
10,0.40864747150667724,0.4081819660314555
11,0.40866299149843704,0.40801193013084736
12,0.4084697868425773,0.4079726476083618
13,0.40834207603481193,0.40789994480592145
14,0.4082886498459935,0.4075876147072605
15,0.4081780335239006,0.4075880768429257
16,0.40812023273192544,0.407788953281218
17,0.4080472928847481,0.4076657009775526
18,0.40801168010854566,0.4075834871077952
19,0.4079512430280039,0.40760483369046346
20,0.40790902651886146,0.4080377966831103
21,0.4077937320339975,0.40789121633427905
22,0.4077942711227134,0.40775003283846173
23,0.40775047022854205,0.40833425758494335
24,0.40765124813917875,0.4072490968568154
25,0.40763367282684965,0.4072740471836355
26,0.4076612127845459,0.40714257455641223
27,0.4076102612561646,0.4075099347542888
28,0.40753018992200324,0.40712681010402463
29,0.40748432332983375,0.40709773744306255
30,0.40752816363938194,0.4071396299982189
31,0.40748578831388793,0.407018611123485
32,0.40743042018237763,0.40715080921170727
33,0.40743975236780583,0.4079907035857217
34,0.40738132870843663,0.40747747342876406
35,0.4073626056972778,0.40712991714773344
36,0.40736064506764114,0.40761183809405815
37,0.40733747552679056,0.40741483350249735
38,0.40731258821953464,0.4078087044856684
39,0.40732139809738294,0.4069375215333981
40,0.40733907378809564,0.4071565001389525
41,0.40728854469336623,0.4068351516356835
42,0.40721275255556744,0.40711740886898845
43,0.40722963224924746,0.4069230821676941
44,0.4072343929072733,0.4080793609985938
45,0.40721875971551685,0.4075473533226894
46,0.40718331792136836,0.40699599509499507
47,0.40722837264094397,0.40698773732256355
48,0.4071260982283361,0.40847353216436305
49,0.4071379978021352,0.4068895104948995
50,0.40714513988426465,0.4080133220102296
51,0.4071674430732876,0.40737414277221073
52,0.407157879519432,0.4069800648884501
53,0.40714252010350493,0.4069250513838775
54,0.4071286205663362,0.40719815994018954
55,0.4071530907227223,0.4069147564932963
56,0.4071080540034166,0.40724559939528815
57,0.40706491197244604,0.4074652420084175
58,0.4071294239594217,0.4068033572166197
59,0.40711495538725356,0.4068462873067217
60,0.40707527299016033,0.40740787153208524
61,0.4070945153634148,0.40679708726648656
62,0.40704696038040644,0.4068442246458371
63,0.4071014223668636,0.4069931104816219
64,0.40707817480459707,0.4080862241998204
65,0.407045420656856,0.4068076864957218
66,0.40705272590887964,0.4068073976128628
67,0.4070740515970316,0.4069219211934518
68,0.4070722910824506,0.40674969225604246
69,0.40704606499930795,0.4070031610523205
70,0.40702161481802296,0.4070362482709861
71,0.4070336951924201,0.4068845775819594
72,0.40705372761928144,0.40678877428210997
73,0.40705063887071324,0.40802191815364447
74,0.40702639486820597,0.40688787627752604
75,0.4070093703015009,0.4074760296652394
76,0.40704461087189586,0.40673895213503397
77,0.40701329670827235,0.4070443018938117
78,0.4070295192658908,0.40677331057434934
79,0.4069626510902133,0.4079583611145209
80,0.40702267015296323,0.40668538282290284
81,0.4070317543174071,0.40721589878534264
82,0.4069799776617523,0.4067085375561016
83,0.40699175900953616,0.4072512565860086
84,0.4069723550669198,0.40701674727293163
85,0.4070045191207105,0.4077998436857985
86,0.4070267456080271,0.40709885383953825
87,0.4069661040628312,0.40665172770360564
88,0.4070008689635336,0.4080592310606102
89,0.406984667791441,0.40697959769452474
90,0.4069682245339016,0.40668843527585635
91,0.40697884581955185,0.40739358412124976
92,0.4069681597509943,0.407223313307348
93,0.4069377208048382,0.40672872011773936
94,0.40695889407166846,0.4068210374776542
95,0.40698193036287705,0.4071542291428256
96,0.40695558168637214,0.4069199899142197
97,0.4069437811826852,0.40676492650810603
98,0.40697576753123954,0.40672470212870143
99,0.40698793585169407,0.407354008411947
100,0.4069730419291818,0.40684985673752966
101,0.40694805676779244,0.4074693023566868
102,0.40695329231259886,0.40694925308819146
103,0.40696342084766596,0.40720666243183995
104,0.4069250449117194,0.4072075891879297
105,0.4069370912111064,0.4067186178847519
106,0.406958137159888,0.40689756169212665
107,0.4069428917095153,0.4069059787110123
