epoch,loss,val_loss
0,0.1812569982520142,0.1699892321975888
1,0.16819683677445502,0.16101531828603438
2,0.145949495386891,0.12724481622131528
3,0.1253158372003079,0.12581778765464244
4,0.12390476405895481,0.12218663380770174
5,0.12313361100604896,0.12406396591116121
6,0.12287644660218788,0.12218405829174052
7,0.12268215086061093,0.12270588906615898
8,0.12254731464516301,0.12095681537617525
9,0.12242599597921272,0.12119947531752788
10,0.12222110325755604,0.12267899264029179
11,0.12207264161385147,0.12122313980355157
12,0.12175663731429909,0.12072398421116562
13,0.12132142712336905,0.1203182148578445
14,0.12081609020691653,0.1204827120005345
15,0.1203704113505412,0.11887992565004761
16,0.12024190168111368,0.11858045827070478
17,0.12012125771901974,0.11984086145760108
18,0.11998490520703455,0.11985360347381596
19,0.11977858813632748,0.11884725093102042
20,0.11943523069833716,0.11857034708223035
21,0.11864206733469773,0.11886855349795103
22,0.11797223936011723,0.1161643176938109
23,0.11765139989436657,0.11775621707474919
24,0.11736142654375939,0.11662161808008
25,0.11711114340595484,0.11647623120333361
26,0.11696272023320253,0.11674857053434287
27,0.11665484906556318,0.1161174152758222
28,0.11638090067506397,0.11561636776471552
29,0.11620336816349251,0.11474899964282294
30,0.11612084034605862,0.11536856317342659
31,0.11617800054931916,0.11567102484312602
32,0.11598102629793698,0.11540240335922974
33,0.11568012142502923,0.11537029145299353
34,0.11499659319710791,0.11472762604579144
35,0.11448358411004356,0.11369721742333017
36,0.11414796137455253,0.11448978749161619
37,0.11377459947597188,0.1132976382601054
38,0.1137148109064445,0.11289824887407625
39,0.11340942880492076,0.11254896547820964
40,0.11328508087051084,0.11299933568567555
41,0.11308596911222944,0.11206296745216285
42,0.11291361845426995,0.1124932454034649
43,0.11268307613534652,0.11320489809175875
44,0.11241884729795194,0.11271857764969392
45,0.11219359179944034,0.11189157065401598
46,0.11199697316540103,0.11135111824602406
47,0.11177577837274012,0.1105860712288627
48,0.1115516157909145,0.11253303016533626
49,0.11145379297631801,0.11092262506189181
50,0.11123601338511192,0.10988719268117295
51,0.11127013766308153,0.11066383060539331
52,0.1111808315557831,0.11065184743913173
53,0.11115850430454308,0.10985000045142754
54,0.11101391002254012,0.10970797027384968
55,0.11079391705297009,0.11016780851274803
56,0.11074450947482842,0.11074618663148904
57,0.11055457625308907,0.10964031985616565
58,0.11044595554171065,0.1113745515717762
59,0.11032912421616735,0.11015618961886792
60,0.1102063209778834,0.10949180722976146
61,0.11016637429614122,0.10940271005884886
62,0.11025528741694025,0.1088620826971738
63,0.11016916671105684,0.1093397791975781
64,0.11006942234586391,0.10981359942527326
65,0.1099886941249107,0.10945167956369982
66,0.1099043037136014,0.10949634102822534
67,0.10983983160277676,0.10970444600132499
68,0.10975029282873837,0.10867853337718594
69,0.10974920408791149,0.10829395668086579
70,0.1096853100385483,0.11047829769311412
71,0.10974744356820308,0.1088234334222732
72,0.10974864387270115,0.10886876833054328
73,0.10972824816828526,0.10836838667209332
74,0.10968364267796682,0.10852269180507282
75,0.10959415421035985,0.10872276955961294
76,0.10956519581864115,0.11008344255295344
77,0.10940975358624426,0.10852664161482757
78,0.10958586434824992,0.11036086682572259
79,0.10944842847642916,0.10976962266725583
80,0.10948226904811022,0.11180437012360646
81,0.10936299494824041,0.10862687309237923
82,0.10927728396562073,0.1083722007037984
83,0.10936984096097475,0.10884985974423643
84,0.10922937209288967,0.1096235902263568
85,0.10924251755953839,0.10844458634445153
86,0.1092011295066229,0.108250530884964
87,0.10934624745328607,0.10805710162551468
88,0.10919400486292041,0.10971836450673807
89,0.10913917064156771,0.10881660562147277
90,0.10910782200428004,0.10921272204324566
91,0.1092155351690549,0.10778542084078635
92,0.10906003967655814,0.11083307050297929
93,0.10909991992920728,0.1074242770449991
94,0.10893566724666728,0.10825246626109107
95,0.10900326731939827,0.10906350429241474
96,0.1090667601883095,0.10831620621104394
97,0.10903289146492899,0.11070200864123943
98,0.10898787370402348,0.10922989455183446
99,0.10891449368866085,0.10831758069341295
100,0.10885475858363843,0.10759163592056956
101,0.10887978843983431,0.10831607709229732
102,0.10871627723644063,0.10750610778482617
103,0.1086210224776622,0.1076109547029358
104,0.10862228496543501,0.1083170295723023
105,0.10869211454377659,0.10897465312747151
106,0.10848225096308159,0.10797612427481942
107,0.10855731964833105,0.10723322159229377
108,0.10836529385435205,0.10803786167509799
109,0.10844086452558757,0.10776377156857521
110,0.10828475512639023,0.10822492249624309
111,0.10825428877397726,0.10702901851598441
112,0.10823958439464562,0.10831163302988332
113,0.10819744268721833,0.10763609002970584
114,0.10825639522412009,0.10698992967901395
115,0.10810352595917981,0.10931961141138455
116,0.10802293372845485,0.10722172891087922
117,0.1081192230796412,0.10807405864408531
118,0.10802952873537772,0.10871247831112693
119,0.10797387914711959,0.10760818527590844
120,0.10789357688992293,0.10918381539527003
121,0.10793966590915258,0.10852163791582543
122,0.10784313186475213,0.10675354393998683
123,0.10789108752740514,0.10724425428262715
124,0.10773688751694745,0.10890975329775372
125,0.10772019219262267,0.1065504680903023
126,0.10777780513325644,0.10781304913921924
127,0.10764823758580529,0.10760492541210231
128,0.10765025319814528,0.10620777972282902
129,0.10758719794713785,0.10690193852553001
130,0.10757697642451394,0.10623292073274665
131,0.10732725207611282,0.10654439330840525
132,0.10740717365824841,0.10635835616005858
133,0.10740218060158559,0.10676042551807967
134,0.10729952256399516,0.10676411014632611
135,0.10742275633650604,0.10776996195094461
136,0.10736436874433246,0.10696977472704634
137,0.1074305329633487,0.10699487538920442
138,0.10735046933820777,0.1058214015870473
139,0.10728923216424863,0.10610104265343166
140,0.10728487571242236,0.10687503612071055
141,0.10724664892135037,0.10709489889387458
142,0.10723204749114407,0.10719050211882769
143,0.1072191914338143,0.10645694584393915
144,0.10718207049320273,0.10603437302056376
145,0.1071092499075748,0.10665402912324475
146,0.10719415201899317,0.10631810843057135
147,0.10708999795587579,0.10616284230950453
148,0.10713316511151631,0.10718398160733301
149,0.107277059023068,0.10558630206227007
150,0.10719122669126517,0.10590909057604173
151,0.10711535219448161,0.10613151532840492
152,0.10716156241400308,0.10645367524981794
153,0.10718002795480505,0.10782255455666677
154,0.10716336746907607,0.10595745056423893
155,0.10697973212965889,0.10688461144789868
156,0.10712961366228084,0.10607731719096897
157,0.10709435190701819,0.10631999919935137
158,0.10700178913625877,0.1060996216964485
159,0.10709404590430444,0.1080532834932171
160,0.10700042203039743,0.10701599426142336
161,0.10707444704175618,0.10565646556263822
162,0.10703691634327105,0.10638668231351796
163,0.10697460466673475,0.10669788357711607
164,0.10689971511193691,0.10553612398450488
165,0.10686755809725436,0.105829951348287
166,0.10697034018566577,0.10672923052503216
167,0.10689653636561859,0.10575329865474559
168,0.1070485820778357,0.10625518868046423
169,0.10687198285213356,0.1079747007591257
170,0.10687949527853467,0.10736514727767585
171,0.10701108788700815,0.10726996871363141
172,0.10690084447820299,0.10925719185591336
173,0.10695500770329032,0.1061627634664623
174,0.10684891835854328,0.10608322060951228
175,0.10688707213287035,0.10670114672065668
176,0.10688373154440353,0.1058839701652231
177,0.10686363960696517,0.10579129619426822
178,0.1068630871607262,0.10600818473263354
179,0.10683745848288649,0.10688242661967763
180,0.10679344836358169,0.10644741072770088
181,0.1068541905178935,0.10696675611045166
182,0.10675606518878138,0.10693876224549177
183,0.10681477861263944,0.10595984333576103
184,0.10683370465939156,0.10613846085947146
