epoch,loss,val_loss
0,0.23275729939697504,0.21742431346151433
1,0.2159327042705715,0.2134177006725638
2,0.2140252900831806,0.21249110048669148
3,0.2133070577982535,0.2156822400634401
4,0.21320360079398817,0.2135750013456747
5,0.21286930270893656,0.21309841792133843
6,0.21248987857550883,0.21158227677972383
7,0.2122812637660974,0.211770092398298
8,0.2121594509943572,0.21141381246724142
9,0.2120179111282613,0.21105643149936762
10,0.21182811403514024,0.21137764732683859
11,0.21167957341060753,0.212811802996891
12,0.21159136081960306,0.21098849107846432
13,0.2114681045353169,0.21061384532203153
14,0.21139728442599415,0.21101202336937264
15,0.21137353048317992,0.2110988233654434
16,0.2112391215219128,0.2115029579208743
17,0.21128814470680257,0.21074693462541028
18,0.2112315711281276,0.21106480218044876
19,0.2110977130968731,0.21131212632206475
20,0.21114033281967207,0.21048474880513127
21,0.21103917705473324,0.21052691501660029
22,0.2109654038729198,0.21119778167373193
23,0.21097711972331526,0.21088159765410364
24,0.21091479341036823,0.21064607056583423
25,0.2109091271440868,0.21075683468328812
26,0.2107582134538737,0.21070355084486694
27,0.21078825338589718,0.21024608121024763
28,0.2107663668645867,0.21046790673626267
29,0.2106579748781739,0.21067329316813657
30,0.21069543784925346,0.21097800981613898
31,0.21073159140325007,0.2102482907381602
32,0.21062984205497942,0.21017459367700014
33,0.21062412655162177,0.21034000866466362
34,0.21057575506559822,0.21009659560087596
35,0.2105959550237847,0.21256098518004785
36,0.21061928780059389,0.2099758626953248
37,0.21055346135533165,0.21092413083347433
38,0.21055740133586368,0.2100639694677689
39,0.21049705089586868,0.2100637416685781
40,0.21044762205905454,0.21046550287206475
41,0.2104818600990608,0.21014905814497406
42,0.21043677031449576,0.21013191765354525
43,0.21040033404685224,0.21018359464392178
44,0.21035046662572116,0.20995313633908114
45,0.21041430041255688,0.2099630506991157
46,0.21037797234373942,0.2100939761172453
47,0.21033125453124132,0.21092104497677636
48,0.2103239394689562,0.2101152654025454
49,0.21029556668344593,0.2106188767009574
50,0.21025142975676012,0.2099298806847177
51,0.2102605223009256,0.20998337797580227
52,0.21023473916471408,0.21034532937015551
53,0.21020429418520578,0.2101825998009878
54,0.2102079806414938,0.2111196728039616
55,0.21023221326160516,0.21050735442869126
56,0.2102397184095874,0.21022877954223906
57,0.21022402576168311,0.2097240672735659
58,0.21022667490144378,0.21096414180458628
59,0.21015654624299648,0.20996918966693262
60,0.21017746804462145,0.2104128258547771
61,0.21020083348148025,0.20980156319904564
62,0.21017825909096857,0.20987294018268585
63,0.21013485408815635,0.21005458461291737
64,0.21015402167990938,0.21055641097407188
65,0.21003898246220523,0.21063625291174753
66,0.2101760846283574,0.21040677209350075
67,0.21014686257092405,0.20981393572562385
68,0.21004947716420586,0.21031701179503212
69,0.21016962384764581,0.20965388415764935
70,0.2100985901281925,0.20990531171669735
71,0.21005070470684178,0.20998806648011833
72,0.21007455592045116,0.20995104074034443
73,0.20998511496189373,0.20973665936856944
74,0.21001975791390357,0.21063796401615476
75,0.2100441073154886,0.21131760323461765
76,0.21001695937324427,0.21004164745434933
77,0.21010020524576942,0.209731142108257
78,0.20999770023620812,0.20971295459394715
79,0.21001467928871143,0.20983581658332578
80,0.21003182733621048,0.20985501529117376
81,0.21000005986775053,0.20992184824150786
82,0.20995709361767004,0.21002107459321506
83,0.2099933429509849,0.20959495442824683
84,0.20997150612387655,0.209557326385756
85,0.2099601202016488,0.20965465205922612
86,0.20993617280917973,0.2095876055970677
87,0.20999362176328493,0.21018259822582785
88,0.20994399778280745,0.20991900801362826
89,0.20998306276942258,0.2103161236932201
90,0.2099227329876539,0.20990656366567162
91,0.2099401711249348,0.20972744185043032
92,0.20990606593719835,0.2102672122104588
93,0.20989570832860216,0.20959257403615095
94,0.20988744618581523,0.20977843739554544
95,0.2098493159913368,0.2103016515597516
96,0.20994675610210478,0.209682917617095
97,0.20988273775570762,0.21031066817474128
98,0.2098794300597975,0.20950735187708
99,0.20989295011086645,0.2102056495309172
100,0.2098820918718854,0.20964405475272138
101,0.2098842889929939,0.20988268206640154
102,0.20987163643775067,0.2097143015775728
103,0.20991322900728432,0.20970189762914151
104,0.20981873965142991,0.20958428697166018
105,0.20992417209834152,0.21034625125286302
106,0.20982207327434688,0.20958218570826367
107,0.20985951466782088,0.20957283388740075
108,0.20985539858613458,0.20954719000951233
109,0.20982711921759942,0.20955853791301954
110,0.20988289710609587,0.2097501195541978
111,0.20983445102512877,0.21004701866849185
112,0.2098707474562179,0.21021176316306253
113,0.2098145058460147,0.20958208132618414
114,0.20981571340092822,0.20976247439165566
115,0.20986555919140504,0.20977952464786415
116,0.20980291017339256,0.20974981476444168
117,0.20984380596706625,0.2110059041169382
118,0.20979935481955628,0.20980944642358026
