epoch,loss,val_loss
0,0.14757366205686087,0.12723924444789625
1,0.12451680643941936,0.12023224998496602
2,0.12138330709919878,0.12101196126813628
3,0.11960582790360115,0.12086744438625743
4,0.11880330046763407,0.1177443611636647
5,0.11841947720697367,0.11851662617019625
6,0.11728028121906894,0.11800678511411321
7,0.11640023082280569,0.11551057924112079
8,0.11599589818630934,0.1151729375715587
9,0.11545698446525485,0.11644853352391099
10,0.1148976436254917,0.11425612744119563
11,0.11406441784600302,0.11296629923448966
12,0.11341477435211023,0.11487198128889571
13,0.1128666097033095,0.11201604517458687
14,0.1120935888315277,0.1113673348691564
15,0.11195732752661555,0.1103055930499995
16,0.11164468234332867,0.11249307631410972
17,0.11142341927167411,0.11089313228432061
18,0.1113430640713879,0.11107619695420892
19,0.11108797051913653,0.11062190052001707
20,0.11114365010909337,0.10969855035874743
21,0.11090590279150066,0.1124715240473487
22,0.11066252112361397,0.11012954767007686
23,0.11063077468343933,0.11144259576096428
24,0.11055501566587277,0.10925330040842368
25,0.11021377532582502,0.11036594448698957
26,0.11020738840358729,0.10871957575269135
27,0.10990327888866101,0.1103384091636679
28,0.10983881118137098,0.10988298839064449
29,0.10974499318760102,0.10964703432679472
30,0.10972947980148821,0.10830746366279592
31,0.10950743444332464,0.10790339500525453
32,0.1094035504427267,0.10819373051670586
33,0.10933332679033819,0.10826824648726371
34,0.10933934579631735,0.10836994865396182
35,0.10919317787430828,0.10859279763461935
36,0.10915740253265122,0.10758167050834329
37,0.10891441446467644,0.10816387496796198
38,0.10896024942878073,0.1104820951190835
39,0.10889009408289625,0.10764217172603749
40,0.10878926692286592,0.11059458166286903
41,0.10859333955728553,0.1092859959668912
42,0.10863397307979415,0.10812543250860707
43,0.10862844908843357,0.10876356239058539
44,0.10850574700000722,0.10779288276919065
45,0.10840863662542591,0.10876212892476146
46,0.1083674610168516,0.10765528159756814
47,0.10838725266712926,0.10796327954412394
48,0.10818712516775679,0.1093227824413451
49,0.10831933369039992,0.10864713534749768
50,0.10828904264853821,0.10723085428585781
51,0.10820171522478654,0.10741190601223456
52,0.10818568661624973,0.10790823551250746
53,0.10799983198708897,0.10771918710940528
54,0.1080255006410637,0.10816135606162305
55,0.10791648972183306,0.10679009465440627
56,0.10781617229230647,0.10678595450912456
57,0.10781252721330947,0.1079564975893527
58,0.10782889672231795,0.10702605226421474
59,0.10765823671637327,0.1065402214454658
60,0.10774450559682335,0.10784392081774198
61,0.10749779874874893,0.10638852535051388
62,0.1074989631919355,0.10703905093167024
63,0.10742792387052037,0.10769233861868789
64,0.10741047945959048,0.10674129390982777
65,0.10729188014541793,0.10648616209958978
66,0.10735679976112138,0.10682931098319756
67,0.10726956664779135,0.10786363797507274
68,0.1070917455381121,0.10698948636022454
69,0.10725786420777045,0.1057171114916837
70,0.1071057017878844,0.10642749668276931
71,0.10702074205306178,0.1083616241184121
72,0.10704108149273134,0.10615833884581147
73,0.10699065925651034,0.10861540126889278
74,0.10695184353841126,0.10661793361526566
75,0.10675397755258463,0.10663622410658276
76,0.1069270251914994,0.10721976791806612
77,0.10685712137215159,0.10548667537958983
78,0.10673982459825529,0.10928015472279588
79,0.10681042289412755,0.10656445191308819
80,0.10673115189481425,0.10639194244930229
81,0.10667177921131993,0.10677380034186999
82,0.10661785516208673,0.10589499043175955
83,0.10666147086632431,0.106845628775231
84,0.10661307996428158,0.10585799041590087
85,0.10669300992860384,0.10638071334835318
86,0.10666136160267883,0.10634931267491049
87,0.10658569919891211,0.10600951577238646
88,0.10653724671374498,0.10569558718955842
89,0.1065123051368864,0.10654178895888199
90,0.106595320678589,0.10526257801070699
91,0.10657143773298636,0.1055073924750903
92,0.10650879113771167,0.10557496624238438
93,0.10654848730611763,0.10554193992250906
94,0.1064450247473188,0.10637318759269217
95,0.1065095271499337,0.1059891641324862
96,0.1065103502638219,0.1061518456149042
97,0.10646286096199886,0.10650934665359871
98,0.10646874908994788,0.10573709084289541
99,0.10641274719811539,0.10679423083590514
100,0.10639653234379831,0.10538552891897504
101,0.10640409221633992,0.10827724733956103
102,0.10635406208441263,0.10567019379168527
103,0.1063432654146529,0.1056608283083433
104,0.10636682473324718,0.10558751591899555
105,0.10631908456582685,0.10689471495284632
106,0.10630817045749959,0.1060252538168105
107,0.10631549026290985,0.10602118252376765
108,0.10639679285045339,0.10608541617174598
109,0.10636409328222587,0.10603475991830637
110,0.10633775277630443,0.10573775445852919
