epoch,loss,val_loss
0,0.3186260376998084,0.30212025235582735
1,0.3178896620202598,0.3296902236523549
2,0.32706047889354417,0.32655975066166554
3,0.325893372416401,0.3262115716934204
4,0.325303383993445,0.32677927206328466
5,0.3238816123953064,0.3225406421129404
6,0.3226000584012789,0.32250658375076546
7,0.3221537961567239,0.32332710584224256
8,0.32145029093197686,0.32123236829781027
9,0.3205765478795381,0.3193513871932839
10,0.323126859272079,0.31206289466526344
11,0.3217753515117984,0.3257192075252533
12,0.32325150936151104,0.32284490519512704
13,0.32145104734160057,0.32219675452622637
14,0.3204998649138627,0.3200705608892554
15,0.319689526951475,0.3185307906430447
16,0.3189220371172964,0.31684900868475296
17,0.31874488018375696,0.3200786884788838
18,0.3189027183990684,0.3193098306538274
19,0.3185227397177145,0.31956738260616535
20,0.32041307005712644,0.32044192399438576
21,0.32578352017463635,0.32671484793370975
22,0.3245735841212894,0.3231931657492879
23,0.32311688147360185,0.31993518476892663
24,0.32149164283947407,0.3187284387748074
25,0.32140821702093436,0.32187793618501787
