epoch,loss,val_loss
0,0.06426395413828005,0.04898009179321767
1,0.04162436816495019,0.03167229264826692
2,0.016944626061180055,0.01342185017359316
3,0.012369771022442036,0.013180506566802858
4,0.011433953523613285,0.010905803059673782
5,0.010959171333360877,0.01023750474477746
6,0.01061690890291952,0.012846732152528857
7,0.010491761949118775,0.010073842133208185
8,0.010308999020641628,0.010745004046865491
9,0.010084293507619533,0.009980190146446376
10,0.01004342734630041,0.009965997983796278
11,0.009849012815657457,0.009769813979862641
12,0.009803960897346245,0.010596333177432086
13,0.009485814158894481,0.010395037888020054
14,0.009483566661567898,0.009929113744968368
15,0.00937002983029764,0.009605429185180007
16,0.009216584229161686,0.009757459232070605
17,0.009205568524789723,0.00875409995956767
18,0.008985285067202902,0.009149971280348656
19,0.009008573372431671,0.009497893184294032
20,0.00897184126341368,0.010274722509400425
21,0.00886611721130739,0.00881518120496134
22,0.008785283872444418,0.0086913463883749
23,0.00875070928524411,0.008734081104564164
24,0.008625838901185035,0.009163678384781179
25,0.008538657481490037,0.008638201624607995
26,0.008536325309339463,0.008170802603769243
27,0.008401278584009686,0.007936587890901282
28,0.008360361931013948,0.008277543202948481
29,0.008331021738551736,0.008728487979592964
30,0.008234968464850419,0.008555201846394439
31,0.008158687374065957,0.008577335965600114
32,0.008217264932379918,0.008486351376819995
33,0.008069847745305454,0.007599668575464644
34,0.007944202116211966,0.008020075870026134
35,0.007883704192035185,0.008197636117987687
36,0.007855867028451936,0.007959558654844613
37,0.007838624146626094,0.007613388459353012
38,0.007768620330847695,0.007461765628520667
39,0.007708476366537912,0.007929719242939804
40,0.007674651851885483,0.00797418864818276
41,0.0076658291377076785,0.0077716331164035994
42,0.007602119515697119,0.007618159334875514
43,0.00759223975477882,0.007399552736070849
44,0.007549198637350222,0.007321061352013655
45,0.007512174945113795,0.007614821763639858
46,0.00748182050211294,0.007438877322676386
47,0.0074297703497999325,0.00754081435367539
48,0.007342670994388404,0.007098776688822372
49,0.007296899136296748,0.007372195316621891
50,0.007223825679703947,0.006920066639947388
51,0.0071883451388214436,0.007797312094522617
52,0.007192302665141193,0.007035156546008055
53,0.007122247593336341,0.007012911793537826
54,0.00708274623357591,0.007083545889123054
55,0.0071176729858064775,0.0072415528902160025
56,0.007067572593564872,0.007400814025078163
57,0.007014909995263823,0.007042119662201138
58,0.006970491484705596,0.007383236473440089
59,0.006941942765321911,0.007235281602953267
60,0.006918321614435208,0.00714335475491346
61,0.006901072413408642,0.007247731749606192
62,0.006880955986799981,0.006962805724802147
63,0.006850580636321584,0.006818763963489911
64,0.006896497054661696,0.007351179851251412
65,0.0067632165132086135,0.007283438088155118
66,0.006836774818575756,0.006714428019092855
67,0.006808669887359077,0.00705644754073571
68,0.006780870831454243,0.006341792672881787
69,0.006747759930463882,0.006938834359901715
70,0.006786745288468886,0.006722943162171184
71,0.006739467171228452,0.006942942165642533
72,0.006775777786606538,0.006667740485416009
73,0.006702196286363553,0.006672328962683308
74,0.00672578996530806,0.0064498689041817305
75,0.006690977429984534,0.0071584276159388695
76,0.006697754746502906,0.006223749741218596
77,0.006687795370002473,0.0076757063506813555
78,0.006615505646974639,0.006821548735616595
79,0.006685077416915663,0.006871182930011016
80,0.006650702134323979,0.007154983552011012
81,0.006603596137761612,0.006748890870068194
82,0.00658051645271521,0.006624154372154631
83,0.006613030601121032,0.006415402676179894
84,0.00656631372220105,0.006241410126257919
85,0.006593755511668435,0.00664093146128372
86,0.00657498238218905,0.0062532548617026205
87,0.006524544340020948,0.0063040418175994315
88,0.006510771877165253,0.006746375030391935
89,0.006506211180761775,0.006596372539533427
90,0.006509300358957804,0.006470502530763078
91,0.00650146762210854,0.006500603865702676
92,0.006450174804868608,0.006463054842119181
93,0.006459854181389621,0.006183908234764048
94,0.006446251932725252,0.006722910793049829
95,0.006448505853744558,0.006771195325399599
96,0.006415066317272454,0.0062576567194893695
97,0.006418096930542364,0.0061917365540198
98,0.006382158495599867,0.006364580560429369
99,0.006398074921149102,0.0062267088305861425
100,0.006343039969029594,0.006441799940416594
101,0.006308796820331789,0.007260026032839978
102,0.006251692316147662,0.006460166312338179
103,0.006235380784819718,0.006428486898439768
104,0.006254882644860704,0.006599713412920018
105,0.006185854946188529,0.005988081793067399
106,0.0062113427823280686,0.006344338144792738
107,0.006181209821266488,0.006430664968216981
108,0.006168301195565202,0.006701582617521582
109,0.006121178517881707,0.0064325578217267546
110,0.006156118766931317,0.006073428319753251
111,0.006102500329313343,0.006034794167405174
112,0.006120331973590828,0.006083320207413166
113,0.006071846517643576,0.006422960281686363
114,0.006073072826225622,0.0063220524279950716
115,0.006064247833154071,0.006167945184423669
116,0.006068176126198511,0.0061344018714414635
117,0.006056144864316731,0.007034864361922513
118,0.006073084738547723,0.0060627295582488215
119,0.006048167520684313,0.006194020720619348
120,0.006019002202421959,0.006197588266596827
121,0.006008447615533021,0.006590485952739088
122,0.006033447708182349,0.006112110487904132
123,0.006015034260180971,0.006239142461862443
124,0.0060087591797626455,0.006580104249952449
125,0.006005442602155847,0.005842971451645231
126,0.005991791888428422,0.005931607312372615
127,0.005979124158577942,0.006073735096253843
128,0.005983283941184207,0.006138933869656499
129,0.0059766995116335275,0.005931994067990306
130,0.0059640085462825555,0.005734674232750761
131,0.005965345040970661,0.00604756169076593
132,0.005995764018280802,0.005812852673241799
133,0.0059309441175072345,0.005951007493487362
134,0.005951776846640496,0.006435983710998563
135,0.005946612290846893,0.006041637186432447
136,0.005950054409053711,0.006106474179145937
137,0.005940968480506533,0.00623713171932264
138,0.005917157921880433,0.005844020644530987
139,0.005927256009955352,0.006546622834332454
140,0.005945390663935339,0.005795071226436062
141,0.005914781924661899,0.006024458529959172
142,0.00592546430232941,0.006353500671222547
143,0.005913632908187122,0.005855826813515008
144,0.005907196309163089,0.005981710562875342
145,0.005908566920250152,0.006112389477251777
146,0.005904175423241385,0.0063269101797369665
147,0.005916621602136287,0.0059169889039477844
148,0.005892959569136188,0.005852966855924863
149,0.005911166450885015,0.005931196839920714
150,0.005880272436380795,0.005878907975465725
