epoch,loss,val_loss
0,0.7057712383410423,0.7004253871091838
1,0.7005114847919476,0.700154769243141
2,0.7002217660283331,0.7004422367654427
3,0.7001752690248114,0.700089596163842
4,0.7001346666209822,0.7001746620788764
5,0.7001312917017277,0.7004363004090473
6,0.7000936605232972,0.7000247881962702
7,0.7000901926477433,0.7000851422030636
8,0.7000834728856745,0.7000422185171331
9,0.7000754238818906,0.700260075623581
10,0.7000757605553279,0.7000188788172624
11,0.7000626814933185,0.7000506866066982
12,0.7000570094449267,0.70002655403194
13,0.7000641285757063,0.7000300915306319
14,0.7000578454876099,0.7000215825312782
15,0.7000577098517626,0.7000660315045056
16,0.7000466584015501,0.7000165081793263
17,0.7000545792065588,0.7000546866256013
18,0.7000451971786287,0.7000659554531201
19,0.6934435940163038,0.6500254093269556
20,0.6500378464493204,0.6500245258175114
21,0.6500477072856903,0.6504263252241735
22,0.6500523449176815,0.6501416058753323
23,0.6500484095912357,0.6501170352729911
24,0.6500465085358739,0.6500161313833137
25,0.6500421147417113,0.6500176422057613
26,0.6500427002431042,0.6500160977503207
27,0.6500405420763024,0.6500857026050464
28,0.6500416367504974,0.6501545757572941
29,0.6500385500083137,0.6500321683457708
30,0.6500388318952687,0.6500142289154582
31,0.6500375305749152,0.6500247115532755
32,0.6500393993711492,0.650020903363713
33,0.6500397878067018,0.6500257172004756
34,0.6500352585762654,0.6500124934589301
35,0.6500389670286324,0.6500260324986934
36,0.6500364363393085,0.6500269711461316
37,0.6500357181270433,0.6501447276205342
38,0.6500340527443498,0.6500128801643996
39,0.6500361448720355,0.6500238026342084
40,0.6500336134672445,0.6500370901808253
41,0.6500356118545356,0.6500197972612405
42,0.6500340640600898,0.6500324161117781
43,0.6500332103523888,0.6500228086712935
44,0.6500349172376984,0.6500886882505109
45,0.6500315267390876,0.6500158300766579
46,0.650033178690404,0.650018043050695
47,0.6500313934365941,0.6500304438340161
48,0.6500307497125835,0.6500208377246526
49,0.650029452629026,0.6500139647618712
50,0.6500322972869461,0.6500180574859639
51,0.6500291625224816,0.6500960967085202
52,0.6500298082714142,0.6500257185611772
53,0.6500308455149749,0.6500264957288359
54,0.6500295583603976,0.6500125048178301
