epoch,loss,val_loss
0,0.052786167733501116,0.02080086488970012
1,0.016832391811852192,0.011791706999426443
2,0.012471947783164468,0.013476274144967496
3,0.011580999316695349,0.012112796515984363
4,0.0108773650891795,0.009300450105728494
5,0.010594316320637655,0.009874221282287803
6,0.00906182823208714,0.009383959897213775
7,0.00866285019041743,0.010986576349042338
8,0.008369190728381869,0.008122860960588413
9,0.008160133723798804,0.010878543872339998
10,0.007893402717014726,0.007246493933163121
11,0.007709389387004989,0.008185363268807862
12,0.0074605147159661446,0.007689260784767698
13,0.0072829724343819735,0.007859074283234091
14,0.006883768749568852,0.007327414599591612
15,0.0066607989128332195,0.005873514253590672
16,0.0065097630575421134,0.007483499336331417
17,0.006380225111816811,0.006454850870320948
18,0.006307375307050841,0.0056779287431952975
19,0.006175637046251783,0.006526443423014642
20,0.006093863055448286,0.005635214639508695
21,0.006062990382856393,0.006490754720895891
22,0.0059669780613108665,0.005608325559766062
23,0.005890323624683485,0.005843231543001925
24,0.005864911249956687,0.005983396070470881
25,0.005785423945311891,0.005959576757499953
26,0.005778976168475706,0.005985168949989764
27,0.00570967939371371,0.005860413573266333
28,0.0056243962057269,0.006481198791331304
29,0.0056365885489878895,0.005755091505240713
30,0.005584741661632271,0.005570848196486089
31,0.005592045616458848,0.005730620832887314
32,0.005739479927020645,0.005596732882731975
33,0.005468149425782128,0.005659515287486776
34,0.0054962768091621214,0.005887251908407909
35,0.005416997683193186,0.005417128500503213
36,0.005387039293452264,0.005709145191557724
37,0.005403255700066062,0.005439661060998369
38,0.005347455408393769,0.005308165686856724
39,0.0053052169358533624,0.005307420419653873
40,0.005315337015724084,0.00561347753664585
41,0.005300724030621118,0.005589529156000827
42,0.005218243922913412,0.00509039539816066
43,0.00521015547370327,0.0049421630092612275
44,0.005224218724028503,0.0059297346140237215
45,0.005191672621389392,0.004921197798796386
46,0.005193158523721232,0.005164177428524266
47,0.00516092071595488,0.005375130946006136
48,0.005154460785402852,0.005932614014763616
49,0.005109764274002276,0.0050711922865203825
50,0.005087808442570287,0.005046591076944439
51,0.005103274251073279,0.005215007023049273
52,0.005026233081729939,0.004712026992179546
53,0.005101583752023336,0.005228090577206526
54,0.005019258668129312,0.00502045481366385
55,0.005057424826017041,0.005502882547140417
56,0.0050232899752418346,0.005630684196810347
57,0.0050260109653910215,0.004944034895764908
58,0.004956179263625709,0.005047927113485617
59,0.0049983034109893285,0.004944057200593925
60,0.004948199074687028,0.004895775072812738
61,0.00494471626556212,0.005519847522394977
62,0.004918216570900573,0.005100740189375194
63,0.004943469842502856,0.004773436266716302
64,0.004925893683070952,0.004687602733430584
65,0.0048834838407860745,0.005411680473047066
66,0.0048515541287164525,0.004710004711177006
67,0.004868011326615105,0.004870263620212711
68,0.004884798024865465,0.004913506342592665
69,0.004864943582544181,0.0056597636538851205
70,0.004867675273523317,0.004478538969286692
71,0.004840342440563768,0.005840924206113549
72,0.0048510360995155,0.005298079772119782
73,0.004816970478561539,0.0048967064392958625
74,0.004836032180086567,0.004557855607983345
75,0.004749368039919201,0.0049418435323401065
76,0.0047941626231021,0.004706657128801417
77,0.004780254496703936,0.004986207373209168
78,0.004773333047087558,0.004693121569365189
79,0.004772254217658514,0.004988783729209498
80,0.004946336667381813,0.004462000930325935
81,0.0046601291340998075,0.0046286973085430064
82,0.00459848214562554,0.004396781560135243
83,0.004610897102997588,0.004635112908976176
84,0.004586430872110015,0.0047186159854639255
85,0.004600460100757298,0.004525235110417785
86,0.004544955144139655,0.004401266012484064
87,0.004525177799781472,0.004470072799216651
88,0.004557836200090216,0.0053537402858971515
89,0.004532963815947149,0.004355755084362944
90,0.004539956709409729,0.004920274567635494
91,0.004505106529117134,0.004543973238117272
92,0.004485879728846645,0.004644827992555965
93,0.00449140179890532,0.0051071383220793
94,0.004484538067956511,0.004712730956497249
95,0.004468110904730197,0.00445991465660094
96,0.0044843724686502795,0.004682982211502699
97,0.004429068693981414,0.00487129454068821
98,0.004411424019831806,0.0043463228875886715
99,0.0044295729734607,0.004341779901847132
100,0.004458197183465337,0.004577897291944799
101,0.0044502100989390544,0.004410867448017999
102,0.004412404422277834,0.004530071220118044
103,0.004404146503271316,0.00438888015193176
104,0.004393136834072637,0.005242493914592798
105,0.004401852117320865,0.004424119449310726
106,0.004365339994781102,0.004437425648262054
107,0.004364505999353512,0.004258620360445592
108,0.00436404579769074,0.004453428397440437
109,0.004368330638759705,0.004212636782998039
110,0.004367435895847888,0.004512187503463133
111,0.004371030109165118,0.0048152405703925615
112,0.004320006743663606,0.004749853574848796
113,0.004359951795036624,0.004618152689013085
114,0.004338354557371802,0.004571375427605866
115,0.0043485281578652165,0.004570638429761746
116,0.00430456163588506,0.004477133214122456
117,0.0043218058191571975,0.0046607601291109475
118,0.004294458983255979,0.004982175628559909
119,0.004305566964903523,0.004244912644991508
120,0.004325431433723768,0.004306767831923944
121,0.004303213827897402,0.004236082890285896
122,0.004254384748323501,0.004419119584561319
123,0.004293448075894342,0.004164811569351527
124,0.00426620171260169,0.004314535961165174
125,0.004298160409641388,0.004420170581971223
126,0.004263935657987822,0.004424235904265759
127,0.004280658182475752,0.004461876784795641
128,0.004257916625530538,0.004256592668990418
129,0.004266490719279325,0.004394676048475001
130,0.0042786925957073755,0.0041635611658412085
131,0.004259947174316374,0.004659331079211927
132,0.004236377385331656,0.004499398861727481
133,0.004246544438344871,0.004495237701602521
134,0.004227464934043614,0.0044000817906508964
135,0.0042248641567613635,0.004177851510689439
136,0.004236404419344805,0.004229969817627378
137,0.0042319415698429145,0.00418467842592458
138,0.0042189473059581605,0.004159356133027867
139,0.004266183148375182,0.0042560737219548995
140,0.0042272789875096375,0.0046577151564340434
141,0.004200367879646351,0.0042196697225013085
142,0.00419802556647807,0.0041045795140496775
143,0.004204125116295984,0.004037927256587422
144,0.0042129682649040216,0.004161632071288474
145,0.004200681499103044,0.004214842277567455
146,0.004185244499569005,0.004414381003400158
147,0.004190320722992017,0.004670220623416803
148,0.0041847866071020754,0.004530266493272323
149,0.0041790081997395735,0.004101400411509846
150,0.004168760841196906,0.004267427540631507
151,0.0041520333808663405,0.004183789618341044
152,0.0041612473753513774,0.004061065624160669
153,0.004159401774073301,0.004641358347993261
154,0.004147712030861033,0.004438541693007458
155,0.004168551342398627,0.004415759313666717
156,0.004145581633679295,0.004187199412371325
157,0.00414594467553446,0.004363019864257453
158,0.004176243010562415,0.004566944897100884
159,0.0041404817825756975,0.004706831103555914
160,0.0041241391950552694,0.004437142841416242
161,0.004135579398684238,0.004350817981164524
162,0.004126750051980698,0.00497415611571251
163,0.004122728365444177,0.004100676019682963
