epoch,loss,val_loss
0,0.04332799309670219,0.017639136041697142
1,0.01378502775847362,0.015134313929058778
2,0.012124456089601858,0.013406904958761656
3,0.010957836874286983,0.010260479111529462
4,0.010705522498935614,0.009636853873803657
5,0.00984600978627247,0.009183388639694407
6,0.009467307494791835,0.009069291880774882
7,0.009001395988442426,0.009380130437445403
8,0.0086975461723742,0.008030032790346862
9,0.00844126379779517,0.0077187650989528475
10,0.008237939307642921,0.007679780258360335
11,0.007807418217566268,0.008983149444661276
12,0.007710257473478106,0.006785469598809336
13,0.007426108247102364,0.008237301347957504
14,0.0072512568149808495,0.008057296020960985
15,0.007269503133293896,0.008102103724391673
16,0.006971801152075101,0.008553546719327015
17,0.006866680567810521,0.007460965318304877
18,0.0066255395351109735,0.006392384942380651
19,0.006500477711750278,0.006425824952970441
20,0.006347154582675873,0.00727881185904552
21,0.006294871266463964,0.007091466482571573
22,0.006122055995403398,0.0062713138793800815
23,0.00601371948525388,0.006932080577291715
24,0.006006277624757877,0.006309903569741373
25,0.005833330867073916,0.005529674950515662
26,0.005757609399552033,0.005341183055867037
27,0.005530449220575737,0.005560344167599089
28,0.005516997436341412,0.005414729865577544
29,0.005418462099642316,0.005828057484650435
30,0.005330690097434924,0.005934492109468202
31,0.005297193774197122,0.005186212934535135
32,0.005252083909844787,0.005423259782020197
33,0.005155838688257217,0.0050968405788316025
34,0.005261378967048035,0.005534070229421257
35,0.005112679403655023,0.006238043686102327
36,0.005161622307977438,0.0050027477363166085
37,0.005103200794285512,0.005142084337660012
38,0.005049363832008066,0.005182848824534759
39,0.005012890828279598,0.005352913341704507
40,0.005021374890682162,0.006573209779397134
41,0.004969299950411701,0.0047327983327136
42,0.004973539201317254,0.0050260537130661104
43,0.004951719438423203,0.004575918712387458
44,0.004937430976788676,0.005031732198257674
45,0.004863791638296703,0.004753957828391279
46,0.004872199595670535,0.004639205830657009
47,0.004832822702446629,0.0046292583571363325
48,0.004765738866923952,0.005327111172718608
49,0.004782746804539684,0.004606730326150472
50,0.0047791576168097006,0.004774634097991673
51,0.004783674237667628,0.004571678529426492
52,0.00477361332488856,0.004266718231723933
53,0.004732953921223747,0.004681106882571952
54,0.0047081303973312396,0.0047142389738844435
55,0.0047450430876129985,0.004853970550287228
56,0.004631410912824301,0.004925579980256096
57,0.0046632543399730475,0.005179753195420462
58,0.004636299248511994,0.004499400610326057
59,0.004619598461607666,0.00464037806465852
60,0.004585773721935841,0.0054399226614211685
61,0.0045998070628244505,0.004647285250886794
62,0.004614356263075757,0.004473348720826523
63,0.004560522152405956,0.004512980466629968
64,0.0046001715738227655,0.004379778522905655
65,0.004551557964876909,0.004393493197511688
66,0.0045204680856588,0.004822592553509302
67,0.0045100486380004355,0.005249368852794762
68,0.004559449601026073,0.004556995918442756
69,0.004477398809116992,0.004401801314861248
70,0.004504125957846472,0.004321503024270975
71,0.004486935842267844,0.004755805982346126
72,0.004484350051783944,0.004494027955868922
