epoch,loss,val_loss
0,0.040666903754865674,0.013874522479200185
1,0.017808026946914746,0.013491690481918178
2,0.011952245706230553,0.010772837834344904
3,0.011355846226678306,0.010152834618727563
4,0.010608494087544515,0.009457999176666992
5,0.010194450763570912,0.010105948224571296
6,0.009722016660206674,0.010767521733700046
7,0.009224027116952303,0.00964145169757473
8,0.008816998065742827,0.00826779676753815
9,0.00856059735356634,0.009127229764576882
10,0.008142340307348122,0.008765846711326918
11,0.007982957405575012,0.008020896000311556
12,0.007938831120969941,0.007814671189082837
13,0.007697162277954584,0.007362989949815844
14,0.007613341870935778,0.007263331492858992
15,0.00738674837148718,0.007878555785217518
16,0.007287835762053805,0.007085408170756054
17,0.0072453138556725465,0.0068948148451653075
18,0.007060951612693743,0.007034346061035362
19,0.007011199722608126,0.006689418145402267
20,0.0069370592934192505,0.006653469953935584
21,0.0068990161955596995,0.006775005269684729
22,0.006766148885350818,0.007194568139614154
23,0.006826917834318793,0.006341456382006185
24,0.006669259035823249,0.007312061206412227
25,0.006699963123086181,0.006544145448803532
26,0.006717294899769479,0.006388053314635535
27,0.0065741638827545535,0.007142260335570677
28,0.006487253079015903,0.007363689311828566
29,0.00648559499388886,0.006735512025182877
30,0.0064559670468596515,0.006123426721128577
31,0.006488915735821212,0.006964525285988085
32,0.00639002499635899,0.006419183312922199
33,0.006355789204697855,0.007043073295151108
34,0.006355347701630457,0.006491682841846946
35,0.006284427862482561,0.006518912977462741
36,0.006279446709520189,0.006387971001203465
37,0.00629141700923939,0.0074945914737011305
38,0.006400217158527547,0.00693274348160765
39,0.006067151934816551,0.006174859759298433
40,0.005864251071307886,0.006032250775370941
41,0.005795262345652455,0.00545301195442048
42,0.0057539709325003675,0.005788475568995582
43,0.005667680266101664,0.005444330914597727
44,0.005638053544634098,0.007210899974512994
45,0.005595014562381535,0.005843480208209223
46,0.005588431272511912,0.005997740007964686
47,0.005564909173129028,0.005556160752562154
48,0.005575270347080609,0.005678686903091725
49,0.005502736328186195,0.005452770712524283
50,0.005512290061852256,0.005528646610011682
51,0.005515059682746147,0.005501672461231426
52,0.00546799996302827,0.005439569186373029
53,0.00545046837073593,0.005628610384551157
54,0.005418928488444884,0.005090733169215193
55,0.005415582111412177,0.005348823773478234
56,0.005398660906380385,0.006343981824935444
57,0.005350153268277071,0.005188533967873891
58,0.005368038272170025,0.005270765251745805
59,0.00531460400170847,0.005174117875990294
60,0.005367892924671063,0.005547356907574104
61,0.005334225899240787,0.00551147971108149
62,0.005266195509420161,0.0049933074328761835
63,0.005273117660366402,0.005765379976860199
64,0.005291228387604405,0.005712883639387398
65,0.005276571545603033,0.004971403156455708
66,0.005242819952265792,0.005735926922623336
67,0.005239851433521287,0.005383692312495732
68,0.005253512881083108,0.005133379096391775
69,0.005216228680700224,0.005514941870167888
70,0.005253427239112648,0.005459179995678569
71,0.005173616659797592,0.005212010807420125
72,0.005191567405837489,0.0052292589796129295
73,0.005204384851957639,0.005814632168386326
74,0.005183175918816679,0.005122175700176812
75,0.005150696796846353,0.005281166560374774
76,0.005147294789805902,0.004701182375622742
77,0.005139843565136947,0.005354596621058789
78,0.005118024434032627,0.005476794390946109
79,0.005095570608091248,0.005357345813889953
80,0.00508069598597326,0.008568518890747362
81,0.00510778036806179,0.005038752691085374
82,0.0050730296535649476,0.0049517512118106444
83,0.005040974833302556,0.005079619588316522
84,0.005036199690160744,0.004824474429891956
85,0.005042341841013329,0.004949007332602298
86,0.005014458316381266,0.0055265942849588605
87,0.005034644850259249,0.005314504230168484
88,0.005031873849211884,0.004728975226506406
89,0.004992129425950159,0.005119901253534458
90,0.005004873673062959,0.004972446070193653
91,0.004995276969640525,0.004974483785961313
92,0.004993371265005718,0.0052983052173523094
93,0.004977762726354094,0.0049766486101592
94,0.004918268476862888,0.004403133097130149
95,0.004544325158782362,0.004498844498782315
96,0.004464167572202312,0.00455086278883976
97,0.004413207447412013,0.004495679179238844
98,0.00439758556366135,0.005099573133804514
99,0.004376522618868281,0.004492625746663392
100,0.004339373620252172,0.004551051811733406
101,0.004335867184112252,0.004514087141530759
102,0.004337914196863452,0.004580105124064548
103,0.004325774505796218,0.004851970456254024
104,0.004338999037141524,0.004156318244757709
105,0.00430873699478466,0.004644499380816301
106,0.004329110455666886,0.0038780787750551703
107,0.0042577338484218385,0.004657961505120874
108,0.0043515625433206435,0.004119170331407717
109,0.004276059439866992,0.004356626131416994
110,0.004272923214686759,0.004489669427229438
111,0.004241573694148821,0.0044525755490765675
112,0.0042417046377533855,0.004053142469806167
113,0.00427040018553457,0.004067489933268752
114,0.004208435874169399,0.004305761260102982
115,0.004227129163121206,0.004145891996673667
116,0.004214326712303961,0.004437129820232504
117,0.004198934835833053,0.004277867103277454
118,0.004198245001192569,0.004344469077524639
119,0.004231859749784959,0.004551968748262961
120,0.00422963977584696,0.0041445665153912814
121,0.0042051840447213515,0.004213858501426413
122,0.004196972050119528,0.00462472935301938
123,0.004185360717579026,0.003995452699466394
124,0.004208068714763725,0.004320489225571712
125,0.004162832444029324,0.004244110490156166
126,0.004226014672228426,0.0040377383497046775
