epoch,loss,val_loss
0,0.4621252344112658,0.4510399920029321
1,0.4508186355898766,0.45018606188871135
2,0.4503327258941623,0.4513101651118352
3,0.4502805581568309,0.45014759655625886
4,0.45018816913799686,0.4501591476258214
5,0.45018908337721575,0.45043216352131465
6,0.4501543034540698,0.4500736652473658
7,0.4501500013292335,0.4501622066900097
8,0.45012264089660015,0.45004577797932305
9,0.45012067379738935,0.45034563417174384
10,0.4501069185148043,0.4500696771641819
11,0.45010588250694283,0.45021482036072324
12,0.45009852430167346,0.450084754861614
13,0.45009263195487426,0.45017334746367876
14,0.45009692497032294,0.45005586281899485
15,0.45007632136442727,0.4503103387562868
16,0.45009019535579037,0.4500246111571641
17,0.45008145140543904,0.4501550563363816
18,0.45007315920908797,0.4500602725273918
19,0.4500736821575908,0.4500407536627341
20,0.45007532031072495,0.4500879210810507
21,0.4500693538432651,0.4503176569790757
22,0.45006828284890255,0.45004303443520594
23,0.4500658009430788,0.45005348935612377
24,0.45006261863909613,0.4501109338575794
25,0.45006195779554226,0.45004827816492277
26,0.45006578927867674,0.4500272352997186
27,0.4500583165552789,0.4500276979678322
28,0.4500616713590208,0.4500473124957262
29,0.45005780334801504,0.45002783053270345
30,0.45005747301044546,0.4500550882544174
31,0.45005344699163696,0.45005942739860594
32,0.4500589784318033,0.45006252169313266
33,0.4500526611168473,0.45011239352060606
34,0.45005484066956936,0.45002512276616347
35,0.45005025548715705,0.45002733794394556
36,0.4500545464567799,0.4500450893312175
