epoch,loss,val_loss
0,0.6574041209788085,0.6502830218440546
1,0.650271690997279,0.6501050298917974
2,0.6502108133968332,0.6500714254142629
3,0.6501868213436744,0.6500448323065234
4,0.6501451735303353,0.650030140811693
5,0.6501120318459114,0.6503478997102742
6,0.6501092525053295,0.650113172093337
7,0.6500963149780243,0.6500364636960752
8,0.6500872844164262,0.6500547323865867
9,0.6057064856605859,0.5500507715913853
10,0.5500628116053177,0.5500974258477279
11,0.550087721360651,0.5500594625697834
12,0.5500886653039831,0.5500460590677285
13,0.5500803630563836,0.5500514482741912
14,0.5500848221394868,0.5501571383724734
15,0.5500788902858067,0.5500751696804321
16,0.550078876742416,0.5501319799470547
17,0.5500825626729501,0.5500316508354679
18,0.5500625288041109,0.5500264041477042
19,0.5500663467379384,0.5500287866474085
20,0.5500659159225929,0.550029843912527
21,0.5003933675460077,0.5000211775746594
22,0.5000660485733566,0.5001927843756474
23,0.5000710470705672,0.5000388875788554
24,0.5000624765772181,0.5000683272446947
25,0.5001285227722577,0.5000335471505859
26,0.5000515715461337,0.500082916775649
27,0.5000678196748003,0.5001117278565248
28,0.5000561236723075,0.5000255079778193
29,0.5000570576811377,0.5000203706786295
30,0.5000564006385524,0.5000367475502544
31,0.500057709009452,0.5000410179050625
32,0.5000547832710402,0.5000768260092061
33,0.5000568704456739,0.5001627641339456
34,0.5000512151015073,0.500116331198671
35,0.500053434029376,0.5000263708105158
36,0.500047141114847,0.5000252424931112
37,0.500054110753224,0.5000599982720747
38,0.5000472380941702,0.5000294491907503
39,0.5000490295876108,0.5000419915461954
40,0.5000479606741769,0.5000286523816603
41,0.5000447428603058,0.5000784303355158
42,0.5000450465907014,0.500020195384771
43,0.5000451566984916,0.5000238141114304
44,0.5000443570373521,0.5000249897575851
45,0.500041664050578,0.5000669541784907
46,0.5000433010220475,0.5000451267505106
47,0.5000425247078552,0.5000230119778559
48,0.5000394316960652,0.5000204688562058
49,0.5000387673978384,0.5000407894551014
50,0.5000409136722668,0.5000425694893963
51,0.5000397480161584,0.5000195885414521
52,0.5000391053073694,0.5000191229744525
53,0.5000395217281787,0.5000291447485646
54,0.5000361631644873,0.5000230520298108
55,0.5000385781981924,0.5001253570279768
56,0.500038562303305,0.5000179654019642
57,0.5000355954062063,0.5000165277615966
58,0.5000353426451536,0.5000626207285425
59,0.5000405322399307,0.5000294986492942
60,0.5000335403171581,0.5000462707455637
61,0.5000362726380597,0.5000163396593951
62,0.5000366013190901,0.5000393268783986
63,0.5000392675440799,0.5000173956525533
64,0.50003349357199,0.5000376503461643
65,0.5000361429223679,0.5000282319840368
66,0.5000345857424445,0.5000209924009242
67,0.500035112372014,0.5001191080060253
68,0.50003397552391,0.5000196673734016
69,0.5000338618080198,0.5000226604435639
70,0.5000357949513335,0.5000298434984004
71,0.5000346498686524,0.5000209213486381
72,0.5000334089835797,0.5000218643739857
73,0.5000348863680125,0.5000206311346579
74,0.50003344487605,0.5000935119967307
75,0.5000336646230664,0.5000526854773018
76,0.5000322173584593,0.5002736093388598
77,0.5000344560007214,0.5000206102508469
78,0.5000325244255981,0.5000307077509594
79,0.5000334305682848,0.500015055423339
80,0.5000314091456337,0.5000194676460759
81,0.5000325701681656,0.5000166245488907
82,0.5000327994986554,0.5000234352152045
83,0.5000292743360338,0.5001243525048343
84,0.5000294085354249,0.5000457037767169
85,0.5000324707726618,0.500115386635139
86,0.5000285013057331,0.5000140546273357
87,0.5000301069488922,0.5000154280780859
88,0.5000305289293623,0.5000225855458167
89,0.5000299883777646,0.5000585510180546
90,0.5000291381259196,0.5000414264409181
91,0.5000319084217978,0.5000821665262171
92,0.5000285651495404,0.5000144379902123
93,0.5000289303320163,0.5000135718445032
94,0.5000300512670898,0.5000203045071206
95,0.5000290886024988,0.500029134484142
96,0.5000297121932483,0.5000147388531612
97,0.500030280325434,0.5000196738811048
98,0.5000284336984265,0.5000956710751536
99,0.500030226840518,0.5000365985238523
100,0.5000270831252203,0.5000206356604697
101,0.500029803583724,0.5000186570524874
102,0.5000278302638143,0.5000232301042334
103,0.5000298395093249,0.5000138236334543
104,0.5000291819910762,0.5000535905509078
105,0.5000294222223823,0.5000201309585098
106,0.5000281777094889,0.5000184079849395
107,0.5000285507179292,0.5000524238972155
108,0.5000285089589439,0.5000311110806525
109,0.5000271961098668,0.5000209135393943
110,0.5000258195163747,0.5000236247372687
111,0.5000327299137567,0.5000136276924285
112,0.5000244268639189,0.500024014962814
113,0.5000275494039135,0.500142298502011
