epoch,loss,val_loss
0,0.4548388255471387,0.4505356171438771
1,0.4507510986701367,0.45188420627903997
2,0.4503797657495046,0.45032748924591404
3,0.4502779344674276,0.45008466032243544
4,0.4502480962805731,0.4501205553192063
5,0.4502181974916006,0.4501811016877887
6,0.4502005732825746,0.45006815958259716
7,0.450185473239658,0.4501834120555196
8,0.45016433227849634,0.4500475669764999
9,0.45016087542799915,0.45007767955363537
10,0.45015257021953314,0.4500591148809523
11,0.45013918178819,0.45036961283932253
12,0.4501361136327699,0.45005695797669387
13,0.4501270183809517,0.4500564163139381
14,0.4501197154547879,0.45015249651655664
15,0.45012916586307605,0.45012585423128776
16,0.4501071438652616,0.4500885018491863
17,0.45010869884711524,0.45006423465371426
18,0.4501010086548366,0.4500605809629407
19,0.45010040249324534,0.4500359549711715
20,0.45009089031616234,0.450038014910653
21,0.4500918573906971,0.45003468095516747
22,0.450087553378195,0.45006472070518855
23,0.4500866427948002,0.45006082427708743
24,0.4500859368685336,0.45004688158224593
25,0.4500813716714772,0.45013992873669856
26,0.4500781989450517,0.4500345921989706
27,0.4500835339539899,0.450112909581466
28,0.45007728128981245,0.45012844688543313
29,0.4500724525716927,0.45005275355675084
30,0.4153504196736198,0.40004014744060507
31,0.4000744343342725,0.4000306763512917
32,0.40008211619692013,0.40004560321791294
33,0.4000711861102868,0.40003717750236945
34,0.40007474736495213,0.4001491432154445
35,0.40007144537246686,0.4000671653386677
36,0.40006962372883065,0.4000572290225301
37,0.40006892366631813,0.4000837612240841
38,0.4000711379266906,0.40012466682689657
39,0.40006371056051765,0.4000475007902008
40,0.40007003401650093,0.4001455759883814
41,0.4000638491170011,0.40004223462369837
42,0.4000650463893423,0.400045478935573
43,0.4000619277351153,0.4000261230592988
44,0.4000641742009751,0.4001027407924236
45,0.40006101441054265,0.4000471452921259
46,0.400061022655769,0.40024091920840826
47,0.4000612322651604,0.40011862571127066
48,0.400059963025265,0.4000367817600667
49,0.4000669107334302,0.4000278168221561
50,0.4000539114456129,0.4000469902313081
51,0.40005861695114014,0.4000284814805014
52,0.4000599792238513,0.40002542972268895
53,0.400056713671283,0.40003444851184305
54,0.40005708976443566,0.4004288999377646
55,0.4000541412896299,0.40002967528906413
56,0.4000582389304858,0.4000998306067351
57,0.4000557341675772,0.4001642414565122
58,0.400057676528348,0.40002725831332336
59,0.4000523995041959,0.4000294179981459
60,0.4000544463610334,0.4000321735519333
61,0.4000524415637247,0.40003185112482265
62,0.4000529751905944,0.40007200236651796
63,0.40005550221778347,0.40003974189237684
64,0.400052643075795,0.4000328250173895
65,0.40004976145062626,0.400026655729592
66,0.40005403610491624,0.4000404125111866
67,0.4000501744913068,0.4000389022211875
68,0.4000495752217072,0.400059761583953
69,0.4000497025539547,0.40006959058214947
70,0.4000517053941808,0.4000387154944777
71,0.4000502045452654,0.40002249573951326
72,0.4000493747142096,0.40005274247886524
73,0.40005119425088576,0.40009988320080875
74,0.40004979049804007,0.40002501466434
75,0.40005075019387626,0.40003776488173987
76,0.4000498329062309,0.4000270054742657
77,0.4000470929672214,0.40004431464831824
78,0.400047971782534,0.4000425206076714
79,0.4000460530250795,0.40002469534317847
80,0.4000461432812202,0.4000433737231839
81,0.40004920596730026,0.40003060692593123
82,0.4000452679193972,0.40011423006838664
83,0.4000450271516879,0.4000294220654604
84,0.4000472411044173,0.4000375195857017
85,0.40003989959430153,0.4000308770695632
86,0.4000450004814077,0.40004196400677894
87,0.4000428972083689,0.40010986045631525
88,0.4000420787411716,0.4000331763002476
89,0.4000429097913613,0.40002417481566777
90,0.4000418936248946,0.4000216219028823
91,0.400042026811036,0.4000269088200837
92,0.4000413624331375,0.4000243974530667
93,0.400041807734129,0.4000521204459756
94,0.40004058133273024,0.40002460929359457
95,0.4000398727508736,0.40002424709554346
96,0.40004006894466443,0.40004363096973145
97,0.4000414764732361,0.40005566204156234
98,0.40004298497654556,0.4000317053818525
99,0.4000392730695057,0.4000234401995136
100,0.40004136238699106,0.40007211110432156
101,0.4000396542072145,0.40002299632978794
102,0.40004014443828045,0.4000480972507751
103,0.40003944001275943,0.40011926454586666
104,0.40004006871511544,0.4002517268616272
105,0.40004075764607927,0.40002415101818056
106,0.40003855152444145,0.4000331764925207
107,0.40003839532108315,0.4000319923567713
108,0.4000393922472421,0.40002266097601236
109,0.4000394164930589,0.4000345938111062
110,0.4000393393078009,0.4000215523296195
111,0.40003879166542683,0.40002777221480906
112,0.4000384990866949,0.40006634350450104
113,0.40003750276675043,0.4000345220784691
114,0.40004222879403667,0.40002143869624834
115,0.4000358514334809,0.40002003927384655
116,0.40003556504271154,0.4000258401369043
117,0.40003814437670165,0.40003189755136853
118,0.4000367467593614,0.4000865385934674
119,0.40003592655634773,0.400032627198004
120,0.40003790133637834,0.4000196073546303
121,0.40003739700145924,0.40004011834821396
122,0.4000375809068849,0.40002000414703975
123,0.4000372633416266,0.40003704348805524
124,0.40003736225910047,0.40002092569696696
125,0.4000349158166244,0.40002001847877694
126,0.40004252375029664,0.4000349271386196
127,0.40003383777605434,0.4000194752334661
128,0.4000359454570649,0.40002921367105715
129,0.4000368696631277,0.400024298166223
130,0.4000366145714821,0.40003695900623615
131,0.4000335078948219,0.400027190470518
132,0.4000349869839124,0.400020671704271
133,0.4000358218962048,0.4000319846658494
134,0.400036107082828,0.40005687766572084
135,0.4000368464380545,0.40003097103192253
136,0.4000363595393931,0.4000531131221402
137,0.400035212167927,0.4000202084741285
138,0.40003763623805316,0.4000747554799167
139,0.4000335007291069,0.4000419883810853
140,0.4000344384943369,0.40004108215384093
141,0.4000347028586575,0.4000521696235051
142,0.40003439188563605,0.4000225398292021
143,0.40003295325120347,0.4000156499316024
144,0.4000355276818377,0.4000405071243163
145,0.40003409390343125,0.4000178109179655
146,0.40003326439973913,0.4000303547968048
147,0.40003402864288856,0.4000352307525521
148,0.4000339969177975,0.4000625301975175
149,0.4000313687833476,0.4000264878308507
150,0.40003312859942125,0.40001512502618225
151,0.4000325860532716,0.40001688960468207
152,0.4000419986376438,0.4000201114058199
153,0.4000266795809264,0.40006395993989985
154,0.40003315422016555,0.4000174357192984
155,0.4000331014167972,0.4000253267530768
156,0.4000305349726537,0.40003095488098656
157,0.40003014600030357,0.40005348906031907
158,0.40003048741578145,0.40002419843567216
159,0.4000313294018904,0.4001168089084531
160,0.4000306970870958,0.400026742858863
161,0.4000308720483934,0.40002677906535694
162,0.4000311274796295,0.40001890962532083
163,0.4000318954334266,0.4000306898695659
164,0.400031387797656,0.40004154776521117
165,0.4000322952778008,0.4000523809759552
166,0.4000322067259234,0.40001763547620467
167,0.4000315128979143,0.4000250841784418
168,0.40003025393171693,0.4000287237889122
169,0.4000297728830051,0.40002222056720155
170,0.40003157976766646,0.40002472277906337
