epoch,loss,val_loss
0,0.6067048491386097,0.6034024613370966
1,0.6007278884956431,0.6002733561596267
2,0.6002445271692581,0.6005611417902906
3,0.6002393483546067,0.6001020768440095
4,0.6001749032811631,0.6001041706087572
5,0.6001420340713965,0.6001132446542271
6,0.6001272278093859,0.6000395496489096
7,0.600120033885864,0.6000989499813866
8,0.6000954451394185,0.6000406180362844
9,0.6000934610930234,0.6000604682465641
10,0.6000799941184546,0.6001174404366733
11,0.6000753894918225,0.600044455007643
12,0.6000814552656485,0.6000456888681606
13,0.6000673770872987,0.6000173736446844
14,0.6000628499874873,0.6000414122718736
15,0.6000626826880777,0.6000172082602829
16,0.6000590025814619,0.6000328295579915
17,0.6000551078094607,0.600021095784663
18,0.6000537142056782,0.6001101666289582
19,0.6000493512247213,0.6001512098844827
20,0.60005087079174,0.6004232115840202
21,0.6000488207464592,0.600013937932386
22,0.6000463773993447,0.6000423939588939
23,0.6000440526911972,0.6000161694237967
24,0.6000438261405378,0.6000121832781335
25,0.6000435234561283,0.6000395830452591
26,0.6000416330578351,0.6000191979905216
27,0.6000409177326809,0.6000185944602152
28,0.6000395938502643,0.6000478904832978
29,0.6000390081272107,0.6000304125970409
30,0.6000374260495042,0.6000208506808979
31,0.60003633883999,0.600104964134415
32,0.6000371658245593,0.6000433175498735
33,0.6000365045775198,0.6000541936375071
34,0.6000359856555904,0.6000358298753686
35,0.600034217127304,0.6000396470278132
36,0.6000352734597174,0.6000340012403634
37,0.6000335005195152,0.6000174030772509
38,0.6000341881891429,0.6000547641264298
39,0.6000331453165043,0.6000345261753641
40,0.6000327827008752,0.6000835661852626
41,0.6000315862694248,0.6000469478129158
42,0.6000310007972186,0.6000309134535399
43,0.600032353637517,0.600015233142796
44,0.600030678314011,0.600015195605181
