epoch,loss,val_loss
0,0.1305615167028541,0.07075854233262477
1,0.0630680954487299,0.061750846111525114
2,0.06144986700394647,0.060932048067932724
3,0.06073226904769024,0.06056793753848644
4,0.06050157215413477,0.06105118232831394
5,0.06040618486767955,0.06014618849133354
6,0.06031502655399837,0.061020660713232686
7,0.06026817327119607,0.05992064072258753
8,0.060230413794243556,0.06117446032876844
9,0.0601661639462272,0.06070027892325653
10,0.06016820762232006,0.059577715610342884
11,0.06011138392908634,0.05996002847271447
12,0.06001048581116348,0.059917025779680465
13,0.06003730756332644,0.05930249904882936
14,0.06006927324457468,0.06014822367887471
15,0.06002424400207474,0.059740560712923475
16,0.059956575071604415,0.06088357027428961
17,0.05994364158283892,0.05931082070638274
18,0.059908337849411936,0.05969575506465211
19,0.059803437036599856,0.05933930080357554
20,0.05989221913470544,0.05966529650606315
21,0.05979786620890017,0.06051830611035122
22,0.05976504730365926,0.05970983757345622
23,0.059909328362710186,0.05934495126039096
24,0.059648272930551395,0.060318499882929706
25,0.059701051851875964,0.06041411293380921
26,0.05972352876312298,0.059586918068242616
27,0.05972921211335013,0.060567829116955456
28,0.059653117561893024,0.06017719694922642
29,0.05969512451597922,0.06207782437623535
30,0.0596115078693695,0.05986537781397753
31,0.059640886854651354,0.059258350942228005
32,0.05968434556121592,0.059155652289232495
33,0.059579196553543316,0.05995192992094472
34,0.05954154849284701,0.05954995708453345
35,0.059569632406715006,0.059184497558962386
36,0.05956713285752766,0.059665885572369494
37,0.05949091154942029,0.05948326406793135
38,0.05955651654548449,0.060617094317005675
39,0.05953001078191421,0.059163874972261776
40,0.05954203137950741,0.060424494474020735
41,0.059487047488335894,0.059427690334271144
42,0.05948615958728045,0.059922715932742385
43,0.05950103646261896,0.06027903035577113
44,0.05950321153783017,0.059492253452163094
45,0.059523358826430964,0.05990643086883621
46,0.059502255972579035,0.059459473917168146
47,0.05944536997825741,0.059626039705623676
48,0.05941599645286346,0.05935421675420127
49,0.059467556275171245,0.060038992751392684
50,0.05941394586964763,0.05929751842096742
51,0.05940930633623299,0.05946188541489411
52,0.0594367822029179,0.0595938273056483
53,0.05940462627130256,0.059276465685257504
54,0.0594638948954886,0.05960560956971327
55,0.05934341572266784,0.059385321902047955
56,0.05939221880186519,0.06012622261127338
57,0.059416257809820794,0.059375941268247044
58,0.059430975405920704,0.05907322991795209
59,0.059380464572950806,0.05959090298216646
60,0.05938936132404635,0.059835681578566356
61,0.05936857319022302,0.05905619209842505
62,0.05935978604187306,0.05909810234934398
63,0.0593685584543325,0.05912421565523464
64,0.05933268846635767,0.059102145224315686
65,0.059403947428714556,0.059275367118612275
66,0.059361850598649825,0.05895004571131015
67,0.059331717198903705,0.060942920955411074
68,0.059359898464642555,0.05902954163331165
69,0.05933664228728445,0.0590022490098896
70,0.05932166224731197,0.05921470738753335
71,0.05931139818662934,0.05946149459754094
72,0.05937858011653955,0.05887430380285962
73,0.05931072732616814,0.059115624859423364
74,0.05934913666080609,0.05962160450495315
75,0.05925391653744723,0.058965382584456674
76,0.05934697674582902,0.058928763069030145
77,0.05932275788318053,0.05930120932804193
78,0.059259711982880374,0.05962616216976434
79,0.059366433972792086,0.059042970166962826
80,0.05931153294476245,0.05972387474368385
81,0.059345878672590266,0.059220665320460025
82,0.05926799548597787,0.059702512406065604
83,0.05927220770387912,0.05995514374976094
84,0.05930639838250421,0.059205036204611115
85,0.05924369225339542,0.05919951100222878
86,0.059357732601410196,0.05977153127693998
87,0.05922670980139697,0.05942123650257853
88,0.059322314523011566,0.05999123329486354
89,0.059275499706586104,0.059262998716724885
90,0.059256026475168436,0.058939630014273534
91,0.059304018922561076,0.05949057055888631
92,0.05931231526168083,0.05927035368643789
93,0.05923831005909031,0.05992803510922377
94,0.05923863309029814,0.05921558391276362
95,0.05933683670664148,0.059418163579119034
96,0.05926057481192809,0.05947181608913071
97,0.059268900068948784,0.05936518612875653
98,0.05927811565843941,0.059441870909063665
99,0.05922348236741065,0.059174392610529605
100,0.05926182113891597,0.05907880132334291
101,0.05926128403900815,0.05928724464661227
102,0.059229653557951595,0.060371062570584506
103,0.05930718545504897,0.06045497852453305
104,0.05921783607950409,0.059909944911358766
105,0.059261005973334696,0.059288333084113784
106,0.05921163197925432,0.05940849792679747
107,0.05931798567463883,0.059094718944842924
108,0.05918680583175233,0.05917861686038896
109,0.05921718913415591,0.05934549343273126
110,0.05928204789293184,0.059349695154434126
111,0.05925821458293999,0.060750046355360215
112,0.05933490186649785,0.05920842020010139
113,0.059203014069562146,0.059166479455902525
114,0.05919264968809226,0.05980030422546587
115,0.059370222316085575,0.05891165908517194
116,0.05920500248867116,0.05936886765350953
117,0.059257585802476566,0.058868395642398756
118,0.05916353025370174,0.05887962530801497
119,0.05918330106762149,0.05902115357620752
120,0.05932197725172523,0.05902786182435178
121,0.05915718465495548,0.059499457846053865
122,0.05920963978572048,0.05930858480008268
123,0.059202664723094225,0.05884570539315197
124,0.05931866386358877,0.05910983828985042
125,0.0591565597814312,0.059856364584359584
126,0.05919663532287907,0.05921713826147326
127,0.05920148598734471,0.059063476284682136
128,0.0592510564376315,0.05956318692819472
129,0.059232694203321404,0.05953227227881563
130,0.05916569463098697,0.05922236813977655
131,0.059184407776625134,0.0590845490905038
132,0.05918098332064091,0.05978821764605292
133,0.059249282717037735,0.05949619816117806
134,0.05924200459564333,0.06127593984449578
135,0.05923335784100753,0.05926164538961936
136,0.059155596333811226,0.05976718003496281
137,0.059220448264377196,0.0589956130535469
138,0.05915226734471883,0.05881437379352296
139,0.059230469225300585,0.05916580114140225
140,0.059138199804331375,0.05920815391976154
141,0.05922176214835817,0.05885908856764495
142,0.05922705777358713,0.0589344678380495
143,0.05913518774632117,0.05882815659140261
144,0.05928075767243556,0.05931620328924556
145,0.059116796760869735,0.05879900083769092
146,0.05927550542703588,0.05881037262004477
147,0.05918884021695331,0.06226089724354981
148,0.059134371059058576,0.05905531077177485
149,0.05925968288928628,0.059052722715282405
150,0.05915096442518141,0.05927035321011822
151,0.05917039243050283,0.05894772395279902
152,0.05921746189776751,0.059173553247054735
153,0.05910246863032131,0.06139558007398175
154,0.05917305241433456,0.0589731199741834
155,0.05917301619027873,0.060640276316332835
156,0.059263321260611214,0.05954249193796325
157,0.059111555310176145,0.05903198268049894
158,0.05916332357006965,0.05920236747955937
159,0.05914612860678674,0.05936806167357534
160,0.05915064410679489,0.059273322240023886
161,0.059180775451824534,0.058822990613441914
162,0.059156273148483415,0.05888856147675413
163,0.059252326816713496,0.0606580468742934
164,0.0590963863330684,0.05947050730085505
165,0.05918229421486052,0.06054613770712711
166,0.05920978503928577,0.05917569852618599
167,0.05908878796773372,0.058904706511496555
168,0.05918234741861681,0.05953408823581596
169,0.05917172097443915,0.05902726110291462
170,0.05912866168391171,0.059942374239663206
171,0.059232756694991714,0.05927279522758633
172,0.059267050276199974,0.05907968031543865
173,0.05918048388160152,0.05888668373344729
174,0.059106187671601626,0.05961382218534399
175,0.059155020512920396,0.05913039782593922
176,0.059192367804815155,0.0593367886171627
177,0.05918067739122539,0.05904562202088929
178,0.05916969754772602,0.058888050518053764
179,0.059193765463160096,0.05890705542316941
180,0.05911090999073405,0.05945310978352694
181,0.05917653048204051,0.05915221804789699
182,0.05916709244864688,0.06024691423117503
183,0.059107318414832286,0.0592991698418627
184,0.05918311320102329,0.060136841696811265
185,0.059179899494925275,0.05982023421101619
186,0.05913297274558664,0.05921097157115812
187,0.0591561730808134,0.05906945564317346
188,0.05913107929011281,0.05969770005430024
189,0.05915716818893413,0.05926033087962711
190,0.05915692676868227,0.059180961114713874
191,0.059246640074715244,0.05907177001578938
192,0.0592105584956116,0.05879797145500838
193,0.059184135023436,0.05943313186610413
194,0.05918327246388371,0.058921902386828866
195,0.05918023530408728,0.05938068708815063
196,0.059120531464151915,0.058806092243850375
197,0.05916558875204276,0.05919098385977952
198,0.05909304481169446,0.05910348259177185
199,0.059161052347527894,0.05894183416298834
200,0.05915172270042814,0.059450334651011974
201,0.05909965426283632,0.05879958196239577
202,0.0591728648008536,0.0589656060901136
203,0.05917155240281976,0.06024776395607296
204,0.05909833844474179,0.05905686790489642
205,0.05917954363887735,0.0590852448612381
206,0.059130586478278506,0.05890792535637059
207,0.059185929486243655,0.05925272341638262
208,0.059085732258909895,0.0601922252995345
209,0.05916332344499995,0.059293565417521565
210,0.059113154936727766,0.05914149464835025
211,0.0591230282677616,0.05912136636680285
212,0.05921007360336925,0.05920571293137915
213,0.05908327891553144,0.059253065581503304
214,0.059158816385707504,0.05950224851188268
215,0.05914815978335439,0.05922942417184951
216,0.05912208665075967,0.059739859046998134
217,0.059168400161033814,0.058751340852587264
218,0.05918007234571506,0.05883800935502963
219,0.05907996035189175,0.05912170690890834
220,0.05914745048033915,0.058915539414584404
221,0.05910387258384106,0.05897560222302258
222,0.05912736958439211,0.0589571013170476
223,0.05906346696708128,0.05906336201206379
224,0.05915473992649695,0.06033708117226023
225,0.05936125085966812,0.058977544998666295
226,0.058991122460789344,0.05872583854134947
227,0.059174108671115264,0.058914944582457794
228,0.05908908668032987,0.060130155553428224
229,0.05911945622506664,0.05929830699465175
230,0.05912085403230408,0.05942739625979618
231,0.05911655059988074,0.0599941395358392
232,0.05923894556502787,0.05961797643973306
233,0.059010972463184125,0.059316657395370384
234,0.059138054669880084,0.05908472184753361
235,0.059083427166302716,0.05945529668770536
236,0.0591086222336804,0.058871909911320165
237,0.05917337571354888,0.05921096975114652
238,0.05918080888563495,0.059224895547837275
239,0.05906979248320742,0.05891583776711571
240,0.05910228545979249,0.0601653399382554
241,0.05912512129427289,0.059585804873878975
242,0.05905734325389115,0.059645793882169965
243,0.05907777614063687,0.05906334884270684
244,0.05909647411115164,0.05927466878692466
245,0.059109125893822105,0.05990233159408667
246,0.05910267329199327,0.05948378386206766
247,0.059204664541412884,0.058947807061761594
248,0.059198775263927535,0.059264311856563015
249,0.059096194395749306,0.059412171377637955
250,0.0590262405312271,0.058913420788773235
251,0.05918114730786029,0.0590647849876907
252,0.059040456850954194,0.05885688731801162
253,0.05910484677405475,0.05880796642064013
254,0.05911580545099662,0.05916835404432657
255,0.05910569427313088,0.05943484310040158
256,0.05910283335142856,0.05891274404436373
257,0.05909507902864691,0.05930830166037852
258,0.059061828527233295,0.05901577283687825
259,0.059060442661174196,0.059783690318688694
260,0.05914076057513602,0.05952080323316022
261,0.05903319510177885,0.059020726276295524
262,0.05910387969196891,0.05890441235175449
263,0.059117347273013765,0.0589608687675178
264,0.05912129937125434,0.059806882170776544
265,0.059061754703354966,0.059179374149867466
266,0.05907046434124835,0.05913033574854848
267,0.05908962120737532,0.05982074243528879
268,0.05909800958141482,0.059035276798582864
269,0.05912035307753906,0.05922287695209812
270,0.05909820200114561,0.0602944057431857
271,0.05904416291476439,0.0589658087994183
272,0.0591637176706446,0.05953263635170112
273,0.05900042848758322,0.05911275226661043
274,0.0590620833195204,0.058867050709692434
275,0.059129025615888724,0.05887258953716967
276,0.05917288952594181,0.058920091487049776
277,0.05906253084867931,0.05914558559044572
278,0.059060067977669904,0.05892532763983569
279,0.05911073143885052,0.05941622118276692
280,0.05908641599708324,0.06040058620773909
281,0.05907859441807135,0.059214222864574964
282,0.059056742426505285,0.05919582318241143
283,0.05906561870637129,0.05899047596349242
284,0.05905609941936368,0.05894327706759524
285,0.05907894881050602,0.06574415698671021
286,0.059198725739304875,0.05888866070119904
287,0.05909738804754927,0.059073938090639405
288,0.05901704440198594,0.059662907348317994
289,0.05906259354582127,0.0588948758820332
290,0.05909700471339085,0.05919479250014063
291,0.05908466066322405,0.05869048856192907
292,0.05902215646212097,0.058722051385357896
293,0.059061961236605634,0.0594099505694955
294,0.059072162622480176,0.05906471459234711
295,0.05915129261700322,0.059068270083502135
296,0.058933268662253256,0.05882353200367707
297,0.059113405095480326,0.05910948659245575
298,0.059031567164807675,0.059067621624248653
299,0.05905785536963781,0.059071931000078584
300,0.05916895518908731,0.059260925070780325
301,0.058994483217585096,0.05917586898688453
302,0.05909694331161362,0.059610695967005294
303,0.059008896271947574,0.05896650401150606
304,0.059091561912394445,0.058958576305606934
305,0.0590482118690638,0.05912330050694726
306,0.05905228480994463,0.05932789363831446
307,0.05916166113768455,0.06059231138372854
308,0.058976711176758664,0.05923907357343747
309,0.059052634305305045,0.059826998785432156
310,0.05908995301728483,0.05886821950408729
311,0.05901278591574096,0.05944056510513659
312,0.059076718616781,0.058916448338373305
313,0.05901691820070469,0.061429734399870047
314,0.059046311963566966,0.05890958755914395
315,0.059035651534676645,0.05889752054412062
316,0.059060063442404415,0.058974549621226
317,0.05907016607681863,0.058867311994556186
318,0.05902936490629312,0.05940848235526044
319,0.05906392950311506,0.05929395281242967
320,0.05905122058592636,0.05915635480194837
321,0.059051804829665794,0.059131661828404444
322,0.05901918556246397,0.058844592466350605
323,0.05906689059075644,0.058867786905853974
324,0.05909862939408309,0.059715634430946095
325,0.05901208087254009,0.0588406041564439
326,0.059025515326493076,0.05901004922676952
327,0.059012203811586714,0.05940011915204651
328,0.05920020283030854,0.05933429056744737
329,0.05893269387318743,0.058780827051603424
330,0.05911734295662025,0.05896034404553103
331,0.05900190917731856,0.058878155035608476
332,0.0589871628122102,0.058997698407546685
333,0.05901017594936607,0.058937284804369015
334,0.059168615611456185,0.05890815197868712
335,0.059077036937030196,0.05883288546667479
336,0.05901049314845475,0.05933701668607972
337,0.05901151023906388,0.058908250197568277
338,0.059031834992632974,0.05932496551015571
339,0.05905129909842945,0.05923531023342965
340,0.058999392956638225,0.0590257458888647
341,0.05904510379028168,0.05893025574022235
342,0.05907174598404782,0.05886455489750349
343,0.059002034855987144,0.05994999457529989
344,0.059019711632415546,0.05882869089270729
345,0.05911666170644055,0.058967202990047554
346,0.05915402740889268,0.059402624014309284
347,0.058982322314124314,0.05927970725234419
348,0.05898823395972963,0.05869143860210277
349,0.05902117120770575,0.060060874768477684
350,0.059117990679187264,0.058905933431593
351,0.05897244258517985,0.05941959839511219
352,0.059190366318900525,0.05912503548960283
353,0.05895970839944532,0.0594421976261376
354,0.059086627162379515,0.05891145792537631
355,0.058980837054878214,0.058766763110445916
356,0.059043000869863894,0.05909438844073355
357,0.05896693401390033,0.059671685678829994
358,0.059102496933296236,0.05956542262573739
359,0.0590636422463077,0.05895075031159991
360,0.05898104282282144,0.06019626199411141
361,0.05908000268351784,0.05949717234958319
362,0.05900699556243124,0.05971502278943935
363,0.05906700242391164,0.05888256135719351
364,0.059069431843243536,0.05913041998656509
365,0.05902654605118824,0.05883058860909779
366,0.05899765646512464,0.05934366358307373
367,0.05898495249712257,0.05928113893403627
368,0.0591137396867017,0.0592060698976927
369,0.05900636826047032,0.05882036077900957
370,0.05908536822121921,0.05920396336510883
371,0.059006899202184424,0.05934834239773611
372,0.058988474927348294,0.05914207435291681
373,0.05907390723607952,0.05957712901090202
374,0.05898720342710578,0.059008802157174724
375,0.05919225316205852,0.060267857586834124
376,0.0589214741951413,0.05871052940941365
377,0.059067646226139185,0.05896099623007481
378,0.0590187334816614,0.05883381366964956
379,0.05901451856582809,0.05905691792140255
380,0.059064892797375756,0.059311392392901424
381,0.05899667770540019,0.05908199422643612
382,0.0590171108661081,0.05919354579219596
383,0.05901241215983693,0.05936784056715826
384,0.05900306150400572,0.05886175868049229
385,0.059055424197841225,0.05904485167672339
386,0.05904974232611658,0.058784194017195195
387,0.058993007466613914,0.05918226947371378
388,0.05905077855834524,0.058978503824291775
389,0.05909241700052119,0.059007097476683174
390,0.05896984926796407,0.05897607955120169
391,0.05906062530313464,0.05877754026355006
392,0.05907734221429657,0.058630653457817546
393,0.059035735836120054,0.05983998228067381
394,0.05895900378505484,0.059076227923971325
395,0.05899965857340992,0.059293455458242494
396,0.05901512538762592,0.05896614390207071
397,0.058994608144346566,0.05899113964439379
398,0.059139573864704316,0.058674812834377636
399,0.058953925487782645,0.05925911840789414
400,0.05898918751939881,0.059104130239517744
401,0.05902776924623765,0.05986722212669975
402,0.05899248046310638,0.05906275651272866
403,0.05912692478741054,0.05913123606330029
404,0.05897382556868019,0.059034651526100726
405,0.058989190787589144,0.058783338167767124
406,0.05903009610395018,0.05960659363440105
407,0.05913646031710074,0.05917944120509284
408,0.059022395488181466,0.059147225088647906
409,0.05901310644108805,0.058729835516157916
410,0.059077551192362056,0.060420650982936724
411,0.05895365707629876,0.05886337705303481
412,0.059057149540284556,0.05948075899691119
413,0.05905585295910077,0.05916798611678001
414,0.059017273513295,0.060190468047463995
415,0.059035807274740566,0.059194752580435515
416,0.059068494288028954,0.060190393329960394
417,0.05900091903178478,0.0590888511186617
418,0.05903736436270553,0.059515053790059724
419,0.05898271319117668,0.05893993550277923
420,0.05907311745220237,0.058836226940343204
421,0.059055499783117804,0.06084719237054815
422,0.059052116272570516,0.05885512042487806
423,0.059000341159155326,0.05921799911519817
424,0.05903168258776101,0.05980914258107767
425,0.05905148967636003,0.05890342819003863
426,0.05904592155999274,0.059486815798513136
427,0.058971900285946,0.059207423257140915
428,0.059069363678769055,0.06112142355896492
429,0.05904168706330702,0.05938376564805961
430,0.05911015694905861,0.05896792940401429
431,0.058967314334474594,0.05883498664801292
432,0.05905064009874464,0.05934809476442947
433,0.05902055209185437,0.05999790624536768
434,0.05897676872370912,0.06001515870865349
435,0.05902289665586276,0.0591012065246666
436,0.059059264373591096,0.05911688685370131
437,0.05899540574507986,0.05877628657840422
438,0.05907347039293519,0.059360790515543445
439,0.0590161170533521,0.0592843419868549
440,0.059043743748137416,0.059003318588660286
441,0.05893543087017479,0.058646240378211784
442,0.05903846062987828,0.06013985650633016
443,0.05904658012937823,0.05871565966633896
444,0.05897631700173747,0.05907482526249649
445,0.05902053037141677,0.058922542592814896
446,0.059016990123225824,0.05886640310899047
447,0.059131236863043384,0.059330741653620206
448,0.05892182515113712,0.05896144311789838
449,0.05904204189795241,0.0586700333192674
450,0.05905503797963512,0.05939483968063236
451,0.0589926287108998,0.059477268593957695
452,0.05905831907596663,0.05916228798683365
453,0.05902215293634662,0.058690271095535186
454,0.05900578826761169,0.059050340828762905
455,0.0590246139938454,0.059121783431722315
456,0.059019766831331304,0.05939884514392787
457,0.05900037000856573,0.05893637465743823
458,0.05908053930399181,0.05889649679494732
459,0.05900167158658175,0.05882430946323565
460,0.059000563818952446,0.058929273086852134
461,0.05900788026229798,0.05875875926984514
462,0.05916993870443816,0.058996063690182725
463,0.05909704581069813,0.05919483611867384
464,0.058925353943539274,0.058946361272774445
465,0.05902207757738664,0.0595696468403138
466,0.05903426019830717,0.05880200875527575
467,0.05902724257476038,0.059012856363850306
468,0.059014316034807765,0.06137919501234625
469,0.05898942009543629,0.05892382537756459
470,0.059048669376997924,0.059445679505321106
471,0.05907762666596926,0.05955365959969485
472,0.059025060389932396,0.059629905107412735
473,0.05906456669153784,0.05894581968260263
474,0.05896971788075712,0.05929258127050693
475,0.05904564569643933,0.058745830830689384
476,0.0589925780814948,0.05889791400769421
477,0.05900678700275368,0.058893864840598394
478,0.05900507585125433,0.058818943783840796
479,0.05904869892173629,0.058868800961039816
480,0.05898762654980643,0.05906334156266045
481,0.059029340295852134,0.0587863914092272
482,0.05900510224989421,0.05912541908571451
483,0.059006026208245875,0.05890677479443441
484,0.05908457973270679,0.05924548500679851
485,0.05901172731837018,0.05889772427663054
486,0.05899135385759824,0.06103239255503773
487,0.05905421545280875,0.05949023534744484
488,0.059016036365529614,0.06045963688979209
489,0.059089231469350564,0.0587734390100157
490,0.05896156153334178,0.058646176389661846
491,0.05899757246742193,0.058700599411433386
492,0.05905181041760124,0.05895527685391875
493,0.05905065437157949,0.05904496049518743
494,0.05894141388144329,0.059650056399316795
495,0.059054511528518754,0.058959715556420954
496,0.05900152524907907,0.05915243529377251
497,0.05909548680797565,0.05899436898006166
498,0.05901290699958706,0.05868657545466638
499,0.058945710832576194,0.05909554562116102
500,0.05904895763138501,0.05891306203185054
