epoch,loss,val_loss
0,0.10628661952912807,0.048572752334177495
1,0.048809061754494905,0.048867812767624856
2,0.048707730457186696,0.04822422019392252
3,0.0486885518617928,0.04806171292066574
4,0.04858925346285105,0.04863604629784823
5,0.048563712622970344,0.04841434593498707
6,0.04855619028583169,0.048319771468639375
7,0.04852628099918366,0.04841991735249758
8,0.04848355910181999,0.04875791787356138
9,0.048492337554693225,0.04867065807431936
10,0.0484373086206615,0.04914949968457222
11,0.04850672820955515,0.048311034373939035
12,0.04840696819871664,0.047753623753786084
13,0.048391134086996315,0.04842582903057337
14,0.04837026096507907,0.04832636758685112
15,0.04834483403339982,0.04818367402255535
16,0.04832437076047063,0.047822429679334165
17,0.048325481221079825,0.04797003697603941
18,0.048334595441818236,0.04852334838360548
19,0.048289793908596036,0.04848164940625429
20,0.04829747211933136,0.04858985842019319
21,0.04832711413875222,0.0486001251488924
22,0.04827733550593257,0.04827039345353842
23,0.04825722229480743,0.048539456456899645
24,0.04828592635318637,0.04828495993465185
25,0.04825848103687167,0.048180614814162255
26,0.048271036863327024,0.04811450193077326
27,0.04824743247777224,0.04847077801078558
28,0.04821626620367169,0.04801486105471849
29,0.04824251196533442,0.04897639173269272
30,0.048220914248377086,0.04812621573358774
31,0.04820024305582046,0.047989818058907986
32,0.04821091368049383,0.04792997738718986
33,0.04822127454355359,0.04781460579484701
34,0.04819506730511785,0.04808139441907406
35,0.04819503953680396,0.048261089973151684
36,0.048175938781350854,0.04792392192035914
37,0.04818885694816709,0.04795245426893234
38,0.04817226402089,0.04795699019730091
39,0.04819982926174998,0.048632916249334815
40,0.048180482398718597,0.04771608772873878
41,0.048212827932089565,0.04779672209918499
42,0.04816963111236691,0.04806469352543354
43,0.04814083420485258,0.04781203993409872
44,0.04813762647286057,0.04813656729459763
45,0.04815820806100964,0.04794765055924654
46,0.0481572536341846,0.04783423712849617
47,0.048112286131829024,0.04896274510771036
48,0.04815373072773218,0.04810711976885795
49,0.04813419083878398,0.047845236971974375
50,0.048151967596262696,0.04820014125108719
51,0.04812404415011406,0.047939877063035964
52,0.04814446471631527,0.04803407532721758
53,0.04814575169607997,0.04785505079478025
54,0.04810998442023993,0.047954031378030774
55,0.04813396406173706,0.047820871867239476
56,0.04809972684085369,0.04782242028415203
57,0.04814535195752978,0.047867305912077426
58,0.048114042155444625,0.0491575301811099
59,0.048153441350907086,0.047810248240828516
60,0.04811600769683719,0.04778865572065115
61,0.04810924591869116,0.04832028077542782
62,0.04810014105215669,0.04785338257998228
63,0.048107050102204084,0.04795575743913651
64,0.048106711767613886,0.048074940577149394
65,0.04810784962773323,0.04786899001896382
66,0.048079775735735894,0.04796538779139519
67,0.04810358000919223,0.04787940596044064
68,0.04811174850538373,0.047952518649399284
69,0.048073692053556445,0.047863059766590596
70,0.04811312565207481,0.04808534044027329
71,0.04809634714946151,0.047841989651322366
72,0.048063328862190245,0.04780690318346024
73,0.04810581657290459,0.048188572645187375
74,0.048086526613682505,0.04805531489849091
75,0.04807878689095378,0.047964614614844324
76,0.04809091583266854,0.047747754968702795
77,0.04804945235699415,0.04784863821417093
78,0.04808419752493501,0.047841544307768345
79,0.04806224511936307,0.047846113964915275
80,0.04807775143161416,0.04771751400828361
81,0.04808791773021221,0.047762240186333654
82,0.048075577706098556,0.04785834796726704
83,0.0480583739168942,0.047998587295413016
84,0.04807357016205788,0.0477786124497652
85,0.048085979167371985,0.04776065979897976
86,0.048083163946866986,0.04798761934041977
87,0.048086173046380284,0.047984257750213144
88,0.048073428828269246,0.047758430063724516
89,0.04809123288467526,0.04793809083849192
90,0.048064888387918475,0.048071266248822214
91,0.04805835520103574,0.047695590808987616
92,0.04805133565142751,0.04797717218101025
93,0.04809727343916893,0.047851901255548
94,0.04806655776500702,0.048046288520097735
95,0.048061110094189646,0.04784304940700531
96,0.04807179671153426,0.04788737603276968
97,0.04805192745476961,0.04824149541556835
98,0.04808077207952738,0.04830362871289253
99,0.04804720457270741,0.04839933006465435
100,0.04807573628798127,0.048827383130788805
101,0.04807816951721906,0.047888651832938195
102,0.048034168526530266,0.04795695239305496
103,0.04805194401368499,0.047719275444746016
104,0.048051957994699475,0.047896593011915685
105,0.04804163942858577,0.0479540910795331
106,0.04804634306952357,0.047803953602910045
107,0.04804328358545899,0.04837662732601166
108,0.04804708760604262,0.047768778517842295
109,0.04803136145323515,0.048422855086624625
110,0.04805323113873601,0.04792263947427273
111,0.04803516717627645,0.0481383455619216
112,0.04803520134463906,0.04778937888890505
113,0.04802955908700824,0.04779061382263899
114,0.04800908824428916,0.04790182138234377
115,0.04807511322945356,0.04840094001591205
116,0.04801017426326871,0.04794960734248161
117,0.04801346549391747,0.04800425577908754
118,0.048048218082636596,0.0478439078181982
119,0.04802484229207039,0.04773254317045212
120,0.04801380181312561,0.04785105827450752
121,0.04806533596664667,0.047772430151700976
122,0.0480447329133749,0.04774176497757435
123,0.04803414525091648,0.047794375389814375
124,0.04802831204608083,0.04801751935482025
125,0.048028720419853926,0.04787491926550865
126,0.0480819614008069,0.04784918690472841
127,0.04800705187395215,0.04804262293130159
128,0.0480351379700005,0.047833571992814544
129,0.0480164707750082,0.04797000044584274
130,0.0480300246886909,0.04784489282220602
131,0.04801765584945679,0.04792038159817457
132,0.04802439777925611,0.04834131940454245
133,0.048002107296139004,0.04781911975890398
134,0.048011490900069474,0.04801782212406397
135,0.048031082302331926,0.048082408122718336
136,0.04805823627114296,0.0478023878633976
137,0.047980304144322874,0.047965798906981945
138,0.04801668695360422,0.047772281065583226
139,0.04802537046372891,0.047838259115815164
140,0.04803155268356204,0.04777448975294828
141,0.04804932945221663,0.047964753583073616
142,0.04799124504998326,0.047695418618619444
143,0.04799744337424636,0.04822550995647907
144,0.048034844312816856,0.047864574678242205
145,0.048032483026385304,0.04809112796187401
146,0.04798671340942383,0.04823640741407871
147,0.04800227534770966,0.0478528948649764
148,0.04803521414846182,0.0477946702465415
149,0.04802669050917029,0.04864946462213993
150,0.04799726291373372,0.04777381285279989
151,0.048006326757371424,0.04848298354446888
152,0.04799873254075646,0.04771514001488686
153,0.04802589255943895,0.04794344882667065
154,0.04801948322355747,0.04768779923021793
155,0.048002598568797114,0.04788760618120432
156,0.048017058946192265,0.047865975856781005
157,0.048008295971900226,0.04809614662826061
158,0.04800697139278054,0.04792059368640184
159,0.04801190462708473,0.0489022573158145
160,0.048015200730413196,0.04836823163181543
161,0.048007597155869004,0.04800270602852106
162,0.04801622331514955,0.04811057916283607
163,0.048021820958703755,0.04778319825977087
164,0.04800192807987332,0.04774377073347569
165,0.04800567118823528,0.04958896343410015
166,0.04800833035260439,0.04774264113605022
167,0.04799100536853075,0.047747603990137576
168,0.04800077321007848,0.04776086922734976
169,0.048048891317099336,0.04780901154130697
170,0.04799139446392656,0.04774062407016754
171,0.04800250741839409,0.048544331006705764
172,0.0480188016332686,0.048156200297176835
173,0.0480125634111464,0.047867392301559446
174,0.04801188220083714,0.04792603691667318
175,0.048008632972836494,0.04785469257086515
176,0.04800411479175091,0.04798633781075477
177,0.04801688905060291,0.0480678738206625
178,0.0480156231969595,0.047856510907411574
179,0.04799753784015775,0.04788709077239037
180,0.048044338535517456,0.047813220404088495
181,0.04798103535547853,0.048185182824730874
182,0.047981496531516316,0.04792125853151083
183,0.04801706563681364,0.047764153979718685
184,0.04799096194282174,0.04781329363584518
185,0.047986898574978114,0.04798709954321385
186,0.048025968570262194,0.048274047009646895
187,0.04797566055133939,0.04826592837274075
188,0.04800425734370947,0.047800410903990266
189,0.047996950171887875,0.047763220816850666
190,0.04799698937684298,0.04775884396582842
191,0.047989531818777326,0.047816306948661805
192,0.04798097150400281,0.04792882692813873
193,0.04802149873971939,0.04789962235838175
194,0.04798277904465795,0.04781303058564663
195,0.047993247997015716,0.04783496060967445
196,0.04799357721582055,0.04788630938529968
197,0.0479863845705986,0.04826283937692642
198,0.04799892415478826,0.04772778335958719
199,0.047987393867224455,0.04783149248361587
200,0.04803305411338806,0.04802985351532698
201,0.048038057267665864,0.04785259827971458
202,0.04794003893435001,0.04782215559482574
203,0.04799171138182282,0.04776241088658571
204,0.04799470629170537,0.04789519997686148
205,0.04801007018610835,0.047819846965372566
206,0.048001742850989106,0.04814534819871187
207,0.047983871456235644,0.047840571597218516
208,0.04799179857969284,0.0477811381444335
209,0.047970916766673324,0.047959024220705034
210,0.04802270875126123,0.049215696766972544
211,0.04799449030309916,0.047864880874753
212,0.04796455435082316,0.04855632806569338
213,0.048020165018737314,0.047798698008060456
214,0.047976211152970794,0.047878524631261826
215,0.048009709436446425,0.04779960899055004
216,0.04797270259261131,0.04774032810330391
217,0.047982967652380464,0.047868446357548236
218,0.0480039403103292,0.047911637507379055
219,0.047986959122121337,0.04770542559027672
220,0.04800135808810592,0.04771242671459913
221,0.04797934891656041,0.048014416582882406
222,0.04797320995479822,0.04878839391469955
223,0.04797361321002245,0.04775050689280033
224,0.04798958221822977,0.048122970081865786
225,0.047973085038363936,0.04798286574333906
226,0.04799491338804364,0.04773851642012596
227,0.04795929914340377,0.04773360591381788
228,0.04800352334976196,0.048004378490149976
229,0.047997994419187305,0.04775127895921469
230,0.047975662384182216,0.04790333055704832
231,0.0480000684671104,0.04801575378328562
232,0.0479709948040545,0.048478544302284717
233,0.04797229005768895,0.0477487119063735
234,0.04796596415713429,0.04782060006260872
235,0.04799831484630704,0.048164442010223865
236,0.047977848187088966,0.0483552808240056
237,0.04798656351864338,0.0476848793104291
238,0.047984789688140156,0.0482383958697319
239,0.048006463669240475,0.04777360821515322
240,0.04795735995844007,0.047947242602705956
241,0.047984798282384875,0.04773373820632696
242,0.048011322606354954,0.04787131314724684
243,0.047977343574166297,0.048145130634307864
244,0.04800033378228545,0.04775203546136618
245,0.04795747907459736,0.047807972081005574
246,0.04796280070021749,0.04823433222621679
247,0.04797567518800497,0.04792306265980005
248,0.04796917136758566,0.04797410374134779
249,0.04795357734337449,0.04786790992319584
250,0.047982030376791954,0.04789121232181787
251,0.047975307513028385,0.04782219380140305
252,0.04796891506388783,0.04782656440883875
253,0.04799408708140254,0.047767733193933966
254,0.04794321813434362,0.04783693601191044
255,0.047976065047085285,0.048014295257627966
256,0.047969392649829384,0.04826078170537949
257,0.04795505870506168,0.04826045225560665
258,0.047961444839835166,0.048238990046083924
259,0.04796904046460986,0.048126544199883936
260,0.04796278741583228,0.04769208394736051
261,0.04795676294341683,0.04778220967948437
262,0.04799542445316911,0.048053419142961504
263,0.047961755834519865,0.047831949315965176
264,0.047970595065504315,0.04783780306577683
265,0.047948168020695445,0.04813273923844099
266,0.04799543766304851,0.04769808942079544
267,0.04796484189108014,0.048007606133818624
268,0.04797788271680474,0.04776629497110844
269,0.04798711745813489,0.04774563830345869
270,0.047935481626540426,0.04771227090805769
271,0.04799186601862311,0.047851395189762114
272,0.04793262695893645,0.04795266569405794
273,0.04800100914016366,0.04772499904036522
274,0.04796090380847454,0.0480788791179657
275,0.047958217691630126,0.04776913985610008
276,0.04796409709751606,0.04768210653960705
277,0.047983584463596345,0.04774415384978056
278,0.047969219960272313,0.047670663438737396
279,0.04801133236661553,0.04779062809795141
280,0.04796709804981947,0.048961608961224555
281,0.0479776082187891,0.048038190074265005
282,0.047939375400543216,0.047981293894350525
283,0.04795709127932787,0.047942856580019
284,0.047982637412846085,0.048178612671792506
285,0.04797906440868974,0.04848939428478479
286,0.047979371767491105,0.04772164240479469
287,0.047952342197299005,0.04857699917256832
288,0.04796171936020255,0.047805803686380384
289,0.0479609866514802,0.047821552738547324
290,0.04797610142827034,0.04832511379569769
291,0.04797098095715046,0.04777369218319655
292,0.04797102515399456,0.047983624920248984
293,0.047986814204603434,0.04774298566579819
294,0.04794414822384715,0.04794412373751402
295,0.04799141229316592,0.048057653971016405
296,0.04796854124590755,0.04772543965280056
297,0.04795396023243666,0.047750059157609936
298,0.047973860114812854,0.04784331330657005
299,0.04795269230753183,0.04781195145100355
300,0.04797114194557071,0.047865048058331014
301,0.04794940911233425,0.04776973823457956
302,0.04800257571786642,0.047793284960091116
303,0.04795913401246071,0.048118472464382646
304,0.04796937570348382,0.04805145700275898
305,0.04798196578770876,0.04804916982352734
306,0.04796009161695838,0.047737320721149445
307,0.047940970070660116,0.04796040070801973
308,0.04794409681111574,0.047856484428048136
309,0.04796379392594099,0.048021206744015214
310,0.04796864949539304,0.048170256331562994
311,0.047976756513118744,0.04779835030436516
312,0.04795120398700237,0.04832888456434011
313,0.0479841253682971,0.04808479455858469
314,0.0479473961442709,0.04786992967873812
315,0.04799612160772085,0.04812917406857014
316,0.0479485332146287,0.04787364177405834
317,0.047971342161297795,0.047997880525887014
318,0.04797597087174654,0.04783205207437277
319,0.04795744552835822,0.047777047753334044
320,0.04796763761341572,0.0478007900416851
321,0.04797701760753989,0.04771942361444235
322,0.04795551394671202,0.048208969190716745
323,0.047959877379238604,0.047728307403624055
324,0.04794978645071387,0.047866520017385485
325,0.04798147647455335,0.04794439217448235
326,0.047949484013020995,0.047877174884080886
327,0.04796986204013228,0.04772149094939232
328,0.04797856007143855,0.04767511679977179
329,0.04796397781744599,0.04783899583667517
330,0.04797591931372881,0.04805881752073765
331,0.04797354590147734,0.04792995392531157
332,0.047972458343952896,0.047870153374969956
333,0.04796699256077409,0.047783380068838595
334,0.04795146705210209,0.04773895005136728
335,0.04794726600125432,0.04806342875212431
336,0.04795238179340958,0.047797482036054134
337,0.0479706977121532,0.047721447497606276
338,0.04794650673121214,0.047891419515013696
339,0.047940737407654525,0.04782285404205322
340,0.047974468991160396,0.04768190436065197
341,0.04793918285891414,0.04868688862770796
342,0.047981308534741404,0.047748257212340835
343,0.04796183850616217,0.04795568629354238
344,0.047952344726771116,0.04773932755738497
345,0.04799178832024336,0.04771471744030714
346,0.04796288533136248,0.04786478865146637
347,0.047961972378194336,0.04794277676939964
348,0.04797901152074337,0.04795717141777277
349,0.04794059422239661,0.0477923821285367
350,0.04795741770416498,0.04770745934545994
351,0.047955384731292724,0.04767556227743626
352,0.04794417130947113,0.047875559948384765
353,0.047998797103762626,0.047974351733922956
354,0.04793890521302819,0.047764675855636596
355,0.0479534785412252,0.04797237119078636
356,0.04798167954385281,0.04845264131575823
357,0.04795601321384311,0.04789558301120996
358,0.04795699478685856,0.047937703512609
359,0.04796210511773825,0.047807304352521895
360,0.04793248809501529,0.047787315405905244
361,0.047966072984039786,0.047799855776131155
362,0.04797254688292742,0.047806575648486616
363,0.04794855829328298,0.0477856774404645
364,0.0479948046579957,0.04775158230215311
365,0.04796685079857707,0.04778871776908636
366,0.0479462691731751,0.04784246468544006
367,0.047961487133055924,0.0479106982126832
368,0.04794900735840201,0.04780885114520788
369,0.04793976918980479,0.04772378784418106
370,0.04797302907332778,0.04792082804441452
371,0.04793325323984027,0.04772925601154566
372,0.04796781889349222,0.048593110680580136
373,0.04796239820122719,0.047766020484268666
374,0.047956821665167806,0.04768082430958748
375,0.04794523886963725,0.04804401487112045
376,0.047967768270522355,0.04831190726161003
377,0.04796078197658062,0.047853547774255274
378,0.04798455737531185,0.04786186310648918
379,0.04796236478537321,0.04776357360929251
380,0.0479647505953908,0.04774301183968782
381,0.04794692274183035,0.04776900389045477
382,0.047976086288690566,0.048133189305663106
383,0.04793014676123857,0.048212320566177365
384,0.04795366703718901,0.04787868618220091
385,0.04794302099943161,0.04769334369152784
386,0.047931486148387194,0.04872113233804703
387,0.047972101792693136,0.0480722441598773
388,0.047947641227394346,0.048069232933223245
389,0.047977143470197915,0.04774179138243198
390,0.04793675842136145,0.04768270203471184
391,0.048055821679532526,0.04774114040285349
392,0.047922698859125375,0.04767000158876181
393,0.047979586437344554,0.04835892281681299
394,0.04795959908887744,0.04814060366153717
395,0.04797781266644597,0.04803292807936668
396,0.047938957490026954,0.04786909194290638
397,0.047954572666436435,0.04780561033636332
398,0.047954611331224445,0.047754956625401974
399,0.04795435354113579,0.047845715314149856
400,0.04795295815169811,0.047892563611269
401,0.04796371000632644,0.04811461313068867
402,0.04794824293628335,0.04793931146711111
403,0.047959665589034556,0.047803373627364636
404,0.04796155070886016,0.04783000437915325
405,0.04794801541790366,0.04796982191503048
406,0.047943942937999966,0.0477009202465415
407,0.047940273635089396,0.04812516143918037
408,0.04796980125457048,0.0478724826425314
409,0.047937616180628535,0.04776738082617521
410,0.047971006955951453,0.04778594473004341
411,0.047950668144971134,0.04772788804769516
412,0.047928969595581294,0.04790120763331652
413,0.04795827077329159,0.047765810579061506
414,0.04799548171460628,0.04791339221596718
415,0.04794151306152344,0.047899892702698704
416,0.047951397866010666,0.047690185628831386
417,0.04795933096110821,0.04816651864349842
418,0.04797039431706071,0.04822480922192335
419,0.04793897938728332,0.04810404276847839
420,0.04797361499071121,0.047877610899508
421,0.047961970761418345,0.0485346200838685
422,0.04794426510483026,0.04789068555086851
423,0.047962615199387076,0.048051258094608786
424,0.0479589693620801,0.048171584844589235
425,0.04795342554524541,0.04772948877513409
426,0.04793534102290869,0.04776732233911753
427,0.04796067966520786,0.04779039777815342
428,0.047942087840288874,0.04779900257289409
429,0.04798329273983836,0.04868316240608692
430,0.04793270896375179,0.047714556105434895
431,0.04795906428620219,0.04765755844861269
432,0.047959994979202746,0.047723637506365775
433,0.04794502216950059,0.04815152238309384
434,0.047953287791460755,0.04775532403588295
435,0.04800702515617013,0.04819613664597273
436,0.04795871061831713,0.04775913742184639
437,0.04795658825710416,0.047911984503269195
438,0.04797816558182239,0.047739969976246355
439,0.04794847036525607,0.04769555036723614
440,0.04795596873760223,0.04803134418278933
441,0.04794828007370234,0.048362280309200284
442,0.04792282972112298,0.04813818702846766
443,0.047965390041470525,0.04814124123752117
444,0.04799247384816408,0.04769615522027016
445,0.0479562204554677,0.04770192914456129
446,0.04795147018879652,0.047936786957085135
447,0.047960866186767814,0.047913570828735826
448,0.04796787855401635,0.047776489466428755
449,0.04796142303198576,0.047689782679080965
450,0.04795009120926261,0.04768396280705929
451,0.047950967885553836,0.04774378314614296
452,0.04796102556586265,0.04776401191204786
453,0.04794018397480249,0.04775042782723904
454,0.04796135896071792,0.04773620193451643
455,0.04797336613759398,0.04819555003941059
456,0.04796222423762083,0.0479051587805152
457,0.04796281477436423,0.048256757974624635
458,0.04799669107049703,0.04774914387613535
459,0.047946824826300145,0.047949138648808
460,0.04796571796759963,0.04797431493550539
461,0.04791494943201542,0.04785669345408678
462,0.0479876103810966,0.04769069015234709
463,0.04793095601350069,0.04775762964785099
464,0.04796245894953609,0.047770915068686005
465,0.04796839588880539,0.047694870851933954
466,0.047970126766711474,0.047715189084410664
467,0.04794241118431091,0.048362517438828946
468,0.04795792684331536,0.047939632616937164
469,0.04795960319787264,0.04772186718136072
470,0.04799683395400643,0.047795278750360014
471,0.04791485505923629,0.047768380120396615
472,0.04794546525925398,0.04853043178468942
473,0.047983684603124854,0.04783704355359077
474,0.047961320538073775,0.04776563549041748
475,0.047941455457359554,0.047803229004144666
476,0.047980479747056964,0.04909708973765373
477,0.04796627262234688,0.04768546652048826
478,0.047956296849995854,0.04795523465424776
479,0.047976303145289424,0.04772119338810444
480,0.04795390211418271,0.04776812494546175
481,0.04795570743083954,0.04775365463644266
482,0.04795603573694825,0.04781775333732367
483,0.047973084274679424,0.047776174299418925
484,0.047982866916805506,0.047986875124275685
485,0.04794013066589832,0.04814647271484136
486,0.04797483370453119,0.04815052418410778
487,0.04795160576328635,0.04781638918071985
488,0.04795026943832636,0.048375703677535055
489,0.04797075342014432,0.047753364071249964
490,0.047969314478337764,0.04776774201542139
491,0.047944957096129656,0.047990966595709325
492,0.04795793243870139,0.04789724011719227
493,0.0479677206389606,0.04772902227938175
494,0.04794295635074377,0.04774432473629713
495,0.04793031468242407,0.04810862681269646
496,0.047993320103734735,0.04784967302531004
497,0.04795538933575153,0.04769067722558975
498,0.04795339398086071,0.04767083330452442
499,0.04795213983952999,0.047818096570670605
500,0.047959814988076686,0.04796718394756317
501,0.047972082912921904,0.047752953067421916
502,0.047939183574169875,0.04794318196177483
503,0.04797287161275744,0.047755879931151865
504,0.04794498808309436,0.04773761560767889
505,0.048002949956804514,0.0478506243750453
506,0.047951480969786645,0.04773153788596392
507,0.04795578590035438,0.04791974851489067
508,0.04796706414595246,0.04781476553529501
509,0.047951985932886604,0.04783810999244451
510,0.04794891650229693,0.048609831310808656
511,0.047997321631759404,0.04796143704652786
512,0.04794975098222494,0.04804215723276138
513,0.04794707434251905,0.04930037477612496
514,0.04796037759259343,0.0478719834536314
515,0.0479864403642714,0.047881605193018914
516,0.04794116288423538,0.04771104360371828
517,0.047937259003520014,0.04775953328609467
518,0.04796121696010232,0.04787004217505455
519,0.04795133171230555,0.04804770313203335
520,0.047971520010381935,0.047724442310631277
521,0.047978675864636895,0.04784034547954798
522,0.047950976639986036,0.047804250188171866
523,0.04794887413084507,0.04768277190625667
524,0.047954797830432654,0.04824152312427759
525,0.04794705022126436,0.04770203290134668
526,0.0479772857055068,0.047829182043671606
527,0.047959664482623336,0.04773319184035063
528,0.04795965096354485,0.04792664720118046
529,0.0479419551640749,0.0480648211017251
530,0.047958615716546776,0.04768992447853088
531,0.047982062846422195,0.04855463354289532
