epoch,loss,val_loss
0,0.1316285469039953,0.06289922193151434
1,0.05039690687007708,0.04622438289783748
2,0.047148584643547105,0.04851074285669974
3,0.04708307831556344,0.04634369281432999
4,0.04699984422291545,0.04629633287239846
5,0.04696831757204233,0.04627416017976161
6,0.04681220820857038,0.046584259483436946
7,0.04687470577651267,0.04705690922128844
8,0.04691407235888697,0.0472493764445268
9,0.04676512240184297,0.04650246208767394
10,0.04673112312303506,0.046732663176218735
11,0.04675295653132845,0.04573272982496113
12,0.0466068199739682,0.0470002853379959
13,0.046664251760541675,0.046068223753404504
14,0.04663639652321665,0.04549516354935228
15,0.04661866073324669,0.04676997824480144
16,0.04655497167095673,0.04563149255013127
17,0.046448739171087695,0.04835327535326686
18,0.04660944329302231,0.04532428658563694
19,0.046441030902244586,0.04634335968458191
20,0.04645707199184729,0.045866850742977625
21,0.04644361893079883,0.04600247716635536
22,0.04645771741998091,0.04552023171284769
23,0.046340533190493964,0.046665100820344925
24,0.04635749641451523,0.046062957862981584
25,0.046279705666321266,0.048058317990381134
26,0.046349845440994256,0.04751907946172905
27,0.046267868376237975,0.046580233938268725
28,0.04628658002401761,0.04685118960859085
29,0.04632382998339754,0.04710888493609127
30,0.04616638759134723,0.0472169612411589
31,0.04625109182916385,0.04546749740015736
32,0.04617132201082081,0.0476257175254182
33,0.04612381253197944,0.04581969756494852
34,0.04611694585266921,0.0456544932863001
35,0.04613449062100894,0.0466555702928586
36,0.04613326702097194,0.04776098620919798
37,0.04606690808689947,0.04538201628915889
38,0.04611072108911858,0.04574059046681415
39,0.04605596524914153,0.045912962212817536
40,0.046083876705295936,0.045354172161059206
41,0.046068205495925545,0.04525080925675481
42,0.0460094088148013,0.0449959430211439
43,0.04594673148745732,0.04788730238823789
44,0.045990616574490384,0.04616553203482843
45,0.04600786657290731,0.04605821956716472
46,0.04588855322834542,0.04536198191021311
47,0.04593062368805984,0.04884702485604557
48,0.04596493264688529,0.046219415345244645
49,0.045954941114564114,0.04575956779243256
50,0.04598290193304837,0.04577031007423209
51,0.045855185025923256,0.04584815292292067
52,0.045940887129349676,0.04876010352488381
53,0.04590740332232534,0.04788451287792533
54,0.04585755666156562,0.04761214538726547
55,0.04594061170056236,0.04592634476103835
56,0.045862327235267696,0.046862961390682724
57,0.04586663260478244,0.045516771623819195
58,0.045774728278640646,0.04604324246238514
59,0.04584916549132501,0.04618596361733932
60,0.04581848306091522,0.046408006408337824
61,0.04590184921376425,0.04586244252787487
62,0.04576242327404251,0.04790399011280373
63,0.04582349777811294,0.0461554324523426
64,0.04577197777710373,0.04549504392548819
65,0.04583406109187148,0.045583854608043685
66,0.045790798046427376,0.047214453864986725
67,0.04582941263830728,0.04503341863003883
68,0.045869535956379895,0.04555864422490207
69,0.04581612878613811,0.04627225886451135
70,0.04572673545752784,0.04571110315932565
71,0.04579930585160625,0.04941124467571702
72,0.04581507971342043,0.04573150182873505
73,0.04576040476227074,0.046238453998491344
74,0.04582123412824363,0.04607937455283156
75,0.04570591319903291,0.04549524667301607
76,0.04572760433458882,0.04531682087453972
77,0.04575138327648504,0.04520980843828716
78,0.04569430782837119,0.044931025500831966
79,0.04565299459421139,0.04576153886205302
80,0.045743840057953754,0.04613866241562056
81,0.04584222791834081,0.04671218078921607
82,0.04575516427937838,0.04592603030478568
83,0.045656966446019666,0.04526874617965276
84,0.04567437473354008,0.045095950644389794
85,0.045614005671702415,0.04569562052059757
86,0.0457169038506387,0.04576250527939085
87,0.045653787101332326,0.045414335002509645
88,0.04564505800616732,0.04552334228614323
89,0.045683275792095586,0.04526020981953571
90,0.04565290453360616,0.045977539537972886
91,0.04575929218392483,0.04546743740151977
92,0.04563074447601724,0.04488192592477742
93,0.04566479786384782,0.04631960167951629
94,0.04561033541207119,0.04544381919039829
95,0.0456525440023338,0.04519677031623536
96,0.045623540523931756,0.045592427092009676
97,0.045563647526500224,0.04521306108421666
98,0.045595371367619764,0.04732317369557688
99,0.04562665690198171,0.044989248695059283
100,0.045642684662728,0.04592440128267611
101,0.04561103213962605,0.04515700875513179
102,0.04560703512796348,0.045220504190711025
103,0.04557139888036547,0.04533082393792641
104,0.0455719693247482,0.045393382367437625
105,0.04554551186339318,0.04555671983460977
106,0.04559426278852635,0.045365033555120206
107,0.04548649547352113,0.045488480443242225
108,0.04558491426036893,0.04509009551712633
109,0.045496281001159995,0.045356704076515375
110,0.04556833621975091,0.04503164563295685
111,0.0454974549976613,0.045013329656625606
112,0.04556485661994115,0.04626134321117081
113,0.04556815363734746,0.04510944613035777
114,0.04546964884274821,0.045861277502873984
115,0.04542058909372936,0.04627612335482449
116,0.04549969630472237,0.04561705570653281
117,0.04548235879473978,0.0450559794908682
118,0.04551970333510118,0.0462817847581717
119,0.04548180579906888,0.045770910548688676
120,0.04546495307412603,0.045331537482441175
121,0.04554136111873755,0.04525599626922758
122,0.045400380546288144,0.04498632643856961
123,0.045539593724586026,0.04536651639707369
124,0.04552421826038429,0.04634600850417563
125,0.04544084365341922,0.04501644257623658
126,0.045391911342978285,0.04504810934614364
127,0.045446196779441964,0.045536959304194234
128,0.045563432082033554,0.04506389882883032
129,0.04548128383259455,0.04500606547579487
130,0.045397384495710395,0.04506919222524435
131,0.04544166614897817,0.04505715099028837
132,0.045367540690383845,0.04512211398442806
133,0.04551755332445307,0.04573046382819468
134,0.04544135623817726,0.04529112494229424
135,0.045415513631370336,0.04487251608552383
136,0.04548701779882637,0.045171441555893505
137,0.045498931505006376,0.044949678073460037
138,0.045344406450025854,0.04542430043926179
139,0.045416951434110564,0.04488488027110002
140,0.0454865367435437,0.04732250849750913
141,0.04550031463293244,0.0451301042175754
142,0.045322469207082244,0.045084383712100905
143,0.04540554839495322,0.04491562067568537
144,0.045422230247887586,0.045474492522116806
145,0.04542310349196553,0.04538309136030706
146,0.045430939951293665,0.04568137935617823
147,0.04549294827784375,0.045246877649471155
148,0.04539649886973232,0.04507039108658364
149,0.04539433339808723,0.045278969611134604
150,0.045385596987833794,0.04568617371364475
151,0.045361551215692006,0.04541705497603014
152,0.04541927024567251,0.044870785016334236
153,0.045400422429747816,0.04576515017963811
154,0.045403180841943155,0.045385576863997364
155,0.04539485305672784,0.0455611768901207
156,0.04547638188806369,0.04527626486514249
157,0.04542328166119534,0.04553922406311758
158,0.04534511364174547,0.045036967558567224
159,0.045386256267436496,0.04553879480794272
160,0.04543813925793321,0.04558950152774448
161,0.04533439694042448,0.04627395403331062
162,0.04541874703147905,0.045435240499575306
163,0.0454902648851335,0.04494772891748488
164,0.04537150504396593,0.0449743602857076
165,0.04533806644963751,0.04538195256229075
166,0.04545154352244332,0.046036861678137024
167,0.0453437737641122,0.04612353583761059
168,0.045383760534363875,0.04576728682327007
169,0.045389074288743385,0.0450743116356062
170,0.045360216293201076,0.04486928818469548
171,0.045459951810854424,0.04576489714216132
172,0.045321419437547666,0.045598545030124
173,0.04541136226881084,0.04499534780384521
174,0.04533820823549652,0.04536175526143438
175,0.045388880615337766,0.04469119340193112
176,0.045368999061133744,0.04562684377889136
177,0.045354922204542694,0.04618966622364831
178,0.04540302771345365,0.04471072991214687
179,0.045381497133145036,0.04634566747398949
180,0.04548041888629552,0.04535314562453373
181,0.04527206848755919,0.045220565618307645
182,0.0453863702878225,0.045127783814517174
183,0.04538549580198112,0.044856554430916074
184,0.04537044407920443,0.04575237742645023
185,0.04542166269350824,0.04488586025178762
186,0.04546359274015248,0.04495066079445589
187,0.045269285336875326,0.04511111797713443
188,0.04535309020146954,0.04552620160669065
189,0.04535758120270608,0.04518063342303108
190,0.0453736227583423,0.04621555780861071
191,0.045332814335263226,0.04603871549667104
192,0.04531538319870008,0.045745668716687525
193,0.04536494271283289,0.04631744303403168
194,0.04529742428141056,0.045851527900679805
195,0.04536898084115877,0.04584015689749085
196,0.04531940112826969,0.045078414409247175
197,0.04536371526392482,0.04573784174651919
198,0.04525580409345486,0.04546491900236944
199,0.045430147180633006,0.04614116370548577
200,0.04528180806995105,0.045565254759887305
201,0.04529963407835229,0.045247200506003525
202,0.04540864800919684,0.04491162086648083
203,0.045295305626033594,0.045094743191654886
204,0.04531127714859448,0.04497374555400346
205,0.04538959610632522,0.04525867967492215
206,0.04523343822176603,0.0451275357342933
207,0.04537812371750911,0.04504702471037878
208,0.045338710895080646,0.04542045157046984
209,0.045258733848158976,0.046005348944720456
210,0.045373806962185056,0.046322757776623744
211,0.04525551748432987,0.04548637082634145
212,0.04540734158026324,0.045279987071124045
213,0.04530927991207174,0.04479673756220346
214,0.04528522582279502,0.04569249072398082
215,0.04530044086873055,0.04485067833382592
216,0.04532901870963766,0.045309759649994244
217,0.04528083193222348,0.045333060691017
218,0.045363500974863934,0.04514219646284029
219,0.045335485244826446,0.0454469572990874
220,0.04526628441602397,0.04543329057913647
221,0.045271088629008104,0.04570500994279052
222,0.045345157399761686,0.045469141070567064
223,0.045242531278686555,0.04525336690523442
224,0.0453764890788866,0.04541565957696022
225,0.04527149596463719,0.04589678249788642
226,0.04527265204043745,0.04488493538893106
227,0.04535261634365022,0.04499533632806934
228,0.04524496687705711,0.044853225644404436
229,0.045264452703291186,0.04535483495694686
230,0.04525823805847471,0.04479467479516506
231,0.0453239127392058,0.045713938252255025
232,0.04533089692596432,0.04545016377729135
233,0.04521568642138577,0.04556186411356305
234,0.04529825056330573,0.04554604595760802
235,0.04538553927263482,0.04519592345219573
236,0.04522396000377613,0.0449387119272937
237,0.04530084996575789,0.04477013347945349
238,0.04537804804587488,0.045597711438349876
239,0.045309072135568715,0.04508247983883758
240,0.04526286715154739,0.044864218611484825
241,0.0451825642965728,0.04507273979243935
242,0.04536353726294353,0.04510406262425804
243,0.045232486101887306,0.04535965890503814
244,0.04526554500098995,0.046640043535755675
245,0.045279982169981386,0.048707310448458746
246,0.04526059662135575,0.04595272532931067
247,0.045286160440360615,0.04515298924334612
248,0.04529204808151741,0.04533249219466404
249,0.04526191121257609,0.04502914469004054
250,0.04523012060359371,0.045177986746875905
251,0.045265310735022615,0.04505562233637898
252,0.045323259442103664,0.04617045894147565
253,0.04542051870628989,0.04522160878779856
254,0.04533213117777062,0.0450654213405681
255,0.04519451299546767,0.04576382312950132
256,0.04529749622626556,0.045310793081394025
257,0.045250089861434716,0.04759141232674293
258,0.04528916793630468,0.045257893000636026
259,0.045260141738396376,0.044881641141476365
260,0.04534179860983583,0.045032740965332684
261,0.04528952830528422,0.04477097532449506
262,0.04526466147588502,0.04522761384403037
263,0.045265923369583565,0.045571671782653915
264,0.04520902773596162,0.04493257264594159
265,0.045232949068220396,0.04481489680877989
266,0.04529423073386784,0.046234280864789715
267,0.04525652077856014,0.04609619706410447
268,0.045216199421553874,0.044889091048757206
269,0.04528470280960643,0.04490771623006371
270,0.045351148818989544,0.0454792811549265
271,0.045210472999704925,0.04473725441128792
272,0.04522901660145568,0.046073784165219615
273,0.045219949810660715,0.04501588724336007
274,0.045265672378521936,0.045230680807613444
275,0.045246718579428274,0.045946581252419114
276,0.045308793176540275,0.045380854122076056
277,0.04529375734357096,0.045766819415477285
278,0.0452836353754659,0.04560882418218709
279,0.04518101008967768,0.04546381068293184
280,0.04525599401923631,0.04543905090702361
281,0.04527849422620355,0.04628014032917881
282,0.04531778386540169,0.045596687321645964
283,0.04522608270605119,0.04493838228467608
284,0.04522961549770584,0.045286731175554956
285,0.04527097145805685,0.04500434562952008
286,0.04533835863031977,0.04539537692961489
287,0.04523377288296688,0.045839141519194805
288,0.045229031727444545,0.045290237802779854
289,0.045338152935333866,0.04495826953082642
290,0.04518818828633887,0.0451293321974699
291,0.045239759585280405,0.0456088949715235
292,0.045211554242135715,0.045777296742987424
293,0.04525379145698105,0.045783774864043225
294,0.0452757056171207,0.04494573392015136
295,0.04518514863110418,0.04527821482380451
296,0.04535112513168205,0.04485020817102366
297,0.04521577891042764,0.04491127046867441
298,0.045258091667370735,0.04550767390626382
299,0.045262856172214594,0.04484755043366714
300,0.04523055698666022,0.044965831602570006
301,0.04521347192986359,0.04618247203828786
302,0.04519029950602449,0.04505097538515067
303,0.045288295646627647,0.04476169235386901
304,0.04524124204088077,0.04573106581981764
305,0.04522671000354534,0.0448149749575493
306,0.04519683502757435,0.04472948219436026
307,0.04519848977859548,0.045391118687584164
308,0.04530174834437841,0.04534395016147663
309,0.045232660198907294,0.044956679605153385
310,0.04516905540828225,0.045623119894029965
311,0.0452289316999755,0.04495038155351649
312,0.04529515139722853,0.04617707333994269
313,0.045237312860173476,0.045109462775084194
314,0.045171828822885673,0.04482986506342229
315,0.04526274881923466,0.04528952855690314
316,0.04520480757762345,0.044975127457349245
317,0.04523659669470301,0.04573319432779194
318,0.04522285030947791,0.04513971315845318
319,0.045224828429692845,0.045423865141883644
320,0.0452441368371153,0.044932321031543335
321,0.0451897062587557,0.045012545713827005
322,0.045266767947388875,0.04500628974297523
323,0.04518022166518904,0.04499385606177039
324,0.045224072632017276,0.04568275408532644
325,0.04521124001643021,0.04518041076710493
326,0.04523431349078195,0.04533787672102875
327,0.045221238353138536,0.04481198328187735
328,0.045202311004797144,0.045448921112183426
329,0.04522675084177968,0.044712509648270185
330,0.04526667395751063,0.04504664331651054
331,0.04516445859956989,0.045185039897508855
332,0.04523526159651893,0.045191768345135636
333,0.04525612957394428,0.044790258908963335
334,0.04521024737843602,0.045911335137150094
335,0.04518268536701858,0.04508126179240027
336,0.04531594698907708,0.04484494088104417
337,0.045174107031463434,0.0446412682903735
338,0.04527027122706151,0.04541500016235421
339,0.045192471581051864,0.04593975445065991
340,0.04521851522548736,0.0453135821859528
341,0.04525091012956189,0.04662105228807763
342,0.04519681155467205,0.04942535228833215
343,0.04522932089603157,0.045063199168152004
344,0.04522112448015611,0.044790780002687894
345,0.045246683016455146,0.04489695528652975
346,0.04517331723716381,0.045401237331677724
347,0.04520033482762931,0.04504811142195654
348,0.04524346357501811,0.044699692385654896
349,0.0452494981626479,0.045694770722193516
350,0.04517593637829442,0.04566918559601764
351,0.04526626908307453,0.04552134214926161
352,0.04528254440439929,0.04523837246183062
353,0.04518764245984175,0.04550656542217252
354,0.04516980589942919,0.04503915927592656
355,0.0452432475558264,0.04529422804148722
356,0.045250137240516485,0.04552190329500231
357,0.04538099128577254,0.04685504116476664
358,0.04513651853074416,0.0451617200918431
359,0.04521309527948939,0.04506430034573471
360,0.04514412068241506,0.044637269095680145
361,0.04520891801559096,0.045236976368862904
362,0.045291745268421876,0.04541133253613888
363,0.04514207231769745,0.04486805451379673
364,0.04529482706321134,0.0451938492387839
365,0.045175646428021785,0.04516384809997576
366,0.04519276240234562,0.044846969006117066
367,0.04526163895073221,0.045061588437306004
368,0.045269267928364464,0.045126455511836056
369,0.0451609069104794,0.045508723485488636
370,0.04525454608436159,0.04538096052365879
371,0.04522357689295646,0.04530584597526428
372,0.045303013704294307,0.04548940737603119
373,0.045173518453463374,0.044757741317447
374,0.0451776552617812,0.04463239256718917
375,0.04527622713393969,0.04496291480317488
376,0.045147151235851356,0.045691981273626094
377,0.045288317984969115,0.04537646024360747
378,0.0451893429595718,0.04519417217764313
379,0.04524555828401463,0.04517259526977223
380,0.04532106150891617,0.04490706661823422
381,0.04517178533138703,0.04496394639986184
382,0.04517325161130642,0.04549866463715577
383,0.04529667162536669,0.04488860942194005
384,0.045252474540059894,0.045299166591504285
385,0.045127490347773906,0.045320665618168055
386,0.045175464551368776,0.045361675992431655
387,0.045268367235954524,0.04487112096577718
388,0.04524531271859563,0.044725086748741136
389,0.04514490123942411,0.04476042599626762
390,0.04526460218987019,0.04688509271407372
391,0.045297685569877344,0.0458190244987854
392,0.04511111618714224,0.04495493277037059
393,0.04523241879205576,0.04499560444312201
394,0.04513669521849361,0.04492542761853575
395,0.045352795184385196,0.0447122852487788
396,0.045239830839274214,0.04520192156062883
397,0.045158181644731954,0.04489439240735445
398,0.04520858796410185,0.045332286659783984
399,0.04516312485928539,0.04515995302817533
400,0.04523875640718628,0.044754875240216783
401,0.04521594617179305,0.04497290549369054
402,0.04538763244059398,0.04530926931711192
403,0.0451029947148167,0.04506144818762389
404,0.04531243161337791,0.045866500548048104
405,0.0452710004474262,0.04512069138221225
406,0.04510776090810149,0.04522380737062976
407,0.0452487766727817,0.04523010389039906
408,0.04525198707346627,0.04516472256115411
409,0.045140622835829675,0.044867679297383035
410,0.04525088367434286,0.04520226563102821
411,0.045310762189001104,0.045208567684338424
412,0.04511667248293412,0.044934900149691266
413,0.04517126599584314,0.04544750118853073
414,0.04527400256090646,0.04516715684871835
415,0.04523470072443489,0.04520114970811729
416,0.04522191584527159,0.04490858936225135
417,0.0452268265610595,0.04536405546206984
418,0.04520344827398598,0.04513419234291625
419,0.045254899614708695,0.04569134450478637
420,0.04521197443909877,0.0454725903659565
421,0.04527987881029824,0.045064288096674426
422,0.04514406954975342,0.04509991662901692
423,0.045191426809838446,0.04508658440896819
424,0.045231041088283394,0.045233021463078595
425,0.04520395984180826,0.044906692160403716
426,0.045196607277142725,0.04511633725291458
427,0.04519757620102877,0.045048062681516704
428,0.045328002463248994,0.04472237516373937
429,0.04511300863908063,0.0447919257279212
430,0.04524540690203412,0.04527454201393741
431,0.0452107801187715,0.04494163968498159
432,0.04522606990129637,0.04515753080737619
433,0.04523374603913843,0.04526400121830069
434,0.04523723858961765,0.04512284539387089
435,0.04520346958348029,0.045570859601743216
436,0.04513049334865346,0.044715401011606606
437,0.04519986549167515,0.04564213865946011
438,0.045239228167110304,0.045401363668120934
439,0.04514975392287202,0.04478000026216823
440,0.04527992181194057,0.0446414345906255
441,0.045211403696931045,0.04491902445020314
442,0.045207930627546244,0.0451063499260391
443,0.04518455111508747,0.04489336573557771
444,0.04522500453378371,0.0465544536415761
445,0.045180555232030024,0.044718177199669494
446,0.045247050962573906,0.04511436469258995
447,0.04515214179375236,0.044651791103472366
448,0.04519707872885928,0.044626198209169445
449,0.04518331358317944,0.044637787707838
450,0.045217699038503555,0.0448321277053693
451,0.04519343013308651,0.04530193778997156
452,0.04525178678625589,0.04596581387362239
453,0.04525407623621724,0.04525546165331669
454,0.04514972476376523,0.04524677490555309
455,0.04531150660682306,0.04652209968939012
456,0.0451113233695642,0.044821173270198425
457,0.04520005136758065,0.0452117921097973
458,0.045207377253688404,0.045774763078085534
459,0.04513481209318129,0.04510906269595956
460,0.04524915664196967,0.04492723843892823
461,0.045179473277893095,0.045357490198035456
462,0.045275701970743425,0.045145999478512895
463,0.04518176346933908,0.044848610703622435
464,0.04514863412175104,0.0447047922698503
465,0.045269996026079715,0.044984276682114924
466,0.04516137746884097,0.045166813439874075
467,0.045183475427835774,0.04498871492005844
468,0.04520755712029269,0.04479206315790845
469,0.04514127922691792,0.04480905815864889
470,0.04523218741013611,0.04512089968092251
471,0.045168339522729674,0.04482866263556593
472,0.04526285021055898,0.04475849199725496
473,0.04520445161139508,0.047353625556287936
474,0.04517173224376689,0.04558642487899469
475,0.04526125203124244,0.04497135770760753
476,0.04513603190241529,0.04533690130948174
477,0.04514263440921105,0.04501548195412146
478,0.04527302380267093,0.04496436712538622
479,0.04513910043237211,0.04520498576332192
480,0.045124259624752305,0.045401620304457484
481,0.04521057190154668,0.04528023906187364
482,0.045196861889269906,0.0451016580419881
483,0.04518037144657519,0.04508519913610174
484,0.04525853543997192,0.044641939554166496
485,0.04516086620773724,0.045084242192233
486,0.045169004880124146,0.04484750123748934
487,0.04521911137764879,0.04598917214945253
488,0.045171772096332885,0.04646787941808671
489,0.04519826687908144,0.04478622735981501
490,0.04514460727203188,0.045300218452359146
491,0.0452665167925455,0.044823631217913454
492,0.04512896956049567,0.0454036044787495
493,0.04517156396099894,0.04508562859415349
494,0.04524888786123239,0.04522234578076647
495,0.04511603354800234,0.04490770124951591
496,0.04526362095555241,0.0447138600086686
497,0.04517628241934889,0.0448149740607746
498,0.04519375986445674,0.045514610332114167
499,0.04520333431613483,0.045031371128751996
500,0.04524716621281193,0.045027854019553996
501,0.04514337490371568,0.045834612709947146
502,0.04516562964799974,0.045348708098129485
503,0.0451723858371651,0.04561206689890954
504,0.04514749653095441,0.04541474505788525
505,0.04522643078544395,0.04490256829638602
506,0.04514877347321771,0.045366248758340694
507,0.0451889885239583,0.04483402746228976
508,0.04518126390969677,0.0450105843117318
509,0.04512950900694926,0.046081691762783816
510,0.04525195490524209,0.04522274127898954
511,0.04520142602501251,0.04501110557305032
512,0.045134234272664206,0.045040326112118306
513,0.04514916154811327,0.04548943966580077
514,0.04519470019651641,0.04534399669379255
515,0.04522822461248063,0.0459250540435079
516,0.045166196084196426,0.04553459029888768
517,0.04518328269543074,0.046395461294791225
518,0.04530665988205291,0.044853273708587944
519,0.04510445421714958,0.045358055269003106
520,0.04515652768581891,0.04474980050981656
521,0.04523247665912508,0.04493509716962206
522,0.04519185063977846,0.04491391328134778
523,0.04525098290672596,0.04568390702298051
524,0.04517326680280798,0.044875004758798145
525,0.04525274249891059,0.045164342143447174
526,0.0452205037830664,0.04701813611465829
527,0.04521468665292985,0.04519006717823675
528,0.04510992925783856,0.045217773147168454
529,0.04519052374557101,0.04464170645743067
530,0.04520064707604243,0.04738494954362288
531,0.04524751722389798,0.04489898239133766
532,0.04520383860311396,0.0450349250998004
533,0.04509925813251119,0.04573728760150162
534,0.045174457777520834,0.04521551364834325
535,0.04521202406199049,0.04487825886308912
536,0.0451676094864341,0.04513114597280852
537,0.04519235908532505,0.04537016155393743
538,0.045121234319776556,0.04520481298571039
539,0.04520993412797638,0.04548809124890424
540,0.04521100702349373,0.045472539105726774
541,0.04511159589643673,0.04487491803039409
542,0.045214493269864604,0.044780900809199393
543,0.04528088940919446,0.04636949842947152
544,0.04507730450841496,0.044780787098167824
545,0.04529596843587742,0.045347981731206674
546,0.045348138370507246,0.04450972855161661
547,0.04507159912954274,0.04477325930379937
548,0.045158783815128146,0.04587388260917769
549,0.045229180622920334,0.044889301670260943
550,0.045102719238383784,0.04474043123712197
551,0.04529816403443055,0.045387233456783437
552,0.04507248622508977,0.04512280125491433
553,0.04526117172905152,0.045191426109449075
554,0.0451848939058187,0.04520026775813517
555,0.04515080713629008,0.04488138984756481
556,0.04517451384894663,0.04568227394333296
557,0.045223763228939784,0.045599181546102666
558,0.04521592486378767,0.04489546129222733
559,0.0450859107747138,0.04570329599758726
560,0.04519115269577189,0.04577597659360544
561,0.04516611743917902,0.045882901919222105
562,0.04515702983916854,0.044811939786834426
563,0.04520532385193758,0.04633426523951912
564,0.045164553999460094,0.04493586116285896
565,0.04520274191457543,0.04473742117609861
566,0.04513894473995379,0.04557818107912648
567,0.04519003008058269,0.04530414611383414
568,0.04528479702877913,0.045146902271891165
569,0.04514506621380075,0.04516161227306232
570,0.04515401860453385,0.0449821953856531
571,0.04521551884585719,0.044892435515594936
572,0.045133790363081926,0.04466656880672277
573,0.045145854629355844,0.04488967336426124
574,0.04516600899779492,0.04477249178226858
575,0.04519184334255713,0.044779040933760866
576,0.04520069635499248,0.04503775995162969
577,0.04529222879829786,0.044642308931253795
578,0.04508978528656262,0.0469188973625156
579,0.04520292766541124,0.04493983623578309
580,0.04513104584702342,0.044703288916748345
581,0.04518015223066155,0.04478731222491897
582,0.04515101642554088,0.04486072778807631
583,0.045178062158177414,0.04508026840713613
584,0.045171055929373496,0.045772114952389614
585,0.04513797687171556,0.045510709309258046
586,0.04515971092106722,0.04470782556174868
587,0.04523846371580276,0.04522479161173223
588,0.0451945996166562,0.04536653912810707
589,0.04512094002482083,0.04586832127706592
590,0.04514434586296217,0.0451124683669353
591,0.045176197692072935,0.04520229397498912
592,0.04527916206414703,0.04549492160541953
593,0.0451129675923968,0.04495755759168537
594,0.04511868721283645,0.04616976636384732
595,0.045210604564093954,0.04524048849140554
596,0.045111921366503674,0.045024877177417606
597,0.04528330421174983,0.04555248405310989
598,0.04519092591165257,0.044780163919140054
599,0.04519562937057228,0.04508027404946611
600,0.04512739225292949,0.045541319534500094
601,0.04518113353198095,0.04493141797648327
602,0.04518749903914311,0.04481225703926
603,0.04520853373000948,0.04494003516099259
604,0.04513339319532152,0.04654255308557799
605,0.04511355311810065,0.04500538584406487
606,0.04516047358715372,0.04469377957666682
607,0.045205154979555344,0.04499842442319256
608,0.045254488534433285,0.04545984164633051
609,0.045162158628864635,0.045210295907370954
610,0.04514936322002388,0.045026747534829235
611,0.04514067212371327,0.044883225160197375
612,0.045186015770589706,0.0446948965904086
613,0.04518152950711245,0.04477189699424564
614,0.04513667335214137,0.044725169763615874
615,0.045197900007966516,0.045225613983531775
616,0.04518621231762054,0.0451821192199307
617,0.045135205071106806,0.04511533096291554
618,0.045156734504943175,0.04543253080809126
619,0.04514999543692616,0.04504353688896032
620,0.04515698307799064,0.04490441212690808
621,0.04515462190949088,0.044923018740568
622,0.04532657366999381,0.04495378184972453
623,0.04510302680412785,0.046489234863770885
624,0.04514745402214625,0.04476421455475601
625,0.04516912436337589,0.0460570984194386
626,0.04515007819286544,0.04519691552905088
627,0.04523224128390864,0.047960993123035686
628,0.04515408093540026,0.04545045034238082
629,0.04509883135598865,0.04505208014689192
630,0.0451768978709559,0.04506306182049162
631,0.0451998184714243,0.04650902628439942
632,0.04518955467130355,0.04504564671167823
633,0.04515867963504734,0.044814994513118184
634,0.04516675510554672,0.046267340622765864
635,0.04516807970234292,0.04477317521573524
636,0.04514723604650711,0.044924678552922245
637,0.045175108326067456,0.04518529224696833
638,0.04516953597073075,0.04526051813949726
639,0.045157621060010436,0.044875256579013534
640,0.04528853271624072,0.04492403017305537
641,0.04514718592482553,0.0452501055826422
642,0.04514299434640234,0.04475317785447285
643,0.04515684600309026,0.0447794837140623
644,0.04518223664374184,0.04542863745927434
645,0.04515203047427628,0.044931148867627814
646,0.04514980133619907,0.045022976382590695
