epoch,loss,val_loss
0,0.43205262440218745,0.2665880390859095
1,0.26991409823310386,0.2553801407610026
2,0.2663777577127811,0.24355248085677092
3,0.2599497942673005,0.2518991942533321
4,0.26108920792515894,0.2521691184433514
5,0.25763111213166967,0.2348635904400308
6,0.25851702602435533,0.24284548704593237
7,0.25880928451510027,0.23592648122819188
8,0.2573601705155628,0.25107472602033265
9,0.2590394335104715,0.2626504551102645
10,0.2591573562297084,0.2508486095885387
11,0.25997527710216534,0.2538033084035983
12,0.25942186068137996,0.2450153854134019
13,0.2591702924061528,0.23887312386882856
14,0.26272866469893674,0.243215669015995
15,0.26021019758297215,0.25167883955552534
16,0.26110175839536565,0.24252385262396892
17,0.2616150067258683,0.2672324928319851
18,0.2617362694109412,0.2595743980116701
19,0.2594489226038691,0.26028264870463785
20,0.2600253782241797,0.24971120490935017
21,0.2618359749833997,0.25263023364379555
22,0.26298525094317854,0.2529659185555536
23,0.26392556268205825,0.2536576923469364
24,0.26289421864587653,0.24610506639863453
25,0.26380159704087736,0.25390931556646357
26,0.26088743947380727,0.25761446767673196
27,0.26251643851960155,0.2429525923144015
28,0.2618166159411924,0.25706555181321145
29,0.2625589180496142,0.2635434804316565
30,0.2616147281612464,0.245721092044292
31,0.26172131158596423,0.2509703520392366
32,0.2620229164691712,0.25548316882764627
33,0.2616428192361915,0.24721027648458613
34,0.2592173943503367,0.24741955760138265
35,0.25958829997681543,0.2549708820728393
36,0.2594250287469909,0.262790552141796
37,0.26207302781560116,0.2567277026195789
38,0.2621769529399727,0.25430824147765463
39,0.26133506575090776,0.25004753226298004
40,0.26324799591846904,0.24702705705156194
41,0.26079457371329384,0.25377428709300476
42,0.2598210377954215,0.2445201091981959
43,0.26052699210025293,0.260494058004551
44,0.25994234592963256,0.24744566632109932
45,0.2611867251863377,0.24200551678326104
46,0.2587092659466738,0.2494599386046596
47,0.2584258398358778,0.24566740297923123
48,0.25915904226209563,0.25440906784636935
49,0.2601407760496231,0.25235754576574376
50,0.2597829527538523,0.25090257301382773
51,0.2593079451456654,0.24440262913220506
52,0.2591523563413261,0.24959997842443346
53,0.25948997212348696,0.2523938124124731
54,0.2599425271773835,0.2450242216448811
55,0.25763290667767713,0.2423018515955986
56,0.25772467040247304,0.24082069990843752
57,0.25635380540087854,0.2408524022195171
58,0.2565321219299105,0.25364302242566006
59,0.25535528174488903,0.24997642736607031
60,0.25558180736603026,0.23695500387182492
61,0.2543053093065826,0.23811781639648663
62,0.25467153515120905,0.2472554567811553
63,0.25506687256171284,0.23973433154922913
64,0.2545525186938988,0.2451072863732908
65,0.2535891267564222,0.24630481762462578
66,0.25163069390076653,0.2411116467001761
67,0.2556545223482997,0.2545830132099834
68,0.2581899272049781,0.2606693944090861
69,0.2575527095527435,0.2383058409766269
70,0.2559041546954452,0.23871465834629604
71,0.2557886822031344,0.24604915254065785
72,0.2570514898595092,0.24370358119335778
73,0.25845861609121434,0.24802755341477636
74,0.2577917083763809,0.25173509936698163
75,0.25838260378858585,0.24214237308415182
76,0.2570147121472775,0.24617826573653426
77,0.25601985086027007,0.25773424522865135
78,0.25548606413641006,0.2516352600279806
79,0.2577804396267506,0.24179036569663015
80,0.25579362354868407,0.2445784036526328
81,0.25491517769087785,0.24738793652761495
82,0.2567603628429248,0.24895542333112533
83,0.2592035613482814,0.25348034406810493
84,0.2575800883068477,0.2498528352135676
85,0.2568676376147114,0.24063109801681856
86,0.25682121591629076,0.24016335546148568
87,0.2570936632655066,0.25457449468866367
88,0.2583524425736993,0.25561998159732646
89,0.2583361995205868,0.2502484457795444
90,0.2598248759957196,0.24624288697264007
91,0.26070849227012877,0.2480246556283784
92,0.26042074495978695,0.2600943472142734
93,0.2594483363404095,0.24617211434866293
94,0.2599559398986894,0.25082512840399
95,0.26041879408878743,0.2570178153330199
96,0.26061443492973013,0.25084419972705146
97,0.260131574886813,0.2501536777298913
98,0.25895557500081984,0.2519475447870519
99,0.2611793114291467,0.24639703830083212
100,0.2640030404106916,0.24968011851293326
101,0.2618208352485306,0.24821515203682465
102,0.2593185577192623,0.24020543693287627
103,0.26040419323550307,0.24523564079430465
104,0.26142607982441174,0.2433077728395431
105,0.2588515986589263,0.26275724246312426
106,0.2620925357620462,0.2664803456022598
107,0.2652730046509742,0.2566070138368777
108,0.26478608915383955,0.26118825435251697
109,0.26260232189304833,0.25062453957079683
110,0.26287322234305693,0.24894359688495873
111,0.2636448886272333,0.26093350714623975
112,0.26326778952816754,0.2500488315040468
113,0.26161551495210184,0.25907619523499326
114,0.26226381742185934,0.2680648412292601
115,0.2612688184691201,0.2593172456032845
116,0.2594061698063647,0.24404864882127308
117,0.25969479102984344,0.2467073945499298
118,0.25917623543424356,0.2526414342170214
119,0.25828931196104343,0.24687938998843825
120,0.2572703923496177,0.2389016498759425
121,0.25954993524319464,0.24887157905324145
122,0.25783625834459684,0.25585917130245583
123,0.2592760144984178,0.25741542603847756
124,0.2628723648581818,0.24283462040132367
125,0.25943595459692187,0.24930648186636087
126,0.2612914518655253,0.2497204223954378
127,0.2602401370879075,0.2570154635116325
128,0.2622054286175866,0.24573526128413517
129,0.26125896743553173,0.2593647536473456
130,0.26040618056602916,0.2519287201609925
131,0.2624465571321231,0.257741976840556
132,0.26312760202836,0.2495186937261382
133,0.2602418805476281,0.24207357067648028
134,0.2570754133695789,0.25130394141024337
135,0.26040659179751446,0.24605585360372348
136,0.25917021938569074,0.25134409028683263
137,0.2592757748450347,0.2581489151169977
138,0.26325933257635353,0.25718617053749304
139,0.2692756163921234,0.2586402909744105
140,0.2677183460482986,0.25067720293321943
141,0.2637340447025074,0.2440124160012673
142,0.26263435123513656,0.2654780156831865
143,0.2632907495868979,0.24837853291222262
144,0.2639658024148334,0.26473724842071533
145,0.26588431809595625,0.2620260757299719
146,0.26873579125007313,0.2542819191383716
147,0.2637485446120568,0.2555701518242473
148,0.26367925600804165,0.2583071095785859
149,0.2656613452802953,0.2603901819856981
150,0.2604089849072995,0.25032295963431606
151,0.2597572030104381,0.25301348232488174
152,0.25790639597478154,0.2625775727453216
153,0.2591673810067799,0.2512080946760456
154,0.25898331308288514,0.25216422375632996
155,0.25808051893647144,0.250504846132488
156,0.25739282527095897,0.25437426545324116
157,0.2578464224457359,0.24129361652641498
158,0.2583386652929197,0.2522309367988328
159,0.2594871729898682,0.2419906321426571
160,0.2598927778790625,0.24494598633084758
161,0.2591688980141862,0.24295728354558457
162,0.25891112471170863,0.24716429832933012
163,0.26289571076631546,0.2563241888305953
164,0.26337211198502297,0.24474816601980245
165,0.25939125841479,0.2413772228691313
166,0.25852940077658554,0.24758229282022198
167,0.25894436079134836,0.25472051381388044
168,0.2613340786533703,0.260764163075089
169,0.2618768210645864,0.2498260382124784
170,0.2587274570432637,0.24898602406812315
171,0.27102502348949853,0.2646526611392709
172,0.2642819669971569,0.2535147289024169
173,0.2626582194176362,0.25072608812011943
174,0.2620576337230406,0.2599524699713482
175,0.2609435128416416,0.25010893763996966
176,0.26015535227841047,0.24776372504447014
177,0.26631060326166206,0.27303452989190746
178,0.2706777329942147,0.2589725978545609
179,0.2702294371371941,0.2691233192192087
180,0.2655210681885982,0.24810744156125883
181,0.2665988733892063,0.26325417555935093
182,0.26558714318242044,0.25057292285481797
183,0.26191833932057107,0.24611872024924797
184,0.26480874188954207,0.2588905747813707
185,0.27009569549913687,0.25913651325020093
186,0.26963484842625496,0.26579351447649535
187,0.26706515416634186,0.24287701225918865
188,0.26617557420026217,0.25716367361512693
189,0.26764696601441235,0.25049565175347277
190,0.2695138524230525,0.2727002223042676
191,0.2691180695286744,0.264135705583577
192,0.2629934923232699,0.25281439705873443
193,0.26189840823006305,0.2527156453353065
194,0.262742575129764,0.25732199372746356
195,0.26226234745034416,0.25765775538080604
196,0.2608045913917337,0.2517516518499633
197,0.26224086740858754,0.2473843804071903
198,0.26244835798338567,0.24717085434475858
199,0.26510854576042503,0.2651844517133725
200,0.26328993142486284,0.25035635671379697
201,0.2620127253156838,0.25787978998210886
202,0.26379358600243463,0.25225213745311326
203,0.26289624331878414,0.24853035337491822
204,0.2650671198880606,0.25810240391590494
205,0.2655353514646129,0.2749741758308271
206,0.2646114970859382,0.25451435083455415
207,0.2643649886019999,0.2514737778964897
208,0.26488177391817513,0.26969982938658194
209,0.2697802961015816,0.2650412357346565
210,0.27317910613395197,0.25598193363068267
211,0.2660913251942878,0.2510034584433493
212,0.265909775041694,0.2518962314239094
213,0.26281088203478087,0.25144012139419764
214,0.26785508805723357,0.26846860867637207
215,0.2635376300272033,0.2428680773513257
216,0.26329227969992913,0.2533985180697205
217,0.26346075793711826,0.2513035747909198
218,0.26446024260466533,0.25231963115693684
219,0.2770294072546417,0.2623570207914297
220,0.27615850714085294,0.2656020951024517
221,0.2734511775121964,0.25867978406696907
222,0.2735496203991487,0.267654122904076
223,0.2724498954174326,0.2641404768193725
224,0.27339466058725925,0.2636323362371347
225,0.27347221760581836,0.2616587807541443
226,0.26935043638114264,0.2499650623604039
227,0.26983506058315165,0.2640484416160947
228,0.2686058837977097,0.2573785145207333
229,0.26708792882551663,0.26125717383038194
230,0.26554123580074007,0.2558172488130405
231,0.26724800610060306,0.2599177681399088
232,0.2750613185061847,0.269249564745227
233,0.2748056828403015,0.2587587836546716
234,0.27441835624752664,0.25405991216403917
235,0.2741144243970788,0.26403079258651146
236,0.27303773158783906,0.2641972158850448
237,0.27342209833158887,0.2623864482281562
238,0.2733440862012635,0.26855338085065117
239,0.27401445971263516,0.267648156396954
240,0.2722724637358164,0.2571934641060168
241,0.27264665920821257,0.2646342747257864
242,0.27453374384258916,0.2674296848167758
243,0.2799483362594254,0.26844542824632256
244,0.2787608173522976,0.2665537312953141
245,0.27368193109623423,0.25832362830735567
246,0.27315093785094874,0.2520380569538834
247,0.2730172080419558,0.2544246957080691
248,0.2723159909224491,0.2531051057581967
249,0.2719146833778191,0.2563781746136688
250,0.2720571289762103,0.25783923445971924
251,0.2717219879798549,0.2597189922450716
252,0.2727439709669881,0.2728152172843905
253,0.27329214121266493,0.2621052290183784
254,0.2733020095215787,0.2657414492271049
255,0.2739403350673932,0.2701523061071289
256,0.27296963628169724,0.27019345472715584
257,0.2725738331890278,0.2618629037004511
258,0.2730511569554468,0.25769695750794946
259,0.2695384120182384,0.26012692939481014
260,0.27222907499636145,0.26305190673806467
261,0.27362810031736823,0.2638480055530383
262,0.2731148174481453,0.2684546163530729
263,0.27464730810341215,0.2708081789888798
264,0.27535239355959257,0.2591238608833067
265,0.27477401480066765,0.26239144681240617
266,0.2726849331807575,0.26027049652368
267,0.274363462827366,0.26070320333104163
268,0.27475905881894885,0.25656819385865404
269,0.2737536683702488,0.26591594055572954
270,0.27613229634429665,0.28728547020356826
271,0.27574169845749036,0.25732785488712234
272,0.27556196059748306,0.2629280998299785
273,0.2755970279630229,0.26968591544846643
274,0.27556586590669363,0.2646970214248187
275,0.27560992917721516,0.2641541931025883
276,0.27479279593671196,0.2821313895206575
277,0.2755739254544409,0.280175437288176
278,0.2753350140155555,0.2713785439802202
279,0.27461039783169117,0.2603559028855785
280,0.27589115271385045,0.26055814394695626
281,0.2759119076631945,0.2623775009087016
282,0.2757432214778552,0.2637428190900558
283,0.2754932089482812,0.26183418710833145
284,0.27576019549913844,0.2805713487053343
285,0.2757142288886231,0.2695528685031436
286,0.2754566853193401,0.270957796895591
287,0.2767768293094215,0.2660198460747726
288,0.27669397544106833,0.2681583656543459
289,0.27592018003865565,0.2631216197843389
290,0.2753422213755578,0.2635871847639795
291,0.2761898666047592,0.26508750516954516
292,0.27576876552201346,0.2613066314974164
293,0.2757922217870255,0.26561188906890437
294,0.27514010080821616,0.2638350472833118
295,0.27558909333926185,0.2638460070450714
296,0.2761759077302449,0.25928139355447555
297,0.2761601526692832,0.26603625284542615
298,0.2769583486396375,0.27250894612881194
299,0.27740285806864906,0.264240372693355
300,0.2759981130401166,0.2580190171991435
301,0.2771766657431761,0.26750771518848043
302,0.2770487498268306,0.2604535288160058
303,0.27690452930806064,0.2652174323458838
304,0.2752978665361985,0.268322640116004
305,0.2769248192970327,0.2629983710232346
306,0.2767341762566395,0.26648376935251533
307,0.2768941551888342,0.2610863114602181
308,0.27626979761451986,0.25986489057782597
309,0.2747490954181974,0.2675374815571337
310,0.2747002857937824,0.26187183156259064
311,0.27591243688706113,0.2718959968697222
312,0.27630243536302623,0.2736228907122809
313,0.277085209490539,0.2867706467828805
314,0.27657188314070597,0.2700824219815052
315,0.27632368082185094,0.2590807477512305
316,0.2747684545081267,0.2613879204859892
317,0.2761795791544563,0.25775825576093847
318,0.276722988007878,0.26484396644027275
319,0.27615410529727263,0.2669927191898674
320,0.27768858920654554,0.2697128240934544
321,0.27732744886337807,0.2665199351837649
322,0.27674332883259695,0.26056297747033064
323,0.27688518189806477,0.26137577643843074
324,0.27633330934018113,0.2829265160257992
325,0.275522804414157,0.26535348416534943
326,0.27617038167816244,0.26469796647023885
327,0.27651929956159177,0.26349846407203104
328,0.27680786526661283,0.26220966580672084
329,0.2769310569720234,0.2625635031245147
330,0.2760123056922558,0.26658035780923306
331,0.2766650289750462,0.26006994121507815
332,0.276603862142162,0.2690267877687986
333,0.27702977226747333,0.27250316057472046
334,0.27762731944350266,0.2653921894904374
335,0.27565884476809427,0.2609197027491827
336,0.27670007648231315,0.2755332509386568
337,0.27420630443205923,0.2748830231436848
338,0.2733437969171113,0.2611284246313214
339,0.2733263444838474,0.26023156568710143
340,0.2746845167980278,0.2563974732126729
341,0.2746721596014891,0.26133746261627616
342,0.2736659916498071,0.2671675179078148
343,0.2742092196909402,0.2835797393650711
344,0.27589957048002484,0.2656686683181622
345,0.2744579797355627,0.25751774605221606
346,0.2746746574250386,0.2608551200409779
347,0.2740332783521224,0.26505576167180106
348,0.2748448460864677,0.2601428638361183
349,0.2737814059631647,0.26315816546830334
350,0.271871583206688,0.2566248883537809
351,0.27318427999249645,0.26372002030134395
352,0.2745502218425131,0.27034966618620276
353,0.27187283131315576,0.25758926671931925
354,0.27060178216335007,0.2597843613188536
355,0.27139290125728893,0.26809727960694446
356,0.2709999955695471,0.2547047376777714
357,0.2685202252778938,0.25891486910041134
358,0.26869200833374446,0.2612429309186177
359,0.26976918866984645,0.27651041479054644
360,0.26974687931702745,0.2559938567591603
361,0.27055078147768113,0.2578969443729034
362,0.2682959651939863,0.2615217243933813
363,0.26699835455732596,0.2594185385366619
364,0.26632607217618615,0.25523256636787406
365,0.26734411767165694,0.27344454849095046
366,0.26877340890341894,0.2553804791611767
367,0.26664033343044635,0.2499162158826842
368,0.2676432484490954,0.25818280458740367
369,0.2678894252778054,0.2578513310846041
370,0.26852589938118515,0.2611858049424219
371,0.26836757383960264,0.2534357318647103
372,0.269825947574609,0.2653998246617367
373,0.26825978737578,0.2634163379234119
374,0.2666504362566744,0.25103501280632234
375,0.2678552858048291,0.2537474140754485
376,0.2671048700439634,0.24891644806902485
377,0.2660218235120189,0.25690465622913133
378,0.2652590366973698,0.2528721691144741
379,0.2666375442050857,0.25505264375331627
380,0.2670187453886239,0.26537157590323507
381,0.2668541354702128,0.2482317183453768
382,0.2674944547233914,0.25821036296169253
383,0.2671427536752818,0.262775890269322
384,0.2679984802074486,0.2527403591588949
385,0.2670742689942817,0.2623407860186075
386,0.2665798160269129,0.25685203240977394
387,0.26700174589578013,0.2526491401235166
388,0.266520424001068,0.2569038628420014
389,0.2653104438363694,0.24758051781758775
390,0.2658366581635345,0.2535181189105459
391,0.26426817055603713,0.25036203110740135
392,0.2646842363765471,0.25898771439977325
393,0.26720162821088056,0.2507294052297858
394,0.2660901612095875,0.2482018412513068
395,0.2664499955894567,0.26654252516285537
396,0.26632638483810084,0.24807637535935964
397,0.2663775245018536,0.2605936887756365
398,0.267648798803552,0.24961420491229008
399,0.26603427499508836,0.25426333938443557
400,0.2660860476301039,0.2514129515256905
401,0.26659073175980247,0.2691956750764561
402,0.2660475593445013,0.2582113488191332
403,0.26579558445488194,0.26544041282649167
404,0.26740430695734757,0.2519665447102266
405,0.26848461211109464,0.25733866110528664
406,0.268150283269781,0.26024697062356245
407,0.2676346975448038,0.25827285789998683
408,0.2684218489092956,0.253960815756087
409,0.26797494093616836,0.25420762783419476
410,0.26696267772355586,0.24993380587563124
411,0.2670494980030388,0.2563377397749739
412,0.2679829554821702,0.2583143404486309
413,0.2679550998252902,0.25201224816686624
414,0.27119912979624766,0.2575196870704637
415,0.26778763415123386,0.25297337601267994
416,0.2690495153586324,0.25850351411012357
417,0.2679078509573272,0.255522864530073
418,0.2674889840883575,0.2579389339598426
419,0.2662235662949572,0.24942840160824667
420,0.2664399918100183,0.24879758584480022
421,0.2670809506379766,0.26511120546038136
422,0.2671020883169052,0.25893674655503984
423,0.26733627212080985,0.24833464965719762
424,0.26675573347495785,0.2559512656390522
425,0.2666808867557131,0.25134911329545145
426,0.2672291851227431,0.2556831294675233
427,0.2659294546199284,0.2535273544278845
428,0.2659761919151601,0.25529591576026306
429,0.27072576704241924,0.26099110905319717
430,0.2676813431662784,0.2508589715031425
431,0.2656433018412086,0.25820472231021474
432,0.26569403474740355,0.2560339340545835
433,0.2655096988650777,0.2553687832482153
434,0.2668645092434555,0.2569878059171219
435,0.26520896961896107,0.25585909130992873
436,0.26728083665152375,0.26368645812473157
437,0.26598501831794186,0.2562623668978684
438,0.26737871556710585,0.26563613592901564
439,0.2695274618301418,0.2563379554732099
440,0.26835079421941715,0.25474726950745225
441,0.26827254672471385,0.26276157588515936
442,0.2750552282620183,0.2637412132452101
443,0.268399335354495,0.2664017946688218
444,0.26896927523030767,0.25156500748232524
445,0.2718751880707886,0.2556571288507157
446,0.26982211265519107,0.258149489724143
447,0.26934455750917224,0.25173675740819007
448,0.2672123980579422,0.25532967922944705
449,0.26833843844856997,0.2570635469846385
450,0.2697542414629908,0.2702995246005851
451,0.2677410308590787,0.2557488897541917
452,0.2726083053014964,0.2620148062101729
453,0.2680620019308465,0.26327890198789566
454,0.26957405461751527,0.2593214093116078
455,0.26742630848605886,0.24662583456083903
456,0.26867110956254436,0.27193338798007055
457,0.2768231475348469,0.2657721179317674
458,0.2826224408381648,0.2687840425233385
459,0.281316102183371,0.2650434472820958
460,0.2804171527632243,0.26342564331789087
461,0.27874413908744833,0.2738009513101245
462,0.27831829750867154,0.26762629129349075
463,0.2780955246417784,0.28581050630516863
464,0.27859254779101755,0.2712277999058644
465,0.27763696839873364,0.271601071975527
466,0.27777362185969556,0.258391236918106
467,0.2783784098368439,0.27126680370133194
468,0.2779900793305295,0.2758616100383404
469,0.27792242126430483,0.28526124782370826
470,0.27790713574501685,0.2775495799691911
471,0.27771915151201504,0.2643976700156081
472,0.27880987028082055,0.2657424132585139
473,0.27704600017485,0.2655423398508063
474,0.27691531765332117,0.2743473833929883
475,0.276177099709801,0.26589672841488204
476,0.2764100088022822,0.2643967385298821
477,0.27690645246457063,0.2716505235757464
478,0.276470413444947,0.26804381671806515
479,0.27663554336496887,0.26074205120211197
480,0.2759280846930676,0.26720075409584476
481,0.27758782565164225,0.2609832561895892
482,0.2766567992629577,0.27097372611605436
483,0.27707897843099577,0.2698054998291283
484,0.2761151144524113,0.26518420778390167
485,0.2761296129541649,0.2656867461217097
486,0.27576620140678887,0.2683636807781453
487,0.27660491130202175,0.2672028636917871
488,0.2766531547658247,0.2644661580728305
489,0.27593811139691055,0.266352067403163
490,0.27708137529887994,0.26766526110512595
491,0.27800991000224345,0.27159691976031347
492,0.2768404660425824,0.26580571208605414
493,0.2756230025302419,0.27630736315675797
494,0.27475198710842835,0.2611521147100885
495,0.27480995786891543,0.26309187759834873
496,0.2752942833676636,0.2690957169148947
497,0.27539365862707216,0.2711950635895532
498,0.2766965912450687,0.26276377975844023
499,0.2756222772051851,0.2731609205259894
500,0.27644106081789066,0.2722484509053505
