epoch,loss,val_loss
0,0.8209120254185465,0.9008378758033116
1,0.9016702637142605,0.9006014803647995
2,0.900759185579088,0.900345696926117
3,0.9010498803191714,0.9003576864401499
4,0.9807069794866774,1.0
5,1.0,1.0
6,1.0,1.0
7,1.0,1.0
8,1.0,1.0
9,1.0,1.0
10,1.0,1.0
11,1.0,1.0
12,1.0,1.0
13,1.0,1.0
14,1.0,1.0
15,1.0,1.0
16,1.0,1.0
17,1.0,1.0
18,1.0,1.0
19,1.0,1.0
20,1.0,1.0
21,1.0,1.0
22,1.0,1.0
