epoch,loss,val_loss
0,0.8441140429178874,0.9503275849024455
1,0.9504646672672695,0.9506988810300827
2,0.9504699654181799,0.95039164574941
3,0.9503025228977203,0.9501494899988174
4,0.950221070461803,0.9501393312613169
5,0.9501665048069424,0.9501812067826589
6,0.9178748826185862,0.900307073354721
7,0.7844855897956424,0.752532722791036
8,0.7511078728304968,0.7507392822504043
9,0.7532484411663479,0.7513218304713567
10,0.7508783056073719,0.7509229622284571
11,0.992669236448076,1.0
12,1.0,1.0
13,1.0,1.0
14,1.0,1.0
15,1.0,1.0
16,1.0,1.0
17,1.0,1.0
18,1.0,1.0
19,1.0,1.0
20,1.0,1.0
21,1.0,1.0
22,1.0,1.0
23,1.0,1.0
24,1.0,1.0
25,1.0,1.0
26,1.0,1.0
27,1.0,1.0
28,1.0,1.0
