epoch,loss,val_loss
0,0.5756722872919506,0.6031206060647964
1,0.6025570770104726,0.6017255455255508
2,0.6020906086365382,0.6014444848696391
3,0.6041694790919622,0.6016132402817408
4,0.6018786328501171,0.5517815310955048
5,0.5650996480253008,0.5512300196488699
6,0.5525321808788511,0.5512532811562221
7,0.5527852298418681,0.5517575094699859
8,0.5948408787647883,0.6010000931024552
9,2.8316118027501638,1.0
10,1.0,1.0
11,1.0,1.0
12,1.0,1.0
13,1.0,1.0
14,1.0,1.0
15,1.0,1.0
16,1.0,1.0
17,1.0,1.0
18,1.0,1.0
19,1.0,1.0
20,1.0,1.0
21,1.0,1.0
22,1.0,1.0
23,1.0,1.0
24,1.0,1.0
25,1.0,1.0
