epoch,loss,val_loss
0,0.8220681274467044,0.8011726327339808
1,0.8019882088369793,0.8009490931828817
2,0.8011321052047942,0.8006520156860352
3,0.8010648165676328,0.8008475685516994
4,0.8330054909388225,0.9003023982842763
5,0.900479195912679,0.9002685494025549
6,0.9037023073567284,0.9011126344601313
7,0.9108124825292163,1.0
8,1.0,1.0
9,1.0,1.0
10,1.0,1.0
11,1.0,1.0
12,1.0,1.0
13,1.0,1.0
14,1.0,1.0
15,1.0,1.0
16,1.0,1.0
17,1.0,1.0
18,1.0,1.0
19,1.0,1.0
20,1.0,1.0
21,1.0,1.0
22,1.0,1.0
