epoch,loss,val_loss
0,0.6606890958746274,0.7015993757645289
1,0.7029025789764193,0.7016752689679464
2,0.7015393819014232,0.7013696875572205
3,0.7011572742594613,0.7017570814689
4,0.7966508052216635,1.0
5,1.0,1.0
6,1.0,1.0
7,1.0,1.0
8,1.0,1.0
9,1.0,1.0
10,1.0,1.0
11,1.0,1.0
12,1.0,1.0
13,1.0,1.0
14,1.0,1.0
15,1.0,1.0
16,1.0,1.0
17,1.0,1.0
18,1.0,1.0
19,1.0,1.0
20,1.0,1.0
21,1.0,1.0
22,1.0,1.0
