epoch,loss,val_loss
0,0.14285147609821947,0.05639851986832664
1,0.03681375338456971,0.023881617773268388
2,0.019084236272674002,0.018191057602097976
3,0.012603459362726775,0.012570489984484949
4,0.012604041467997715,0.01575764568468178
5,0.01233497953792806,0.00708480968875862
6,0.011448387063847636,0.012299061528662104
7,0.011018024933383726,0.00957341655212636
8,0.009908088716863692,0.015266790941222361
9,0.01089613718783958,0.014629214319923117
10,0.010503895761114624,0.015058929567396547
11,0.010113861911716484,0.0076188859724584486
12,0.009387264622924038,0.012698474734868698
13,0.009758311824286454,0.007252755765630419
14,0.008824374775761824,0.008660109096957223
15,0.009991124485448885,0.009616699623974554
16,0.009983330957318315,0.008513624756358088
17,0.009343168635530282,0.00766930612864086
18,0.00981196659084091,0.010026000602569227
19,0.009248700353214971,0.008360804382773394
20,0.008903360100005933,0.015616137577748572
21,0.008167403826149826,0.006207129510079864
22,0.008821279939757638,0.010287913439417554
23,0.009269873265826184,0.00850195268164635
24,0.009047988912095871,0.008204463413595306
25,0.008408977198868626,0.005769543608851972
26,0.00914640485258441,0.007571158237496557
27,0.008453454191835194,0.013385601572533622
28,0.008447208675182909,0.00886745358381388
29,0.009081043148536881,0.007796086975532836
30,0.007950049481164071,0.009833858352839571
31,0.007935526803490236,0.008533286457791655
32,0.008334527189711586,0.008402863572533194
33,0.008953393207953053,0.005467648498843341
34,0.009151108068995458,0.010679279923021512
35,0.008531922401546193,0.006033204866377688
36,0.00849689397537302,0.009204077510855616
37,0.008549781277221884,0.007890990135519403
38,0.007762399182910268,0.01064441103896901
39,0.00892237998456951,0.01298943359401862
40,0.008697680564862278,0.007546953557775118
41,0.007889641788888643,0.009487760306910068
42,0.007463561156470564,0.007905109998664945
43,0.008397198366306478,0.008246997206294711
44,0.00842872764308491,0.012541105353288888
45,0.008438222241948257,0.008986913814446827
46,0.006538614451469814,0.005114906690588431
47,0.00730636283802948,0.01111292659401329
48,0.007945188534554752,0.007101211549115868
49,0.006455373670291647,0.006282993741539302
50,0.008492699109589595,0.010918038044545296
51,0.007817257151787849,0.0052213839971222975
52,0.008094910301918017,0.01224239257288525
53,0.008101462595463306,0.00891179647428978
54,0.007057435172282422,0.006869304618315261
55,0.007653776322026923,0.006511982355778412
56,0.0068836408619993,0.008883399838888938
57,0.00795817674345357,0.007454673698261651
58,0.008149755963155602,0.007532780124102414
59,0.008069180214195419,0.012744357219170235
60,0.007654881041733732,0.0054064471088643845
61,0.0077295410740885325,0.006052625866867043
62,0.007637435208643518,0.008974203290072312
63,0.0069958831037139355,0.005895094688755372
64,0.006262671127881881,0.007202006538340494
65,0.007535963227952288,0.006236876178041818
66,0.007771916790782726,0.0047739832728201466
67,0.0066317861357578735,0.006962847907313725
68,0.006281976736590659,0.005665007111305502
69,0.006267780228220165,0.0093353280140456
70,0.007601056151076419,0.006038489312318689
71,0.007704889531795242,0.005641450278899076
72,0.006909690858281815,0.006052829156502576
73,0.006796424155965519,0.012442136889039859
74,0.006735440824355046,0.0054428544768000695
75,0.00823118659877237,0.008497172691319036
76,0.007267603768500314,0.008968708026733753
77,0.006771473506138735,0.0042790619172405776
78,0.006525613379841156,0.005351191510438284
79,0.006696312720954364,0.004721794751176542
80,0.007025907227719615,0.005165303247262619
81,0.006826798842983882,0.004221134498603671
82,0.006942819936467494,0.006376215054241216
83,0.007103714497862674,0.012742447722688517
84,0.007414082481472237,0.007243751657387241
85,0.006861694693229616,0.008079426018734357
86,0.006960144881505243,0.007582400569320313
87,0.0070452968620484495,0.00803508360310801
88,0.006976840399793066,0.010469247323138186
89,0.006798331689876433,0.006959357560592415
90,0.006715925899036467,0.008770151396047532
91,0.006590885193672308,0.009805129632212651
92,0.00806793708681426,0.006890636807764809
93,0.007579637975763265,0.004989306733523802
94,0.00738830408018133,0.003582408407485464
95,0.00658330817030911,0.005211989950659172
96,0.008011929835914988,0.008912416413167657
97,0.006669479677063539,0.007311477247205134
98,0.007126429308426204,0.004861867336825348
99,0.007090218574851662,0.005984047750465354
100,0.006364241415868513,0.005533876451762906
101,0.006793284877318797,0.006884209103088446
102,0.007540735326778831,0.005786928939967524
103,0.005885230425520421,0.007621841144989867
104,0.005603282103243528,0.004230784004202793
105,0.006523463813823274,0.00600449142289578
106,0.006164531094218633,0.009596655714224904
107,0.006193101442669132,0.00844096749338844
108,0.007172120860584235,0.0049445722046313366
109,0.00739244351291554,0.01080003351078978
110,0.0076224652350136484,0.007377204164750903
111,0.0063714027884219,0.004583267144779451
112,0.006411341583835695,0.006005368537645149
113,0.006943751132669602,0.0067048271998157395
114,0.006067372310413814,0.006789296837898461
115,0.006307753340656058,0.006104048756822273
116,0.006435824676787556,0.010335715988911129
117,0.006955933473672239,0.006576542742182842
118,0.006612376892938466,0.006631190561481414
119,0.005936984267222772,0.004065054453741803
120,0.007214880853368016,0.011226395626523736
121,0.006705817986755438,0.005273343975366856
122,0.006160252323511133,0.006850500536337201
123,0.006944737397134304,0.006278821526664208
124,0.006254256437930891,0.006518959197500205
125,0.006391986925285205,0.0064719892533285795
126,0.006710360143452787,0.006337156224901764
127,0.0060107566716468075,0.004548352412753037
128,0.006116971032221993,0.006611370203697549
129,0.006835134880752008,0.00605094774560775
130,0.00689224036597311,0.007286205569512983
131,0.006814405013681303,0.004543501494530274
132,0.006179064468515637,0.006738675104405646
133,0.00605141948986736,0.004716228117068146
134,0.006046734313271362,0.004904886309627881
135,0.007009843119522847,0.0076799767507914965
136,0.006501168285650637,0.006939113459857835
137,0.005808377907489338,0.005879984927843689
138,0.006219699627535193,0.006557952442104269
139,0.006446506932201378,0.006276789897921971
140,0.00735799439143848,0.00640164530779446
141,0.006133324970646823,0.006241949310051402
142,0.006004227755154274,0.008987659820735502
143,0.006437893942754856,0.007637697486273045
144,0.006242940319235996,0.005779949545745621
145,0.006202857570832879,0.007287500909108437
146,0.006629482281470983,0.006881331468123028
147,0.006693134108445883,0.005160445139038464
148,0.006358745046701434,0.010030154848872628
149,0.0058247814860215765,0.006545733663399764
150,0.0065635643039772705,0.004874971327713699
151,0.005630280400405256,0.006041022320443378
152,0.005802766811162186,0.004925420146138534
153,0.006429002790854757,0.005673471807730814
154,0.0067127347798373324,0.006511887346174577
155,0.00598967089948671,0.0051249759830387445
156,0.005608447888351643,0.0034932700050487563
157,0.005621157183168943,0.008677684687277936
158,0.006087336496697168,0.006400514763045612
159,0.006881367862797815,0.005296243785791564
160,0.0063963488456595845,0.006415404073582358
161,0.006407585344928727,0.004744001194884694
162,0.006533859959274209,0.00530686004832681
163,0.006433025293192156,0.003094510929276777
164,0.006777413190527857,0.0074979701397709705
165,0.00629370797231576,0.00439957324003811
166,0.006446659678781627,0.008769946169158136
167,0.006621884193262465,0.006804287115710287
168,0.005928811579507193,0.005995418767620469
169,0.006220451727465576,0.005048349117838146
170,0.005937800482216982,0.0036533851483020853
171,0.006982712968655353,0.009775747438479618
172,0.006111989495903552,0.004500316862081601
173,0.0062512814269797936,0.008232505709791428
174,0.005669583081283408,0.006987873173370992
175,0.00722438996124694,0.008134901245001883
176,0.0056290744189105985,0.004465089584226649
177,0.005507953492157775,0.005872009963388154
178,0.0070670811738781664,0.0061659528083670015
179,0.0056544114217842575,0.004424105854094875
180,0.005588273670774498,0.0050064156547882654
181,0.006594837392601434,0.004737547521597773
182,0.006244875545290371,0.0063670668655443395
183,0.00671079648399188,0.009125809645355218
184,0.006085166014168117,0.004554760856987599
185,0.006226087391427119,0.006287371827584957
186,0.006289872201364324,0.007478481465869751
187,0.006088869043083923,0.005333087111557904
188,0.006126628455919602,0.0054256035167144665
189,0.0068254209812924115,0.004019337395888231
190,0.006962903796212761,0.0044128643032736725
191,0.006395847616187907,0.007314564134990289
192,0.005339119261946621,0.00594029047849111
193,0.005700345023823299,0.007108584394415322
194,0.0067249411345012096,0.007860038208980305
195,0.006292864385576134,0.006692448163430053
196,0.005713536584512334,0.00819439756417178
197,0.0060133582393681224,0.005679591117101856
198,0.006433905109105785,0.009965268584099123
199,0.0066681502937457615,0.008741869596321939
200,0.006255000896698279,0.009674141287874216
201,0.0064261843326414445,0.005926024931355805
202,0.005614169203187916,0.004413172068999053
203,0.005900737946014777,0.0061901109429089544
204,0.0062708141082870985,0.004751969895148451
205,0.00569979768783542,0.004440264924831436
206,0.005950612806920543,0.006645789515850411
207,0.005358461550322267,0.0035987304289837757
208,0.005634780146749608,0.005607481937099839
209,0.005794612448204675,0.005250050982161945
210,0.006314095988446068,0.005875009144402764
211,0.005275595585534946,0.004332694400692889
212,0.006281869687444473,0.005160168811514233
213,0.00536488911792484,0.008576346914877126
214,0.006438996415208582,0.007667306491968405
215,0.00615204548227603,0.005162424961768014
216,0.005216662331278042,0.004830138746063918
217,0.005952612526132632,0.005667770645656897
218,0.006213444602235759,0.008719128639611468
219,0.0057888378989960935,0.004868818755719543
220,0.006630725679278141,0.005975711393157563
221,0.005803726699972283,0.0055565801184498005
222,0.005128182708188969,0.003176492171754565
223,0.005938266900436525,0.0073096524257339306
224,0.006313295748407136,0.005853799774128453
225,0.0055982711064040385,0.006853939589383499
226,0.006335858780377768,0.0068842234106877
227,0.0061447059575224115,0.0076560801124433975
228,0.0056195524557464595,0.006666304367567224
229,0.00569914196490226,0.01096233437697814
230,0.004917129453422009,0.004123522898942326
231,0.005533852772567597,0.00569207932000308
232,0.006334417951025283,0.0037880986272897676
233,0.0070041024163707815,0.005474891820106576
234,0.005753813649722777,0.003993125791729802
235,0.00573524130064604,0.008908742376483371
236,0.0057341102062152035,0.005934470006424254
237,0.005868263541256263,0.00453906502367395
238,0.005435775117044129,0.00857098706745805
239,0.006852377257920313,0.008066943454855337
240,0.0059710024467235405,0.011940389540819737
241,0.005709862237223696,0.006588118558421719
242,0.006346129568674855,0.0058615329574673025
243,0.005851003894791585,0.007884346779682853
244,0.00673098453852109,0.00420792310332531
245,0.005719152808976289,0.004574809234806916
246,0.005711880193905627,0.008734971056262291
247,0.0053246730409427095,0.004437716978792492
248,0.0055753021273199175,0.007709672098616234
249,0.00684775815860515,0.007255496756389044
250,0.006115944360194506,0.005122663786571588
251,0.0054915872921565655,0.0053781684077893925
252,0.00560097635346208,0.0036548854009157902
253,0.006339100508881416,0.004411935793410843
254,0.00561432386275759,0.00426843558013992
255,0.00593614235198755,0.0068948943198797455
256,0.005241021575077886,0.00967749391683181
257,0.005725786364603814,0.004338820280041178
258,0.005368479344302224,0.006357484400101835
259,0.00583059334862072,0.004401289787358107
260,0.006169796979008652,0.005450246547258385
261,0.006276061214662219,0.006036961426180747
262,0.004869514515327154,0.0044689156484790885
263,0.004569773053133237,0.005531401048548925
264,0.00560145831643064,0.007653566201576917
265,0.005604967997457049,0.0092549272081517
266,0.005813883557870276,0.005661229711781597
267,0.004914031267522735,0.004874291687162965
268,0.006048112455346017,0.005147868383311223
269,0.006745886786071826,0.005376468226975146
270,0.005026817257846627,0.005197663861308497
271,0.005112393258446954,0.0033570534056059915
272,0.005660764114699698,0.004925934765811336
273,0.005969726174197299,0.006494014640798132
274,0.00619917812127751,0.006506669662537049
275,0.006279433663148317,0.007266459561702108
276,0.006121789924052211,0.004974963653600395
277,0.0050851130670273035,0.005475863327743411
278,0.005293411179836526,0.006826096204430711
279,0.005817485201882748,0.005762173248059465
280,0.006173598409022133,0.004646136428008258
281,0.005732636233764909,0.004678284528502796
282,0.0064356058220312795,0.008407379652725587
283,0.005606261209668897,0.0046049254132697875
284,0.005773433538855051,0.003478320216982028
285,0.005794348625494517,0.006544430825444734
286,0.0055261895246282635,0.005078206772327235
287,0.005946349367115209,0.006113868579782998
288,0.005658764537493828,0.0034689852613558805
289,0.005418259165358456,0.006236810991709615
290,0.005830761646370974,0.0065275661793596975
291,0.005839169871316646,0.006783718983447966
292,0.006208023991618904,0.007593759523753162
293,0.006436807612295178,0.004547473455205172
294,0.004915508680227254,0.0055398479851599325
295,0.0062844007167865415,0.006069449760790123
296,0.005831791841846367,0.005859839316125263
297,0.006504215414358153,0.006450971742855251
298,0.005668491399162066,0.003718251914657717
299,0.005077331671681103,0.004167416664435813
300,0.005392891109372369,0.005747877793120486
301,0.006182526105469157,0.00479295597674109
302,0.005468590785455194,0.007563068898984223
303,0.005975562551294823,0.006101234632984521
304,0.005838448629728693,0.007024123860065896
305,0.005620908209786778,0.005471472396502814
306,0.004891698575503439,0.004861117200227638
307,0.006280521246352248,0.004735964014479375
308,0.0053290123979618355,0.004906843060623169
309,0.00452930822852719,0.004054701509249662
310,0.0062139573946988266,0.005060396536496698
311,0.005726577416393641,0.006203727127400528
312,0.0059140333741103755,0.004504882055022346
313,0.00558156979303408,0.004443523992255813
314,0.004955054509719993,0.0038397516402906215
315,0.0050407244184938116,0.004591913858903447
316,0.005669696909784199,0.006873318877353406
317,0.006600823470310931,0.005011342262633104
318,0.004889266942419279,0.00486155455834993
319,0.004841057731279378,0.004580624973447001
320,0.006133165085322702,0.00776358704312742
321,0.005951219355314523,0.006307344651033465
322,0.006250138922358493,0.006813512452758243
323,0.006069034244381278,0.005955036946784796
324,0.005049176473761622,0.004120978621593967
325,0.0054179028791973265,0.007721813205973596
326,0.006267635294587629,0.007215020029593168
327,0.005366952533440606,0.00402268506410137
328,0.005440985219632026,0.005737667720641385
329,0.005174222721649017,0.007974564212491264
330,0.0052620854606921915,0.004043565635608352
331,0.0053198931130694505,0.005281868524152577
332,0.00608239804139937,0.0038845617408278356
333,0.004643597819605659,0.004439745399360004
334,0.005086288293380645,0.007458084559872241
335,0.005787234307995601,0.009156550209448859
336,0.005921781797399022,0.007690107876224695
337,0.00603697021191435,0.007967269849679017
338,0.005256031821522829,0.005201955233283794
339,0.006217864365205258,0.005599747509302332
340,0.005928556459005192,0.004408165501193941
341,0.005640697977814576,0.005049721175773862
342,0.005693459438608973,0.0043673338574352185
343,0.00639361946899027,0.009617847638923583
344,0.006075650070355439,0.002894674018010697
345,0.005462599335146024,0.005448422135951346
346,0.005817393905935075,0.006632425524985334
347,0.005380170159343389,0.007288550560369252
348,0.005870346404923994,0.005760756660849679
349,0.005736302728463205,0.008957998954265392
350,0.005799655150491849,0.00406100392512883
351,0.005610912444824122,0.008594177201707813
352,0.005819043984988795,0.006358957477501978
353,0.006086932861698057,0.005442766921084606
354,0.006482866900540489,0.011139179519638595
355,0.005610578755612115,0.004924115836590928
356,0.006111781692972108,0.008518033508790603
357,0.00617563950117874,0.007379298536114295
358,0.006127708423365321,0.006822105585696688
359,0.005130318656312875,0.005293272334226681
360,0.005866178721606398,0.009305766628556771
361,0.005233826012340196,0.008374911616096933
362,0.005071060760948006,0.00822319302799058
363,0.0064512013529742255,0.0074403095507484165
364,0.004620684887287017,0.004081758245643472
365,0.005074482684550013,0.005799922984072846
366,0.005258732276010535,0.006188379322423437
367,0.006102071625633176,0.007188833650163336
368,0.005489312401089778,0.006215871405444493
369,0.005150782779122678,0.005894032695081494
370,0.005187979903999719,0.004953882693009482
371,0.005388187090896046,0.005647731020211609
372,0.005494751485264141,0.004642092059759663
373,0.005733390381339369,0.0036148178856452336
374,0.005156005841313595,0.007494023597880833
375,0.005527294867357119,0.0065585136672315775
376,0.007113184612285313,0.008562307206483082
377,0.004922048719640789,0.005671450066664672
378,0.005103399115279585,0.004326881310110875
379,0.0055383978793836774,0.003889256803651106
380,0.005853449741246657,0.0056022491420736065
381,0.006118944549146179,0.004955036191147735
382,0.005758819050158558,0.004976073818041663
383,0.0050638976361160335,0.004908592466282604
384,0.005480581568442375,0.005282875268786981
385,0.006821411307067346,0.010173145743364788
386,0.005707732551518253,0.0038889606364568272
387,0.005221796121900912,0.006393593411095846
388,0.00600080019894907,0.005291529242008125
389,0.005762698226902399,0.005782746167408028
390,0.005244740292703142,0.008059541527593498
391,0.006033844823169586,0.006459498146200449
392,0.00596936074454787,0.008886058262057584
393,0.005848034729918303,0.005684297038984633
394,0.0056402902497606966,0.004403823087669632
395,0.00540749565633066,0.004951190074057492
396,0.004947476730355137,0.0071933461348037365
397,0.005381575702569729,0.004810566226301249
398,0.006615859663320912,0.004510434297734509
399,0.005369523038464538,0.0065706819167247466
400,0.005738949786099664,0.004931544020607327
401,0.0054826004579358045,0.003796570646211258
402,0.005198943519798799,0.006152943032113769
403,0.005508520726790483,0.004027261543172194
404,0.004933615337493722,0.004696242216145348
405,0.005291303237367847,0.009026018379295822
406,0.006358246464166138,0.00801680575624026
407,0.005400517195884546,0.0037271300506805257
408,0.005332876420613352,0.003744522461538286
409,0.005694234019631503,0.0040806220493763805
410,0.0053245469115951434,0.0063028885382385635
411,0.005244842732137591,0.00393059512327595
412,0.006495974489489941,0.006406433613134376
413,0.005612094376364993,0.005095077261781495
414,0.005895602986399683,0.010087909487141524
415,0.0061046928751746195,0.005008042218485566
416,0.005506332987713978,0.004568779767559284
417,0.006169439733049257,0.006473309300537055
418,0.0061818169946183,0.003843522508060464
419,0.005435287121696015,0.0076843898893343525
420,0.005797158217159577,0.004465468624428844
421,0.005183106595311585,0.007175754410991682
422,0.00572566865754651,0.008408378049269636
423,0.006226773853774825,0.005965577729557948
424,0.006164523152478909,0.005741104095859634
425,0.0051013604751963025,0.005626383155948926
426,0.005440485543109101,0.004239335973712527
427,0.004983792846596582,0.004110051719243943
428,0.005361954551108247,0.005793149059678074
429,0.005492819863431852,0.004167948813481225
430,0.0048175705859227645,0.00777538529550914
431,0.005577128375046622,0.006062282533800169
432,0.006006730714538168,0.006987959878620616
433,0.005549597955546338,0.006877840197797285
434,0.005423687726741643,0.00421417451551112
435,0.005494586326912207,0.0062326360677663695
436,0.005674305097140419,0.006359860663035416
437,0.006190957962911275,0.006347511135682687
438,0.0047362261797211395,0.0033601081258254955
439,0.00572312467753497,0.006391000506507076
440,0.005376151240755358,0.007628931429078354
441,0.0052594091374908005,0.004797605522735531
442,0.005305327593254374,0.006669880254833643
443,0.006001603965972105,0.005717782984725137
444,0.0066674079512060586,0.0059490799786259835
445,0.005880389260396147,0.0055733665319684465
446,0.0056113066144479655,0.006711279473913615
447,0.0055902549512327005,0.0065904832581071375
448,0.005253430209226823,0.0050597546806657465
449,0.005237771017993573,0.005572030965044754
450,0.0058432054249190095,0.005857916993927725
451,0.005793633134134835,0.007032301239434103
452,0.00483268640980461,0.007068225652664523
453,0.005424093357551631,0.007194566522411056
454,0.00557287490722328,0.007341083550080363
455,0.006343971890900626,0.004990311549725077
456,0.005224867801957702,0.0070469404626623
457,0.004985062192550761,0.004923751871391907
458,0.006168915561477034,0.012092077280611575
459,0.006156462756600484,0.0038775971472475032
460,0.0054296965740225035,0.004511231978092381
461,0.005944791649707216,0.005114832751147137
462,0.005532995352784334,0.00533215266276789
463,0.005413417739113964,0.009138763130987217
464,0.00640557489978026,0.0064097690648136875
465,0.006213680053015145,0.006540796210829113
466,0.005403977092377823,0.004775599387254575
467,0.005096777562434665,0.0064987190061887605
468,0.005480325589389008,0.003885045163767102
469,0.00540536698830544,0.0062321692362615885
470,0.005765487896751235,0.004303985733271304
471,0.0049502511790169654,0.003710962698560417
472,0.00505648209355313,0.007138334682186288
473,0.005840846780054033,0.004171504280930525
474,0.004828472626484859,0.003546998744217448
475,0.005626914367231605,0.008116313226185827
476,0.006629626488787302,0.0051062728433436825
477,0.005609699313046424,0.007271607151371151
478,0.005794998974804368,0.006143558278294676
479,0.005299465675137753,0.005763073972240384
480,0.005761041581689519,0.008488826224346657
481,0.005922257319557295,0.004821423067393012
482,0.004368898225762099,0.0030025413139313814
483,0.005851949801479431,0.008570276468333618
484,0.006006831338414721,0.0043449035787627086
485,0.005189010248739841,0.008692939451880217
486,0.005057831984486053,0.004034546670675184
487,0.005784454819881063,0.005566588072613434
488,0.0047393733662345425,0.003092777258337967
489,0.005000620046433219,0.005274989972980406
490,0.005102511060120408,0.00647839337760831
491,0.005610251218638123,0.004969292809126786
492,0.005784924022483377,0.007310969614289295
493,0.004520159560258684,0.004299529856431056
494,0.004731998439404747,0.009843622976744983
495,0.005137341092809659,0.005017654165396233
496,0.004985970044921753,0.0035225294086414713
497,0.00564443249563254,0.006526547191177966
498,0.005582553853424523,0.003557972580410581
499,0.005966137922227496,0.004101819111234211
500,0.005400658357418704,0.003896230522097745
