epoch,loss,val_loss
0,0.157341533165565,0.06225507193919045
1,0.048659215622442326,0.0372380381413304
2,0.026214082375448717,0.02375416131285861
3,0.024446587667143124,0.024022516410065715
4,0.02405584500663334,0.02362214680246556
5,0.024007130624930397,0.02338479825934276
6,0.023792004750983465,0.02428407053115477
7,0.02393191315972214,0.02401490976567944
8,0.023922248106214593,0.02392272160468651
9,0.02382211540814498,0.02479687794725445
10,0.023807450587735427,0.023302803112998097
11,0.02374860364720404,0.023692995815551836
12,0.02379668031787153,0.02503045614964631
13,0.023785105807413394,0.023572619442828735
14,0.02380669017067011,0.024485796003439995
15,0.023792448303223752,0.025720812656696894
16,0.023734904112492343,0.022731336998005693
17,0.02381903458860138,0.024627959374823528
18,0.023657103442846775,0.02392979333766728
19,0.023635846972882416,0.02430230529351129
20,0.023711032345801665,0.02386027090868897
21,0.023629759727931805,0.024343327353778275
22,0.023722661656143663,0.023649495809494086
23,0.023557282712527935,0.02387128721984381
24,0.023682733007567486,0.023591400526211125
25,0.023637806666906264,0.023137664235687295
26,0.023642751706137263,0.02396603903917694
27,0.02363725372334774,0.023432304710737813
28,0.023684367285870152,0.02358250157509202
29,0.023481722961334016,0.023617433253219963
30,0.02357846585293706,0.02349683725743333
31,0.023584727195652126,0.023361078737672614
32,0.023619441897701397,0.024232609640004225
33,0.02358886109982177,0.025888778516271495
34,0.02353137266263068,0.023312389231694902
35,0.023482719387153357,0.024796461354244292
36,0.02365348501790532,0.023127730634436895
37,0.02354194471191207,0.023398810790318057
38,0.0234567892382578,0.02401138200397414
39,0.023546826938609426,0.02385086390677172
40,0.023552155750487254,0.024341777130232237
41,0.023540705501985587,0.023471269897687313
42,0.023380123400430886,0.0229702517772483
43,0.023458960140012294,0.025220046112432948
44,0.023575081720763592,0.023367190724731243
45,0.023351429967577463,0.023429980526524636
46,0.023457036035762227,0.024096649422383064
47,0.023491636919919297,0.023378641039556468
48,0.02347321426726693,0.023294342577386863
49,0.023532677048014747,0.023562772011335855
50,0.023422449932907888,0.023819591923548464
51,0.023382816615579227,0.02353398384998281
52,0.02346506853067546,0.022930374558671026
53,0.023484193527852176,0.024074233055479337
54,0.023369675556526814,0.024128042083548202
55,0.023422525084162836,0.0237801645874342
56,0.023423749923729878,0.023708816692703524
57,0.023450254826701517,0.022773757985636488
58,0.023328638293123025,0.0287946892421525
59,0.023398203674784238,0.02322383573089139
60,0.023464225187188954,0.02361563013773926
61,0.023409576679346896,0.02317893510682901
62,0.023325553889736998,0.02790445550517624
63,0.02348257563219106,0.023233376194935384
64,0.023345748397360127,0.023430110022261
65,0.02335942661513289,0.02345019622155316
66,0.02334270226232392,0.02345932326511125
67,0.023388299848333443,0.02296244521531987
68,0.02333060709564544,0.023742951990796905
69,0.02341988771189031,0.023803122695932353
70,0.023361700857214503,0.023360733813132088
71,0.02336666170733986,0.022793998265522808
72,0.023300679862129983,0.023287166940561408
73,0.023358430339694976,0.02296715687104775
74,0.023422264455289814,0.0230781903656548
75,0.023345059341491222,0.02411079378364918
76,0.023409661545837335,0.02304091919639869
77,0.023298370059308626,0.02277013316203641
78,0.023318930315397245,0.022917933762073517
79,0.02330382723438678,0.023647809853952234
80,0.023417119387921383,0.025899110517766687
81,0.023315585468509356,0.022904569637427295
82,0.02325886070615144,0.023087024109492458
83,0.02333003268178871,0.023143749206305585
84,0.023353309992203513,0.02286182210178665
85,0.023250618287705357,0.022792371701457977
86,0.023283225834089743,0.023550757956003802
87,0.023296459487153233,0.022733521873415128
88,0.02328820170523475,0.02374193697268086
89,0.023209013920322024,0.0237681495074268
90,0.0233208563887506,0.023865154598146417
91,0.023288488717113944,0.022690809769195748
92,0.02334341885734924,0.02278478467438573
93,0.023245162899337177,0.023049413171415265
94,0.023297533592422138,0.02460414408937673
95,0.023305448308902726,0.023562655277732516
96,0.023237443360076437,0.023287994175526038
97,0.023181007063532953,0.023121707580965996
98,0.023302163045070202,0.023433210547269566
99,0.02320725972772383,0.02352463593228699
100,0.023266076619515744,0.02298085888716868
101,0.023242598839497253,0.022938311554273942
102,0.023338922174374978,0.023118466757761275
103,0.02315171275713699,0.023248870299148485
104,0.023234484551234735,0.022937964720044345
105,0.023192553430331126,0.023084506123446535
106,0.02329823092820285,0.02278110897278776
107,0.02322493503979451,0.02315567118786834
108,0.023255038932025386,0.02322700251284884
109,0.023274838469541377,0.02307747717396942
110,0.023190344051032853,0.02303961325575022
111,0.023287140995079426,0.022870084148814758
112,0.02319528870909906,0.027880665277966666
113,0.023287538322154806,0.02304670545283555
114,0.02317122028296371,0.024132861121430486
115,0.023229462132572556,0.02283651144306257
116,0.02329172871018247,0.023085368773661078
117,0.023186252280462276,0.02289435530747357
118,0.023252699483218762,0.02318999884119397
119,0.023205816876038992,0.02325688032749467
120,0.02331196720064949,0.023129700044289103
121,0.023181157307974775,0.022825894487732118
122,0.023169136978388072,0.022725856103644
123,0.02327335622313497,0.022755811039443644
124,0.023150582991385584,0.027673103638587264
125,0.023296949941274837,0.02327647208491224
126,0.0232484773282322,0.022892563591322374
127,0.023146787817648753,0.022632953464608543
128,0.023238061779110933,0.02334181339448375
129,0.023167438280257246,0.022819131867108895
130,0.023186940777984312,0.022779517791630156
131,0.023194781193386117,0.023113032175197126
132,0.02311060721610042,0.0226742416038086
133,0.023237984624507425,0.0241687156865704
134,0.023187964951409568,0.023221528941167087
135,0.02318655236063601,0.022943747914216137
136,0.023136503982553475,0.02288535953408964
137,0.023180712888435685,0.02301852067384131
138,0.023153692418389278,0.023347446343610863
139,0.023191642172509533,0.022986038044777175
140,0.023246590206645233,0.02343638020184629
141,0.023239546279005294,0.022997452951703093
142,0.023218042195605623,0.02286908746606596
143,0.023226998436698714,0.02306016850055158
144,0.02313342757320566,0.022785715267779606
145,0.023107998743861748,0.022753507664813804
146,0.02317575882929716,0.023037995957867218
147,0.023150913756069758,0.022861121463476904
148,0.023177906244749025,0.023991541100493924
149,0.023156746546719238,0.022957301093669696
150,0.023162369690031458,0.022827119953877453
151,0.023209192643431926,0.022768620564804457
152,0.023238387773279474,0.02273057883821469
153,0.02312313520284794,0.022911198318133978
154,0.023174428314768628,0.023462800273779064
155,0.02321505960714307,0.022969544446941145
156,0.02314234682791334,0.024417223426459713
157,0.023156564755679416,0.023273306040956263
158,0.023187881351249825,0.02309365080112346
159,0.02307763559107991,0.023473398386550024
160,0.02322733368379154,0.023134382347552062
161,0.0231751704895251,0.02281059913966443
162,0.02315070908471978,0.022779531865112407
163,0.023159231474663287,0.023495544459679604
164,0.023151885788086697,0.024130737985283632
165,0.023093927870515726,0.02277384640321124
166,0.023190611597451328,0.024051381464703588
167,0.02314981806883328,0.023666783095570465
168,0.023138788303912736,0.025483033999847728
169,0.02316949368461216,0.024659808801565004
170,0.023103126579319403,0.02302328786638513
171,0.023240440647206383,0.023265060497522826
172,0.023176959799907856,0.022669008034027837
173,0.023210320667885573,0.02276680874766895
174,0.023173851820883704,0.025101682937159347
175,0.023091912792949417,0.022846318218318985
176,0.023107675811667425,0.023180582827426077
177,0.023140868766130588,0.02325962555036831
178,0.02320360390545367,0.02380922008761526
179,0.023093736723815796,0.023669552028579042
180,0.023098034513957925,0.024076930916887996
181,0.023181229202950793,0.02272337302124538
182,0.02318075301198603,0.022749528490248024
183,0.02316033509340313,0.024288462592552004
184,0.023163447813908878,0.023509367566846823
185,0.02306225520076988,0.02292541574007569
186,0.023131377715840756,0.023725315716761536
187,0.023229422492178367,0.022704743164949467
188,0.02311452236592317,0.022670860719097442
189,0.02312099178367072,0.022808355062423773
190,0.023102529437022862,0.023828152871463556
191,0.023155137845169867,0.02540528760736348
192,0.02312273390778749,0.023313146462368515
193,0.02312321810842418,0.024265718066384216
194,0.023164262619170307,0.023005440316641527
195,0.023117945165478354,0.02329053713601221
196,0.023093379972923954,0.022768715051044698
197,0.02317011054697559,0.023060423694698004
198,0.02310260037834243,0.022899777386646246
199,0.023132971971839975,0.022903349603384426
200,0.023253966289625276,0.023685605001313156
201,0.023090180133928735,0.023121042853337437
202,0.023007676915841088,0.023449443433589606
203,0.023130602346246334,0.023614718151685282
204,0.023143832591160547,0.022842114794214316
205,0.023168566630041,0.022868835507659058
206,0.023069521196359258,0.02280455582202563
207,0.023127887172432398,0.023097051950002525
208,0.023112281152664376,0.02293150466826363
209,0.02313115254794951,0.022952486489676734
210,0.023039084941827707,0.023190852076744317
211,0.0232363040763721,0.022891435332613945
212,0.023038758116094567,0.023024853549738898
213,0.02313083118582658,0.023169009147275123
214,0.023081592098027348,0.022866446452822476
215,0.023219938857479396,0.022752080921263042
216,0.02313077039823091,0.023009258909731656
217,0.02303997651457215,0.02283415321963409
218,0.02317754064145372,0.024087165735938366
219,0.023141347366175968,0.02285765278158267
220,0.023111921704584936,0.023053756811389232
221,0.023060302881391454,0.0240713813545766
222,0.02311923987136113,0.023077421512193066
223,0.023165271759664506,0.023346673566392303
224,0.023128124179510618,0.02274085490890112
225,0.023112319343590097,0.0226652025808922
226,0.023146234233852484,0.023066281998896092
227,0.023110634048017477,0.024451431106032116
228,0.023133986841717497,0.023171485574429395
229,0.02312204800173938,0.023016256182480252
230,0.02313201922140152,0.022775552040752503
231,0.023025766836939385,0.022882221766468945
232,0.02313919057868582,0.02296522746469764
233,0.023113019424204014,0.023163386064139802
234,0.023130536744956205,0.023917012572312036
235,0.023047053683951175,0.022901591020853103
236,0.023198382999691413,0.02290570333558881
237,0.023037041259779158,0.02301514908177418
238,0.023131509124637125,0.023016588929996494
239,0.02308707707877949,0.022748234961843434
240,0.02310435861486087,0.022862705630680286
241,0.023065098018633375,0.022941046861171627
242,0.023196125721676553,0.023435618615199848
243,0.023075303855649144,0.02303168656129534
244,0.023111784557471697,0.023259043162828275
245,0.023087857583676166,0.02280788605072739
246,0.023194629578388852,0.022759156114912072
247,0.02301143807285338,0.023387081978435392
248,0.023102435421088426,0.023167586987566175
249,0.023131198039074406,0.022894234870631767
250,0.023105236554263737,0.023196219054257297
251,0.02306412522503131,0.023326022290252
252,0.02307442635101237,0.022840837692958027
253,0.02316757501568273,0.02351296593118297
254,0.02298533059299278,0.02339463030600416
255,0.0231553217795172,0.02354800433579071
256,0.02314565616021816,0.022843085038280902
257,0.02308402844904948,0.023011926817395317
258,0.023081550734946957,0.022714550281274292
259,0.023104809788163667,0.023975732659108073
260,0.023032650665687524,0.022782148331721278
261,0.023121653806617695,0.025878414211775624
262,0.023053572709701188,0.023444154584264323
263,0.02307575967067556,0.02322749109775557
264,0.023189934852014153,0.023998854815630622
265,0.023085987674806425,0.022776081786147703
266,0.02303696865384146,0.02319924832831101
267,0.023043935416455417,0.022796047223701002
268,0.023169465485117512,0.02311764678373145
269,0.02306796139036175,0.02295548270949719
270,0.023049357965094247,0.023380914754465798
271,0.023200729041457844,0.023013253948388837
272,0.023052492583219668,0.02292291449284403
273,0.023100096517228347,0.02307281349568783
274,0.023006230449790863,0.02311941035438826
275,0.023091857617856454,0.023030509900275234
276,0.023123057815227673,0.022787086662690095
277,0.02310904839502679,0.022996473115087495
278,0.023094088524032077,0.02327868267423352
279,0.0230928681050833,0.023235322285705226
280,0.0230094497840253,0.022871397959028723
281,0.02325730915252063,0.022718840669002604
282,0.023070417630443756,0.02299034972134875
283,0.023011685436149294,0.023183061811123295
284,0.023215933302365287,0.0231579257735443
285,0.023087656989747244,0.022839570340083732
286,0.0230110172788314,0.02409058741948787
287,0.02308455525378553,0.022807029131050174
288,0.023058707017353255,0.02283836842530011
289,0.02312642637399032,0.023213064668504573
290,0.02320188397823049,0.024090365147263683
291,0.02303537144604847,0.02335555065238015
292,0.02299851665405823,0.022793055276056396
293,0.02310130829594547,0.022846447694943754
294,0.023041474811589833,0.022727514544374
295,0.02309783178193273,0.022754932050288147
296,0.02313635046917686,0.023522193932460345
297,0.02315307755639656,0.023179446818232065
298,0.023019057419374406,0.02275470938995163
299,0.023061116402455086,0.024070655491905787
300,0.023144547869231726,0.023471934375395055
301,0.023085811593793897,0.022736898041973458
302,0.023121083798489983,0.022950540007854316
303,0.023048993193363544,0.026644139741007135
304,0.023139943457323967,0.02302346936035269
305,0.023056050673198644,0.023006226399938424
306,0.02314570342093039,0.023788041197757317
307,0.02310381357004936,0.02303060720474022
308,0.02305314246398344,0.02283691316137374
309,0.02303241506043217,0.0233688111098714
310,0.02311402128236614,0.024057116335950316
311,0.02309377999569801,0.022718715214632867
312,0.02300774897608778,0.02334215653429562
313,0.023176490044076858,0.02276346568185792
314,0.023033205416800973,0.022838716607631992
315,0.023043260535152314,0.024871869121502493
316,0.023178033433187542,0.022730588724788194
317,0.02309472703610917,0.023242186915185287
318,0.023050699916055545,0.02274158457624884
319,0.023047973584982274,0.02520843306975329
320,0.023077083888540354,0.02294237029480718
321,0.02319080638680622,0.023352053533907284
322,0.023017772400437547,0.02274901732720064
323,0.02309104249322062,0.024234546291117792
324,0.023093820230917727,0.02305117105857867
325,0.02305005921451427,0.02324743511856496
326,0.023111694728394302,0.02306698273570404
327,0.02312487676638446,0.023650809874039235
328,0.022999419172634657,0.02327475650493282
329,0.023040464147180913,0.023159337132263577
330,0.023099880991615265,0.023387826191174674
331,0.023036257709286433,0.0227379071149143
332,0.023020669687643564,0.02276230956726923
333,0.023037238891491833,0.022846412800117188
334,0.023200550952629982,0.022866043170301012
335,0.023011607362134614,0.023845144993704232
336,0.023106012473271476,0.0231609281899309
337,0.023013601966237994,0.022873867206104927
338,0.023081615066184082,0.022981598123543452
339,0.02319510925194914,0.02303936745127591
340,0.02301671999625022,0.023174212632469993
341,0.02303829385365228,0.022920827201222845
342,0.023108477011132392,0.02346266467703452
343,0.02303265412446025,0.0230505490056647
344,0.023051902578085016,0.022733268262590586
345,0.023089807304136043,0.02385357916413938
346,0.023069050316389898,0.0226818319930509
347,0.023036757749107052,0.024218667598460353
348,0.023116488758620504,0.023304465205512277
349,0.023039048083489843,0.02549352415123603
350,0.023120782109532806,0.023049052194607664
351,0.023076657235598583,0.02337494691732415
352,0.02302221732540168,0.023114601256003883
353,0.02305013490252667,0.022793144362536866
354,0.023054972392984097,0.022805122574813364
355,0.023063394719724364,0.023053099762210247
356,0.02308385838031602,0.022933170550753494
357,0.023132403745211,0.022695453195070412
358,0.023007461402883872,0.02431720870252237
359,0.022991249141998762,0.022850576367732005
360,0.023266510112578874,0.02267736802649432
361,0.022967218851698914,0.022742231233132196
362,0.023043474730410927,0.023465967792267863
363,0.023017780757028993,0.023161906975408944
364,0.02306002701709358,0.02383899742527185
365,0.023087850724198788,0.023846526438371818
366,0.023075784040655165,0.022826343105889817
367,0.0230724762791662,0.02265763068873062
368,0.023165840181342656,0.022910296201012034
369,0.02295891778077558,0.022748395178728717
370,0.02298934562660331,0.02416096926147108
371,0.023059658622063942,0.02283057560460626
372,0.023236517853987254,0.02516115819792768
373,0.022991519614899283,0.023712472687309995
374,0.023009988372113637,0.02441169373138316
375,0.023091285249782646,0.02368501360927309
376,0.023005896490618145,0.023272993795767766
377,0.023032753531047577,0.023106330227997705
378,0.023033430041234603,0.023343269121498693
379,0.02308429749928218,0.022816986188104328
380,0.023047072439939142,0.02292260563628779
381,0.023082484405556266,0.02287594635471784
382,0.023186291649872116,0.023394008905824566
383,0.022946563963260915,0.022950429550203735
384,0.023092756842930825,0.02312843293251489
385,0.022955854321352775,0.023971861595877438
386,0.023122965838375996,0.022667101877664336
387,0.023043034120286396,0.023103814470657423
388,0.022980995386910383,0.02315126845191197
389,0.023150343847700018,0.022774217379791774
390,0.023060897711387498,0.022920383876976105
391,0.023089987979226595,0.023910579310572798
392,0.023033175550454813,0.02313003335486224
393,0.02304553365086218,0.022824786044804243
394,0.022985460701957644,0.023124404011945508
395,0.02306500326493661,0.023866830048193212
396,0.02303520185600439,0.02294896836903449
397,0.023151031759330074,0.023018726098462176
398,0.023035707285733436,0.02309956288681128
399,0.023033369705527662,0.022656588754142563
400,0.023024469771854978,0.023617339256530496
401,0.023081237849273937,0.02295847466596253
402,0.0230358796407112,0.02303054110509444
403,0.02299830248560027,0.022708932318575476
404,0.023076078847056623,0.022760173696921675
405,0.02301200762462559,0.023867599276536172
406,0.02307800693939225,0.02361540918127467
407,0.023135093453196552,0.02298200938294935
408,0.022950022251342985,0.022852323518591126
409,0.023103490893950137,0.022582198367487188
410,0.02303066530036364,0.023367942420393816
411,0.023049100194212725,0.022942959735994747
412,0.023042989272377093,0.0227604803527046
413,0.02303885857162954,0.02362712820802228
414,0.02304267453001462,0.023185590903944356
415,0.023111151433814106,0.023162300665381393
416,0.023052990385930505,0.022973869328152596
417,0.023017633156173473,0.0233560172133824
418,0.023010718992812266,0.022955212543623694
419,0.023058245685115327,0.02290346869359406
420,0.023080433896786684,0.02281447209200242
421,0.02306339863857491,0.022907570795389076
422,0.023052706568539857,0.022821071414363694
423,0.023028888306368313,0.023558423636097465
424,0.023091890967542605,0.023106000082598208
425,0.023006710431558622,0.02306186552023502
426,0.02304866351410568,0.023928654713125424
427,0.02304908482031785,0.02273389024346855
428,0.022990843782917582,0.022693624620009054
429,0.02309000447130413,0.0230530239744575
430,0.022974804466624532,0.022824706175991562
431,0.023141592857148723,0.022820516992963103
432,0.023028740500785606,0.023182691926843742
433,0.02302476376232555,0.02273608634620317
434,0.023152706851299814,0.024131541438077317
435,0.02290931945483533,0.023033219796106303
436,0.023077616635575997,0.02296900275974125
437,0.02304243420114477,0.02271139712588187
438,0.023050462487611553,0.022785894788842832
439,0.02303282401303379,0.022699128511496296
440,0.023089690937948742,0.02289124637189444
441,0.023105250678950553,0.022804109675143777
442,0.02304547471251133,0.02284623856855455
443,0.02297891758093469,0.023753819133036702
444,0.022980480579187352,0.02349184430553486
445,0.023088307716964865,0.02638622401421853
446,0.0230283931546884,0.02309748137718171
447,0.02310560186721867,0.022971460247307944
448,0.0230225237349955,0.02307115069016426
449,0.022930040476109675,0.022720199861896724
450,0.023153865963018102,0.023333192355313354
451,0.022948077031158857,0.023475749225553417
452,0.023111220028587908,0.023311326918269388
453,0.023005618108548134,0.022955630718485616
454,0.023098982071770514,0.023312615360050287
455,0.02306443665974694,0.023023334531012067
456,0.023019371315283026,0.022738150036478475
457,0.02302596084684205,0.022748166512941974
458,0.02299866828171136,0.022835678764234497
459,0.023014392576468506,0.023799435458283492
460,0.0230716892490558,0.023769895408681838
461,0.023080553749291827,0.022660558381733125
462,0.02300176124641602,0.02325861762412298
463,0.0230307702435185,0.023212476978232848
464,0.02302922230723093,0.023054724024063316
465,0.023028568044560944,0.022861188132060072
466,0.023072674920370014,0.023365020747542757
467,0.023023733767203625,0.02363377692649801
468,0.023032175139527766,0.022959087714376464
469,0.02305511144592131,0.022979385404014736
470,0.023010174338099102,0.022916218611369853
471,0.022973141970960117,0.024132380694233253
472,0.023065882093972152,0.023008065543710102
473,0.02305946963356077,0.022848754447914996
474,0.02307937382389125,0.022917173858717284
475,0.022975692736933367,0.023518936113169932
476,0.02304554632608053,0.023031984312546563
477,0.022987478202004894,0.023775313768444706
478,0.02302052626322261,0.023251767110758725
479,0.023046386343308634,0.023021353720360228
480,0.023060479317512587,0.023303743851707033
481,0.022981175003375272,0.022991580256476303
482,0.023051109049561546,0.022760746042055226
483,0.02303193003046427,0.023407752341175512
484,0.023048460478339788,0.02326180029369379
485,0.023112026451946162,0.023677490725113635
486,0.022987290985322446,0.023025782596563953
487,0.02300179116636348,0.023008191145092085
488,0.023032548202337216,0.0236272349036295
489,0.023011414703431366,0.023053044691423122
490,0.023074690689541977,0.02291812764623312
491,0.02296686034164221,0.02285405309413631
492,0.023117531407371366,0.022999044541554745
493,0.023005073724819317,0.023079416935862098
494,0.023046759983820976,0.022941326744554544
495,0.023020345720646384,0.022974929477557856
496,0.02302281921364659,0.023291764895548572
497,0.023006635319015725,0.024172677203495387
498,0.02300979108732048,0.02291464974373085
499,0.02310744899032499,0.02276615527088753
500,0.022991335048503297,0.022813025175431344
501,0.023085042896072307,0.022752153784942233
502,0.02305618976559237,0.02292687631408436
503,0.0228805497048987,0.022764966654831627
504,0.023119363792353777,0.022909914771860853
505,0.023051729320818715,0.0226956817461876
506,0.02293780773988278,0.022805222865097053
507,0.0230241809338093,0.023040112287347113
508,0.02306143375639197,0.023093694800418386
509,0.02303326077279832,0.022886166350523506
