epoch,loss,val_loss
0,0.13631736423126417,0.05708921813915448
1,0.03081424002327936,0.01939303167134923
2,0.018424067238299587,0.01770619664638176
3,0.015018190033168054,0.014702538580390395
4,0.012605549411946457,0.010471465467418756
5,0.010570083334066754,0.012709266110672524
6,0.0116142653314833,0.008490754748623298
7,0.01007298794913766,0.009134054999142861
8,0.010080987286063835,0.008141768709980627
9,0.008767493405855066,0.00939716467664716
10,0.00966640830542118,0.008243324665092491
11,0.009073094857542468,0.009022657667604976
12,0.009482055699987281,0.005193371186804706
13,0.010533923830213152,0.009573205177919923
14,0.008579150640419114,0.0058513478116494705
15,0.009913078987960526,0.01012501862391112
16,0.008953788413031162,0.01222863477664311
17,0.009137486932604915,0.011174396442686044
18,0.009729024547012263,0.007924169212676755
19,0.008197393395091526,0.008873634048441355
20,0.007812407686651277,0.00602957399763408
21,0.008750366657763142,0.012155839831560215
22,0.00949908163520224,0.009748884929519003
23,0.008813694153326473,0.008877759671460575
24,0.008429486443456874,0.008389305829819536
25,0.009122613740215401,0.01215327099471367
26,0.008758150924408107,0.006184184308889327
27,0.007885083721259789,0.005562141846759567
28,0.008629784734415667,0.006760950419307931
29,0.006783893319601707,0.0074068359147107495
30,0.007686271514039305,0.009975678759355807
31,0.00830693204357154,0.0071039303039048445
32,0.008407295936142369,0.009454006635699341
33,0.007877290413024828,0.006122294716366465
34,0.00786955122125717,0.006109519287923258
35,0.007357268462900808,0.006897179597302177
36,0.008156165033377868,0.0069770837524625005
37,0.008780024286328281,0.007311161698283952
38,0.007685620728009146,0.005382028360569581
39,0.007615700283059501,0.004920520227631788
40,0.007857160405631808,0.006904826618601651
41,0.008614468329819106,0.00877199525229674
42,0.007232437751700373,0.008059810285457214
43,0.008146894302202029,0.005798505858430711
44,0.006305391443420579,0.009575435621244943
45,0.007491245395042372,0.007940994321288513
46,0.008904672889254815,0.010585633982722695
47,0.008429500522824537,0.009493906486811794
48,0.00802205424418198,0.00557842500465198
49,0.006982211522824264,0.008010890400265038
50,0.00781296802765439,0.011077402181623484
51,0.006892064250994483,0.008167870631243008
52,0.008234368766182297,0.009027811547928
53,0.008060881554027744,0.008338985195781832
54,0.00832644435368645,0.00895044711383902
55,0.007588771208067336,0.0066249706343569055
56,0.006671479932195563,0.005336643486991584
57,0.0074352714930847885,0.00700833176350149
58,0.00829274417254791,0.009981235254764699
59,0.008264033118081238,0.010371603424518995
60,0.007089929964890679,0.006537661917107775
61,0.007931395498704431,0.009108471461434297
62,0.007002552449840942,0.00910770928012332
63,0.007154921164287985,0.004983046767614258
64,0.007250017748284284,0.0060244519792750015
65,0.006841775566375972,0.007203498387366721
66,0.007685903658372738,0.009936891561601937
67,0.00782158461657705,0.008133237347177332
68,0.006564274012631506,0.009286549777357054
69,0.00703095759555093,0.010467913516318601
70,0.007773924845276023,0.006843068395853748
71,0.006837895839846582,0.007079860915510012
72,0.008066919548690116,0.004683757442672279
73,0.007136215726349154,0.0072331567674922305
74,0.007652527011605612,0.009507746883354134
75,0.0076780147788350845,0.008521893876880383
76,0.007093799506242631,0.004289593599404443
77,0.007499134975677575,0.004823483202177164
78,0.006616532933607185,0.005951240097540824
79,0.006854717975104902,0.009003812123763345
80,0.007192931646353853,0.00879436034059421
81,0.008118848194279592,0.009922161241133286
82,0.007303715786907069,0.007941677440148972
83,0.006905595371633661,0.008414015215075477
84,0.006841908165567862,0.004758996974629804
85,0.006634215505955239,0.004679626040601693
86,0.00649342132997673,0.011790688355448166
87,0.007260553694485004,0.008422128519156526
88,0.006908401970001165,0.011972350240394697
89,0.007487510337489103,0.0045257653598545005
90,0.007389963316495904,0.0073494270687221586
91,0.007778409830138957,0.008851603499739397
92,0.007362492326226422,0.008242460115479737
93,0.007439620217675422,0.008431061518679195
94,0.006617454297879307,0.00731271568901878
95,0.005900877335914325,0.00647126082713174
96,0.00585028807782262,0.0040218078567342865
97,0.007121600184796585,0.007948078073255406
98,0.007124631239163081,0.004985660581387162
99,0.0069334953899594315,0.006491439982266669
100,0.0061499380878248,0.0040469731650026345
101,0.006139302608757306,0.008808636557878287
102,0.006938246324089624,0.008510561999530424
103,0.0074307205692249285,0.005901128922507532
104,0.006867131616787718,0.005859575150189032
105,0.007574003103537579,0.0064132504493009885
106,0.007447582934677845,0.007978972753593676
107,0.006481966172117177,0.008898686308152062
108,0.007120410531039367,0.007546857404048484
109,0.0071394086630604,0.007948981279003028
110,0.007053470765005985,0.007305839633747006
111,0.006884912242197233,0.005784017323856643
112,0.006859582683762355,0.010208748802895516
113,0.006882090511605989,0.007585479402672073
114,0.006478590831580422,0.008118737058239183
115,0.006828704207717217,0.00889277882909295
116,0.006882146497976949,0.007315350766275328
117,0.006950270685499056,0.007614490724570796
118,0.006379309136585759,0.005447999319912838
119,0.006745915859937668,0.007473406749068162
120,0.006945600461059933,0.005127352292281182
121,0.006591208551233883,0.005638997292847335
122,0.006411850337496699,0.011815344103286374
123,0.006496606829507704,0.005096904748952238
124,0.0063379541847953125,0.005309794528517158
125,0.0064511776623166475,0.006336814781611208
126,0.007674546220427681,0.0073304234977426405
127,0.006353460247632113,0.003662581910396137
128,0.006436528310813992,0.005750429342797095
129,0.00607573574151677,0.006621388437692444
130,0.006519043844637664,0.005190763960282988
131,0.0068336518278135526,0.008102269871520568
132,0.005543253339118332,0.005863512200968606
133,0.0053708973090550735,0.006433268854263714
134,0.006461005674568649,0.007440938885546427
135,0.006825146458609005,0.006699572562812677
136,0.0070081638084050065,0.007841190851375097
137,0.006154687081792687,0.004637738577315868
138,0.00569574927010735,0.006305099811166784
139,0.006881723858618574,0.005216225173880052
140,0.006266550657407884,0.006574333858571141
141,0.0067045415897178445,0.006699812611390049
142,0.0064158829346524,0.005119979797973464
143,0.005743087080458431,0.00685003254858111
144,0.006724645158456122,0.004998219083338952
145,0.005672356151852111,0.005006893593803248
146,0.0054101591016337885,0.006135951167879583
147,0.006380849955718872,0.008438348837032173
148,0.006419296148694682,0.008832413353314058
149,0.0068247324152798244,0.005371913392884744
150,0.006196671388120197,0.004901786847150316
151,0.006334650395851252,0.00570522389766461
152,0.006558583866857695,0.005875076093411789
153,0.006381269230758198,0.007251150190871394
154,0.005685557540097415,0.0062812765899989765
155,0.006394586085694001,0.00797773452127248
156,0.006675233514302021,0.006190414658446973
157,0.005619832363685401,0.0070346849077420155
158,0.006798099765988092,0.00602720852980968
159,0.005679087545577553,0.008194691883054604
160,0.006100943218991101,0.007712804538880688
161,0.006669044785527624,0.005794496427274705
162,0.00631521355925049,0.004231108265437168
163,0.006347340439240799,0.004791852307668354
164,0.005322304074942833,0.006394183079784864
165,0.006531371136209358,0.009754935290514482
166,0.0054935913030087925,0.009521340535278854
167,0.006201067256449397,0.0040535879660994634
168,0.0066748166274983615,0.008015223391774538
169,0.0062076756553865855,0.005279031556817073
170,0.00616928968272603,0.004514125954203937
171,0.005642937806373139,0.005329802804703706
172,0.005730618374700622,0.005176900485758365
173,0.006627509569310748,0.004876592766196594
174,0.00549655949105423,0.005182414769173704
175,0.005894356784109267,0.005214021582709186
176,0.006361906214499568,0.008514058140371856
177,0.006363535475683399,0.005673932354462104
178,0.005919807715800037,0.0063402312848167145
179,0.006169666829098352,0.00447713896182337
180,0.006320598357033988,0.007105306961853719
181,0.0066857086299143605,0.006288723695226419
182,0.006128046823908194,0.005199592254009177
183,0.005798110829872473,0.004784219527077562
184,0.005964426531476511,0.005099027634443217
185,0.0059766083117127776,0.005461474450932847
186,0.005133441547944332,0.004508539494024127
187,0.006175218988098294,0.006174826661555571
188,0.0060294974856056295,0.007239220656554531
189,0.006177933845236498,0.006297722770137846
190,0.005682251000922802,0.008367058253555243
191,0.005342456593392618,0.005557973097330628
192,0.006102803695148868,0.005129066109583781
193,0.006944642252966964,0.006789234259195961
194,0.006354067076316221,0.005677697745658275
195,0.005519243554758588,0.0075586142960050815
196,0.006123111887405411,0.0072569708856618015
197,0.0055467433337647795,0.0038897336562455946
198,0.00475190019441231,0.003950700909560862
199,0.006208016843755367,0.008485449793371472
200,0.006904567152799236,0.005271777618329475
201,0.006967282796883099,0.00686462927020163
202,0.0057350349580708275,0.008291022068120381
203,0.005600261831020328,0.005024501197142989
204,0.00505878212018613,0.005270811863281803
205,0.005424712319671512,0.007739093805565525
206,0.006614186415943108,0.007982601298808746
207,0.0059947020354324115,0.009180609632986168
208,0.005815733004444027,0.0055092628953365376
209,0.006283723170400785,0.00899931378721391
210,0.005520768111946134,0.00685763074417364
211,0.0062491424717857754,0.004893038936412137
212,0.006204554697031157,0.003642129742863111
213,0.006145414559998446,0.005249943023719534
214,0.005861621358890464,0.0052107129666451495
215,0.005911886795155174,0.0060056109123237745
216,0.006030214421408657,0.006991232259841467
217,0.00620517772819689,0.005386060125458377
218,0.006206016597836066,0.0072807417678975314
219,0.005764037195733078,0.007974578008487903
220,0.0056139613169697315,0.006489927367760779
221,0.005597075624436104,0.0043878390239853035
222,0.006063057581051368,0.004058957157800623
223,0.005938782316478465,0.004111783056547123
224,0.005497288605239954,0.010148867134860443
225,0.005910610688737126,0.004007079161486009
226,0.006085917143226355,0.005830006783823729
227,0.005652277976357126,0.005118719063957987
228,0.005895904916841879,0.00535800327468243
229,0.005694935536034387,0.0048232327168329595
230,0.005811530493403064,0.004482571632125736
231,0.006022325445370054,0.005332530319584855
232,0.005823548850443342,0.006764678689912138
233,0.005446478658873918,0.004234615203960495
234,0.005663356135247929,0.005486052582553502
235,0.005798012628569919,0.007428393299722987
236,0.005925520131983113,0.006699947418678837
237,0.006357219395619318,0.0077651287741435735
238,0.005416332671383796,0.005023592000278837
239,0.005762287735589873,0.0030964210887837215
240,0.0055616766312639775,0.006141183967683714
241,0.005358668884242342,0.0040120844219847275
242,0.005008247936219662,0.006059893699114424
243,0.006214290257371354,0.0053739076874997314
244,0.005879123012615676,0.004434827643857523
245,0.005583423057583709,0.007111860823250819
246,0.006442784153905472,0.006892396716714117
247,0.005741934422299349,0.0034290983002771046
248,0.0052869852138519415,0.0064720013726505595
249,0.005791893705065332,0.008211281307147494
250,0.006194796422675109,0.004733746341373051
251,0.005559545288850322,0.005612113034527605
252,0.00525738085418356,0.006104934833438122
253,0.005800948277834972,0.003987700060221654
254,0.004529488346015336,0.006074528862599462
255,0.005815596125802572,0.006929178915523881
256,0.005724439501865126,0.0037986281465359722
257,0.0057948469751061115,0.0038533531119804404
258,0.005649468627107664,0.007577372399168332
259,0.005179442990988904,0.003423756654995428
260,0.005217979891042558,0.00437643983891644
261,0.006050009624664035,0.0072045438359149725
262,0.006010337409728633,0.004479619335521368
263,0.005655165275854381,0.007282049648372578
264,0.005731527868518345,0.004106098335036374
265,0.005649789240301328,0.004348525638716338
266,0.005370695019240598,0.0032767288415489135
267,0.006020236057977525,0.0069628891986430914
268,0.0057279260628644545,0.0037642086074329566
269,0.005856352051992497,0.007761159432859358
270,0.005401967320316505,0.007539791003569384
271,0.0052582077886001,0.003891445127048992
272,0.004867293034698055,0.007130104727196289
273,0.005424199644089055,0.004642582472763668
274,0.005697955278107237,0.005750436257150527
275,0.005544851642108703,0.004062694561173044
276,0.005189284715402445,0.004275068897980353
277,0.005682738870549813,0.006159579573197683
278,0.005472715978203959,0.005296485709877657
279,0.006147558783102099,0.008166273578783849
280,0.006050161862497231,0.004900264573939903
281,0.0055072686334753295,0.006903327797887216
282,0.006289983173083368,0.004225082612789774
283,0.005147430970021587,0.006342400683144485
284,0.005133710957752417,0.005965982435525475
285,0.005146438792942734,0.007053239870854692
286,0.006028785451622806,0.0048237425093586835
287,0.005035345418584182,0.005210179560645039
288,0.005522341780486605,0.003984773133152944
289,0.005404168321620033,0.00545510590802687
290,0.00538829997244055,0.005574390869558257
291,0.005645864215648944,0.005697371962611823
292,0.005359761615125217,0.007525604615912677
293,0.005913167792970953,0.007716711503971771
294,0.005682381667117838,0.006775308886268003
295,0.005486064459860539,0.006430174341320921
296,0.006483928668577012,0.005965550788828916
297,0.005460262807517154,0.00581639602959697
298,0.005702875877751394,0.005646305772877977
299,0.005203105484434723,0.004768702730421791
300,0.005716672840641348,0.00527807862711769
301,0.0054393035686685805,0.0063462520434264605
302,0.005446793410356055,0.003989871902628004
303,0.005523814378379972,0.0039784174718274406
304,0.006039888571224196,0.011430783564079297
305,0.005484013171452615,0.007637508295111846
306,0.00579850474554155,0.005582380853887374
307,0.0059448329429942475,0.004447979406742548
308,0.005266795627032812,0.0043488599223267775
309,0.005535880171918689,0.006195783255667365
310,0.005771057236735686,0.0030674642781067666
311,0.004884359065359898,0.004368717023248666
312,0.005603523293456478,0.005494558080022341
313,0.0056275051069646165,0.007013673116412563
314,0.00538874600243812,0.004044014854127307
315,0.005735315984936891,0.00659853677120539
316,0.005017446228682691,0.0039692432202484045
317,0.005063296043143557,0.006229970032303655
318,0.005524264943736087,0.004455614159135082
319,0.005871562882316121,0.005924685410537772
320,0.005507948415295826,0.0036914629042854247
321,0.005309278517849833,0.006901725246802549
322,0.005311106998033429,0.004994684768930348
323,0.006068626468495684,0.00494281861059303
324,0.00512024081352321,0.004249156299455131
325,0.004790166156090272,0.007304719887782644
326,0.0055691432334381424,0.006508286634787929
327,0.005193361176008866,0.0050175557840665495
328,0.0054842180022106266,0.007865849042556822
329,0.005018247945456029,0.0035769075165181506
330,0.004899290505983531,0.005654573941863515
331,0.004806041876006749,0.004635219935595331
332,0.00507183112849896,0.005761657456699068
333,0.005097803515869734,0.005237690041513545
334,0.005938857801810955,0.0037338329591562686
335,0.004882058468096399,0.004270537857821869
336,0.005090845902513662,0.006200105912583544
337,0.005290153762809545,0.00638823871535338
338,0.00520356349972003,0.006434243798311785
339,0.005449625854600045,0.0057999773719880935
340,0.005080389647300152,0.004412841384432146
341,0.005579358660154414,0.00440859277464373
342,0.00497408825273199,0.004239746581486646
343,0.004763933554884317,0.003479990261388559
344,0.005724403716204651,0.005155981187183107
345,0.004768767448657339,0.004532937039845368
346,0.005005278057034621,0.005397325565769457
347,0.004830625775321532,0.004120820198441843
348,0.005222489265241116,0.005295512423760184
349,0.005103406839357089,0.003586585391437798
350,0.0050335621322988335,0.0047816779951828856
351,0.005460669599316395,0.003453875040112103
352,0.004832215335344424,0.003485095766597172
353,0.0054708728613294694,0.005292907690933679
354,0.00529354069099801,0.0061707413654653875
355,0.005841810518293548,0.007101651072361005
356,0.005455536315951654,0.005408863276434326
357,0.005665436377849349,0.006170420273815024
358,0.0051988729629941065,0.0052216619042931055
359,0.005216867725408043,0.006778265626685019
360,0.00513686138612079,0.007529458483488497
361,0.005358692835089561,0.004882562554190737
362,0.004914070289547769,0.003082054908458664
363,0.004986114998189487,0.005403543851502246
364,0.004879785341777944,0.006194583500126096
365,0.005142931509736946,0.00526203188218982
366,0.005350273668499504,0.006502161233964499
367,0.004963595751128781,0.00504919226834846
368,0.004861567627644534,0.007068184317599015
369,0.0061643164222248545,0.007892267496619835
370,0.005640305806048881,0.0043675115581193165
371,0.005283761226261656,0.00402358223058595
372,0.004416979446956556,0.003363410487621082
373,0.004795955877909683,0.005092420037865239
374,0.005907590718672639,0.006210168540233712
375,0.005347349330876693,0.005060012634599547
376,0.00518612677633813,0.003887965812677872
377,0.005305898833095277,0.00381986744721709
378,0.00499328398380241,0.004348743201219481
379,0.004808442663776574,0.005998801972184863
380,0.005948297393457632,0.005140823394063075
381,0.004965035062336134,0.004997981259424383
382,0.004843378662605205,0.00369921452406244
383,0.005351306930602008,0.00581862330333798
384,0.005104141684973406,0.0070330424990649055
385,0.005196962399120859,0.005260345893570214
386,0.004817424147080133,0.003411273137006935
387,0.005349650172603061,0.009353505691547232
388,0.00581951522360296,0.004884708168142385
389,0.005290924189638326,0.0052308944107607395
390,0.005502801818056978,0.0036612091565412053
391,0.004989689688751404,0.004886411756700479
392,0.005127836237486592,0.004502814348004964
393,0.005033102599612856,0.0031609068229212335
394,0.0050982696239275935,0.004272087646579192
395,0.005130410559648881,0.004510351593423144
396,0.00489919839661753,0.0028843051524599095
397,0.004901207901695989,0.004892554576269806
398,0.0045968726240872716,0.00538728086883533
399,0.004713940366690935,0.00514678462300429
400,0.004927472083093814,0.00420452291425244
401,0.005364121790572578,0.005161897155831862
402,0.00495662378230252,0.0056713083593561454
403,0.005319311572845539,0.0060305135896475
404,0.005317584948716976,0.003807639211949899
405,0.00487880630716071,0.0040621406973163935
406,0.004358447315882323,0.0030251861132399105
407,0.005256200764722062,0.004797360554025835
408,0.0053270884529336825,0.004688746219790514
409,0.004057262278292968,0.008512751194159628
410,0.005048388992041665,0.007183008152482871
411,0.005285785755244561,0.005110556969452934
412,0.005285443328090196,0.0052344381843047435
413,0.004879700929502682,0.005439922309479872
414,0.0043584486956504895,0.005665053152600516
415,0.006061955629907501,0.006400181347358716
416,0.005616004486176685,0.009199154621317995
417,0.005108202643916576,0.003752018022553109
418,0.004649719881950219,0.00624124764890396
419,0.005722714207997973,0.00538228463599107
420,0.005031727833489476,0.004288496967807895
421,0.004852948535094522,0.006826578784622281
422,0.005183184701338155,0.003623247200265915
423,0.005264554339886117,0.003679132272600363
424,0.0050678261396416326,0.004702976478106432
425,0.0051162658110566195,0.010172162745985914
426,0.004835147020625893,0.002547962981002036
427,0.005316458607306905,0.003608828614485739
428,0.005165662290416748,0.005140674310415137
429,0.0050505727017149445,0.005570387477665293
430,0.005279934270211386,0.008375672191299128
431,0.004651216453396909,0.0033483231221873317
432,0.004759892655389873,0.006297405386503842
433,0.005117062169840362,0.005867877474897074
434,0.005195157962656178,0.003641912453067684
435,0.0050892785063488405,0.004299369316118833
436,0.005743135132534291,0.007991342240063901
437,0.005259692025792261,0.0051983546200278195
438,0.005127860287998726,0.0058092361701256945
439,0.004951131072075521,0.005779549194648332
440,0.004590011554860251,0.006281200105040654
441,0.00547162684391243,0.005601820209223098
442,0.005366551103260216,0.006247568689948264
443,0.005165596755476837,0.0045476169637812345
444,0.0054572725147053565,0.0060573254738388186
445,0.005026546051371381,0.005058291932713496
446,0.004704419434514287,0.00381979491211027
447,0.004831140894788227,0.006483108629623241
448,0.005128710084858326,0.005131268752893196
449,0.005345527604549861,0.003682032437376155
450,0.0048983145357600205,0.007183013671322563
451,0.0056403834347819376,0.0038089085913879978
452,0.004455170577591498,0.004595769590594539
453,0.005182586910800903,0.0048194464223331466
454,0.004506507528581762,0.006073150210061949
455,0.004933183693861534,0.006625271877148957
456,0.004365436781624364,0.009863640893994587
457,0.004975771583668101,0.0067823993147960214
458,0.004928636531770635,0.005481583381625923
459,0.005092552244133926,0.006385780832691275
460,0.005880633784870473,0.0065397890167047685
461,0.004648169766434823,0.004990438602852981
462,0.0040322671674912595,0.004527383400884405
463,0.004611032471123288,0.0033656075848935386
464,0.005367987695039152,0.006720710080484518
465,0.004887655287773328,0.005804503974949481
466,0.004746825459765361,0.003737858653358157
467,0.004590002511595216,0.007602127217088591
468,0.005337179135188734,0.005671742618460305
469,0.005273849572811416,0.009225826126088894
470,0.005012946920547572,0.005794049455286625
471,0.004554579066087326,0.004119434483803591
472,0.004768431824866495,0.006334953057493694
473,0.004859606536636822,0.004166292826018069
474,0.004174758290717874,0.00443851596866194
475,0.004651149107179762,0.006248611837019813
476,0.0049074406899939135,0.005776463137482364
477,0.005309427378708117,0.006292048495868552
478,0.005569655869750203,0.004920721585526416
479,0.005283875650704669,0.00734738148116722
480,0.0049914496494449685,0.007977198736614238
481,0.005267345468695317,0.0029539857217755344
482,0.0050566410721219375,0.005501449896109414
483,0.004391643895040289,0.004990189855561048
484,0.005331956522094814,0.006029374911078644
485,0.004824278514283589,0.004214310744775852
486,0.004432134485772277,0.006316925185837657
487,0.004676721785753537,0.006394624769990498
488,0.005369113956047274,0.005232310721587505
489,0.0053737928116914455,0.004136714444259783
490,0.0047482834944835035,0.004231276460309478
491,0.004650588887430977,0.006340415616855672
492,0.004822996064672898,0.005559289548987113
493,0.005129126711379287,0.004233494192036935
494,0.00469927852748142,0.004149547428732125
495,0.0041472417064015565,0.004645040022443036
496,0.004492869329483186,0.0036190360655527394
497,0.0042635998379686275,0.0029866604574374568
498,0.004915259227597361,0.005384979063928739
499,0.004829439064889825,0.005128450030879939
500,0.0050551455690719775,0.005738991338042241
501,0.005274636944164809,0.006689386530878535
502,0.004559748155864434,0.0038193054978707076
503,0.004123637743806429,0.003427910987484756
504,0.004496138586069373,0.004290743008029559
505,0.004273351716554369,0.003970926016313337
506,0.004609874645091719,0.007516488083730133
507,0.005554512454599565,0.008662252135621861
508,0.005587043674594963,0.003954801741721374
509,0.005280462989611901,0.005546700813967055
510,0.004724291402274827,0.0033399428269622264
511,0.005064085099773912,0.004494080369249751
512,0.004547013909456213,0.004969388034471091
513,0.004435898724859275,0.0033910685823826028
514,0.005219746736246054,0.006340809485448
515,0.004698029831520838,0.0041912624435300845
516,0.004870903860073355,0.0038124046598259
517,0.004914877132131464,0.006272601045303534
518,0.004583313366953584,0.0053924587070089255
519,0.00477394020612196,0.003843149196006646
520,0.005850923681750054,0.006600726505737066
521,0.004963981904380536,0.00387894682477404
522,0.004860669680998373,0.006018139363502482
523,0.004467123373077332,0.0057610967666963326
524,0.0048816091238448826,0.0061931533293523655
525,0.005248091658476821,0.005371997129957132
526,0.005256356564994387,0.0034141511810339264
