epoch,loss,val_loss
0,0.4474008471502198,0.44534171986579896
1,0.4451010129650434,0.44531397505601245
2,0.44497087293863297,0.44486026084423064
3,0.4449131824572881,0.4448005905350049
4,0.44486071555482015,0.444814549545447
5,0.44484421936670937,0.4450340501268705
6,0.4448252869778209,0.4447741997241974
7,0.4448016759223408,0.44474958940347037
8,0.44478525939914915,0.4447298320333163
9,0.444779152976142,0.44511038408676784
10,0.44476659782065286,0.4447198163469632
11,0.4447706565724479,0.44468756033976875
12,0.4447653482357661,0.44476853185892107
13,0.44476110653744805,0.44484453773498533
14,0.44476023761431377,0.4447185798883438
15,0.44474955615070133,0.4447293823758761
16,0.4447523650460773,0.44471682246526084
17,0.4447484219868978,0.44476609365145364
18,0.444748015013006,0.4451261647542318
19,0.4447451889117559,0.4448045011560122
20,0.4447465295261807,0.44471530042092006
21,0.4447430204219288,0.44470087623596194
22,0.44474224600527024,0.44468823659420015
23,0.4447383025288582,0.4447201012969017
24,0.44473483826054466,0.4446727939049403
25,0.4447392683227857,0.4447541606624921
26,0.4447313043342696,0.4446601978341738
27,0.44473755323224595,0.4447415729959806
28,0.44473442907465827,0.4446900479396184
29,0.44472784984111785,0.44478120891253153
30,0.4447334482206239,0.44471740221977235
31,0.44472766856352486,0.4446983721057574
32,0.4447326950894462,0.44469420901934303
33,0.4447281965414683,0.44472286025683083
34,0.4447295626799265,0.4446745289961497
35,0.4447260510325432,0.44466623397668203
36,0.4447296261919869,0.4446788814266523
37,0.4447278565896882,0.4447223076423009
38,0.44473035726944604,0.4447058160106341
39,0.44472682385312184,0.4447531619469325
40,0.4447329337331984,0.4446687670946121
41,0.44472096065680183,0.4447025934457779
42,0.44472249570820066,0.44468733910719555
43,0.4447213692201508,0.4447334616581599
44,0.4447233846386274,0.44468470150232314
45,0.44472540091143714,0.44480508933464685
46,0.44471716219186785,0.44468130520979565
