epoch,loss,val_loss
0,0.39662589306301543,0.3341559117436409
1,0.33417674824264315,0.334256223042806
2,0.33399757707781264,0.33379061094919843
3,0.3339179736706946,0.3345309306184451
4,0.3338638010488616,0.3341388459602992
5,0.3338592924806807,0.33386433543761573
6,0.3338147900369432,0.33368597938617073
7,0.33379872351884843,0.33375860850016276
8,0.33379300910896725,0.3337562128106753
9,0.33378121833668817,0.3336729601422946
10,0.3337636319663789,0.3337575007279714
11,0.3337605183588134,0.3339546411832174
12,0.3337601255906953,0.3336812779108683
13,0.33375357092089125,0.3337021751999855
14,0.33374940876166026,0.3337832738757133
15,0.3337466230260001,0.333661662320296
16,0.3337371588812934,0.33371690185864766
17,0.33373754987451765,0.33371419791380563
18,0.3337305870188607,0.33370383602380754
19,0.33373273991213903,0.3336849189400673
20,0.333727548400561,0.33373013385136924
21,0.333728951924377,0.33371586591005326
22,0.3337254792385631,0.33373874111970264
23,0.3337212534215715,0.3338278992176056
24,0.3337269907924864,0.33366365285714467
25,0.33372218365801704,0.3337190684278806
26,0.33372389999363156,0.3336691773335139
27,0.33372242467270957,0.33364652411142987
28,0.3337163001961178,0.3336660525004069
29,0.3337145055996047,0.3339324375987053
30,0.3337146584788958,0.33364520519971846
31,0.3337091701759232,0.3337505564490954
32,0.33371016539467707,0.33364065007368726
33,0.33370444999138515,0.3336502105593681
34,0.3337110730078485,0.33365040985743205
35,0.33371203690105017,0.3336324583689372
36,0.33370566501220067,0.33373172720273336
37,0.3337071325911416,0.3336639835635821
38,0.3337038297719426,0.3336874230305354
39,0.3337040894296434,0.33364325036605197
40,0.3337069691220919,0.3336555620034536
41,0.3337104811867078,0.33370735963185627
42,0.3337088879413075,0.33388905801375707
43,0.3337057927515772,0.33364375164111454
44,0.33371033922831217,0.3336472464799881
45,0.33370634711451,0.33366192265351613
46,0.33370327550172807,0.33367351003487905
47,0.33370433293448554,0.3336974086165428
48,0.3337034938997693,0.33369555179278054
49,0.33370377078321245,0.3336411497592926
50,0.33370374905400807,0.3336598195830981
51,0.33369866196976766,0.33371671865383784
52,0.3337040882839097,0.3336335419813792
53,0.33370410731103683,0.3336832754611969
54,0.3337009540862507,0.33363735415538154
55,0.3337033051782184,0.33385521241029104
