epoch,loss,val_loss
0,0.3366717893944846,0.3341292352279027
1,0.3341905142201318,0.3338446786204974
2,0.3339694975283411,0.3338059562842051
3,0.3338735420703888,0.3337915516495705
4,0.33383031384150186,0.33373196971416474
5,0.33379061581691105,0.3337124762336413
6,0.33376889842086366,0.33393034046888354
7,0.33375982654094694,0.3336574623386065
8,0.33374374964502124,0.3336537577907244
9,0.33372806248399944,0.33374542091290155
10,0.3337328412797716,0.3337292611002922
11,0.33371140501234264,0.3337866515715917
12,0.33369511312908595,0.33387216114997864
13,0.333690007660124,0.33381457298994066
14,0.33369107683499655,0.3338599202632904
15,0.33367877664168677,0.333675593316555
16,0.3336760897636414,0.3336407939394315
17,0.3336736203564538,0.3337609107295672
18,0.33367061228222317,0.3336427146991094
19,0.3336747323870659,0.3335825848579407
20,0.33366369323598016,0.3337841218511263
21,0.3336595788796743,0.3337208217382431
22,0.3336469867693053,0.33367940229177473
23,0.3336464656657643,0.3335810960928599
24,0.3336439127061102,0.33359520184993746
25,0.33366086096233794,0.33368349067370096
26,0.33364432364702223,0.33366853245099387
27,0.3336401222149531,0.3337153108517329
28,0.3336398873329163,0.33357052143414817
29,0.33363950486977895,0.3336162482301394
30,0.33364004555013443,0.3336175986528397
31,0.33364025487502413,0.3336119596560796
32,0.33363372372256384,0.3338337055444717
33,0.3336416655315293,0.33393600887060165
34,0.33363472023275165,0.3336033315261205
35,0.33363295731279585,0.333748049279054
36,0.3336324759191937,0.33360625797510146
37,0.33363416556517284,0.3336435367067655
38,0.3336321692665418,0.33401192984978356
39,0.3336296948591868,0.3336142001946767
40,0.3336380397015148,0.333614364306132
41,0.33362847779856786,0.3335616907477379
42,0.33363342775238886,0.33362868112325667
43,0.3336393741501702,0.333637815674146
44,0.3336310142212444,0.33362316304445266
45,0.333632253560755,0.33358039081096647
46,0.33363038866387473,0.3335978235006332
47,0.3336345392200682,0.3336918616294861
48,0.33363433660401237,0.3335968517065048
49,0.3336332356731097,0.33358271610736845
50,0.33363554201523465,0.33361457083622614
51,0.3336322421961361,0.3335480962395668
52,0.33363199039962554,0.33359643918275833
53,0.3336358294089635,0.3336410121719042
54,0.3336314957075649,0.333584474782149
55,0.33362555403841865,0.3341218847036362
56,0.3336266987522443,0.33356493109464647
57,0.3336270702150133,0.333550765256087
58,0.3336308660838339,0.33357489359378817
59,0.3336280244059033,0.3335594035784403
60,0.3336263022820155,0.3335496181646983
61,0.33362959222661126,0.33365911547342936
62,0.3336385032931964,0.333895056227843
63,0.33363343957397673,0.3339073354005814
64,0.33362982601589625,0.3336803835630417
65,0.33363331889443926,0.33359404095013934
66,0.3336365862025155,0.3335853961904844
67,0.3336268761952718,0.3336355674664179
68,0.3336279227866067,0.3336174070636431
69,0.3336289698945151,0.33360968975226085
70,0.33362789886527594,0.3335708944002787
71,0.3336302519440651,0.3335964633425077
