epoch,loss,val_loss
0,0.22642650529079966,0.22471205605069797
1,0.22320954872833357,0.2229816949268182
2,0.22304314783215523,0.22284082163373628
3,0.22293637865450647,0.22285066882769267
4,0.22285382732748985,0.22274421339233716
5,0.22280652374360296,0.2232080187499523
6,0.2228004437784354,0.22262404216329257
7,0.22275452797280418,0.22277194529771804
8,0.2227393696639273,0.22270554903149606
9,0.22271055432491832,0.2228176828722159
10,0.22269254378477732,0.2226443798939387
11,0.2226824186841647,0.2225739177664121
12,0.22267454788088797,0.22276309236884118
13,0.22267407818635304,0.2225591694911321
14,0.22266683433122106,0.22294020105401674
15,0.22266450271341537,0.22275376214583714
16,0.22265788437260522,0.22261187488834064
17,0.22265791396631135,0.222587661276261
18,0.22265227523446082,0.222567146897316
19,0.22266297504968113,0.22256553306182225
20,0.22265088200238015,0.2226326541999976
21,0.22265621872742972,0.22259691629807155
22,0.22266813084814283,0.22254655551910402
23,0.222642428583569,0.22268342752257983
24,0.22264946805437405,0.22264309035738308
25,0.22264022033744388,0.22276807604233423
26,0.22263722769088215,0.22257169794042905
27,0.22263056219617525,0.22256798761089644
28,0.22263079569737115,0.22289132344722748
29,0.22262941138280762,0.22268328646818797
30,0.22263087313042745,0.22268449688951175
31,0.22262786258591546,0.2230872013568878
32,0.2226332923637496,0.22273431609074273
33,0.22262194243735736,0.22268445614973703
34,0.22262128510077794,0.22258053023616473
35,0.22262712518705263,0.2225709325770537
36,0.2226235716011789,0.22265962356328964
37,0.22261959083875021,0.22255856735507648
38,0.22262395004431407,0.22267500670750937
39,0.22261060872673988,0.22255898625651996
40,0.22261831551127964,0.22255306888620058
41,0.2226196988456779,0.223258554627498
42,0.22261303040716382,0.22258316820859908
