epoch,loss,val_loss
0,0.5630045814858712,0.45920194046147356
1,0.4538275344644765,0.44506614873395733
2,0.44961656571579894,0.4369633717693552
3,0.4497017679188708,0.4432765317224238
4,0.4464337049339942,0.42569548104317906
5,0.44703498508951206,0.4563754587664608
6,0.44668602892119375,0.4340678194820252
7,0.4472508814284284,0.4371457625866323
8,0.4458006231354369,0.43234649955597915
9,0.4451247890464204,0.4425708823637177
10,0.4453315644549598,0.4307163720051641
11,0.4453152292150798,0.43236660396579024
12,0.4453657329488125,0.4355518086258222
13,0.4465571466901953,0.4433534516615299
14,0.4456472195464196,0.43649679797022495
15,0.44588058440087797,0.4342710093715185
16,0.44629690735887967,0.4420380773383819
17,0.4448630271838893,0.4329494041392983
18,0.44297565573496855,0.4360607656297506
19,0.4434702055658504,0.435180339596664
20,0.4447196750305861,0.43149401009421184
21,0.44398020292588286,0.4354316923111701
22,0.4444298134435168,0.4513065464981958
23,0.4448268064100137,0.4296013335096865
24,0.44372478604698484,0.4441490432448437
25,0.44513126440626605,0.43467698615446193
26,0.44518033801029927,0.42928804325458003
27,0.4439312828073891,0.4388844430543307
28,0.44408770994819385,0.42934346056429235
29,0.44347601491895267,0.4320404829528403
30,0.44370943533362533,0.4281011690285181
31,0.44407218096970175,0.4445603199103743
32,0.44443226486945553,0.4363953174369082
33,0.4440137326621933,0.4313495374750724
34,0.4441327037956354,0.4451930770183712
35,0.4437431503024647,0.43367810352778685
36,0.4426797702133035,0.43420009432241186
37,0.443775736099725,0.4396384479500661
38,0.4450180280008156,0.45024719764233023
39,0.44416287402995974,0.4428702792015292
40,0.44421462851872534,0.43479720548411643
41,0.44385592326867856,0.4361720431025011
42,0.4441353736924018,0.4306817660221508
43,0.44555926204825325,0.4574699037363156
44,0.44714039021296154,0.44052675252799955
45,0.4461116896117564,0.4369523308186249
46,0.447118292721488,0.43697244431657317
47,0.4490280430778873,0.4398866587553388
48,0.4460127388505195,0.43688845549863425
49,0.44862880835159,0.43879073079968506
50,0.44695034014691915,0.43934556343936376
51,0.4469693530383732,0.45359655337322075
52,0.44675490535718143,0.4391423195286292
53,0.4473778515028133,0.4390336338185916
54,0.4461804657482547,0.43429260587943636
55,0.44708789793179454,0.44115866434255074
56,0.44778370403880785,0.433310273644988
57,0.44650040062262214,0.4336772696186833
58,0.44637577904998255,0.44656558116083694
59,0.4472032376677633,0.42997475648835143
60,0.446190024527003,0.44606118028664726
61,0.4465317199046942,0.43743231181970765
62,0.4479910835945864,0.43899073278333534
63,0.4463046444020718,0.4356922606868852
64,0.44740060916702873,0.435517385710765
65,0.44587209199169714,0.43364120283846147
66,0.4468075568147236,0.43851525403577335
67,0.44881468272810465,0.4408998297707201
68,0.4474570377885675,0.43528125649627786
69,0.4471347338204579,0.43531488463439694
70,0.4459849678940349,0.43622956243067956
71,0.4476708920838071,0.43856835097001995
72,0.44766214420740086,0.44125250242922426
73,0.44704792902076407,0.44550489709808494
74,0.44655215284459776,0.4451251320256901
75,0.44736011127074116,0.4402931953046927
76,0.446566027030647,0.4334521978392605
77,0.4459620122794059,0.4413007554830039
78,0.44743262200330713,0.4335462630085121
79,0.4466567654624951,0.4383391415985831
80,0.4466308115528907,0.4376917959033041
81,0.44889265191469124,0.43160771042567775
82,0.447118346861976,0.43854481262205486
83,0.44632916282519425,0.43223846700746454
84,0.4464212667235763,0.437758049898194
85,0.44748155450563226,0.43597233404208274
86,0.4458149108913443,0.43236614380633065
87,0.44490961784167327,0.4353297335629722
88,0.44687976736465007,0.4275079656933153
89,0.4463478981541862,0.42947655800195217
90,0.44737886850408215,0.4359459372574202
91,0.4466463313091269,0.44717497216040586
92,0.4462939857649173,0.4340463643236462
93,0.44664808939560785,0.42817196399819435
94,0.44560782737833105,0.4459116355201044
95,0.44601520211148776,0.4465931921303031
96,0.446546652848669,0.43696475422972114
97,0.4470220378773798,0.4418947635775935
98,0.44681953168134864,0.4555629041266461
99,0.4464429345509832,0.4419315248751969
100,0.4463911612120698,0.43654295441974783
101,0.446625961171235,0.4343310904425523
102,0.4458145888043557,0.4349565024503536
103,0.4469695877107837,0.43277213342385085
104,0.44784804502184433,0.44461527478859275
105,0.4455876664770804,0.4374104414833143
106,0.4460531217847661,0.4313409346346921
107,0.4461692039540904,0.43368833534425577
108,0.44722306379993215,0.4375636011047858
109,0.44719462412848676,0.43334238638456335
110,0.44692815289056426,0.44137592796184916
111,0.4463186073031208,0.43753173799893763
112,0.4467986501317868,0.43172567215085705
113,0.446024594710673,0.43326503241439224
114,0.44646764449399406,0.43338567806469747
115,0.4463910786651248,0.43596903309044754
116,0.44610325245259763,0.43449213820459004
117,0.4464103124373622,0.4303732469907546
118,0.4461387799347373,0.4295816475650883
119,0.44721179317721754,0.4363845725757556
120,0.4456245003221892,0.4336359764102602
121,0.4472521501746151,0.44023311706161655
122,0.44627567439722576,0.4400718644297616
123,0.447537101751523,0.4418344158567458
124,0.4466218365560635,0.43664535087293854
125,0.44727003604197524,0.43800423305786823
126,0.4462919943303085,0.43513861433916334
127,0.44676501612313946,0.44111502941604175
128,0.4459190697456189,0.43134811276453644
129,0.44702503889250317,0.4353370735148347
130,0.44511561080204953,0.4383950203971368
131,0.4466966157607597,0.44387648515070927
132,0.44798433920256703,0.4478586695103363
133,0.4471756064290519,0.44476678786196555
134,0.4461541447021944,0.4413014908970031
135,0.44686128190749164,0.431900669647636
136,0.4463783726871634,0.4423918504107801
137,0.446342040434945,0.44317460802156367
138,0.4470889143842616,0.43392120155491487
139,0.44673984135695705,0.4321415643574064
140,0.44558573196275986,0.4398615221037482
141,0.44664937238677965,0.44138362423636907
142,0.44554006264770957,0.433023494090477
143,0.44687477166982914,0.43823276048062393
144,0.44617730442336123,0.43223025299916884
145,0.44610979240402593,0.4528708746543476
146,0.4459527523232232,0.4374511561206174
147,0.4468299783497834,0.4308402457328125
148,0.4462094306945801,0.43173926648142275
149,0.4461749482503216,0.44091229344999894
150,0.446631155031218,0.44062281904526096
151,0.44759359584749936,0.4331815939605091
152,0.44525897970573725,0.43914862618829215
153,0.4461386699477036,0.44109378814310535
154,0.4470771025117633,0.4448140244462678
155,0.44580726190697584,0.43537772439015365
156,0.44670496041102825,0.4442060493591445
157,0.4453632909598782,0.43358464030260396
158,0.44662669672070743,0.43701097149241774
159,0.4461255210389892,0.43342842015423433
160,0.4462566514841741,0.437303995515695
161,0.44660825811451776,0.4403613426292803
162,0.445959745477542,0.4405241463112812
163,0.44565981480958844,0.4339677588009583
164,0.44695262810151226,0.429176629169724
165,0.4459823727058925,0.435344429105061
166,0.44645031449124756,0.43957886812847413
167,0.44567333504235485,0.43442746204084626
168,0.4461333748695848,0.4314369188511362
169,0.4464438097227851,0.4295894040001763
170,0.4469524313202851,0.44280103257489417
171,0.4458989190329925,0.43228748460078953
172,0.4472144155907001,0.4387334501076209
173,0.44764599570328945,0.4299481381320025
174,0.4453559689420619,0.4404381924737109
175,0.446401021366505,0.4328078334397256
176,0.4471608098742483,0.4381705946972577
177,0.4469519428031935,0.44522600679598684
178,0.44732836906531986,0.4368636212934833
179,0.4473987596811916,0.43671840073998536
180,0.44639993572922304,0.4530574340986606
181,0.44728014431446433,0.44328483059361806
182,0.44699319937021087,0.44455659338737635
183,0.44611099566384443,0.4398366533105004
184,0.447324591614992,0.44775261602455874
185,0.4466969503866758,0.4365681307352566
186,0.4445095790253342,0.42957985833806905
187,0.4460506885885906,0.4315620981525427
188,0.4458919448481263,0.44251297502525433
189,0.4464683700815213,0.450315205164296
190,0.44713806989099425,0.4498630053177174
191,0.4467612713980999,0.43777678197511116
192,0.44657745075712596,0.44642872749453916
193,0.4471118429525076,0.4317772160046292
194,0.4476851461957797,0.43415968551542927
195,0.44682373947578014,0.44106699658039616
196,0.44681031250352377,0.4419142576561454
197,0.44688790545070334,0.4364717528284418
198,0.44603165986539844,0.4569790513652761
199,0.44675308736779384,0.4354174945863011
200,0.4465129681713014,0.43970042645979585
201,0.4464299103276457,0.4354291176370557
202,0.44551021089737086,0.438124171477068
203,0.44684672847187357,0.44241784881597984
204,0.4463814696352228,0.43015050917066217
205,0.446376391572414,0.440611324412786
206,0.4475184720191505,0.43770412881975723
207,0.44511857851922176,0.4354799952046811
208,0.44643393630166356,0.4371476610163219
209,0.44705375735524944,0.44029548607120067
210,0.4478293610535401,0.44007383686976037
211,0.44704587093060066,0.4363601368467496
212,0.4476065077812219,0.4403120725984411
213,0.447292978568875,0.4418446248803599
214,0.4475132760594042,0.43425087914753036
215,0.4467806445301963,0.43804464495868484
216,0.4468529327713651,0.4331406697884673
217,0.4468637736226388,0.445760135015432
218,0.44702664743050086,0.43820134706837516
219,0.44515465301356383,0.4417568945778354
220,0.4471165434158354,0.43904021885079864
221,0.4456033438110084,0.4389104577021587
222,0.4466110429733252,0.4411191193195058
223,0.4466048713633306,0.4451788453821815
224,0.44910528293077806,0.4359171410595027
225,0.445917177190773,0.43489829027256344
226,0.4467187502367006,0.4401231119039092
227,0.4466269375611726,0.4357116014272917
228,0.4468281051461653,0.440402928495059
229,0.44769723679992657,0.4402213833096157
230,0.4462607693466976,0.4331949259436237
231,0.44568352592144134,0.4301517735577558
232,0.4457370085034779,0.4395959226464413
233,0.4458848842627722,0.43392688558049447
234,0.4456962048291587,0.4471189292677998
235,0.4463930793219895,0.43048545297625
236,0.44756691644581154,0.4389231864359934
237,0.4467209104039938,0.436376907191234
238,0.44656125828922033,0.43455881245331557
239,0.44711530956628326,0.43985250077398447
240,0.4464202873390899,0.4328401609348845
241,0.44674893332014476,0.4291536370043047
242,0.4456947499437271,0.4348496988790362
243,0.44648272817949947,0.4335847008982424
244,0.44639732949346234,0.43523580116270427
245,0.44656701341832133,0.44061125847544985
246,0.4471467601312839,0.43993554884886604
247,0.4458724099746029,0.44140067070553385
248,0.4460842802917795,0.4386270246124809
249,0.446468658118939,0.443882922911586
250,0.44749500364470807,0.4372899668640174
251,0.4479186800692538,0.43554418314692456
252,0.4474892817896972,0.447124784590264
253,0.4475401452391314,0.4373461097019626
254,0.4470270752334137,0.4406772396570285
255,0.4484761834645672,0.4419412936800781
256,0.4455194025993156,0.4343875855183273
257,0.44684285113962297,0.43254457002041885
258,0.4471841982190756,0.43735935220559824
259,0.4474881569488799,0.4386617004968051
260,0.4467099354661303,0.4318500262929092
261,0.44734266965841657,0.4344874844257172
262,0.44680127423939653,0.4301215000057839
263,0.4463511784736207,0.4354759856442175
264,0.44648348927211534,0.44262968971781486
265,0.4471481333764865,0.4488956885712957
266,0.44675114972768926,0.4307715132868783
267,0.4457756813356073,0.4353610516706329
268,0.44732392955723527,0.4328429601778369
269,0.44724691462955823,0.44393482618184954
270,0.44629287182855265,0.4455991607319506
271,0.4467975301705331,0.447862079712983
272,0.4482799758545583,0.4366134669078818
273,0.4464214133013717,0.4348115925129506
274,0.44714121369002247,0.43320266676451846
275,0.4458271794862228,0.4367651936008209
276,0.44698649255918255,0.44182812466625265
277,0.4473472876463822,0.43129040118358236
278,0.4461045613567575,0.43517909921095416
279,0.4472999113192073,0.4298840844089774
280,0.4476839625615898,0.42869268564412194
281,0.4477639236719347,0.4295534075563358
282,0.4469545865722233,0.4365010278696755
283,0.44661021615573177,0.4330865146179849
284,0.4460766137815457,0.43282414333470354
285,0.4476830027192187,0.43443222004325044
286,0.44650305159765785,0.43466295648762004
287,0.446434644804753,0.4423404233250691
288,0.4465115000788358,0.4382564824282978
289,0.44626358497419577,0.44085467166274134
290,0.447346458717095,0.4418843041951349
291,0.44664747340140865,0.4382228369115333
292,0.4463800541680751,0.4387637968481022
293,0.44701136201262187,0.4395165596178462
294,0.4472742593102306,0.4398222456158223
295,0.44710442373712506,0.4307192906507707
296,0.44710758271171536,0.43536813507598293
297,0.445885681146808,0.4382471863032354
298,0.4469743256596587,0.43214281197011906
299,0.44622110503258183,0.45121812564226443
300,0.44738783761918594,0.4317868939764792
301,0.4460200606416568,0.4311893201899161
302,0.44674443373019646,0.42712345011139535
303,0.4465332872944894,0.429817332645209
304,0.4460271118377284,0.43020576444082115
305,0.4455854508927386,0.4405472610698709
306,0.44631214651038303,0.4403767751564558
307,0.44525715346046213,0.440614555535622
308,0.44514034519060025,0.43554332472885515
309,0.4463794215189351,0.44662363958958196
310,0.4461595170420585,0.4433541858428296
311,0.4456661781303591,0.43662296906294906
312,0.4469958486749803,0.433309353205216
313,0.4471089283378722,0.43902012732390555
314,0.44716973469150456,0.43247022412699215
315,0.44607100495583923,0.4318315597056182
316,0.44780599486360173,0.43763591937678475
317,0.4470122579315169,0.44028185502552736
318,0.4474881687958399,0.44974842914119545
319,0.4471834239432867,0.4347112982474201
320,0.44575622430842243,0.44281737785559794
321,0.44754742817271703,0.43270686445251677
322,0.44669173991947386,0.44541276574424876
323,0.4471227771478047,0.4369288819017975
324,0.4473925769400654,0.44120406019233244
325,0.44630957357257345,0.435907411435128
326,0.44716891467428094,0.4434908946065137
327,0.4481338138481061,0.43848140219895704
328,0.44611221057973544,0.43855471569449556
329,0.4471367048300964,0.43416718757935685
330,0.44707655125231244,0.4357156526578314
331,0.44649134779138694,0.4370337837562267
332,0.4474002026242194,0.4395083057280971
333,0.44584712600879806,0.4357883792434006
334,0.44719423529049984,0.4392817899500173
335,0.44591633240588674,0.4397040679265306
336,0.4469195729952225,0.4407152265962893
337,0.4453480486348689,0.4341503472127087
338,0.4459926054132185,0.43359464537488285
339,0.4469941437029667,0.4297990817078129
340,0.4464244501437064,0.4305787161173902
341,0.44645038700466444,0.4367226347726047
342,0.4463429910908517,0.43161374137156006
343,0.4455546202112714,0.4278819378033365
344,0.44672517152764113,0.4301427102195279
345,0.4472674714554969,0.4370771041026661
346,0.44643039080359825,0.4463595180422527
347,0.4466150230508122,0.4323573044085058
348,0.4473844677734795,0.43584425050073394
349,0.4470930315667481,0.44432502520925515
350,0.44682012830045914,0.44048165281613666
351,0.44706226689658995,0.43888206706236554
352,0.44733995415145056,0.430537913958425
353,0.4461535068871595,0.4393279479464572
354,0.44557683952480814,0.4478688309420828
355,0.4479032752869891,0.44999876207485495
356,0.4480571383662564,0.44343912354931053
357,0.44844116636807674,0.43943347434444535
358,0.44932680137401776,0.4364757261330387
359,0.44999922413507204,0.43697547262409114
360,0.45012514688092486,0.45170841123742583
361,0.45025785443924066,0.4407615822597142
362,0.4501902771005638,0.4381038247088736
363,0.44950257575779173,0.43752424371793613
364,0.44942263312775005,0.4459534562272167
365,0.44967307077588037,0.4510513084599958
366,0.45032072997837663,0.4440888792203871
367,0.4493677528311101,0.44657986930783744
368,0.45069837364986287,0.4371347895068844
369,0.451058244423641,0.45307777395406973
370,0.45098157074329276,0.44372133948120374
371,0.45107760289318566,0.44145406501039874
372,0.4503900107381056,0.4400012297835277
373,0.44950994729900284,0.4323831798579764
374,0.44993940399015686,0.43984407918876683
375,0.44930869408900304,0.4379109621821432
376,0.4490442932654229,0.4520035146071673
377,0.44964941725242225,0.4342007649834332
378,0.4486506838885377,0.43918723771945306
379,0.44752250518724385,0.4312858315183202
380,0.4502979234350119,0.4360336304339372
381,0.44948243203642274,0.4491281086897715
382,0.4483194001394811,0.43741682205660404
383,0.44770110493378223,0.4446312195386523
384,0.4486496376814701,0.44506093620383824
385,0.44793306940121114,0.4380308477886305
386,0.4481869509355653,0.4329892017207103
387,0.44877558459846184,0.43621055553429317
388,0.4479971198652915,0.44478848097968277
389,0.4493202958181441,0.43684260113299234
390,0.4484522110872788,0.43684456250286646
391,0.44839705899059534,0.44319211286156523
392,0.4481878062192682,0.4427222887481603
393,0.4479269196359132,0.44588001097785873
394,0.44847213761438076,0.4376791381342858
395,0.44827380059383887,0.444236826456763
396,0.44789263954441294,0.43164563012239127
397,0.4475860021370139,0.438731735906075
398,0.449129066031107,0.4468617330019008
399,0.4477976941532665,0.433691245312625
400,0.44682389288973673,0.43258684252397084
401,0.44747508983549067,0.44292296255301966
402,0.4445725324585306,0.4358817599260604
403,0.4447243065835,0.43825284071985726
404,0.44474188919015845,0.43355958184283244
405,0.4437211205283578,0.42859239906483515
406,0.445963197607723,0.4489850539892356
407,0.44522379201540857,0.4392955012178382
408,0.44510242475377165,0.432660267784261
409,0.44443063422429074,0.4335048997779252
410,0.44431706084262096,0.43356255620162076
411,0.4452631620405387,0.431965473456201
412,0.4444868281853495,0.4334192504171231
413,0.44401184542833855,0.4360291781410007
414,0.4445484227137722,0.4394511922964311
415,0.4448495178555755,0.43757398396319525
416,0.44423729579767485,0.43648582476962416
417,0.44476764244113187,0.4300880591413014
418,0.4447322718327861,0.4436302798266152
419,0.4446379848128801,0.42832592149043797
420,0.44526958830648655,0.42862129605406196
421,0.4453181418015348,0.4417780837390061
422,0.4465098207812008,0.43799365103389803
423,0.446657053201651,0.4431895951575026
424,0.4457665136139139,0.4391278915306657
425,0.44706547238809574,0.4451404914368678
426,0.44653812293008005,0.4430232190399371
427,0.4454220209458621,0.43455010935337873
428,0.44703565214613705,0.43340877764416436
429,0.44884986331980165,0.4504428167267727
430,0.4488545722299046,0.4304880624559964
431,0.44800507140646373,0.4307853941596434
432,0.44723147795713836,0.44928757265053043
433,0.44846678993480504,0.43697523645337577
434,0.44730196358729973,0.44050093395189843
435,0.44833375408565457,0.44073755073528026
436,0.449504588046868,0.4389162017674535
437,0.4494497909414186,0.43383507627543644
438,0.44912330984019394,0.42947562480011514
439,0.45021431945007834,0.43963847521447785
440,0.44942805583807255,0.43372073293409014
441,0.4494071183226603,0.44519604593877954
442,0.45040908853133454,0.44032054813238825
443,0.4512534235671962,0.4473138918068384
444,0.45170893357265846,0.4467024619223524
445,0.4509159072195653,0.4418013294537862
446,0.45158566204045086,0.44253342548522734
447,0.4500716518554046,0.4390677196749419
448,0.4507062383729806,0.4376994217447604
449,0.45092380726881465,0.4485109208419085
450,0.45216935605789016,0.43877873332251016
451,0.45363828790388266,0.4431300070937436
452,0.4515847130070886,0.44210970819914913
453,0.45271443938903566,0.4389655807834279
454,0.45269623374919876,0.4411374093407262
455,0.451897668638069,0.4623645345369975
456,0.45407622266378855,0.45236096192160374
457,0.4542013828734382,0.4587847438171832
458,0.45451705543111093,0.4469375341574738
459,0.4539844357700134,0.444147550059061
460,0.4537308378945932,0.4459914974294246
461,0.45302284538173215,0.4484964354146523
462,0.4523911400018834,0.44187956258038247
463,0.45356416839470953,0.4502537390466444
464,0.45254167517105803,0.44290574065380145
465,0.45302015630076464,0.44314761545632975
466,0.4534035730805752,0.43832258153812537
467,0.4522798307257905,0.44493317381695624
468,0.4521709265496084,0.4473705877401146
469,0.45077492921852513,0.434759330092072
470,0.44971392593019194,0.44243809082889013
