epoch,loss,val_loss
0,0.6682510131200154,0.6668613285621007
1,0.6669065497318903,0.6668658244609833
2,0.6668595092958874,0.6667825474341711
3,0.6668314477205276,0.6668310340245565
4,0.6668231951528125,0.6667600562969843
5,0.6668138190507888,0.666790359735489
6,0.666806099931399,0.6667723345756531
7,0.6667988288402558,0.6667728213866552
8,0.6667957652807236,0.6667960994640986
9,0.6667913923925823,0.6667629801034928
10,0.6667893940077888,0.6667645579576492
11,0.6667871716022491,0.666767845749855
12,0.6667832211520937,0.6667569426695505
13,0.6667810515430238,0.6668874648412069
14,0.6667792817089293,0.6667637352546056
15,0.6667794982857175,0.6667538005510966
16,0.666775627930959,0.6667734123071035
17,0.6667761197090148,0.6668406219482422
18,0.6667743197282155,0.6667812227805455
19,0.6667730701234605,0.6667551602919897
20,0.6667726795408461,0.6667802349328995
21,0.6667725175089306,0.6667703026135763
22,0.6667726966540019,0.6667477272351583
23,0.666771034916242,0.666764493783315
24,0.666771446135309,0.6667673193613688
25,0.6667703074084388,0.6667438507080078
26,0.6667697724103928,0.666778778553009
27,0.666769672340817,0.666748210310936
28,0.6667688900762134,0.6667595935265224
29,0.6667698946661419,0.6667571301062902
30,0.6667686000002755,0.6667492002248764
31,0.6667681645817227,0.6667850796778997
32,0.6667665701839659,0.6667891310056051
33,0.6667673485411538,0.6667485162814458
34,0.6667657110293707,0.6667656553983689
35,0.6667649245262146,0.6667634410063425
36,0.6667642556296455,0.6667920557260514
37,0.6667645611895455,0.6668663447300593
38,0.6667658371130626,0.6667464803059896
39,0.6667650615904066,0.6667844671805699
40,0.6667632664706972,0.6667503943840662
41,0.6667648290263282,0.6667568346659343
42,0.6667652031315697,0.6667716106573741
43,0.6667639849450853,0.6667655475536982
44,0.6667640120983124,0.6667485418319702
45,0.6667637591891818,0.6667653688192368
