epoch,loss,val_loss
0,0.5578558081388474,0.5562614069779714
1,0.5559258108006583,0.5557139883041382
2,0.5558095106283824,0.5557436080773671
3,0.555774209552341,0.5557678843339284
4,0.5557572926415337,0.5558002188205718
5,0.5557449842558967,0.5559632747968037
6,0.5557395948701435,0.5557133022546769
7,0.5557338525984022,0.5557129935820897
8,0.5557340216106839,0.5557444928089778
9,0.555721675210529,0.5556802363395691
10,0.55572052526474,0.5558975430727005
11,0.5557179816299015,0.5557000856796901
12,0.5557153887881173,0.5557315635681153
13,0.5557153412103653,0.555751119295756
14,0.5557121690909068,0.5556914873123169
15,0.5557067396375868,0.5557533324956894
16,0.5557089160415861,0.5556619155804317
17,0.55570274149047,0.5556916015942891
18,0.5557040259308286,0.5556723822752635
19,0.5556994049681557,0.5556788516441981
20,0.5556997332970302,0.555696129322052
21,0.5556979333692127,0.5557087175846099
22,0.5556984135309855,0.5556983234882354
23,0.5556976015700235,0.5556721164782842
24,0.5556960684988234,0.5556965632041295
25,0.5556976919836468,0.5556920212904612
26,0.5556951837407218,0.5556610084374746
27,0.5556931720707151,0.5556742362976074
28,0.5556959656212065,0.555666625738144
29,0.5556933861043718,0.5556821868419647
30,0.5556937495734956,0.5556922339200974
31,0.555693031112353,0.5557219125827153
32,0.5556906745566262,0.5556675937175751
33,0.5556905579169591,0.5557328283389409
34,0.5556889205508762,0.5557160727977752
35,0.555692873954773,0.5557853037516276
36,0.555688300702307,0.5556798564990362
37,0.5556890515353945,0.5558749338785808
38,0.5556893028285769,0.5556628342469533
39,0.555687184188101,0.5556843186616898
40,0.5556875897381041,0.5556737110217412
41,0.5556869873603185,0.5557203309933344
42,0.5556865430408054,0.555693020383517
43,0.5556852771308687,0.5557425752480825
44,0.5556851605309381,0.5556719883680343
45,0.5556844769451353,0.5557601492802302
46,0.5556864448255963,0.555667404294014
