epoch,loss,val_loss
0,0.5364246867365308,0.44468282647927604
1,0.44481375333335665,0.4447297521432241
2,0.44481440252727933,0.4447457749247551
3,0.4448010156287087,0.44468958709637324
4,0.44476717354191675,0.4446645818352699
5,0.44474473931392033,0.4450001712242762
6,0.44471721755133736,0.4446649565498034
7,0.44470736406909095,0.4446583049297333
8,0.4446968571278784,0.4446395750840505
9,0.4446906170182758,0.4446164631446203
10,0.44468679396311445,0.44469886320829394
11,0.44468096664216783,0.44472984558343887
12,0.44468090171284147,0.44476202366749445
13,0.44467438020308814,0.4446153440674146
14,0.44467359052764044,0.44478243140379586
15,0.44466846503151786,0.44462602456410727
16,0.44466898831393986,0.44464019298553464
17,0.4446657681796286,0.44461395625273387
18,0.444664581378301,0.44468456276257834
19,0.4446591491566764,0.44476799748341245
20,0.4446608916918437,0.4446258601148923
21,0.44465590590900844,0.44463522082567214
22,0.44465653493007024,0.4446740800937017
23,0.44465769441922504,0.4446417198975881
24,0.44465228525797523,0.4446409092744191
25,0.44465301134851243,0.44463464230298994
26,0.44465232211351396,0.4448333310286204
27,0.44465174700816473,0.44464466228087746
28,0.4446491569015715,0.44465650234619775
29,0.44464888541566,0.4446740041176478
30,0.4446465046074655,0.44471408406893415
31,0.4446499665379524,0.44468420978387196
32,0.4446466700103548,0.44466574398676556
33,0.44464718905422423,0.4446355149547259
34,0.44464563309484056,0.4446262952685356
35,0.44464494259489906,0.44461978689829507
36,0.4446469894713826,0.44461622112989424
37,0.4446431466208564,0.44463633811473846
