epoch,loss,val_loss
0,0.6684482866128286,0.6668090767065684
1,0.6669094875786039,0.6668123377958933
2,0.6668662370310889,0.6668020680348078
3,0.6175484373569489,0.5557343263626099
4,0.5557626872327592,0.5558125001986821
5,0.5557466504044003,0.5556828573942184
6,0.5557399355570475,0.5559007562001547
7,0.5557363651858436,0.5556773200829824
8,0.5557256480058034,0.5558854007720947
9,0.5557189841137992,0.5557711663643519
10,0.5557137508922153,0.5558410195509592
11,0.5557147983312607,0.5557112378676733
12,0.5557078014082378,0.555687541882197
13,0.5557080473502477,0.5556705549558004
14,0.5557041914595497,0.5556878012816111
15,0.555703007751041,0.5557548149426779
16,0.5557027328544193,0.5557498847643534
17,0.5557004401683807,0.5558350009123484
18,0.5557018562422859,0.5556938831806183
19,0.5556985864771737,0.5556788373390834
20,0.5556983715295791,0.5556877133051554
21,0.5556952271461487,0.5556840475797653
22,0.5556964153316286,0.5556756278673808
23,0.5556968316634496,0.555666492342949
24,0.5556927452617222,0.5558146890799205
25,0.5556950035757489,0.5556876010894776
26,0.5556938323179881,0.5556778037150701
27,0.5556918004221386,0.5557369327942531
28,0.5556914682918125,0.5556688017845154
29,0.5556918867958917,0.5556563301881154
30,0.5556915459103055,0.5556803976297379
31,0.5556902646885978,0.5556673110326131
32,0.5556888369056914,0.5556666784683864
33,0.5556891867717108,0.5556793867746989
34,0.5556904769738515,0.5556859581867853
35,0.5556876089572906,0.555671826283137
36,0.5556889990700615,0.5556758888959885
37,0.5556884131166671,0.5556608015298843
38,0.555686136868265,0.5556654783089956
39,0.5556848761638006,0.5556601833502451
40,0.5556876045995288,0.5556705054839453
41,0.5556888705889383,0.5556606325308482
42,0.5556833078993691,0.5556694765488307
43,0.5556819568342632,0.5556634084383647
44,0.5556837903658549,0.5556727009614308
45,0.5556827101839913,0.5556573224862417
46,0.5556836992104848,0.5557173291842142
47,0.5556840766800775,0.5556652845144272
48,0.5556814992957645,0.5556934338013331
49,0.5556823031637403,0.5556584979693094
