epoch,loss,val_loss
0,0.43544746337415313,0.4276775226832001
1,0.41810250473465566,0.41061506749093296
2,0.40994621424390065,0.40449131360746504
3,0.40807942546409764,0.40638091316962677
4,0.39253917615190687,0.376013521272645
5,0.36040245083500916,0.3504202562871653
6,0.3443969464261564,0.32682843678046514
7,0.32605067970786544,0.31103548842122825
8,0.31400671431558025,0.3167549570597526
9,0.31207837540206673,0.3001074575611053
10,0.3104758028426378,0.30239060866310546
11,0.3080546375986436,0.30109319169053717
12,0.3092770781621134,0.31992314120823695
13,0.3069494819427899,0.30174017030725164
14,0.3059647062377964,0.30467947938824225
15,0.304808014376963,0.3035915047047923
16,0.3055227961954024,0.3029369642309721
17,0.30372466561164885,0.29727889880267483
18,0.30363155510142553,0.31049739569425583
19,0.30208822757267745,0.3065502741671775
20,0.30246296312383036,0.30060809350851114
21,0.30476979241608904,0.2957992696077596
22,0.3055593546071975,0.29573309947255094
23,0.3149613392718738,0.3252197590721999
24,0.3222076749677757,0.31171190469351545
25,0.31983752881022665,0.3173275139026973
26,0.31054802768105133,0.29917795423950466
27,0.2910103354778745,0.28093343224573436
28,0.28743321120405463,0.284199914185664
29,0.2867336629076208,0.27120639729565676
30,0.28563355266464224,0.2827368132481918
31,0.28309488312886966,0.2796306616693571
32,0.28317110532288736,0.2834496301170306
33,0.2818885854215359,0.28210296164889365
34,0.2815816006381258,0.2890389078806118
35,0.28120558851545185,0.2749629748166313
36,0.2812737267610314,0.2662902138862632
37,0.28204578328892577,0.2759861275788923
38,0.28153188164523846,0.27338424727802874
39,0.28009730168610075,0.2769889460719281
40,0.279008102606979,0.2789074857531802
41,0.2811945536606413,0.27136591630793033
42,0.2789428778302422,0.27973046386063144
43,0.2786965393911687,0.26879269877285494
44,0.27795553438776405,0.2701573185299265
45,0.2988876372004013,0.28170947033703186
46,0.283287285206963,0.2799231204327017
47,0.28212068277261526,0.26964395401533325
48,0.281612425125379,0.2828907421492364
49,0.2805502899467564,0.2655218773725095
50,0.28189207290073665,0.26902318352446747
51,0.2804587246637217,0.2741631977054296
52,0.28150947316349456,0.2781899608995092
53,0.2806903362887607,0.2691418623644344
54,0.28008133761114257,0.2740197162942898
55,0.2803540964016049,0.26967967397459114
56,0.2800859932711037,0.26967774883747664
57,0.28142868334071625,0.2764602182366854
58,0.28155634081442293,0.27663942684596604
59,0.2800553226195794,0.2796156073919694
60,0.28241175347916797,0.2777364497508886
61,0.2812240869402409,0.27660210398279406
62,0.2800976001143122,0.28852065013987677
63,0.2804148038484448,0.2705966724051955
64,0.2797125135418132,0.2735813648896417
65,0.2792085377301434,0.27389774165147857
66,0.2793060694512227,0.2796152121230854
67,0.2768203002377618,0.2705766456738267
68,0.2780344695758095,0.27395139198864926
69,0.27777382364864356,0.2712729843869958
70,0.2751392693631798,0.2713389109581968
71,0.2753926362815521,0.27025785577066697
72,0.2799400575488782,0.2601548916797706
73,0.2752081135468041,0.26050482445117895
74,0.2798201001966171,0.27763726068300437
75,0.28337175552126503,0.2702262089150387
76,0.27955069992360737,0.2671343315489761
77,0.2784527932598198,0.2713281809048758
78,0.2772290882833904,0.2823588450592902
79,0.2770901297678431,0.26719530147295256
80,0.27620806356223465,0.27754561466053895
81,0.2751143926756083,0.2652232421895793
82,0.2744243284203499,0.26551067004687406
83,0.2751117738918197,0.26488164652965157
84,0.2753129517890328,0.27677349999088324
85,0.2730988715615252,0.259705726513029
86,0.2759962850134912,0.27736304394589134
87,0.27617079852748927,0.26603866417340244
88,0.276060215059778,0.27374059169449577
89,0.27644782966608816,0.2822189510409627
90,0.2740346296644992,0.2609734784138419
91,0.2717560396033178,0.2543607446370204
92,0.27139129615921104,0.26127322446246176
93,0.26851217948990186,0.25940999357528166
94,0.2688819272882885,0.2630639171496845
95,0.26965065948146993,0.26829204463709405
96,0.27086719733884007,0.28760351628747244
97,0.2674836745257858,0.2588138908453597
98,0.265728794172299,0.2595641854341894
99,0.26558597135743933,0.26133135018168985
100,0.2650432506148859,0.24948927212062555
101,0.265609456001402,0.2537132228747445
102,0.2669170064468988,0.25203204493096426
103,0.2644316333202388,0.2621107232046109
104,0.2627393422896961,0.2678166921731987
105,0.26282299024690925,0.2542690944805706
106,0.26247547088350226,0.25268455545381946
107,0.2595077361837089,0.24908849745165576
108,0.2668680679574192,0.2620560304859349
109,0.2668355417122944,0.266076896148539
110,0.2642054424035273,0.251134715927287
111,0.2657801621347118,0.2762262228150112
112,0.26529054020305903,0.26018921937425965
113,0.2644487721063822,0.25194298780002083
114,0.2656931828418605,0.2560122378917312
115,0.26384274656776424,0.2646080140015603
116,0.2654313221067595,0.2592296524248259
117,0.26500577790190655,0.2513387201393601
118,0.2648851214755449,0.2547688800444637
119,0.26420940095179085,0.2599435226658055
120,0.2748832334068229,0.2802915658740049
121,0.2723807664476424,0.2578366555467589
122,0.26956775377420406,0.2634333153303063
123,0.2696252016813683,0.2601499198902848
124,0.27058752736361097,0.2635501449561627
125,0.26924767563168667,0.2606435452706247
126,0.26995146838869216,0.25981254416981736
127,0.26992619169249144,0.2615758417484416
128,0.26957492684002976,0.26174718873676767
129,0.26995725082240996,0.2646026450908363
130,0.26970425071559556,0.26102962885889935
131,0.2702783461657169,0.2694661446215604
132,0.27092813704010965,0.26082704259169415
133,0.2722707430599071,0.26271257121424646
134,0.2702556262008673,0.263228475124279
135,0.26980337901688595,0.2554575108115186
136,0.26710807016904026,0.2647817915374591
137,0.26424068896819075,0.2650758159988587
138,0.26248234614348714,0.2699508138218543
139,0.25999731160432316,0.26196397766294494
140,0.2642282615575811,0.24792975330785588
141,0.2628302123073003,0.25725463531976056
142,0.2629185992804506,0.25294406718523743
143,0.26159848532171176,0.25269500932405575
144,0.26237639031119103,0.24427411752299427
145,0.26033644968395137,0.2450923971955289
146,0.2617509410434442,0.2546570859349611
147,0.2619683638655787,0.25530634941011315
148,0.26098598750661034,0.25733896537192147
149,0.2704762040818338,0.2765999111775441
150,0.2683255188971115,0.25364483318393777
151,0.2649244266829426,0.2769916832870447
152,0.2650883981733204,0.2534036916440269
153,0.26574319791045786,0.26102900819672126
154,0.2662805517097648,0.26129915656987945
155,0.26441487095219723,0.2508133446478712
156,0.2670144387345901,0.256214832785615
157,0.26488599264257245,0.2636610748394794
158,0.26566245468507566,0.2613208150901283
159,0.26611384276529965,0.2481931562358315
160,0.26641448349844543,0.2576321670410665
161,0.266514638297373,0.2652124036412213
162,0.27904647178382136,0.2957008297142779
163,0.26800401480220776,0.2550806762634438
164,0.26316248468584197,0.24513107127177028
165,0.2634423732263245,0.2699055332093608
166,0.2628262915717755,0.25452722376175724
167,0.26300728683777563,0.24820900580830338
168,0.2626481448009098,0.25093537555520895
169,0.26303630354080937,0.27388224532002997
170,0.26229186284301476,0.25584879670447974
171,0.26262141906207415,0.26470973569643996
172,0.26260899614801797,0.2707081448401441
173,0.26192090372673327,0.2597815087322372
174,0.2619971181902525,0.2549174927945389
175,0.2623645892228297,0.2530132790214449
176,0.2628561561282495,0.24684347115874572
177,0.2618943370765538,0.2548294938871403
178,0.2611110025255991,0.2589616607448296
179,0.2627210420557111,0.2473259232967692
180,0.26144492951073617,0.2518556381633833
181,0.26203209340131633,0.2627421755287811
182,0.2621540485395135,0.2548268526945419
183,0.26079320690805297,0.2533091853807174
184,0.26170539259493686,0.24696607510805507
185,0.26205153589983354,0.2554044335927658
186,0.25993485669854827,0.24731736420267852
187,0.26136896875705556,0.24957882886386426
188,0.2630466157399255,0.2570336048550839
189,0.26076658623967525,0.25682024780040474
190,0.2624191517512099,0.24642683198674042
191,0.2623813104548519,0.25952306210453713
192,0.2652247143115738,0.25296259125740206
193,0.26672198082045684,0.2663074062803456
194,0.2700632784268458,0.2810020339987649
195,0.2660330041683168,0.2719994971577163
196,0.2663231965461128,0.2592085007381138
197,0.2650738228038013,0.260107657350982
198,0.26485351932277496,0.26294494925424067
199,0.2655815104101535,0.2467993499436243
200,0.2660581262069021,0.2736137564269783
201,0.2660329623771705,0.24706799821559142
202,0.26632125510109794,0.25728305954935987
203,0.2670524557330292,0.2596067186994824
204,0.2691836843965389,0.26229241699121464
205,0.2681563661115871,0.2622753290581534
206,0.26806184400816996,0.2617236695060508
207,0.26833810096533656,0.2710371154647882
208,0.2656975891992009,0.253096341786887
209,0.2643403507661905,0.250969650113592
210,0.26439079599117016,0.2525505939970453
211,0.26417635711763116,0.259824558028153
212,0.26430303014094214,0.26347600980334707
213,0.2645522152407945,0.2580205779743176
214,0.2650320650421554,0.2639327099121925
215,0.264259293669467,0.26095605065903515
216,0.26484223879832064,0.24370509776527147
217,0.2645137242222433,0.28293937263567803
218,0.2643552967499819,0.25223468642772984
219,0.2649326136947679,0.2554082689481922
220,0.26738862971143185,0.25036978617533984
221,0.26460652264485734,0.2552356432355946
222,0.26318648416730617,0.24382067041290775
223,0.28105364317337955,0.2780496440210395
224,0.28693156750451365,0.2868826298106347
225,0.28627520479220187,0.28316362441503445
226,0.28407039435552084,0.2824685958632354
227,0.28253255296739743,0.2819011747695935
228,0.2817358093486606,0.273283986808422
229,0.277766902059269,0.2712672531087284
230,0.27713201973709367,0.26971073716808325
231,0.2740237959336749,0.2796740967195243
232,0.27090472336426724,0.2607328965201468
233,0.26748615129590986,0.2624222392711756
234,0.26638863612112285,0.2553055560438296
235,0.2651370169935848,0.27199149901531017
236,0.2640581671163428,0.2543986388309414
237,0.26364042422623274,0.2549799259607963
238,0.26362718249575123,0.2468930674450738
239,0.26840843792430025,0.2566909650377429
240,0.2680691567857822,0.26114946465583516
241,0.26661736621476,0.2541819039817485
242,0.2667813573202355,0.26507058615583834
243,0.2647881795027607,0.26589944923991937
244,0.26593977284969855,0.2576760609576151
245,0.26476653226666885,0.2537951364631058
246,0.2680928081833868,0.26715095532909566
247,0.26677507538792133,0.2532281985105072
248,0.2659947551953659,0.24864699643902075
249,0.2657111973838983,0.25940702167569696
250,0.265699585913111,0.2570412484804005
251,0.2662893436569199,0.265381239601591
252,0.26530666098737127,0.2575990862103551
253,0.26554732335557185,0.2625535511380119
254,0.26682291964558863,0.24690347013152672
255,0.26524622938472875,0.2528107355642055
256,0.26480783739809893,0.2664404667578726
257,0.26614608994717126,0.2605246828417658
258,0.26640486068350616,0.2642711992151359
259,0.2652081265735874,0.25853696617796934
260,0.2664979196709695,0.25682843514757075
261,0.2656261086505618,0.2622561181859417
262,0.2654679518559282,0.26129781405405444
263,0.2656556080243618,0.25952838263647143
264,0.2657118007499013,0.25172285385129956
265,0.2663184217364192,0.25562134259266467
266,0.2656189061754899,0.25905120029351614
267,0.2645526813070694,0.2594535665758595
268,0.2644091415450537,0.25386291507105235
269,0.2658598958778915,0.25227970958649876
270,0.26510460484180326,0.26138006363596233
271,0.26604174944958525,0.2537415031440727
272,0.264046897139433,0.25576324059371414
273,0.2645889093949021,0.26013390282382154
274,0.26409468042860024,0.2571386235877107
275,0.26664212097724277,0.25938205883765464
276,0.26544738733332507,0.25328028525483826
277,0.2639455151476925,0.2491209749735145
278,0.26289460705600676,0.25562083401850294
279,0.26325288972706434,0.2557800889438593
280,0.26276256646112284,0.2499314791507484
281,0.2636588676680002,0.2585827919941957
282,0.2623891201909545,0.2481694908690622
283,0.2620210882803376,0.2651429828535692
284,0.2635492995548115,0.25528850435810757
285,0.263645815706963,0.2538463105671784
286,0.26200592686399093,0.25579006800570636
287,0.262252089705208,0.26995110321251914
288,0.26090388736731523,0.2531522940476767
289,0.2605892301237078,0.25190289360313034
290,0.2616210780132541,0.25106328624670393
291,0.2612560712497869,0.2536423577976302
292,0.2612876816571569,0.26422748288937975
293,0.2602999609717124,0.24542255676700642
294,0.2605371807607339,0.26268825926998046
295,0.2595750777263769,0.2579605276236971
296,0.2603973753357248,0.25955882432099486
297,0.2777394165666841,0.2789817267665735
298,0.28247192055344295,0.2703120642133651
299,0.28094466190210443,0.28915839884562483
300,0.27972544364327434,0.27332331832342477
301,0.27715101277680515,0.27173105748436444
302,0.27635120258604784,0.2605641932353883
303,0.27136891622313686,0.25848031545612127
304,0.26857319224974235,0.2615212566956537
305,0.26640720090432035,0.25505777945905195
306,0.2724606511559037,0.26042221217830064
307,0.2643316114555112,0.2514603001601412
308,0.2641835935014806,0.2715513239178774
309,0.26411556551079574,0.2604134184997102
310,0.26310258013584154,0.2573867110445825
311,0.26199646735732124,0.25466249680298
312,0.26220756924624067,0.25237916058904086
313,0.26119932195515655,0.25406012605308265
314,0.26173861478146415,0.2566014804539948
315,0.26144807414113763,0.2481149696019473
316,0.26142965342334323,0.2556526982876007
