epoch,loss,val_loss
0,0.10885304220765829,0.049528615459799766
1,0.04880284884944558,0.04849081613868475
2,0.04874340232461691,0.04899263218045235
3,0.04866056373715401,0.04933665314316749
4,0.048605026815086605,0.04927421266585588
5,0.04865261205658317,0.04873485929518938
6,0.04857743947580457,0.048858605951070784
7,0.04858014263957739,0.04854809206724167
8,0.0484938165768981,0.04877530540525913
9,0.048504829704761505,0.04809369058161974
10,0.048457947850227355,0.04842571207135916
11,0.0484810843244195,0.04831406993418932
12,0.04841843601316213,0.048024130329489705
13,0.04842075164616108,0.048197654023766516
14,0.048404143087565896,0.048187207981944084
15,0.0483695517629385,0.04870627039670944
16,0.04836116473004222,0.04804581882059574
17,0.048354920253157616,0.048015405096113684
18,0.04833744203671813,0.048387079387903216
19,0.0483277088701725,0.04837137090414762
20,0.04834580512717366,0.04802857945114374
21,0.04832607635110617,0.04815601359307766
22,0.04829088479653001,0.04786327367275953
23,0.04830773880705237,0.04829066663235426
24,0.048268366876989606,0.048050027139484884
25,0.04827096838504076,0.048163687601685524
26,0.048218770042061807,0.04799397737532854
27,0.04826413258910179,0.04808325219154358
28,0.04820187074691057,0.048126019671559335
29,0.048238131452351805,0.04789199943095446
30,0.04820455721765757,0.04816034982353449
31,0.0482310056053102,0.047940308153629305
32,0.04820178739726543,0.04839072728902102
33,0.048186844229698184,0.048086724855005744
34,0.048216804809868334,0.04805418994277716
35,0.04813326436281204,0.04805188883841038
36,0.04822372422739864,0.048260345809161664
37,0.04816329375654459,0.04788843344897032
38,0.04817342659458518,0.04793868088722229
39,0.04817959976196289,0.04792358516901731
40,0.04815064374357462,0.04902877325564623
41,0.048149854585528375,0.04791688960790634
42,0.048156761430203913,0.04800723570585251
43,0.04816221733391285,0.047975140124559404
44,0.04814588852971792,0.04804574317485094
45,0.048133271496742965,0.04799722973257303
46,0.048129782188683745,0.047821365863084796
47,0.048124584257602694,0.04786963094770908
48,0.04813814452290535,0.047876760765910145
49,0.04812633020058274,0.047942557521164414
50,0.04814295986294746,0.04805456677824259
51,0.048125924680382015,0.047843843065202236
52,0.048061911035329107,0.04843118652701378
53,0.04813130790367723,0.04787551660835743
54,0.0480844916254282,0.04880963598936796
55,0.0481029782705009,0.04774687451124191
56,0.04810835245251656,0.047914939448237416
57,0.04810133571922779,0.048840262427926065
58,0.04809253973141313,0.04791289832442999
59,0.048105952020734546,0.04778971577435732
60,0.04807973540946841,0.047994648665189744
61,0.048094145838171246,0.04776119137555361
62,0.04802697446197271,0.0477839705273509
63,0.048068145848810674,0.04789021053910256
64,0.048070273265242575,0.0479277251586318
65,0.04806870159134269,0.04773428703844547
66,0.048054047491401436,0.04880831121653319
67,0.04809956136345863,0.04815614879131317
68,0.04805206021666527,0.047834663756191734
69,0.048077416505664584,0.04789076709002257
70,0.048016211852431295,0.04902800838649273
71,0.04806325891986489,0.047966323308646676
72,0.04804923263564706,0.04792558333277702
73,0.048053948540240525,0.047798059225082394
74,0.04804740605130792,0.04783535519987345
75,0.048065943982452154,0.04796780748665333
76,0.04804358132556081,0.047798929877579215
77,0.04807599873095751,0.04770114029943943
78,0.04802671004831791,0.04907165229320526
79,0.048052605502307416,0.04792023165524006
80,0.0480168185941875,0.04781081037223339
81,0.048090652644634246,0.04802945230901241
82,0.04802935516089201,0.04781546119600535
83,0.048024450778961184,0.04825777068734169
84,0.04803247725963593,0.04796779297292233
85,0.04803263591602445,0.0479387915879488
86,0.048044523291289803,0.047757188901305196
87,0.04807219564914703,0.0477329233661294
88,0.04801059470325708,0.04803934517502785
89,0.04805278699845075,0.04787622285634279
90,0.048037668883800504,0.047857029750943185
91,0.048046963039785624,0.04791332495957613
92,0.04805573843792081,0.04785060161352157
93,0.04800406010076404,0.04817412612587214
94,0.04804954040050507,0.047812058866024014
95,0.04804005007818341,0.047793178267776966
96,0.04805933203175664,0.047760345593094826
97,0.04802133559435606,0.048601888045668604
98,0.04801733343675733,0.04812225944548845
99,0.048055639937520024,0.04772867926955223
100,0.048018336717039346,0.04858070732653141
101,0.04801891676709056,0.0485994753614068
102,0.048012458309531214,0.047774874210357664
103,0.048025152679532765,0.04789996202290058
104,0.048027330614626405,0.04810117921233177
105,0.048004339382052424,0.048005850218236445
106,0.048066285002976654,0.04784122943133116
107,0.048043681420385835,0.04815553628653288
108,0.04800661236047745,0.0479135320559144
109,0.048042546797543766,0.047777414448559284
110,0.04799829758703709,0.04810566052049398
111,0.048024183720350264,0.04789860335737467
112,0.048026112478226426,0.048047736130654814
113,0.048017159219831226,0.048402674481272695
114,0.04802768854051828,0.04782224138826132
115,0.047994009885936974,0.04796122670173645
116,0.048008379258215425,0.0478058679997921
117,0.04801359426230192,0.04776918303221464
118,0.04802506001666188,0.047900377318263056
119,0.04801993469521403,0.04788429605960846
120,0.04800403215736151,0.04781350384652615
121,0.04801688262447715,0.04788515093177557
122,0.048019385706633326,0.04811444667726755
123,0.04798635648936033,0.048016461580991744
124,0.0480260449424386,0.04771450062841177
125,0.04801445959508419,0.04795157533884049
126,0.04802134344726801,0.04780126868933439
127,0.048029917608946565,0.0481373580545187
128,0.04799134431034326,0.04855084139108658
129,0.04802711244300008,0.04785470312088728
130,0.047993998352438214,0.04826782468706369
131,0.048042860500514505,0.050284831918776036
132,0.048027751933783294,0.048181302331387996
133,0.047984339661896226,0.047900355279445646
134,0.0479966982267797,0.048067782886326314
135,0.04800802656635642,0.04785201146453619
136,0.048016701385378835,0.04801683976501227
137,0.048010580617934465,0.04803907782584429
138,0.04801239478588104,0.047871840067207815
139,0.0479971005320549,0.0478749957382679
140,0.048011817824095485,0.04784326632320881
141,0.0480141787789762,0.04794987288117409
142,0.04800798477604985,0.047902835547924044
143,0.04800985056161881,0.04803261672705412
144,0.0479801411293447,0.04815393324196339
145,0.04800327133014798,0.04826423788070679
146,0.04800976304337382,0.048269927717745305
147,0.04803495005518198,0.0479140303581953
148,0.047985904775559904,0.047764098912477494
149,0.04800169701874256,0.048288533054292204
150,0.04801495800167322,0.04776210056245327
151,0.04799325196444988,0.04786992999911308
152,0.04799682040885091,0.04786143084615469
153,0.04800491051003337,0.04806964955478907
154,0.04800642970204353,0.047813918799161914
155,0.04800260600820184,0.04772651907801628
156,0.048016207046806814,0.04776333912461996
157,0.0479989025965333,0.04923343250900507
158,0.04800376546755433,0.04796458633244038
159,0.048015274733304976,0.04789644615352154
160,0.04801995046809316,0.0480064001083374
161,0.04797305093705654,0.047961104348301885
162,0.04799130290001631,0.04801228424161673
163,0.04801252732053399,0.047812613621354104
164,0.0479975307919085,0.04814140798151493
165,0.04799926444888115,0.04782032129913569
166,0.048020300641655925,0.04815704762935638
167,0.0480065644569695,0.04776979088783264
168,0.04800452679395675,0.048020744249224666
169,0.047987766221165656,0.04779035863280296
170,0.04800739872828126,0.04794211366027594
171,0.047998313058167694,0.04785823249071836
172,0.04798742564767599,0.04793707358837128
173,0.04798843444138765,0.0477182974293828
174,0.04801933462917805,0.04801602700352669
175,0.047988891080021856,0.047793881088495256
176,0.048016646288335324,0.04785565211623907
177,0.04796146742254496,0.04778643737733364
178,0.04797211087867618,0.047950507432222365
179,0.04803018995001912,0.047890876449644564
180,0.047982257440686224,0.047868932917714116
181,0.04799486819654703,0.04785087384283543
182,0.04799765085801482,0.04787421299517155
183,0.04795973935350776,0.04845038685202598
184,0.04801929693296552,0.04781629034131765
185,0.04797117616608739,0.048270937867462636
186,0.04799312949925661,0.04802035417407751
187,0.047979992609471084,0.047831061631441116
188,0.04801126324757934,0.04801794193685055
189,0.04798780224099755,0.04784200964868069
190,0.04799199914187193,0.04788588173687458
191,0.04797112441807985,0.04804251909255981
192,0.04801401048153639,0.04792429046332836
193,0.04797060130164027,0.047945297963917256
194,0.047970260828733444,0.04822937766462564
195,0.04801743672415614,0.04832488659024239
196,0.04795879620313644,0.04776655229926109
197,0.04798470276966691,0.0479174927175045
198,0.04799573864787817,0.04796129706501961
199,0.047970804274082186,0.04779101064801216
200,0.047994165793061254,0.04788854572176933
201,0.04799974434822798,0.047663624979555605
202,0.04798035517707467,0.04775634379684925
203,0.04798574969545007,0.047825332529842855
204,0.04795906114205718,0.047870903991162776
205,0.04799061638116837,0.047775422260165214
206,0.047969467256218194,0.04784631698578596
207,0.047984776977449656,0.04778166541457176
208,0.04800359322875738,0.04792993512004614
209,0.04796346650645137,0.05046247029304504
210,0.047988240581005814,0.047746330745518206
211,0.047972167924046516,0.04777379512041807
212,0.048010030582547186,0.047722582817077634
213,0.047976189401000735,0.04825886680930853
214,0.048001179557293654,0.04812350270152092
215,0.04796885913237929,0.047925841800868514
216,0.04795573439449072,0.04772454310953617
217,0.04797565259039402,0.04785688987374306
218,0.04799662858992815,0.04772171342372894
219,0.04798277899250388,0.04792857080698013
220,0.04796528219804168,0.04773891171813011
221,0.047993321873247625,0.048057260982692244
222,0.0480179381147027,0.04793798914551735
223,0.04796831275522709,0.04774073498696089
224,0.04797147453948855,0.04789539771527052
225,0.04800474613532424,0.04811179932206869
226,0.04796239781007171,0.04782816382497549
227,0.04799361706897616,0.04802589529007673
228,0.0479811335876584,0.047969970032572744
229,0.0479543573372066,0.047702497221529486
230,0.047956513728946444,0.04782628744095564
231,0.04797892612963915,0.04815339362621308
232,0.04797577527537942,0.04836099748313427
233,0.047934017345309256,0.04790818279981613
234,0.04796317521482706,0.04799485813826323
235,0.047987547144293784,0.048014630869030954
236,0.04793920289725065,0.04808165822178125
237,0.047951125718653204,0.047849946886301044
238,0.047976451870054004,0.0478918050006032
239,0.047955051008611915,0.04778465933352709
240,0.047983497999608514,0.04782476337999105
241,0.047965437300503254,0.04793213395774364
242,0.04796834770962596,0.047811462938785555
243,0.047950804226100444,0.047857392899692056
244,0.047983024030923846,0.04772099047154188
245,0.04794647733494639,0.047920245364308355
246,0.047980989664793014,0.04859338331222534
247,0.047947226349264384,0.047933074340224265
248,0.04797489481791854,0.04772101354598999
249,0.04796755176782608,0.048224238000810146
250,0.047957966037094596,0.04780421254038811
251,0.04798062039166689,0.04784812019020319
252,0.04797230250760913,0.04774767816066742
253,0.0479927286580205,0.0476883694678545
254,0.04793575385212898,0.048001067273318765
255,0.04795832220092416,0.04776801056414843
256,0.04796454850211739,0.04767608542740345
257,0.04796036459505558,0.047837037205696105
258,0.04802199568971992,0.0477358573526144
259,0.047966838736087085,0.04853459548205137
260,0.047960163570940496,0.0478398355320096
261,0.0479688184261322,0.04777309969067574
262,0.047994159884750844,0.04790260197967291
263,0.04794856658577919,0.04796790592372417
264,0.047971654292196034,0.04812205033749342
265,0.04794117907434702,0.047823566012084484
266,0.0479640854485333,0.04786710875481367
267,0.047971270930022,0.04808150528371334
268,0.047977798648178575,0.04772493055462837
269,0.04794928118214011,0.04785067765414715
270,0.047987211126834156,0.047871292620897295
271,0.04795218759030104,0.047845455966889855
272,0.04796203804761171,0.04785916145145893
273,0.04796741357445717,0.04784209904819727
274,0.04794236268475652,0.048311615988612173
275,0.04797382917627692,0.04796373276412487
276,0.04796570698544383,0.04841488219052553
277,0.04795292149484157,0.04781921888887882
278,0.047972742527723315,0.04781093902885914
279,0.04795291190221906,0.04792322986572981
280,0.04799259296432137,0.04773153541237116
281,0.04793368290737271,0.04846990398317576
282,0.047977487839758394,0.04786077946424484
283,0.04797477063164115,0.04831305043399334
284,0.04795829947665334,0.04772151747345924
285,0.04795048035308719,0.0481036359295249
286,0.04794837073236704,0.04785747058689594
287,0.047968699607998135,0.047713575571775434
288,0.04798384602740407,0.04770877179503441
289,0.04792527645081281,0.04834150708466768
290,0.04795490775257349,0.04790509771555662
291,0.04797829139977693,0.04813628895580769
292,0.047945511553436515,0.04778540122509003
293,0.04795558786019683,0.04788251584768295
294,0.04796605097129941,0.047720703043043614
295,0.04796445556730032,0.04791420366615057
296,0.04793071563541889,0.048471555575728416
297,0.0479948296174407,0.04788322539627552
298,0.047958050962537524,0.047725924596190454
299,0.04796928735077381,0.04791105861961842
300,0.047973339814692734,0.047805500917136666
301,0.04794057272002101,0.047826836466789244
302,0.047963589675724505,0.04790119096636772
303,0.047947874926030636,0.04781238537281752
304,0.047977690186351535,0.047790008835494516
305,0.04795707912370563,0.04798762752860784
306,0.04797353715822101,0.04778629221022129
307,0.04795809834077954,0.04782929471880198
308,0.04795477476716042,0.047953717954456805
309,0.04797133633866906,0.047980409152805804
310,0.047935945387929675,0.04778253758698702
311,0.04797598562762141,0.04791567512601614
312,0.047941778529435396,0.04800855136662722
313,0.04798388278856874,0.047735018745064736
314,0.047933974001556634,0.047833275876939294
315,0.04797432845830917,0.047795586481690404
316,0.047958822414278984,0.047846578754484656
317,0.04794430490210652,0.048103708647191525
318,0.04795412136614323,0.04784240683913231
319,0.047953078746795656,0.0477719737291336
320,0.047959691792726515,0.04773161320388317
321,0.04799514827877283,0.04777564045786858
322,0.047936242762953045,0.04780121192336082
323,0.04795444865897298,0.04778320903331041
324,0.04796096467971802,0.047841538548469544
325,0.04796025497093797,0.047716236472129823
326,0.047956572920084,0.047686493635177615
327,0.047954360213130716,0.047893586128950116
328,0.04798120504245162,0.04784462721645832
329,0.047958262961357835,0.04836831486225128
330,0.04793988517299295,0.04775457306206227
331,0.047982759561389685,0.047931488431990146
332,0.047943549554795024,0.04941801320761442
333,0.047997403766959906,0.04779926250874996
334,0.04795645021274686,0.047741291500627996
335,0.04794223895668984,0.04780368465930224
336,0.047959097810089585,0.04831102032959461
337,0.04795328483358025,0.04793386432528496
338,0.047969283375889064,0.0477798315808177
339,0.04794565374404192,0.047716077595949175
340,0.0479805632866919,0.0479330742880702
341,0.04794133108481765,0.04779914460331201
342,0.047966633293777705,0.04771843756735325
343,0.04793137635290623,0.04890398932248354
344,0.047990963492542504,0.04769409729540348
345,0.04794502242282033,0.04781140523403883
346,0.0479669869504869,0.047770132154226305
347,0.04795641007646918,0.047738313160836696
348,0.04794779792800546,0.047651651851832864
349,0.047936784867197275,0.04817153038829565
350,0.047963766574859616,0.04771712040901184
351,0.04796228919923305,0.047790098048746586
352,0.04793421844765544,0.0478559006229043
353,0.04797644004970789,0.04809253273904324
354,0.047922351833432915,0.047820733532309534
355,0.0479617519415915,0.04776081882417202
356,0.04796686273440719,0.04800726608932018
357,0.047940019953995945,0.04783394634723663
358,0.04796748710051179,0.04787209758162499
359,0.0479430655092001,0.047760771833360194
360,0.04797192891314626,0.04798465690016746
361,0.04795387374982238,0.04782657219469547
362,0.0479663475677371,0.04783566458523274
363,0.0479481493011117,0.04779090839624405
364,0.04794637004286051,0.04773167780041695
365,0.047971785992383956,0.0480370851457119
366,0.04796182109043002,0.04770556920021772
367,0.047963129889219996,0.04790637567639351
368,0.047951327245682476,0.04793820250034332
369,0.047958995170891285,0.04811356170475483
370,0.04795752550661564,0.047708673179149626
371,0.04796801438555121,0.04795049659907818
372,0.04795082169398666,0.04805908463150263
373,0.04795739210397005,0.047738436318933965
374,0.047958591084927324,0.048286138832569124
375,0.04794793102517724,0.047703195132315156
376,0.04796904045343399,0.04772671540826559
377,0.04794632894173265,0.047896240577101706
378,0.04795965078100562,0.04777103293687105
379,0.047991125568747524,0.047787924662232396
380,0.047937888260930775,0.04771960883587599
381,0.04797353478521109,0.04821890440583229
382,0.04793337270617485,0.047876383930444716
383,0.047970597118139266,0.04772810966521501
384,0.047939812079072,0.04790038888901472
385,0.04797708231210709,0.047851956516504285
386,0.04793988074734807,0.047677926197648046
387,0.047948543347418306,0.04771008339524269
388,0.04797778541222215,0.047982024975121024
389,0.047939676951617,0.04776313794404268
390,0.04795128223672509,0.04787494126707315
391,0.04796231084316969,0.04778231281042099
392,0.047959332089871166,0.0479452012181282
393,0.047957092706114056,0.04788886582106352
394,0.047956465467810634,0.047745880380272866
395,0.04795265970751643,0.047994503378868104
396,0.04796667336672544,0.047829763256013395
397,0.047919277396053075,0.047958755753934386
398,0.04797597707808018,0.04806163010746241
399,0.0479558323957026,0.047697115771472454
400,0.0479440688341856,0.04771365148574114
401,0.047959391459822656,0.0476964530646801
402,0.047969556752592325,0.047687426261603834
403,0.04796143612638116,0.047788668662309644
404,0.047961142510175706,0.047987578667700294
405,0.04796632758527994,0.04779041741043329
406,0.047978054668754336,0.04778817529976368
407,0.04793086785450578,0.04770126204937696
408,0.04799150775372982,0.04789839337021112
409,0.047940289314836265,0.04790763977915049
410,0.047996435057371854,0.047845268353819845
411,0.047936269409954546,0.04776446214318276
412,0.04797160961851478,0.04797920376062393
413,0.0479642181918025,0.048839006938040254
414,0.04795990458503366,0.04779126692563295
415,0.0479464198090136,0.047813049510121344
416,0.04793083257228136,0.04773059204220772
417,0.04796118515729904,0.047954753927886486
418,0.04795045382902026,0.04786027797311544
419,0.04794003169238567,0.04783916619420052
420,0.04797957204654813,0.04780154628306627
421,0.047980178385972974,0.047754349425435064
422,0.047940688688308,0.04805466020107269
423,0.04795642499253154,0.048365860186517236
424,0.04795105827972293,0.04781267774105072
425,0.0479532559029758,0.04769688005745411
426,0.04797010465338826,0.04775666002184153
427,0.0479592242538929,0.04780215754359961
428,0.0479688968397677,0.04794106315076351
429,0.04794313479959965,0.04825277936458588
430,0.0479591700322926,0.04775366531312466
431,0.04797049804776907,0.04780682889372111
432,0.047963565617799755,0.0487132546082139
433,0.04794585818424821,0.04869644717872143
434,0.04794357292354107,0.04779548573493957
435,0.0479703344963491,0.047707005731761454
436,0.04797583454847336,0.04779523861408234
437,0.0479583791680634,0.04792260458320379
438,0.047948975637555125,0.0478565207272768
439,0.04796758120879531,0.04772951439023018
440,0.04795865720510483,0.048124166071414946
441,0.04798477006703615,0.04834022154659033
442,0.04792066138982773,0.047961321271955966
443,0.04796688063815236,0.047738973073661324
444,0.047961928594857456,0.04787363924831152
445,0.04793730906769633,0.04810920728743076
446,0.0479608124345541,0.04784586478769779
447,0.04795748156309128,0.047647702798247336
448,0.04795741282775998,0.04779890808463096
449,0.04798908042535186,0.04788123283535242
450,0.047956715069711206,0.04776945624500513
451,0.04793981870636344,0.04778620081394911
452,0.047975093822926286,0.04799492467194796
453,0.047967643938958644,0.047678614474833014
454,0.047937369357794524,0.048524351425468924
455,0.04796305127814412,0.04780352572351694
456,0.04796871128305793,0.04780281562358141
457,0.047966769501566885,0.04782543239742518
458,0.04793694426864386,0.04774591462314129
459,0.04799929309636355,0.047760215923190116
460,0.0479286842867732,0.04796964019536972
461,0.047959793459624055,0.047820867151021955
462,0.047941109281033276,0.047912183724343776
463,0.04796360319852829,0.04790621151030064
464,0.04795001143589616,0.047790667079389094
465,0.04797174576297402,0.04787904591113329
466,0.04795366907119751,0.04784645526111126
467,0.04796491025015712,0.04776278009265661
468,0.047958253253251315,0.04783977770805359
469,0.047950677562505005,0.04771679891645909
470,0.04793247548118234,0.04782453498989343
471,0.04795361709222198,0.047718994371593
472,0.047934767805039885,0.048003419741988185
473,0.04797179631516337,0.04773513362556696
474,0.047976199299097064,0.04834512165933848
475,0.04791968851163984,0.04831898761540651
476,0.04795159624144435,0.04790394891053438
477,0.04795859888195991,0.047726599760353566
478,0.04797997495159507,0.04783487080037594
479,0.04793611719459295,0.04771947091072798
480,0.04797330367565155,0.04815542095899582
481,0.04796181863546371,0.047794709242880346
482,0.047956317212432625,0.04779394191503525
483,0.04797174705937505,0.04791069884598255
484,0.04793802012875676,0.04828012335300445
485,0.047960753910243514,0.048032018288969996
486,0.0479615154415369,0.047752916045486926
487,0.04793745190650225,0.0478481345847249
488,0.04795349397137761,0.0477803790345788
489,0.04795906082168221,0.047964160710573196
490,0.04795736090838909,0.04802068151533603
491,0.04793440710008144,0.04789028347283602
492,0.0479714206084609,0.04782583601027727
493,0.04797300479188561,0.04785701317340135
494,0.04793525680527091,0.04786028008162975
495,0.047986315499991175,0.04767526127398014
496,0.04795190492272377,0.04785083390772343
497,0.04796091918647289,0.047812202490866186
498,0.047951936237514016,0.04772306264936924
499,0.047938092689961194,0.04837353265285492
500,0.04794967383146286,0.04799403361976147
501,0.04798887611180544,0.047769179798662666
502,0.0479549103602767,0.04775505173206329
503,0.04796093615889549,0.04781280173361301
504,0.047970332220196726,0.04789845149964094
505,0.04795164265111089,0.047698525711894035
506,0.047944974288344384,0.04767666731774807
507,0.04797455489262938,0.04781893157213926
508,0.04797136068716645,0.04781366741657257
509,0.04793868511915207,0.04784822802990675
510,0.04795342910289764,0.047947088718414306
511,0.047944108709692956,0.047754674308001996
512,0.04796313992515206,0.04768731617927551
513,0.0479635563082993,0.047679959006607535
514,0.047954204864799975,0.04781907060742378
515,0.047967812813818456,0.048022498197853564
516,0.047970029655843974,0.047708036236464975
517,0.047938476897776125,0.047696503557264805
518,0.04797594540566206,0.04791048715263605
519,0.047967810660600664,0.047820915997028354
520,0.04796316187083721,0.04795359082520008
521,0.04793640357628465,0.047702466584742066
522,0.04796713627502322,0.047930975779891014
523,0.04795242592692375,0.048434342466294765
524,0.04796600365638733,0.04797613226622343
525,0.047942233506590125,0.047719099588692186
526,0.04794234831258654,0.047972596228122714
527,0.04794434678554535,0.04777833438664675
528,0.0479501468911767,0.04779461807012558
529,0.047944074783474205,0.04782595876604319
530,0.048000631134957075,0.0478193289861083
531,0.04795209276303649,0.04778349755704403
532,0.04796375404670834,0.04791113144159317
533,0.04796193677186966,0.04774086736142635
534,0.04799400341883302,0.04772096897661686
535,0.0479457007907331,0.0479340977370739
536,0.0479528679959476,0.04790741940587759
537,0.047942952673882246,0.04780599556863308
538,0.047960324335843324,0.047700590379536154
539,0.04801221738383174,0.0477280400916934
540,0.04793405704200268,0.047895709343254565
541,0.047968197550624606,0.04779416934400797
542,0.04792805114760995,0.04790117830783129
543,0.04795548251271248,0.04813016209006309
544,0.04795673545449972,0.04777117989212275
545,0.0479571291282773,0.04786747241765261
546,0.04798566767573357,0.048992157988250254
547,0.04793794874846935,0.04780734732747078
