epoch,loss,val_loss
0,0.12183151598662081,0.11938170431269605
1,0.1126487574954423,0.1112960337557213
2,0.11141373927721715,0.10987279290892646
3,0.11049446893180717,0.11180745637594322
4,0.10972801120815083,0.10954724180861088
5,0.10926916611252037,0.10890607151662741
6,0.10815468214390048,0.10836491633585606
7,0.1067051240732276,0.10636086274982978
8,0.10479500415514925,0.10378806025677224
9,0.10232288599082516,0.10092354674567064
10,0.10119963046848862,0.10024513017303004
11,0.10073510133822239,0.09952529507964183
12,0.09989699725546736,0.09945171540117737
13,0.09920768139541747,0.09756008984876921
14,0.09833952563035321,0.09874476720914059
15,0.09794562809949542,0.09768970172399327
16,0.09767644510965416,0.09911331749583592
17,0.09745038002753081,0.09685575703237548
18,0.09670319134287331,0.096172627995239
19,0.09613877341455528,0.09639875457319373
20,0.09574007130667767,0.09643208769429706
21,0.09536914781310434,0.09568314118583504
22,0.09516869390797769,0.09670982483968546
23,0.09511030459349641,0.09500421429464302
24,0.09483977587040265,0.0949460704665326
25,0.09468047162386886,0.09436671045370788
26,0.0944690433149539,0.09390341966752674
27,0.09423344672738687,0.09610174104534366
28,0.09415817890641195,0.09518874125652219
29,0.09390155318354121,0.09341853090536506
30,0.09372775509818018,0.09438981524768006
31,0.09381866930080864,0.0941479006343089
32,0.09361012102007982,0.09322148305976362
33,0.09340309378916956,0.09323124804952304
34,0.09326948243601806,0.09291019522522578
35,0.09313522168146236,0.09348241627290291
36,0.09299015752701295,0.09308257427611955
37,0.0928901096671361,0.09349531534661726
38,0.09265793142450413,0.09270487536789465
39,0.09249237004656033,0.09319723090595998
40,0.09241578107340169,0.09250938075573806
41,0.09233287576165908,0.09237858491115475
42,0.09214287765451414,0.09310578865093866
43,0.0922141927861465,0.09214747898262132
44,0.09198745570141025,0.09140374214566375
45,0.09202701039816895,0.09267619580548099
46,0.09193193060167414,0.09199115269015504
47,0.09172417066950014,0.09209676520256488
48,0.09168752302834968,0.09177461440672649
49,0.09164725292252518,0.0911434659849917
50,0.09156170945821496,0.09224135880508731
51,0.09154050961596114,0.09164860627195676
52,0.0914370611517467,0.09174609902331018
53,0.09149892869426414,0.091766007185426
54,0.09131076834848684,0.0915476418495474
55,0.09127218236692691,0.0912425622085188
56,0.09109573050497467,0.09241290880048246
57,0.09122526225757309,0.09061982555143887
58,0.0911355098009305,0.09116607289899964
59,0.0910693406080569,0.09077782422378104
60,0.09107233931829956,0.09178932572416869
61,0.09097285777694443,0.09167775343872478
62,0.0909965527309915,0.09081961982155556
63,0.09098145584535959,0.09125478388579844
64,0.09089238766165059,0.09161883604437779
65,0.09085922054126534,0.09091244934880112
66,0.0908044361935732,0.09078043657482114
67,0.0908542752582053,0.09050868610220571
68,0.09078916909450183,0.09203022283226917
69,0.09075884394706289,0.09067291336748795
70,0.09086635518740753,0.09046572343661236
71,0.09079158801584795,0.092606148619214
72,0.09078436836578019,0.09196970481656622
73,0.09074174495954813,0.09178730523763756
74,0.09073110864307306,0.09076956985680104
75,0.09073188940369258,0.09052638221097643
76,0.09066505729836599,0.0899202498475612
77,0.0905737934792077,0.09170800079187152
78,0.09056256950192264,0.09253294225735936
79,0.09057350401486798,0.09002972303268039
80,0.09051175815520801,0.09050533623612549
81,0.09049701184670143,0.09138625251596086
82,0.0905050892622023,0.09070631522620583
83,0.09049316426900733,0.09178130395211298
84,0.09044093050084251,0.09088559473492668
85,0.0904057502561799,0.0908308026549538
86,0.09033824269692,0.09128515104354168
87,0.09027453297825949,0.09191346001388417
88,0.09032363701359875,0.09080563503740444
89,0.09015747732566479,0.09000913859079257
90,0.09020053395080181,0.08982204346739625
91,0.09007621114668227,0.09030581271604037
92,0.0900194255968644,0.09081097154626183
93,0.08992853451676146,0.0901743366574827
94,0.08985511305291606,0.08985317714382933
95,0.08979099223424018,0.08975064266408347
96,0.08975271821119454,0.09000927681662604
97,0.08972528461642539,0.08977823358759394
98,0.08954033059987145,0.09112963466801063
99,0.0895195512267916,0.08937397544866164
100,0.08941207257599505,0.08924077539600746
101,0.08936158118399788,0.08920616060865133
102,0.08932862622910306,0.0894311271589388
103,0.0893364446822772,0.08918771877626036
104,0.08919269614021923,0.08899190033931591
105,0.08920286612465655,0.09171019199098605
106,0.08905331228436751,0.08911719645740968
107,0.08905012922675816,0.08975134436087336
108,0.08908085546965282,0.0885009611880513
109,0.08904278008108162,0.08875597449523344
110,0.08884656981450764,0.08906324266573927
111,0.08891112887569134,0.08877659667070686
112,0.08887539262086415,0.0893990307417756
113,0.08880206759510713,0.08859858063994804
114,0.08884661242039854,0.08894983895733102
115,0.08884282391143908,0.08895510194763061
116,0.08883715308011048,0.08882134756068734
117,0.08876063040490217,0.0887303339673331
118,0.08865371832727094,0.08839408845153103
119,0.08869293149427032,0.08861722155628962
120,0.08866860594167225,0.08898911717955586
121,0.08861281608502562,0.08911848784824163
122,0.08854540957869605,0.08891497170067307
123,0.08846586013748685,0.09025870063908342
124,0.08854695516432438,0.08885380966639696
125,0.08840956625154273,0.0882015025349468
126,0.08842626139532445,0.08769803660235394
127,0.08841466098095763,0.08790204230668232
128,0.08832103384682384,0.08770181815470418
129,0.08824124190741349,0.08912274549823837
130,0.08822733615546205,0.08863638108480656
131,0.08821976471002246,0.0881154388706974
132,0.0882799607568226,0.08918178362896662
133,0.08816320136866078,0.08916744120585415
134,0.08806575872950133,0.0886859208715169
135,0.08820171980404841,0.08780888306074047
136,0.08815314345027958,0.08850665794634642
137,0.08813310724207184,0.08850073503797166
138,0.08805020514677606,0.08740791151896304
139,0.08802191033505616,0.08879651986339844
140,0.0880460565666513,0.08759507199301021
141,0.08798157564619374,0.087898964536545
142,0.08793377732493154,0.08806580822018181
143,0.08796757897814826,0.08789336055369294
144,0.08787987842003975,0.08783349712788319
145,0.08792126465874907,0.08778543981813615
146,0.087920046997024,0.08900432006892732
147,0.08776231779919552,0.08853516965438947
148,0.08787995874631291,0.08747215602482224
149,0.08774942807497559,0.0882816477796576
150,0.08778033190290889,0.0886581917628461
151,0.08774118655896049,0.0887054372883908
152,0.08782655150209023,0.08717230712953336
153,0.08773658618874655,0.08752262826740889
154,0.08766841669241969,0.08784297016580998
155,0.08771203897232883,0.0874482199105968
156,0.08770546328873785,0.08837067297389431
157,0.08764765014598158,0.08694772348732274
158,0.08768336487901282,0.08897077042618697
159,0.08775433474726356,0.08821826749492816
160,0.0876215614210925,0.08752214788429198
161,0.08760650400290003,0.08884136686032226
162,0.08766340831484049,0.08782375476718245
163,0.08757015954568449,0.08828646131691803
164,0.08754352394959948,0.08768821127583312
165,0.08747777300781366,0.08829387044048782
166,0.08752338793717639,0.08831778503677094
167,0.08759791161089232,0.0871099127710753
168,0.08749997774822246,0.08817188848115079
169,0.08755369176495657,0.08739492564506034
170,0.08744032416109675,0.08900736692007954
171,0.08751173177573171,0.08738238755290029
172,0.08745535053377364,0.08690043504791284
173,0.08732693438692561,0.08747218033811886
174,0.08739871698078928,0.08700719792626928
175,0.0872479454815361,0.08798561148326983
176,0.0873891427872687,0.08906777063315323
177,0.08733380562855386,0.08724595615201197
178,0.08726187546535194,0.09021015962581184
179,0.08729571595302281,0.08757845892503895
180,0.08725469335660246,0.08675689351543896
181,0.08727280773901135,0.08798468276377647
182,0.08711998112689723,0.08837525244090456
183,0.08724613252925786,0.08702628602534902
184,0.08714430872083469,0.08760395426090539
185,0.08720349729188523,0.0872367364227328
186,0.08716745958538974,0.08720773915129323
187,0.08710624278055142,0.08700512930861774
188,0.08711480808548187,0.08737456683559394
189,0.08708533652475747,0.0871742067576638
190,0.08706990386357187,0.08826550727446676
191,0.08709188430739775,0.08720341631703578
192,0.0870609209567592,0.08736335625941345
193,0.08714740506355018,0.08751883362939872
194,0.08704037241343572,0.08767741285911565
195,0.0870494596663391,0.08667830919879246
196,0.08703908108497135,0.08639051826213193
197,0.0871177391391163,0.08703831612472203
198,0.08698750730862324,0.08806938535300438
199,0.08703611459964097,0.08730927001749611
200,0.08692600614040251,0.08671751237536779
201,0.08700553406957749,0.08678060985232701
202,0.08682944905965602,0.08715632265392072
203,0.08691935011012743,0.08696895542718637
204,0.0869255247962746,0.08754189049931377
205,0.08695015267451327,0.08652797461887152
206,0.08695590522607301,0.08738396482787121
207,0.08684994362948317,0.08771115362126537
208,0.08682350064945885,0.08717173672935212
209,0.08683549867029441,0.08622570881624672
210,0.08685375208248367,0.08815170866679908
211,0.08684321154631289,0.08718154599737589
212,0.08677325879467232,0.08764461461944556
213,0.08682632100092103,0.08705440925309439
214,0.08676972046009947,0.087141244442528
215,0.08672685788580295,0.0903738698171031
216,0.08668343037160983,0.08721374862321257
217,0.08666759285196238,0.08667380918861914
218,0.08671942947906706,0.08719240775696989
219,0.08668019449899692,0.08703219712002401
220,0.08670725578018491,0.08727764142654078
221,0.08656630966011662,0.08647082454291526
222,0.08668703523614711,0.08641808258170822
223,0.08657136193292636,0.08646699581711227
224,0.08658172368237738,0.08667577042547113
225,0.08649269668466858,0.08671529204318897
226,0.08654848559792602,0.08642477827613466
227,0.08649597268270223,0.08688177922301493
228,0.08639064498127491,0.08643628514877916
229,0.0863802919211605,0.086416919370443
