epoch,loss,val_loss
0,0.7827908852355921,0.7810425761911473
1,0.7810012985583064,0.7805693381477526
2,0.7808087350122808,0.7805764489375037
3,0.7807258145932956,0.7804397516451758
4,0.7806111740954912,0.7804548763163924
5,0.7804905120715988,0.7812307187996195
6,0.7803466654863843,0.7801530203511639
7,0.7802323121748825,0.7801943417222565
8,0.7801717256843705,0.7799545876441464
9,0.7801585574374491,0.7800481537731351
10,0.78008257825035,0.7800057904300264
11,0.7800546722448333,0.7800343863129912
12,0.7800265849894809,0.779973730496674
13,0.7799557640775254,0.7808851820363596
14,0.7799322149561128,0.7807533990656472
15,0.7799061539242196,0.7797737923508542
16,0.7798649455134095,0.7798810616320475
17,0.77984768974117,0.7800742759302296
18,0.779837130279927,0.7797671743125537
19,0.7798161998739617,0.779718843849362
20,0.7797897888358575,0.7796635034953986
21,0.7797636889873081,0.7797931779111289
22,0.7797787021912876,0.7802440997684564
23,0.7797525069221395,0.7796817376063421
24,0.7797548029043208,0.7799993859331306
25,0.7797454320185885,0.7796269082549784
26,0.7797014830680761,0.7796617255908975
27,0.7796930360894406,0.7797296990236041
28,0.779694508118519,0.7796220169173872
29,0.7796728180733998,0.7796112745630535
30,0.7796567042301067,0.7795451525127326
31,0.7796579301132454,0.779633470711578
32,0.779625377842802,0.7796546567462515
33,0.7796189146881121,0.7796897387090451
34,0.7796164002470707,0.7799140902665945
35,0.7795981409260655,0.7798686040838066
36,0.7796054586285585,0.7797492342906318
37,0.779604943466184,0.779551043640591
38,0.7795959311296716,0.7797051997101928
39,0.779577767206389,0.7795653004504315
40,0.7795797223327661,0.779732054752984
41,0.7795638857751931,0.7796916891564211
42,0.7795664667562564,0.779708717863258
43,0.7795542555976998,0.7795987703664131
44,0.7795589424383694,0.7795021772680448
45,0.7795649797922943,0.7798774487031601
46,0.7795582229821221,0.7794646697955451
47,0.7795468954010336,0.7796705988145644
48,0.7795313620903047,0.7795205184011247
49,0.7795382009709478,0.7795969177120673
50,0.7795359513158557,0.7800073752036462
51,0.7795344347858254,0.7797890628537824
52,0.7795322020637186,0.7796258805999093
53,0.7795278016284116,0.7794667993526601
54,0.7795208813288698,0.779517970842404
55,0.7795229649309007,0.7794783447575628
56,0.7795243376796442,0.7796294154955199
57,0.7795214928955116,0.7794325509674792
58,0.7795195458861764,0.7794530089676528
59,0.7795062028018035,0.7794480428506364
60,0.7795071687834169,0.7794740358002429
61,0.779507764213001,0.7794986533763687
62,0.779497869480685,0.7794732686899436
63,0.7794864609887031,0.7794897607479143
64,0.7795142867025565,0.7799661489041804
65,0.7794951836738249,0.7794777048432797
66,0.7794989668479395,0.7797865195250688
67,0.7795193996942308,0.7800159137538881
68,0.7794945868346048,0.7796291901219276
69,0.7794787785880747,0.7795704014248055
70,0.779485149360732,0.7795947161265105
71,0.7794982097235698,0.7794777429429236
72,0.7794791944196293,0.779511038777846
73,0.7795016309123289,0.7794845050676881
74,0.7794969534216395,0.7795188274632021
75,0.7795016633915397,0.779467796717329
76,0.7794816572768306,0.7794261514992631
77,0.7794826274834076,0.7795669796744884
78,0.7794659356649309,0.7795187291377236
79,0.7794905713829383,0.7794455960725732
80,0.7794765539025492,0.7794056784722113
81,0.7794805725458145,0.7794264738672129
82,0.7794727433529421,0.780041757203805
83,0.7794756418996581,0.7797236496106567
84,0.7794806740403899,0.7794082014495622
85,0.7794763196955237,0.7794847598442665
86,0.7794798441560883,0.7795214424062308
87,0.7794731159456698,0.7794499522403215
88,0.7794711711205998,0.7795317421775894
89,0.7794729809606058,0.7795639603664503
90,0.7794781782953649,0.779420542657819
91,0.7794595713709194,0.7794850698179997
92,0.7794736272404198,0.7794511679384312
93,0.7794601580634427,0.7794282595217967
94,0.7794562614148194,0.7793916454977788
95,0.7794648448244408,0.7796782009950642
96,0.7794514265694769,0.7794577919519865
97,0.7794714153843956,0.7795334631101073
98,0.7794587461391261,0.7794123574758581
99,0.7794494245527874,0.7797398747936372
100,0.7794483282267862,0.7794060438797432
101,0.7794448396926115,0.7795938798570752
102,0.7794498616606153,0.7794528300649771
103,0.7794429126319518,0.7793900722605419
104,0.7794463478539639,0.7796209605396829
105,0.779443852952985,0.7793887182145793
106,0.7794486831742168,0.7793933290405841
107,0.7794395619289329,0.7793809764438469
108,0.7794459237499684,0.7795857962840248
109,0.7794348847450977,0.7797588662533251
110,0.7794457962145975,0.7807142572426619
111,0.7794398591246762,0.779613532676886
112,0.7794373562320791,0.7793843610706755
113,0.7794334059470848,0.7795786602325534
114,0.7794335243423036,0.7796008878251164
115,0.7794258240321206,0.7794478145189971
116,0.7794260718409102,0.7793826034879566
117,0.7794301458977761,0.7794225140777474
118,0.779431165985902,0.7793680487732142
119,0.779426288111561,0.7794002865443455
120,0.779426149072709,0.7795558236372974
121,0.7794308961388312,0.7794705147187112
122,0.7794326417974115,0.7794808725861107
123,0.7794357559955483,0.7793724492229244
124,0.7794275771648477,0.7794456618299556
125,0.7794367040265879,0.7795408032372335
126,0.7794217081626291,0.779422416136815
127,0.7794195744163696,0.7793814793413981
128,0.7794160555241431,0.7794525401468017
129,0.7794233008524409,0.7794587660664068
130,0.779417993320754,0.779360640758912
131,0.7794244738209865,0.7794045962115967
132,0.7794179824570127,0.7796569307152155
133,0.7794134548302639,0.7796708661036811
134,0.7794159566658312,0.7794373493336566
135,0.7794304801124361,0.7793926229843726
136,0.7794161224830327,0.779458062258311
137,0.7794168997966704,0.7796272392604251
138,0.7794207398997247,0.7793986372853036
139,0.7794314484991866,0.7793597571311458
140,0.7794098868816028,0.7794418443521258
141,0.7794105709786276,0.7794108245863808
142,0.779416240559565,0.7793706444593577
143,0.7794268679736213,0.7794625135272667
144,0.7794172826275988,0.7794487442035533
145,0.7794180667306805,0.7794259740460303
146,0.7794133107523777,0.7793551741107818
147,0.7794069889659493,0.779378540728879
148,0.7794121864860829,0.7794112889110006
149,0.7794187363266772,0.7793457280317548
150,0.7794192721034982,0.7796942305919846
151,0.7794147254226051,0.7795991846704602
152,0.7794076678653854,0.779443635390355
153,0.7794174597865717,0.7793693549875585
154,0.7794116204127389,0.7793615594691141
155,0.7794038510319731,0.779355372477406
156,0.7794109814059206,0.7794059346390717
157,0.7794128305981971,0.7793448912298709
158,0.7794046001891783,0.7793886891961394
159,0.7794112159679187,0.7794161093737884
160,0.7794200100640765,0.7794152124052308
161,0.7794105928126024,0.7793813085141904
162,0.7794118460736001,0.7793932625141097
163,0.7794014732159695,0.7793688353474619
164,0.7794027137721008,0.7793770333969268
165,0.7794148813439574,0.7793415882155558
166,0.7793949682305109,0.7793798441626594
167,0.7794032098314236,0.7793922563640414
168,0.7794140130121711,0.7796427320605768
169,0.7793961391780787,0.7800653263297921
170,0.7794145935636673,0.7795827930086008
171,0.77939636213957,0.7794248781488197
172,0.7794144622348218,0.7793217218839206
173,0.7793996911584914,0.7793918537738601
174,0.7794121799522192,0.779350708081172
175,0.7794128162841213,0.7793530512684332
176,0.7794046251871428,0.7794342414912752
177,0.7794015225997678,0.7793566284641142
178,0.7794063115029692,0.7794633954097852
179,0.7793962424088651,0.779519450901164
180,0.7794096303688833,0.7793530634851669
181,0.7793993423860077,0.7793386598674594
182,0.7794077820380071,0.7793528610364379
183,0.7794004529038164,0.7795148007922965
184,0.7794060728169774,0.7793644468482611
185,0.77940140120148,0.7793709020165001
186,0.779405001230205,0.7794004053690889
187,0.7793981148494852,0.7794381117406614
188,0.7793992025906695,0.7795434077087762
189,0.7794000361998179,0.7793780990924788
190,0.7794025341961585,0.779471058082344
191,0.7794093367859731,0.779557866050351
192,0.7793879769766646,0.7794128636864219
