epoch,loss,val_loss
0,0.5655994880384176,0.562253197221543
1,0.5617804388299081,0.5610939964467183
2,0.5294099893539308,0.45171416529059116
3,0.45078461405361986,0.45130037476052126
4,0.45051479261623945,0.4510639768380385
5,0.45044203492210605,0.4505060933511843
6,0.45020255494513095,0.4502812265758183
7,0.4501955389441676,0.4498936313109717
8,0.4501054551036735,0.4498793571521863
9,0.4499421041789216,0.44984689118252796
10,0.4499702135944292,0.44961625043275044
11,0.4499031414861621,0.44967384823498596
12,0.44981702021192804,0.4494845929275967
13,0.4497817517201715,0.44949473152977065
14,0.4496853241650092,0.44960826491895445
15,0.44963301569955044,0.4492325717994652
16,0.4495754842639949,0.4494677788566419
17,0.449532183714061,0.449478453723136
18,0.44951555358273554,0.45009015480578685
19,0.44942633083219086,0.4493331738944089
20,0.4494216800038933,0.44997737773003116
21,0.44940053946002173,0.45052997784934035
22,0.44930470815640255,0.4499115381140271
23,0.44932845692903983,0.45037628622268033
24,0.44924904254438214,0.4503780282756531
25,0.4492516454505298,0.4489610763844426
26,0.44925885224023343,0.449008177039641
27,0.4492101021648105,0.4495893160403514
28,0.4491586214672274,0.44904273885947005
29,0.4491655685048887,0.4491043134747309
30,0.44913168743013543,0.44962978138225546
31,0.44917374019314465,0.44896107892836296
32,0.4491506817334982,0.44886472794613236
33,0.4491151481572209,0.4504964586375073
34,0.44914914389761357,0.44902975270825046
35,0.4491042638928267,0.4490368697246902
36,0.44906557727296426,0.44907614075516356
37,0.44906234315598703,0.4488532762225745
38,0.4490473669508092,0.4488726361809534
39,0.4490516429311193,0.4491097416830418
40,0.4490685454546696,0.44900278669433025
41,0.44902121488262425,0.44881244801705883
42,0.44901289233374314,0.44904113577554006
43,0.4490080744789705,0.44890582280478464
44,0.4489592036536766,0.4490252836762232
45,0.4490051275944423,0.4491723659612405
46,0.44901335572059237,0.44918673002986104
47,0.4489815800644905,0.44880711288369324
48,0.4489623689824716,0.44885065523033996
49,0.44894975573650775,0.44878593729092525
50,0.44897483566968466,0.4488385816217948
51,0.448947099917739,0.44878097964871316
52,0.44894226197072423,0.4487233395907778
53,0.44891052416851385,0.4487573403578538
54,0.4489439868752355,0.4487696787707563
55,0.4489040444436995,0.4496084133093765
56,0.4489233809087716,0.44881321387018813
57,0.44891406604640416,0.44876641592671795
58,0.4489256338394726,0.449453693302926
59,0.4489208803006209,0.4488582695536223
60,0.4488965768693775,0.4488601284050764
61,0.4488931647513533,0.44986775385830596
62,0.44887051120666854,0.44869411932327613
63,0.44885428216922113,0.44948197959670355
64,0.44889155098996925,0.44855912645756457
65,0.44882382849445995,0.4487575363728308
66,0.44882972551388284,0.44922203461526344
67,0.44884952305572084,0.44895383860573873
68,0.4488334589930065,0.4485484880489984
69,0.4488127963157138,0.4487781626267114
70,0.4488064905523574,0.4492418228396707
71,0.4488189468629304,0.44874446872741947
72,0.44878931018222995,0.4488546489042325
73,0.44880906138199106,0.44857267598360406
74,0.4487920804781081,0.44921385379642176
75,0.4487978656543188,0.4498728500702245
76,0.44881379160544876,0.4486577462025967
77,0.4487625756030997,0.44861096204362494
78,0.4488081576310314,0.4486440028357447
79,0.44874708838793886,0.44901684342187925
80,0.44874488344126057,0.44862116147803316
81,0.4487588698706123,0.44863767400568827
82,0.44875445554680227,0.44896574728837974
83,0.44874022233453204,0.449100198713189
84,0.448707369111157,0.4499172665640971
85,0.4487474240950617,0.4485658895880649
86,0.4487412469035963,0.44862816364830244
87,0.4487056099103693,0.4487545225223892
88,0.448728563440488,0.44886598582599063
