epoch,loss,val_loss
0,0.12122539140982076,0.11054258093274852
1,0.10966311549196864,0.10703451688546993
2,0.10584778728785699,0.10486025297020564
3,0.10413509248023556,0.10232423136459096
4,0.1033949230358643,0.10529525355798731
5,0.10312225684067837,0.10248390961225808
6,0.10219794060072597,0.10316990312216595
7,0.10114047435495606,0.09969994160288913
8,0.0980997731982443,0.0958866397441173
9,0.09660413919588841,0.09733834492213672
10,0.09523628464640642,0.09404708834794852
11,0.09447004764899813,0.09348479897227535
12,0.09345373603203012,0.09292665887855123
13,0.09263165085976127,0.09256839440123318
14,0.09216900480795596,0.093782403773025
15,0.09171996099581747,0.09202560029239867
16,0.09177932374653548,0.09157886723652667
17,0.09137209563876686,0.09104976550151338
18,0.0908442092533494,0.09017047211342946
19,0.09060973241140158,0.09064378070624235
20,0.090545185246634,0.0911272312327295
21,0.09030763697464311,0.08965004464015179
22,0.09007871066447522,0.09029050754480267
23,0.0900009508057704,0.09543986739428996
24,0.08988412729268262,0.08889941738423875
25,0.08955807585595936,0.09047158714707378
26,0.08937853010642068,0.09004063754534307
27,0.0891619577808254,0.0888414874377085
28,0.08892154291991378,0.08945494643585854
29,0.08889223324753362,0.08952821243193841
30,0.08870804325887763,0.08837116543693518
31,0.08870569835022127,0.0883494189226302
32,0.0885201352069696,0.09172386328872321
33,0.08845368607544794,0.08819642151629659
34,0.08846048122927534,0.08875613639653468
35,0.08827491634527714,0.09059674165237039
36,0.08837867040162026,0.0883141116638929
37,0.08827828309720204,0.08843323712979002
38,0.08814041784885829,0.08834335327740046
39,0.08810366147947946,0.08839093333586275
40,0.08806036377317249,0.08769826380254021
41,0.08801000448874205,0.08903296677113763
42,0.08803922137910444,0.08761182902542593
43,0.08782620002293991,0.0874175886917055
44,0.08784512043164133,0.08926086029402967
45,0.08772678699022604,0.08757784119240995
46,0.08756185898134568,0.08930788473515001
47,0.08739592837137794,0.08859266695698201
48,0.08736414193899594,0.08796504143597766
49,0.08737006501163813,0.08796353018461327
50,0.08723764567599976,0.08683118250396649
51,0.08701990718219861,0.086752401066773
52,0.08723966121325316,0.08739963815762447
53,0.08720510671244655,0.08853463520187302
54,0.08702220688518367,0.08874297977677054
55,0.08708561251867307,0.08729933826784342
56,0.0870240835351388,0.0868771627064674
57,0.0870135461302214,0.08640370108649394
58,0.08689384431327656,0.08745891171930445
59,0.08700470741592152,0.08734183814700129
60,0.08686219648352447,0.0880767110115837
61,0.08673421324567054,0.08808118406285718
62,0.08676843021745706,0.08714381007861263
63,0.08671410579040457,0.08733714868131998
64,0.08661715139387252,0.08652160648746467
65,0.08661651055707148,0.08722600459534832
66,0.08661175008885742,0.08654540892940005
67,0.08645304352489959,0.0865893344984161
68,0.08648863986616306,0.08868464841958015
69,0.0863381056547531,0.0878352375502326
70,0.08628378440135351,0.08676524110156904
71,0.08626741801575945,0.08608865648064365
72,0.08631253608321597,0.08590196098568421
73,0.08605499472504835,0.08602726150387274
74,0.08605468233879199,0.08626016162835043
75,0.08593356047782644,0.08619031811840185
76,0.08590663139797712,0.08576411007355815
77,0.08589027481618597,0.08590663399353217
78,0.08578726483817796,0.08565426245886398
79,0.08560651349356932,0.08652899544085225
80,0.08556497622236892,0.08530165671045076
81,0.08575205895689589,0.08732034800292245
82,0.085559640202646,0.08575705075752055
83,0.08548105579497735,0.08570613509446161
84,0.0854178248501468,0.08655368916450008
85,0.08540483634738533,0.08512863858092216
86,0.08543097302612444,0.08669340965469777
87,0.08535174486239894,0.08502734392955344
88,0.08537972534266153,0.08507989943397253
89,0.08531699068542098,0.08535338716012965
90,0.08528984001008427,0.08650950533580544
91,0.08519978016170014,0.08559147325106353
92,0.08520585874155978,0.08583943478522763
93,0.08514637946060986,0.08455257909025803
94,0.08513821415919974,0.08540345583453073
95,0.08521556648117387,0.08671279472319719
96,0.08506158834806173,0.08498564017173967
97,0.08499847618941303,0.08528193334861665
98,0.08503848760732437,0.0864227264823748
99,0.08510151064929468,0.08545305789182558
100,0.08510411902014804,0.08616077800838291
101,0.08515032390640231,0.08575495874171814
102,0.0850438133503912,0.08592114697023302
103,0.08493583430280154,0.08540354231672902
104,0.08492805466825569,0.08422986973382107
105,0.08494945510546846,0.08568164392307438
106,0.08487073258730006,0.08621364999423843
107,0.08482625205110947,0.08513445946995733
108,0.08485758925669941,0.08617390734386207
109,0.0848195289482548,0.08590557834424689
110,0.08488383713447388,0.08569482231776117
111,0.08480530388832638,0.08409962334644706
112,0.08493734132084614,0.08502537560078406
113,0.08476919450880546,0.08466578117819046
114,0.08478763218780232,0.08505141921803613
115,0.0847229143541456,0.08557547508708892
116,0.08478022716099644,0.0854694634823882
117,0.0847681432374149,0.08563955619968197
118,0.08477135455400432,0.08532045825983099
119,0.08469377799569401,0.08474232353658298
120,0.08459776279355141,0.08510558475040028
121,0.08460466064136754,0.08528024604909178
122,0.08463269628458074,0.08435833445627695
123,0.08459317847796266,0.08453610780147405
124,0.08458358959394728,0.08482244891431136
125,0.08462202714467001,0.08454812058148253
126,0.08459794952884885,0.08401137710948736
127,0.08450034557398507,0.08600183576345444
128,0.08448302631803842,0.08482629271875836
129,0.08449353110648895,0.08426751526946169
130,0.08449895740670763,0.08429395027329253
131,0.08439754241927666,0.08437001406037187
132,0.08442089194838025,0.08466828501697805
133,0.0844378779491778,0.08480246646454553
134,0.08436338145335294,0.08441926316720973
135,0.0844264554439594,0.0845114091230977
136,0.08442394561736562,0.08458372523485874
137,0.08439708883642758,0.0877453028453195
138,0.08432369624566499,0.08522254244121664
139,0.0843893027025293,0.08476026092584317
140,0.0843782985552849,0.08449052703513697
141,0.08430016511934552,0.08433998861250747
142,0.0844071396356346,0.08543962333397594
143,0.08426053672873153,0.08514103110759488
144,0.08422141620092269,0.08699762832659941
145,0.08426710903840585,0.08404741993834895
146,0.08425923550865781,0.08392171352066415
147,0.08417038470380456,0.08453425230740318
148,0.08419528980347404,0.08454044564042434
149,0.08415596587346405,0.08426161520460403
150,0.08421003630879324,0.08558648525189524
151,0.08417561042188275,0.08509568897059774
152,0.0842091931610362,0.08432791958153987
153,0.08410999370542076,0.0842528686112269
154,0.0841411409358481,0.08455713908222709
155,0.08415818615318697,0.0845793651218154
156,0.08409392857768976,0.08419988902641586
157,0.08403156187999472,0.08446288628332668
158,0.0840796425361677,0.08457465113022783
159,0.08402723283600295,0.08485895071742552
160,0.08396137456310204,0.08400700681706516
161,0.08397946757014117,0.08369666724361793
162,0.08400271990402924,0.08444150933630709
163,0.08400384237465533,0.08402734944971264
164,0.08395303743588767,0.08457064285837392
165,0.08393360441361417,0.08378567240078455
166,0.08393513345436063,0.08437155473690766
167,0.08394003463078419,0.08395659076812545
168,0.08388311863728469,0.0833388541790451
169,0.08389441317761535,0.08496602602099662
170,0.08389119787497862,0.0852550530699879
171,0.0839011284173323,0.08358421269850459
172,0.08393503860931072,0.08431568278124552
173,0.08381794377310679,0.08406029817262299
174,0.0838966337468382,0.08442569808392016
175,0.0838307349351706,0.08420261570596814
176,0.08386386214962654,0.08466515712273624
177,0.08379426286094054,0.08446861809817496
178,0.08380865259436825,0.08382872058721097
179,0.08371983254434738,0.08371518509781391
180,0.08381062579516488,0.08519380540395197
181,0.08378072726463222,0.08414332569015233
182,0.08371547863136455,0.08467533660142061
183,0.08376909647476073,0.08355683289819557
184,0.0838499523786942,0.08371979560582868
185,0.08367917985084934,0.08336086315715284
186,0.08374360791360799,0.08316576684970714
187,0.0836941927333814,0.08828464040611281
188,0.08377263038312018,0.08503257431108366
189,0.08371805163352959,0.08327277839257759
190,0.08367558671224269,0.08561844768432471
191,0.0837152361948399,0.08367438209485771
192,0.08361336081702211,0.08378298699338146
193,0.08369661474999064,0.08411614461143319
194,0.0836477387615206,0.0843092482823592
195,0.0836481506852205,0.08552420492799347
196,0.08364666759134802,0.08332019239368273
197,0.08364415590075329,0.08393976262426257
198,0.08366525186942447,0.0839436258297996
199,0.08362139364410971,0.08379281941551725
200,0.08366781552397579,0.08341339702715649
201,0.08365732776307136,0.0836676479495193
202,0.08358938209338306,0.08384205159123423
203,0.08355705261167756,0.0841702497404799
204,0.08355288114981711,0.08399867152901501
205,0.08364218388586118,0.08573001389467982
206,0.08353483241654741,0.08538906447792763
