epoch,loss,val_loss
0,0.12321988711443288,0.11527798229056611
1,0.11195318968973875,0.12145211781298848
2,0.11140576150708137,0.11043222925207455
3,0.1111378431303625,0.11347260430787988
4,0.11085276751560626,0.11477112743458144
5,0.11066646385380376,0.11011400804774045
6,0.11042638307808568,0.10965352772778968
7,0.10964042210327755,0.11110057640016523
8,0.1096816541308141,0.1095588503826049
9,0.10953281091534803,0.10923931372372743
10,0.10948713455185081,0.10993657010808476
11,0.1094319094252232,0.10958410873084742
12,0.1094055246170359,0.10998388875285094
13,0.10943577563563012,0.11091740135815244
14,0.10933439888432715,0.10871433825705838
15,0.10915474066051378,0.10923344676311199
16,0.10909007871326169,0.10874421999191232
17,0.10906933446403762,0.10962234310269652
18,0.10901216828786882,0.10879910075782842
19,0.10895629783423307,0.11163802625375704
20,0.10883609233823043,0.10873071532095632
21,0.10888772564970783,0.10952964365556281
22,0.10885830569796734,0.10892623282469828
23,0.10889959983586132,0.1088632713069691
24,0.1088715898351838,0.10898525912693653
25,0.10885268727924136,0.10893500192511467
26,0.10881257961384222,0.10856477537980447
27,0.1087404971653915,0.10849107753106442
28,0.10877495821806427,0.10848177901050884
29,0.1088081023112736,0.10840348101431324
30,0.10870205547953293,0.1088489498268286
31,0.10871676103195066,0.10835596826251033
32,0.10870752758631277,0.10844068181869705
33,0.10868385516583239,0.10984743187208626
34,0.10879356434145483,0.10851215882869275
35,0.10869339227037836,0.1083869358446107
36,0.10873507602608107,0.10843587530310042
37,0.10878444409640517,0.10846551817936578
38,0.10877981377902028,0.1087414851777311
39,0.10852230565916263,0.10773849462531045
40,0.10690397235442287,0.10598807052036668
41,0.105607983724301,0.1054815165458187
42,0.10531569458315002,0.10540238704264313
43,0.10520208174030558,0.10545809709330646
44,0.10497062685398592,0.10580103078270077
45,0.10487495563298475,0.1070646936818033
46,0.10487895278896524,0.10511148041368418
47,0.1047585956804856,0.10508183202805649
48,0.10475528043864528,0.10446321330872127
49,0.10478607945290998,0.10479047485897618
50,0.10467229235940353,0.1054817919214961
51,0.1047750470188793,0.10438056192903897
52,0.10472688692716806,0.10455873690674973
53,0.10461440679295322,0.10476555018212008
54,0.10473311432912366,0.10458301952843631
55,0.1046812090419227,0.1045626713420558
56,0.10463646713600043,0.1043903297067576
57,0.1046517552368328,0.10546787848173833
58,0.10467993566827195,0.10443025646966977
59,0.10466575081067502,0.10444279713533061
60,0.10465262254708668,0.10499050923745626
61,0.1046350400640138,0.10460836533133504
62,0.10459118234778904,0.10539164902554553
63,0.10458989035562437,0.10422881862735629
64,0.10457589103189027,0.10439072949418951
65,0.10459348019347818,0.10438686507955082
66,0.10438773738040456,0.10596280674041057
67,0.10359175540397883,0.10308969874609789
68,0.10295062810168767,0.10306110650153077
69,0.1026570521243501,0.10275234553417556
70,0.10255562656381156,0.10227279064820954
71,0.10253860417328625,0.10237808081115742
72,0.10250135312720313,0.10305268543381844
73,0.10244647093089924,0.10466054483101918
74,0.10240810368695158,0.1025975538320636
75,0.10239416617835598,0.10221894776480961
76,0.10229563752179886,0.10199296674124952
77,0.10202007612107715,0.10191317372966936
78,0.10191457886236747,0.10185962618876332
79,0.1017716500923272,0.10154616971761359
80,0.10173279677502958,0.10163108035367417
81,0.10164540664663707,0.10200696370885627
82,0.10173107232448891,0.10148792367789053
83,0.10160902731375082,0.10156364455338447
84,0.10151393617775256,0.10104007149304704
85,0.10132959094396729,0.10114693549593388
86,0.10121979081754237,0.100676198240841
87,0.10058163829974409,0.1025309828759423
88,0.10042553708907609,0.10037924213237857
89,0.10019671227782226,0.10033127802329384
90,0.10014452056948203,0.1001966591212649
91,0.10002012111266208,0.10070132438287546
92,0.09999001645423114,0.10015726069510722
93,0.0998905028999613,0.100778903636536
94,0.09974039722753603,0.09934660496915836
95,0.09979366056268173,0.09960108491460384
96,0.0997785590687157,0.09932674537447486
97,0.09973661135651654,0.09935601601751508
98,0.09982805288870085,0.09949366784938808
99,0.09968280911783237,0.09929042889299819
100,0.09967085416612702,0.09967541957167775
101,0.09962334548013374,0.09973648871218892
102,0.09964044755393867,0.09945498990731559
103,0.09964164162422917,0.09978453462606032
104,0.0995818739140793,0.10050375232329735
105,0.09943000795573458,0.09936584714180778
106,0.09948146986165594,0.10014603905213382
107,0.09947715902628325,0.10019896430871622
108,0.09950612635877755,0.09938604085897985
109,0.09940533863483074,0.1015749566164561
110,0.09941899460385156,0.10024319892707592
111,0.09935757096195844,0.10063616616776208
112,0.099411039847383,0.09980197104049972
113,0.09932255416185015,0.0990112430552395
114,0.09927655264422254,0.10011948002109457
115,0.09921162329142147,0.10015959408753564
116,0.0992566877397134,0.1008998431986378
117,0.09918558074906877,0.09923167896477815
118,0.0991891363116487,0.09902435990036569
119,0.09910727426252153,0.10034361620325012
120,0.0991864686700221,0.09958282467301371
121,0.09914388133019686,0.09904511699975277
122,0.09915530651205712,0.09979090729067402
123,0.09916421904036067,0.09895453559183896
124,0.09913818746419849,0.09949954095534592
125,0.0991567417282508,0.10024939618690434
126,0.09908525039488855,0.09925583928971374
127,0.09918069206275312,0.09917563879608221
128,0.09913057107202043,0.09910209010685644
129,0.09904512580902675,0.0992079848539149
130,0.09909720632217713,0.09952864244987
131,0.09912204211392522,0.09946027935364701
132,0.09917046478040178,0.10016223691755134
133,0.09905982406951694,0.09931633345616367
134,0.09913601592202637,0.098677716350585
135,0.09902529360854438,0.10069583689530494
136,0.09914683562872376,0.09887300305641615
137,0.09901515973123713,0.09939711392665324
138,0.09905664079172594,0.10145078044449425
139,0.0991278776270358,0.0991908954775363
140,0.09909490757002583,0.09910010544966823
141,0.099043728902963,0.0989213144069274
142,0.09906740557685413,0.09951136944163821
143,0.0990905304090938,0.09976480030096495
144,0.09904623512594322,0.09945597946643829
145,0.09905064204137493,0.09934893591750053
146,0.0991022866791429,0.09901510981413034
147,0.09901662066160194,0.09859202382508342
148,0.09905749464319091,0.09964909946578313
149,0.09903215326800593,0.09900183026163513
150,0.09904219020454405,0.09870785529501089
151,0.09913129034121683,0.09976228401249751
152,0.0990279554996137,0.09963628180491421
153,0.09897243829368102,0.09894895257784178
154,0.09902644898710934,0.09863040282323994
155,0.09896739924242011,0.09927912656929594
156,0.09907160191076236,0.09898017808684048
157,0.09917532608018129,0.0992641083101185
158,0.09903537212322891,0.10028166828616973
159,0.09901588356715696,0.09995289373190763
160,0.09906132585930709,0.10184792918395759
161,0.09903462976059504,0.09960093847649269
162,0.09901303386970949,0.09884537957220456
163,0.09898790752533464,0.09909341425886817
164,0.0990675095966658,0.10054021353831066
165,0.09905017928351757,0.09955142012822717
166,0.09892035676925293,0.10009110519667122
167,0.09901259587040726,0.09873771776928203
