epoch,loss,val_loss
0,0.12327644884589489,0.11635189353680196
1,0.1127797540767943,0.11127462772370568
2,0.11188663822738514,0.10993845181784619
3,0.11100253327842664,0.1094147383759986
4,0.10983991093995801,0.10924380346208293
5,0.10950183751957446,0.11595887870853651
6,0.1091570625857742,0.10851217169619672
7,0.10897256838494578,0.10823080067525134
8,0.10862629929445108,0.10764557404568414
9,0.10838692166467617,0.10848818996334195
10,0.10820341877473344,0.10936420968463344
11,0.10825120290285702,0.1074023175993865
12,0.10807582251379018,0.107359520122224
13,0.10802102626268106,0.10759302807357116
14,0.10799755082265038,0.10900361873671671
15,0.10803203154061203,0.10927218263483521
16,0.10809923488286793,0.11259319995975968
17,0.10807685219771485,0.10814154090050136
18,0.10795601011432847,0.10764216055941049
19,0.10790125747378151,0.10846994521821994
20,0.10792960285835954,0.10896976329848429
21,0.10785743351368308,0.10857198883966536
22,0.10776517431525785,0.10724631158574935
23,0.10769725200356026,0.10676044116245015
24,0.10744231967220592,0.10685417613305762
25,0.10711152845527318,0.10626245754454332
26,0.10635543734715158,0.10599158612211644
27,0.10608077328954117,0.10598837558374216
28,0.10530394156829892,0.10559052759527272
29,0.10442268950759784,0.10421382928678474
30,0.10379232990416891,0.10255180007914455
31,0.1036427136166928,0.10281063913189743
32,0.10341107927600894,0.1031855929430306
33,0.10321954654055186,0.10223241232095226
34,0.10285594886237194,0.10221481684493663
35,0.10196278894162636,0.10273358083466443
36,0.10139916576951431,0.10153165320974426
37,0.1009899068984818,0.10141895043642882
38,0.10055131798713157,0.10209109928116905
39,0.1003896082210477,0.09936150181530132
40,0.09994786246898932,0.0987198575406749
41,0.09978766652370553,0.0999499165871303
42,0.0991458263026791,0.09900839379422421
43,0.09869134536513445,0.09985820648835847
44,0.09835244468902182,0.0974383395969424
45,0.09796914526784567,0.09917162407568607
46,0.09779142273506378,0.09938885285230192
47,0.0974666893547681,0.09692974657042151
48,0.09720586358112941,0.09649045977270042
49,0.09689718005290739,0.09715153399679265
50,0.09656791058518796,0.09611159963510173
51,0.09623898990316512,0.09622484214474486
52,0.09609697780489261,0.09681089668356752
53,0.0957847046974538,0.09734378728470199
54,0.09582666162839189,0.09686788648514831
55,0.09578149836675137,0.09563611732153383
56,0.09557454541998636,0.09510993528602732
57,0.0955504047537711,0.09544724173122837
58,0.09541166279618732,0.09618242568620677
59,0.09530831694658579,0.09550220108135758
60,0.09510442159007094,0.09480732712275337
61,0.09519706252423532,0.09489677311764758
62,0.09465866429311617,0.09499039414428896
63,0.09416344116971567,0.09437242432800179
64,0.09378742857827028,0.09522397528880878
65,0.09378088547702934,0.0935734733384537
66,0.0936138302695576,0.0936203816614435
67,0.09351118463017662,0.09290730147148776
68,0.09341473911576362,0.09334951216914222
69,0.0934197358380123,0.09526369487381454
70,0.09330876425650728,0.09374574124073567
71,0.09332193604299925,0.09362084641128261
72,0.09315544893172278,0.0940117236957065
73,0.09314658676916067,0.09266350592484249
74,0.09306472633594798,0.09242003207688888
75,0.09294096711267273,0.09260370794212257
76,0.09292275176647109,0.09313358174216363
77,0.09284930997117144,0.09285270544346745
78,0.09282857548054056,0.09296843623996669
79,0.0928101644946999,0.09326908878667775
80,0.09279336699918227,0.09261471619159353
81,0.09272952854573775,0.09279536579737888
82,0.09274325757799504,0.09282255345035724
83,0.09265877628066577,0.09306065313351657
84,0.09261731926858953,0.09302732098487115
85,0.092661376060293,0.09240466181752699
86,0.09273745785993438,0.09255535436179442
87,0.09267638960563793,0.0938346379300205
88,0.09257651603068781,0.09247919603923414
89,0.0925804179836876,0.09260426555984369
90,0.09254758184899285,0.09269837747436599
91,0.09254496677891771,0.09234453488520299
92,0.09231133561321701,0.09234320309854323
93,0.09247643135260161,0.09241710275263704
94,0.09246292908778356,0.09227051853985703
95,0.09232221874840368,0.0921179391203388
96,0.09234813843293938,0.09206488809499788
97,0.09224356637638521,0.09197348462736636
98,0.09229617312025383,0.09200396946730743
99,0.09225813852514222,0.09279142098672337
100,0.09222837598424619,0.09277458440503175
101,0.09215819202105643,0.09312931949240398
102,0.0920582247407159,0.09198241605430324
103,0.09217208955539048,0.09293618440332246
104,0.09218437438832829,0.09186767492045836
105,0.09210556353018141,0.09171220959711904
106,0.09212853004243962,0.09213873961057616
107,0.09193902613722302,0.0934717162851956
108,0.09200587203639328,0.09175544489110374
109,0.09180827029419653,0.09194505479066603
110,0.09179086671478719,0.09218871115011258
111,0.09183959321953163,0.09247533934509784
112,0.09169974735382887,0.09248400025125177
113,0.09179721939823433,0.09238677757697425
114,0.09164590237613905,0.09152951414324806
115,0.09167995549106063,0.09197609057423495
116,0.09151096341227326,0.0916641304976591
117,0.0915714513520178,0.09210007760128372
118,0.09154191508588852,0.09258912947426363
119,0.09156510940925491,0.09118701216970425
120,0.09161295212394194,0.09230903859617692
121,0.09152772124915921,0.09239181135561567
122,0.09152265658149257,0.09190996951116226
123,0.09152306236830657,0.09221973562654727
124,0.09144018420556421,0.09316464893649293
125,0.09148103867844669,0.09108992272216096
126,0.09139501492970059,0.09129060436567066
127,0.0914720814562734,0.09117216703022088
128,0.09147486851617972,0.09192372705445397
129,0.09145258886603563,0.09077336395496766
130,0.09137709249136941,0.0919978175913134
131,0.0914780642577022,0.09317605780164893
132,0.09153397560014714,0.09265496165077976
133,0.09150263744776621,0.09241752012196013
134,0.09135299455972264,0.09244633105863116
135,0.09142937278323879,0.09135558669161856
136,0.0914148031111064,0.09150254714207968
137,0.09139319496971948,0.0914448393411731
138,0.09133420590297435,0.09144019237892799
139,0.09134543192026764,0.0935849022591676
140,0.09135233177269333,0.09160306532832588
141,0.0913404063661524,0.09167643995128258
142,0.09135725676669862,0.09210940470766489
143,0.09132677668098456,0.09132445326661945
144,0.09130966752715106,0.09288905103582307
145,0.0913225407566783,0.09168070763275582
146,0.09140397705769482,0.09139041059070427
147,0.091324062196671,0.09244173786628335
148,0.09129680769379948,0.09313760354708206
149,0.09139293449589937,0.09200288043276547
