epoch,loss,val_loss
0,0.12327633705839372,0.11414447315499446
1,0.11138678566111436,0.11312675102620799
2,0.11080594284568437,0.11037416895551067
3,0.11038581187941111,0.11018699263372729
4,0.11011821353816599,0.10921522885856794
5,0.10918326340906137,0.10779754539429402
6,0.1086567156953067,0.10826268847615785
7,0.10851220773220586,0.10753792143858988
8,0.10721020805252149,0.10659327213802645
9,0.10319057053785002,0.10156955084493083
10,0.10153806838822295,0.10059433445593263
11,0.09953893291241621,0.09910411298201043
12,0.09848295945886523,0.09766798948235902
13,0.09731911718817758,0.09627369831942446
14,0.09570884658965995,0.09531791629847462
15,0.09509404279138105,0.09628238528597148
16,0.09418104646895291,0.09491368113617152
17,0.09318164136429409,0.09209405004090766
18,0.0925789534177124,0.09189501739391322
19,0.09220677444259008,0.09174844551249119
20,0.09174546190681461,0.09240036187485488
21,0.09133745632118416,0.09236856642047465
22,0.09101782588442034,0.089881433254436
23,0.09056721307122624,0.09056988185082121
24,0.09036661499759677,0.09021127603707775
25,0.09012601283870672,0.08912663477895869
26,0.08997708425714435,0.09028651867773634
27,0.08982732927602728,0.09084812989897527
28,0.08948145200574956,0.09243379276680296
29,0.08936043413969827,0.09044911498319422
30,0.08932598734499594,0.08891484069617156
31,0.08910396374438935,0.08895879026604053
32,0.08899760800882216,0.08788854775594422
33,0.08868062046888502,0.0919784617852928
34,0.08864875361655651,0.08989325436779642
35,0.08849695580882365,0.08854627107863983
36,0.08846686208838261,0.08803871045115567
37,0.08826939325071555,0.0905436280643378
38,0.08825103588615946,0.08944180294612501
39,0.08806904370449807,0.08737869015328642
40,0.08793563086212292,0.08759612105324606
41,0.08794505833256998,0.08737682993373563
42,0.0877131260126394,0.08769501469862964
43,0.08763159652123864,0.08872877831198737
44,0.08746306348759028,0.08751876014042137
45,0.08731755267975277,0.08887891759795527
46,0.0873643508924767,0.08804567056909092
47,0.08722626758530731,0.08685552861273436
48,0.0870901290715562,0.08668602348187425
49,0.0870346514041561,0.08707234114408494
50,0.08699418280569832,0.08658516524595303
51,0.08687175121680221,0.0869667209222654
52,0.08672242253745455,0.08690738041998435
53,0.08663452207840797,0.08694762858208592
54,0.08653682542351526,0.08627903363840751
55,0.08662245310193686,0.08645420579179641
56,0.08648028572155875,0.08757137216572135
57,0.08632126345318819,0.0862285323940199
58,0.08636145754703795,0.08636576194251441
59,0.08615188585317393,0.08571297439836686
60,0.0859875943283408,0.08651567385081321
61,0.08600027202965099,0.08673966637911927
62,0.08581999118583974,0.08583622673161273
63,0.08583572424688987,0.0856756018571759
64,0.08575768198425181,0.08681838149320399
65,0.08571684766060429,0.08672990473934794
66,0.0856028306425218,0.08551225130892273
67,0.08551614814889912,0.08555716701018308
68,0.08540707359706991,0.08562404000137935
69,0.08551253352892396,0.08554207109487974
70,0.08536509334674439,0.08628608372164127
71,0.08533139368348726,0.0848634880803359
72,0.08524634027827847,0.08601359571919548
73,0.08520964198400663,0.08470195906407779
74,0.08516421645386334,0.08630512316084973
75,0.08515266920750068,0.08549509422654845
76,0.08515533833242006,0.0852979727810429
77,0.08507610628460328,0.08632130271595702
78,0.08494885323751816,0.08512964876132922
79,0.08486346116791905,0.08552116640004567
80,0.08501535175239439,0.08464397075528246
81,0.08472646621510008,0.08578782210279043
82,0.08482547702734136,0.08504931544399735
83,0.08479204306502486,0.0858143308026619
84,0.08479819335814016,0.08745374421106084
85,0.08463666959606073,0.08779498438903179
86,0.08468134204073313,0.08506256714648112
87,0.08464199778656553,0.08508291840183528
88,0.08452863672485207,0.08470537236917107
89,0.08450894060560903,0.08543708053771083
90,0.08451058758375822,0.08401981468310131
91,0.0844724449227381,0.08462490417599382
92,0.0845418630483102,0.085250390348748
93,0.084267855677573,0.08636233482334217
94,0.0844042825174834,0.08518913382336164
95,0.08430212864225593,0.08532007515578353
96,0.08425679325318303,0.08466558957809846
97,0.08425892199649716,0.08438017387174199
98,0.08424277364059138,0.08534523777053611
99,0.08414682932156141,0.08616019230030902
100,0.08432474659846517,0.08381883195848679
101,0.08401984451149946,0.0845388542444771
102,0.08407858394006393,0.08478213267645825
103,0.08409420538814111,0.08462130604103836
104,0.08412017134854141,0.0843787710069131
105,0.08417916624783267,0.08544763490446744
106,0.08408204184251275,0.0840625163454276
107,0.084062839736323,0.08460180708033867
108,0.0839872333896436,0.08375866626465586
109,0.08392499883496328,0.08443327984650141
110,0.08398353738577391,0.08446462735644641
111,0.08394653449408568,0.08422801432479404
112,0.08398620906925743,0.08514224361840904
113,0.08392362998549589,0.08460933670364598
114,0.08387135220476236,0.08548239976463484
115,0.08378573593171135,0.08455738556887908
116,0.08382277913813908,0.08444250820588237
117,0.0838075451214362,0.08444237071586307
118,0.08373626748458125,0.0843743992132821
119,0.08387297933836148,0.08385426479001198
120,0.08371588720323497,0.08342033021577239
121,0.08373537262687028,0.08466086251194364
122,0.08362796737850631,0.08444392889664132
123,0.0836028406151651,0.08403886858715905
124,0.08373769489536956,0.08452511144704913
125,0.08382469919686428,0.08428421356985646
126,0.08363258325787075,0.08388085799019035
127,0.08354248525771395,0.08617549511989944
128,0.08375424049932029,0.08438201464213449
129,0.08357067585389419,0.08528340840457982
130,0.08358445702512932,0.08402667741843547
131,0.08366354262187037,0.083616535018011
132,0.08351342120611122,0.08362431687027881
133,0.08357877987962568,0.08359762330356958
134,0.08354929976987746,0.08335236119055571
135,0.08346075139809332,0.08294783046390519
136,0.08344024618638266,0.08317866625250421
137,0.08352842739780282,0.08391285630372855
138,0.08335585625127905,0.08327980660105462
139,0.08338973990190139,0.08326753045873665
140,0.08344650756109653,0.08490223253779021
141,0.08330418206504345,0.0836219590998465
142,0.08344669876801432,0.08619121776768943
143,0.083445447630049,0.08355753148533866
144,0.08325440983644108,0.08412231786301355
145,0.08327585484826264,0.08315545758301804
146,0.0833777865733086,0.08411704354709194
147,0.08339329315804637,0.08425040610374943
148,0.08322516544787407,0.08358420538843121
149,0.08327156962643618,0.08522435759122556
150,0.08321141025605355,0.08570542522236964
151,0.08325258575996022,0.08421614807163812
152,0.08315182708046914,0.08353755111360077
153,0.0832996008921461,0.08317120083360459
154,0.08312605591955657,0.08329476876826795
155,0.08303854306340509,0.08336495571485524
