epoch,loss,val_loss
0,0.5660064477192034,0.5620469947606694
1,0.5619781846401307,0.5688327257154006
2,0.5618217643706568,0.5611630947654951
3,0.5614677329967791,0.5608524403264445
4,0.5611070892984396,0.5613475805180836
5,0.5608758250539408,0.5608889729154317
6,0.5606658023876081,0.5602812218606916
7,0.5606013037929625,0.5612393622658685
8,0.5605328501921861,0.5603173292895997
9,0.5604615749333522,0.5601184551828257
10,0.5602953345302528,0.5624646777254771
11,0.5601757394587674,0.5619288056423292
12,0.5600993763915983,0.5598122573963762
13,0.5600483297033261,0.5599909853994403
14,0.5600011782027675,0.5605836669505382
15,0.5599629534335113,0.5600658366757054
16,0.5599632748541674,0.5597865053796887
17,0.5599368219703069,0.5595956040375286
18,0.5598974517278996,0.5596349144691865
19,0.559836735213264,0.5596431577767687
20,0.5597861434808455,0.5601723550862769
21,0.5597446957727017,0.5596390854336192
22,0.55977810171456,0.55978606510399
23,0.5597377218841186,0.5599449306504602
24,0.5597183747493568,0.561170182837446
25,0.559705437270959,0.5596621478165942
26,0.5596865978323131,0.5594859413710185
27,0.5596598385242088,0.560403049435864
28,0.5596564991243088,0.5610008251578281
29,0.5596476604262292,0.5595781594292993
30,0.5596101003338375,0.559990044415145
31,0.5596292628252248,0.5596060350574276
32,0.5596307162332257,0.5595602591635276
33,0.5595958401783525,0.5593883005324427
34,0.5595947798450026,0.5594053510105048
35,0.5596027218229479,0.559752381291638
36,0.5595537197330981,0.5593578700392181
37,0.5595458501498574,0.5593875296654239
38,0.5595379197653195,0.5593680862161717
39,0.5595402426260315,0.5594055114253875
40,0.5595039206120618,0.5596215412871122
41,0.5594759680096767,0.5593243556637918
42,0.5594995419310579,0.5596174098421859
43,0.5594734406760279,0.559385856682846
44,0.5594635635227475,0.560111514184966
45,0.5594596870831128,0.5593711885270055
46,0.5594578996008633,0.5595654591437309
47,0.559414375913924,0.559501139283476
48,0.5594320801523278,0.5592730047980846
49,0.5594442214349082,0.5593067630940572
50,0.5594236561483127,0.5594685229415042
51,0.5593945813952699,0.5593577837234099
52,0.5594093079343623,0.5592729933504431
53,0.5594131619081709,0.5592920406876367
54,0.5593961166725904,0.5595887129123395
55,0.559405651824688,0.5594437140684861
56,0.5593898493870885,0.5594876636938185
57,0.5593800898780625,0.5599954334441248
58,0.5593497260433352,0.559537602210459
59,0.559337746663791,0.5592017859738163
60,0.5593768865936173,0.5592629247208682
61,0.5593516875592203,0.5592231594303405
62,0.5593663566653118,0.5593412430351484
63,0.5593353578909642,0.559212030488859
64,0.5593625266923888,0.5593693013226719
65,0.559349859046074,0.5593976189125857
66,0.5593323349531464,0.559215920912125
67,0.559337057425973,0.5600536762928549
68,0.5593624187720191,0.5599867235046463
69,0.559309042239539,0.5593343371788858
70,0.5593038513786928,0.5601644441744235
71,0.559320661579767,0.5598136014737207
72,0.5592878875413294,0.5596135206612997
73,0.5592887035288453,0.5591327534124219
74,0.5593125427165722,0.5593035797327387
75,0.5592720682993234,0.5596371037788486
76,0.5592915148406326,0.5597748331928963
77,0.5593087061656111,0.5593012392077198
78,0.5593288962366254,0.5591371757220985
79,0.5592930491492721,0.559449862871809
80,0.5592940069901788,0.559254787400106
81,0.5592853847867773,0.5592182646318345
82,0.559294353952302,0.5592083587539994
83,0.5592597448408231,0.5595749031225445
84,0.559261821580049,0.5592774039166737
85,0.5592800486229946,0.5599682442603573
86,0.5592576195034717,0.5591087974922238
87,0.5592856093827204,0.5617129934928553
88,0.5592702731654409,0.5592524138928643
89,0.5592596010839899,0.5591850539886626
90,0.5592509620801261,0.5598063922697498
91,0.5592740299485205,0.5591375319301046
92,0.5592500514750385,0.5593321945472036
93,0.5592449743064176,0.5591032073752165
94,0.559264052891731,0.559554153902655
95,0.559229919282713,0.5593519124736265
96,0.5592374796437365,0.559167622543742
97,0.5592679860299675,0.5590747277139139
98,0.5592300881250706,0.5591204010523283
99,0.5592515121418361,0.5594906334545713
100,0.559239058342892,0.5591493012887373
101,0.5592364628339804,0.5592641345324646
102,0.5592447837152787,0.5592461872337474
103,0.5592022988542894,0.5591536179369792
104,0.5592184763678477,0.5597369630342678
105,0.5592358232379074,0.5604246465503134
106,0.5591887229251972,0.5592212296301319
107,0.5592159164989814,0.5591559413349066
108,0.559221350611557,0.5594042879476145
109,0.5592196059145582,0.559563357037291
110,0.5592311479306944,0.5597387839191901
111,0.5592149019839264,0.5591236147336274
112,0.5592040160906021,0.5599430108780304
113,0.5592094488369274,0.5591559882199498
114,0.5591955821986259,0.5590766464510272
115,0.5592212896753702,0.5590853621291167
116,0.5591835485595366,0.5595907827169073
117,0.5591938719008457,0.55910002729733
