epoch,loss,val_loss
0,0.1262234537704784,0.11881450129206068
1,0.11726386592844601,0.11816429708421082
2,0.11436588093345568,0.11223461795829366
3,0.11304542422590427,0.11478133533639884
4,0.1121200893992618,0.11065492844093526
5,0.110293003782896,0.10913944023270761
6,0.10987100424619077,0.10901665369201238
7,0.10967761097846068,0.10959359563831655
8,0.10956744207792658,0.11077354014215635
9,0.10862751658942034,0.10821639714998288
10,0.10700575365516425,0.1065671562741767
11,0.10611275912841388,0.1059402710635668
12,0.10541518394139782,0.10500873526923414
13,0.10515878155520471,0.10441096101889835
14,0.10439905166638598,0.10327108088631193
15,0.10346397216256048,0.10389836886828353
16,0.10276466026247275,0.10357078263540717
17,0.10214800874919523,0.10203451344156383
18,0.10171067553908261,0.10076386840186699
19,0.10104611786379554,0.10085721971749076
20,0.10060190875856014,0.10043064013456293
21,0.10015662664961969,0.10022583521033634
22,0.09977041633577789,0.09848755873166598
23,0.09940966150422077,0.09967561207397405
24,0.09926110980320951,0.09845737905863201
25,0.09908427287942419,0.09846384502374209
26,0.09898578868970222,0.09905719622858701
27,0.09882542100794899,0.09885180419121428
28,0.09856761778106655,0.09884349680863894
29,0.09849752554084346,0.09763136013935576
30,0.09804361573480626,0.10168150840858668
31,0.09784650566851287,0.09806060549934803
32,0.09758921869081293,0.09882499919857636
33,0.09761718648168989,0.09653957460269738
34,0.09758456578691127,0.09747515433923186
35,0.0974446352946386,0.09824918011208031
36,0.09740467780013301,0.09739213134751426
37,0.0972841158664062,0.09675725448146351
38,0.09693081252797228,0.09686702914332633
39,0.09677554194803464,0.09788229204436981
40,0.09659132442759953,0.0967068646519119
41,0.09628660114589103,0.09594016164615196
42,0.09599554720512257,0.09672575796730169
43,0.09575312855877159,0.09528688489651266
44,0.0955898924305059,0.09627599492114472
45,0.0953964454974155,0.09510085873731017
46,0.09528580339848888,0.09549224152606416
47,0.0949580760121273,0.0958263670466378
48,0.09482976308640242,0.09439008303226963
49,0.09467393089847974,0.09513841590130004
50,0.09433629204254478,0.09452574640956174
51,0.09427542377068221,0.09380901937301342
52,0.09399224769377951,0.09376450914972768
53,0.09381289954756897,0.0935623584476949
54,0.09380991370015553,0.09402705672065319
55,0.09368326957560957,0.09405114571598563
56,0.09357616519291315,0.09316706527995117
57,0.09344956257818135,0.09549664443834839
58,0.09343614440190309,0.09296553124195293
59,0.09329040336697393,0.09442834039184059
60,0.0933465762984448,0.0935344972696257
61,0.09332584312328349,0.0932948207182269
62,0.0932507869746828,0.09326878471055043
63,0.0932336826584366,0.09312328873733729
64,0.09298736515267268,0.09331724724683808
65,0.09302427551521189,0.0924195047828459
66,0.09292374953628178,0.09338304130522253
67,0.09282163969886553,0.09245566023564517
68,0.09267059918628366,0.0920810242222793
69,0.09254371402247423,0.09273196510952104
70,0.09248425563284937,0.09175939622425264
71,0.09230158160015409,0.09146203894916895
72,0.09218733347750721,0.09229291077361214
73,0.0920678276222898,0.09186862205379358
74,0.09202028261026662,0.09243365085450354
75,0.09186290479293563,0.09198107971964639
76,0.0917620036105524,0.09192950870499718
77,0.09155675241826278,0.09168761965284868
78,0.0914566768414787,0.09185075033687184
79,0.09144587542514271,0.09207797311153956
80,0.09127436901259464,0.09236532440478394
81,0.0912211465514676,0.09126330438455932
82,0.09130988458465794,0.09133360504586406
83,0.09110170044327844,0.0908401797227469
84,0.09113849024496964,0.09126396292344512
85,0.09119052593986195,0.09189743343047409
86,0.09117740443850303,0.09201605223470527
87,0.09113642955248062,0.09232562025338781
88,0.09108279486809619,0.09095889861988962
89,0.09111364445541621,0.09211893304258068
90,0.09107815846115509,0.09184805394402212
91,0.09095231888375027,0.0912325796728986
92,0.09091354733825344,0.09157734947376156
93,0.0908823440484709,0.09107688455738441
94,0.09093608438603432,0.09136157611907268
95,0.0908851412695193,0.09051803334918862
96,0.09084785564258999,0.09100677618022
97,0.09084282767456196,0.09081608895998143
98,0.09083740738028372,0.09084268792835122
99,0.09074989242481399,0.09103566783459548
100,0.09068018943998238,0.09141794029743441
101,0.09076520331582871,0.09151612571244204
102,0.09062983353079976,0.0903219226054459
103,0.09061374019728526,0.09066044876430526
104,0.09059263322160171,0.09066212979277073
105,0.09056123197603276,0.09066476327905584
106,0.09061479924134483,0.09014592836275882
107,0.09057696608060394,0.09009231873984372
108,0.09063544081353997,0.09102221874903804
109,0.09055986786653519,0.09036084459008413
110,0.09048262182209753,0.09027040045773126
111,0.09050268572300534,0.09016930616966844
112,0.0905283083740993,0.09066602686054949
113,0.09043994079650397,0.09058358887436964
114,0.09051515853428585,0.09093617335812329
115,0.09040271595085525,0.0907582838171469
116,0.09041302220792131,0.09065777898278485
117,0.09030402923384115,0.09011502702242091
118,0.09028282803618333,0.09061404738769342
119,0.09020596965883165,0.0902058389620213
120,0.09027749857260847,0.09182865153767039
121,0.09020921933450766,0.09014893255517738
122,0.09020413707104281,0.0911740621584225
123,0.09008770299305145,0.09027302391253984
124,0.0902065697802178,0.089638608723657
125,0.09021176310970186,0.09010677057371543
126,0.09015137877178865,0.09036959802024713
127,0.09010095028745697,0.08991797757577659
128,0.09004334916475093,0.09022601909066548
129,0.09000198009143545,0.08966638791945673
130,0.09002123724156134,0.08962887393925385
131,0.0899250034197856,0.08930700447955735
132,0.08993526914676207,0.08987612956141124
133,0.08992603729613473,0.09042956679689677
134,0.08988043111063637,0.09000800275994886
135,0.08985873109009483,0.08944707559075013
136,0.08989885225411867,0.08972848418628608
137,0.0898656496409033,0.08981801973235222
138,0.08980814952833366,0.08963647486997893
139,0.08982162461954987,0.09039345609195179
140,0.08971838123108485,0.09038453786899671
141,0.08963154657472823,0.09038648786896808
142,0.08980835170656933,0.08954115626459974
143,0.08968071670804988,0.08953180838163674
144,0.0897733751219561,0.09102551924531573
145,0.08969622851798541,0.08923195454456079
146,0.08963898016495257,0.09280082336430515
147,0.08960768883386162,0.0893791536742789
148,0.08954980548283521,0.08920173694566817
149,0.0895934978646213,0.08965147915977995
150,0.08965767759283644,0.08972047892013199
151,0.08951358746363189,0.089644454963154
152,0.08946151153746797,0.08885461767169442
153,0.08955887757401759,0.08943197453214276
154,0.08943929449927741,0.08930081548377243
155,0.08935932558124007,0.09022077726888893
156,0.08944229435894131,0.08966345566673847
157,0.08935618793873591,0.08967328902805413
158,0.0894031494797113,0.09239994821048551
159,0.0894375352647673,0.09161169879859493
160,0.08937652300819886,0.09033621403922514
161,0.08931206318711978,0.08971716522357008
162,0.08935618303814095,0.091220396261653
163,0.08933520947883797,0.08895583367968907
164,0.08921946485894491,0.08899750625599111
165,0.0893155766000473,0.08935811497067696
166,0.08922323944863703,0.09154651019694492
167,0.0891649840038167,0.0891831806516529
168,0.08915199965433411,0.09146795375989034
169,0.08919205672459073,0.08972472344379567
170,0.08913514481367138,0.08881748051338693
171,0.08913754849150489,0.08937366503122131
172,0.08912361631864157,0.08883612386272208
173,0.08906651698949682,0.08886481243238852
174,0.08908053478576232,0.08999753885026605
175,0.08906193931480585,0.08931089328329261
176,0.08903457149193725,0.08881320711548808
177,0.0890285547381118,0.08949965331379887
178,0.08904599623230025,0.08899633329426385
179,0.08897745087167946,0.08866066971872344
180,0.0889672656764659,0.08922048716553979
181,0.08900028549246054,0.08857823751922281
182,0.0889756153222846,0.08904092537779962
183,0.08896272386520641,0.0892885526045972
184,0.08892965140982105,0.08900026965599794
185,0.08886066347656815,0.09041315032072161
186,0.08884548885724544,0.09063582249891669
187,0.08894272353438254,0.08902718810822177
188,0.08892669787389378,0.08876690616456806
189,0.08889768228572408,0.0900201871140719
190,0.08894142711807514,0.0887121403113784
191,0.08878375412321787,0.08890865035817286
192,0.08887725609408574,0.0890266463234466
193,0.08896799641019498,0.08875876334923373
194,0.08891082950366991,0.08909980624396512
195,0.08873941686366127,0.08922212382699952
196,0.08882027608856131,0.08859501120174493
197,0.08891719701866417,0.08989099188344946
198,0.08887414382670451,0.09002764775942336
199,0.08882071592741082,0.08834833530131404
200,0.0888666333414123,0.0889762712952221
201,0.08873117992235649,0.09060230756885657
202,0.08882104916984007,0.08869641138143634
203,0.08880844422323594,0.09022646392545393
204,0.08878524637114536,0.08805195610813113
205,0.08872291101970664,0.08903643735880887
206,0.08874767942492152,0.09038183517920469
207,0.08874429729252371,0.08876860537392922
208,0.08872375188084805,0.08885356629308933
209,0.0887586254229091,0.08991151678355101
210,0.0886857752737765,0.08961860726843993
211,0.08869839975304779,0.08870641659418348
212,0.08861618380908264,0.0887335492200946
213,0.08868735382187144,0.08867671749284191
214,0.0887469961224438,0.08867376482590257
215,0.08870573356212999,0.0882921703178297
216,0.08865386905054139,0.08853547977972268
217,0.08865480372652312,0.08836819366840808
218,0.08861639480789621,0.08836320004895071
219,0.08867381793438692,0.08874069199372758
220,0.08856900054980917,0.0887805243986416
221,0.08865665970291907,0.0885441939196279
222,0.08862427669044706,0.08847811660976623
223,0.08855462651218843,0.08846494753662469
224,0.08865909396717016,0.08945575315070803
