epoch,loss,val_loss
0,0.6744103009860024,0.6732703084685371
1,0.6714600617136108,0.6708221717152939
2,0.6710930012460438,0.6710469483737614
3,0.6711577358730632,0.6710323562101455
4,0.6708809634889835,0.6708190513307936
5,0.6707988356435168,0.67073566236212
6,0.6707018600002926,0.6707684468098964
7,0.6705358192622224,0.6706777255233405
8,0.6704282092443222,0.6706521442451193
9,0.6703002209891268,0.670387025092435
10,0.6702328729515294,0.670250399591905
11,0.6701810760671653,0.6701323002798681
12,0.6701308669613687,0.6702838806005624
13,0.6701082019112308,0.6698758151927597
14,0.6700989176451413,0.6700021227299428
15,0.670074363051011,0.670151433873709
16,0.6700521078089358,0.6701058671728849
17,0.6700223588594504,0.6701466445887355
18,0.6700066756611158,0.6699044730468069
19,0.6699605310586874,0.6698887615878292
20,0.6699449217845952,0.6698304168048035
21,0.6699148479049574,0.6697812667851413
22,0.6699353674915822,0.6702225700501473
23,0.6698696936045033,0.6697588476590424
24,0.6698727583186607,0.6703350454051205
25,0.6698587322463552,0.6702210841640349
26,0.6698605462624175,0.669828222614364
27,0.6698426490190607,0.6699374975992491
28,0.6698582392626733,0.6697268744852052
29,0.6698435354725963,0.6698342503152473
30,0.6698376289103248,0.6696722566637744
31,0.6698311932557622,0.6698372736758097
32,0.6697899676382434,0.6698202187902579
33,0.6698262506628034,0.6704103046552123
34,0.6698198321975954,0.6698455181370302
35,0.6698105895769,0.6697280263782435
36,0.669780077093816,0.669721482853144
37,0.6697966741779745,0.669612745138315
38,0.6697548099835486,0.6698394958493727
39,0.6697525347112621,0.6697274144175035
40,0.6697455663783957,0.6697322011289762
41,0.6697571321792786,0.6700479782544649
42,0.6697244071680889,0.6698413882007078
43,0.669714987322159,0.669609011106988
44,0.6697151288355648,0.6699279657664429
45,0.6697242520055893,0.6695930237213967
46,0.6696783946762346,0.6696931031442458
47,0.6697060745688915,0.6696710195198249
48,0.6696882073522786,0.6697115903752613
49,0.6696945169166035,0.6695861858114711
50,0.6696836411731312,0.6696683759429023
51,0.6697043404122147,0.6695367267054896
52,0.6696944270485663,0.6696704106650341
53,0.6696675807074732,0.6696513777335288
54,0.6696854185362929,0.6701558122563894
55,0.669679208683003,0.6696079909653581
56,0.6696716803626018,0.6696629549078551
57,0.6696472485519415,0.669557597796911
58,0.6696749976279837,0.6695509957912247
59,0.6696528342717681,0.6697327580700442
60,0.6696617654283966,0.6695209221271959
61,0.6696659833107238,0.6698155304338441
62,0.6696851251876648,0.6697270577953708
63,0.6696678711366484,0.6695873017938202
64,0.66966702400383,0.6696339030715431
65,0.6696707596486814,0.6695226902997228
66,0.6696403857595503,0.669584839811396
67,0.6696423758909658,0.6696486710910465
68,0.6696492125384363,0.669747557592747
69,0.6696460191135543,0.6695459681764134
70,0.6696464553939013,0.6695191591312513
71,0.6696461851603048,0.6701895904304371
72,0.669638036477039,0.6695831208016085
73,0.6696452158971663,0.6698296260597096
74,0.6696461647312331,0.6695616678623645
75,0.66963610002538,0.6694655773065817
76,0.6696226463480874,0.6695066130782475
77,0.6696248849966602,0.6697538697985799
78,0.6696324630645094,0.6695267373219909
79,0.6696077972432417,0.6697458883373081
80,0.6696029802782673,0.6695457443410054
81,0.6696235487067654,0.6696711874185661
82,0.6696135685222723,0.6694729644666535
83,0.6696197687092619,0.6695007658182244
84,0.669610349643483,0.669455596945126
85,0.6696248367298425,0.6697713671783656
86,0.6696149846344776,0.669572443258082
87,0.6696290319593914,0.6694960631448637
88,0.669609206717458,0.6716075263011544
89,0.6696353118811316,0.6694616881256955
90,0.6695966306327945,0.6695473889854943
91,0.6696089351396983,0.6696073366749671
92,0.6695960284539967,0.6700828698965219
93,0.6695991849703978,0.6695503992714894
94,0.6695807745517246,0.6698296654608942
95,0.6696262470962235,0.6694943109457901
96,0.6695588971070654,0.6696129256087556
97,0.6695945677106827,0.6696732378775073
98,0.6695680194922058,0.6695791003426015
99,0.6695876831182364,0.6696858466115246
100,0.6695638542641585,0.6695212955806155
101,0.6695594502799137,0.6696786565165366
102,0.6695668417173303,0.669565548612817
103,0.6695536429498584,0.6694878853876005
104,0.6695603046983488,0.6694889063279031
