epoch,loss,val_loss
0,0.2880337878316641,0.20246023589372636
1,0.2009263236373663,0.20037642139196396
2,0.19874818927049637,0.19736688807606698
3,0.1990669772773981,0.2063002519905567
4,0.19884347243607045,0.19731169340014457
5,0.1987683367729187,0.19907502943277358
6,0.19848884712159634,0.19751676383614541
7,0.1981065830886364,0.19648347654938697
8,0.1985435511916876,0.19754220676422118
9,0.19821668072044848,0.1981096335351467
10,0.19807120172679424,0.19679162603616715
11,0.19853683330118657,0.197386000841856
12,0.19854664824903012,0.20079196617007256
13,0.1985889482796192,0.19766002583503722
14,0.19830720190703868,0.19640668335556985
15,0.1982843762487173,0.1974518550634384
16,0.19807340610027313,0.19593523579835892
17,0.19790622714161873,0.19642992547154425
18,0.19788136471807957,0.19587447398900987
19,0.19788442376255988,0.19676982283592223
20,0.1977538660466671,0.20017114681005477
21,0.19791135236620902,0.19610099375247955
22,0.1979264426678419,0.19665999871492384
23,0.19864703539013862,0.1959204940199852
24,0.19839083303511143,0.19592955896258354
25,0.19842577221989632,0.19678177455067636
26,0.1987791690081358,0.1981964910030365
27,0.18051389710605145,0.1730648520886898
28,0.1593022233694792,0.15610324807465076
29,0.1570795232206583,0.1553303269147873
30,0.15749518199265003,0.15420121577382087
31,0.15735239738225937,0.15422845220565795
32,0.15657877492159605,0.15379673436284066
33,0.15582070752978325,0.1504224598556757
34,0.1554482414647937,0.15071503922343255
35,0.1555499904230237,0.15157543882727623
36,0.15569142490625382,0.15131051553785801
37,0.15568692387640476,0.15438419654965402
38,0.15591903755068778,0.15410050544142723
39,0.15574077083170415,0.15070447617769242
40,0.15599319911003112,0.15286953382194043
41,0.15675290748476983,0.1518465307801962
42,0.15671761694550515,0.15046207578480245
43,0.15621020677685737,0.15422251504659654
44,0.15649902742356062,0.15405895227193833
45,0.15648180095851422,0.15273815383017064
46,0.15668130113184453,0.15501760265231132
47,0.1566517179310322,0.1518378114551306
48,0.1567657557874918,0.15409972956776619
49,0.1566556135416031,0.15208228075504304
50,0.15691355715692043,0.15636376664042473
51,0.15742177631706,0.15043842378258704
52,0.15802878180146218,0.1542157484292984
53,0.15743149434030057,0.15352335868775843
54,0.15839384800940753,0.15191058637201785
55,0.1580448053330183,0.15766573107242585
56,0.15866008801758288,0.15731001490354538
57,0.15917124736309052,0.1555860058814287
58,0.15990165874361992,0.15360839432477952
59,0.1616087888777256,0.16049878013134003
60,0.16132125751674176,0.15867587900161742
61,0.162003164768219,0.15747793154418468
62,0.16090406808257102,0.15733104971051215
63,0.16134105680137872,0.16063956806063653
64,0.16115743094682694,0.15522592145204545
65,0.16064050327241422,0.1565964318215847
66,0.1613706194460392,0.15596400773525237
67,0.1613622380644083,0.15809842923283576
68,0.1611180676072836,0.15668477484583854
69,0.16154086866974832,0.15671769014000891
70,0.16142023649811746,0.15705692201852797
71,0.161083699837327,0.15687987580895424
72,0.16114696562290193,0.15745226392149925
73,0.16114938231557607,0.15686590933799743
74,0.1611754958331585,0.15809715183079243
75,0.16112989144027234,0.1553012918382883
76,0.16074714536219836,0.15713392516970634
77,0.16094326123595237,0.15638906525075436
78,0.16086047714948654,0.15757319582998752
79,0.16050143387913704,0.15712235146760942
80,0.16064744392037392,0.16100396576523782
81,0.16092683182656764,0.1593037589788437
82,0.16006321915984154,0.1541325096040964
83,0.1601093004643917,0.15971180728077888
84,0.16015996731817722,0.15722401943802833
85,0.16033820004761218,0.1536210808157921
86,0.15992596071958542,0.15547168995440006
87,0.15970308594405652,0.15706609416007997
88,0.15964217442274092,0.15466426780819892
89,0.15958533422648907,0.157852721452713
90,0.1594609149247408,0.1578808531165123
91,0.15937313251197338,0.15824836748838425
92,0.1600231281667948,0.1560022523999214
93,0.15988553981482984,0.15546744802594184
94,0.15941798897087575,0.15379085856676103
95,0.15931964817643166,0.15582515525817872
96,0.15979932899773122,0.15721737760305404
97,0.15956859482079744,0.1560652663707733
98,0.15945665986835958,0.15586371952295303
99,0.15952468841522932,0.15605740416049957
100,0.15929013465344904,0.15502287557721137
101,0.15936295761168004,0.15474593937397002
102,0.15864018733799456,0.15794209755957125
103,0.15944194570183753,0.1539587380886078
104,0.15890348198264836,0.15454344928264618
105,0.15932180904597043,0.15422574320435525
106,0.15843963107466696,0.15285247746109962
107,0.15856125418841838,0.15555559849739076
108,0.15907995714247228,0.15525397323071957
109,0.15899804748594762,0.1554401706457138
110,0.15897897412627934,0.15277862317860127
111,0.15881249657273291,0.15643594422936438
112,0.15899550103396176,0.15374388585984708
113,0.15847178949415683,0.1549849855005741
114,0.15789811703562737,0.15325296987593173
115,0.15838627960532903,0.15228789070248605
116,0.15846138821542263,0.15445442020893096
117,0.1586280411928892,0.15539964920282365
118,0.15832673646509648,0.15392128518223763
119,0.15877357853204013,0.15473659978806972
120,0.15951763377338649,0.1585485723912716
121,0.15944856364279986,0.15322449700534344
122,0.15846567146480084,0.15599726243317127
123,0.15830557265877723,0.15368312120437622
124,0.15867706440389157,0.15453505145013333
125,0.1586947686970234,0.15785546159744263
126,0.1589879106581211,0.1532233952432871
127,0.15876284983754158,0.15350814105570315
128,0.1585289189517498,0.15460094887018203
129,0.15874210131168365,0.15340675070881843
130,0.1585843435227871,0.15574667140841483
131,0.15840655191242695,0.15495750875771044
132,0.1582964959666133,0.15547134575247765
133,0.1581544714719057,0.15718829929828643
134,0.15862767089158297,0.15882446444034576
135,0.15903823557496072,0.15432685007154942
136,0.15871966573596,0.15705063208937645
137,0.15864984218776226,0.1546656437367201
