epoch,loss,val_loss
0,0.0496153556643602,0.02676413708895667
1,0.024943819608660083,0.022606446511729182
2,0.022044101375139635,0.021778724113335975
3,0.020985141650993556,0.02088592088973108
4,0.02029921883103545,0.020677126698177447
5,0.01985861352822951,0.022041575182645257
6,0.019420268291888792,0.018270823696891664
7,0.019100771892781664,0.018339129867351086
8,0.018804982833556295,0.017351615733973147
9,0.018795488649939473,0.01883275626832735
10,0.018370103450411342,0.018173861951930055
11,0.018212439307783716,0.018264885911389854
12,0.018011485140507058,0.019171445523723775
13,0.017898204123233254,0.01793291912906371
14,0.0177713883702873,0.017223641853178703
15,0.017704301139272287,0.017356683777890194
16,0.01751303197652209,0.017261331937005443
17,0.01747841272480508,0.017717668094277085
18,0.017378111917933897,0.01681215881645014
19,0.017232364818814284,0.01922382307111773
20,0.01723414339620442,0.016917296472206602
21,0.017184505690289474,0.016962085069889762
22,0.016987960913959845,0.017136086151003836
23,0.016983235123297368,0.01813984450747816
24,0.016821170622643298,0.0167151886322732
25,0.016718982596826113,0.017083026939268147
26,0.016673396845403633,0.01688003146942363
27,0.016580546245976675,0.017159125691386074
28,0.016486571584635366,0.016996796253523225
29,0.01640546886312423,0.01656822018676597
30,0.0163970417562288,0.016106610096270037
31,0.01644320865567409,0.016514264205216473
32,0.016266569305216777,0.016227249259004373
33,0.016215921627552022,0.01669888647444195
34,0.016247975206020168,0.015980700433032388
35,0.016177619230973658,0.015440644576184211
36,0.016108795732007918,0.016899724382324788
37,0.016062303822985,0.01584611246662755
38,0.016067934170875806,0.016762875165633174
39,0.016014404778473327,0.016953931448440398
40,0.015973428150299274,0.015783182895804753
41,0.01596810429096642,0.016101285467668442
42,0.015912227467111864,0.01574284605330628
43,0.015890864363163948,0.015990192329432475
44,0.01582157579919104,0.015930645625862678
45,0.01580388470541288,0.015589292333565338
46,0.01579626844636191,0.016018059719400134
47,0.015720673414621352,0.015261701875303874
48,0.015748310011557194,0.015833520393347178
49,0.015664744178336742,0.016620834071937922
50,0.015709849375839927,0.01592571041904963
51,0.015629351405224156,0.01586488897059455
52,0.015684375541048994,0.015673329927970103
53,0.015629760546320384,0.015569906046720356
54,0.015611132166476003,0.01577245406991347
55,0.015487417638845351,0.015223280642246342
56,0.015517344709464422,0.01580164133439363
57,0.015546995963136561,0.01608828696845187
58,0.015517480166346236,0.015454095865486574
59,0.015464927870367821,0.01582130033097625
60,0.01542039393605709,0.015814460275542203
61,0.015454085087932293,0.01584190823156248
62,0.015357644826917647,0.015573702742421893
63,0.01540459929336161,0.015589535676368118
64,0.015345478787926723,0.01567926599318277
65,0.015377969158506527,0.015520271216114757
66,0.015335292541131255,0.01595817200617666
67,0.015313632414760543,0.015286036794797215
68,0.015305530733377043,0.015432692155999966
69,0.015309658800247284,0.015282607025862037
70,0.015283026472178749,0.01510017513489309
71,0.01522004948850439,0.014996140620326878
72,0.015158605452174009,0.015642564370303827
73,0.015241482108439456,0.014928286216653902
74,0.015159591491912709,0.015308666313367506
75,0.015174862565544086,0.015587688937653827
76,0.015132908860136681,0.01514520803489549
77,0.015213970830637046,0.01530230519900251
78,0.015113509917544654,0.014655676423098254
79,0.015141758111714086,0.015216740684828747
80,0.015100614101093902,0.015529571279476653
81,0.015121640209861183,0.015123278496061305
82,0.015122114156025797,0.014941656533582483
83,0.015113864889342606,0.014879723430308455
84,0.01503433674963678,0.014980951973951188
85,0.015066469212363237,0.015364979774628768
86,0.015026094961180146,0.015367768497827923
87,0.014992678054289903,0.014861012251571597
88,0.015016188777618258,0.015407738485662428
89,0.014971135321474217,0.015356559563363457
90,0.014967319448793004,0.014772415174074268
91,0.0149358890959702,0.015599412467358426
92,0.014929055215499273,0.015127271116149633
93,0.014907737743522663,0.015191750508957259
94,0.014896121106189803,0.014819273470944862
95,0.014853484986968899,0.01514138085929395
96,0.014899774104701089,0.015161240430867702
97,0.014887686082861444,0.015271371836882666
98,0.014870546623408535,0.015216394560989315
