epoch,loss,val_loss
0,0.0417512226840427,0.023136370507977146
1,0.023278799588778577,0.02329705902109519
2,0.021415436269361418,0.020250608177656868
3,0.020809966275580558,0.022608021457238173
4,0.020181250681619987,0.019436122083264604
5,0.019678979940678236,0.019333789151892176
6,0.019268246359956616,0.01887776854242344
7,0.018963732182851103,0.02173023976607447
8,0.018823584955911816,0.01895113944656056
9,0.018467809519191653,0.01817863491310671
10,0.018427614268069357,0.01874629293958987
11,0.018030568547187455,0.01859721956640556
12,0.017943157411980517,0.017711151629760308
13,0.01774351418740513,0.01849784478730067
14,0.01760295705077983,0.01893448348321187
15,0.017537823862119314,0.01778602707419295
16,0.01741946582376008,0.016644625802046016
17,0.01740448711420074,0.016964801510902256
18,0.017264011469280586,0.016757680319027777
19,0.017112497039548178,0.017364734184301966
20,0.017003712905998433,0.01722846447534064
21,0.017008585105731538,0.016611381347011542
22,0.016833818585304323,0.017071747005207662
23,0.016780911037148846,0.016824028515268496
24,0.016787596934947895,0.016428691622045438
25,0.01670856448661357,0.017188425204963897
26,0.01676169094934998,0.01704307004772404
27,0.01669224523323105,0.01723682249551893
28,0.016591015875382302,0.016380765821978855
29,0.01649744701856665,0.016596814578690246
30,0.016498025028211964,0.016439176250073514
31,0.016469015924653472,0.016252172648647877
32,0.016446144609583005,0.016028673994001326
33,0.016368113079987433,0.016178862410817046
34,0.01635435147790276,0.016352729100928116
35,0.01629609735079523,0.01603279297353316
36,0.016297733614895442,0.01597244223168411
37,0.016202169807035167,0.016146894768065318
38,0.016233398537561276,0.017421618225076062
39,0.016176805285610534,0.016533722368903256
40,0.01614191808575402,0.016118906210026433
41,0.0161454123722609,0.015922050273725324
42,0.01617586588999595,0.016107897062048723
43,0.0160777774013283,0.015940731436605786
44,0.016071779888069387,0.01566326647775049
45,0.016059426686199193,0.01648297825684914
46,0.016032615000841632,0.015802003700221442
47,0.01597120928509315,0.01632107862042582
48,0.01592978032621146,0.016303825065974265
49,0.016014164224807552,0.016187121480629403
50,0.015929983582775226,0.01548716175755851
51,0.015922086227088808,0.01636656300989777
52,0.015958200058829825,0.015899175950892214
53,0.015859297061625043,0.015731557879236437
54,0.015883050044632634,0.016094553589857837
55,0.0158519400247704,0.016155123070030294
56,0.01583621597619296,0.015690861012851335
57,0.015840934980147693,0.015838380718589864
58,0.015767933260432267,0.015853558983607564
59,0.01575018668827085,0.015255554810295774
60,0.015704774325481428,0.015349282300279987
61,0.01574952333492456,0.01534941335747171
62,0.01572850625561442,0.015710813957948246
63,0.01576141963820509,0.01565316679838943
64,0.015653202389457086,0.01565988773003997
65,0.015711186492808688,0.01591974118488746
66,0.015667651841515237,0.015809523640547142
67,0.01569392561314112,0.015313552828417818
68,0.01565980316574587,0.015242484200829015
69,0.015620368739891505,0.01576243806121959
70,0.015591059676092282,0.015111128550956475
71,0.015621394759487496,0.016130907354742364
72,0.015609330159299464,0.016698489137567007
73,0.015583521764576013,0.01631448145761679
74,0.015575140939535364,0.015340907258852836
75,0.015595156443049868,0.015667588578042558
76,0.015548934345440198,0.01572169259135096
77,0.015562634096580976,0.015612223211019566
78,0.01555007829549971,0.01642597353654375
79,0.015521326040898712,0.015719247374581937
80,0.01549070224198357,0.015691557015400964
81,0.015500380297882985,0.015504431469416796
82,0.01544142883266591,0.015766159512990017
83,0.015516506839879868,0.01595494745313086
84,0.01546686953790657,0.015382015636703808
85,0.01547329096232952,0.015485362018973893
86,0.015475898099640516,0.015407759452206325
87,0.0154491028888975,0.015247393211825905
88,0.015412461586659222,0.015433989835916914
89,0.015395487616871593,0.015920135481444837
90,0.015372861893170055,0.016101381896299404
