epoch,loss,val_loss
0,0.5488701958736356,0.4750558419686749
1,0.4650951497894016,0.450747913888993
2,0.4534249352536899,0.43273140952261585
3,0.3787851000694539,0.359049292653211
4,0.36438423727484914,0.34774277449218705
5,0.3612608343934555,0.34921685802061536
6,0.3593816433807643,0.35040626971855254
7,0.358562593563474,0.3541208435299835
8,0.34870921791219217,0.338154204666097
9,0.3319818711133121,0.31600641755015246
10,0.3332667746227517,0.31487539490565786
11,0.33330680367996174,0.32941826119513234
12,0.33619277706916195,0.3346790451183033
13,0.33567545352746353,0.3296937272599483
14,0.3365166746645713,0.31643718375215024
15,0.3382350150153315,0.3278125685411075
16,0.33642266179731994,0.3249861230837047
17,0.33729670704792825,0.3299377348447467
18,0.33809770176784215,0.32722704607666997
19,0.34040576223132135,0.33049157569986115
20,0.34171174443978297,0.3347123587282041
21,0.33992185440661904,0.3375750007409229
22,0.34137826855424686,0.31800216906825296
23,0.3406296621838348,0.33359202641432173
24,0.3406819651166884,0.32781276040972923
25,0.3412880917890466,0.343520689993838
26,0.341636004588968,0.3382921828326035
27,0.34132227290877337,0.3256869626355717
28,0.3424364515155149,0.3305794320053817
29,0.3433634207593642,0.3322885272158538
30,0.34217574069206474,0.34672208126831355
31,0.34515313256225233,0.33516492089513916
32,0.34499148245480993,0.3375790616190142
33,0.3443572232000929,0.33834310335819423
34,0.34587872236800327,0.3415475119119944
35,0.345703183270568,0.3316886862291533
36,0.34493817288955625,0.34217843869678977
37,0.34683753974098475,0.33554939839815473
38,0.3459791627814539,0.33707783223609805
39,0.34487904001959413,0.33290693229733254
40,0.3467191194030021,0.3370189145736649
41,0.34690795249218564,0.3429344640346428
42,0.34886266640145525,0.3440525241037382
43,0.34851615489434473,0.3350786605780766
44,0.34829331877277336,0.336370024938892
45,0.3473561980979715,0.3355721917412087
46,0.3471718693880154,0.3477656739192773
47,0.35018428969535703,0.34375403820292255
48,0.3491809856739166,0.3459508390340075
49,0.3484222163184941,0.33968495132420695
50,0.3481053176233999,0.3376950660416152
51,0.34921714655167574,0.3325276906413174
52,0.35090448167160165,0.34797427869727504
53,0.35273277492736643,0.3327139812891372
54,0.3520892741297075,0.3403672460222583
55,0.35128762790386814,0.33660326473526625
56,0.35195884943532524,0.3483512414047449
57,0.35198752503457975,0.3397913849673689
58,0.35206022339282655,0.34065223464649685
59,0.35309321045589676,0.3451082653997447
60,0.3517059120509645,0.3497642872365517
61,0.35245850261786194,0.3378455270531616
62,0.3527075239389444,0.3439047625192809
63,0.35113563859681907,0.3433746975429809
64,0.35249770122418683,0.33778165780660574
65,0.35137478483142515,0.3442589014462815
66,0.3500012970871205,0.33663452160857094
67,0.35159179950646646,0.3370341364567733
68,0.3522419036744977,0.34588165333069676
69,0.35283368736576975,0.3474566870866654
70,0.35368630662858247,0.34074703517539723
71,0.3563441305899982,0.3472648498667632
72,0.35593260249359715,0.33835151264680685
73,0.35816499863644774,0.3383140837054791
74,0.3573127281989792,0.34472826610142165
75,0.3566396308364533,0.34464654168841774
76,0.35649982548589043,0.3445514275882784
77,0.3566248537801343,0.34037987689098786
78,0.3554361879492073,0.337618464758383
79,0.3558414550088674,0.33959114130501117
80,0.3540147982722373,0.3428058320363864
81,0.35328814308706236,0.32838065377726927
82,0.3508121518375014,0.344173615244118
83,0.3496433771628556,0.33196448360076547
84,0.3523057986268227,0.34128971366122096
85,0.3541805906285294,0.34008759688277274
86,0.35345666105751034,0.3459388686383721
87,0.35422924754145046,0.34579495134180516
88,0.3544914515303384,0.34831240895515175
89,0.35406886839228185,0.33398720920791564
90,0.3532690798802723,0.3376216944645217
91,0.35282513982862784,0.342800773450871
92,0.35243313662487447,0.3361640070589302
93,0.3487871846349405,0.3375025185761531
94,0.34558749927891247,0.3324923982936374
95,0.3436617666630627,0.3352971380869046
96,0.3406627317317289,0.33481209550490976
97,0.33670158460319377,0.3210906346858536
98,0.3341278685249394,0.320759763728001
99,0.3349458527484005,0.33240783529763346
100,0.33430640213638185,0.33741616099578897
101,0.3366279291758816,0.3274900836086499
102,0.3363328586689098,0.3277593489321744
103,0.3351043243345311,0.32348979820204044
104,0.3364871710205345,0.33457429059020344
105,0.3352704870400669,0.3313883002244683
106,0.33682101708855466,0.3335761402946057
107,0.33866769217139336,0.3203337105504151
108,0.33716479625156837,0.32428999763825983
109,0.33830645944860627,0.3178849788331195
110,0.34024430735172223,0.33128840700321155
111,0.338674946392564,0.3307699605105143
112,0.33886891730921825,0.32281226938224344
113,0.34072339327501167,0.3239757732650663
114,0.33951191396879066,0.337668948575278
115,0.3406415206494091,0.32905883735432434
116,0.3404910764176783,0.3260662189457674
117,0.33966100155163725,0.3255874207853424
118,0.34102154041318106,0.32194228419753257
119,0.33987188628680415,0.3236970159371443
120,0.340363620163249,0.32985753169093623
121,0.3412932351076727,0.3340003278515145
122,0.3392744762815541,0.3344639705313221
123,0.34129359770259504,0.3253832094153741
124,0.3410981921054762,0.33673434713362893
125,0.34152832841701647,0.32011031217714325
126,0.3391807929312678,0.3280564256559325
127,0.3401790084503442,0.3239398184919696
128,0.33826174450625807,0.32732718086844836
129,0.33742405632607564,0.32465252143807927
130,0.33807148742113563,0.3282648378361278
131,0.33779249754216933,0.32604234876741833
132,0.337634453134571,0.32144187521351164
133,0.3370570477178628,0.32616443229925945
134,0.3378964220043376,0.3204946230505994
135,0.33552355017307567,0.3155861916086668
136,0.33369585714465994,0.31834558231113647
137,0.3332548386496987,0.3162782270793569
138,0.33445970580684575,0.32098050122667504
139,0.3328106801906269,0.32162343543066974
140,0.33328537394007524,0.32243253258898585
141,0.3332067397739485,0.3135378177982667
142,0.33309429283622355,0.3215479550158404
143,0.3331841385002426,0.32389492925547575
144,0.33250287614709184,0.3161938422151504
145,0.3352198946914322,0.32626531659474783
146,0.3339752441139625,0.3144190190058575
147,0.33409953865406516,0.3300240393595707
148,0.3339218988025979,0.3191707323598598
149,0.3319893911611929,0.31040041347423125
150,0.3319034732098011,0.32769147881204536
151,0.3346183920483128,0.3244652170173371
152,0.3350710642995308,0.3192853859163403
153,0.336293218328322,0.32180152427707964
154,0.33476773008025235,0.32541885275773014
155,0.33460862279462394,0.3169080495081648
156,0.33420142163332706,0.31628532243132496
157,0.33347615312567525,0.3218937589365757
158,0.33273228792120796,0.320092412671802
159,0.33393957805957536,0.32657582703874916
160,0.3361496470219416,0.32567374472930477
161,0.33882500738691657,0.32736283648926723
162,0.3400811113113408,0.334859790817056
163,0.33912613654403473,0.3284583275207122
164,0.33996458506460286,0.32946356077220557
165,0.3388188464654912,0.32277466701351004
166,0.33842493248262184,0.32132770404537175
167,0.3382488962152688,0.33116438883726484
168,0.3382186435347648,0.32291168915350416
169,0.3372216243847764,0.322394292986854
170,0.3376869014937052,0.32079790449086004
171,0.336751238857623,0.3205355464141954
172,0.34029076319280194,0.3334233383541514
173,0.34104450039869305,0.32535311666735534
174,0.34196093945289785,0.3261620730702672
175,0.34205308800740397,0.33467902371332037
176,0.34180637409122916,0.33475413568017987
177,0.343568903769997,0.33659915643690513
178,0.34119651648256893,0.325287086952363
179,0.34019351268796133,0.3264141502630645
180,0.34295700881168617,0.3246980132366036
181,0.3408166587614804,0.32757578934847886
182,0.33655376009327426,0.3172835326843969
183,0.3357986523259839,0.3218272095274154
184,0.3358762269373611,0.323800700568927
185,0.33421770613685214,0.31595713798700586
186,0.33636022575324676,0.32524071150439504
187,0.3379557483988128,0.32757270453760917
188,0.339056265570944,0.32921455839344527
189,0.33967396707462366,0.3339864286316975
190,0.3425253981785427,0.3261520026844133
191,0.3424407350931236,0.33454905809053964
192,0.34347136323448185,0.3332429349469499
193,0.3441565753006154,0.3280348347554361
194,0.34517071863634885,0.34049200658828327
195,0.3460012063634195,0.3349166122495234
196,0.346446115181124,0.3310438432652083
197,0.3486333459996872,0.3422966417639671
198,0.34884896199051424,0.3326110651197637
199,0.3485065586537385,0.3400902335297525
200,0.348010562413888,0.34399708611530494
201,0.3498966544390106,0.3388777821668039
202,0.3481142393333449,0.33817147811097054
203,0.34930023564089785,0.33002429614879997
204,0.3492466819276817,0.33424392845937373
205,0.3480402231812001,0.34243099797214216
206,0.34804024023832464,0.33570083627666936
207,0.347840396358336,0.33203739205400307
208,0.3492448822223692,0.3373793805784001
209,0.34830532016323434,0.33602166465162386
210,0.3497032691582406,0.34256628750813883
211,0.35242128316208804,0.3390504980096689
212,0.3544450655138845,0.34528595016241637
213,0.3540182880265154,0.3458931032559396
214,0.3525920592361598,0.33630406557807985
215,0.35382248033627234,0.344946988803153
216,0.35094691835623754,0.33810142301252344
217,0.346898876029334,0.32861088259820403
218,0.34437604900077284,0.334132860825583
219,0.34629244611655874,0.3283134109642718
220,0.35075222347661267,0.3381490018909713
221,0.353530517942328,0.3479833987724527
222,0.3566086322640915,0.3398428415348893
223,0.35407178187303595,0.34498436954798617
224,0.35612952493601663,0.3424563252653018
225,0.3575895626029427,0.3479287210372648
226,0.36056458780900846,0.34896944904289756
227,0.3594441262247275,0.33903551932009734
228,0.3609160067890283,0.34905086287195136
229,0.36329322132608777,0.35651057045950885
230,0.3658464030920268,0.3547445074394169
231,0.3685858059201023,0.35690795965992567
232,0.36795990833704423,0.3538247894939703
233,0.36543330477534247,0.3476520568344098
234,0.3486571723608662,0.32489050838922834
235,0.3449688340715177,0.331813596512449
236,0.34592093906099564,0.33950079985745046
237,0.3468535775951535,0.34314821562902514
238,0.3452726629831427,0.3275555407521098
239,0.34294643908810557,0.33024054076507886
240,0.3435264291237298,0.32497629144573736
241,0.34243563588241116,0.3328090640345049
242,0.34489253286025123,0.33237767908736865
243,0.3487617296876191,0.34515504893018395
244,0.34552984553084765,0.3299976492031597
245,0.3506396116732026,0.3395041158656577
246,0.34962600379062597,0.3399557066227191
247,0.34816764145017526,0.33363720238349903
248,0.34810608944637506,0.3402816456372849
249,0.356907947112521,0.36419401810031854
250,0.36899469009072755,0.3560950224947158
251,0.36029927972123493,0.3535175043339793
252,0.3529504074943628,0.33601702219308976
253,0.346436170722655,0.3311259141331502
254,0.3446770851775039,0.33082199442452487
255,0.3437716687421242,0.3402934014420859
256,0.34114917203915013,0.3249105771837408
257,0.3399039711430967,0.3211381050339814
258,0.33908808152738523,0.32178208163712285
259,0.33875205311224427,0.3236463283259942
260,0.3384313928566391,0.32239041475677643
261,0.3393377461712614,0.325601301187592
262,0.3384599998938761,0.3243274582871886
263,0.3396412437911228,0.32625269668725126
264,0.3399857844380166,0.33199648089830386
265,0.3399562347564194,0.32710968192016976
266,0.3408003950076138,0.32991053828500627
267,0.3430062067761219,0.3221812392184371
268,0.34218787362011405,0.33480094268553445
269,0.34437509149098566,0.3275041717333218
270,0.34290234846986833,0.3337912337932421
271,0.34325063495422536,0.3309095635974887
272,0.34621251903944833,0.34137896806495627
273,0.34616689910467485,0.33034360768668936
274,0.3428542348001596,0.33825416560707455
275,0.34141863372733744,0.3255184394878577
276,0.3417204817374357,0.33414128229857054
277,0.34306346574466196,0.33324693196292177
278,0.34170010047469684,0.3436520362850617
279,0.3430313998155838,0.337631156007982
280,0.3421821088003788,0.3236633891323559
281,0.34210308521485727,0.34091633941681254
282,0.3426145182119952,0.3301300688013846
283,0.3446177712661757,0.3321775343113277
284,0.343790088340247,0.33546117463258657
285,0.34484286233484984,0.3430999043943756
286,0.3466904427198102,0.339113394740819
287,0.3461587697410469,0.3393475143055137
288,0.34525696479445167,0.33580476306702267
289,0.3461013789371335,0.3356929578786773
290,0.34723961310420964,0.3309892098924355
291,0.34460392683672963,0.3380494707902774
292,0.34450441245123636,0.3304305603020569
293,0.3439393020767293,0.32211338283513224
294,0.34406930615576053,0.3328761329496575
295,0.3429105348414559,0.3306512539557989
296,0.34413243925495207,0.3302340611474384
297,0.3432390435184125,0.3348950686752091
298,0.3444084915087568,0.32898876868370674
299,0.34325039385558126,0.32869676828102135
300,0.3439544484698229,0.3429551903855264
301,0.34077298557825036,0.3260581529601503
302,0.34192270628935234,0.320758973813565
303,0.34344550113169126,0.3291048384032667
304,0.3410311966634197,0.3340407436817955
305,0.3404991198167336,0.3312072753200591
306,0.339524044812345,0.3197613602420337
307,0.33971349917632115,0.32246286982424915
308,0.3382809941026328,0.32649021995001737
309,0.3383224669882624,0.32168981517593787
310,0.34222134991848974,0.32523805300551506
311,0.3423285402006192,0.328210948227707
312,0.33910943722601034,0.322598588283173
313,0.3391437176510775,0.3269788547350651
314,0.33971897253601385,0.3360162504376063
315,0.3396972137079727,0.33470856437743324
316,0.34058454398104515,0.3248611217704267
317,0.3410560977187374,0.33290708563698496
318,0.34278948203646403,0.33377451320849916
319,0.342545244738543,0.3236169135278854
320,0.340748493500846,0.334583025587386
321,0.34210737629664795,0.32845408780516466
322,0.34174508949835525,0.33383665041558463
323,0.345285652960233,0.33409679192393993
324,0.3422657180246975,0.32506673650752865
325,0.34244445972829507,0.33511236462897925
326,0.3437456904555396,0.3334006778631233
327,0.34731739552186836,0.33757337970157825
328,0.3497857868576126,0.3357050016157817
329,0.34727277665687123,0.33529519938350005
330,0.3495982646894493,0.34391968487376007
331,0.3490782450619552,0.3326172072208107
332,0.3484064665177076,0.33270120721871965
333,0.34478537569181333,0.3259817110146701
334,0.34706709504746897,0.35290219168448506
335,0.34871887543695057,0.33928152293131497
336,0.3479160856214359,0.33704594186938647
337,0.348611938343536,0.3344800002996434
338,0.35033747204821364,0.3434220664879423
339,0.3499351647570074,0.3362085583554353
340,0.35956992703280766,0.350082989038213
341,0.38209889698133387,0.35950864288123835
342,0.3735408599880769,0.35025498376837283
343,0.37170941919255124,0.3758935945986196
344,0.37000171383984276,0.3642485342866902
345,0.37981158232898543,0.3650718182442973
346,0.3628363440172087,0.36089916432007335
347,0.37017385942711056,0.3775501527368505
348,0.3748131252402406,0.3574400745514536
349,0.3637095002366675,0.3549076998525467
350,0.3642122415091685,0.3479156866963679
351,0.35737032512966677,0.35037016104127633
352,0.3546949115802916,0.34163555573457416
353,0.35417138726162395,0.3437965933318767
354,0.35418992282913553,0.3397315256032966
355,0.3533382315120156,0.3382431790879512
356,0.35633951585165125,0.34448796837651646
357,0.35660993743190567,0.3452389816082455
358,0.36007292596079843,0.35321608827917617
359,0.36303611432048055,0.3591792543713465
360,0.36552480023970707,0.3521310743753046
361,0.36878485490473434,0.35554192639187554
362,0.36138533364287573,0.35059773152798485
363,0.3533991629676186,0.3572308745267547
364,0.35418149221429435,0.34445068555359964
365,0.35473341012982534,0.3376478842844056
366,0.3537843687642964,0.3572467920718084
367,0.33736789097888864,0.3162662728197855
368,0.32702181118426565,0.31772021755235064
369,0.32297666968820954,0.3215757355787854
370,0.3212007085601393,0.3045813663323846
371,0.3210054937002661,0.3068709744180199
372,0.317824300578077,0.3114500625122224
373,0.32237340309779994,0.3158970672075637
374,0.3245469991156428,0.3147029025214059
375,0.3229981564122329,0.3104080349418622
376,0.3227383199093534,0.3041373851643647
377,0.32086195612697005,0.30856242815904383
378,0.3171500992908371,0.3058585459638413
379,0.3163783396724507,0.29557105012079254
380,0.31859642381576614,0.3021229571635646
381,0.3190892310999185,0.31591817567267566
382,0.3163996486902999,0.30563685794279344
383,0.32034638915940533,0.30561082240344034
384,0.3200812151225255,0.3055763588284731
385,0.3223803578425559,0.3056418271683856
386,0.31918710946655576,0.30845194431676015
387,0.31906882263154246,0.3016512367606822
388,0.32033888161849444,0.306710509822984
389,0.31775631197541354,0.29905633272010695
390,0.31950748644525007,0.30853594629051373
391,0.31707107501445436,0.30164815267899325
392,0.31515740509704054,0.3068453762694993
393,0.3108740749595453,0.3082933054726803
394,0.3089873050804809,0.2939227124368853
395,0.31024953026136903,0.2909690892734016
396,0.31477562311313134,0.30171640420769175
397,0.31700142592691977,0.2940535017516355
398,0.31709090630404,0.31345479614920946
399,0.31806009190736245,0.3040712142940949
400,0.32186859634092196,0.3110136779961665
401,0.32472221500915494,0.311558624163517
402,0.323623751171773,0.3175783150762484
403,0.3276909359520097,0.3230508284109638
404,0.32988528900152203,0.32462951896128545
405,0.3305284907277539,0.3243030920071967
406,0.33058705044497877,0.322230795211649
407,0.33385107620395155,0.32134758372333166
408,0.33440520442265875,0.32002891516629034
409,0.33466803135393525,0.3288039118639578
410,0.3369390867668376,0.3185500699935603
411,0.3388685676500761,0.32834829400633864
412,0.33830568966248054,0.32567139545010126
413,0.33983370584311434,0.32413206170088865
414,0.3405527300018963,0.31989913320296753
415,0.3420793898552537,0.32115355623267067
416,0.34442710060533954,0.34480785940139425
417,0.3440327327862251,0.3442252490731234
418,0.3329541658123525,0.2668456550813982
419,0.2669893368352041,0.22112981275300295
420,0.23479967702516644,0.23230243314883797
421,0.27713172507586237,0.2626824011201452
422,0.27516926568951444,0.25540994321773064
423,0.27475875692902135,0.2735894604306007
424,0.277192152190885,0.26189500149912787
425,0.27814634909018054,0.2746457916103015
426,0.2790066913770829,0.2664889421228734
427,0.27915832563508136,0.26375577564115305
428,0.27925607635915806,0.2596729922078215
429,0.2795870843515408,0.2722941949293194
430,0.2815339336816451,0.26669939119889213
431,0.2824630527902278,0.26419659051823635
432,0.2840510920988475,0.27763676509296414
433,0.2840959372268402,0.2795084316780366
434,0.28501997396742984,0.2754788123182923
435,0.2853674063865515,0.27299011328743494
436,0.28384878982504685,0.286234511784333
437,0.28668615796702274,0.2765537060638441
438,0.2841764576048207,0.27895107219655774
439,0.28320763161857065,0.27315474693805286
440,0.2815939500916014,0.27221398083779785
441,0.28378983782969125,0.28048506689617364
442,0.2851728248617632,0.278283699029717
443,0.28628585942024043,0.2762522525738428
444,0.2850145627018645,0.2768071769562498
445,0.28574127734279176,0.27718626561368087
446,0.28549040839683526,0.27837291905610884
447,0.2872670746261744,0.27298601246905685
448,0.28654522394581283,0.2733052260379859
449,0.286012187397642,0.2775163139027691
450,0.28365837759989726,0.26782651656052214
451,0.2852186660924785,0.2785003912688807
452,0.2865496358627991,0.2841246551477542
453,0.28711263254749403,0.27047845096736794
454,0.2906340911007709,0.2886164699281965
455,0.2931285810401495,0.2754823843042213
456,0.28867655201590986,0.2834154943970121
457,0.28949733580545267,0.2874232717123009
458,0.2942062799962495,0.28194209159408484
459,0.29636774671902,0.29200128732277075
460,0.2923235711243322,0.2831256078892838
461,0.28536471391586565,0.27528921730563505
462,0.27878622698197836,0.25579926930220936
463,0.26771567008502,0.2615819902239395
464,0.26202615451136174,0.24762993949835188
465,0.2550947224553064,0.26044215020836103
466,0.2552068550571454,0.24359385490464525
467,0.25601942517417225,0.24179421786304148
468,0.2610905106536014,0.24389837222392857
469,0.2605360742036006,0.25200099057584835
470,0.25609076782453544,0.24347906333306876
471,0.25424920510259463,0.24027359505619886
472,0.2536958795276096,0.24515852000455549
473,0.2520019720426852,0.23885261534985916
474,0.2527269511688337,0.24223148171226153
475,0.25354608456246097,0.24044847232013963
476,0.2521831386511941,0.2351902066696885
477,0.25496706732814545,0.2452516789476798
478,0.25460254108543684,0.24256884665967163
479,0.2542070624091738,0.2540857189503258
480,0.2578623522635844,0.24651276416071025
481,0.2615421346658997,0.26771772681678857
482,0.2621432104282718,0.24573655832256025
483,0.2620674968480492,0.24667773975004995
484,0.2641847539934323,0.2546868532096295
485,0.2631008093365186,0.25822490227909284
486,0.2648735889475599,0.2550377115995374
487,0.2654617937158147,0.24340947556890835
488,0.2635311411379529,0.25460471931459777
489,0.2627920990141271,0.25403048961343216
490,0.2640207471142856,0.25576678234804495
491,0.26354744525359786,0.2508378364527988
492,0.2598041203930128,0.24638161707695957
493,0.25812225628027813,0.25449310350154647
494,0.2584164090198483,0.2483208190999637
495,0.25531528712653045,0.23326863581351437
496,0.25478913847038404,0.2388736607408373
497,0.25405609698818743,0.24535955810932636
498,0.25233970933275923,0.2450317691161864
499,0.2513684895243957,0.23702267456826207
500,0.24960365048725067,0.23505879517559378
501,0.24929003455608392,0.23498547406486384
502,0.24520957999401907,0.23347382302724573
503,0.24425512421235954,0.22337121021916947
504,0.24074046113055578,0.22938391952036682
505,0.2394126634851253,0.2313599962485335
506,0.23980175553084754,0.2314178484602998
507,0.23751580101146783,0.2184842893149595
508,0.23115213771017906,0.21977866655649306
509,0.22995808169090873,0.21789871871283228
510,0.22960736387544017,0.21516340869848616
511,0.23015999359835823,0.21341688642844311
512,0.22895910322285004,0.21271733615044636
513,0.22898811475931408,0.21158441557786364
514,0.22958610593962916,0.21757329301798353
515,0.2328633466999022,0.21691878679801652
516,0.23127915255790896,0.22234296923372437
517,0.23152824491858007,0.21555998652067915
518,0.23273763870544953,0.2224041494381362
519,0.23318664924942142,0.22075603961144832
520,0.23119908522406546,0.21849357165637315
521,0.22932427461079652,0.21864969842576942
522,0.22794233158314162,0.22212862046384022
523,0.23057843494019825,0.21882549114084282
524,0.23045240811926188,0.21937786237922538
525,0.23067455626815725,0.22058629788511272
526,0.23135212048900117,0.21272690745912956
527,0.23110604993135428,0.21627812904923943
528,0.2298488561495793,0.2150122797221016
529,0.23100615388078752,0.2188251864961874
530,0.22767009843382047,0.22619266786863226
531,0.2271030137031008,0.21345896927173813
532,0.22502525721927533,0.2152034871297835
533,0.2235189690221128,0.2047579059849222
534,0.22444254248071727,0.21407422150508004
535,0.22477056938324044,0.2129538423119329
536,0.22465324848532964,0.21473635641391953
537,0.22609175215784214,0.21964075381631634
538,0.22783472324065643,0.22222842738302845
539,0.22750907600950376,0.21555695812722878
540,0.22651174558485918,0.21670367819828223
541,0.22549487209672645,0.218435729182698
542,0.2272676791873672,0.21583632623810606
543,0.2270318424339584,0.21005723190853326
544,0.22857408500689683,0.21152418609576237
545,0.22770630711798284,0.2172780819619464
546,0.22979404940474615,0.21954869178447933
547,0.22876974326862895,0.2150979515197433
548,0.22917852385772122,0.21440850885110102
549,0.2307201689607996,0.22283639738243588
550,0.2285849152268361,0.21762372411040687
551,0.23015461621476974,0.2195761912952941
552,0.22831310933347132,0.22195372752251358
553,0.22714092007143605,0.2115411098749504
554,0.22661915275571254,0.2129207589349694
555,0.22875831492965837,0.21215313882364847
556,0.22733750653495605,0.2154449456516174
557,0.2276304636141665,0.21714684468324297
558,0.2255122312348333,0.2083824173780342
559,0.2233116915888733,0.22656954094567633
560,0.22458744083019755,0.2203710196567692
561,0.22715289081386525,0.22196944208481975
562,0.2274585242251412,0.20891358257045686
563,0.2272624170048822,0.22995029516876825
564,0.22888786906151654,0.21663154032443016
565,0.22736743051442596,0.21505634920655411
566,0.22774609434995338,0.2128917979224987
567,0.22741049558496018,0.22264259832528227
568,0.22828923856659378,0.2272423863316862
569,0.22462044761692593,0.2310950580011133
570,0.226487383579941,0.21467571389797455
571,0.22840800248890472,0.21579198667451727
572,0.2254718386833902,0.21800707598182284
573,0.2242497498992917,0.21662115859016245
574,0.22446813751801217,0.20619455083393165
575,0.22177235553447577,0.20121705579117893
576,0.22308701205906345,0.209868111533731
577,0.22043376765567527,0.20566451649498357
578,0.22251653854104636,0.2141044770132959
579,0.22740762746281665,0.2182050790952338
580,0.22846550732064877,0.21352111678144173
581,0.2281101063656197,0.2180740197836741
582,0.22869381140009296,0.21275074636503383
583,0.2276470749962816,0.21348331841598275
584,0.2275472726765201,0.20645760125594526
585,0.22618385820056228,0.21217364770225774
586,0.2266856831052511,0.21136062559925295
587,0.2260972323189441,0.22338439795852366
588,0.22558733446897267,0.21269783549357701
589,0.22319341725487407,0.20684401620394052
590,0.2216020918352236,0.21705417896032145
591,0.2236698441844669,0.22140773915595302
592,0.22557381020604278,0.21057510777025967
593,0.22308456708939908,0.21076798506063463
594,0.2238373140648877,0.2039120176832038
595,0.22269807586209667,0.21461860790860493
596,0.22364166002574679,0.20709641961102987
597,0.2226094980057862,0.22096130665870944
598,0.22220344624692778,0.20882418814049805
599,0.22193924396586934,0.20728283854761553
600,0.2185420437896852,0.21079011447286644
601,0.21847893681219346,0.20075903776459744
602,0.2162386238169994,0.20583890180890732
603,0.2154515643330882,0.203376405805514
604,0.21933705032133846,0.21072983294843028
605,0.21922321231673947,0.20448866112550226
606,0.2204283585996746,0.20770950925895898
607,0.22433706182393906,0.20657820031693722
608,0.22433856800258112,0.2169813198679154
609,0.22435563783660875,0.21002681067635343
610,0.22281729242951273,0.20761093901854005
611,0.22305807721414725,0.2112423325017765
612,0.2244945830173439,0.20625156867475894
613,0.22403961417081353,0.21236518151240735
614,0.22421769923467239,0.20917585567404365
615,0.22225539217130552,0.20644577007502576
616,0.2247497474880432,0.222605083646413
617,0.22548997733328077,0.21594772771906456
618,0.22677632030561198,0.2104614834171068
619,0.22850954787527247,0.2118308771969111
620,0.22479312652520997,0.20585695030233855
621,0.2261885780629685,0.2030596857053987
622,0.22594650887804543,0.2101190629773189
623,0.22567048189427547,0.20724290458819203
624,0.2243301782378857,0.20798947333395718
625,0.22236731659760958,0.2106101906548924
626,0.22252100068840572,0.2143029568815382
627,0.22431627917680427,0.21382588170462927
628,0.22276827001528773,0.2119698398397396
629,0.22446821882522744,0.21546383291459403
630,0.22203979519107264,0.2155578227003635
631,0.22594818845689058,0.21773738751001215
632,0.22565409767446662,0.2139367865899838
633,0.22613238077536285,0.20581817217671033
634,0.2251347524168299,0.20894006560332398
635,0.2264874560965432,0.2111745152354899
636,0.22551542765897908,0.2085391642450816
637,0.22492754987651686,0.20621485123741598
638,0.22683644608008585,0.20847571738234824
639,0.2256229085197075,0.20728451307589554
640,0.22607895905236833,0.2175264123418525
641,0.2245433379074843,0.22014209482269015
642,0.22415825626332697,0.21253456290584902
643,0.2237287242111447,0.2030688984923788
644,0.22006690705851686,0.20582279891081465
645,0.22185179644184624,0.21534287254454682
646,0.22305205609682177,0.21411537118520715
647,0.22334942181738351,0.20599976098480993
648,0.2249663273255221,0.21132361303188713
649,0.22229630464344002,0.2126757511258972
650,0.22428051402552618,0.20997520908419318
651,0.22343205792798126,0.20403242973285862
652,0.22290778821773477,0.20734750918732353
653,0.2225496057840846,0.207890815462479
654,0.22296089977978897,0.21426766568643424
655,0.22245376838220776,0.21238129918229043
656,0.22358810166708476,0.22029995965317845
657,0.22439300255190364,0.21245407893512788
658,0.22459763826893198,0.21473712268878647
659,0.22501466372649637,0.20733616762774706
660,0.22255392953288927,0.20221212765035804
661,0.22189830321607162,0.2178462614505989
662,0.22408272890592937,0.2114161759873686
663,0.22343836011265297,0.2048140226759681
664,0.2209059996284741,0.2053107462982164
665,0.22297252556807895,0.20499347472576618
666,0.22226515686292825,0.20347948068930768
667,0.2233035242993483,0.2138072220283695
668,0.22219480900503366,0.20449412394764863
669,0.22198199724360146,0.20351994827966005
670,0.22317445073291647,0.21598124976880737
671,0.22379162737267386,0.21637063116517327
672,0.22205446953539082,0.20874601432020118
673,0.22201493293118418,0.20958524387279834
674,0.2214681594420394,0.21501457528891108
675,0.21893983604691677,0.21392641558172953
676,0.22149020891419227,0.2097968393503067
677,0.21810350757089259,0.20322381359860947
678,0.21541723924027167,0.19580665617687268
679,0.21321113052056562,0.190578785425768
680,0.21016549077823007,0.1915720139042825
681,0.21193113334054092,0.1909979011307764
682,0.21041000643960958,0.191311874795167
683,0.20897796246812023,0.1966893971671998
684,0.20917417025632806,0.19646094841757625
685,0.20834417325510776,0.1894466171560084
686,0.20707534884901452,0.19436775581895036
687,0.20647287875604478,0.18862044543098444
688,0.20580525667690258,0.18952246294919203
689,0.20652998515742002,0.18718033939623513
690,0.2049557509468042,0.18711832752590962
691,0.20257388756310435,0.178436477351772
692,0.20278457830325783,0.17894738711469646
693,0.20167673176093448,0.18799613600842296
694,0.19900018594366944,0.19013759999549945
695,0.2008721221038859,0.19883617070733606
696,0.19913415903215118,0.18511780120297125
697,0.19846800884468663,0.17649576952350168
698,0.19863235531784265,0.17985002912916154
699,0.19783613830804825,0.19010020981836057
700,0.19795153740879826,0.1872810550510366
701,0.19834617420518807,0.18119367117381227
702,0.1980592181428159,0.1757146511712033
703,0.1967480054361929,0.17775118056958175
704,0.19790466820641006,0.19060674657855528
705,0.1950624102739979,0.18113503136452297
706,0.193713110902136,0.1761804246112128
707,0.1942106716745763,0.17244831208601277
708,0.1943648133715756,0.17509931459987643
709,0.19456926095399926,0.17220452313782572
710,0.19547142813221918,0.19441085060045488
711,0.19534466043412446,0.17781374988681986
712,0.19421838010124545,0.16699897866599092
713,0.19388615500202758,0.1893582552342125
714,0.19487545758390504,0.18076569188883104
715,0.19600188127048104,0.1831176982988216
716,0.19450172055348885,0.1850099765064214
717,0.19357646203679527,0.18124895276473843
718,0.19438302083957873,0.19088958364917993
719,0.1972264764572886,0.18537486766207
720,0.19771119702062448,0.19006141802647403
721,0.19902235456555487,0.1789480678872415
722,0.19800417197884607,0.18230810766156114
723,0.19866076202915728,0.18577454657232845
724,0.19656587944780704,0.1742018570369308
725,0.19630608783899356,0.1955439040485855
726,0.19537303977304224,0.17694608066245712
727,0.19707588444082,0.18985546370284614
728,0.1972722595901512,0.17626705822176883
729,0.1955982244891419,0.18320073060332648
730,0.19600015518357522,0.1807030214271681
731,0.19579246341824819,0.19092343561792335
732,0.19713148446105938,0.18343742110640776
733,0.19684002817653828,0.17579318699445326
734,0.1974416464138374,0.17945409250381714
735,0.19765103651846436,0.18917356484408632
736,0.19439877612556486,0.1854730366296249
737,0.1977364645897151,0.17235443187729055
738,0.19512225542780307,0.18206109692237465
739,0.19577730095072043,0.19254210325518084
740,0.19559390706529053,0.17968585149876792
741,0.19419260354612847,0.17142940313212027
742,0.1968095451116943,0.17506514142701826
743,0.19621000450244433,0.17537273912328194
744,0.19588717393618787,0.17510453562804254
745,0.1957198334671706,0.1831597571497182
746,0.19763515126719464,0.19164935440036757
747,0.19685275912832775,0.1771326255356127
748,0.19669584856092406,0.19134228471328446
749,0.19702442756874097,0.16520647551708553
750,0.1936951612325595,0.17927927151616388
751,0.19345165168543418,0.18084021999361766
752,0.19521083070529546,0.1758225132088635
753,0.19640874350480705,0.18221775277120067
754,0.1958686758955415,0.18561227224479065
755,0.19344124576146846,0.1910841340094734
756,0.19539259874420487,0.17837010555692612
757,0.19468659447799389,0.1729176588644639
758,0.19405668815501112,0.18665581478222018
759,0.19306813098257966,0.17060560521970325
760,0.19430023249533537,0.17846504428909818
761,0.19414034565027766,0.1815869057728911
762,0.19229937844472728,0.16699590084114316
763,0.19335433108796127,0.17591575813650992
764,0.1932966560006237,0.1676742622089273
765,0.1926674609073251,0.1650737126041042
766,0.19146055031380207,0.16450270876323697
767,0.1917895268526771,0.17288874507232643
768,0.19386394529176845,0.18370572063004584
769,0.19258031057272787,0.17563126335580612
770,0.19333090798126804,0.16950816285356163
771,0.19055692236915195,0.17958227691447162
772,0.19282048067552962,0.18632291376167334
773,0.19567108539035089,0.17580756173419876
774,0.1925093072364561,0.18035733839754242
775,0.19176257586331485,0.18975487637209346
776,0.1914966405093146,0.17345743095347896
777,0.1936997751609313,0.18469739715321007
778,0.19294735444463987,0.18057463257540468
779,0.19329553254716975,0.19452959958878482
780,0.1917501689492465,0.16763989179267974
781,0.1927389470185879,0.1835696636313233
782,0.19525908822302435,0.17190522301262914
783,0.19305154970652766,0.1787507899911176
784,0.1924448526210541,0.18079781428790978
785,0.1904229504837216,0.18112197031444138
786,0.19482478060477454,0.1821156372775595
787,0.19154192569801848,0.16421275038416214
788,0.19318292303670415,0.17887689820075467
789,0.1913528408852222,0.17221886506443806
790,0.19272421834041936,0.1782580032627133
791,0.19116692858443654,0.17625852262023498
792,0.18851413147793494,0.18436116483518245
793,0.18886396742100528,0.18966041527682623
794,0.1903644321050099,0.17460337936313677
795,0.18990516772778104,0.17347151578507652
796,0.1909764018728674,0.20525465949181976
797,0.19127568509057463,0.16271176122734654
798,0.192554359581116,0.1746051918947518
799,0.19206641506638936,0.1831328225540381
800,0.1940847206577885,0.17627988562822908
801,0.19206148361583217,0.18038731224205706
802,0.19315270813916036,0.17973084434949232
803,0.191011431131908,0.1790508968254291
804,0.1933781526667132,0.16595007755573848
805,0.19215034323630573,0.1765048296294442
806,0.19412886609824345,0.17633403290795263
807,0.19127175514455988,0.17355970997178094
808,0.1936040003296378,0.1705503299326622
809,0.192595749480023,0.18693249543868565
810,0.1896516845511685,0.18574448156846068
811,0.19189698536166375,0.18201542794469217
812,0.19081228631410857,0.1944445311411592
813,0.19252786597164034,0.17730288642687222
814,0.19221204369188213,0.1767027584957907
815,0.19187447736612995,0.17235459936540148
816,0.19086281506182384,0.17929226537576884
817,0.18914366238932911,0.1775736642829433
818,0.19064599470340376,0.17211587708252288
819,0.18972104282783184,0.17192880749326103
820,0.19036849677491247,0.18176253477512802
821,0.1927025468169833,0.1917887280894342
822,0.19336029068290664,0.1763620531949455
823,0.1921636584422571,0.17029699752579172
824,0.19215123222576533,0.1770786546823446
825,0.1926000002238581,0.1863389287699652
826,0.1912124029857268,0.1858691491286587
827,0.19116734896751522,0.1726468019158048
828,0.1915543488413691,0.16493547817761256
829,0.19135118898847026,0.20097421771819515
830,0.19326622101018945,0.19389098072343675
831,0.1907426763078768,0.17398365835740798
832,0.19074862736830417,0.17856710979857593
833,0.1919772433017274,0.18558770309966102
834,0.19214160862467367,0.17221481481827236
835,0.19122397195068386,0.18004646257518686
836,0.1944570607430548,0.17637088780762553
837,0.19212400934083476,0.18655751932532935
838,0.1910142700711219,0.1765220264280134
839,0.19328396156918612,0.18780608434044854
840,0.19283011650962892,0.17846349822599866
841,0.1937597390952156,0.18542798231602092
842,0.19532185700014054,0.1702520632917898
843,0.19419330063698104,0.17915422314720636
844,0.19568971671956145,0.18693308712180995
845,0.1968439885204454,0.19173064609164786
846,0.19469114267926135,0.1742295223540364
847,0.19454207708485882,0.1656623439658977
848,0.19455492664441215,0.1822326851342735
849,0.19482346359107325,0.1758535645002442
850,0.19582370788954812,0.17915139249110654
851,0.19650849060927458,0.18605369265943225
852,0.19368021626123708,0.17689018407814505
853,0.19289896511536042,0.178132716263479
854,0.19347330153607828,0.17434744987322198
855,0.1941798888533998,0.17572654082771352
856,0.19439398458035445,0.18149694589855356
857,0.1932095904096806,0.17221256119111625
858,0.19410624341975205,0.1802862730544669
859,0.19330088803164966,0.17779740724115742
860,0.1946740956317416,0.17935502789061936
861,0.19757212921202802,0.19343457545647022
862,0.19575386057249744,0.18410906459086507
863,0.19461836941617666,0.17906790951762316
864,0.19518785412124784,0.18482439969126033
865,0.1951610109538769,0.17818748075941368
866,0.19520021347905234,0.18259478806743681
867,0.1969047325442163,0.20385358983028942
868,0.1988415668765418,0.1849907131508381
869,0.19633261555080697,0.19890056902156067
870,0.19704466764565756,0.18939953376763244
871,0.19379842691093707,0.1787532746039137
872,0.19352233150808645,0.17206025404683606
873,0.1932304755663224,0.18180153717087683
874,0.19578617883862542,0.18172456716917215
875,0.19466520149073155,0.1814294136360864
876,0.19376469588132023,0.18345446767022314
877,0.19327776350801606,0.1779098060649497
878,0.19426684817678921,0.1888598792413698
879,0.1954256140952297,0.186205021901778
880,0.1928750911204935,0.19460697548541858
881,0.1953224897396555,0.18075394597501385
882,0.19506941348028412,0.1812869669794566
883,0.19637984606168635,0.1794583816507621
884,0.1966925074906944,0.18649670532254037
885,0.19299715919365032,0.16903619537601908
886,0.19209639658983185,0.17465212003819663
887,0.19296852240769222,0.17151830331867102
888,0.1909100529518154,0.17642045282150876
889,0.1914656234742831,0.18508666467977117
890,0.19391580011776025,0.17977181153449848
891,0.19215654063043738,0.17281970743974928
892,0.19331364123393402,0.19848238103438665
893,0.19366212562619925,0.18166517290480041
894,0.19241174555225052,0.1759805618164195
895,0.19326427513413388,0.1737000392874866
896,0.19268823498420767,0.17797493968738187
897,0.19372996873111367,0.18226604477664854
