epoch,loss,val_loss
0,0.04447787479280552,0.027697255436525157
1,0.02509909007002699,0.022451456635266025
2,0.02263292412854077,0.024526281255498418
3,0.021717001397948892,0.02103071509867389
4,0.021143757781349023,0.021417498674530248
5,0.02052301179893339,0.019443385666305612
6,0.02003290530048805,0.02168446794688406
7,0.0197597548517541,0.020432301667096007
8,0.01936201089664153,0.019020773144092215
9,0.019006888808658674,0.019072365307852293
10,0.018623575150218834,0.019491761149122166
11,0.01840258017510207,0.018122524531470337
12,0.018084968513176616,0.01768623519568674
13,0.018285266544009568,0.017875668016394078
14,0.017978615399008666,0.01828937421809355
15,0.017776563757159938,0.018565486459334198
16,0.017587625573457725,0.017048766751480163
17,0.017336935285768774,0.017351585616433886
18,0.017445383723448796,0.017841464667477026
19,0.017148772246808868,0.017271992408903893
20,0.017026369676559017,0.017172225926616796
21,0.016898133531645182,0.01630696108329015
22,0.01692205796639223,0.016644543034045334
23,0.01680537319723322,0.01673799606303571
24,0.016659178636990124,0.016199466936456654
25,0.01659060396567178,0.01650983754813523
26,0.016503975062680285,0.016370596799065842
27,0.01648405243813545,0.01566552731575948
28,0.016385043847308222,0.017111566525978724
29,0.01639788712653384,0.016250794652673803
30,0.016305541438499153,0.016944219643901803
31,0.01631754805084433,0.01659096929870971
32,0.01623370528862645,0.016523752047705738
33,0.01616125308385221,0.01666596092782896
34,0.016153865276819997,0.015988038978527852
35,0.016116110613109066,0.015490553831270256
36,0.016016315692165717,0.017098833155580254
37,0.016553161400356557,0.016462275985785514
38,0.015986885516411094,0.015473237938753725
39,0.01600076904607484,0.01700910892309829
40,0.015940613643916933,0.016335057840675633
41,0.01593986425632457,0.015407733239751153
42,0.01585371917084401,0.01711584672599883
43,0.01582391668615492,0.015505714096110453
44,0.015787597998710576,0.016545329872454072
45,0.01577833680082842,0.01625804337799993
46,0.015738369570531686,0.015638355064961515
47,0.01571659396844442,0.016453991556729632
48,0.015635894765619805,0.015470854266923356
49,0.015658216113787527,0.016909446113421663
50,0.01563644424526093,0.015875559127323385
51,0.015615363199332785,0.015410155550144595
52,0.015546016673720908,0.015882069048085815
53,0.015539774856953644,0.017077546758997825
54,0.01557132064950272,0.015678025251508645
55,0.015535882666059805,0.015464573649333666
56,0.015487488316640806,0.015158664596454234
57,0.015431409518080573,0.015625571054649116
58,0.015412105943667109,0.015358254830202749
59,0.0154746541060056,0.015572945718138153
60,0.015386420978858291,0.015497044769691179
61,0.01537517131694618,0.015716030605821395
62,0.015309152534202874,0.014933353603329907
63,0.015353500185522846,0.015362571986858958
64,0.015345914069740587,0.015352649486649125
65,0.015343264957601228,0.01485633183612717
66,0.015301598932647948,0.015252257616400127
67,0.015243135523315528,0.014884943765571928
68,0.01527466334571814,0.015827680257132864
69,0.015259598276693662,0.01613032967129505
70,0.01518689314410347,0.014992587140786736
71,0.015256759078844833,0.01551192070059386
72,0.015182050711836412,0.015565934037748105
73,0.01528827865420924,0.014656433016154222
74,0.015165009165223113,0.015141065296700812
75,0.015166393180663769,0.015169945723439564
76,0.015179091946434464,0.015682355616768597
77,0.015117448908590354,0.015318647412948366
78,0.015132135272467213,0.015476797636200862
79,0.015152345572671578,0.0151428688881415
80,0.015145558509102784,0.014815306519308399
81,0.015107141081016719,0.014808365506658483
82,0.015102726610829799,0.014820053370174936
83,0.015118407446365167,0.0147550656513378
84,0.015071572518854649,0.015006251609133136
85,0.015103565013625213,0.015823613872136873
86,0.015107555081836746,0.015011798555757065
87,0.015087356519555667,0.01500183615195692
88,0.015048778034143489,0.015063432307807595
89,0.015043268016220544,0.015018580211026053
90,0.015045711147294595,0.014840973958964679
91,0.01499535328290276,0.015120261594209422
92,0.01500533886815726,0.01476270770769631
93,0.015051188328310188,0.015828898203358165
