epoch,loss,val_loss
0,0.051836334621994155,0.02700180927148232
1,0.023982902331944115,0.0226988690274377
2,0.022383643948829968,0.022897031049130868
3,0.02217663098787047,0.02573432253567368
4,0.020869539252701463,0.02120341148791331
5,0.020008668589193385,0.022347748771346827
6,0.01966057150720202,0.021951088679043884
7,0.019364445583975678,0.019562403181054754
8,0.0189781827264379,0.018729741781691168
9,0.01871409719483931,0.019215454754625303
10,0.018540097109271274,0.01912663402428698
11,0.018184241464984253,0.01803997986887584
12,0.01811918475969726,0.017900409055850643
13,0.01790077719769933,0.017828241963096646
14,0.017584686507005436,0.017672239830971652
15,0.0174379538366371,0.01747663216318741
16,0.017329147493346957,0.01750463362108389
17,0.017339398851534973,0.01734110218733919
18,0.01718734240441423,0.01670919969058584
19,0.016979024518292116,0.016969627728015555
20,0.01696265709991246,0.016946786334715025
21,0.0168475449144447,0.01668131086355995
22,0.016799151545107718,0.016347699695574144
23,0.016661954384484333,0.01682152216861177
24,0.016682951286198677,0.016941195767992186
25,0.016591832355595422,0.01733701820751056
26,0.01644231558125709,0.01763615833165554
27,0.016477197611109176,0.01688673386521286
28,0.016486262069023296,0.016338677876270736
29,0.01641140512899139,0.015734957441428755
30,0.0163777527719687,0.016521921100339877
31,0.016345371672700795,0.015670690118397584
32,0.01622556573796936,0.0165298590598346
33,0.016232969007931673,0.016369044602324
34,0.016151417539420867,0.015939495321501868
35,0.01620133311021623,0.01628954542278504
36,0.016075263418152422,0.016932117562768773
37,0.016082867325670398,0.016594383168605065
38,0.016043409373583062,0.01623886774615304
39,0.016013592471765134,0.015779813739561267
40,0.015963317830285106,0.016232041494167473
41,0.015946374064616884,0.016625551744445088
42,0.01600297559271852,0.01683654342234948
43,0.015843637725884728,0.01579494692625538
44,0.01588476835465141,0.016475262475331723
45,0.015792523332096856,0.015609337232322907
46,0.01584135205129646,0.01693242935292774
47,0.015812291437480825,0.01570511255598172
48,0.015742034835468804,0.015827027990230853
49,0.015723684610818255,0.01569228366239195
50,0.015662102087889644,0.01590455856322133
51,0.015631992527064223,0.017046394979317786
52,0.01566087521520302,0.015464131777214058
53,0.015621297738023709,0.015497029253810865
54,0.015603205394056265,0.015883832507149753
55,0.01554046329158437,0.015503149173654635
56,0.015556271460230073,0.015254253912578446
57,0.01554862543647396,0.01591000393005296
58,0.015517896109778866,0.015311389452969613
59,0.015539623227726378,0.014963776865978691
60,0.015474507602275596,0.015658011015680234
61,0.015461793298796355,0.015156782698579521
62,0.015407072602117001,0.015275406470480687
63,0.01542571439541731,0.01523606342959123
64,0.015395690567875374,0.01536393454737462
65,0.01540452726528955,0.015541218395897236
66,0.015420646566657384,0.015280679711337125
67,0.015341820975234137,0.015097390272869514
68,0.01534754254496385,0.015322247374497779
69,0.015346575224573484,0.014991366082141477
70,0.015272396816001699,0.015258209309344257
71,0.015334667408617084,0.015246480267966355
72,0.015312907045629924,0.01571242276800995
73,0.015263070895656254,0.015127672415883014
74,0.015242860801237436,0.015360977514080758
75,0.015225224002082628,0.015136703126890487
76,0.015219264208417162,0.015019336680676003
77,0.015234544694136641,0.015463510965905326
78,0.015254066057756734,0.015363304614650996
79,0.015193059424127983,0.015279382478824767
