epoch,loss,val_loss
0,0.6695527565894045,0.6671546672768983
1,0.6669402958600192,0.6671692836077574
2,0.6670209161310217,0.6674315711700591
3,0.6669588153539067,0.6669253594230481
4,0.6669499336615369,0.6668852213298713
5,0.6669208951022967,0.6669843743220156
6,0.6669001075333908,0.6668751534693886
7,0.6669310757335477,0.6668788407044138
8,0.6668907036525541,0.6670218857878787
9,0.6668802602563316,0.6668142480826555
10,0.6668845704725728,0.6668446237632714
11,0.6668692917458785,0.6668374200021067
12,0.666860772852146,0.6668578205274294
13,0.6668594160826945,0.6668348828261307
14,0.666848857560157,0.6668881883692209
15,0.6668393099256424,0.6668233189334348
16,0.6668491786187408,0.6668459403307799
17,0.6668364905394101,0.666993421390098
18,0.6668415874839531,0.6670398168469185
19,0.6668351929494251,0.6668099031259049
20,0.6668307115314412,0.6667997169731272
21,0.6668327462371697,0.666827288987323
22,0.6668311751525724,0.6668759533844278
23,0.666826178701582,0.6668497589622479
24,0.6668248915896013,0.6668125743605658
25,0.6668227852054243,0.6667921349073462
26,0.6668221146999087,0.6668274155917298
27,0.6668231964073464,0.6667968652088648
28,0.6668173846188344,0.6668011829515841
29,0.6668145383958792,0.6668098704099064
30,0.6668182563749239,0.6667860146787563
31,0.6668133361949397,0.6668590038053451
32,0.6668159535543913,0.6668048470842631
33,0.6668096295032372,0.6671796983583985
34,0.6668112728145187,0.6667977258821871
35,0.6668088821974116,0.6667883794893402
36,0.6668129995151917,0.6667754798905725
37,0.666810515152957,0.6668140028605686
38,0.6668061387343123,0.6668506409926687
39,0.6668124193226124,0.6668289383055258
40,0.666804874527535,0.6667826089018923
41,0.666804228459127,0.6667902865717488
42,0.6668032177588451,0.6669325281905182
43,0.6668124900118705,0.666935705014553
44,0.6668020301575371,0.6668143698358654
45,0.666803152895083,0.6667970700240312
46,0.6668033759883085,0.6668169416505705
47,0.6668026634169534,0.6667815180925223
48,0.6668015251142503,0.6667952606459113
49,0.6668041972767498,0.6667841877298378
50,0.6667990275407216,0.6668539508696525
51,0.6668008461548632,0.6667833121183788
52,0.6667996565128568,0.6668610113726064
53,0.6668004610639421,0.6668139095341893
54,0.6668009384201492,0.6667724326289913
55,0.6667975105255619,0.6668149221919606
56,0.6668008881796836,0.6668172961429094
57,0.6668008450796904,0.6668215234877158
58,0.6667972471145401,0.6667839788325667
59,0.6667980670540852,0.6667739741559656
60,0.6667974894685829,0.6667997014138006
61,0.6667934889407564,0.6667724389887921
62,0.6667962002173002,0.6668528340886307
63,0.6667955638128261,0.6667848542961234
64,0.6667976879148725,0.6668060476075922
65,0.6667907791251223,0.6667731507836145
66,0.6667926923008288,0.6667972816427056
67,0.6667969272179001,0.6668423283780479
68,0.6667959993035562,0.6668484981835037
69,0.6667939455634041,0.666811295123609
70,0.6667898197373235,0.6667780990636083
71,0.6667928438331411,0.6667998879186569
72,0.6667944584839289,0.666773707695102
73,0.6667925030948723,0.6667702218439088
74,0.6667943418959155,0.6668141710255341
75,0.66679292395284,0.6667782539469432
76,0.6667960126402739,0.6667802222017615
77,0.6667930925064863,0.6667931974377881
78,0.6667964263057063,0.6667831925837041
79,0.6667913611888021,0.6668342171768397
80,0.6667932219634426,0.6668788899263141
81,0.6667917213401321,0.6669271007956701
82,0.6667929586352477,0.6668169780049668
83,0.6667899182793152,0.6668578413520794
84,0.6667921315205217,0.6668336661518656
85,0.6667912950921016,0.6668164483370911
86,0.6667926608991573,0.6667774026210491
87,0.6667895647288994,0.6667720078830388
88,0.6667884661421166,0.6667774622848549
89,0.6667895887021761,0.6668210551697327
90,0.6667907211793832,0.6668660807846202
91,0.6667927380473404,0.6668015411414816
92,0.6667890810991418,0.6667707882803072
93,0.6667898624294926,0.6667673121019273
94,0.6667889957124374,0.6667821412642599
95,0.6667898251407964,0.6667987458759147
96,0.6667896873916787,0.6667724748699009
97,0.6667874624758153,0.666798221502943
98,0.666790276090192,0.6667799360403056
99,0.6667897515178864,0.6668022057258758
100,0.6667898677177966,0.6668020185110882
101,0.6667878684620057,0.6667746468158277
102,0.6667842609133819,0.6668927465715716
103,0.6667836723844667,0.6667888270122537
104,0.6667871792620514,0.6667737567690999
105,0.666788115092286,0.6668129906760848
106,0.6667827424885864,0.6667982755464597
107,0.6667873050825098,0.6667648136763655
108,0.6667818483092676,0.6667608774921143
109,0.6667837857990245,0.6667680739764836
110,0.6667840304564455,0.6668026570942502
111,0.6667857072479607,0.6668339144207408
112,0.6667824930776868,0.6667684634329367
113,0.6667831202994123,0.66679970200541
114,0.6667824597425975,0.6667671314835845
115,0.6667842203021417,0.6667702900268896
116,0.6667823295654411,0.666770745743593
117,0.6667783544639129,0.6667661794361938
118,0.6667825180717071,0.6667805158174955
119,0.6667822748467981,0.6667665077498178
120,0.6667809178012567,0.6667617242626162
121,0.6667802084893396,0.6668896976830646
122,0.6667865004517529,0.6667689690223106
123,0.6667815350364177,0.6667769774609701
124,0.6667805095448189,0.6668935370208607
125,0.6667832897783542,0.6667683936526106
126,0.6667820037573229,0.6667760731268757
127,0.6667813972494361,0.6667769211397573
128,0.6667826658988936,0.6667820883448011
