epoch,loss,val_loss
0,0.6697030461037548,0.666995318651791
1,0.6678270824326822,0.6669105227768569
2,0.666946364628237,0.6668677611031544
3,0.6670071851246233,0.666954493581805
4,0.6669515039407405,0.6669502453236071
5,0.6669323896617417,0.6668497498218829
6,0.6669149425994618,0.6669685768430346
7,0.6669096219345748,0.6668562216735063
8,0.6668954507415523,0.666824138844871
9,0.6668817860519376,0.6668721653095842
10,0.6668821095819201,0.667070676966873
11,0.6668729657122558,0.6669306138017337
12,0.6668650486975665,0.6675827922063785
13,0.6668720634166841,0.6670464764161974
14,0.6668555719053427,0.6668381346366542
15,0.6668623241411006,0.6668591584520364
16,0.6668568926710993,0.6668948679644772
17,0.6668485037431171,0.6668118915250224
18,0.6668483328766266,0.6669241112455837
19,0.6668512111062845,0.6668743931921777
20,0.6668441480193793,0.6669023636848695
21,0.6668436877373577,0.6668097067707526
22,0.6668399335471563,0.6669276472356716
23,0.6668380171672298,0.6668725774246765
24,0.6668330096813223,0.6668623262540282
25,0.6668317113111861,0.6668851225015248
26,0.6668323605609381,0.6668186367297587
27,0.6668266131778791,0.667068593022841
28,0.666833545701891,0.6668059349355864
29,0.6668222091691806,0.6669439130622163
30,0.666822665600143,0.6667990461176737
31,0.6668237096765334,0.6667925236538681
32,0.6668219519354721,0.6668189186020466
33,0.6668231326203348,0.6667994428213417
34,0.6668168795873801,0.6668037433482281
35,0.6668151868670578,0.6668393718693452
36,0.6668155901081261,0.6668449355118328
37,0.6668205266728601,0.6667991548554774
38,0.6668175182628906,0.6668052083505295
39,0.666811465170266,0.6668214400116327
40,0.6668117802755638,0.6668334230299919
41,0.6668153469171366,0.6668280831637513
42,0.6668117735508037,0.6667958981345959
43,0.6668078476240342,0.6672442240099753
44,0.6668107303870876,0.6668555370335544
45,0.6668060563751304,0.6668639735015983
46,0.6668048773302414,0.666785220117782
47,0.666806173173761,0.6668166381549598
48,0.6668047055897293,0.6667807344467409
49,0.6668025527238527,0.6667810631744915
50,0.6668015176716566,0.6668511886750498
51,0.6668001985387744,0.6667724192881999
52,0.6668042342507033,0.6668001217818438
53,0.6668026203461469,0.66678473547138
54,0.6668004999026855,0.6667697442672389
55,0.6667969404883562,0.6667773106553714
56,0.6667970563033182,0.6667766780474641
57,0.6667958969034059,0.6667888832151446
58,0.6668029596858235,0.6667707312195827
59,0.6667987511660978,0.6667816981488363
60,0.666801373581938,0.6667787058773467
61,0.6667966964186122,0.6667999085658242
62,0.6667980534002586,0.6667713732932401
63,0.6667976323135306,0.666773279636137
64,0.666796523071257,0.6667676223418849
65,0.6667953940522726,0.6667719285778018
66,0.6667956683372905,0.666773220652682
67,0.6667943081293372,0.6669972849838787
68,0.6667979026157552,0.6667699988663345
69,0.6667966901647825,0.6668080041485448
70,0.6667949500705962,0.6667789486738351
71,0.666795987254206,0.6667675265307462
72,0.6667923048639327,0.6668907875754402
73,0.6667952948050685,0.6668513452444715
74,0.666794737804826,0.6667696723275386
75,0.6667919993042446,0.6668920637656086
76,0.6667936322085161,0.6667717797584628
77,0.6667932426275851,0.6667983254782911
78,0.6667969583679354,0.6667884516065233
79,0.6667931999425155,0.6667777744771233
80,0.6667940515937416,0.666803604231283
81,0.6667915171495957,0.6667691323656598
82,0.6667943683879204,0.6668948091289246
83,0.6667956556221695,0.666781382436492
84,0.6667907712265859,0.6668197342243147
85,0.6667933687525311,0.6667774179733125
86,0.6667901856510432,0.6668295795805105
87,0.6667926368075564,0.666801535107066
88,0.6667918535635086,0.6667764754508329
89,0.6667891131397642,0.6668088652951546
90,0.6667913648947168,0.6667822844928902
91,0.6667933780181068,0.6667858976584214
