epoch,loss,val_loss
0,0.04437402357494463,0.025921128638476947
1,0.024037408846198035,0.020266925999270775
2,0.022466033293149675,0.021847216711927287
3,0.021385927525693224,0.022636176565333867
4,0.020615698112594748,0.021373131724245494
5,0.020189730416788575,0.019974242775670944
6,0.019544409261823523,0.01957876921513536
7,0.019269799925691097,0.01781853056944925
8,0.01860755087662556,0.01902451485339968
9,0.01831316797561713,0.01705470242706259
10,0.018061964297286414,0.018722927608242994
11,0.017909752187807916,0.016823192387264655
12,0.017693284115936497,0.01847289622514035
13,0.017474082330376468,0.016894633790233145
14,0.017386070652179394,0.0179538688361275
15,0.017188709473915518,0.018156583559128546
16,0.017058410882060226,0.01796653359925037
17,0.01720154736699779,0.016679069006968077
18,0.016893235460813442,0.016529677200498562
19,0.01672276704391216,0.017144558647596658
20,0.0167021385646622,0.01788278114022895
21,0.0166549096381297,0.016578414742245567
22,0.0165634450603676,0.0166224224002981
23,0.01671595197417038,0.015901823326131843
24,0.01635837631470158,0.017038365115155062
25,0.016362728087963376,0.017196869215103
26,0.016338453476100828,0.015725293157451206
27,0.016281699762315284,0.016511694692241643
28,0.016232117684217236,0.0166601192501949
29,0.01615349756886137,0.016664234202161024
30,0.01616847091718708,0.01728880141743877
31,0.01609013750180891,0.015808384259122774
32,0.016067359399924742,0.015813781354326765
33,0.01596835390659152,0.015806350435497742
34,0.01599809364428955,0.015487404282738641
35,0.01592732308531877,0.015338649849405065
36,0.01587480819085117,0.016135981034200924
37,0.015850786061375497,0.015386355237540773
38,0.01588202204760467,0.015498505491144012
39,0.015825007169799028,0.01532760387097044
40,0.015751851044686547,0.01563883987405608
41,0.01582577776466677,0.015503153913462577
42,0.015746262526393447,0.015942505785904216
43,0.015694321529323672,0.015342163596829174
44,0.015673105525040785,0.015260260210143721
45,0.0156611041916939,0.015587368875594056
46,0.01567460843329067,0.015137956487407756
47,0.015632010806887368,0.015904035196447786
48,0.015582701752310843,0.01525237787348535
49,0.015562797687179431,0.01696365643431324
50,0.015587234835531826,0.015593044900753658
51,0.015590405298340963,0.01795406443050718
52,0.015532958754401615,0.015434977380794569
53,0.015506157129339374,0.016015144338641804
54,0.015460267985386224,0.01526086264967031
55,0.015425112847102657,0.014991107386613158
56,0.015590502891939351,0.01594537941290634
57,0.015414719164260661,0.015712531037610163
58,0.01544099404224269,0.015716489348976546
59,0.015370576200488041,0.015483779575740432
60,0.015364707063441453,0.015588380007198076
61,0.015345414406409756,0.015580928898312465
62,0.015361827768508073,0.015477923212327969
63,0.01536751550559511,0.015571132108624609
64,0.01530842859901395,0.015080666835084742
65,0.015297181812614675,0.016023639845141848
66,0.015240454121764863,0.015046686780345498
67,0.01528197438887447,0.015773492438658592
68,0.01527638875637362,0.014882575526426804
69,0.015224291682872931,0.015767994917762783
70,0.015251795315143259,0.015194074599252594
71,0.015279772588351006,0.01564068521000907
72,0.015191118723507679,0.015247275355842806
73,0.015166690273933196,0.014966978823243831
74,0.01516278369536832,0.01583977520197778
75,0.01512574637769072,0.015402292122338753
76,0.015141780086174157,0.015515176217457644
77,0.015081741312617492,0.01506637523075561
78,0.01507575341182136,0.015082574725872086
79,0.015073705772836121,0.015271317450879673
80,0.015029769166634028,0.015348307074743228
81,0.015058016942576628,0.01509592872963428
82,0.015052746974455473,0.015082410644397842
83,0.01502266760385869,0.014857401733954551
84,0.015000836338370979,0.015454065393443883
85,0.014991593454773895,0.015628565119916837
86,0.015003547865885437,0.014764604778502775
87,0.014962728315448719,0.015078113051986428
88,0.014981583691554131,0.015245157576838586
89,0.014938716150573648,0.015091492427471405
90,0.014930254233209081,0.01567341682429497
91,0.014939540748605061,0.014996848670446842
92,0.014894398670340904,0.015128502922673379
93,0.014906510416150556,0.014638060097011827
94,0.014899683585350638,0.015488332145784984
95,0.014856675882978806,0.014598567832825201
96,0.014863172853314637,0.014530438699623196
97,0.014888877443601163,0.014839669435328941
98,0.01483272232541088,0.015400802498456857
99,0.014786023342783323,0.015478677704708453
100,0.014815925572759844,0.015324541995713196
101,0.014749310461735273,0.015103816768852417
102,0.014776891007980696,0.015105005561214671
103,0.014797565448771902,0.014563043757570589
104,0.014737560016602848,0.01588995007858161
105,0.01472649759886861,0.014606691409299894
106,0.014730650792171378,0.016702451592047814
107,0.014697719293328481,0.015332760519484432
108,0.014706948378373587,0.014564021730393393
109,0.01464582479474542,0.014542553419011551
110,0.014756841268214657,0.01467651514054528
111,0.01465146398101207,0.014408031854288602
112,0.01464873851169937,0.014942345228369715
113,0.014659706631386726,0.01453384097073939
114,0.014696647642525361,0.014815236922011482
115,0.014628401842714776,0.015133001285584334
116,0.014643453658809855,0.014616179888693629
117,0.014617079318705054,0.01499272631920375
118,0.014617767450487392,0.014721010678052607
119,0.014592824183342621,0.014823153223518846
120,0.014614027039141886,0.014779376570902598
121,0.01463040675282588,0.014909059793755374
122,0.014594507319569102,0.01467811456574104
123,0.014589680451454819,0.01447191413621379
124,0.014589819067963186,0.014768500026158305
125,0.014554244713214062,0.014657705377038597
126,0.014557195857882711,0.014966339397038479
127,0.01458016922103955,0.015022864807905541
128,0.014578046177107491,0.014262962626020607
129,0.014535772632194672,0.01485215391104038
130,0.014539270655929038,0.014604992473095877
131,0.014498866984512202,0.014319944889665981
132,0.014520747606102924,0.014516228225276281
133,0.01453293676936957,0.014695081952266006
134,0.014511883944631715,0.01428428848109973
135,0.01446481322297339,0.014831301032868272
136,0.014468657224256188,0.01456338497243877
137,0.014498328751736508,0.014613062615688918
138,0.014489571123363638,0.014471307796225063
139,0.014472752084073786,0.014294742194764667
140,0.014473850800951605,0.014966222133589146
141,0.01442989552685989,0.014531191645037595
142,0.014429889219845945,0.01476555736388817
143,0.014432286726159073,0.014230339554029865
144,0.014428531156494393,0.014191437035651124
145,0.014403858464200626,0.014306991977187303
146,0.014402705085660179,0.01465573443224649
147,0.014529203256954941,0.014476696725370867
148,0.014356906684949098,0.014270579390616038
149,0.014406480688441846,0.01429626181647736
150,0.01436902410080628,0.014801372893191597
151,0.014397846060195518,0.014413569403105132
152,0.014381328507676795,0.01439810923252153
153,0.014356916192768892,0.014756905836591649
154,0.01437920994542264,0.014641544086946448
155,0.014355785451871142,0.014435350850557275
156,0.014344639948900263,0.014243564736698903
157,0.014312831866439118,0.014567537590510053
158,0.014362401360349168,0.014507648429230188
159,0.014289318082667027,0.014656877667451319
160,0.014300997356431751,0.01417613647064707
161,0.014273790937690168,0.014517803626971564
162,0.01431903290908541,0.01443422117383767
163,0.014258017264709539,0.01508715415775554
164,0.014304356947423899,0.014268377548079041
165,0.014294501176760574,0.014502950960645456
166,0.014313764299203094,0.014653457661457453
167,0.01426383187850819,0.0151941626801828
168,0.014254691032594803,0.01465436602820164
169,0.014251859842485762,0.014262559707680944
170,0.014258449698126535,0.014521283471480788
171,0.014225670810786848,0.014038895051602837
172,0.014201880451079556,0.014443889005622703
173,0.014251614954455741,0.014385259865549747
174,0.01423515961406561,0.014057468707966746
175,0.014237643264777273,0.014435418182175154
176,0.014213719070499559,0.01448219228933378
177,0.014262335676517903,0.014875043340249186
178,0.014230168855481078,0.015019740363485908
179,0.014208762006562077,0.014104654267430305
180,0.014209693191621759,0.014212092387006981
181,0.014157960155304818,0.014284291267210142
182,0.014221051515562293,0.014088425439581385
183,0.01416600114622158,0.013989453570958847
184,0.014156469277682772,0.014358764386761277
185,0.014161486963545224,0.014262741848493628
186,0.014169150298788609,0.014426406856543077
187,0.014169910081928258,0.014534256440903946
188,0.014194141630096092,0.014656879200089363
189,0.014138417960692705,0.013975266699515116
190,0.014188659314832174,0.014276153023444838
191,0.014173019719356387,0.01444472334816793
192,0.014162443357223465,0.014438019215912735
193,0.014156855269778446,0.01439548217259329
194,0.014143355347964924,0.014020144882110449
195,0.014139946360676505,0.014116158676576378
196,0.01415269614510417,0.014298064212682229
197,0.014157661548619261,0.014959345742246648
198,0.014143326474993041,0.014868017850402123
199,0.014142071572801371,0.014227979870573167
200,0.014155445388723972,0.014162511058687868
201,0.014146062238316054,0.014442288601036107
202,0.01412574858351635,0.014192007764452888
203,0.014122661891225996,0.01413036129083808
204,0.014101560543473945,0.0145471631796573
205,0.014114189213739952,0.014191064662843129
206,0.014085460640117826,0.014343390860144169
207,0.01407879186151686,0.014091976034101422
208,0.014143647766194945,0.0140440865334299
209,0.014104429163540919,0.014022494717581989
