epoch,loss,val_loss
0,0.6699515308417309,0.6670857073947158
1,0.6670799906446194,0.6668180790195986
2,0.6670246959857474,0.6670497258602833
3,0.6669541312544148,0.6668549127081783
4,0.6669302266255037,0.6668026895736051
5,0.6668973126860249,0.6670746305740205
6,0.6669002108438488,0.6668378923134531
7,0.6668945923994859,0.6671335966356339
8,0.6668643719879174,0.6667868551190379
9,0.6668799177573983,0.6668617954620948
10,0.666851514759375,0.6668108201500204
11,0.6668521640951092,0.6668064133109289
12,0.666841077176816,0.6668661943144597
13,0.6668632395138655,0.6671492345575659
14,0.6668425142245208,0.6673668313854682
15,0.666832058751339,0.6668016941612471
16,0.6668388881873426,0.6668744824364523
17,0.6668289821487525,0.6667908183989987
18,0.666830602351313,0.6668087867294292
19,0.6668334467213108,0.6667993059229318
20,0.6668174121244836,0.6669948175586483
21,0.6668250983225309,0.6669611113538813
22,0.6668228060399537,0.6667876881937826
23,0.6668204002434264,0.6667957420088813
24,0.6668164237630264,0.6668097657837879
25,0.6668123092858166,0.6668756834034885
26,0.6668177178482481,0.6667763082028618
27,0.6668177943519585,0.6668089477063408
28,0.6668163080632334,0.6668251316245672
29,0.6668148433379149,0.6667840687276116
30,0.6668092880723772,0.6667706285753557
31,0.6668121235562258,0.6669044922362486
32,0.6668099424668664,0.6669840824219488
33,0.6668122467025567,0.6668172158910973
34,0.6668073751001884,0.6668258580025609
35,0.6668048621105909,0.6667742584834324
36,0.6668015241708118,0.6669012843527214
37,0.6668072550760393,0.6667801084648587
38,0.6668004806466012,0.6667770719114071
39,0.6668006900441923,0.666801754594145
40,0.6667958701637089,0.6667675821716081
41,0.6668040654233336,0.6667840994912992
42,0.6667967472806745,0.6668023286918848
43,0.6667947088966403,0.6667824853738543
44,0.6667925022437267,0.6668229193900418
45,0.6667966060283708,0.6667863923326024
46,0.6667920101932285,0.6667718777585562
47,0.6667984089968947,0.6667878320140224
48,0.6667958519875303,0.6668529732055759
49,0.666790502808083,0.666763992226745
50,0.666793134764011,0.6667846694181929
51,0.6667916472928325,0.6668341879809169
52,0.6667924054347905,0.6667867293133037
53,0.6667918156469054,0.6667732272195461
54,0.666792461000635,0.6668710480848554
55,0.6667926291243701,0.6668896034396907
56,0.6667965713617395,0.6667676472486397
57,0.6667928508142703,0.6667999090982726
58,0.6667905161731986,0.6668263236287214
59,0.6667923952715284,0.666796068281453
60,0.6667885095994489,0.6667705580259375
61,0.6667912826838346,0.6667816702544541
62,0.6667931575524678,0.6669196224685934
63,0.6667864522007119,0.6667648936915338
64,0.6667933372009823,0.6667754892084202
65,0.6667872958721521,0.6667756788783866
66,0.6667907740584791,0.6667888294674327
67,0.6667858533018615,0.6668041497542899
68,0.6667927874532259,0.6667917531122345
69,0.6667870696985526,0.6667793185775984
