epoch,loss,val_loss
0,0.4529964827081259,0.4460436605194366
1,0.4453092648954099,0.4449739233731632
2,0.44518408278557164,0.4449760628101548
3,0.44503294467394355,0.445338940723954
4,0.44500698920934567,0.4455012593612482
5,0.44493511249467493,0.4447370961345455
6,0.4448737614368052,0.444728729787003
7,0.4448320292768315,0.4447531016973349
8,0.4448118504024442,0.44500300742260573
9,0.4447758745388934,0.44475590716816354
10,0.44476752075754444,0.44479826182940463
11,0.4447640058843974,0.44466827776532614
12,0.4447577170169514,0.4446857397520808
13,0.44473526941479025,0.4448235016306932
14,0.4447483714119784,0.44478602384219396
15,0.4447293438031074,0.4447270729257806
16,0.44472271175833583,0.4446847005458387
17,0.4447121979118701,0.44478205174725344
18,0.4447068945183758,0.44464132892286806
19,0.4447086488221183,0.4446709261638651
20,0.44470083054978304,0.4446910961242231
21,0.4446974520831683,0.4446307380057446
22,0.44469272213816696,0.44466740867636045
23,0.44468839817462297,0.4446245729775346
24,0.4446867991702417,0.44463140096321296
25,0.4446876751694378,0.4446464493020297
26,0.44468312541014293,0.444670153196633
27,0.4446856520811761,0.4453957724364165
28,0.44467754179609315,0.4447375412318606
29,0.4446758516339406,0.4450403142803656
30,0.44467417424133837,0.44473432039208805
31,0.44467045480177836,0.44462411721646045
32,0.4446632446930803,0.4446260437776078
33,0.44466850343732295,0.4446450966611394
34,0.444669648924673,0.44461208056871115
35,0.4446655042463881,0.444715072662008
36,0.4446592762173141,0.4446606174739951
37,0.44467145830124244,0.44474953714730425
38,0.4446650641658614,0.4446028284192381
39,0.44465345738456663,0.44462786106850316
40,0.4446603264394646,0.4446108111080993
41,0.4446607966488886,0.4447059408754628
42,0.4446577933946999,0.44473143878113247
43,0.4446459048357029,0.44460356566805403
44,0.44466034057526527,0.44461982989725346
45,0.44464401444332585,0.44465251109440335
46,0.44464887528331715,0.44474584704297354
47,0.44464617168562104,0.4445909473351746
48,0.44464255589965923,0.44462262859415475
49,0.4446550643178542,0.44491155697749213
50,0.4446383500639214,0.44463965701997726
51,0.44464547272076294,0.4446202084089331
52,0.4446412147604434,0.4447208256047062
53,0.4446414493082427,0.4447241322722092
54,0.44464035671734276,0.44461684855574707
55,0.44463915453809594,0.44460265315496006
56,0.4446382062084847,0.4446153231649186
57,0.44464133167148207,0.44478666893305907
58,0.4446432201537117,0.44476588735213646
59,0.44464363021577713,0.44465239289084973
60,0.44463963133936246,0.4446477524400053
61,0.44464101295532343,0.4447242985144442
62,0.4446434566345344,0.44460941906602447
63,0.44463733976909714,0.4447316252859887
64,0.44463661280320577,0.44474396874236116
65,0.444644079593827,0.4449268028842604
66,0.4446413362411636,0.4446131981040349
67,0.4446365730809748,0.4446998979110576
