epoch,loss,val_loss
0,0.045021600803869063,0.028832091587981574
1,0.02387119360193473,0.024030458833791186
2,0.021857659851145697,0.021563800134079037
3,0.020971402122675023,0.021005797513735207
4,0.020418001513491015,0.01890726392769784
5,0.019779417151086658,0.020381064459718486
6,0.019512443340319586,0.019229986660053062
7,0.01900997910010077,0.020197258163104873
8,0.01919427968191048,0.018411118111043945
9,0.018483522017574583,0.018289109708616514
10,0.018339710515591245,0.018105752447217925
11,0.018237706945690886,0.01867202654314544
12,0.017984106758014907,0.018136949859393146
13,0.0178827193435547,0.018062798577192108
14,0.017758855941469608,0.017013522282834384
15,0.017575135647773733,0.01840772723626558
16,0.017350787976059934,0.017403804790921896
17,0.01731329666242147,0.01722907722828258
18,0.01722259201238876,0.01689368898035131
19,0.017146514209764326,0.016709918940148637
20,0.01695893315387579,0.017038855808914153
21,0.016858672007263237,0.016815695305246278
22,0.01683744788045374,0.01781748993502509
23,0.01670302599882226,0.016583212723876938
24,0.016752628257030493,0.016946900696967436
25,0.01651079841896331,0.01719899473725714
26,0.016532684018577406,0.015931883085491344
27,0.01653235664886289,0.016924471926711333
28,0.016408347327261326,0.01670589843353548
29,0.016350788922656984,0.017002658316722284
30,0.016358895300772665,0.01612292384918289
31,0.016236204531549753,0.016213959711546044
32,0.01622478060775948,0.015797982427751454
33,0.01615482339039014,0.016084518754119908
34,0.01613425704858893,0.016309223965586858
35,0.016129058822022656,0.016062364960204873
36,0.01610384770510772,0.01652568518912082
37,0.01599855854376606,0.01704297293735571
38,0.016029220470727405,0.016411138433621037
39,0.016051051138690108,0.016090574351234118
40,0.015941818216221874,0.01573481034838754
41,0.015941413237130938,0.015784700157550666
42,0.0159282101959237,0.017221116549138986
43,0.015916830764445247,0.015590416716305405
44,0.015847727427333116,0.01591488857922276
45,0.015814785156782824,0.01585363261956287
46,0.015805416949627477,0.015792258531224936
47,0.01579247121740013,0.016250603714444797
48,0.015735572698934167,0.015602955960254959
49,0.015743186487091845,0.01535466636806061
50,0.016547351890744483,0.016196578031604552
51,0.015645899815628275,0.01664933663638073
52,0.01569031537950658,0.01527433639193513
53,0.015610170809108875,0.016081257350280622
54,0.015649941888975692,0.0159790705750805
55,0.015559869186846194,0.015520494881897204
56,0.015552607063053236,0.01534472479861664
57,0.01553972649149555,0.016078617185742477
58,0.015550860461909625,0.015407961612525709
59,0.01549724378957815,0.015657099208819955
60,0.015387619525292575,0.015316442040629482
61,0.01546303983738813,0.015412765210748606
62,0.015397219227741078,0.01531736224741853
63,0.015352533916048799,0.015311979660047935
64,0.015395423065386807,0.015770875798912704
65,0.015377035548465822,0.015163993226738632
66,0.015326059020973759,0.016277397527976457
67,0.01533216432002091,0.01520845173781844
68,0.015330097188364578,0.015233089422192378
69,0.015250662725219973,0.014917694954270908
70,0.015248389328322986,0.015263473316934653
71,0.015208675994892952,0.014654951691442625
72,0.015215669509878172,0.01605140622659002
73,0.0152158742947472,0.01499313021508547
74,0.015167802216156078,0.014767264173118855
75,0.015187171395435736,0.01562705867399205
76,0.01516230768757665,0.01522828236675218
77,0.015137286736030505,0.015079102441945828
78,0.01512327845133174,0.015086374679584952
79,0.015141092773589866,0.015135858454753093
80,0.015089135246465716,0.015220394994943372
81,0.015106395284589215,0.015550781774424738
82,0.015104180011090273,0.01469617630990578
83,0.015073078377765574,0.015050462279792311
84,0.015111991117747494,0.0146284118017399
85,0.014975894535599414,0.014994555685863305
86,0.01506143137072102,0.015075354985707895
87,0.015047293622163801,0.015103599576108509
88,0.015060609723436928,0.015350617029272002
89,0.015012949629075937,0.015033090255100733
90,0.014999647615941003,0.015108103761749883
91,0.015016147464690674,0.014617140540765326
92,0.015009872294111753,0.014834100250200953
93,0.01494771865488528,0.014853707763826284
94,0.014991661085461738,0.015432048405037624
95,0.014930522493083612,0.015918156177397107
96,0.014972068648190034,0.015399000239986048
97,0.014946193361861428,0.01472657762477105
98,0.014910200081736663,0.01497325548906776
99,0.014910338112182682,0.014775158292047735
100,0.014994635412557534,0.014834464222155789
101,0.014893951138814506,0.014990519685555185
102,0.014900413649623453,0.016017353882268996
103,0.01487633375937651,0.015005986967930575
104,0.014873534215229177,0.014614361140035814
105,0.014891346449791945,0.015007177978827994
106,0.014843483894979685,0.014634300817830244
107,0.014864957771243914,0.014630957584245773
108,0.014824626035211829,0.015310384021614385
109,0.014819751706912208,0.014732491669635618
110,0.014779308171928606,0.014673580636938216
111,0.014807657171459591,0.01500958560898937
112,0.01479585399961072,0.01506412943533943
113,0.01482898013236139,0.01568760486786478
114,0.014755590908884375,0.01487911654539203
115,0.014802712303088985,0.014967888809980885
116,0.014788803438520218,0.014619152285805707
117,0.014783446108850998,0.014971137114756604
118,0.01475523341371141,0.014849635705388805
119,0.014766878637905713,0.014850132973869296
120,0.014757460980012623,0.014922762493009011
121,0.01476038583507232,0.014500135260058692
122,0.014737845776543882,0.014825646158668302
123,0.014736563561867318,0.014510404065288326
124,0.014734847581048573,0.01477958477811689
125,0.014704118159114805,0.014403096051706421
126,0.014719363006268133,0.014636508597259781
127,0.014677880436640135,0.015120613470063464
128,0.01471778758479222,0.014670904041741682
129,0.014678637980740346,0.014396118034352144
130,0.014693644241232547,0.014417261084444617
131,0.014668273990191534,0.014934659750193875
132,0.01470479335687618,0.014565091528848885
133,0.014662446447745812,0.014416629321891675
134,0.014703310328439462,0.015062497996681233
135,0.014650170342045365,0.014687364419030197
136,0.014643754667427865,0.014719534772575345
137,0.014673362411631101,0.015183641212453913
138,0.014623534941885553,0.014676501006627497
139,0.014632144837829951,0.014888184533798813
140,0.014625317030867507,0.014473525392672708
141,0.01460625127173983,0.014890584732329579
142,0.014590980862338742,0.016229141818789334
143,0.014641488123068801,0.014811318670919456
144,0.014608647400204343,0.014524160895875606
145,0.014604177357122687,0.014589470043482615
146,0.014565740012358067,0.014372728295883085
147,0.014564737292675316,0.014180574076199354
148,0.014557498417645025,0.014619962131562955
149,0.01454559191996839,0.014557506906668247
150,0.014495502412033233,0.014607814490037136
151,0.014554729649307983,0.014686853019867286
152,0.014525326657249732,0.014372553695778988
153,0.014554062366685366,0.014800721719380348
154,0.01448590566073879,0.014824782573518623
155,0.014490826777530405,0.0143935189982206
156,0.014496171567531115,0.014414056388675132
157,0.014488240748127094,0.014438279683958211
158,0.01448074195626333,0.015014854493659573
159,0.014518473519067574,0.014688055837993734
160,0.014479380922887468,0.014519638099497365
161,0.014461246681729607,0.014513105749344411
162,0.01448169812828086,0.014701310202719704
163,0.014474451362134091,0.01437093825229714
164,0.014459532126372654,0.014592298044460288
165,0.014454986134089723,0.014340054105606771
166,0.014418778259709596,0.014832543138017134
167,0.01442855288588774,0.014150847135476824
168,0.014366909875134946,0.014293341517966084
169,0.014363903373858383,0.014458358468067261
170,0.014351033909950281,0.014518501665027207
171,0.014319044373088117,0.014828919267591561
172,0.01431136623141687,0.014372440606873326
173,0.014312201150217127,0.014556070208253695
174,0.014298066287464484,0.014706052042932133
175,0.014288285643636753,0.014737212260440917
176,0.014260464439735814,0.014085226801337291
177,0.014270056393870391,0.014255739865413227
178,0.014258692094322345,0.014551296329158116
179,0.01426420210146053,0.014486414459406885
180,0.014263874979512009,0.014742767114756125
181,0.014214592560285358,0.015213642614632475
182,0.01420211936005094,0.01424617779166172
183,0.014253928443260592,0.014276816062721662
184,0.014188007181580461,0.014231501392114251
185,0.01418518098990572,0.014082559202763046
186,0.014177901321908859,0.014340668759093836
187,0.01422280270862254,0.014055546257580185
188,0.01418323124789725,0.014073665987321224
189,0.014152330362034164,0.014190854536595918
190,0.014133585036972639,0.014108202620305436
191,0.014165278143057779,0.01421895493792541
192,0.014172821466107799,0.014517050053434396
193,0.014147126913918472,0.014014019443660456
194,0.014144609315222665,0.013938253709385472
195,0.014142853237861689,0.014172361415831681
196,0.014168024811597348,0.014124902646997874
197,0.01412896191492081,0.01398514730361274
198,0.0141097217756647,0.014510447346136233
199,0.014147176176828832,0.014046806404390199
200,0.014129974040652195,0.014251090546898895
201,0.014121475918601691,0.013866209625162499
202,0.014132859104483133,0.014584816275880886
203,0.014130020927870964,0.014013986992499521
204,0.014092353483078104,0.014266145948052554
205,0.014117857739347579,0.014068279762015154
206,0.014149735524057924,0.014227608287193935
207,0.014082639859385215,0.014046628698799066
208,0.014095708039460782,0.014130708330747655
209,0.01409408331449916,0.014165029051267628
210,0.01407292958633855,0.014393947379797623
211,0.01412658216776726,0.01451478630082483
212,0.014084064304672654,0.014039888690981469
213,0.014114902997449953,0.013814004775940927
214,0.014106675935466053,0.01430906994735115
215,0.014113762363624037,0.015496254133675294
216,0.01409556581093291,0.014223892354491922
217,0.014058554301814666,0.014780652785105238
218,0.014087912265922127,0.0142007241030189
219,0.014075139618937136,0.014007689083739191
220,0.014076930200517038,0.014148821080884626
221,0.014033425213895463,0.013977709415347936
222,0.014093067825290769,0.014147394874292627
223,0.014026756429316656,0.013948168955447508
224,0.01402604623354225,0.013988774408939902
225,0.01407714018678339,0.01449059599238649
226,0.014031292617081803,0.013854689102980398
227,0.014026033506909142,0.014107196071363117
228,0.014085296387076271,0.014181821543270395
229,0.014022315631164014,0.014705705902915882
230,0.014057645135352455,0.01500234579847705
231,0.014043479160650121,0.014159577466529
232,0.014044447959674227,0.014304554408356067
233,0.014038802915212208,0.013917547584541383
