epoch,loss,val_loss
0,0.04784649508893691,0.026304192695923833
1,0.02654267437376931,0.023000719664484335
2,0.022622265419440412,0.022103172239313646
3,0.0217602989594073,0.02464379425675934
4,0.02108091399864352,0.018858982720608746
5,0.02043375639012629,0.01909722215022254
6,0.020076938756965895,0.020935141226789793
7,0.01957312826041523,0.01932235739977277
8,0.01944498261795367,0.021295839133984397
9,0.0190366179823453,0.019679396219607025
10,0.01879379394273163,0.01983534421670082
11,0.018502925494412514,0.019947837024150653
12,0.018581455664894362,0.018651534557324042
13,0.017924724601187374,0.017391773049370673
14,0.017669366119567934,0.018372089514698344
15,0.017614587603928904,0.018846033956328632
16,0.01735406468951143,0.01668313789105149
17,0.017255223024324872,0.016464746373684766
18,0.017202588279570885,0.01696530165654554
19,0.017066351885334428,0.016937537359133843
20,0.016982716250078016,0.016430128507186698
21,0.016839539012761556,0.016681614792709316
22,0.016826406660319412,0.016998160202472145
23,0.016723418264600616,0.01650479533258946
24,0.01667354991092675,0.017771937250721247
25,0.016615849415901093,0.017051513940465658
26,0.016468340302268365,0.01654778766508212
27,0.01648365824236247,0.016861039487917725
28,0.0163772144493652,0.015744234664046734
29,0.016302869086693303,0.01576021018971876
30,0.01630068900244892,0.01651707214971186
31,0.01629391483880892,0.01599457984970462
32,0.01696584315819948,0.015678283196432566
33,0.016055090229663126,0.01611750075043579
34,0.01610001488855781,0.01677314539719604
35,0.016046206766867153,0.016106328321505273
36,0.016036911994868425,0.016638869713649855
37,0.01599151343377397,0.017200934722391016
38,0.016008802590749556,0.016276451983204845
39,0.015963209201424442,0.0159030935447432
40,0.015895133816167535,0.01592374026692165
41,0.015957155797446998,0.016976203224055523
42,0.015784900333951316,0.01583227669686153
43,0.015816515035792407,0.01683888524752249
44,0.015798196339888635,0.01609809932948342
45,0.01576412618992708,0.015858317995744366
46,0.015801466232946954,0.015994259169690366
47,0.01577446724236362,0.015845599326376733
48,0.01568905803979891,0.015446381007434416
49,0.015648717067562753,0.015943501072545205
50,0.015642548786848162,0.015456819122948363
51,0.015640083962592907,0.016016645893158748
52,0.015617170832518056,0.015139729666428885
53,0.015625591224156316,0.015933302007892884
54,0.015616016709459403,0.016281248697960198
55,0.015563930756907448,0.015691879130992344
56,0.015472485847601865,0.015627382716011468
57,0.015584301154692887,0.01588916430531749
58,0.015521664019255046,0.015278443798570716
59,0.015548795858447555,0.014866443890292503
60,0.01550424254207423,0.015693115362569357
61,0.015456767401602498,0.014993523220270503
62,0.015402315868104524,0.015520285502556831
63,0.015431547200123378,0.015153209029444985
64,0.015392951402496729,0.01528223382849847
65,0.015373727059647823,0.01613958251868229
66,0.015363525769800697,0.01532688007387275
67,0.01535488938823587,0.015369106815300567
68,0.015386179543516811,0.015739842390100803
69,0.01530163533987784,0.014962227827414094
70,0.015346388211349706,0.015491303795065832
71,0.015311279550747512,0.015258453901921844
72,0.015528969183792748,0.015628517817511747
73,0.015283565924421155,0.015625500742799
74,0.015244095370680671,0.014845320922565224
75,0.01524293066143715,0.015517290631221335
76,0.015299573246084894,0.01530490339301508
77,0.015364380809487398,0.01533590452999764
78,0.01522749360196758,0.015229096375960422
79,0.01524910962483248,0.014943704579404507
80,0.015200354500256039,0.015136379629798769
81,0.015223837898009879,0.01522663854358362
82,0.015186901056690861,0.015119686003580282
83,0.015160309811742082,0.015159169329843361
84,0.015157747223920619,0.01480460173124563
85,0.015134420937367686,0.015414799109249198
86,0.015149031973479632,0.015739753866387953
87,0.015125911424761773,0.015187397477200841
88,0.015093397744926042,0.015074781113056924
89,0.015112852267660164,0.015460688414666848
90,0.015111058688619523,0.01489955550868517
91,0.015087629370668938,0.014902727379378106
92,0.015109714941722615,0.015580581425788533
93,0.015089575362884135,0.014911231840440712
94,0.015080178170743303,0.01544615458928178
95,0.015075097676102359,0.014901879255107555
96,0.015070057113200188,0.014515559025866813
97,0.01506459370956147,0.014893175631983405
98,0.014997867759774137,0.015417049041309073
99,0.015063743649118359,0.015033911197231365
100,0.014992325721072853,0.01492588458578137
101,0.015005989885402003,0.015231065662397493
102,0.01501631743080787,0.015270595989714633
103,0.01505841846477605,0.014704953220952534
104,0.01500541658227527,0.015125151512862435
105,0.015023318415663,0.015321817891510485
106,0.014981204839179132,0.015386552149637906
107,0.01495953775790772,0.01510282635929123
108,0.01494849711678559,0.014974929065103863
109,0.015008086530854496,0.01474857382550281
110,0.014934359970350768,0.014736579338703351
111,0.014917960377901272,0.015660573021686698
112,0.014994157729578335,0.014898662481725068
113,0.014971588873719239,0.015131909148790701
114,0.014938753239646883,0.01467429271601048
115,0.014921497664663826,0.015098417064096436
116,0.014906778665819622,0.014646226988999039
