epoch,loss,val_loss
0,0.49998332552904123,0.3899758222474379
1,0.3352714331091357,0.2842364043649966
2,0.2961491182673159,0.2715296506374132
3,0.2922843440090589,0.26392661783140264
4,0.29403936972705913,0.3125469863704811
5,0.2931527045008848,0.2711363439021416
6,0.2942520231724358,0.2657631356858279
7,0.29625700035984753,0.27113270716075477
8,0.296871989541907,0.2868131854770054
9,0.29982779185780534,0.2750470152809092
10,0.2999759633794988,0.2932664628857437
11,0.30315334119612547,0.28534042174170293
12,0.3022613295251794,0.2989682975404164
13,0.30352764242023733,0.2759426974684653
14,0.30168207363785504,0.2876400898262822
15,0.30318000013705154,0.3152898138287777
16,0.3036639534527536,0.28482315930426844
17,0.3037156302979987,0.2843827651655007
18,0.3056367849699968,0.30862380291085273
19,0.30478118492470824,0.27780474753807155
20,0.30129167655284544,0.2845570098454645
21,0.30745400611857016,0.29785466887848416
22,0.3068663047267209,0.2940032182915464
23,0.305713710550359,0.2715176835909957
24,0.30705123027269127,0.2843705630118733
25,0.30807256473718975,0.2948601438157073
26,0.3075052821834246,0.29398635647351046
27,0.30729790584290856,0.3109273379736573
28,0.3088662330213311,0.29424926689361425
29,0.3079190166522447,0.29032016799929466
30,0.3107543386178937,0.289349988985139
31,0.30877576120573585,0.30099917009219057
32,0.30925156555479294,0.28827591805997554
33,0.31165393061333413,0.2875227422875693
34,0.31243194282961617,0.3048680402332462
35,0.3090563963433568,0.29283842920580244
36,0.31140153032479234,0.2867712117338799
37,0.3112254941327463,0.30992302168024716
38,0.311197081054326,0.29488069813665296
39,0.31194576218402126,0.29892300207104416
40,0.31274492306719787,0.29233462038991515
41,0.3106974303316746,0.2977862816729975
42,0.31203686895730304,0.31434708989594684
43,0.31249615017345567,0.3093577902054071
44,0.3142908233120214,0.29209290890798084
45,0.3104685268538584,0.30727620763645264
46,0.3135421012130807,0.3230863957751213
47,0.3111518584997106,0.29333610481009287
48,0.3158998757397966,0.316669609231477
49,0.31555163146282217,0.29705184626801656
50,0.3137049117238165,0.2867423570552495
51,0.3167147968856214,0.29236793788776877
52,0.31664996629385495,0.2879891117848909
53,0.3156539314837337,0.28882939668805835
54,0.31513457174440496,0.29862390795763394
55,0.31522225025441764,0.30811804286464867
56,0.31300715430437615,0.296342463920683
57,0.31377037477383524,0.3033076365208684
58,0.3134579225312814,0.29575017032977147
59,0.31540129754283697,0.30689694261705597
60,0.3149348205034498,0.29504996707356274
61,0.3137432197459322,0.3228074863782668
62,0.3153366421739324,0.32415684733754335
63,0.31856537750475494,0.3043862326616015
64,0.31815594634573585,0.31894465542526046
65,0.31887536308615566,0.31214947267363735
66,0.3178004246649502,0.30780892460837367
67,0.3193844335259582,0.32628338419607955
68,0.3167954418984196,0.2963440103784191
69,0.32006644122928884,0.31014176537278987
70,0.3169799467818655,0.30248043177965106
71,0.31813742037269,0.3116568890366241
72,0.31636380369039035,0.29498850966940443
73,0.31746612761238274,0.32548009662829275
74,0.31905718047538695,0.3080639513111269
75,0.3173699028151717,0.3105474822132547
76,0.31769943261165634,0.30575475303361016
77,0.3165104599286309,0.298029408378516
78,0.31917099502560997,0.318689797892381
79,0.3190323789123061,0.3016594505996503
80,0.3189855857168416,0.29064944779254126
81,0.32220977644404,0.3080826691153179
82,0.31839978298824057,0.29715982005785657
83,0.31940452797447233,0.30475001118092254
84,0.3192426437874428,0.2972926598009015
85,0.3199266099972759,0.2928912068467167
86,0.3197806995269582,0.29347923337591436
87,0.31900540901552304,0.318149654727976
88,0.31932887847157265,0.30722673133390277
89,0.31818305961698223,0.3044460106577606
90,0.31954913895377357,0.31409220384178566
91,0.3181373002924759,0.29481423248001354
92,0.32061818789681784,0.3004197322756705
93,0.31989658174751473,0.29286320490606993
94,0.3204565051439001,0.28833162494529485
95,0.31828797097393186,0.3110014447475582
96,0.31960694575376564,0.3015718498393374
97,0.3198067977296724,0.3088379794277027
98,0.31809129978748585,0.29666601167349727
99,0.3213940700642866,0.32114981369863943
100,0.32099630707521454,0.29583251875102373
101,0.3197172651525208,0.30683703771327825
102,0.3227781987636446,0.29341054791758336
103,0.3206299035261878,0.31034297099078656
104,0.31960866132600485,0.31699511217858284
105,0.3218387133054871,0.30866284657568827
106,0.3204178269191968,0.33747915687932295
107,0.32116907928064403,0.28951437258904095
108,0.31988639101159394,0.31788825222562217
109,0.3208810235973928,0.30506309621573846
110,0.3199609603413684,0.29369376076495657
111,0.31809493782426757,0.29957845455393595
112,0.3192471200115591,0.2926452545764866
113,0.31840300163905844,0.30908773459995653
114,0.3181523204064541,0.2876135007888441
115,0.3194786191249104,0.2935667051982802
116,0.32075584334454793,0.410766258436978
117,0.3204352620473091,0.29715369681662307
118,0.3182296334945554,0.32335115039822343
119,0.31975883219221096,0.29342601318380646
120,0.32055821277505403,0.3189236195901498
121,0.32090094652745704,0.312199537408903
122,0.3204699679135417,0.3193990042899937
123,0.32204669838647443,0.28908271478475445
124,0.31949793427490636,0.29695504827656016
125,0.3187667226271213,0.3070004664101643
126,0.3216969402934953,0.29367565608372653
127,0.32059297737500686,0.33117880991872306
128,0.32090751093635567,0.296644290940895
129,0.3198052097120888,0.29904927104252294
130,0.31989666100164904,0.3032572969782188
131,0.32096310491391045,0.2949110968438765
132,0.319205370739854,0.3019406069780112
133,0.31871555099566523,0.2958132203453842
134,0.318659433646141,0.298658929263685
135,0.31859810902081653,0.2991495392159147
136,0.3202692672216577,0.30262119229354223
137,0.3213262321640722,0.31655041652294263
138,0.3218264501986263,0.30307766935347735
139,0.319679061504151,0.3133458509279864
140,0.31890691887196587,0.2914429097304186
141,0.3185674374739679,0.309044662908336
142,0.3204505955390304,0.3110389231499481
143,0.3200247251541258,0.29949774551420605
144,0.31990399429376265,0.30235596587284735
145,0.32097562801561136,0.28967744399644646
146,0.320933017375662,0.2897507553408036
147,0.31871505481920975,0.32104646039270135
148,0.31768311514818165,0.2901349932752967
149,0.3194057776855888,0.2975105784307721
150,0.3212304710208463,0.30057982612168604
151,0.3190067720184143,0.29452107009226386
152,0.31688750892567386,0.32326092281577457
153,0.3185573323809499,0.3001061302080255
154,0.3184424510197319,0.29595150138098153
155,0.3182142240176495,0.31566826710349066
156,0.31905043648900366,0.30619622289602677
157,0.3182496306321638,0.2980677565470616
158,0.32008002750319037,0.3094933832431362
159,0.3177420373639171,0.296302989342787
160,0.31993003422804506,0.30230103970927524
161,0.3203142027171542,0.3008405532014148
162,0.3207497309514577,0.296393836707191
163,0.32018396368711066,0.30958205691122564
164,0.3182943984448576,0.31413661358033557
165,0.3196426421475468,0.30553172855046545
166,0.317944154459491,0.3071334578598406
167,0.3193161694095839,0.3131536081832111
168,0.31907630367599743,0.29825445184210697
169,0.31957259919759845,0.29883780892989736
170,0.3198825309248425,0.2940330601569993
171,0.3197852506505861,0.29167621064891874
172,0.32008267027602566,0.315233067463591
173,0.31837464705574886,0.29726022254714907
174,0.3170634052866072,0.3095646293445612
175,0.31820591953728466,0.2912876897847275
176,0.317881886014421,0.29279011164075075
177,0.320020925727866,0.3039408243727317
178,0.31840177759635535,0.30306246176978385
179,0.3192952760965754,0.29067037627403075
180,0.3189417898559494,0.2928139416913336
181,0.3198769750406114,0.30951467442831565
182,0.31890421758015886,0.2980845823751072
183,0.3191509471238375,0.2961056448174799
184,0.32012721491728524,0.3135297110867713
185,0.3190837379058807,0.29884563649899576
186,0.3198946511046327,0.2881990995164432
187,0.3188911402900759,0.29777009509630736
188,0.32012967146736226,0.2903602919318477
189,0.3192646664509876,0.2995539421679426
190,0.31952205977982,0.32931201294100776
191,0.31934846586900484,0.3002691237499147
192,0.32039276230707464,0.3172971520690732
193,0.31966096732476124,0.29795117154173606
194,0.31918737444403267,0.3006429701608463
195,0.3191515540866684,0.302958795382352
196,0.3192870544136954,0.308427000531605
197,0.32012225209688355,0.3035073600715481
198,0.3207242139715782,0.3054564240156686
199,0.3184139819098435,0.304528478227876
200,0.320446610057039,0.2934563972194893
201,0.319418736189914,0.2849726572403169
202,0.3190137179877111,0.30163620473984676
203,0.31979532631112634,0.2858470689931345
204,0.31940831087702654,0.2921943307067936
205,0.32143808853588074,0.2995685854774129
206,0.3185630415001805,0.3075076793135421
207,0.31812967340930925,0.30308634458473804
208,0.31861717761565056,0.2994188857774665
209,0.3178771107410602,0.2965476370544233
210,0.31814356232352786,0.29058596615083604
211,0.31806573476359024,0.28814939448771587
212,0.31837432656147846,0.2978081062182313
213,0.3184097984356819,0.28920458200397475
214,0.3192536657075103,0.2974147567614635
215,0.3174037322569027,0.3254367281824036
216,0.3197334537310921,0.29901879277784266
217,0.3168759362591659,0.3003526063392729
218,0.31868379864337637,0.2934180723030395
219,0.3180901914465131,0.3070606143128456
220,0.3190795173160165,0.29945420571100584
221,0.31636967864320026,0.301264184101848
222,0.31856655887215496,0.2992443699519613
223,0.3193096995258255,0.2991365335597706
224,0.31774220175390916,0.29593450175439645
225,0.319044763888952,0.3136962797834152
226,0.3194986737316088,0.2968652520543274
227,0.31713593652169164,0.3146142982798481
228,0.3182207155969737,0.3051465651366349
229,0.3174694257022573,0.29494237538430135
230,0.3183832758481355,0.30134845038593444
231,0.32069125117732583,0.28666923292410246
232,0.3204539736704506,0.301865972826274
233,0.3191822154806842,0.2898705577884181
234,0.318971795658525,0.2985644012762102
235,0.31903001658314223,0.2938110657634526
236,0.3191226364566003,0.2973560998571277
237,0.31829254302360993,0.2930018664469877
238,0.31838919687046824,0.3195719534028186
239,0.31729943865389704,0.2963655474508863
240,0.3180925292346934,0.2967788704337865
241,0.3178840229530827,0.2995632324195546
242,0.31937795990199636,0.29995447580928447
243,0.31815541560669913,0.31206569082835584
244,0.31796227164083335,0.29102853181056637
245,0.3196976307251627,0.30204812996240527
246,0.3193462436632503,0.3027445142673267
247,0.31920811460555504,0.3050118020923758
248,0.31906456376214903,0.30406222772230873
249,0.31815576335017065,0.29449109168721715
250,0.31954117234441354,0.3156675908832364
251,0.31831451636061275,0.29519570614638024
252,0.3182859632124702,0.3141918045325871
253,0.3198366428407027,0.29839505825647955
254,0.3190792662690314,0.2928743521952571
255,0.31874236993020394,0.31513411497934407
256,0.31866700575650453,0.29032336313214036
257,0.31959997947283797,0.3069127861044799
258,0.3162819128975666,0.313702295731454
259,0.31900411917625954,0.29469855436685116
260,0.3184884532009534,0.30539662856835226
261,0.3176932647478304,0.2944719890149164
262,0.3184178019519612,0.2959585073558857
263,0.3180898453076903,0.2946631279860873
264,0.318629191888629,0.2986980489570729
265,0.3170923047525297,0.30507889896365364
266,0.31737728067953364,0.30976951102947475
267,0.3185758868558966,0.3057839358036632
268,0.31803585621144315,0.3046550223572121
269,0.3178763771362549,0.30040339698950064
270,0.31779337402364555,0.3091737415161156
271,0.3179422692001295,0.3002366784352746
272,0.31843565805279034,0.3003416011489124
273,0.32022350940635624,0.3037207406633575
274,0.3175646057479185,0.3007115280589531
275,0.3185989512048596,0.31907728471508473
276,0.3180239958057793,0.3081191844168661
277,0.3160992487191295,0.32402983368264887
278,0.3179945632684126,0.3120958500051537
279,0.32006503737049163,0.3123965942559935
280,0.31809943870867224,0.2869928279424816
281,0.3165156262292205,0.299090156239508
282,0.3184882637569673,0.28859837318182185
283,0.31752104507841233,0.29114635039758413
284,0.3173619326207044,0.30418503916514955
285,0.31735069820697637,0.30540114520336686
286,0.31789495042555804,0.3092453412330934
287,0.31786314041329156,0.31197009700299855
288,0.3165505063280857,0.29498893984526225
289,0.31516404449343205,0.3026017194730135
290,0.31718007710168034,0.29724049093224414
291,0.3177814321030227,0.30492017952920164
292,0.31756515056491375,0.3039856194386324
293,0.31788116484116896,0.29525458758329826
294,0.3170201032399368,0.301311143775926
295,0.3170416060748627,0.30034521436024175
296,0.3167613658060829,0.3199311056252137
297,0.31774947461221004,0.30259044246033545
298,0.31812574562308693,0.2933734297655698
299,0.3169636526365009,0.3032585262454629
300,0.3179775861332758,0.3246396255029089
301,0.31629076193245625,0.31498101288384767
302,0.31832439463743695,0.29299595515755067
303,0.31784893848520934,0.3066671529946439
304,0.3166414633381357,0.30607713194562475
305,0.31603484316240604,0.3023741577977778
306,0.3166084952288575,0.29344523299881237
307,0.3151252130337292,0.3021286766967054
308,0.3127539611702637,0.29611418064493333
309,0.3143621953107339,0.2936195561485569
310,0.31449358282779294,0.3022397079075243
311,0.31534338762776387,0.2910101115461877
312,0.31949211114210735,0.3014385192281138
313,0.31656487530665556,0.29233348630640626
314,0.3158954439566935,0.2957415693505257
315,0.3147711851317182,0.28666080743533656
316,0.3151726429346946,0.29892362173214637
317,0.31404170222741495,0.3108216572102742
318,0.313768579804296,0.28378788062159066
319,0.3156532652204852,0.2882514155234927
320,0.3171817758758131,0.2869773627971114
321,0.3135062150770516,0.29398569427219134
322,0.31516678361677,0.3071169563646928
323,0.3122801019894399,0.2926163521126239
324,0.3112318075364165,0.30008485095102616
325,0.30910846496148525,0.2788336850213308
326,0.3103445254152923,0.2871043605235951
327,0.3086283602673498,0.29754204303630466
328,0.30849165703841835,0.2817468788695355
329,0.30542321853321774,0.29373058642880856
330,0.3031658591617576,0.2941865181279975
331,0.2626436239807867,0.2057317371713564
332,0.24049358170709198,0.21176964259689066
333,0.23428927502148242,0.2171528044142379
334,0.25379959599460195,0.23618125718537136
335,0.26845321554938156,0.2647504295552541
336,0.2549679695581607,0.25126446072927644
337,0.2515556946683159,0.21848677907256894
338,0.25316245600974874,0.2544585318098393
339,0.2501461646251911,0.22788224813421856
340,0.2528308264320616,0.2544020773285497
341,0.25158045349345864,0.178007512982551
342,0.253658281434909,0.21512326634423287
343,0.2560923072912867,0.24771792941333218
344,0.24437384673948284,0.2265173566965001
345,0.2555336981021566,0.2243232195539776
346,0.24296163901794043,0.22662961458831132
347,0.2519464679986978,0.20979782896658702
348,0.2451135836171808,0.2049974650144577
349,0.2503723267695491,0.2581071322368396
350,0.2429365936228282,0.23843385183704838
351,0.2488888671533693,0.2431891525144608
352,0.24906495726220698,0.23259430253592722
353,0.24643945624176458,0.24515174841697102
354,0.24561739606772354,0.24687041612968924
355,0.24547056942056714,0.22297160424116852
356,0.24270088245586646,0.22456178559777415
357,0.2500877154706191,0.24737039648316686
358,0.24866989356957023,0.22960393875233062
359,0.2492407135295572,0.2570516309260549
360,0.23802384830790582,0.24117733094620686
361,0.2472256717053626,0.1592427564653457
362,0.25563255721946254,0.2294472841257403
363,0.25636567213565853,0.24170979021142772
364,0.2537818250892829,0.2268565611344281
365,0.252343540469869,0.2563707608327765
366,0.2502272492878622,0.2629572945282117
367,0.25592582394257846,0.2378100921541138
368,0.2574416545269678,0.2349628418901541
369,0.25556467141243244,0.2620632242523164
370,0.2517907369890816,0.20075804855605014
371,0.25296482561324674,0.23248551302534337
372,0.2552696003185643,0.22554651057439806
373,0.24904253513658878,0.2389875338122019
374,0.2512970214919914,0.14529113208048727
375,0.2482960070487115,0.22997651669134092
376,0.2548291254594767,0.24394358571283428
377,0.2529843504353463,0.24231207374383643
378,0.2590195056471565,0.23783717221683925
379,0.25245738786468513,0.2331852250749854
380,0.25207006902075274,0.22025457645758129
381,0.2529588924635879,0.23115955417657033
382,0.2587193982531015,0.2367608736828876
383,0.2535727184125669,0.23216860316578972
384,0.2576785476697837,0.2397343186421406
385,0.2599792812195561,0.22362803634549192
386,0.25161961431475616,0.2004568224889132
387,0.257424673407053,0.23946092737610516
388,0.2564895162947947,0.22708799712365949
389,0.256113126155159,0.24983952315909438
390,0.2548314845912737,0.24991796007991707
391,0.2568078179828065,0.25827915081867625
392,0.25491262869156295,0.23107976917802853
393,0.25492833393086806,0.2302629697134315
394,0.25615072250962734,0.23593384214803056
395,0.2560031942372994,0.23402901210150676
396,0.25549067544331067,0.25988921763591427
397,0.2638398057716288,0.25649856262978554
398,0.25396521044097203,0.23581560932565102
399,0.25786232865982955,0.24207480566006603
400,0.2553996355999843,0.246886565459519
401,0.2584424988330126,0.2238293532327434
402,0.25875322317914834,0.24658929789250011
403,0.25727526237479775,0.23601056855332048
404,0.25839374231113443,0.2366142901021682
405,0.2563099652302084,0.26268720496309933
406,0.2591218083703203,0.24028594180373572
407,0.25623045905267267,0.23033374708692717
408,0.2552452671995537,0.24813874457439367
409,0.25747456055006285,0.23846524861993967
410,0.2564485222339821,0.235215917797661
411,0.258957299091417,0.23930406749296845
412,0.2594348030855314,0.2287244098585791
413,0.25907283977234813,0.2439288672449525
414,0.2551556003091333,0.2260728771379104
415,0.2520883798157816,0.22369255142442018
416,0.2535580679106178,0.2501884129046427
417,0.2564826053831938,0.21169069057688517
418,0.25279119095986513,0.22443213314422242
419,0.25287319819410864,0.22839709732074226
420,0.2563153003171695,0.22749815940470205
421,0.25690303858014657,0.25556140526561166
422,0.25512397977664436,0.2668028579600343
423,0.2566595576626,0.18946926758623858
424,0.25871429131258195,0.2294681957724224
425,0.25636025555163405,0.23213920989417489
426,0.2558288463444305,0.2324771085045537
427,0.2562020480024328,0.23127715468455018
428,0.2536185405092587,0.23126412866469429
429,0.2574044656429031,0.1948517381975734
430,0.2543310459861286,0.24106990221498076
431,0.25626376260510436,0.244836112274354
432,0.25745311607901245,0.23312608228161
433,0.25960616076035536,0.219124262011931
434,0.25726435496937855,0.253347361041875
435,0.2591469925496462,0.2274545268227391
436,0.2590177992196251,0.25617120920741643
437,0.2607720166719179,0.24321024035256952
438,0.2594136567570096,0.23667233194989687
439,0.2588958863834079,0.2197297264165445
440,0.2603963419818897,0.25671190853681586
441,0.2547195610330046,0.2554820501528807
442,0.2577866301525107,0.24302869074391042
443,0.2570049201754974,0.23334960930732238
444,0.26084412577702965,0.26436644765969125
445,0.2596638687581325,0.25503388339682315
446,0.2576450872077667,0.2673388029126162
447,0.25793690088274385,0.2520594216417899
448,0.257966475512048,0.2531608636555204
449,0.25751407025717465,0.23583430150902956
450,0.2571783314069048,0.23882335484849662
451,0.25920306805303517,0.24299667005798048
452,0.2564264153830522,0.1968793586101942
453,0.25678659995214,0.2323869629207899
454,0.25965976577887445,0.23520861566066742
455,0.252132642331173,0.25348135236792707
456,0.2519925613347008,0.227502173581746
457,0.20803742979267675,0.1641426673770821
458,0.22855184032463188,0.25546723903917434
459,0.2463972371480196,0.24754039129878289
460,0.21736204035108905,0.23833134790938362
461,0.20671980845047724,0.11784618911057687
462,0.18529867359382615,0.23307987328525104
463,0.1741713708918318,0.19740093469813116
464,0.16715251915365625,0.12877629550486586
465,0.23851609199022272,0.2202644606165449
466,0.21527621480192635,0.17645479214210774
467,0.20531014072372494,0.11118065727163115
468,0.1754921390276083,0.147809366385142
469,0.2406612333145926,0.23924390916068286
470,0.2220209089605163,0.1390277098770656
471,0.16501062327892996,0.1505131306125203
472,0.17350435328540847,0.2571359901460128
473,0.23750246821748341,0.24147965099786417
474,0.24580648656579568,0.22419076304752847
475,0.2273998924130626,0.26033051684196656
476,0.20272988778612822,0.18360919281175633
477,0.2148820561699098,0.27267359941593533
478,0.23253910705220518,0.2700634758862072
479,0.19352252173533527,0.12396249188969799
480,0.19567197004707457,0.164208417560449
481,0.21442639685457376,0.1801139901831009
482,0.20512412616414868,0.16778567076841217
483,0.15818967253828736,0.13868562506764087
484,0.16758953209957472,0.2063782235905105
485,0.24647800506258888,0.21885160928998454
486,0.2297279421744154,0.1896211018019929
487,0.1959894820570564,0.26007667492050907
488,0.16754089040850237,0.1223585260828046
489,0.16184169599552264,0.1400278754840512
490,0.1922024916186392,0.23013556575204722
491,0.22595975582627317,0.12997874351095978
492,0.1582167689547575,0.12332099508146686
493,0.16218889600413144,0.1267975649924077
494,0.16741229768236987,0.12755179619122015
495,0.16420399132456848,0.1366151235907037
496,0.177970899255563,0.1714081021096778
497,0.17431307321576905,0.15105552704882447
498,0.16021265216869673,0.13491054228525864
499,0.1596732105704858,0.1305234797135757
500,0.15936690177306162,0.13927239565736185
501,0.1524169309895405,0.1407051652017301
502,0.15274547948371514,0.1261074338032768
503,0.15748743900508763,0.11115976622432398
504,0.15121326625370998,0.10776103820292232
505,0.15597569287193117,0.16529451942695222
506,0.15746693634946313,0.1358494689961516
507,0.15968883046514995,0.11389526097588876
508,0.1983036003332791,0.23116804057519222
509,0.18002320225056026,0.17952267401409847
510,0.1572905813871001,0.14442730769938023
511,0.16072102404647678,0.12371111887794922
512,0.23312588042920354,0.21332001591830937
513,0.2534630099136988,0.21378551390919373
514,0.21745496649769328,0.23987515122060937
515,0.2391924109426234,0.2557159096171773
516,0.2316610705080607,0.15446787752325905
517,0.24129078382726094,0.26667319696218333
518,0.25171775766927973,0.2420938096318125
519,0.26050948587248474,0.24785741575104572
520,0.2589608846520118,0.23534673487424657
521,0.26357372194003637,0.2411223019126558
522,0.25800689716664577,0.1390021773295391
523,0.25740974729327415,0.23775460195802425
524,0.2565906371554439,0.23674563563218082
525,0.2602408029693809,0.24080867638746511
526,0.2550863593613939,0.24651059020077998
527,0.25704718616793304,0.21317057918216384
528,0.25648124748654516,0.23210877247777106
529,0.2518787059703286,0.22863493328015203
530,0.2545065815695483,0.23981900910778153
531,0.2556865249899886,0.2207711346852325
532,0.2545122807268337,0.18364912325883434
533,0.2552151545595894,0.22718530870363757
534,0.24645597035523126,0.22887643610957378
535,0.2559765986113953,0.2394699096945564
536,0.25229964430352225,0.2562433275162255
537,0.2554003396231809,0.2462733173312352
538,0.25451664926649764,0.24288712487845332
539,0.25942867348869864,0.23906464415503437
540,0.25394841442533356,0.258420000086929
541,0.24870032806387896,0.22971270649730918
542,0.256981793585255,0.26116636824482165
543,0.24583149515241504,0.2505281756587466
544,0.25489544925138985,0.24434075526899182
545,0.24730143084632958,0.2160564726286561
546,0.25445945223299765,0.2025130212258635
547,0.2510048871139606,0.2601247403864346
548,0.25539162587985886,0.2468128280603876
549,0.2573668891854817,0.2299036757910242
550,0.25086708666325763,0.20906765901597651
551,0.2566806744095132,0.22947202943150627
552,0.24680237912291808,0.24500997140943181
553,0.24559238353808274,0.2453924131074381
554,0.2528360252372258,0.2450074579593909
555,0.2546290646495821,0.2381855904185859
556,0.2419381396467682,0.22638407330250024
557,0.24887380716178395,0.24032288450152528
558,0.2536681683732568,0.23262650661611595
559,0.2505953002622645,0.24192806994973018
560,0.2553893284465047,0.2309465697767864
561,0.2517162456488113,0.23648816367667183
562,0.2563945089367698,0.24206031700603767
563,0.25377680590932516,0.24509504816924665
564,0.2487579313896483,0.22620397164438763
565,0.25589103627505544,0.2568677403727684
566,0.2548605720456645,0.2472859496690351
567,0.25108889004795715,0.2606198182216236
568,0.25078132561891914,0.2439770863994968
569,0.2560383974074172,0.24512503284655832
570,0.254112354158353,0.2281898159204415
571,0.2542581232585269,0.24486115288415383
572,0.2556064251789434,0.2433902992287595
573,0.24553805170319765,0.2265035927972461
574,0.25193622937087445,0.23602289414608857
575,0.25373378002925145,0.23101424117061248
576,0.24602570072758953,0.21010824720113142
577,0.25077873208314727,0.22832449266365265
578,0.2519103187957318,0.22857458697328312
579,0.25596336453699703,0.26487170154982626
580,0.2558106850322673,0.25925876953112625
581,0.25225137066755227,0.24833189218100357
582,0.25052805522902666,0.20373973480009588
583,0.2552575454223242,0.24875449144492184
584,0.24898644398340136,0.2229012300208247
585,0.24350371218328956,0.2304322266617347
586,0.2530925997359167,0.23009391479490254
587,0.2530494091765369,0.2289218372768826
588,0.24963586169591037,0.25652360385593515
589,0.2525312915694914,0.22878853807532487
590,0.25635225860009775,0.2615373832901029
591,0.25312906006773156,0.22474785216775062
592,0.2460099218056811,0.19435758746115056
593,0.24715672552084522,0.25219174551219353
594,0.24486414751140856,0.24258071346101195
595,0.2562643775017,0.2539169927099712
596,0.25939193515895936,0.2468797116142313
597,0.25412642902391164,0.2522386802422353
598,0.25129831278677267,0.2623118401564724
599,0.24975906784315888,0.23782910684551153
600,0.25290758204195285,0.24872615706214843
601,0.24701744281023955,0.2463827997518572
602,0.2550211477341702,0.23843391553860607
603,0.25436149654481965,0.24111759801608995
604,0.2356401411615151,0.22340377993633953
