epoch,loss,val_loss
0,0.27407653547591154,0.2073881844648152
1,0.18173471089008805,0.17962013473168262
2,0.17912089513193408,0.17949987563356792
3,0.1787031589926099,0.1785740892696117
4,0.17840544005139744,0.17879343310396034
5,0.17820959621601157,0.17855727522036366
6,0.17815570924565088,0.17810785027122347
7,0.17814821662376826,0.17940785494157435
8,0.1780623616003018,0.17799754579564014
9,0.1780336157118769,0.1777971554268225
10,0.17797530102405806,0.17787373392903721
11,0.17801133347905987,0.1780064454700595
12,0.1780383582297656,0.17815219075216868
13,0.1779480917300347,0.1778845366475708
14,0.17802392251843172,0.17824301436461137
15,0.17794830451528135,0.17760276007624057
16,0.17789522785362866,0.1779713701947806
17,0.1779335984806839,0.17854850185886556
18,0.17794818774782878,0.17773050181538266
19,0.17787247952178037,0.17770445657322137
20,0.17786866652784492,0.1778501537294019
21,0.17791602491951294,0.17769968243875933
22,0.1778926598630268,0.17782533873275405
23,0.1778123740979331,0.17807599002438074
24,0.17784104571282436,0.17769332080726655
25,0.17785574088422515,0.17777889527104082
26,0.17780029010787,0.17779925395017923
27,0.17784716255611463,0.177925413155424
28,0.17781905777496304,0.17779126222338748
29,0.17781763429121433,0.17778429812395205
30,0.17778050265223574,0.17765709147410028
31,0.17777766276606552,0.17762763364256698
32,0.17781545995450992,0.1775718310520041
33,0.17780933572019605,0.17771341466442656
34,0.1777786989446929,0.17765338794161414
35,0.17774003502323948,0.17771418105690331
36,0.17777229554290108,0.17760891656096564
37,0.17775114931815345,0.17823389137271078
38,0.177791037630263,0.17784478311333585
39,0.17774034781659917,0.17786866649926508
40,0.177772359471384,0.17759870737203012
41,0.17774789702358673,0.17761790801807004
42,0.17774862563795896,0.1776822599940349
43,0.17774243701061757,0.17758935754611535
44,0.17772958219813692,0.1775642178052979
45,0.17769927765539795,0.17765534241649233
46,0.17772794793025673,0.17786718813236435
47,0.17771178295762896,0.1778139630545757
48,0.1776958838534012,0.17768937294042852
49,0.17771341787468042,0.17782341199026583
50,0.177724154351903,0.17750534824527148
51,0.17771950116355736,0.17768005246991894
52,0.1777160792447013,0.17763461671246256
53,0.17767597553279282,0.17772946963652722
54,0.17771377049380546,0.1777045784052094
55,0.17770895570945397,0.17768695609439708
56,0.1776942232613274,0.17762039971097587
57,0.1777086005174666,0.17756596535750044
58,0.17768976785582033,0.17760770035806187
59,0.17769255420024826,0.17783386848908103
60,0.1776855845841096,0.1779772876728776
61,0.1777089894306269,0.1775626706013834
62,0.1776987984359598,0.1776811796774898
63,0.17769497657398717,0.17769385319153155
64,0.17766824607654727,0.1777202087000965
65,0.17769385658079487,0.17760003746826064
66,0.17769329308820286,0.17759162748575022
67,0.17767227511945294,0.17758118214810467
68,0.17767795716091503,0.1775753797041495
69,0.1776610742167508,0.17763338640814422
70,0.17768581171068165,0.1775333753183496
71,0.17769366440822562,0.17764266044630625
72,0.17766954696816886,0.17753779177789905
73,0.17767087280821742,0.17759785655924157
74,0.17768108623205042,0.17759744578350597
75,0.17767657440819806,0.17760728244341162
76,0.1776507292017281,0.17762345801259743
77,0.17766929017625552,0.17770177144748353
78,0.17765961909036843,0.17772511683916048
79,0.17764829196851792,0.17759193725819275
80,0.17767366748466956,0.1775500201035788
81,0.17764056407862144,0.1776546619379718
82,0.17767238136913946,0.17763508505819348
83,0.17764888460830533,0.17749312194248024
84,0.17764103437642115,0.17772186824488848
85,0.17763306295795503,0.17755667468931324
86,0.17762812095985328,0.17765550548247494
87,0.17764184339869793,0.17768275760108312
88,0.17765019024661977,0.1776716513434262
89,0.17764829616133068,0.17761619369063494
90,0.17763229475008974,0.17767515436297057
91,0.17763423203207035,0.17753866426617307
92,0.17761182914868437,0.17759227938509026
93,0.17764482151666325,0.17759364723406537
94,0.17766624007174533,0.17751535262850768
95,0.1776238692690619,0.17760611949422364
96,0.17766028251960506,0.17768051906326388
97,0.17763765549940838,0.17754217671802314
98,0.1776255631356312,0.1775994927937719
99,0.17765154096958258,0.1775567036330841
100,0.17762396684724935,0.17771027508267476
101,0.17765438843735878,0.17759224461963447
102,0.17762959069556755,0.1777693222452546
103,0.17761771656054673,0.17763064761705633
104,0.17766560471767812,0.1778722208907685
105,0.17761864191551002,0.17757469856701408
106,0.17762974779501997,0.17770219312564725
107,0.1776227939257519,0.1780757686474611
108,0.17764192387211522,0.1775595128136351
109,0.17765009798091663,0.17759916460363528
110,0.17762879907584592,0.17755372841102265
111,0.17766771249943594,0.17751769803834883
112,0.17764600802311223,0.1775631800517381
113,0.17762465261631638,0.1775751864359712
114,0.17763820264955982,0.1775636664152898
115,0.1776710988448964,0.1775419437565386
116,0.1776290813343321,0.17750445370516066
117,0.17761626923613125,0.17749935833130093
118,0.1776121589396116,0.17755864123095652
119,0.1776570547208321,0.17748856617412703
120,0.1776151947623534,0.17774179962411488
121,0.1776387539150999,0.1776178306073021
122,0.17762779159773645,0.1775730739758536
123,0.17762898209450437,0.17766814667734462
124,0.17762802562100902,0.17767882116591732
125,0.17764153860979895,0.17763286602007844
126,0.17763340145015982,0.17777273782191544
127,0.1776495880181555,0.1776056093734931
128,0.1776360272348737,0.17781530039556964
129,0.1776165316680924,0.17762118151033593
130,0.17761398018073501,0.17749182545912953
131,0.1776186306175473,0.17757473755466158
132,0.1776329486621179,0.17758816806415734
133,0.1776029222743879,0.1776212712583715
134,0.17762955191204968,0.17753818341852082
135,0.17762501556262505,0.17780340724604846
136,0.17766195246212774,0.17758856282143867
137,0.17764308039757082,0.17752621448124686
138,0.17761528865396262,0.17754159793669347
139,0.17762131890137609,0.1775119826374039
140,0.17762049827739584,0.17759767728662904
141,0.17759100619932824,0.17760139880165304
142,0.17765163243126622,0.17754615723334058
143,0.17765442038373314,0.1775213324397967
144,0.177615997239316,0.17754449017328264
145,0.17763193577027722,0.17758710801178015
146,0.17762952559976747,0.17749423289637728
147,0.1775940025774695,0.17754277110617275
148,0.17761993314698638,0.17757065153159585
149,0.1776273845316028,0.17750734287213413
150,0.177632318203636,0.17751362496412168
151,0.17761622040534764,0.17766788934711028
152,0.17763449114670665,0.17761883385414765
153,0.177637168960415,0.17775961112204555
154,0.17761728297963703,0.17754207088096743
155,0.17764119463239453,0.17748871126933274
156,0.17760669048145997,0.17759607638208152
157,0.17762894805767934,0.1775497425209375
158,0.17762671932756757,0.1776565247124918
159,0.17763476150570442,0.17756371349449127
160,0.177612608106588,0.1775235604515392
161,0.1776486199072225,0.17749279108260124
162,0.17759400712166853,0.17749288839294672
163,0.1776277954868085,0.17760412967760167
164,0.17763241054080756,0.17753787223476072
165,0.17762601488738133,0.1775695210074287
166,0.17761598920507682,0.1775692150925875
167,0.17763522991554723,0.17755920876878967
168,0.17762146486366967,0.17755624549588353
169,0.17760182523446308,0.17760403232021227
170,0.17760896158637665,0.1775156666231419
171,0.1776232925905503,0.1775633607944731
172,0.17761584305220085,0.17760787700797595
173,0.17763814139518616,0.17749862712767525
174,0.1776367362907274,0.17761050032976583
175,0.17764117033909455,0.1775621340419706
176,0.17761072455693205,0.17759114262760392
177,0.1776275704030415,0.17749729730194727
178,0.1776076788060385,0.1775331870133047
179,0.17760488644039793,0.17753464085856288
180,0.17761124741973922,0.17766831970487698
181,0.17761233630631088,0.1775633140210571
182,0.1776414046482407,0.177764559977621
183,0.17762328141170153,0.17758612598174184
184,0.1776134696581381,0.17751979533856369
185,0.17761659587649323,0.17756726051186048
186,0.17760258111998523,0.17764805688948357
187,0.17764366408594126,0.17749527314326474
188,0.1776578787336056,0.17759318195795015
189,0.17761991254026466,0.17753801000287614
190,0.1776321020831974,0.1775926102214473
191,0.17761995764278013,0.177546360827659
192,0.17762682669097,0.17756751571335752
193,0.1776244926402609,0.17759447800614464
194,0.1776031958911535,0.17751892622569082
195,0.1776284238667511,0.17760023678158246
196,0.17763485108538687,0.17758637352684115
197,0.17763526776402022,0.17746875125212094
198,0.17762052929468103,0.17763567247208217
199,0.177625446916103,0.17754002289454016
200,0.17762820358923395,0.17748473048351276
201,0.1776105420981094,0.1775698449988956
202,0.1776260093724032,0.1776950980912256
203,0.17763500639812932,0.17755324696356045
204,0.17760572815351158,0.1775102221246018
205,0.17762107331809,0.17748615166853052
206,0.17763815129355942,0.17756363451951304
207,0.1776044338488941,0.17755592173963622
208,0.17759738413454723,0.1775335058769845
209,0.17764803823783434,0.17754861624248403
210,0.17761270374917298,0.17750849911756372
211,0.17761299422652507,0.17747076282655525
212,0.17760835630859403,0.17749836797448906
213,0.177618775049226,0.1775000716464766
214,0.1776012374783496,0.1775761171175724
215,0.1776187001682109,0.1775975403535432
216,0.1776054674010578,0.17755402773971526
217,0.17757745966208066,0.17754298365059668
218,0.1776116609597187,0.17756374192077903
219,0.17760988096181723,0.1775260985885536
220,0.17761732465166935,0.17761313789410205
221,0.17759929117348364,0.177549805171676
222,0.17761929136671895,0.17771979067959745
223,0.17761365924593356,0.177524222876956
224,0.1776088789510403,0.17766364684421054
225,0.17760376925234028,0.17756819979073782
226,0.17758825262911695,0.1783819406777738
227,0.17764000117564374,0.1775379306750685
228,0.1775964247725374,0.17776798563344137
229,0.17764190857192214,0.17755288946506256
230,0.17763337925922193,0.17751518811592457
231,0.177597775936222,0.17754575050338198
232,0.17763309585724135,0.17758938276165567
233,0.1775970897145218,0.1775020631919626
234,0.17760691810831084,0.1776162174595748
235,0.17760348070463497,0.17750839991370052
236,0.17759292925314174,0.17750958940741954
237,0.17762048621114782,0.17761542882708556
238,0.17760918431764217,0.1775566904843089
239,0.17762199399782885,0.177539460014055
240,0.1776038908736883,0.17757523133939143
241,0.17761884848300596,0.17764814428532322
242,0.177590475201035,0.17751390407569032
243,0.17762117573826147,0.17753588097153825
244,0.177626752542506,0.17761832387454884
245,0.1776200088201095,0.1775451283593204
246,0.1776013095125401,0.17754587494630747
247,0.17761925941438889,0.17754453695845962
248,0.17762754282219517,0.1776052346216381
249,0.17761524875672888,0.17747300882083558
250,0.17758331690832294,0.17750418901255305
251,0.17760744272804946,0.17748053996414298
252,0.17760575241703305,0.17762378976631088
253,0.17759999214745253,0.17765322796876917
254,0.17762446438046478,0.17749332930031214
255,0.1776003846935898,0.1775083958326406
256,0.1775889865976634,0.17775520153090815
257,0.17762132070595316,0.17749942933233498
258,0.1775825458655445,0.17752556585145918
259,0.17761693289764016,0.1775594946782045
260,0.17761152789747114,0.1775603585103975
261,0.17762600360133,0.17751652189334172
262,0.1776150149299944,0.17757741294230828
263,0.177595051554896,0.17760906297340107
264,0.1776028507226091,0.1775649872321074
265,0.17761345861031475,0.1776173930870988
266,0.1776023586090806,0.17752292801662045
267,0.1776233132806518,0.1775434016240518
268,0.17760837456876996,0.17755524126111566
269,0.177600645457955,0.17754623337392272
270,0.1776193384465268,0.17754178891148073
271,0.17762175691928223,0.1777808149451803
272,0.17759758160768938,0.17753804048733535
273,0.17759757760545905,0.17768325784259079
274,0.1776092615809372,0.17754905893751835
275,0.17758831222185031,0.1775466274255453
276,0.17760914649894768,0.17766557926725193
277,0.17760152301247076,0.1775180409885149
278,0.17764090270780736,0.17757206724775806
279,0.1775989832935764,0.17751898564215993
280,0.1776114222612217,0.17750463473015915
281,0.17761117046614058,0.17760463184790998
282,0.17760885743309648,0.17777791929790704
283,0.1775999875436965,0.17769770530047338
284,0.1776258069024288,0.17750338375003863
285,0.17760446051851833,0.17752576641144485
286,0.1775874247510942,0.17750558183008794
287,0.1775882925918634,0.17751987525442028
288,0.17759013501741142,0.17766397111794097
289,0.17763485222292555,0.17753716943390085
290,0.1775940539215585,0.17765485813463402
291,0.17757609339474106,0.17761125927754245
292,0.17760961462887262,0.17752271030912647
293,0.17762164559533938,0.1774745147319506
294,0.17762633314211781,0.17801220192858433
295,0.17763803764093788,0.1775785406438403
296,0.1775931554208461,0.17752722591373427
297,0.17758882574612003,0.1776044585498751
298,0.17762137926835045,0.17760427803059875
299,0.17761571334301235,0.17753898625827344
300,0.17761730624260091,0.1775844458081916
301,0.1776102660931081,0.1775140691175175
302,0.17762561388415019,0.17767494481759646
303,0.17761007542733095,0.17758858246227466
304,0.1776018817302325,0.17760433600046735
305,0.1775954550595211,0.17747206815416267
306,0.17760085702823888,0.17755822124637388
307,0.17761672245298357,0.17752670594906375
308,0.17762231029909578,0.17754458234408002
309,0.17757624725429275,0.17749982278414758
310,0.17759891968074557,0.17755608453511626
311,0.17760319319917717,0.17749478318085327
312,0.17760796956926417,0.17746307091065627
313,0.17760003514760594,0.17750710728795113
314,0.17758868660905855,0.1775825049642888
315,0.17759578553535382,0.17762842102839238
316,0.17760857304842542,0.1775270758083512
317,0.17760139462544763,0.1775703037711891
318,0.17761832336298852,0.17755731587440082
319,0.17762286677587327,0.17753292246182886
320,0.17760453492903308,0.17750853496502964
321,0.1776040065333807,0.17763571857512234
322,0.17759422633311542,0.17765876026302224
323,0.1776212830480626,0.17755958374410327
324,0.1776162155574079,0.17763670399232276
325,0.17760025608620578,0.17758575329981927
326,0.17759374502322656,0.17763391589920824
327,0.17760932218018385,0.1775617694045581
328,0.1775945895652977,0.1775637128358764
329,0.17761589655820892,0.17765919310235564
330,0.17762180644688275,0.17751869778042245
331,0.17760012108240006,0.17755676861249658
332,0.17760299139624114,0.17748084330332967
333,0.17760868023315685,0.17755652892373167
334,0.17760605016033904,0.17745498239100216
335,0.17759451361821232,0.17757906840604032
336,0.177599886314665,0.17753138603097168
337,0.17760231602582618,0.1776261127950078
338,0.17760117060775094,0.17752249107270515
339,0.17761884328963565,0.17765049830420146
340,0.17760474858381192,0.1780342896599043
341,0.17761009065009992,0.17770584715617013
342,0.1776275492543511,0.1774919524071437
343,0.17760190658932395,0.17754024909346144
344,0.1776240710541308,0.17755247991246884
345,0.1776002844353374,0.17749381240607248
346,0.1776156221374238,0.17756260508096586
347,0.17762779735689826,0.1774589845582831
348,0.17759823981973288,0.17763967435709963
349,0.17760791246601337,0.17763304242301195
350,0.17760893651288,0.17759644076075248
351,0.17759759032683406,0.17752148824925487
352,0.17758930011166277,0.17754654661585426
353,0.17762294845234194,0.177643558479428
354,0.17759102089799567,0.17764109169627704
355,0.17757370906005757,0.1774502367769157
356,0.1776352537204798,0.17756197378686214
357,0.17760492973238062,0.17757413180540563
358,0.17761295120254886,0.1775447845623638
359,0.1776147188721515,0.1776817244225444
360,0.17757197191937268,0.17758449364009576
361,0.17758976506719962,0.17752615733464686
362,0.17761130262312178,0.17765535077854885
363,0.17762197201534047,0.1775740606867618
364,0.1776041065117152,0.17752997283165908
365,0.17757520990834819,0.1775503314519926
366,0.17757657356113551,0.17769887393021452
367,0.17760797305334863,0.1775749650943345
368,0.17761117305687005,0.1775806518220111
369,0.1775801538837423,0.17749915143214726
370,0.17758740141666193,0.17757597838505668
371,0.1776091678143977,0.17751699367327867
372,0.177597863461188,0.17776665645456727
373,0.17756460868507076,0.17751000013611123
374,0.1775929768332284,0.17751996482604115
375,0.1776209871688907,0.1776214312076945
376,0.17761821488587023,0.17764192873695844
377,0.17762651063388676,0.17752629465584502
378,0.17760465214911886,0.17750473739175035
379,0.1775807306277666,0.17768334054579957
380,0.1776240226104677,0.17768990051445288
381,0.177593625873494,0.17754890667987605
382,0.17759544729924412,0.1775403176482117
383,0.1775935341914495,0.17753546595008898
384,0.17760351746917058,0.17758562402313116
385,0.17760324261361937,0.1775116479552065
386,0.17760085825511307,0.1775131681441508
387,0.17757840004923056,0.17768642453340064
388,0.17760093252864673,0.17782244334422234
389,0.1776170461929197,0.1778013063822568
390,0.17761679221209672,0.1775181457906044
391,0.1775954482045105,0.17750224191180908
392,0.17758587390470276,0.1776601543625039
393,0.17763322078995852,0.17746116264466705
394,0.17758497093721545,0.17758472756598065
395,0.17760228949318305,0.17749151264059326
396,0.1775833493013748,0.17752686642763083
397,0.17760500691825157,0.1775981838908267
398,0.17761212605223667,0.17751771785559953
399,0.1776268112716629,0.17753281864766163
400,0.17759987222943469,0.17761213848133584
401,0.1775884226226597,0.17753780603220637
402,0.17759334592581938,0.17770247164916692
403,0.17758957412150456,0.1775097931546307
404,0.17759284295504996,0.1775479867478102
405,0.17763758285178077,0.1775047187741196
406,0.17758440493131808,0.1775656242302862
407,0.17760850677935244,0.17762623323920024
408,0.17757263441952012,0.1775907375677044
409,0.17760327605487441,0.17758293702739755
410,0.1776088482970528,0.17758758491950422
411,0.17760098905419464,0.1776349890180338
412,0.1776008047848392,0.17752342892850395
413,0.177619078110972,0.17756318226280227
414,0.1776104252591884,0.17751948749492183
415,0.17761857087592142,0.1775039665065794
416,0.17759527373228143,0.17749987145108131
417,0.177602482743734,0.17749678494663057
418,0.17761843579469158,0.1775080922111904
419,0.177591602841346,0.17760402142954512
420,0.17762133009809195,0.17752457685892095
421,0.17760172985392889,0.17754697961984137
422,0.1775947696180176,0.1775463047042642
423,0.1776043320064255,0.17757757711382297
424,0.1775869903244751,0.17751717603902883
425,0.17760042702074913,0.1775165030169694
426,0.17760067125804704,0.17751345314797023
427,0.1776080538126395,0.17753505903195468
428,0.17763396125021788,0.17754165811762626
429,0.17757256817426995,0.17755726654885223
430,0.17761302508300633,0.17762352028698458
431,0.17760562469109262,0.1775499729773334
432,0.17761908255987982,0.17749334400153668
433,0.17759584055410968,0.17754069596364352
434,0.1776023088075179,0.17756034851356484
435,0.17759138956177625,0.17748634594815307
436,0.17760935071989786,0.17753496716694278
437,0.1775994737037747,0.17764191674075921
438,0.17761762253195643,0.1775002664788652
439,0.1775685309363212,0.17749717449379795
440,0.17759387681095434,0.177517493538435
441,0.17760298733445382,0.17754209968360654
442,0.17760297040239895,0.17767253218199572
443,0.17758120470148006,0.17768611354957722
444,0.17761060805748596,0.17751489460891687
445,0.17758253942743288,0.177502957979054
446,0.17760433040434223,0.177482653917905
447,0.17760571472936396,0.17760746224526824
448,0.17759276445892502,0.17746374627315067
449,0.17761069026401194,0.17758956208131213
450,0.17757794443223116,0.17751191741101086
451,0.1775640563891946,0.17753869812603343
452,0.17759522662865077,0.1778780298620674
453,0.17761209015127757,0.17753504231960263
454,0.17760229235787472,0.1775410413483324
455,0.1776114223803357,0.17754839733537012
456,0.1775884162679279,0.1776187676398323
457,0.1776106725755832,0.1774727058344783
458,0.1775949635058284,0.1775458003816966
459,0.1776201682839748,0.17761309182634483
460,0.17759237882139967,0.17752273122014825
461,0.17761727218790876,0.17759138500963315
462,0.1775842091555504,0.17751246416719296
463,0.17757770591836086,0.1776047038486273
464,0.17763094957783926,0.1775249869642807
465,0.17759966060554952,0.1777096423654925
466,0.17760625009318526,0.1775133253178826
467,0.17759775159527644,0.17761705433560246
468,0.17758542922236842,0.17763205472418145
469,0.17759617967761868,0.17752901155974984
470,0.17758808680456414,0.17763085495136624
471,0.1776007097318685,0.17752990697017315
472,0.17760387074342257,0.1775177426477446
473,0.17760382876764957,0.17767976517270848
474,0.17760352667072693,0.17759977081156944
475,0.1775907279430724,0.17752629467936698
476,0.1776079822132151,0.17758128361007597
477,0.17759329702356735,0.17748664426540142
478,0.17759130793890887,0.1775304726380105
479,0.17758280743392918,0.17758121278545663
480,0.1776042664758593,0.17761657695743918
481,0.17761356665862263,0.17752416969380608
482,0.17760516905622611,0.1777849455070759
483,0.17759640760821024,0.17752404134623537
484,0.17760170383347595,0.17755724089815567
485,0.177600616799127,0.17771010526588985
486,0.17761675967015236,0.17770950778460257
487,0.1775900833517146,0.17798043783951106
488,0.17763709343618436,0.17749588384389312
489,0.17760346767356355,0.1775400210363054
490,0.17760714250121662,0.17748087236471033
491,0.1776048815686354,0.17754873382875838
492,0.17760756495687888,0.17760173803534957
493,0.17759853693173466,0.17770296638653613
494,0.17761569139030245,0.17761184012880454
495,0.17759499109263044,0.17752133928468686
496,0.17763658116261163,0.1774969004864945
497,0.1775711844984195,0.17754746126724025
498,0.1775939163687132,0.17755303566580036
499,0.17760377198005084,0.17743456366030175
500,0.17758644582461014,0.17759712036896053
501,0.17760222454627544,0.17749082893956433
502,0.1776100938542665,0.17746105384384447
503,0.17760188743579303,0.17754884086543402
504,0.17761405355495802,0.17752473320938417
505,0.1775926224393048,0.1775194447790438
506,0.17760275315037735,0.17754459710410944
507,0.17758337408304214,0.17752159709712137
508,0.17759366234024462,0.17754001287418553
509,0.1775967656172437,0.17754472927399856
510,0.17759275520376736,0.1776062574622757
511,0.1775871277879849,0.17750334284535146
512,0.17760421120100836,0.17753264357371884
513,0.17757864127890002,0.17751442848601112
514,0.1775824513128526,0.17753432526443544
515,0.17761667415821294,0.17765409805780333
516,0.17759158977454037,0.17777431966191498
517,0.17758178403027813,0.17745492891382775
518,0.17759220777369802,0.17747821554765048
519,0.17760177078745443,0.1776011213130996
520,0.1776228790922607,0.17753571442430566
521,0.17761774514195064,0.17754545111588446
522,0.17757791891205701,0.17755825908144535
523,0.17760116771328077,0.17765225731159817
524,0.17759952071211416,0.17752531486039286
525,0.17756674659075877,0.17753952735742434
526,0.17761116605892266,0.1775575079311982
527,0.17759262477393917,0.17761844382478012
528,0.1776259659791736,0.17769316464497897
529,0.17760522513509655,0.1775942415751711
530,0.17759146117906777,0.17749520391813864
531,0.17760129776789987,0.17754192298664856
532,0.17760282633997362,0.17755361165977784
533,0.17756332425500373,0.17767314311784368
534,0.17759774430549974,0.1775008273247009
535,0.17762540479143746,0.17769473039595837
536,0.1775908806769968,0.1775385261334673
537,0.177587910706429,0.1775249563034068
538,0.1776021484324305,0.17752774746613703
539,0.1775954495326316,0.1777332874857354
540,0.17759299479561935,0.17753946153122135
541,0.17763006802109316,0.17750191263966233
542,0.1776075266200385,0.17758497659296338
543,0.17758945424517664,0.1776433316806968
544,0.1775914514176756,0.17752996430494886
545,0.17759864755886065,0.1775077859552808
546,0.17758347696775822,0.17749708393425478
547,0.17759395088199423,0.17772739675210608
548,0.1776051926824877,0.1775733809844659
549,0.17761447602848737,0.1775557981787842
550,0.17759302970197657,0.17755984891891102
551,0.17759994034477466,0.1780205038982578
552,0.1775877294208792,0.17824660989602156
553,0.17760982998102592,0.17748883074912483
554,0.17759697020149154,0.17763782869480496
555,0.17762164732844804,0.17753021636626432
556,0.17759334298370363,0.1775074684205917
557,0.17756554932236004,0.1777297713409377
558,0.17762711185583774,0.17755790627557835
559,0.17758609246102264,0.17774718721127453
560,0.17757136012605435,0.17756216507919587
561,0.17760699296550309,0.17776223235038105
562,0.17758065805756312,0.17753815709744838
563,0.17762368599430833,0.1775671769383392
564,0.1775853445204042,0.17747930776630694
565,0.17758862434221592,0.17773221827155508
566,0.17760974134829977,0.17750541795259775
567,0.17761226437932295,0.17756753723595023
568,0.17759194498439487,0.1774823450510579
569,0.1775905183203024,0.17751449652327828
570,0.17760826691353826,0.17758997266887208
571,0.1776056047097194,0.17753218654205033
572,0.17760000461273245,0.17759170427318624
573,0.17761732559862564,0.17754445967706245
574,0.17761673048126708,0.17756403906192944
575,0.17758654465349458,0.17756155276731328
576,0.17759355014081385,0.1775089323802924
577,0.17757390974927767,0.17750170067152643
578,0.17759046486789565,0.17775869103708697
579,0.1775944450502392,0.17754511430494976
580,0.17760033948982742,0.17763012025472963
581,0.17760792858213734,0.17776714210069922
582,0.1775762505597062,0.17759213428988452
583,0.17759425080508637,0.17764776656970135
584,0.17760609294013155,0.17749553149670433
585,0.1776111621519835,0.17755652615990145
586,0.17760140991968504,0.17755433361927356
587,0.17756994329482245,0.17754747205205856
588,0.17760123414911336,0.17753937548789436
589,0.17758244834691406,0.17752713709481607
590,0.17759212942646563,0.17769939811707672
591,0.17761158490543075,0.17750240296666417
592,0.17761129149787433,0.17765424008339337
593,0.1775811435781318,0.17766039920257787
594,0.17761254527395387,0.17755174306357294
595,0.17760974228930035,0.17745228343435226
596,0.17758947481020845,0.17761500799571237
597,0.17757428312997262,0.17757584185184414
598,0.1775973715501533,0.17754824838256308
599,0.1775894553588925,0.17750378180039428
