epoch,loss,val_loss
0,0.27867090104104614,0.21419754894869292
1,0.18595683432930857,0.17979179577932833
2,0.1788426798096092,0.17834314212332397
3,0.17839408228151518,0.17861363868028418
4,0.17835521660477138,0.17839600896167304
5,0.17819180951225194,0.17789222774020122
6,0.17816802176783125,0.1780189844502552
7,0.17807237130941914,0.1779081048980508
8,0.17805497944474125,0.17783315990181917
9,0.17804763766882611,0.1780924616527068
10,0.17804534258030588,0.17795620960989803
11,0.17803697801417678,0.178242344764997
12,0.1780495835329703,0.17819522643475055
13,0.1780191525030765,0.17815346491318004
14,0.1780322069565741,0.17780842059883623
15,0.17800718765083454,0.17781746481569527
16,0.17792071838625712,0.17778582691017247
17,0.17792848268334718,0.17786705866750055
18,0.1780030048615355,0.1778177873958446
19,0.17792521823319696,0.1777981372216412
20,0.1778527735043868,0.17802894357724178
21,0.1778982390793298,0.17792468932593256
22,0.17787505294398057,0.17769344437987952
23,0.1778654443393413,0.17790613592188473
24,0.1778540446770658,0.17771296450117016
25,0.17782564467782502,0.1782294297627605
26,0.17785328526576932,0.17795597147358244
27,0.1778468684934312,0.17777254565926923
28,0.17783735793152397,0.17781946266506635
29,0.17785844203832146,0.17775102980558385
30,0.17783614665531902,0.17782824480025525
31,0.1778423225910639,0.17795653823519092
32,0.17781036270322273,0.17766980283497447
33,0.17781539135080257,0.17780080421194847
34,0.1778085867373301,0.1776462634341775
35,0.17777097476519746,0.1776297650261008
36,0.17779965870838751,0.17769476616109744
37,0.1777867643202809,0.1777082631201281
38,0.17777143832114484,0.17776146467595752
39,0.17779145981791875,0.17772318073493246
40,0.1777490846913972,0.17772100303666086
41,0.17772922786377032,0.17771419841610925
42,0.17772438933404325,0.1776734496795388
43,0.17776901124835873,0.17761480999962026
44,0.17771328520550908,0.1775288750735812
45,0.17776071252844794,0.1777099869739567
46,0.1777538338439356,0.17797718522298403
47,0.177748688274055,0.17779318768392893
48,0.17771770310201804,0.17763817331503015
49,0.17773985040249776,0.17766082505588937
50,0.17775064037381696,0.17758849387857606
51,0.17770056505735926,0.1777062383263527
52,0.17772008871717704,0.177652359055833
53,0.1777068128903135,0.17767301133606692
54,0.17769860153456482,0.17759800644116602
55,0.17769066657093788,0.1776417302351442
56,0.17770368918526372,0.1777933075165504
57,0.17771222404272055,0.17769429278166726
58,0.17773585952371715,0.17787124248311195
59,0.1777098992948147,0.1776379121742384
60,0.1777178577596335,0.17756276931128542
61,0.17768330165117288,0.17764650404029883
62,0.17769751466101974,0.17764916874897602
63,0.1777002146597103,0.17762786985008192
64,0.177665265457188,0.17770172202784712
65,0.17769513602594106,0.17769598393997246
66,0.1776806687553533,0.17754760231666897
67,0.17768645652835605,0.1776395030349093
68,0.17766542163350696,0.1776123474269
69,0.17768073854424493,0.17756969372917558
70,0.17766297862922353,0.17752297397852884
71,0.17767346921941932,0.17763360585626317
72,0.1776650641843093,0.17754354944780482
73,0.17766810326481894,0.1776804849799449
74,0.1776514096047095,0.17778380974927283
75,0.17766867427350425,0.17761161917528018
76,0.17766964770883298,0.1775640876582973
77,0.1776746845574116,0.1775546810856558
78,0.1776729707392476,0.17754059167903713
79,0.1776736377538156,0.17754813972287228
80,0.17766108840918368,0.1775689864826654
81,0.1776441821127201,0.17777981428575027
82,0.177688099414134,0.17788690247447264
83,0.17766126655607964,0.17748352871133102
84,0.17765150650394715,0.17776635914876315
85,0.1776588898923376,0.1776303245076629
86,0.17765082150912112,0.177550728479143
87,0.17764861402894666,0.17761656139766313
88,0.17765432596802236,0.1776257587895209
89,0.17767960874797056,0.1775134536772143
90,0.17766053368933768,0.1775744357208803
91,0.17766338150254446,0.17791044328658714
92,0.1776503036967475,0.177592048552343
93,0.17764604724139618,0.1776601286059585
94,0.17765574998778405,0.17773510930852432
95,0.1776481210756645,0.17751002650422756
96,0.17765035573765336,0.17758678621961643
97,0.1776710197651129,0.17782922117326236
98,0.17766108915960188,0.17753044857504618
99,0.1776481640519951,0.17757789564819532
100,0.17763642296135473,0.17754351918680422
101,0.17766974130861288,0.17751343391876853
102,0.1776365043340827,0.17763065135704784
103,0.17764531296315333,0.17750127525337117
104,0.1776275642031579,0.17763357117313425
105,0.177663762095592,0.17756734735493407
106,0.17765032705500258,0.17751469610710263
107,0.17766376415626417,0.17750447485140203
108,0.17765233771120617,0.17762462619542135
109,0.17768117185714816,0.17750766666366438
110,0.17766429348100576,0.17749598191870228
111,0.17765101610566025,0.177575549168105
112,0.17766004497055812,0.17765720283881642
113,0.1776455838819869,0.17752216804563858
114,0.17764381294270498,0.17757228186211438
115,0.17764188736963044,0.17762438955275017
116,0.17764846835252668,0.17748662638871238
117,0.17764114926782826,0.17762412770629965
118,0.17764642547598655,0.1777267415361698
119,0.17763895130486226,0.17753130792630595
120,0.17764450389918662,0.17777247307050295
121,0.17764721747687298,0.17750915267520187
122,0.17763882883780485,0.1775666464711139
123,0.17762403075190947,0.17755294324802243
124,0.1776372409886498,0.1775890641331955
125,0.17761793446173962,0.17763528018460653
126,0.17762072255118763,0.17771486394642466
127,0.17763536033346403,0.17767784663938405
128,0.17761931253327645,0.17777903522669847
129,0.17766259309890078,0.17802036603605456
130,0.1776590275345184,0.17755386202751225
131,0.17764162784405083,0.1775657146016537
132,0.1776553847008853,0.17755005443387833
133,0.1776348514189061,0.17756180382894549
134,0.17766210574993221,0.17760749862197825
135,0.1776582753891758,0.17754520771065
136,0.17762068272542228,0.1779528217538662
137,0.17762391731369315,0.1775864036819929
138,0.17761729035279353,0.17768946714587538
139,0.17768424903031446,0.17752978208033043
140,0.17763295862600387,0.1776198552364238
141,0.17762174289956462,0.17767990275264822
142,0.1776353541454918,0.1774840676817446
143,0.17759343020492893,0.17764871119982442
144,0.17760047640541285,0.17768539863490831
145,0.1776528908230132,0.1775305276205903
146,0.17763385712076052,0.177842408077587
147,0.17764252777413117,0.1775999653028896
148,0.17765496402597733,0.17759681477166578
149,0.1776532164687733,0.17752992441170592
150,0.17763244881213522,0.17756575649426318
151,0.17762725951550581,0.17755752200909083
152,0.1776478372031836,0.17752523212190116
153,0.177643942264773,0.17753551696921863
154,0.17764127706523708,0.1775047732392163
155,0.17761749781960015,0.17760581167410375
156,0.17763845894119437,0.17753912028639732
157,0.17764757475931106,0.17757229904490562
158,0.1776726176257995,0.1774972274652502
159,0.1776182250760728,0.17756125920150068
160,0.1776088579274196,0.17758509507307219
161,0.17763033405625278,0.17752621472822744
162,0.1776341775374161,0.17755266051407206
163,0.17763386303477055,0.17756966566747817
164,0.17761170661015857,0.17755544470254134
165,0.17763875508241705,0.1777015642895883
166,0.17761287851323135,0.17751148882915208
167,0.17763250869074218,0.1775400261758535
168,0.1776263201408249,0.17749834103008472
169,0.17762987857623447,0.1776216428818059
170,0.17765010398426215,0.17761542609853828
171,0.17761581968203438,0.17752040348705947
172,0.1776103084262231,0.17755690818004186
173,0.17762575069848868,0.17755242104876579
174,0.17763082683086395,0.17751328575394712
175,0.17761050901419634,0.17756222087328322
176,0.1776415424154912,0.17750186953567199
177,0.1776046500467568,0.17754166990212786
178,0.17766433610595006,0.1775218449009622
179,0.17763731310026443,0.17757652609387814
180,0.1776634873293763,0.1776481233390185
181,0.17761840437241883,0.17755737559665538
182,0.17765222807868208,0.17764619829011133
183,0.17764061601232473,0.17754309562688375
184,0.17762010168138262,0.17765311595719915
185,0.17760274519356226,0.1775734976886668
186,0.1776378560933373,0.17753155010839852
187,0.17764461251328603,0.1775421280040455
188,0.17763222116741725,0.17750702893630482
189,0.1776165707851295,0.1776563649983884
190,0.17761693530374292,0.17757901986847738
191,0.17762644780125264,0.17763699398279756
192,0.17761475787603026,0.17765517450498614
193,0.17763210632961146,0.1775189577215943
194,0.17762673724231293,0.17755451913696627
195,0.177650196255921,0.17748241818082924
196,0.17760143941231102,0.17758067984842557
197,0.1776401407355599,0.17757915856571016
198,0.1776283732611689,0.17784276448231376
199,0.17763823562031456,0.1776030907361829
200,0.1776209571283403,0.17761381088087855
201,0.17765239433800098,0.17752942780434097
202,0.17763403816808232,0.17760474402413373
203,0.17763344891113247,0.17755402745745177
204,0.17762889258033462,0.1775237962591808
205,0.1776135621620692,0.17763945864897218
206,0.17763275141529233,0.17763932382110167
207,0.1776204210736578,0.1775963256678058
208,0.17763181076013593,0.17751590872290762
209,0.17760468420269582,0.1774872087806628
210,0.1776237820716594,0.17755978422176208
211,0.1776442594951291,0.17753598571482285
212,0.17762393378120342,0.1776903977804327
213,0.177623378870775,0.17752482140497045
214,0.17764087484108745,0.1776332936963418
215,0.17762936594531975,0.1775809376138162
216,0.17763578641614755,0.17765444585349302
217,0.17761777155547978,0.17761945399884266
218,0.17761608812329677,0.17752921934097698
219,0.17762119969804224,0.17747070477435978
220,0.17763955956645053,0.17752639835240244
221,0.17757477259917034,0.177663520119655
222,0.17760663347945607,0.17771745381998846
223,0.17764135622244467,0.1775082853735199
224,0.17762225311842086,0.17755141773135436
225,0.17764017889372927,0.17751821625063338
226,0.17762901969879366,0.1776049391975907
227,0.17762906760048808,0.17749827837934623
228,0.17762381029572133,0.1775749206378315
229,0.17762308814923922,0.1775009251878124
230,0.17764071348330956,0.17752341546218228
231,0.17762938668306688,0.1776195601064009
232,0.17762622841113476,0.1775321433204502
233,0.17763162921849104,0.17750047776486427
234,0.17762131404748066,0.17754587044185227
235,0.17762373538492776,0.1776844973322342
236,0.17762327122149899,0.177520545818435
237,0.1776175008867856,0.17764580763741186
238,0.17761656030309764,0.17751468355813738
239,0.17763750594582775,0.17755242667051405
240,0.17760674781698307,0.17773031029959033
241,0.17761494044801124,0.17758007108835885
242,0.17762674363277894,0.1775276855210573
243,0.1776093910518977,0.1776558429520245
244,0.1776295649490768,0.17764408127849463
245,0.17763044309916257,0.1776148570200168
246,0.1776260157033122,0.17774216987151467
247,0.1776477669795259,0.1775304281815075
248,0.17762553601932946,0.17756892931254342
249,0.1776296245179874,0.17773383279531701
250,0.17761633627348952,0.17757776189057395
251,0.17763632814065636,0.17754598760473136
252,0.17761590062595195,0.17749917575385313
253,0.17764505228812366,0.1775679524808581
254,0.17762531634929368,0.17767133497307408
255,0.1776501505221013,0.17755083949102976
256,0.17759161425842274,0.17758033486361002
257,0.17763551784981546,0.17751862316876768
258,0.17762370747056225,0.17780530126949134
259,0.1776349303378857,0.17761115322878912
260,0.17760653450763483,0.17754928490122002
261,0.17763030761294513,0.17751046782322727
262,0.177652175346915,0.17756232213531786
263,0.17762189292960126,0.17759439630261914
264,0.17761814246455923,0.17776387311288852
265,0.1775955269745976,0.17759872584852912
266,0.17762794921533476,0.1775524257766796
267,0.17763068410847113,0.17761862487330057
268,0.17761531414435827,0.1775352455963746
269,0.1776409633904338,0.17761724365209158
270,0.1776313515458938,0.17762767952214853
271,0.17759184277862858,0.17764259220910242
272,0.17762042573101514,0.1776415609476034
273,0.177626920606402,0.17769310915667708
274,0.17761884576125112,0.17760204919558767
275,0.17763067480566785,0.17753133956334116
276,0.17760393757828705,0.17765574739406498
277,0.1776145019060035,0.1775257506164492
278,0.17761193427274363,0.17757919191984842
279,0.17763774557341394,0.1775630944200454
280,0.1776149143858684,0.17754603755361184
281,0.1776227862071648,0.17755063053370462
282,0.17762469680760976,0.17750784840608264
283,0.1776215852760106,0.17751441663094364
284,0.17762558785774152,0.1775905346555228
285,0.17760961074575626,0.17752275004947665
286,0.17760890399475845,0.17751832334611392
287,0.17761367280110657,0.1775350502465029
288,0.1776273830962791,0.17754963052112846
289,0.17759799738105633,0.17750339795730202
290,0.17761279999328364,0.17758120208296516
291,0.1776413397608901,0.1775717328948681
292,0.1776156149072041,0.17750550258460718
293,0.17760904596673308,0.17774898502990402
294,0.17764013095034492,0.17754790286850347
295,0.17762539869875646,0.17758691740158325
296,0.17764889862206723,0.1774989778400879
297,0.1775896171157023,0.17755003279367582
298,0.17761510631425395,0.177567350859706
299,0.1776140183686829,0.1775644001004822
300,0.17761889449078783,0.17752153311739216
301,0.17762475691848903,0.17749530218112347
302,0.17763794665571025,0.17752650859982552
303,0.17763183226021265,0.17758118644086224
304,0.17760799491672302,0.17755678232579883
305,0.17760634450294036,0.17754356090299897
306,0.17763365546671703,0.17777266188126994
307,0.17765185232166286,0.17761624017002645
308,0.17762602519669787,0.17758431621395704
309,0.1776105625618943,0.1776430208380051
310,0.17761656032096473,0.1777546821778086
311,0.1776008101390134,0.17774459370356802
312,0.17763244052775662,0.17758563671322816
313,0.17762495028815395,0.17754464740581935
314,0.17762142136919318,0.17784126182899007
315,0.17762574555871966,0.17751168140343257
316,0.17761304018070562,0.17753752478013946
317,0.17762607835131963,0.17772422235785457
318,0.17763626894695486,0.17773952454493191
319,0.17762233452092735,0.17759411533281572
320,0.17762300729465713,0.17758783585176566
321,0.1776274752250011,0.1775009355845184
322,0.1776175384672521,0.1775143109820636
323,0.17762886061609315,0.17763274301199247
324,0.17760510603300958,0.1775172486513171
325,0.17762044913691583,0.17758188189110985
326,0.17764847733372216,0.1775868997601138
327,0.1776245048375343,0.17751961671280503
328,0.17764793784260083,0.17755441094771462
329,0.17757223629289204,0.1775612837231432
330,0.17762155208489497,0.17758275029832393
331,0.17760290366282566,0.17759274820126034
332,0.17762346659823477,0.17752752485431456
333,0.17762415385027108,0.17756952277157564
334,0.17761516367359984,0.1775123595297572
335,0.17761266982550625,0.17759047267516015
336,0.17760188340378416,0.17751724191227577
337,0.17764767898405961,0.17751387379116776
338,0.17760230279821668,0.1775463376702901
339,0.17762090347939544,0.1778012414146053
340,0.1776007530059841,0.17749510832489618
341,0.17761018499434233,0.17765287753862005
342,0.17760814012264273,0.17758189643944167
343,0.17762213778033625,0.1774693479336616
344,0.17760322065495376,0.17758361047285226
345,0.1776150291402944,0.17753045467899461
346,0.17758777996094868,0.17751595426142075
347,0.1776575691205897,0.17754502647395387
348,0.17761557644529405,0.17750795445483597
349,0.17762055445751318,0.1775943994428007
350,0.17759599709968202,0.17805027294883413
351,0.17761111724600612,0.17754224128580132
352,0.17761645647142527,0.17750282449193516
353,0.17760723472522985,0.17751295448243382
354,0.17762494541043572,0.17752493975570846
355,0.17763055838960157,0.17752129053542628
356,0.17761938655071502,0.17760337271743057
357,0.17763060954310816,0.17755000508480778
358,0.17761383957261567,0.1775448374632502
359,0.1776073400577386,0.17755356654465998
360,0.17761977641083163,0.17761180688051512
361,0.17761594337596595,0.17750296393010967
362,0.17761683115046278,0.17761005001361668
363,0.17761152740910374,0.17746429852171028
364,0.1776143939232083,0.17766012755923133
365,0.1776227927346119,0.17757181311651019
366,0.1776328619173486,0.17761746548768942
367,0.17758787638968607,0.17755264544825716
368,0.17763418520835758,0.17761246026173858
369,0.1775934118315947,0.17754768110347152
370,0.17758241725220478,0.1775172235886695
371,0.17761847245798026,0.17765927341808554
372,0.1775815405076642,0.17765737180881078
373,0.17760788703517472,0.17761777812981097
374,0.17758189683123457,0.1775144225467164
375,0.17760197761104546,0.17752256816592665
376,0.17760845826422092,0.17759597070967953
377,0.17762357250249072,0.17750341289374616
378,0.17760369294195724,0.17757524125389726
379,0.17761016164204294,0.17753288586166024
380,0.17763125196659116,0.17758037914369834
381,0.17761318911489346,0.1775335121691086
382,0.17758437141859465,0.1775779353297406
383,0.1776300499336325,0.17827823554660358
384,0.1776329844916086,0.17750104017491028
385,0.1775937638015484,0.17751771054027018
386,0.17762533256666457,0.1775104503228896
387,0.17761741747125256,0.17751943013662416
388,0.17764453215302706,0.17754426833768483
389,0.17761835267098783,0.17749345831825872
390,0.17759528402373087,0.1776332810415277
391,0.17761115090166638,0.1774935388809692
392,0.1776062820991166,0.17750734541250573
393,0.17759698210098,0.177748465947307
394,0.17760428497426325,0.17759173556915303
395,0.17764659711925818,0.17762274333314812
396,0.1775928239682786,0.1776037712382254
397,0.1776286565321241,0.1775385319669132
398,0.17759766483859574,0.17771923397362654
399,0.17760335780876718,0.17762730448803002
400,0.17762810074620777,0.17760773506471278
401,0.17758831686134055,0.17765532097622647
402,0.17759622760909163,0.17752804954689888
403,0.17762591017426538,0.17770065783560512
404,0.17759911117436503,0.17767068354417323
405,0.17758281615902957,0.17756159262527324
406,0.17764587640809976,0.17752446644684416
407,0.17761044272130055,0.17756220967683062
408,0.17759625566639392,0.177522997571054
409,0.17762426364359904,0.17752548711170055
410,0.1775824305512827,0.17753983131994294
411,0.17761650831579304,0.17753498601979315
412,0.17759962505002103,0.17759705059106837
413,0.17760701646073926,0.1776960556466653
414,0.17760961956019214,0.1775472388671154
415,0.17762782960701332,0.17754047197578643
416,0.17758637144387387,0.1774821786331961
417,0.17764500872813446,0.17757588819010386
418,0.1776160649913583,0.1776186839251793
419,0.17760826961147033,0.17756727471912387
420,0.17759851687889305,0.17760238301923356
421,0.17762281588441747,0.17755687676646528
422,0.17760873641327415,0.17753120793445712
423,0.1776231254974334,0.17753067671452907
424,0.17761773517806467,0.17764516795772967
425,0.17761079074262526,0.17747189499725952
426,0.17762800152424715,0.17751262124683692
427,0.17760912041893775,0.17752005507979887
428,0.17760581635742737,0.17759495507852244
429,0.1776233425290941,0.17758666617529734
430,0.17760218245734413,0.17750295602673136
431,0.17762027960791768,0.17748518275198452
432,0.17762248231162078,0.17752723867439715
433,0.17760383602169205,0.17792799912434257
434,0.1776164757559816,0.17757833094557346
435,0.17763156939348537,0.17778169405488584
436,0.17762205148224447,0.1775982924446687
437,0.17760807426451303,0.17752199500634525
438,0.17760422124827413,0.17748295344653428
439,0.17761509970342704,0.1775279828386224
440,0.1776280543215269,0.1775164016726079
441,0.17761627489404616,0.1775203088464564
442,0.17761240135446535,0.17754548768077014
443,0.1776113219553237,0.1774897005911784
444,0.17763019124452445,0.1774951591205672
445,0.17760199664546242,0.17767149451076278
446,0.1776238842476472,0.17749203653343099
447,0.17762130903278134,0.17763853932847729
448,0.17761156258942318,0.17753324672379828
449,0.17756392433941603,0.1775717491838249
450,0.1776060025028283,0.17759837191360808
451,0.17763715237974645,0.17760079145290386
452,0.1776048444586692,0.17799018885596304
453,0.17762102710185862,0.17757013247252076
454,0.1776034068122661,0.17752162774623428
455,0.17759936043231797,0.1774924639391918
456,0.17761961822148611,0.177578588169959
457,0.1775942831504926,0.17751382758227877
458,0.17763310536849414,0.1777407421709142
459,0.17761793753488078,0.17766356942168163
460,0.17761139674700327,0.1777262563251941
461,0.1776178848090694,0.17749704733408617
462,0.17760683528834778,0.17792209853501234
463,0.17760262180932707,0.17864899628964012
464,0.17762164894244273,0.17753353091611013
465,0.17759113954149372,0.17763155639971348
466,0.1775950494584896,0.17765064646902287
467,0.17759367593115183,0.1777094374421834
468,0.177605777782359,0.17753073070918657
469,0.17761714534341194,0.17754451622385253
470,0.17760221812603094,0.17773944305310405
471,0.17757869592244677,0.17752713134369702
472,0.1776284374219241,0.17753707948592862
473,0.17763202931050012,0.17771999108669037
474,0.1776171468382926,0.1775280242372707
475,0.1775770295771668,0.1775145089781557
476,0.17762013582541025,0.1774951703405418
477,0.17759113842777782,0.1776668587442261
478,0.1776250483963987,0.17751791228811478
479,0.17760171750776296,0.17763725898119062
480,0.17759574287467533,0.1776246783083221
481,0.1776311271053424,0.17792033969226934
482,0.17761325231082528,0.17747310596652735
483,0.17760957308191,0.17750513697103337
484,0.17762063330502437,0.17760464776051543
485,0.17759610762556108,0.17749147489960962
486,0.17759436713777285,0.1774990859822956
487,0.1775897671457389,0.17782884549228997
488,0.17760922772278318,0.17769304924624682
489,0.17759398375745777,0.17764097834395534
490,0.1776092398902781,0.1774984146067733
491,0.17759273229814548,0.1775624405919047
492,0.17759961321604528,0.17763137960866765
493,0.1775997649613235,0.17758877023807546
494,0.1775948980407749,0.17771863281115266
495,0.17762188637833135,0.17748290436796627
496,0.17760654213688642,0.1776097336903085
497,0.1776282442785758,0.1776368559441796
498,0.1776021987223606,0.17757710197024582
499,0.17759677693307352,0.17771122974491346
500,0.1776240145524057,0.1775552477178935
