epoch,loss,val_loss
0,0.6695966149436103,0.6673294324080149
1,0.6673240605990092,0.6671395883162816
2,0.6672012821435929,0.6671579387187958
3,0.6671337087551753,0.6670276223421097
4,0.6670838870737288,0.667109826207161
5,0.6670464435948266,0.6670937790075938
6,0.6670267899698681,0.6670713389317194
7,0.6670146890083949,0.6669754776557286
8,0.6670035213629405,0.666964034239451
9,0.6669894678062863,0.666966150800387
10,0.6669846162266202,0.6670117794672649
11,0.6669764744440715,0.667072977701823
12,0.6669755072196325,0.6669911667108536
13,0.6669688523080614,0.6669343283573786
14,0.6669679668214586,0.6669481526215871
15,0.666964256061448,0.6669487577279408
16,0.6669640430609385,0.666984735886256
17,0.666960466782252,0.666932911435763
18,0.6669598506026798,0.6670178278684616
19,0.6669593727986017,0.6671315873861313
20,0.6669549656444126,0.6669399509827296
21,0.6669547625780106,0.6669668047825495
22,0.6669493950075573,0.6669196024338404
23,0.6669492422607209,0.6669781659444173
24,0.6669523239533106,0.6669381828308105
25,0.6669497337473763,0.6669146643082301
26,0.6669477384620243,0.6669128915866216
27,0.6669442448218663,0.6669176430304845
28,0.6669468626313739,0.6669214505354564
29,0.6669419611559974,0.6670361280838648
30,0.6669422796037462,0.6669449478387832
31,0.6669415892627504,0.666934223651886
32,0.6669404334492154,0.6669063004255295
33,0.6669404493570328,0.6672975166241328
34,0.6669407824012968,0.666909121910731
35,0.6669413378636042,0.6669317973454794
36,0.6669398064745797,0.6669313329855601
37,0.6669384998480479,0.6669439531564713
38,0.6669365185764101,0.6669259602626165
39,0.6669380098713769,0.6669213869174322
40,0.6669367497629589,0.6669034984906514
41,0.6669367748498917,0.6669817880392075
42,0.6669383059872521,0.6669094614982605
43,0.6669379606776767,0.6669113008181254
44,0.6669387523730596,0.6669127302169799
45,0.666936261402236,0.6669075722297033
46,0.6669379216565026,0.6669085785150528
47,0.6669371092451943,0.6669144876797994
48,0.6669324203067356,0.6669966392914454
49,0.666937755227089,0.6670185772975286
50,0.6669345868031183,0.666953317562739
51,0.6669368820455339,0.666968091805776
52,0.6669339087539249,0.6669988450606664
53,0.6669379346238242,0.6669232954581579
54,0.6669334661563238,0.6669886362155278
55,0.6669384178982841,0.6669186370770136
56,0.6669374500380622,0.6669030869007111
57,0.666933447321256,0.6669080096483231
58,0.666934629175398,0.6669880307515462
59,0.6669363126887216,0.6669153778950373
60,0.6669332840177747,0.6670500891208648
61,0.6669347976446152,0.6675328993002574
62,0.6669353750281863,0.6669035557508468
63,0.6669354224867291,0.6669824688831966
64,0.6669328767326143,0.6670172637303671
65,0.6669330808586544,0.6669673515558243
66,0.6669303911129634,0.6669303716818492
67,0.6669366196658876,0.6669029584725698
68,0.6669337797959646,0.6669016952912012
69,0.6669322794410918,0.6669108104308447
70,0.6669341081115935,0.6669078531265259
71,0.6669346346855164,0.6669306746721267
72,0.6669332897795571,0.6669764665365219
73,0.6669316694868935,0.6668957992792129
74,0.6669310213062498,0.6669605671564738
75,0.6669350912968318,0.6669184707005819
76,0.6669305173423555,0.666956141114235
77,0.666935865773095,0.6669383850495021
78,0.6669312751028272,0.6669501310189565
79,0.6669314299027125,0.6668970339298248
80,0.6669370368321736,0.6669226161638896
81,0.6669296667708291,0.6669643183549245
82,0.6669343033499188,0.6669023176034291
83,0.6669325634506014,0.6669091787338257
84,0.6669321078194512,0.6669043943881988
85,0.6669316813548406,0.6668965373833974
86,0.6669345782730315,0.6670655357042948
87,0.6669343296686808,0.6668932373523713
88,0.6669313500589794,0.66693916340669
89,0.6669304280943341,0.66690644856294
90,0.6669302674267027,0.6669017419417699
91,0.6669315413104163,0.6668909050623576
92,0.6669323691129685,0.6670140701135
93,0.6669303955369525,0.6669178867737452
94,0.6669331045283211,0.6669074111382166
95,0.6669289200041029,0.6669014430443446
96,0.6669302505784565,0.6669335324764252
97,0.6669318151738909,0.666894396185875
98,0.6669318574666977,0.6669069530963898
99,0.6669296268754535,0.6669221167167028
100,0.6669314411348767,0.6670850726366043
101,0.6669300951030519,0.6669006793896357
102,0.6669286937183804,0.666902530392011
103,0.6669299846357769,0.6669112583796183
104,0.6669317523903316,0.6669209691286087
105,0.6669286276896794,0.6669522759914398
106,0.6669292257361942,0.6669001534779867
107,0.6669307862520217,0.6669045383930207
108,0.6669289969073402,0.6669668445984522
109,0.6669298354254829,0.6669132498900096
110,0.6669300560951232,0.6670082157452901
111,0.6669289693435033,0.66689688372612
