epoch,loss,val_loss
0,0.4479833365678787,0.44557662357886635
1,0.44554136050409743,0.4452097986340523
2,0.44530023345682357,0.44517839241027835
3,0.44516556402047475,0.44506761652231214
4,0.4451157328420215,0.4450749472379684
5,0.4450763961871465,0.44525804110368095
6,0.44505157095193865,0.4450380751291911
7,0.44502750702699023,0.4449413651625315
8,0.4450022654732068,0.4453964340488116
9,0.44499134800169204,0.44519181017080944
10,0.44497980835702683,0.44506442844867705
11,0.4449717551204893,0.4451776116093
12,0.44496513809760413,0.4449258682926496
13,0.4449578669865926,0.4453554500540098
14,0.4449437556664149,0.44492593506971995
15,0.4449403940770361,0.4450692391594251
16,0.4449326852162679,0.44490908668438595
17,0.44492757931682797,0.4449587343335152
18,0.4449280479947726,0.44485837107896803
19,0.44492032390832903,0.44484996553262074
20,0.4449145922727055,0.4449578181107839
21,0.44491730623112785,0.44485841419299443
22,0.44491284949911963,0.44494056262572607
23,0.444912048763699,0.44485775409142175
24,0.4449032912188106,0.44484036914507546
25,0.4449100356631809,0.44485651564598083
26,0.4449059948325157,0.4448727831045787
27,0.4449064222706689,0.44501636904478076
28,0.4449048605759939,0.44494865282376606
29,0.4449004519250658,0.444843108912309
30,0.4448993112444878,0.44483651117483775
31,0.4448957538472282,0.444857489724954
32,0.4448884141974979,0.44486157488822936
33,0.44488091118468176,0.44483004669348397
34,0.44487269426054427,0.44494393875201543
35,0.4448748802873823,0.4453486117720604
36,0.4448762055502998,0.4448534844319026
37,0.4448731564217144,0.4448270543416341
38,0.4448655504915449,0.4448501499692599
39,0.44487181554900274,0.4448784283796946
40,0.44487286468346915,0.4448454266985257
41,0.4448709409634272,0.44493435074885684
42,0.4448659156627125,0.4448206076224645
43,0.44486441916227343,0.4448182479937871
44,0.4448652432163556,0.4448328339854876
45,0.44486526249514685,0.44482657134532927
46,0.4448611279924711,0.4448252045313517
47,0.44485967009597355,0.44482226461172103
48,0.44486675998237396,0.44488874705632525
49,0.44486009169949425,0.444824363331
50,0.44486248208416834,0.44485233968496324
51,0.444867059773869,0.444953754623731
52,0.4448632217579418,0.44487458709875743
53,0.44485956723160214,0.4448863400022189
54,0.44486209255456927,0.44486410534381865
55,0.4448637537492646,0.4448010314305623
56,0.4448614482416047,0.44518244175116223
57,0.4448645759423574,0.44484692655007047
58,0.44486083926757175,0.4448187636534373
59,0.44486360364490085,0.4448770186305046
60,0.4448600399096807,0.44480556962887446
61,0.4448585477736261,0.44492954766750337
62,0.4448586958580547,0.4448008544842402
63,0.4448616761167844,0.44502244812250136
64,0.4448596644335323,0.4450494988958041
65,0.4448573956158426,0.44482995971043904
66,0.4448593980736203,0.4452325727144877
67,0.4448570739560657,0.44490163354078927
68,0.4448576737907198,0.4448342081904411
69,0.444862409028742,0.44480446352561315
70,0.44485957457621894,0.44481827545166014
71,0.4448597685363558,0.44493329427639644
72,0.4448597315417396,0.4448167853752772
73,0.44485589390330843,0.44527424840132396
74,0.4448552262518141,0.4448076503475507
75,0.44485970501767264,0.44486416214704516
76,0.4448610443870227,0.4448961121837298
77,0.44485702754391565,0.4448036646445592
78,0.4448626698056857,0.44483813854058585
79,0.44486107477214604,0.4448687660694122
80,0.4448557859328058,0.444805340607961
81,0.44485971085892784,0.4449304070274035
82,0.4448561370968819,0.4448795891404152
