epoch,loss,val_loss
0,0.6689479937288496,0.6672792562246322
1,0.6673075745768017,0.667134354074796
2,0.6671811010175281,0.6672176678975423
3,0.6671005736324522,0.6670438733498255
4,0.6670744925604927,0.667002840479215
5,0.6670566441615423,0.6670806450843811
6,0.6670328144099977,0.6670197885831197
7,0.667015207807223,0.6669896708329519
8,0.6670003399584028,0.6669403848648071
9,0.6669901747041278,0.6669741397301356
10,0.6669780425892936,0.6669630614916483
11,0.6669774918556214,0.6669415594736735
12,0.6669704171551598,0.6669447497924169
13,0.6669682600630654,0.6669586900075277
14,0.666959180937873,0.6669243372678757
15,0.6669577864011129,0.6669497797091802
16,0.666950937377082,0.666979478875796
17,0.6669513325293859,0.6669527323643366
18,0.6669501667684979,0.6669376769860585
19,0.6669469923840629,0.6669305185476939
20,0.6669442728360494,0.6669069389502208
21,0.6669428974919849,0.6669277290900548
22,0.6669415936337577,0.6671548279523849
23,0.6669399859640334,0.6669558738072713
24,0.6669374555746714,0.667160907626152
25,0.6669387454986573,0.6669608752330144
26,0.6669369300338958,0.6670370158751806
27,0.6669366631772783,0.6670625938971837
28,0.6669367894861433,0.6669312141338984
29,0.6669327663713032,0.6669115524291992
30,0.6669351682795419,0.6669426469008127
31,0.6669320050610437,0.6669343080123266
32,0.6669313890404172,0.6669523686965306
33,0.6669329370790058,0.6670774763027827
34,0.6669294341537687,0.6669286672274272
35,0.6669310930437512,0.666894357919693
36,0.6669321245749792,0.6670754004319509
37,0.6669324867195553,0.6669043715000152
38,0.6669301669465171,0.6669052844047546
39,0.6669291532039643,0.6669407354593277
40,0.6669286686049567,0.6669138507048289
41,0.6669289848539565,0.6668940901756286
42,0.6669265725480186,0.666988014737765
43,0.6669273985624313,0.6669334937731425
44,0.6669297099378374,0.6668899951775868
45,0.6669271915223863,0.6669423783620199
46,0.6669273370371924,0.6668864980538686
47,0.6669275176525116,0.666911484003067
48,0.6669239512549506,0.667060578584671
49,0.6669283716811074,0.6669551982879639
50,0.6669208206600613,0.6669539668162664
51,0.6669255072673161,0.666893690387408
52,0.6669228757619858,0.6668914838631947
53,0.6669230980475743,0.6669314931233724
54,0.6669232939746644,0.6668957539796829
55,0.6669217011663648,0.6669496011734009
56,0.6669229093657599,0.6668995569547017
57,0.6669239865938822,0.6669023909568786
58,0.6669241775406731,0.6668951953649521
59,0.6669212717347675,0.6669137264092764
60,0.6669187468952603,0.6669310346047084
61,0.6669197124905056,0.6669001986583074
62,0.666920059800148,0.666947012146314
63,0.6669194654623667,0.6669097453753153
64,0.6669199123250114,0.6669002739985784
65,0.666920228878657,0.6668859132528305
66,0.6669219079150094,0.6669129165410995
67,0.6669177738295661,0.6668913227717082
68,0.6669179340071149,0.6668929742574692
69,0.6669177980025609,0.6670793623924255
70,0.6669165038930045,0.6669142694075902
71,0.666918186320199,0.6668878065347672
72,0.666915932946735,0.666888065258662
73,0.6669194809463289,0.6668853533267974
74,0.6669171385765076,0.6669270480076472
75,0.6669175069067214,0.6668819050788879
76,0.6669186953836017,0.6668829666376114
77,0.6669173208607567,0.6668875658512116
78,0.6669170980850856,0.6669015389680862
79,0.6669146493938234,0.6670663223663966
80,0.6669178989860747,0.6670643373330434
81,0.6669140763150321,0.6669660014311473
82,0.6669159682194392,0.6668738110462824
83,0.6669179119269053,0.6668946567376455
84,0.6669157696697448,0.6670103158156077
85,0.6669115093681547,0.6668876379330952
86,0.666912885957294,0.6668731776475907
87,0.6669134035905202,0.6669041867256165
88,0.6669135133425395,0.6668899572292963
89,0.6669170294337803,0.6669047563473384
90,0.6669157915247811,0.6668898510138194
91,0.6669164072804981,0.6668865764141083
92,0.666913904454973,0.6668952416578928
93,0.6669164057572683,0.6669026273091634
94,0.6669126709434722,0.6669231627782186
95,0.6669123015668658,0.6669274669488271
96,0.6669108689228693,0.6668899223804474
97,0.6669129676421484,0.6669057666460673
98,0.6669135260317061,0.6669343345165253
99,0.6669118031660716,0.6668868954181671
100,0.6669148033724891,0.6668809399604797
101,0.6669119044144949,0.6668890874783198
102,0.6669130246374342,0.6668708772659302
103,0.6669115686549081,0.6669446275631586
104,0.6669132124185562,0.6668849376837412
105,0.6669143762456046,0.6668705773750941
106,0.6669109319051106,0.6668885074456533
107,0.6669128878911337,0.6668995158672333
108,0.666912960714764,0.6668804105917613
109,0.6669159452252917,0.666891414364179
110,0.6669132596784167,0.6669480644067128
111,0.6669144733084573,0.6668845473130544
112,0.6669128519561556,0.6669779710769653
113,0.6669119849734836,0.6668806558847428
114,0.6669163795577155,0.6669045724074045
115,0.6669100986851586,0.666964060028394
116,0.6669101385143068,0.666905177195867
117,0.6669137417342927,0.6669082213242848
118,0.6669116554657618,0.6668791511853536
119,0.6669133647150464,0.6668978079557418
120,0.6669079913695654,0.6669442996978759
121,0.6669114998049206,0.6668739690383275
122,0.6669129943185382,0.6668911194403966
123,0.6669116577572293,0.6669078837633133
124,0.6669132359425227,0.6668812610308329
125,0.6669111416472329,0.6668891372680664
