epoch,loss,val_loss
0,0.22663937622639868,0.22351749297976495
1,0.2237372955315643,0.2234764251212279
2,0.2234588671988911,0.22323904951413473
3,0.22327349922060966,0.2230823323428631
4,0.22318854488929113,0.22317564141750335
5,0.22310818333427113,0.2229610887169838
6,0.2230779214070903,0.22316733375191689
7,0.22305052642027537,0.22291698275009791
8,0.2230279458661874,0.22287854689359665
9,0.2230089484055837,0.22286829716960588
10,0.22298792363206546,0.22295405628283818
11,0.22297635101609758,0.22392683192094168
12,0.22295561017261611,0.2228577765027682
13,0.2229522658056683,0.22297409972548485
14,0.22294261982374722,0.22283574431141218
15,0.22293684259719318,0.22284281716744106
16,0.22293060736523734,0.22281853052973746
17,0.22291219457652833,0.2228091895778974
18,0.22291227435734537,0.2228165095547835
19,0.22290036287241513,0.22294051468372345
20,0.22290615611606174,0.22279589415589968
21,0.22289880505204201,0.22300144018729529
22,0.22289866707722347,0.2227888143757979
23,0.2229024350312021,0.22278767481446266
24,0.22289392260379262,0.222812130322059
25,0.22289636844727728,0.22283016361792882
26,0.22289440271920627,0.22300284934043885
27,0.2228920161989,0.22284144429365793
28,0.22288387568129434,0.22289655257264773
29,0.2228824267288049,0.22283163919051488
30,0.22287734511825774,0.22296292826533318
31,0.22287513582573998,0.22285367673635484
32,0.22286143738693662,0.22296326289574306
33,0.22286557948920463,0.22279437527060508
34,0.22285442147652307,0.2227923391064008
35,0.22285965564515856,0.22282956995566686
36,0.22285699812571208,0.22282640898227693
37,0.2228560522629155,0.22280943725506464
38,0.22285281242926916,0.2227626768052578
39,0.22285786665479343,0.2229031221071879
40,0.2228586622344123,0.2227882890701294
41,0.222849869446622,0.2228430223663648
42,0.2228548986547523,0.22277964731057484
43,0.22285448647538822,0.22316081816951433
44,0.22285017241040866,0.2228894462287426
45,0.22284736463427543,0.22277754999200503
46,0.22285112815433078,0.2227539471189181
47,0.2228496725095643,0.22275398190816242
48,0.2228465668492847,0.22290269077817598
49,0.2228492559923066,0.22274391602476437
50,0.22284549705849754,0.22281209325790405
51,0.22284427827596665,0.22277727674444517
52,0.22284884988599354,0.22347804236412047
53,0.2228413772251871,0.22281118196249008
54,0.22284454645050897,0.22276963536938033
55,0.22284134045243265,0.22281666030486424
56,0.22284158264597256,0.22284021682540575
57,0.22284526697463458,0.22292950450380644
58,0.22285168041785558,0.22276464552680653
59,0.22284371017747456,0.2228748329381148
60,0.22284118742081854,0.22296543617049852
61,0.2228430624504884,0.22279283652702966
62,0.2228389928440253,0.22275105320413907
63,0.22283862484163708,0.22274960723519324
64,0.2228447340428829,0.22278785922129948
65,0.22282983273267745,0.22277286747097969
66,0.22283872134486835,0.22282926852504412
67,0.2228357322315375,0.22279766645034155
68,0.22284235155913565,0.22307732932766278
69,0.22283535634477933,0.22276016380389532
