epoch,loss,val_loss
0,0.6681879165172577,0.6671826028426489
1,0.6672316909101275,0.6673746157089869
2,0.6671428731017642,0.6670130283435186
3,0.667095492362976,0.6670369206269582
4,0.6670600279834535,0.6670617970228195
5,0.6670316462251875,0.6669728545347849
6,0.6670155549844106,0.6670014299154282
7,0.666993069489797,0.6669548275868098
8,0.6669842787451215,0.6670550108353297
9,0.6669790846771664,0.6669555751482645
10,0.6669741466442743,0.6669904216527939
11,0.6669701486561034,0.666923227707545
12,0.6669635190433926,0.6669356460968653
13,0.666956682258182,0.6669776018460591
14,0.6669580083290736,0.6669227853218714
15,0.6669542159636815,0.6669260888497035
16,0.666955718755722,0.6669084705114364
17,0.6669506482548184,0.6669185024102529
18,0.6669499076737297,0.6669304925998052
19,0.6669476028548347,0.6669942570527395
20,0.6669480937719345,0.6669191193183263
21,0.6669502151012421,0.666966829697291
22,0.6669452533854379,0.6669121168851853
23,0.6669419991837607,0.6669403671820958
24,0.6669420464966033,0.6669160984357199
25,0.6669444397025638,0.6669225602547327
26,0.6669438690741857,0.6669944511254629
27,0.6669409687121709,0.6669085183143616
28,0.6669402277204726,0.6669198784828186
29,0.6669413497712877,0.6669658577442169
30,0.66694121907817,0.6669615885416667
31,0.666939958386951,0.6669144995212555
32,0.6669370175202688,0.6669176856676737
33,0.6669382269912296,0.6669143999814987
34,0.6669369790289137,0.6669403356313706
35,0.6669408202171325,0.6670417698224386
36,0.6669358722501331,0.6670623233318329
