epoch,loss,val_loss
0,0.771186153517829,0.6681595479647319
1,0.6674475302961138,0.6676694185733795
2,0.6672662808895111,0.6671618614594141
3,0.667227933022711,0.6671107167402903
4,0.6671588849888908,0.6671522972981135
5,0.6049904131491979,0.5561096931695938
6,0.5561205742226707,0.556076984167099
7,0.556070050213072,0.5561004968881607
8,0.5560524929629432,0.5560211983919143
9,0.5560395234160953,0.5560196497042974
10,0.5560337016979854,0.5560228937864303
11,0.5560267190800773,0.5559672365188598
12,0.5560180691878001,0.5559867628018061
13,0.5560137735737695,0.5559493905305862
14,0.5560116698079639,0.5559965018033981
15,0.5560081130796009,0.5559771227836608
16,0.5560066008832719,0.5559908330043157
17,0.5560047637356652,0.5560903787612915
18,0.5560010919703378,0.5559710243940353
19,0.5559996645318137,0.5561835719744365
20,0.555998266114129,0.5559705520073572
21,0.5559961996740765,0.555954851826032
22,0.5559941355784734,0.5559637310902278
23,0.5559949536720912,0.5559345997969309
24,0.555987758451038,0.5559475803772609
25,0.5559924153486887,0.5560436455806096
26,0.555986159629292,0.5559546421766282
27,0.5559888662629657,0.5561007712284723
28,0.5559807087050543,0.5560209770600001
29,0.5559742566876942,0.5559692246119181
30,0.5559744046264224,0.5559466689427693
31,0.5559746629264619,0.5559373397429784
32,0.5559666942887836,0.5559418065547943
33,0.5559686012532976,0.5559875742197037
34,0.555968031446139,0.556080419143041
35,0.555966841340065,0.5559868890047074
36,0.5559684391154184,0.5559192547003429
37,0.5559674873484506,0.556330592195193
38,0.5559626316361957,0.5559487511316935
39,0.5559646238088608,0.5559341154893239
40,0.5559610775974062,0.5559276561339697
41,0.5559619030952454,0.5559522010485332
42,0.5559600040647719,0.5559769618908564
43,0.5559630461533864,0.5559266024430592
44,0.5559591052267286,0.5559655493497848
45,0.5559623167382346,0.5559818814198176
46,0.5559588712586296,0.5559147357543309
47,0.5559572950998942,0.5559345865249634
48,0.5559600768751568,0.555952543536822
49,0.5559599057833353,0.5559118166367213
50,0.5559678978125254,0.5559367042779922
51,0.55595543440183,0.5560713960329692
52,0.5559611622624927,0.5559002041021983
53,0.5559559170934889,0.5559614360729853
54,0.555957551519076,0.5559202307860056
55,0.55595487789313,0.5560118137200674
56,0.5559557813008627,0.5559940528472265
57,0.5559551234377755,0.5559991135597229
58,0.5559530297782685,0.5560144247214
59,0.5559505896568299,0.5559460959434509
60,0.5559581516318851,0.55594218424956
61,0.5559539928833643,0.5560419047673544
62,0.5559543772935868,0.555898274620374
63,0.5559510275125503,0.5559042690197626
64,0.5559556815491782,0.5559208314021429
65,0.5559517807430692,0.5559478058815003
66,0.5559526168902715,0.5559047477245331
67,0.5559558160967297,0.5559099008639653
68,0.5559515542984009,0.5559107929468154
69,0.5559508642355601,0.5559105718135834
70,0.555949786318673,0.5559347230195999
71,0.5559510278701782,0.5559070899089178
72,0.5559542641904619,0.555923794945081
73,0.5559501349396175,0.5559033763806025
74,0.5559504707654317,0.5560378459692001
75,0.5559530661635929,0.5558867714802425
76,0.5559477534294128,0.5559042052427927
77,0.5559495732121997,0.5559442888100942
78,0.5559539744589064,0.5558941703240077
79,0.5559560335477193,0.5559504170020422
80,0.5559532650576697,0.5558986628850301
81,0.55594771027565,0.5560067087014516
82,0.5559510824945237,0.5559254675706228
83,0.5559510381619136,0.5559005821943284
84,0.5559530255662071,0.5560325325330099
85,0.5559475786288579,0.55592746591568
86,0.5559521498415205,0.5561268151601155
87,0.5559481638405058,0.5559298041264216
88,0.5559530223343108,0.5560278389851252
89,0.5559489175081253,0.5560645169019699
90,0.5559535227616628,0.5559321709076563
91,0.5559501935773425,0.5559505141973495
92,0.5559517410331303,0.5559050525426865
93,0.5559497931665844,0.5558976810773214
94,0.5559537481599384,0.555937861442566
95,0.5559487510919571,0.5559354389508565
