epoch,loss,val_loss
0,0.5584243277178871,0.5565160972674688
1,0.5564320947594112,0.5563572247028351
2,0.5562428571648068,0.5560953330596288
3,0.5561417082415687,0.5561555871566136
4,0.556084849582778,0.5559925566514333
5,0.5560423981348673,0.5559703099330267
6,0.5560188251866235,0.5559486286640167
7,0.5559975950850381,0.5559470307032267
8,0.555983718805843,0.5559417096773783
9,0.5559758090575536,0.5561248882611592
10,0.5559755909442902,0.5559682301680247
11,0.5559624256557888,0.5559038772185644
12,0.5559556559986538,0.555924763639768
13,0.5559475554757648,0.5559277854363124
14,0.5559487618340386,0.5558974074522655
15,0.5559419889185163,0.5558991211652756
16,0.5559360188245773,0.5559136404196421
17,0.5559360703627269,0.5559188386599223
18,0.5559311218923992,0.5558997360865275
19,0.5559260890086491,0.5558968567848206
20,0.5559272596438726,0.5559237552881241
21,0.5559273165464401,0.5558762631018956
22,0.5559236937628852,0.5559080884853999
23,0.55591812646389,0.5558671800295512
24,0.5559177153507868,0.5558959681193034
25,0.5559161962270737,0.5558723386526108
26,0.555919921543863,0.5558597982327144
27,0.555914554423756,0.5559618857304255
28,0.5559077446328269,0.5559847671190897
29,0.555913083434105,0.5558916175365448
30,0.5559084049065908,0.5558869878451029
31,0.555915650818083,0.5559825027783711
32,0.5559143036868837,0.5558622700373331
33,0.5559061019155714,0.5558700906833013
34,0.555911776834064,0.5561003466447194
35,0.5559086505439547,0.5559445854028066
36,0.5559068127075831,0.5558587485551834
37,0.5559072934786479,0.5558906320333481
38,0.5559083649449879,0.5559757366577784
39,0.555905435403188,0.555967666109403
40,0.5559089840650558,0.5558950351079305
41,0.5559012553559409,0.5560193101962407
42,0.5559059765868717,0.5558773055076599
43,0.5559068539010154,0.5558538034756978
44,0.5559021918508742,0.5558904302517573
45,0.5559034282896254,0.5558714578946431
46,0.5559023201200697,0.5558604216178258
47,0.5559039191007614,0.5559021186033885
48,0.5559014308187696,0.5559576731920243
49,0.555901336007648,0.5559003520409266
50,0.5559008127053578,0.5558632652759552
51,0.5558988894091712,0.5558854188521704
52,0.555900553252962,0.5558532333374023
53,0.5558972481621637,0.5558976095517476
54,0.5559026741981506,0.5561328528722127
55,0.5558964382674959,0.5558573409318924
56,0.5558962307241228,0.5558572575648626
57,0.5558962671226926,0.5558586272795996
58,0.5558967209921942,0.5558505064646403
59,0.5558980737129847,0.5558517258961996
60,0.5558948698308733,0.5559052395423253
61,0.5558923446999656,0.5558457750479381
62,0.5558971093495687,0.5558722237745921
63,0.5558931967284945,0.5558616036176681
64,0.5558948694599999,0.55589131518205
65,0.5558958761427137,0.5558578680356343
66,0.5558945173157586,0.5558440155188242
67,0.5558934339814716,0.5560001875956854
68,0.5558919147385492,0.5558484035730362
69,0.5558946546581056,0.5560326110124588
70,0.5558932041062249,0.5558471496502558
71,0.5558950159814623,0.5559427056312561
72,0.5558912940820058,0.5558997503519059
73,0.5558924806118012,0.5558902454376221
74,0.555890021973186,0.5559087104797363
75,0.5558913613822725,0.5558680113951365
76,0.5558894344038433,0.555838668346405
77,0.5558900818030039,0.5558617483774821
78,0.5558900982141495,0.5558395091295242
79,0.555889616171519,0.5558944367965063
80,0.5558902913994259,0.5558449845314026
81,0.5558893187046051,0.5558891222874324
82,0.5558862825632095,0.5558926364580791
83,0.5558907995886273,0.555925523797671
84,0.5558888891405529,0.5559924728870392
85,0.5558871432012982,0.5558732050259908
86,0.5558874489598804,0.5558682280381521
87,0.5558858558734258,0.5559018210172654
88,0.555885067237748,0.5558546810150147
89,0.5558862275679907,0.5560705619653066
90,0.5558874631325403,0.5558430306514104
91,0.5558844671779208,0.5558520259062449
92,0.5558863643010458,0.5558579931259156
93,0.5558869975143009,0.5558499049743016
94,0.5558856104744805,0.5558495361804963
95,0.5558856875366635,0.5558564844926198
96,0.5558833465973536,0.5558578894535701
