epoch,loss,val_loss
0,0.3978044932885326,0.3349854164031329
1,0.32710569363227376,0.32685016077996804
2,0.32541710154996883,0.32452849689768165
3,0.32552425217904823,0.3227246373115606
4,0.3243821736910551,0.32342511801241697
5,0.32583855708344855,0.32723427950253897
6,0.3266503389576356,0.3257480417308416
7,0.32700793370068504,0.3242075395988684
8,0.3277132452534829,0.3252583734379477
9,0.3286727546907062,0.3370130454449552
10,0.33089524315749047,0.3329082704380731
11,0.32769882730204614,0.32571074905222386
12,0.3215237684387097,0.3208055271816329
13,0.3213496489895524,0.3209633601163444
14,0.32102631357648104,0.32304765903865057
15,0.32105291973677375,0.32283758609052143
16,0.3216068625188083,0.32227918277505635
17,0.32111367177096106,0.3246188006395417
18,0.32588657967859413,0.3420167176292558
19,0.33134347053883456,0.33166390993788947
20,0.32792086337062476,0.3232518970825207
21,0.32691757665644827,0.3300842652898561
22,0.32883750622888075,0.3312866837609539
23,0.3299699776488052,0.33032143306525186
24,0.3298092969149041,0.33114049939443113
25,0.32891410909634794,0.32848385969013705
26,0.3275349241652363,0.3237723912558597
27,0.3264190087096392,0.3246507639713709
28,0.32580031784508917,0.3248746315371642
29,0.3257746634175547,0.32594854761600117
30,0.32653124413663726,0.32232492595275936
31,0.32633846756413304,0.3251728713277201
32,0.3255449211020931,0.3288096416250589
33,0.32616774993930026,0.32631376632669357
34,0.32691839694690933,0.3259334019440408
35,0.32757904876669725,0.3281207729863104
36,0.32689847343926615,0.32692094117802906
37,0.3271056884389034,0.32680229356934354
38,0.3273997135895143,0.32544154345095394
39,0.3275971810737674,0.3342985294188866
40,0.32859367514542825,0.3307747801599676
41,0.32865050189691386,0.32773878789362043
42,0.329030592509692,0.3270749580512013
43,0.32912859555295143,0.33473377890632017
44,0.3288800048527958,0.32705167446347233
45,0.3295898086590161,0.32848881113312806
46,0.3305241809927112,0.33305764600528726
47,0.33047392672533804,0.3315059266508143
48,0.3308526064685399,0.3291821046993313
49,0.329570486629419,0.32842799402544043
50,0.32995827708074704,0.33226055680717553
51,0.3288191103701778,0.3315202399041583
52,0.3291263995553664,0.3255484726547536
53,0.3275373683725711,0.32705486444102183
54,0.32715399116635036,0.328953445051821
55,0.32556440012394,0.32435698297989113
56,0.3241595866606771,0.32768675804890884
57,0.32244634129208244,0.3232279367915457
58,0.3175985408272389,0.3100830995152104
59,0.3071518975267593,0.28779743523605245
60,0.2477811724602652,0.22764269779447316
61,0.23162333074686148,0.22976427991604748
62,0.2308590467408788,0.22173630524406118
63,0.22431548074971763,0.21440700683287023
64,0.211638950359383,0.21126120121768824
65,0.21450122945504985,0.21270492576480193
66,0.21436072093882053,0.22400728440839848
67,0.2158759762700513,0.20852775447182328
68,0.21733209985099156,0.23343249501538446
69,0.21823832469521096,0.2181930035211575
70,0.21832971130724815,0.21395134614176325
71,0.21915203076210335,0.23275621362389215
72,0.21852049998623385,0.2131541044037457
73,0.2197933522024029,0.23705133798090416
74,0.22108073030515826,0.2244097427674514
75,0.22116365080638278,0.2128175765322999
76,0.22295559557984107,0.22836223142346532
77,0.221862872733439,0.21980807004053948
78,0.2203090917780626,0.21410309610963338
79,0.22060294304605868,0.21175161470977358
80,0.22114964666888773,0.22159862985221437
81,0.2202453611851882,0.21536765835044322
82,0.21808043920355355,0.2209439320811721
83,0.21468936634078015,0.20928328703639068
84,0.21743591826001135,0.21055169260069057
85,0.2144658212467349,0.2160163757103865
86,0.21486305391831365,0.20726138378045836
87,0.21169011318664566,0.21192519155043546
88,0.20642740144837293,0.20484124461590256
89,0.2044944677242844,0.19964483810769543
90,0.20293174310625314,0.2050649138327744
91,0.20167332408215694,0.20267618669236656
92,0.2039077378076901,0.20190309451476926
93,0.2028112011990673,0.20132219471513707
94,0.20454606637775563,0.20202163053528005
95,0.2070445925604811,0.20658380427083917
96,0.2080225801582245,0.21802778104533335
97,0.2058674896852099,0.19866169887964613
98,0.20274815387982165,0.20162510344995319
99,0.20271628436377104,0.21125599968922637
100,0.20197861152682467,0.1997001938280762
101,0.20490364150868523,0.20859146031132814
102,0.20271976106315495,0.19271700648736464
103,0.1983602969206685,0.2051257918740975
104,0.19981035452595147,0.20077920218763526
105,0.20000078852513997,0.19471382402065898
106,0.19836254647190718,0.19765566190632666
107,0.19863364359529184,0.2013124693846646
108,0.19446980044972315,0.20177508601308716
109,0.19340145333612757,0.19528400798011408
110,0.19543870143610226,0.19322098369380106
111,0.19401202177544005,0.1898732915602995
112,0.192872358710884,0.1955827137054001
113,0.1935872456652941,0.1903880380605654
114,0.19389661140650583,0.1958955414152183
115,0.1932943221821869,0.19242806262215387
116,0.1933714167165051,0.19873566671488505
117,0.19493300864974752,0.19278606735963755
118,0.1935711688548922,0.1859519289131699
119,0.19262342269924715,0.1902895659655215
120,0.19186690679009108,0.1895499999892928
121,0.19269522184805332,0.18835911221784593
122,0.19088706742230652,0.19189955519943042
123,0.19129111940602508,0.18314405924095917
124,0.1914239528058149,0.18466823805055943
125,0.19187510557335724,0.1893126836962463
126,0.1914507974918893,0.18495838512279147
127,0.19281973437272865,0.1919598972223458
128,0.19254865341906924,0.18612127801096148
129,0.19180608210827615,0.1885361553602738
130,0.1958404422568665,0.19494075742686182
131,0.1971764590064113,0.19190276283021038
132,0.1961497741577913,0.19125566908526628
133,0.19450764191284073,0.18527934539713253
134,0.19204509437536832,0.18493369585101588
135,0.19207802334492155,0.1979192935559537
136,0.19159896457366807,0.19368592166910042
137,0.1920453410664146,0.19150390320155408
138,0.19009281846759415,0.1961237420081716
139,0.19046971775430568,0.19301892488889086
140,0.19041329226810202,0.19430005018788243
141,0.1916098710027435,0.19167007376522932
142,0.19087595459845044,0.1852021225696487
143,0.1915088820216848,0.19434432458388307
144,0.1918616224226239,0.19189927725219877
145,0.1909230432743363,0.18766290545698783
146,0.19152919848640856,0.19546881282809409
147,0.1904423208259564,0.18620089131636045
148,0.19210396573054705,0.1863003158978618
149,0.19039072123744027,0.18457784718336226
150,0.19072798116029882,0.19517410804694718
151,0.1914001077377825,0.1863108502426012
152,0.1903879879166087,0.18712495887194833
153,0.18932648222866677,0.1818958918292784
154,0.19051812418835531,0.18618745607895087
155,0.18906637562884035,0.18387044240568412
156,0.19041106983912076,0.19193063998608112
157,0.19126936719476653,0.18603897399335936
158,0.1888797821925222,0.1882624785050503
159,0.1912171961151534,0.19339077575712948
160,0.19126385713009525,0.18714981378536105
161,0.19110870327380636,0.1788911929658387
162,0.190385594713888,0.18706259886486473
163,0.19191018533673312,0.18770674469674206
164,0.19172848620527178,0.1883562801974725
165,0.19259954649481556,0.18701320547895725
166,0.19120956519000726,0.18643548924714068
167,0.19302764592720545,0.18678741996788847
168,0.19349743225734584,0.18680199765509853
169,0.1929739589373366,0.19206836430360316
170,0.19049486993171041,0.18918833547016722
171,0.18933704402521073,0.18215299226584733
172,0.18599529380945087,0.19164766894613747
173,0.18931690384920458,0.1869535402298538
174,0.1890692834338124,0.1870985362905165
175,0.18963622787802054,0.188533241542287
176,0.18877263619697732,0.19071538138314317
177,0.18954738000814292,0.19859092455025065
178,0.1913488080604471,0.1860953692196859
179,0.18928553685724592,0.18246274332691576
180,0.18738391184263664,0.18279480688338592
181,0.18728173360359565,0.18191838765483065
182,0.18587184671780094,0.17853570740667027
183,0.18636505026444733,0.188543605776217
184,0.1857364195094501,0.18247546830700437
185,0.18636389456683403,0.17936953422396598
186,0.18601268872344712,0.19499111315492768
187,0.18592428122993282,0.19055138500120664
188,0.1861607174960067,0.1907545722956345
189,0.18522991138777667,0.18247151554759883
190,0.18580223283440853,0.1790206301442826
191,0.18553200720859278,0.1804163649901689
192,0.1852348403488513,0.18191137979279
193,0.18353863220682723,0.18498105257631947
194,0.18674510096808036,0.18175439905866264
195,0.1860048775371316,0.1896134078643787
196,0.18359464804807918,0.18497279160542102
197,0.18448909612106,0.18153005711375586
198,0.18502906853441808,0.1871712167689249
199,0.18780822471248731,0.1820110294323976
200,0.1880402949740656,0.1819634927993886
201,0.18893675989122222,0.18393769887317893
202,0.18933214798128958,0.18794258568074257
203,0.189387088985466,0.18993458276483705
204,0.1905063580599525,0.18671219073230108
205,0.18854189438404415,0.19301949028622567
206,0.19066146301994508,0.18769661707020033
207,0.1908631707719571,0.1841042750612807
208,0.18747794188612657,0.18471484263769358
209,0.18575234847555724,0.19247642384096686
210,0.1868334926492114,0.18311795337094786
211,0.18576250318214477,0.18320376112551415
212,0.18571777994946229,0.17756094127869926
213,0.1832038028825292,0.18197255553979053
214,0.182483480464545,0.18405395763872548
215,0.18411854715298692,0.18512696875722368
216,0.18540687019900262,0.1805609743968652
217,0.18324004581792178,0.18678691157602192
218,0.18478444935106259,0.18186026976253447
219,0.1833126761650534,0.17982407472880693
220,0.18372347799065017,0.1805470080688984
221,0.18302634962909609,0.17979435354541773
222,0.18275703975169968,0.1874985529055441
223,0.18241286301593795,0.1792556127296627
224,0.1795230508029318,0.1834891421665991
225,0.1799367453864248,0.17447982526192443
226,0.18022116687860515,0.17403255330123765
227,0.1807462112080279,0.18802971874482066
228,0.18093260230539704,0.17935818377308896
229,0.18036229553506625,0.1833807146022333
230,0.18142237403183628,0.18391407642810478
231,0.18155894849559576,0.18168753846574226
232,0.1827613702780909,0.183346607337905
233,0.18230404778659867,0.18183945653329425
234,0.1816329190330349,0.18155961047972669
235,0.18230734274482174,0.17586452518049525
236,0.1814476011944808,0.1811882748247228
237,0.1819398156780419,0.17939148291698476
238,0.18235686522641248,0.18598878869364932
239,0.180549956006493,0.17376550662183535
240,0.18033715694856872,0.17549658616697497
241,0.17921808043377196,0.18021008095923802
242,0.18042170910907687,0.18202687407113852
243,0.18111426681637477,0.17504841412675598
244,0.18105710598585797,0.1730217079690054
245,0.18171025298053411,0.17711504701092756
246,0.1828659471812294,0.18542677679208666
247,0.18490560484423244,0.1812386691640848
248,0.18355952911406492,0.1831819756513707
249,0.18399253545952834,0.18479979332263016
250,0.18264534623979284,0.18653751698035184
251,0.18506752511413455,0.18721666823905006
252,0.18528889524612685,0.18630959460513274
253,0.18639014312903657,0.18307497777521092
254,0.18481011313500165,0.19100157677797983
255,0.18658350983993421,0.18537564642709733
256,0.18701422171031448,0.1868699508547877
257,0.18559759179894014,0.18132336769361804
258,0.18545930287677892,0.18752308421560226
259,0.18548846944606753,0.186659608568464
260,0.18530878706349077,0.18516137397420998
261,0.18408561282925945,0.18402838374134492
262,0.18471244663047753,0.18145958298336548
263,0.18654465546115315,0.18712347496562617
264,0.18729017284824598,0.18207174039724405
265,0.1866953747449733,0.1818559840262736
266,0.1874975565371277,0.1867594587445353
267,0.18956239198108943,0.18962884566731217
268,0.18972652032078027,0.18503621669858106
269,0.18938815072595738,0.18870309555069517
270,0.1900857039552322,0.18224306508087226
271,0.18989795628044723,0.18383098822366373
272,0.1897144986035155,0.18600861804637744
273,0.19111398776038754,0.19242138051572708
274,0.1887985876650452,0.18779906345900346
275,0.1871675817276553,0.1909878131857799
276,0.18853793460592855,0.19162145827403668
277,0.1882342855147511,0.18744827762257893
278,0.18928633216354582,0.18887016515893643
279,0.18836197426779377,0.1888642619116248
280,0.18992829599159416,0.18438850988905167
281,0.18847191726251378,0.1885039682640461
282,0.18953003061356113,0.18684578934521212
283,0.18776706361370407,0.18502197383470015
284,0.18680628060961035,0.1805983960346246
285,0.18678448063363845,0.1817499319916178
286,0.19018355026233683,0.18727677096131287
287,0.19139496203092077,0.19265442001085725
288,0.1917914769215454,0.1871172661798247
289,0.19166323179297215,0.1912470677280953
290,0.19247926105197957,0.18833515545516477
291,0.19212896912265642,0.1888307382506278
292,0.19198890653945844,0.19438414446180413
293,0.18986177035896992,0.19310855841956556
294,0.19021888838397513,0.19048401545189267
295,0.1895049365935661,0.18647015334681064
296,0.19034469312877297,0.19179577196359446
297,0.19218180856878142,0.18784779728917314
298,0.19184423196349118,0.1904853091596522
299,0.19318752032485034,0.19409543585146893
300,0.19282870372827296,0.19048366860884236
301,0.19112942118248302,0.18267831801427287
302,0.19037531924952897,0.18767140018911746
303,0.1919398217571439,0.1971269173469709
304,0.19040705296966573,0.190944894148594
305,0.19019858847014148,0.1909051171394437
306,0.19399910399334416,0.19144215986967653
307,0.19369162483323965,0.19369855824190516
308,0.19454785746683795,0.18753619923681938
309,0.19303405175296715,0.18731141681970342
310,0.19036774602320364,0.18867958810447988
311,0.19006236001765794,0.1846580904773962
312,0.19088398650896063,0.2014073527814275
313,0.18966245944265553,0.1860865322665709
314,0.19170750903902198,0.20365723128994337
315,0.191847946092808,0.1887118001339844
316,0.19132516828539084,0.1861211592250672
317,0.1904819986159853,0.18836623487880874
318,0.19124650254809886,0.19214982214224272
319,0.19377479838619796,0.19056109780623579
320,0.19601251351699936,0.19263639627428816
321,0.19607072810736967,0.19253875986741298
322,0.19300988033640204,0.19230090547426534
323,0.19396918539187127,0.19850368802483476
324,0.19228401872441828,0.19599448372598888
325,0.19426285845341443,0.1891780769909661
326,0.19535037784053266,0.19157363891883827
327,0.1952803624834088,0.1875514326574488
328,0.19246675907302913,0.2057630742570031
329,0.19365148386842818,0.19037779698761412
330,0.19578150011819426,0.195108637201946
331,0.1939565928624593,0.19141775827146273
332,0.19414078843869942,0.1944409279415903
333,0.1929525988374492,0.18752454145978356
334,0.19019224497673515,0.1902151398166673
335,0.19245248473138452,0.19155291188581777
336,0.19261515932045967,0.1888307439664639
337,0.19172970166237807,0.18975354991000565
338,0.1912158357260896,0.18682718578058619
339,0.19043975201346797,0.1848349373937594
340,0.19185521880047118,0.18533619310362845
341,0.1905874859133689,0.1833003755503032
342,0.18899897389489112,0.1850904135390728
343,0.1893119060640617,0.18565852548441927
344,0.1882122258940856,0.18726435050826987
345,0.18768018043989376,0.18448804707017205
346,0.18917624523147022,0.18756990375816116
347,0.1906580924273109,0.19128934566252045
348,0.1914820813660999,0.18892233714684786
349,0.19199140055431166,0.19531680421275988
350,0.19022123710357314,0.18840002196222755
351,0.192133567435183,0.18886118556866047
352,0.19023976083115327,0.18596166042991766
353,0.19008350039986396,0.18550982923138867
354,0.18985249542241855,0.19004000721009773
355,0.1910497454359091,0.19529836857140112
356,0.19240020441827918,0.19045824914488532
357,0.19317143365180942,0.1870901961799861
358,0.19097808349451764,0.1887998278440221
359,0.191795937437043,0.18603424970192897
360,0.19070659911961294,0.19302985153286684
361,0.1917831793689518,0.18673427898110417
362,0.18799607049551703,0.18592208897916934
363,0.1906111673366347,0.18630180446153188
364,0.19022539291355153,0.18418415679927877
365,0.18859498058672813,0.1946468404784575
366,0.19028475986038754,0.18951673223545162
367,0.1892252187196204,0.1834000061253628
368,0.1894220502542363,0.19036133376838846
369,0.1911060174258588,0.18361220023673447
370,0.1906972833150487,0.19272572211421374
371,0.18751347014348474,0.1853544239275269
372,0.189130768507457,0.1897126998408347
373,0.18934413894927568,0.19782449560270784
374,0.1901770544399937,0.18508001428094548
375,0.1899772371343381,0.18228859390296048
376,0.18952588937718043,0.18456072371450108
377,0.18965493102106068,0.1808444399860024
378,0.18880474457828453,0.18948741607667896
379,0.18880117791209766,0.18812373832115153
380,0.18865570518896163,0.1929333816269955
381,0.1888664967352919,0.18573012202390085
382,0.1890488344428541,0.18715012293447164
383,0.19029744859222028,0.19273377499809957
384,0.18740472837770394,0.18622139753698833
385,0.1868285487810199,0.18354634151462504
386,0.18718449779742247,0.18510655226110942
387,0.19077182658832612,0.189069612050207
388,0.1921853873309948,0.18648876186280902
389,0.19186343876816195,0.18997291932448498
390,0.190460839920002,0.18255835686881616
391,0.18839793829775925,0.18737857220157828
392,0.18883565872859992,0.18167328481704303
393,0.18754600963408619,0.18653867356684986
394,0.1871522289338253,0.18181762917830235
395,0.18689233030704,0.18336408210722782
396,0.1857781998699994,0.1856328813269464
397,0.1876848265350008,0.18152446508548725
398,0.18808884572067994,0.185655949759314
399,0.18929678551275,0.1850991142529997
400,0.19021817864321594,0.19284929026979675
401,0.19110934652513165,0.19199584241024414
402,0.18852934057263734,0.1959559266714948
403,0.18929482540852732,0.19005254249734585
404,0.18711937932397346,0.1828793953419108
405,0.1866555551556851,0.18003530182891128
406,0.1866198984219683,0.18536352346803414
407,0.18610559439034963,0.19089861782216236
408,0.18647237365646996,0.18486571219038944
409,0.18563215893735702,0.18944809892183226
410,0.18523148765309538,0.18163447934713717
411,0.1840092708869613,0.1852728018468068
412,0.18471316178496794,0.17588605655867373
413,0.1859041310423951,0.18885048327713194
414,0.18629998801876124,0.18156930994780496
415,0.18503702483136208,0.18773230409283476
416,0.1870342649334817,0.19191457860424657
417,0.1869809490849646,0.19483565781985857
418,0.18817650208727632,0.18147476048053676
419,0.18680059367256294,0.18649118347203722
420,0.18864138249298937,0.18837410133940644
421,0.18743015659584417,0.18647111824110163
422,0.18818133811560941,0.18649491892382208
423,0.19080513756242778,0.1892171566445901
424,0.1891146065543691,0.18881742479816233
425,0.1897054701019153,0.18294335730026912
426,0.18988155008410568,0.18767119728869686
427,0.18853614959332773,0.19320244644933926
428,0.19115750290912023,0.19095177530960106
429,0.1920395371475094,0.18682508065931988
430,0.1888016741529262,0.19551046815977946
431,0.18963112561798973,0.19447203116945705
432,0.1890112579428702,0.18129489252721595
433,0.18944443153034296,0.1876767611729412
434,0.1872408166468191,0.18333771918924568
435,0.1878529237114268,0.18548734533146977
436,0.1889769658803654,0.18125720386817498
437,0.18843050647101148,0.18991065500473167
438,0.1897212133633433,0.1876051894608876
439,0.19081784958104722,0.18385746895725932
440,0.1900917595441488,0.19105375826876278
441,0.18803431356339145,0.18914188325828515
442,0.19067514111860384,0.18272058606947514
443,0.18870794270440733,0.18888157562609253
444,0.18935875685142575,0.186914675272913
445,0.18833797311873363,0.18467883577521804
446,0.18799940654509167,0.18886330844900603
447,0.18923359539368742,0.18540228332886097
448,0.18948030587937906,0.1851375657997455
449,0.19091992539396102,0.18772042586799673
450,0.19069594770765227,0.18855871707083394
451,0.19062591420351077,0.1881742929744269
452,0.19052332007198883,0.18740738217954853
453,0.19134993806517095,0.19677502536689004
454,0.19200666470350408,0.20036100560318512
455,0.1932896945497496,0.19548986374673263
456,0.1953941536613172,0.19563212123976603
457,0.19691607666959007,0.19074232529351912
458,0.1922602287227873,0.19001547498268317
459,0.1861108710749639,0.18700641159618003
460,0.18089222718926548,0.18604336201486008
461,0.17731473791739827,0.1727282980129111
462,0.1745315029633512,0.17358153335744222
463,0.1725076208595368,0.172427485043502
464,0.1723775496478561,0.16456441229595947
465,0.16731583264817912,0.15944832127067923
466,0.16453349509899565,0.15535967459500824
467,0.16390722150877893,0.16205211949329631
468,0.16348239451313284,0.1628394590568712
469,0.16095929712259607,0.15429447334915422
470,0.16049290383212286,0.15771812738611082
471,0.16076359607511573,0.15723438972596965
472,0.1596658077957533,0.1532706546802265
473,0.16013615588835484,0.1704474725681868
474,0.15825896178611176,0.15851337828430118
475,0.15729373133034824,0.15289260135947388
476,0.15629026108234526,0.1578053369730029
477,0.15527160010404056,0.15687686517752336
478,0.15569042206572878,0.15170427543517634
479,0.1533770564881017,0.1485897651164195
480,0.15422738679378725,0.14482522871706932
481,0.1516659150509049,0.15857334652564237
482,0.1541508285166453,0.14834492713001268
483,0.15250485455639642,0.14887525430559265
484,0.15207958949817646,0.1620481200192797
485,0.15255120049694554,0.15493975105771138
486,0.15432213086316243,0.17915484335070628
487,0.1852725344381744,0.17241138819055285
488,0.17385661923925844,0.16914716385299047
489,0.17008039710535516,0.16675039648939138
490,0.16679486897673537,0.1712177457448151
491,0.16361110242936822,0.16053747311646108
492,0.1611085950131182,0.16313085570966718
493,0.15924635514628876,0.15614833055327235
494,0.1544496685856109,0.16087851754515398
495,0.15232780260993517,0.14526494367793497
496,0.14849040872282643,0.14416289197805837
497,0.1442725074341257,0.14607529056970775
498,0.14430230534036192,0.13978199798381508
499,0.14272563061494525,0.1495606871858392
500,0.14528718186939935,0.14706173009329548
501,0.14413395596684503,0.13614036208099517
502,0.14371185083624174,0.15193913959337202
503,0.14485409135500685,0.13562598224103029
504,0.1468267706360558,0.14798733701998545
505,0.14558335630406294,0.14598248186855686
506,0.1462630313232267,0.14698689798482686
507,0.14500510653884385,0.13872806626741774
508,0.14551741737041543,0.14194731067369185
509,0.1470248803948994,0.14513225340664435
510,0.14705602943206386,0.1485274224861833
511,0.146857133264736,0.1505001456474543
512,0.14622205134323366,0.1462415035081926
513,0.1481739726605461,0.1477596002447859
514,0.14648093909716053,0.14631321386455454
515,0.1470052108859463,0.14285790701503348
516,0.14591026155175352,0.14364887454680034
517,0.14657518883153117,0.13943598395905912
518,0.14773743677672913,0.140692250587005
519,0.14858546474282977,0.1528645347165798
520,0.14788454233837736,0.14573644282150758
521,0.14817454841592426,0.14348939749182166
522,0.14848275127099286,0.14276671485465253
523,0.14810349822913904,0.1560155573082704
524,0.14673743595620045,0.14767616854917373
525,0.14979125172507277,0.14360260532988087
526,0.14838844821524086,0.15889512246508436
527,0.14791958710903838,0.14584106947835637
528,0.14857787415563917,0.14274352544884844
529,0.14834881533118938,0.14567666255002334
530,0.14814494069603135,0.14857828246625088
531,0.14825089757355284,0.1453955799941012
532,0.1479686431610565,0.1424984995278676
533,0.1484238676411166,0.14922293441424525
534,0.14905493678770762,0.1580116152645757
535,0.14938575359318945,0.14308523274987536
536,0.1501245799449851,0.14428404943272177
537,0.14925479040824347,0.15644532848434742
538,0.149073299056263,0.14938453975373964
539,0.1490901728494943,0.14991823623828654
540,0.15068258276040986,0.1451100002159824
541,0.14891734391117362,0.1424484887787368
542,0.15016295863605802,0.1452882993016642
543,0.14889633477770453,0.14830521924013967
544,0.1500046509835455,0.14733555481343544
545,0.14920115608462897,0.14459928909600392
546,0.150598050024417,0.1452231880897787
547,0.15148633143765558,0.1419603264263604
548,0.15037051158890927,0.14816962336002604
549,0.15041425557349988,0.14432688543739144
550,0.1513351871550893,0.14462759938523256
551,0.15159666485828366,0.14255754497922493
552,0.15367921543338126,0.15405195863254445
553,0.1519466686806233,0.1519039573519834
554,0.15312203905469984,0.1535013364047259
555,0.1517175325303436,0.15145892600492877
556,0.1529828989736849,0.15755040249724792
557,0.15294244707071428,0.15482498941194758
558,0.15249090081603406,0.15132661400790656
559,0.1537738172865981,0.14836741294697128
560,0.1551430253304547,0.14925058729999538
561,0.15381792867236097,0.15182346528382779
562,0.1549027844709601,0.15771906253100382
563,0.15364729966536508,0.1572583823478777
564,0.15493114365281152,0.1634878618870557
565,0.18106747015738944,0.18184732011833243
566,0.17695645303082028,0.17567399087719968
567,0.17316971425648978,0.1717779730764918
568,0.16930264649952917,0.16392709492413943
569,0.16574965097861802,0.16023407941764983
570,0.1630419827967906,0.15978919569441155
571,0.16027137194629862,0.15563289116665238
572,0.1580430814932338,0.1566982708853723
573,0.15698861934655575,0.15342370136666694
574,0.1537025195898579,0.1521000531814469
575,0.15221604611947953,0.15091686740505855
576,0.15121742489216902,0.15063570591532158
577,0.14753955206294045,0.14084707927355733
578,0.14915448247040394,0.15058670037123945
579,0.14626202077495395,0.14582493073279781
580,0.1484996088289862,0.14246945587099305
581,0.14629639849233494,0.14255763989033055
582,0.14751553053943087,0.14896253530515302
583,0.14733228343222543,0.14804479281617228
584,0.14790719019756804,0.14976487060583946
585,0.14823551026346396,0.1434221933665667
586,0.14838905788833004,0.14326514835280513
587,0.14955488254400276,0.15641843742193343
588,0.1492119834756108,0.14852565316440744
589,0.1517365597379055,0.1462465004838162
590,0.15040605390171924,0.14243018537783303
591,0.1497409441928974,0.15665595108774016
592,0.15037920004982266,0.14856775396083788
593,0.15625803371508726,0.1698597372519095
594,0.1650525462671483,0.1600980641645245
595,0.16168367264451358,0.1613334087976905
596,0.15908700831347614,0.15673527639615037
597,0.15747160715557973,0.15994139103881938
598,0.15542537301814527,0.14869586819372688
599,0.1546678641478983,0.15395896970614167
600,0.1517822727185788,0.14748119765741202
601,0.15312561386530635,0.15117122365224991
602,0.153586491221766,0.1604797290998269
603,0.15131215409016152,0.14542543388838455
