epoch,loss,val_loss
0,0.5641937082064754,0.5590436819469367
1,0.5596353005751415,0.5591304924884446
2,0.5592029641898253,0.5591282488098808
3,0.5589629344639105,0.5583632393451246
4,0.5587926277541819,0.5609986980854725
5,0.5585166767145503,0.5582832867691002
6,0.5584182250657649,0.5579490090126435
7,0.5583117526571879,0.5577153567344911
8,0.5581301334132679,0.557738456773403
9,0.5581281933945279,0.5578066987967668
10,0.5580008610373283,0.5596744337093741
11,0.557951162816091,0.5581270537660377
12,0.5579193878924161,0.5578610040118026
13,0.5579335172759684,0.5591200356152158
14,0.5578634439585496,0.5579741264691128
15,0.5577961769833008,0.5598090406978692
16,0.5577397368623211,0.5577826470358496
17,0.5576996685077791,0.5585199855397416
18,0.5577311482361791,0.557590800213163
19,0.5576601901817148,0.5575222957222988
20,0.5576642980162027,0.5574672456414764
21,0.5576078115421026,0.5582094670821064
22,0.5575944623679763,0.5573393037538079
23,0.5575490825320847,0.5574026924209027
24,0.5576126685085532,0.5573531629134053
25,0.557551655855993,0.557332494152391
26,0.5575365357224119,0.5574923337541207
27,0.5574984634076083,0.5573464629963669
28,0.5575077175136418,0.5573779759572695
29,0.5574767385775337,0.5572761911020682
30,0.5574810036830586,0.557557658078357
31,0.5574590851144209,0.5584641747971623
32,0.5574552140522278,0.5575348335223518
33,0.5574630950963528,0.5574417175193578
34,0.5574101293224735,0.5573971282459667
35,0.5574285349285061,0.5575671778423319
36,0.5574146749045288,0.5573210816821152
37,0.5573857115766193,0.5572518606043927
38,0.5574235727418446,0.5575756024486078
39,0.5573884494011749,0.5572838802491465
40,0.5574339835263332,0.5573067002793399
41,0.5573761245993002,0.5579706139954976
42,0.5573475674398003,0.5573344514328552
43,0.5573451141700164,0.557198325013996
44,0.5573760489853878,0.557400614304223
45,0.5573511129210577,0.5573562692767633
46,0.5573922495027531,0.5573572016531422
47,0.5573373184068928,0.5596005589731278
48,0.5572934981828818,0.5572575215666229
49,0.5573398025277461,0.5576875858212227
50,0.5573052690853975,0.557207326321093
51,0.5573439415122692,0.5571981921681104
52,0.5573263526226299,0.5571707327667597
53,0.557310267656758,0.5573093808318486
54,0.5572950809571235,0.557280504023171
55,0.5572851866326317,0.5573120613251963
56,0.5572635037540163,0.5586108615617302
57,0.5572992000552888,0.5595228506081158
58,0.5572671674388074,0.5571635335018262
59,0.5572621409216316,0.5576450031980983
60,0.557294278477501,0.5575852917678303
61,0.5572615443521908,0.5571392134164758
62,0.5572550006802327,0.5572805505532484
63,0.5572790242226228,0.557625863776905
64,0.5572644028516787,0.5573032952419877
65,0.5572277162389659,0.557149723120422
66,0.5571875644327149,0.5575406887099406
67,0.5572280742691369,0.557409621409092
68,0.5572467742895045,0.557427380812671
69,0.5572396607878026,0.557799074223852
70,0.557258074588971,0.5572469270554725
71,0.5572273379706195,0.5571224111185477
72,0.5572369910083531,0.5573840062316535
73,0.557216498433571,0.5571361383492538
74,0.557217784736214,0.5583775173937416
75,0.5572133288486536,0.557873710035982
76,0.5571983226889096,0.5574003698216479
77,0.5572262137413997,0.5580797259624187
78,0.557182182653366,0.557102940396103
79,0.5571935816155149,0.557456701032577
80,0.5572139003846327,0.5574036074927072
81,0.5571900521167049,0.5571840697719205
82,0.5572318630770623,0.5573159815951553
83,0.5571391833533577,0.5580279390510199
84,0.5571598966406819,0.560276151827488
85,0.5572006263582212,0.5571607821040946
86,0.5572048200992513,0.5593284431817218
87,0.5572058491358438,0.5570682107958546
88,0.5571609651155273,0.5571597080668503
89,0.5572110248156922,0.5572733691844988
90,0.5571944667524965,0.5572508175083188
91,0.5571946382863356,0.557176070029919
92,0.5571662653978833,0.5573462572346254
93,0.5571384488399584,0.5570923111574821
94,0.5572138809912923,0.5582776942264945
95,0.5572402409440959,0.5576717808288025
96,0.5571601764924603,0.5573841815255121
97,0.5571876738447586,0.557352637238893
98,0.5571877127166328,0.5591863585169203
99,0.5571506021434912,0.5571815179536124
100,0.5571624856307176,0.5571249781707972
101,0.5571537883797822,0.5571449367343344
102,0.5571525283679931,0.5575887517656937
103,0.5571258341721318,0.5578348908471706
104,0.5571293282375696,0.5571089597552941
105,0.5572057267799188,0.5573410936975598
106,0.5571641303185042,0.5575176585992572
107,0.5571381546346629,0.5572101784699016
