epoch,loss,val_loss
0,0.6151836545568568,0.6081440537798197
1,0.6085643086763015,0.6087466370083262
2,0.5515022249292229,0.5099229787478672
3,0.509899145233737,0.5094282487485899
4,0.509704654221594,0.5091908403720808
5,0.5096684639584929,0.5090556455900888
6,0.5095024660380152,0.5098116160030697
7,0.5093542176662311,0.5087695277950013
8,0.5092801906978883,0.5089934015096566
9,0.5092503260407216,0.5103320589728154
10,0.5090342969796027,0.5088217272356189
11,0.5090056910129378,0.5090854737362258
12,0.5089664376141245,0.5096827968770162
13,0.5088421858210064,0.5087085701987406
14,0.5088439493465445,0.5101197640298318
15,0.5088476508469688,0.5095123609597275
16,0.5087221747183929,0.5087105566455472
17,0.5087086648986224,0.5085055576660497
18,0.5086704140238871,0.5084956027733777
19,0.5086362428059089,0.5110189712668767
20,0.5086426461413928,0.5086859483281081
21,0.5085684551062581,0.5083336733706831
22,0.5085549159002721,0.5085364414503794
23,0.5085384151067898,0.5085084269419498
24,0.5085670765690935,0.5083133573567601
25,0.508495663326071,0.5081887273575473
26,0.5084959482957664,0.5084208027896455
27,0.5084844046735761,0.508409585461723
28,0.5084254965112166,0.5084990660250926
29,0.5084523097325705,0.5083732671832328
30,0.5084016832917129,0.5085281641548384
31,0.5084528757278206,0.5083884633504427
32,0.5084810706842485,0.5083379544040405
33,0.508366154726861,0.508250608899753
34,0.5084331052999786,0.508378514403445
35,0.5083647337097221,0.5085116980980998
36,0.5083630376274142,0.5082713134827153
37,0.5083761322388043,0.5082003428090003
38,0.5083486996619193,0.50850357796359
39,0.5083769024316902,0.5082096592959932
40,0.5083518473126808,0.5086792822511261
41,0.5083297666138242,0.5082851444225454
42,0.5083330518709257,0.5083822471036509
43,0.5083033961325313,0.5083952290248634
44,0.5083381174674375,0.5092199971598964
45,0.508366162470787,0.5081855939872212
46,0.508296275820087,0.5082805241012099
47,0.508338674729571,0.5086845733095932
48,0.5082634014608501,0.5081132935826891
49,0.5083425557436202,0.5084342554248592
50,0.5082726986534667,0.5082830926029025
51,0.5082810944947389,0.5081673454114285
52,0.5083244476693716,0.5083841557242439
53,0.5082768218819361,0.5081713718752707
54,0.5083417764011166,0.5080950884014442
55,0.50826251786445,0.5081921841015591
56,0.5082360230567392,0.5082865476904082
57,0.5082494104811431,0.5082368908685727
58,0.5082254592230216,0.5081604901969284
59,0.5082357951532395,0.5082849523861415
60,0.5082468406209792,0.5080690706634048
61,0.5082752733988434,0.5080627540205016
62,0.5082239913763101,0.508758575715143
63,0.5081828831656084,0.5080626582981044
64,0.508226874738084,0.5080853290060909
65,0.5082720417647028,0.5107752330545752
66,0.5082072204533565,0.5081356943688973
67,0.5082214480057847,0.5080489976530336
68,0.5082054941265881,0.5082213484323942
69,0.5082636640767332,0.514899862847908
70,0.5082084979518884,0.5084415873581954
71,0.5081961739987927,0.5089184467904917
72,0.5081970383801276,0.5081025145781543
73,0.5082239704266118,0.5080520807365626
74,0.5082634024232205,0.5079935525250494
75,0.5081745401458476,0.5080413652412945
76,0.5081806860575155,0.5080356478986906
77,0.5081444067357148,0.5081212170070809
78,0.5082149952281293,0.5086441647621893
79,0.5081632313585902,0.5082416182120444
80,0.508200218665499,0.5081329121778976
81,0.5081741654579923,0.50822405971901
82,0.5082029872653966,0.5079885546681898
83,0.5081643429539382,0.5084087260603609
84,0.5081850133116562,0.508587736261098
85,0.5081637793669805,0.5080646291264234
86,0.5081493647210775,0.5080732536079274
87,0.5081731939017303,0.5102630090476857
88,0.5081802145299598,0.5082938186583981
89,0.5081899695923613,0.508134509611958
90,0.5081265670294841,0.5081331928965471
91,0.5081449823515132,0.5079442889163867
92,0.5081170175278134,0.5082258840944276
93,0.5082246579723934,0.5094214154532175
94,0.5081195333185397,0.5088172913189266
95,0.5081347117252236,0.5080317588361262
96,0.5081565746940973,0.508016253198051
97,0.5081140039092115,0.5079947584320239
98,0.5081707573385381,0.5085595669580748
99,0.508138935849548,0.5085735433746509
100,0.5081034455941358,0.5084031767052397
101,0.5081559906906891,0.5090373640024928
102,0.5081216858483755,0.5100383174330662
103,0.5081233026526641,0.5083859898612162
104,0.5081458667091325,0.5083086967468262
105,0.5080841856027987,0.5079894816609234
106,0.5081139968996844,0.5084364221646236
107,0.5081140055050108,0.5080003260974553
108,0.508125383854291,0.507990720698023
109,0.5081055654365101,0.5103014212388258
110,0.5080954579059649,0.5105058397607827
111,0.5081032837037208,0.5089525334296688
