epoch,loss,val_loss
0,0.6144727405691991,0.6119636325623202
1,0.6085405688525253,0.6078570779440716
2,0.6081647990341876,0.6076206807167299
3,0.6080333700194064,0.6080517061295048
4,0.607789166652592,0.6088462930163437
5,0.6077895886306957,0.6076093447415468
6,0.6076599048469497,0.6075470956324348
7,0.6076117367732834,0.6080792048137182
8,0.6076277472887645,0.6081794954411149
9,0.6075865281459472,0.6074487605698351
10,0.607507067027165,0.6073775896955069
11,0.607468509787348,0.6072760932498771
12,0.6074128264665297,0.6081175511587347
13,0.6073720098855997,0.6074696233787252
14,0.6073295113905043,0.6070137724982894
15,0.607364109325077,0.6070842813617242
16,0.6072510805317872,0.6077955317556414
17,0.6072945319210479,0.6070579740308946
18,0.6072219061923443,0.6074929043613652
19,0.607264585722714,0.6073580683017191
20,0.6071987673885774,0.6078008443486898
21,0.6072452265740993,0.6069781867209498
22,0.607153677169368,0.6071669860454114
23,0.6072429478222917,0.608469281303084
24,0.6070985387623672,0.6098748197626536
25,0.6071129383085214,0.6069301719996829
26,0.6071119080232139,0.6069249425573325
27,0.6071348608749404,0.6073232483035578
28,0.6071195162597962,0.6069419928874922
29,0.607085793964714,0.6074763255142989
30,0.6070943135873237,0.607033629009209
31,0.6070533537670317,0.6068864465055631
32,0.6070921136497043,0.6068143341440717
33,0.6070434469143711,0.6068509367796091
34,0.6070246458246062,0.6079851301077281
35,0.6070630693967024,0.6072750786989558
36,0.6070191733623608,0.6069192076439301
37,0.607016294861346,0.6067530569900058
38,0.6069718172326773,0.6071082410386419
39,0.6070357969180147,0.6068015948418648
40,0.6069823137091469,0.6067881903636544
41,0.6069615814134305,0.6073494787547488
42,0.6069930144921106,0.6072513472649359
43,0.606987665887719,0.60683320639447
44,0.607022154083673,0.6068170619365891
45,0.6069843607411043,0.6070744229309613
46,0.6069874067134933,0.6074679728181427
47,0.6069652923482396,0.6079332258210288
48,0.6069633940277451,0.6077641360517175
49,0.6069843186768425,0.6069518504900021
50,0.6069796098941287,0.6072507114919184
51,0.6069315202181494,0.6067825623540666
52,0.6070035510615603,0.6070895328119434
53,0.6068910776537819,0.6066874421855653
54,0.606953420568012,0.6068013505959333
55,0.6069463001569643,0.6068258271323835
56,0.6069372729399974,0.6067469190722955
57,0.6069363158398003,0.607559668337441
58,0.6069443792609965,0.6067486637283496
59,0.606921791605945,0.6073752732194091
60,0.6069125530232609,0.6067241059047709
61,0.6069210981392191,0.6071672147024358
62,0.6068955182349205,0.6067627080025212
63,0.6069049642013173,0.6073434975543626
64,0.6069005411211202,0.6068219765540093
65,0.6069101010211239,0.6068017922914946
66,0.6068901400100314,0.6067574065317292
67,0.6069042330057293,0.6067402336792673
68,0.6068896453035488,0.6067823311235414
69,0.6068643390729264,0.6068076046465645
70,0.6069315247957192,0.60682328380367
71,0.6069370194745212,0.60676182342818
72,0.6068744870545798,0.6079603837974018
73,0.6068735315170513,0.6073549335411109
