epoch,loss,val_loss
0,0.7121946335121268,0.7062998481187276
1,0.7067189006714484,0.7064142005910944
2,0.6928693242830082,0.6568538456933374
3,0.6570642543934575,0.6569609271977143
4,0.6569604037089184,0.6566224200849793
5,0.6568254351953524,0.6563613389029397
6,0.6567137817791817,0.6568795005381847
7,0.6566720153702613,0.6566536083114946
8,0.6267964043179417,0.6077283712829609
9,0.6075743393822219,0.6075657861700129
10,0.6074880599696341,0.6071777455859977
11,0.6073712142892917,0.6088958692905625
12,0.607324167384192,0.6079106890238248
13,0.6074138760678724,0.6070820172726369
14,0.607190185480096,0.6079319311134869
15,0.6071778430550112,0.6069057201037632
16,0.6071729055476276,0.6071441256674585
17,0.6071571407899828,0.6071301920538209
18,0.6070862483084372,0.6074481703211593
19,0.6070816944768169,0.6068921427277123
20,0.607043981180586,0.6079913667058826
21,0.6070731494247537,0.6068782943945664
22,0.6070225907671113,0.6069675015456624
23,0.6070009744245738,0.6068025879173657
24,0.6069945618400796,0.6068904172398021
25,0.6070300645345231,0.607364590972588
26,0.6069370340449661,0.6069663901778664
27,0.607008687036532,0.6068666599228719
28,0.6069460771410439,0.6066975338879057
29,0.606952097486256,0.6067029883193024
30,0.6069498286074216,0.6068202159540825
31,0.6069384414343096,0.6071314847203105
32,0.6069111070136793,0.6067680323094351
33,0.6068203855416888,0.6067279759470937
34,0.6068765998195879,0.6076132902140653
35,0.606916089457448,0.6067971917594929
36,0.6068503914811347,0.6075977167775554
37,0.6068597321413384,0.6066545392384304
38,0.6069015656101184,0.6066636900156367
39,0.6068419671734208,0.6066896981400237
40,0.6068149483298074,0.6067190812480066
41,0.6068084209842257,0.6070348251842091
42,0.606862678775808,0.6067949920079253
43,0.6067865994990363,0.6073596547910061
44,0.6068050607292867,0.6066368826861417
45,0.6067966483959842,0.6066385160013109
46,0.6068251705078489,0.6069876572334441
47,0.6068020754461814,0.6067347017470424
48,0.6067851168184112,0.6066545095100592
49,0.6068598742242781,0.6070907061804022
50,0.6067984002342444,0.6066026438850327
51,0.6068293082468125,0.6079029466910635
52,0.6068139757725225,0.6067622211671645
53,0.606804565835852,0.6067136915682563
54,0.6067596596936384,0.6082555399343335
55,0.6068296202591149,0.6069413588005615
56,0.606795614482856,0.6069009152003021
57,0.6067727249180241,0.6066272755414617
58,0.6067691346841786,0.6071759443720872
59,0.5772990667768387,0.5578776366361613
60,0.5576068099835503,0.5576567941504732
61,0.557636549406358,0.5584800749499508
62,0.5576251533297425,0.5580789768074641
63,0.5576067924865528,0.558309687988338
64,0.5576413314081018,0.557519896598371
65,0.5575625680819791,0.5577536749189013
66,0.5576172250458541,0.5574363134930802
67,0.5576139926362954,0.5580186724366976
68,0.5575846295271178,0.5578222022458874
69,0.5576043901750682,0.5584510393237357
70,0.5575928480595398,0.5583303176143921
71,0.5575923431203783,0.5581068649185502
72,0.5575665513786432,0.5573747048898607
73,0.5575834841336383,0.5574863493294633
74,0.557552097700734,0.5574804967449557
75,0.5575734888044332,0.5577063572022223
76,0.5575526664308512,0.5581063456629997
77,0.5576156440638298,0.5579312584536247
78,0.5575913254839303,0.5575994172995499
79,0.5575132702399417,0.5577378768187303
80,0.5576023148478447,0.5581161772938579
81,0.5575532413406484,0.5573674629698911
82,0.5575714040625457,0.5577486346436493
83,0.5576225164294396,0.5584988679542731
84,0.5575696468097692,0.5573737688750842
85,0.5575451397654116,0.5578968732883558
86,0.5575810699960421,0.5575942618675327
87,0.5575603078810433,0.5582945029433845
88,0.557575710023059,0.5576926561798115
89,0.557600920446557,0.5583407911414248
90,0.5575845523355492,0.557373773844603
91,0.5575973899696001,0.5582318657681014
92,0.5575645075217192,0.557501266819076
93,0.5576069684039101,0.5578073657475985
94,0.5575480225316203,0.5577622888105974
95,0.5575570999078034,0.5580654025669429
96,0.5575514990030347,0.5577683465060762
97,0.5575289521864059,0.5576588228973502
98,0.5575462124983513,0.5588367642303258
99,0.5575796860932682,0.5583343113326553
100,0.5575564191711866,0.5601742358716487
101,0.5575819825100937,0.5574413469944047
