epoch,loss,val_loss
0,0.6625077857500545,0.6572692629125515
1,0.657484739022949,0.6570288392509479
2,0.6571213254594315,0.6603296526608337
3,0.6571090016814557,0.6591773099106536
4,0.656876604963694,0.6563658321170003
5,0.6567280528236507,0.6564416875910226
6,0.6566470356435036,0.6562726841375195
7,0.6565152019677631,0.6562123851503983
8,0.656379892194513,0.657363268696049
9,0.6563700951427883,0.6559565096575924
10,0.6562330624465631,0.6562246754802487
11,0.6563168412959635,0.6559808139765528
12,0.6562165287076726,0.6561054533823548
13,0.6561319475198498,0.6572056694007097
14,0.6561655292473312,0.6558701415807379
15,0.6561195644677483,0.6565613992752567
16,0.656087614517303,0.6559828554134511
17,0.6560632490691783,0.6558627577336787
18,0.6560997223685571,0.6559060093782676
19,0.656037668171745,0.6560291183793515
20,0.6560085291694373,0.657110060267058
21,0.6559898402967892,0.6560537759778517
22,0.6559502436291463,0.6557335960362153
23,0.6559430408257858,0.6561637072350192
24,0.6559222239424478,0.6562634082349299
25,0.6559439741956653,0.6557925944884421
26,0.6558882224266498,0.6557057738895747
27,0.6559172654033276,0.6560659219254336
28,0.6558725900817004,0.6557495923551081
29,0.6558712021984996,0.6557695420149242
30,0.6558929844765629,0.655735610318243
31,0.6558733934487546,0.6567919619030159
32,0.655837062730855,0.6557271131806575
33,0.655831768305548,0.6557639842293694
34,0.6558290482864216,0.6558028063466472
35,0.6558029224862145,0.6566123526386233
36,0.6558415241906974,0.6563452463587816
37,0.6557810314035052,0.6560772732232996
38,0.6558167461010391,0.656346347225511
39,0.6558119458678988,0.659231862921277
40,0.655802347086555,0.6557650708383129
41,0.6558015835529566,0.6559731128198042
42,0.6557731821507327,0.6557573298958336
43,0.6558385197248686,0.6556377615585517
44,0.6557254205886163,0.6561023539999874
45,0.6557768619852027,0.6556853259467605
46,0.6557454893244491,0.6563502276801589
47,0.6557635486775152,0.6557993046994837
48,0.6557721060258318,0.6556852520251688
49,0.6557260484895229,0.6558488770395
50,0.6557350563959763,0.6556116973200152
51,0.6557365455655019,0.6558528131645903
52,0.655713972160631,0.6560006356712607
53,0.6557396610754599,0.6560205330919687
54,0.6557327310559774,0.6557285425976548
55,0.6557294544326002,0.6559064755368765
56,0.6557050671717991,0.6556708424322066
57,0.6557191203995141,0.6556178245295957
58,0.6557414036465666,0.6557000540030505
59,0.6557237568955927,0.6556726126753663
60,0.6557053695580316,0.656001270113157
61,0.6557473671764305,0.655762404898556
62,0.65566074099656,0.6556977146020894
63,0.6556818198063452,0.6559541428059561
64,0.6556701487316111,0.6556400309129625
65,0.65573190161973,0.655618320239093
66,0.6557263235988663,0.6558023635861892
67,0.6557239900842411,0.6561100511633728
68,0.6556952125971472,0.65585280115492
69,0.6557031333358943,0.6556034656671378
70,0.6556773615183809,0.6557304871585173
71,0.6556975489846846,0.6566313113527321
72,0.6557223086165526,0.655594504500737
73,0.6556997709590076,0.6566705792476758
74,0.6556897784964041,0.6558796678524159
75,0.6556584453038787,0.6557479160890981
76,0.6557005503180766,0.6556002527253504
77,0.6556551212182887,0.655615037664882
78,0.6556766264662119,0.6556682380494054
79,0.6556911341054893,0.6560530024190103
80,0.6556685052933283,0.6555667651202484
81,0.6556762815739741,0.6556092288890488
82,0.6556519443785188,0.655595990741815
83,0.6557022791233432,0.6565424122526391
84,0.6556718185735502,0.6561151982536979
85,0.6556543227687893,0.655647447653503
86,0.6556543013883908,0.6558101197626099
87,0.65570028216462,0.6560373831919346
88,0.6556714589018278,0.6555582547010322
89,0.6556671644116648,0.6556645548964848
90,0.6556478640559907,0.6556433689505528
91,0.6556685827956953,0.6564452120743082
92,0.6556718464286503,0.6558430422328542
93,0.655684507983634,0.6556872395960333
94,0.655657152738729,0.6556566064765968
95,0.6556474647409202,0.6556338784416615
96,0.6556922759011236,0.6556447575169225
97,0.6556559019688507,0.6558232011333589
98,0.6556728773497533,0.6557049977572326
99,0.6556390922505393,0.6556496380576424
100,0.6556704436673616,0.6555857957444771
101,0.6556499237281305,0.6560184464856945
102,0.6556647231115595,0.6555660421144281
103,0.6556668830366593,0.6556954699769505
104,0.655614804651866,0.6569457383368802
105,0.6556350376919279,0.6555598056937566
106,0.6556561178458762,0.6557019926182389
107,0.6556326125817318,0.6557706944699915
108,0.6556307709629944,0.6555947347846871
