epoch,loss,val_loss
0,0.4700564011175919,0.47260280085852363
1,0.4622290128509776,0.462734195893219
2,0.4614544638095129,0.4604627515778648
3,0.4609841403616022,0.46099807853734226
4,0.4609607898375398,0.4613707036593416
5,0.46059050783362143,0.46046701532143813
6,0.4605050236840616,0.46363402704151335
7,0.46043779826112496,0.4598725280897789
8,0.46038476575317194,0.45981396134970504
9,0.460234193404484,0.45965037777761075
10,0.46025377445124965,0.4606362377887328
11,0.4600857023911293,0.46066119556983115
12,0.46000950186081985,0.4598898974009246
13,0.4599449824777913,0.45964640554955816
14,0.45988199551376446,0.4597115882277193
15,0.45987986151784077,0.4596343008963109
16,0.45977795899629803,0.4597572814885795
17,0.45974078528456147,0.45999255556030844
18,0.4596059206316611,0.4594153959757045
19,0.4596829764248463,0.4602911989978762
20,0.45962219149632744,0.45936100043670713
21,0.4596008090220137,0.4595874349029721
22,0.4595804649630651,0.45975231128945837
23,0.45949696222363656,0.45968987066160066
24,0.45949149929201294,0.45917255860700207
25,0.4594737421173231,0.45998391704287184
26,0.45943709863655097,0.45919114377895004
27,0.45935877014879745,0.4626432179369347
28,0.4593351078837894,0.4596939446612564
29,0.4593736740925826,0.4601338798739478
30,0.4593265696744161,0.45910923004742
31,0.4593740733252206,0.4589815014497222
32,0.45925203990503055,0.45911340113017457
33,0.45930791044948016,0.4600227139132194
34,0.4593355747517373,0.45918328874460224
35,0.4593126284847539,0.4590438569449905
36,0.45920494797953565,0.45902752539064395
37,0.4592466445759804,0.4594814550344169
38,0.45921148210194,0.46031242225956975
39,0.4592425083606385,0.4590192236616357
40,0.4593117586242186,0.4601473412501901
41,0.45922810972952494,0.45930602213289246
42,0.45920012344536054,0.4599953782025993
43,0.4592060828184943,0.45900260550212624
44,0.4592305510801152,0.45902296720308344
45,0.4591991989801677,0.4593802992522569
46,0.45917101739043303,0.4592568390718465
47,0.45909069190648694,0.4589491233192662
48,0.4591090554738947,0.4617314933547311
49,0.45920328235506636,0.4591079331361331
50,0.45915610424338965,0.45897387717261207
51,0.4591660508624557,0.4591101626012816
52,0.45908135739756534,0.46089306663046997
53,0.45912732918273114,0.4592048732873524
54,0.4591219659057413,0.4589532452984424
55,0.4590701156062725,0.45891235782845735
56,0.45910754489202305,0.4592958543791664
57,0.45910084122678174,0.4598942972738157
58,0.45908476095522627,0.458857956107142
59,0.45908309791338037,0.45905108805329864
60,0.45905063993156725,0.45918497978605644
61,0.4590373373424768,0.45897039599513295
62,0.4590646155839486,0.4588627134895798
63,0.45906770698574034,0.4620282842266944
64,0.45908346263399746,0.46005817909098734
65,0.4590485534321705,0.4592087634443941
66,0.45902023550334825,0.45884511284437723
67,0.4590791513244404,0.45892729947052285
68,0.45901045675835317,0.4588379447424678
69,0.45904865784107163,0.4592088022687595
70,0.45894717276581476,0.45904089780362606
71,0.45901803798269825,0.45929472558847434
72,0.4590400247774783,0.45900675962048193
73,0.45903567898981995,0.4589575015581571
74,0.4590948788497903,0.4588829904572839
75,0.4589700419563984,0.4591922178309845
76,0.45899169724496,0.45894535494501476
77,0.4590419707877626,0.4587726522911867
78,0.4590163325997119,0.459058996495183
79,0.45898310324610925,0.45931284355170676
80,0.45912078006628104,0.4588724528589556
81,0.4589799403800358,0.46021258048620767
82,0.45902150339631953,0.4591350346581812
83,0.45898108076524524,0.4590476990633508
84,0.45898214780442337,0.46119446332933883
85,0.45899568482456654,0.4591559985879041
86,0.45896192301589844,0.45880229986335147
87,0.45901759788363405,0.45942806060201774
88,0.45895975559535346,0.458991407874796
89,0.45903889105550033,0.45909915402272794
90,0.4590151284034315,0.45906554427986995
91,0.45896899724579027,0.45891126049659386
92,0.45899247873347065,0.45918575486829205
93,0.4589472599340876,0.45881828041585443
94,0.45893402472551553,0.45880933482357056
95,0.45897637731106566,0.4588538693435139
96,0.4590553485072137,0.45884128094606896
97,0.4589039350002919,0.4587834454795563
