epoch,loss,val_loss
0,0.5534647410507683,0.4892058754258957
1,0.4906619183903785,0.4898250898274269
2,0.4908010120348012,0.48844456839674366
3,0.49075344615845945,0.48709386897632806
4,0.49233490774195066,0.4948484079049343
5,0.4914337252851108,0.48707873944043173
6,0.49209538858523855,0.4991683315929693
7,0.4910119017251104,0.49017007511341393
8,0.4902592903489975,0.48771419575483477
9,0.4900839489569767,0.48484570867637056
10,0.4895975170947379,0.4850991292082614
11,0.48907849685751276,0.4875701226252877
12,0.48930578954595266,0.4887257186371036
13,0.4889710468234871,0.4901691657309468
14,0.4892285472388081,0.48427668627830783
15,0.48881778418779565,0.4843981527115476
16,0.4892684470335071,0.4896099974578445
17,0.48975196410473776,0.4873879408874
18,0.48875240484873456,0.48648390943080116
19,0.4893226079303298,0.48462077046155744
20,0.49033579937845684,0.48900893005970997
21,0.4901351803641239,0.4912550222149211
22,0.48953941476335533,0.486423518799757
23,0.490319899482121,0.48804664162546985
24,0.4916358044703039,0.49224246512648623
25,0.5024664238821879,0.5086744911527671
26,0.5064141658617914,0.5107216826554067
27,0.497876378534128,0.4914935584743849
28,0.4911515720480447,0.4895938012246175
29,0.4896363557266484,0.48745960117139114
30,0.48933439492750513,0.48412188374817416
31,0.48868112501909405,0.4846499568143979
32,0.4888356268691788,0.4878559740349921
33,0.4890256872494444,0.48614569832795046
34,0.4883261570613161,0.4869670208364184
35,0.48788112833154956,0.48234191990877195
36,0.4870501108926168,0.48345481561410114
37,0.48656890210773734,0.4868049711671135
38,0.4861074520005501,0.48669025927617404
39,0.48581419657650804,0.4826967209083599
40,0.48572139225179534,0.48014971042300364
41,0.48558614166568126,0.4826116888609663
42,0.4865534485315533,0.4825965485990565
43,0.48567865779407493,0.48130624874802963
44,0.4859711468982087,0.48182766211249267
45,0.48624503965095744,0.4847445959356138
46,0.48717552905888867,0.4873900408103133
47,0.48696412074623063,0.4880661364371323
48,0.4870104767102227,0.4836876077875907
49,0.4863216844584635,0.48160120896589315
50,0.48652691199339265,0.48368063173899994
51,0.4858319878840237,0.4829598932446884
52,0.4863910761763819,0.4896048951920507
53,0.48727173968661225,0.48366931809998914
54,0.48740239259150386,0.4831137341030395
55,0.4867245543965523,0.48323247118925805
56,0.48733817657930767,0.4880663830648752
57,0.48802306382156774,0.4841876929447984
58,0.48732099579059057,0.489476235132097
59,0.485946085956171,0.4841202288842521
60,0.486440523887138,0.4819956852068747
61,0.4868787640599991,0.4862433698531108
62,0.48717350497853745,0.4873670472248201
63,0.4872772437538937,0.48167091118790734
64,0.487098237593397,0.48338121352180685
65,0.48693939053612073,0.4850757479573576
66,0.49137196371214187,0.4903721423391855
67,0.4882656884588879,0.4918856697234942
68,0.4881735046466382,0.48808261258167457
69,0.4885614972701557,0.4828074369829474
70,0.4885018935902037,0.4834680857391177
71,0.4875102508530247,0.4847576378741035
72,0.4888400516206984,0.4876204560427752
73,0.4894354923142137,0.48388350379212974
74,0.4885086855775923,0.487654517415761
75,0.48960534401601263,0.4900063791657021
76,0.48816381705750667,0.4843535420220954
77,0.488162304083411,0.48488182393979534
78,0.4876285340193269,0.48582574440535353
79,0.4866615679862497,0.48234221480357525
80,0.4870636599550811,0.486335949132832
81,0.4860120579588423,0.48555549235915985
82,0.4853828787374839,0.4840397976380027
83,0.48535356846311206,0.4901660551400098
84,0.4854577691863767,0.4852635333316008
85,0.48511746069557854,0.4825041655865634
86,0.48510347897533795,0.4821800178632834
87,0.4848124897784943,0.4830579806380885
88,0.485523827880216,0.48039710091246146
89,0.48518991253549437,0.4838245117767834
90,0.4854769790344101,0.4826849217996319
91,0.4847686000817495,0.48456933856857226
92,0.48451429144512836,0.48132560078139935
93,0.48496288237430685,0.487599594346538
94,0.48541156006612174,0.482375201034847
95,0.48508303019878485,0.48180573254282677
96,0.48528563776176326,0.4825865470854993
97,0.4856281504094553,0.4840215190527659
98,0.484753597733214,0.48492400281148906
99,0.4853502966278939,0.4819477093012764
100,0.48522664728067477,0.4820994459557176
101,0.4868766608522188,0.48457195225811983
102,0.48622433986547564,0.4818384214330115
103,0.4860012198237778,0.48310688973037674
104,0.48594782852249846,0.4842915865691892
105,0.4878903479575158,0.48605216871403106
106,0.4871526551689747,0.48434865065418836
107,0.48937840401221044,0.48355564178682825
108,0.4867823612418392,0.4827363416493739
109,0.4863639136107801,0.48604640164710256
110,0.4864640020304542,0.4866152470188999
111,0.48597343145705146,0.4808783976694873
112,0.4853136052878545,0.4815619130160927
113,0.4851600581602894,0.47970483763159594
114,0.4854583018403545,0.48090235619631544
115,0.4862893741908405,0.4829159385591581
116,0.4864177688491716,0.4804321968753035
117,0.4850809619986087,0.48173255285787697
118,0.48567015736651936,0.4821957360126884
119,0.4852079561383699,0.4810784089584095
120,0.4850128039324598,0.48152829641983463
121,0.4855479900475791,0.4802425043406031
122,0.48523847187022795,0.4808223395951639
123,0.48478069589387696,0.48375372147597756
124,0.4848278162719534,0.48214856180602766
125,0.48543851911354596,0.4846314296726176
126,0.485278184131848,0.4824340573284884
127,0.48524295270061796,0.4811450490682447
128,0.48490317854330506,0.48558147071663
129,0.48555276262388525,0.4805146584665107
130,0.48444373707929483,0.4791132162289066
131,0.4852296932519292,0.4810994733433697
132,0.48449976990024723,0.4850780350209788
133,0.4854611217808857,0.48080647057591225
134,0.4845428697878032,0.4816843204923568
135,0.4850898727619772,0.4795643037571715
136,0.4854987319186628,0.482114043636593
137,0.48483992572263374,0.48180826922147973
138,0.4851604480680516,0.4822156000015015
139,0.4853158479543041,0.48129934112481837
140,0.4856402136439042,0.48605874670050514
141,0.486951864892535,0.48398255083442393
142,0.4865336637678954,0.4816855062343233
143,0.4862718224215755,0.4825949526811643
144,0.48766910735604097,0.4845410684195671
145,0.4883696714655863,0.48568304298238296
146,0.4883277912100823,0.48492177982168494
147,0.4883367050227692,0.48094101917019205
148,0.4870093507017735,0.4859425594181928
149,0.48683270731037087,0.4869712015588921
150,0.48716930573363953,0.4894336404862513
151,0.4876959380462206,0.4842194272197883
152,0.48781900768943254,0.48752945750928245
153,0.48874718399880696,0.48350794642763806
154,0.48841782445482596,0.4939963085122624
155,0.4889986005713709,0.4880856988509057
156,0.48880396773822776,0.4932754367660516
157,0.4874501271690015,0.4843787067785165
158,0.48609510516758253,0.48379874528160033
159,0.4856948108433915,0.48237321742802225
160,0.4857084555424851,0.48100094387826714
161,0.4862801051682991,0.4868040372277209
162,0.4868294303532508,0.4835845553555071
163,0.48739746984818,0.4859068124851281
164,0.48938422094432,0.4897608685277067
165,0.48959101481641604,0.5035237927510217
166,0.48952018478505616,0.48491572865653243
167,0.4927231405588458,0.48541855134640327
168,0.48744142774960025,0.48631472677439336
169,0.4886510539517033,0.48203026211064165
170,0.4875388473129387,0.4842076127747428
171,0.49341527813916014,0.4861970418724566
172,0.48834751458238546,0.4890345709711525
173,0.4871601766581349,0.4884727201362059
174,0.4875084426429727,0.49181359037227673
175,0.48734560795872806,0.4838238771308005
176,0.48683552183121515,0.48413158956718144
177,0.486930889715489,0.48619205834551316
178,0.48709210595019237,0.48292471662504804
179,0.4869115452805488,0.4826218045501137
180,0.48817122326813916,0.4833865333892458
181,0.4876667693983927,0.48416165705261593
182,0.48814356109078266,0.4885301159749185
183,0.49539260217230574,0.4934875896434287
184,0.49873065542307593,0.49983840907946664
185,0.5015686666555732,0.49934731114541064
186,0.4998257412351102,0.4947528171793344
187,0.5021858396266194,0.5026045947820066
188,0.5044800406403774,0.5004590569091953
189,0.5121673248607002,0.5090213078349806
190,0.5120777408067557,0.5106087581040639
191,0.5071493796497989,0.49933918851891557
192,0.5001948244637436,0.49698606248718596
193,0.49677325046653276,0.4941586742696559
194,0.49519352951972223,0.490964197298628
195,0.49635082111655954,0.49600493169338944
196,0.49409863708926427,0.4910452349174653
197,0.4940211483233457,0.49204238842299536
198,0.49795226861151765,0.4918304076793162
199,0.49550624485972594,0.48934215575386053
200,0.4940762719590601,0.49170453497153527
201,0.49460578692569246,0.49240155476891534
202,0.49112428949891235,0.4882706775144037
203,0.49286868388084865,0.48870533742392824
204,0.4929239905590443,0.4909786868490567
205,0.4927987127447967,0.4877851759954617
206,0.49116325485620566,0.48620085774582017
207,0.49101826737967613,0.48875591977431065
208,0.4909831745256718,0.48771375871683165
209,0.49033733117256423,0.4870184102487451
210,0.48804812827746835,0.48322474406098603
211,0.48968373784582486,0.48466890415245845
212,0.4883783547331294,0.4835345702747143
213,0.4877337699147056,0.48363379312013205
214,0.4883137132219083,0.48339658963840215
215,0.48979878420833584,0.48456071614748675
216,0.48856845224122825,0.48464527479192826
217,0.4879836559795933,0.48899085432784994
218,0.4882445487020303,0.484678523198958
219,0.49058447979527603,0.4880698099320765
220,0.4920206474219199,0.4969762940762451
221,0.4913732686298166,0.48364352733014415
222,0.4900426587326635,0.4860798242577626
223,0.48918580298991704,0.4873312349712745
224,0.48934612957407814,0.4826251766581938
225,0.4888699033515726,0.48874072475327973
226,0.4884582845022162,0.4841447212654677
227,0.487477254155252,0.4870075002700773
228,0.4876219067308638,0.48528044681993165
229,0.4875995989778726,0.4842270980835337
230,0.4883628701873058,0.48903911830688335
231,0.48864477374952,0.48635424745299255
232,0.48876536875177057,0.48669930201114964
233,0.48906993944582033,0.48459677392324313
234,0.4881984066667793,0.48538486672463904
235,0.48930508890550295,0.4893513213205074
236,0.4896508882538401,0.4880608633313484
237,0.49016251407271855,0.48924565804503334
238,0.4907582705612663,0.48972125237347486
239,0.4911330827920557,0.4897454965274543
240,0.49168075435310243,0.48978822783588327
241,0.49110957047493337,0.4872309505092693
242,0.4913858757149592,0.4906788674883703
243,0.49139304164883424,0.48682447407032997
244,0.48969750040821985,0.48700671433085235
245,0.49025051966369104,0.4865343989635323
246,0.490446742335193,0.4895383818890979
247,0.49008569400087537,0.48988595268532525
248,0.49041424721455595,0.48622512746816937
249,0.4899174723979666,0.4912937651869812
250,0.4908889712070485,0.48848057338922346
251,0.49052446669668887,0.4872363892331684
252,0.49066972139356235,0.48914254349145536
253,0.4901935012339593,0.489808226605523
254,0.49108424013276564,0.4883274694973781
255,0.4903641634707828,0.48798672148065486
256,0.49014533437985025,0.48776294473314624
257,0.49028137401282357,0.48660644129118585
258,0.49021481023989705,0.4918260910704838
259,0.49010490903036774,0.4869244644843224
260,0.48966114831675916,0.4873937008506968
261,0.48909957628313017,0.48862592270267036
262,0.48936764948326145,0.4836662394753948
263,0.48917841551591645,0.4891922538592859
264,0.48884758691517094,0.48541870736755904
265,0.4885185235005012,0.4883570931940071
266,0.4889656837871797,0.4860841031373723
267,0.48967556518425853,0.48788657935002516
268,0.4898723828420936,0.48990599605259977
269,0.4898924156487417,0.4861003761933183
270,0.4893876384678695,0.4868373854384238
271,0.48935996443867014,0.49053175607438904
272,0.48990232750570933,0.48873338961845886
273,0.4886616136220624,0.4853741007944497
274,0.4890547322331191,0.4907523176288078
275,0.48875637111856307,0.4834546632153271
276,0.4888502971397982,0.48848870130815936
277,0.48894980055489223,0.4880062615485669
278,0.4892353106269257,0.4926041072527066
279,0.489387619088022,0.4897082018024261
280,0.48962383850110613,0.48903038570894064
281,0.4897389162858899,0.48429138108135306
282,0.4893772215675488,0.49114427344481026
283,0.48908457499470925,0.4855287856677431
284,0.48867890051752927,0.4877599846357046
285,0.4894700773375974,0.4858677428165758
286,0.48875960478965613,0.48786730762062436
287,0.48907862243940126,0.4863338469282886
288,0.4888530546884171,0.4917143348548576
289,0.48967087138995086,0.4875900336580194
290,0.4893426291352744,0.48758126445990807
291,0.48926317875238534,0.4861139234070149
292,0.48930483367993866,0.4847066059955576
293,0.4893987996996545,0.4890657308163752
294,0.48896963982511576,0.4912447235719746
295,0.4891550635262359,0.4878365984090972
296,0.4904168149669298,0.4906948149768781
297,0.4911764606321268,0.48544495396945264
298,0.4913668393683758,0.48592890663794297
299,0.490967545816176,0.48463905546828906
300,0.49086044706124293,0.4900443016683011
301,0.4918550166080324,0.4931902358780344
302,0.49373893597000224,0.4935364590541716
303,0.5026159283163831,0.5061968586392166
304,0.4985389613585888,0.49111858922944074
305,0.4965657243649546,0.49709726704230156
306,0.49524974752720785,0.49375889147466434
307,0.4963201299297819,0.49458799702310147
308,0.4930250288771211,0.4932480165830445
309,0.49207435853237347,0.4920374934091846
310,0.49198282940639293,0.48813461563487454
311,0.48938677480800163,0.48725766373979074
312,0.489268235844388,0.4867702175899105
313,0.4908259848443915,0.49613173547088396
314,0.49562278243420504,0.49422827043115575
315,0.49257599368846294,0.48895997851028533
316,0.4916547151754419,0.49253412234378596
317,0.4909271846334044,0.4909285613656891
318,0.49100614648214064,0.48927595366995075
319,0.4903238908254462,0.49212021129566
320,0.49070143738953614,0.48850448717728506
321,0.4907132952833633,0.48882985693691466
322,0.4900081388289027,0.4942030700860103
323,0.4905915236373028,0.4862404680430842
324,0.49071979997969933,0.4875610890168323
325,0.4905958145761566,0.48584908665684895
326,0.4905055988964131,0.4856918647050293
327,0.4900796711921311,0.4917254334090729
328,0.4907589349315035,0.4900109846712382
329,0.4909552830181343,0.485324411337641
330,0.49013227188615777,0.48639464441866226
331,0.49071154166325676,0.48814008971227846
332,0.49002493433148075,0.4865540169596954
333,0.49070868217687813,0.4873251667527016
334,0.49096587614761555,0.4862853131994264
335,0.4909467975989425,0.4901500717805141
336,0.49104227905841374,0.4903362031611478
337,0.490095479037169,0.4878110714145034
338,0.491081306319252,0.492174699632032
339,0.491237869341787,0.4910705942945774
340,0.4913143826236161,0.4880644397041227
341,0.49082754053276695,0.48681892342894867
342,0.49142400044903195,0.4899202446205558
343,0.4910972804116974,0.49261928173906705
344,0.4912934849659602,0.49241732031506824
345,0.4909751513164392,0.48914679593238286
346,0.490690969889589,0.48861702542749086
347,0.4912367609145639,0.4867336395789811
348,0.49156513162177623,0.48608190385770306
349,0.492427171920415,0.490123820309575
350,0.49260880828475495,0.4896475371405565
351,0.49291795776854697,0.48809115874456815
352,0.4932612269568882,0.4926126398434296
353,0.4943297616750312,0.4887021936435067
354,0.4939216088286216,0.4917433775590928
355,0.49469958084950344,0.48962353373383005
356,0.4943979592274705,0.48916272940180294
357,0.4939469010781327,0.4883893753189502
358,0.49311571120977593,0.49554565252520105
359,0.49308705036874584,0.48781464416489606
360,0.49256754033475947,0.4906232235651837
361,0.49326881952137114,0.49278779672466116
362,0.49300988659346034,0.488321695867823
363,0.49287374998978095,0.49069427350137584
364,0.49323900165460666,0.48909825175977073
365,0.4932051695388951,0.49571488074364395
366,0.4933522477996149,0.49234895176462234
367,0.4933372001043803,0.4929966873415079
368,0.49302336986926343,0.48702149477735124
369,0.49095636954029304,0.4867856307300697
370,0.49032525209595357,0.48605574212303854
371,0.49036085608003616,0.4890659952737632
372,0.49114958939554215,0.4879771473610975
373,0.49127200378073776,0.4925882367750934
374,0.49149931165621247,0.490005781566805
375,0.4927828192329712,0.48779976259749425
376,0.49295658150689303,0.49559357964625583
377,0.49217372036856905,0.48795129741000304
378,0.4911780291252571,0.4910232142002073
379,0.49211175593254947,0.4884399561404053
380,0.4923936150890651,0.487707081161904
381,0.492702189907372,0.48877617643871174
382,0.4926533317156166,0.49001934571631234
383,0.4926926524018784,0.4917203712952636
384,0.49268036098074286,0.48828586270325564
385,0.49265250232484603,0.49157384621316086
386,0.49286464939443325,0.4899762262249896
387,0.49295052234455644,0.48872409061173705
388,0.4934100142652563,0.492613761017618
389,0.4948644544199693,0.49944469120997376
390,0.4950174399369436,0.4910282049954361
391,0.4959334530871359,0.4937116798210445
392,0.4961336576562229,0.4914170879497242
393,0.49615546193816584,0.4956644951544508
394,0.49659591423664734,0.4899865725234257
395,0.4954712040108933,0.49150519671643356
396,0.4964895321310853,0.49282694274549327
397,0.49773899940468613,0.49498858130533296
398,0.496736788802105,0.49784742064050735
399,0.4976046659606252,0.49486968083558536
400,0.4988107782163971,0.4941022552273456
401,0.49870328683790255,0.49836984547274077
402,0.49921441763091523,0.4973655259082331
403,0.49822417437601435,0.49305504120609944
404,0.4962516674916331,0.49670786352353297
405,0.4929378096052973,0.49003278033039
406,0.4928968737332179,0.49425078052277627
407,0.4945975934429992,0.49489708928113485
408,0.4953193258967617,0.49275513159165535
409,0.49551573500549384,0.4918139745329155
410,0.4964158570856976,0.4904283399692933
411,0.49684367504575366,0.4930648950252744
412,0.49799719168175516,0.49759621284284644
413,0.49731171632603965,0.499967938957952
414,0.497806958764863,0.4984705685957643
415,0.4972675062483735,0.4937137512118212
416,0.49656846180713055,0.48975871215209116
417,0.4950569546479973,0.4934672667176684
418,0.4957920813398491,0.49176968371858726
419,0.4963566543911096,0.4945105189353157
420,0.4958771024819472,0.4973027479159333
421,0.49845713835587796,0.4975438969711102
422,0.49797449589109155,0.4973901526468799
423,0.49834701514167845,0.4941229151992602
424,0.49817877083564166,0.49389925756695335
425,0.4977494886905836,0.49499833285102907
426,0.49648524985181913,0.49359514168518775
427,0.4954485734351438,0.49291088222140106
428,0.4935390988437773,0.48843747791382114
429,0.4942881780848515,0.4932476575438583
430,0.49590117755315477,0.49205099254399653
431,0.4960466901794803,0.490060310290381
432,0.4951414559646953,0.4933278958865198
433,0.49487540551083836,0.49109514969112184
434,0.4958288049716934,0.49043354824855745
435,0.4955394234564855,0.4931357375918737
436,0.49542408509791896,0.48952116783717153
437,0.49631369160376576,0.49110932388264267
438,0.4954281740909,0.4883119121676086
439,0.49383869792202967,0.49679999308691497
440,0.4939341830859463,0.4900600835151718
441,0.49483911153509746,0.49372846320941866
442,0.49409514086709605,0.4940130318490746
443,0.4927493771560472,0.48909755005268196
444,0.49228233181172426,0.4878324667063866
445,0.4920852649435818,0.4901550378776857
446,0.4905830364552238,0.48893041660584324
447,0.49050380322906517,0.48617474773594405
448,0.4890823118049178,0.48526548464277547
449,0.4895076638908028,0.48527661410484524
450,0.4886037229086093,0.48534723542389574
451,0.4890526540273671,0.48847511363669277
452,0.48871229666409544,0.4836183657256656
453,0.488963971451985,0.4850677209946708
454,0.48903491031780516,0.48878895643666304
455,0.48934733210135994,0.4873574940868504
456,0.48905772492468214,0.4844272086821679
457,0.48949835228500704,0.4893129564639425
458,0.49001122800280433,0.4855878473551328
459,0.4899844586325111,0.48566628271609474
460,0.4897592497362698,0.48628116446681724
461,0.4897015678415672,0.4849586295818097
462,0.4899472335188223,0.49055293861015065
463,0.4892667045743822,0.4868026144549709
464,0.4900736179616716,0.4905188944081951
465,0.4902242681057714,0.48816283210676864
466,0.49013583832602803,0.48633569723617026
467,0.49056598678719604,0.48551926936516165
468,0.48978735644706817,0.49173414184996345
469,0.49004372000265467,0.4842790262192935
470,0.48947237365299184,0.4860044712613865
471,0.48851980064079153,0.485444158080439
472,0.48774240422639537,0.48808680424185935
473,0.4883067152745051,0.48631299447618137
474,0.4885879937621901,0.4846227319342185
475,0.4887369530235263,0.48751076140926874
476,0.4888419813389401,0.48483208174675396
477,0.48866772511117845,0.485070199221255
478,0.48927159560955974,0.4894692149563107
479,0.4890552864943763,0.4848480197559122
480,0.48953121874353395,0.4842282742755848
481,0.48946936237964506,0.4894134213864192
482,0.4892534399561459,0.4883852836506143
483,0.4888132094836635,0.48722507651151403
484,0.489082211713425,0.48714206695274376
485,0.48931449231245727,0.4851077084900736
486,0.48952491853019886,0.48642156988782215
487,0.4893519860520351,0.4848255729383621
488,0.48903232903408106,0.48707880784228924
489,0.4890775811805618,0.48950941334960024
490,0.48916163534331,0.4898619042340469
491,0.489684091673957,0.4842332225666332
492,0.48904408002309474,0.48450096173839674
493,0.4889371760910173,0.48555041455620374
494,0.4894512566945536,0.48710941141669734
495,0.4894921421218547,0.48462635859694175
496,0.4897629221756872,0.48962411517314114
497,0.4893287152147217,0.48636324631951416
498,0.48960726447909664,0.48842706279013226
499,0.488530522115606,0.4854121318979346
500,0.48910040569772345,0.4837012537935162
