epoch,loss,val_loss
0,0.16806117913646282,0.08824025857796702
1,0.04627443879446704,0.026732593770385164
2,0.025122729239525268,0.024635182515715837
3,0.024101498718414424,0.02503568385804885
4,0.024092955105334258,0.023420466976012407
5,0.023994636252897678,0.023320971927131454
6,0.023929652195129034,0.02365897449311207
7,0.02404800539152871,0.026897248836276845
8,0.023855118690688404,0.023976996852689215
9,0.023925911594215008,0.02307376034863605
10,0.023973333245838623,0.023255597447187016
11,0.023773187216070534,0.024820738239030058
12,0.023838241900251113,0.02383604738640804
13,0.023782972224074588,0.023575449362397194
14,0.023871665683498296,0.023553477682543723
15,0.023781346238339596,0.02403973879758636
16,0.023771261409979216,0.024165006098649872
17,0.02373702653261612,0.02454073081306096
18,0.023837020123402754,0.024352341328748306
19,0.023713681240120143,0.024530742740833392
20,0.023765581485023984,0.023120922834010415
21,0.023691642672109374,0.023657528205753408
22,0.023676463947009792,0.022954034460995174
23,0.023666240595025027,0.023530862940256296
24,0.02369366473868954,0.02369207274624468
25,0.023592143040373742,0.023886336353273023
26,0.023638906273737752,0.02401753901647317
27,0.023731913765241728,0.02412685650035492
28,0.02359560410306751,0.024627784815423586
29,0.023516014267464906,0.02383178157324667
30,0.02366696563374391,0.024410843515464332
31,0.023621585508205478,0.023450904911723584
32,0.023649340664460172,0.023571058785823638
33,0.023584905245023473,0.02312546620482098
34,0.023681553069511047,0.02351942364693911
35,0.023486316165358994,0.022979578836846745
36,0.023566892251467627,0.023480384468726502
37,0.023552101450882178,0.023394925943219295
38,0.02344704518313531,0.023287358537210475
39,0.023596437471501117,0.02305602950162321
40,0.023506642181536468,0.0228205613833106
41,0.023516738952564106,0.024976149024978432
42,0.023526776800874612,0.022993539118199905
43,0.023570786174431407,0.0236090801762095
44,0.023514806397175854,0.02342899159279129
45,0.023424435143383573,0.023239866147536693
46,0.023407946995866718,0.024004565332828777
47,0.023537308059567264,0.02279249843777449
48,0.023427563147704236,0.022846061086551166
49,0.023412112218084383,0.023720874035791234
50,0.023436515219062926,0.023252853410702195
51,0.023502381651741948,0.02378336685667757
52,0.02345687453802541,0.02325213480014545
53,0.02341917083769155,0.023354076910484654
54,0.02335839655524273,0.02345612448593859
55,0.02346967245719368,0.0247407870230448
56,0.023488104020317587,0.022962324077229663
57,0.023401539281403705,0.02350323238713636
58,0.023350599228585366,0.02624270566331183
59,0.02344187355185632,0.023654720615874904
60,0.0233798467782702,0.023537668397307584
61,0.023439982320836408,0.023883086602014637
62,0.02327889871286998,0.023128484307414165
63,0.023417766482162056,0.023178074588292023
64,0.023291624996135178,0.02298723826009924
65,0.023418574329677054,0.023030649616302894
66,0.023382941119486002,0.023124372270531605
67,0.02339245210350346,0.022920917850443482
68,0.023408895249751736,0.022759839517506163
69,0.023287562134532,0.02343634034535644
70,0.023314633720861875,0.023155347411039313
71,0.02329899630115496,0.023083987187861737
72,0.023304396396805104,0.02396229742463875
73,0.023383735090964655,0.023012975049987963
74,0.023330155776427993,0.023117911905614803
75,0.023314374644193146,0.02293904601422086
76,0.023395128915165302,0.023060943024275617
77,0.02325699545761688,0.02299812733362581
78,0.02320511869529335,0.023400091952052563
79,0.02341427324603287,0.023216786124723676
80,0.023285391692110864,0.023142362251619045
81,0.023271619066816393,0.023636742573651913
82,0.0232670446143126,0.023514801096803293
83,0.02321295342076835,0.023104271130384945
84,0.02334430042377336,0.02301228354701915
85,0.023212810341033528,0.022881573999643138
86,0.023344563692510367,0.02369539804415573
87,0.023304134165848808,0.023236803723691767
88,0.02326831046482928,0.023256041447690085
89,0.023235287736925625,0.02286328685094309
90,0.02322690491508737,0.023287802724419094
91,0.023293676830047995,0.023150189130639785
92,0.023216281187453336,0.022856345131181788
93,0.02320365336307471,0.022695483685410106
94,0.023297316640418925,0.024572516355631194
95,0.023189105134424595,0.02307065237745725
96,0.023315978071225776,0.023138223606990187
97,0.0232798361422704,0.023012833224334582
98,0.023153748273176494,0.024016833041618918
99,0.02327267694578087,0.02364752363434154
100,0.023229570591079295,0.023191904609445143
101,0.02324104726725488,0.023123038778318224
102,0.02323741216114242,0.023542047852404775
103,0.023251953770776542,0.022866631236924086
104,0.023174770454095182,0.02299212489127172
105,0.023257242127073755,0.025169597021300397
106,0.02321962747487614,0.023061104252605148
107,0.02330175077216588,0.02326604252462088
108,0.023145814342119046,0.02280644307114425
109,0.023199471974109622,0.023967974453917525
110,0.023265061130245433,0.022666927603468147
111,0.02320917869816057,0.023212957539211227
112,0.023282338451924657,0.023509738253813233
113,0.02322093600542735,0.022660988135279496
114,0.02314450392956666,0.023415363275379106
115,0.023250343223704662,0.023281742269562845
116,0.02331739545782669,0.023190487461383642
117,0.02317927166489031,0.022804570654091066
118,0.02316217913666813,0.022855903271177008
119,0.023239305686595723,0.025211958039696045
120,0.023302491755782365,0.023078377453438298
121,0.023177193845514293,0.023269987357126133
122,0.02320452027326579,0.02344243359276415
123,0.02322564008225092,0.02319325142831857
124,0.023207338525356055,0.023206397135401676
125,0.02319181067936069,0.02387109301078715
126,0.023209756908775997,0.023875697253488044
127,0.023148054429750552,0.022851248290139854
128,0.02316342255652999,0.022673928104605653
129,0.02323153465286457,0.022850511339805497
130,0.0231410540166876,0.02295586870190847
131,0.02321540974571908,0.02305927451614705
132,0.023201957927178517,0.023050551818008958
133,0.023189370598581484,0.023478718090805373
134,0.023099283017009663,0.023447052222083382
135,0.02324514893173195,0.022755061091756672
136,0.023193801957205665,0.023624905940048225
137,0.023126972038939084,0.02288338124322769
138,0.023144908037950856,0.022927236522017922
139,0.023213220839883735,0.02312477105594848
140,0.023163233839011164,0.023224205316736083
141,0.023225723893093547,0.02362172996394495
142,0.02316806836055218,0.023547444457295567
143,0.023180490993946003,0.02316513716227771
144,0.023198701040022713,0.024966483124206174
145,0.023161991646023488,0.022864860781683823
146,0.0232885171049576,0.022920449973681638
147,0.02305332356937331,0.02326596623408625
148,0.02317183320116487,0.02289371800497939
149,0.023203855509207928,0.02352492423065083
150,0.02316930388687826,0.022765619661173863
151,0.023114427773774766,0.02349917723370191
152,0.023145818153022527,0.023150104161972312
153,0.023278864912039562,0.02381829223239055
154,0.02314538489967632,0.023676637174957084
155,0.023183223366332377,0.02298372214617415
156,0.023068731339524785,0.023352925285649938
157,0.023138458076730477,0.0231942414808151
158,0.023195876720563162,0.022858028581634975
159,0.023233873189704643,0.02346559147326233
160,0.023062847396857638,0.023125470012438136
161,0.023232666417497765,0.02293382469644063
162,0.023082942346023094,0.02273272430846187
163,0.023335550381667274,0.02314559867915763
164,0.023097896266529125,0.022793382576768946
165,0.02313761650059792,0.022946215179567273
166,0.023193938342733776,0.02283589905179337
167,0.023072103460540446,0.0227889727518821
168,0.02324043389120929,0.02275143927896738
169,0.023170888688948323,0.025705442429412136
170,0.023100342385643582,0.02397182586308107
171,0.023099973345164962,0.022946555751075213
172,0.023188545042537242,0.02389391828784109
173,0.0232699416439346,0.02323300779547951
174,0.023053972349077058,0.022799487605738
175,0.02323641946359123,0.022760294546867885
176,0.023162716235087026,0.022800594831404484
177,0.02305478751465833,0.026231657860663903
178,0.02322418014366302,0.022865860409087897
179,0.023105771509375123,0.022928887182859896
180,0.023211852097950823,0.023909532035029865
181,0.02315128239677202,0.023022748087404184
182,0.023188941191872963,0.02423358562195875
183,0.0231156324272414,0.023490574165308392
184,0.023097822505185644,0.023569307015839768
185,0.023302643235287458,0.022774893396490657
186,0.023123195560888755,0.02346953050319426
187,0.02310306705358765,0.0238654743453698
188,0.023206998355877247,0.023219826002770647
189,0.023044929984840843,0.022802958313460978
190,0.023140162481166286,0.023147696480684234
191,0.02314355499673185,0.023034759074590672
192,0.023162416923943042,0.023056369511544376
193,0.023093947682151502,0.023276717621824265
194,0.02316306154433486,0.02470517796541446
195,0.023207544487603992,0.023720750033902484
196,0.023110127097351565,0.024196510968381435
197,0.023193708562152943,0.023771980940566442
198,0.023117240182578946,0.022826038453883795
199,0.023169414493903744,0.0228003176280548
200,0.023120069149717818,0.02279808422096291
201,0.02315790802433932,0.02283711500477631
202,0.023127847584150582,0.022910315120017895
203,0.02317020689009977,0.02318170186258623
204,0.02311436444309523,0.022925713566303157
205,0.023049214012849387,0.023085684501569666
206,0.02315600441439713,0.022964137661452357
207,0.023232499166554826,0.023427951872207652
208,0.023054550284985827,0.023125596601742408
209,0.023201296187127286,0.022727100553480584
210,0.023072816559569918,0.023383093187798642
211,0.023139357939064742,0.022983501560180416
212,0.023151076696574877,0.023283998484134486
213,0.023175994507509838,0.024407171043725397
214,0.023083811552880956,0.02384603088949502
215,0.02315807420995643,0.022852446242943466
216,0.02310969046786797,0.024840366384918613
217,0.023121227114219413,0.02280495455010773
218,0.023165072289873943,0.022965175741379337
219,0.023114448109512135,0.02305535599589348
220,0.023135884162440574,0.0231930147665358
221,0.023105365222693682,0.023764597650414485
222,0.023145877344490622,0.023372941768795088
223,0.023162256781127957,0.02342603060592557
224,0.023114352235399323,0.022869532505945606
225,0.023048889411570166,0.023558647031495208
226,0.023170432766719307,0.023580118647725825
227,0.023125810901538358,0.02435944715680903
228,0.023199464687310774,0.02305803939129719
229,0.023050855362801242,0.022671648935542018
230,0.023156690872091944,0.02310522438718657
231,0.023111358327384618,0.02323130357366617
232,0.02310573458850241,0.02318178109483589
233,0.023108561684807048,0.023023839675378122
234,0.023102440152147546,0.02320396014722248
235,0.02317887959967581,0.023488538242705994
236,0.02309451909805778,0.024036440773387076
237,0.02320746541228726,0.022970671955887124
238,0.023077373922937256,0.023105847535341766
239,0.023093708181868403,0.022972219656703034
240,0.023090027960584604,0.023521046275486134
241,0.023151961316039665,0.02287996609143225
242,0.023075577345111672,0.02267527112615278
243,0.02306809879208116,0.023090887526616206
244,0.02309989681665441,0.02332161141863797
245,0.023098178364955882,0.02304432253429009
246,0.02319624659781762,0.02324148512429954
247,0.02295975523109702,0.022872007199825503
248,0.02312105243651868,0.022928344998758614
249,0.023111153484808265,0.022991531020605197
250,0.023103511898959282,0.02269770258533362
251,0.023134911218457083,0.02299684786547237
252,0.023130772093372,0.023050866688836158
253,0.02303351302944618,0.022957025257533896
254,0.023148478448784038,0.024102367476899037
255,0.023019726076971093,0.02317791174135767
256,0.023141424917577983,0.022822606098715396
257,0.023109748763747686,0.02262368858383929
258,0.0230630227408523,0.02265520710512796
259,0.02310930528074241,0.022993320762381933
260,0.02304197804738792,0.0234174327329448
261,0.023241143321527612,0.023082236664541705
262,0.023095368503702345,0.024113229284064452
263,0.02302134598416986,0.023221426949951718
264,0.02312684409412668,0.023424829013098763
265,0.023163426164195214,0.022762431000854053
266,0.023044132870241558,0.022873487799842242
267,0.023071836333998817,0.022912161856972053
268,0.023105227020677094,0.023203330420269303
269,0.023057903210036187,0.022807968487844
270,0.02313272509616699,0.023087849672927853
271,0.02303744946121812,0.022971499803892816
272,0.023104268152245897,0.023160271680286858
273,0.02315507032167759,0.02276926261873441
274,0.02314149545167657,0.02345951471621819
275,0.02309511213092138,0.022806452582836527
276,0.023147424992671212,0.02288829038491518
277,0.02306105007903634,0.02329014465007005
278,0.02306829349284502,0.022633047262831475
279,0.023029265771184464,0.022704864270696984
280,0.02314729766501821,0.023683399094331894
281,0.023130318362096086,0.022779137491533017
282,0.02302793874520716,0.022689367076286483
283,0.023089388067529595,0.023257435558932733
284,0.023059334375148864,0.022925815004752485
285,0.023118901570483172,0.023818393113663464
286,0.02315708861606632,0.02372727487397975
287,0.023053052815065967,0.022834009390203806
288,0.023086405942867174,0.022920894607807486
289,0.023067337169731073,0.024002258052083576
290,0.023120263525151567,0.024816650144561785
291,0.02305764953369836,0.02287224173287096
292,0.023142644099230104,0.022991459338904462
293,0.023003856833133815,0.023275611720738113
294,0.02307755882806367,0.023332258940754486
295,0.023153477956613096,0.02317144463151905
296,0.023107660246445692,0.02308863714843071
297,0.023081012267461544,0.022775832991444322
298,0.023075865729035232,0.022784246394929684
299,0.023215626526495916,0.026961000525960795
300,0.02300754486159574,0.023620819212793832
301,0.023188977511964446,0.022875429283248316
302,0.023004768305360603,0.02317379721408767
303,0.023065278182278198,0.022800918808170163
304,0.023178227532425707,0.022753278246324365
305,0.023054548150611868,0.02282940119581375
306,0.02306462002309154,0.02287689799438477
307,0.02308871326588398,0.022799092520619343
308,0.02308624247230476,0.022740377961483732
309,0.023042357636900018,0.022824117324323098
310,0.023047405797586167,0.022879487278429467
311,0.023096161852810358,0.022689811930930698
312,0.0230540968835068,0.023451817313822218
313,0.02305132688151942,0.0233460573381035
314,0.023199310251545133,0.022763592843039825
315,0.023017040964552492,0.02468113257787128
316,0.023102099334241913,0.022991983011223804
317,0.023074331470756985,0.022726081933564526
318,0.023106276635363472,0.024129948385453827
319,0.022966872880623924,0.024419566732555652
320,0.023109295179130886,0.02277794251866762
321,0.023008277127556473,0.02299578308371126
322,0.023059410954282867,0.022903326378389897
323,0.023100612616593793,0.022936817421780012
324,0.023097450167482658,0.02295525845407781
325,0.023068806568948295,0.022735117422306547
326,0.023029445707768225,0.023404889683450125
327,0.02308209258154761,0.023111748090859183
328,0.02312390184287521,0.02285630059235192
329,0.022997293902708472,0.02282897177598518
330,0.023040171586822786,0.022706694026266672
331,0.023111529582046823,0.022895947983745713
332,0.02302712680314847,0.022949066295361274
333,0.023052545813776606,0.02313274463995903
334,0.023083126580388805,0.0228181161256926
335,0.02310762578378812,0.023794251591872775
336,0.023023947786024623,0.02302019162384327
337,0.023125355963488754,0.023431603884252396
338,0.023059076880462926,0.023465458086111834
339,0.023106930250351092,0.022705476197407485
340,0.023069958312721323,0.023113125533853446
341,0.023027236615832475,0.02344369884042309
342,0.023095451127871765,0.02280822332475067
343,0.023060335942226156,0.023113142766628854
344,0.02313316604948873,0.02280148317053879
345,0.022994175857806998,0.022700060354494258
346,0.0231764589530899,0.022859456470411127
347,0.023007687091898862,0.024195990743499245
348,0.023102036334103723,0.023206455700669877
349,0.023053058441713466,0.022950013301202228
350,0.023050829116031707,0.022692365438075356
351,0.023125633493893676,0.022944741493536435
352,0.023042173760620763,0.023615673722459655
353,0.02308817213545624,0.02416206669759214
354,0.023032772872927522,0.022847695057092922
355,0.02310187278909506,0.023072921709931547
356,0.02301280799178149,0.0230805506399041
357,0.023061310461492276,0.022694634383907446
358,0.023051156299851303,0.02297698004552014
359,0.023075476015577738,0.022665895615728616
360,0.02304619326993978,0.02292962584882716
361,0.023132121272319606,0.022856953122374478
362,0.023041711734543793,0.02343112552404733
363,0.02312378919155573,0.023036968971484273
364,0.023012359410697084,0.022795122675450655
365,0.023034224517458825,0.02291505161052439
366,0.023085840698554932,0.023200409167873266
367,0.023054875324008992,0.023239725006960373
368,0.02302998369954211,0.022721619698812194
369,0.023146457967908977,0.024195363878874488
370,0.0230946173477504,0.023026905614285838
371,0.023000962349573533,0.02372878969403685
372,0.023136074912341997,0.022726184301131245
373,0.023022744979569427,0.02286077092159848
374,0.023045339862064872,0.022973909909412817
375,0.02308810193487685,0.022723761903917405
376,0.023125995252784685,0.02282456242888813
377,0.022971942212334354,0.0230514491293006
378,0.023024449721991205,0.023061949917024857
379,0.02321233217798763,0.02344314023211375
380,0.023007943636650662,0.022888754624594075
381,0.022982933810151977,0.022871976919713318
382,0.02309494489710108,0.02399191272539846
383,0.023078819925931814,0.022717500783226673
384,0.02310413614936846,0.02500711642529142
385,0.023069247388266784,0.023318944694422885
386,0.02302811244393972,0.024112375760370102
387,0.023080061704253883,0.02394653826175756
388,0.023093635165731874,0.023029252785333708
389,0.02305145996758978,0.022820136241538374
390,0.023072297696759708,0.02299248596216716
391,0.0230521485983706,0.022750226360317188
392,0.023055634645225524,0.022792058891742458
393,0.023067583922567747,0.023101146505658986
394,0.02306172001413066,0.02418460822337099
395,0.023043339685659758,0.022707037288098704
396,0.02307164578956904,0.022896358349317157
397,0.023069482389763057,0.022946701144715795
398,0.02299702147112714,0.0233439452837397
399,0.023151780060268374,0.02273717275346558
400,0.023006885261874166,0.022841315931142928
401,0.02305970246643781,0.022742475788002422
402,0.023157218306643263,0.024648360296460524
403,0.02303451065980583,0.023092226740546177
404,0.02303015507257385,0.0230996552501947
405,0.023075801817674955,0.02297282055161464
406,0.023041467122036776,0.022940459710434843
407,0.023021750690357435,0.022761530611125992
408,0.02314974468493228,0.022689258509213377
409,0.023027093450484468,0.022720490541858943
410,0.022996360812035443,0.02269720182928309
411,0.023122057299331415,0.023328360409755923
412,0.023020984255057348,0.02307208130266973
413,0.023028499501155052,0.0230640643573974
414,0.023080410445473796,0.022873523273897058
415,0.023032025053656455,0.022637667128523692
416,0.02305375190256692,0.02301621160395708
417,0.023056588137893082,0.023769326853523974
418,0.02304372978698221,0.022855236103145174
419,0.02300151556262748,0.022707322468332822
420,0.023018434683201933,0.023824469163578707
421,0.023097439491890557,0.02302890430456696
422,0.023004533986536433,0.022749902536444242
423,0.023101111674468388,0.022680787181433206
424,0.022984717650968822,0.022665995531131078
425,0.023067035726446517,0.025023130450071363
426,0.023094565830201648,0.026318218466409003
427,0.023069861826660345,0.022735492832776403
428,0.023143085254301175,0.02367009015367223
429,0.022996206132086108,0.02274389064561314
430,0.023060471942122702,0.0231475534862835
431,0.02311369279722611,0.02268130884850552
432,0.022960713355065727,0.022824324147030416
433,0.023078909318754188,0.023418654711959676
434,0.02309226195925741,0.023834360614948227
435,0.0230952866440959,0.022806748211230927
436,0.022997127383572163,0.022808275178909865
437,0.023017486409960892,0.023026613818500675
438,0.023085732723204352,0.023172194318994352
439,0.02302008745916408,0.02269330842460152
440,0.023020058524884958,0.023592803659595273
441,0.023111578764961206,0.022802146422164403
442,0.02300915092253666,0.02274522074184365
443,0.022982170233587854,0.023138656111135667
444,0.02305541530349772,0.022967965259042517
445,0.02309323197005869,0.023433970124258616
446,0.02311397486661883,0.02371145353520961
447,0.02300581703711447,0.024022872479604565
448,0.02303400515711946,0.023195510618418055
449,0.02311549652635837,0.02456062298559164
450,0.022995430630721826,0.022637891822039565
451,0.023056104795621642,0.023485531939315626
452,0.023021327680070622,0.022956695510537584
453,0.023070976080046855,0.02291207100193427
454,0.023042238028578573,0.022908814977663373
455,0.023055734916878262,0.0227443268412361
456,0.023058069461166,0.02369719385165771
457,0.023003185874403573,0.02281681225497655
458,0.02307443911258837,0.022752778401749756
459,0.023058935027602288,0.023301475267525067
460,0.02298656490137823,0.022719990751678867
461,0.0230837334207982,0.022781428353950653
462,0.023035222462726105,0.022879540751193486
463,0.023057052934859438,0.02291339732730069
464,0.023018506642201727,0.022975516989944766
465,0.02302825454470637,0.025104426825161796
466,0.023110644238964497,0.024314310251725594
467,0.023054887964237603,0.023089438478367575
468,0.02310470567880679,0.022846859884937166
469,0.022989557785757012,0.02318800716486707
470,0.023056253229530692,0.023589442221663932
471,0.022991444866398543,0.024041902273893356
472,0.023056754278097984,0.02284022295390327
473,0.023127684193990118,0.02261245558986583
474,0.022986702928446134,0.022895334517817
475,0.023052098568257906,0.02309673110900804
476,0.02309958578543745,0.023027727900818286
477,0.022977179881902954,0.02274621923431319
478,0.023085273153853596,0.023219518251746493
479,0.02303789177541729,0.022922559243633508
480,0.02306796149533096,0.023156496161784633
481,0.02303183609493178,0.02303442997003787
482,0.023129839360040965,0.022922126767420354
483,0.023030411123002557,0.023392233413944776
484,0.023016428406671178,0.022900835227959253
485,0.02304868731308255,0.023199488791830442
486,0.023059216631705955,0.023181117743241948
487,0.02309594052485663,0.023336781268232246
488,0.023027272276330193,0.022778275898336517
489,0.023054525172777122,0.02269030655951084
490,0.023055107439968654,0.024060965166519076
491,0.022972637077244066,0.022843817331267325
492,0.023089835819282787,0.0231831424149972
493,0.023016018664194858,0.023918143045024882
494,0.02301482004608563,0.022817279902399294
495,0.023112774359063802,0.022882297483655816
496,0.022968335105456133,0.02278410633783361
497,0.023056157465598328,0.022762618584068816
498,0.023052259489036293,0.023003627949680226
499,0.022992532466538994,0.02307369471648921
500,0.023089618236719848,0.025180459759053322
501,0.0230674300942835,0.022881570102348512
502,0.023052735742535902,0.02367594314631789
503,0.02309190220967066,0.024323115129708868
504,0.023049011463961964,0.02330737520559105
505,0.02306683051461677,0.022704499586240552
506,0.02305842608922153,0.022700066934762363
507,0.02300007751644801,0.02276339207429677
508,0.022990068885312378,0.02274529456404268
509,0.02307685733594888,0.02340494368104786
510,0.023039253129304455,0.02300656615993877
511,0.023064019198683526,0.024152125609008084
512,0.02311246139820007,0.02278514647593203
513,0.022966926267517986,0.023186506580005692
514,0.023084693335199195,0.02270746210350375
515,0.02306065801158845,0.02268036140309795
516,0.023024256399971882,0.02359387543031853
517,0.023087044526412664,0.022745075404067724
518,0.023014863814524323,0.022735375531705796
519,0.023028715235217632,0.02307318860772283
520,0.022987464698944256,0.022684723031490266
521,0.02308358099731467,0.02278757267194229
522,0.022990055039054533,0.022995507834154317
523,0.023087865219627926,0.02341085096678587
524,0.02307044013182251,0.023447033060507314
525,0.023051124523214395,0.027047050406755004
526,0.02302707928336329,0.022727691417746686
527,0.023073414523753045,0.022738186333801865
528,0.023009879493730054,0.024624644400112347
529,0.02303288828471391,0.023050589753048762
530,0.023122833825820546,0.02283842325351703
531,0.023071625445642584,0.023228039156466183
532,0.022979688570111824,0.023043847781765527
533,0.023041789961173283,0.023246358940414585
534,0.02322571254822967,0.02321952413958692
535,0.023000080064743113,0.022851331793095245
536,0.022998845862815802,0.022890129230252004
537,0.02303000897404363,0.023287302071277136
538,0.023019880406278597,0.023639090822299542
539,0.023073261608924273,0.022865595787046177
540,0.023016243392108775,0.02321125895972786
541,0.02309193271699903,0.022909852823840886
542,0.022995297639942666,0.02302705075359523
543,0.023051420565423586,0.023065840482899967
544,0.022998986392766596,0.022853846905051767
545,0.023041643544757587,0.022905508085685446
546,0.023081416056471335,0.023051524252558
547,0.0230308588836893,0.02637547397311268
548,0.023083975166380166,0.022897451845510043
549,0.022979401871651338,0.022696799886043183
550,0.023031408047611765,0.02276862419600692
551,0.02302660726659971,0.023440682557841503
552,0.023065876431590457,0.023111287026644788
553,0.023046332478469652,0.022933358905782544
554,0.02298694884748482,0.02276711751160748
555,0.02306542556575067,0.022842056481807177
556,0.02300534895930192,0.022955200772353204
557,0.0231155113076611,0.02608874849181243
558,0.02304273726661309,0.023550691072782758
559,0.02303836936224922,0.022957424930904732
560,0.023032709011446228,0.023067856314808906
561,0.023080943706188555,0.022895195955835466
562,0.023019596109454105,0.023758838503035676
563,0.02304080795782576,0.022954536301996075
564,0.023087576638421804,0.02428653656895366
565,0.023047081261075183,0.02271845255961499
566,0.023075421653437813,0.022734920664057547
567,0.022977135474715443,0.02337741318887251
568,0.02302409897593381,0.022848389334182807
569,0.023012280583286363,0.0226873371517837
570,0.02318607779632179,0.02310011194520516
571,0.022954277723259347,0.02281173369343721
572,0.0231251412411507,0.023146596176354266
573,0.022988445330991876,0.022897288832451852
