epoch,loss,val_loss
0,0.14867819804068896,0.06417106250595582
1,0.05310857861345295,0.05093980970621012
2,0.04856723265571772,0.04820658649043735
3,0.048543547707392845,0.04820985706569891
4,0.04854653643711125,0.04777656185281345
5,0.04855684213805571,0.048200514638873496
6,0.048429401148501354,0.04844300963123543
7,0.048461735795876135,0.04778156626821531
8,0.048474393212337125,0.04866480633362656
9,0.04839588676969274,0.04790261162434375
10,0.048396838399424276,0.04769220495323098
11,0.04833689462348783,0.04835889006557739
12,0.04841839471120563,0.04899414063454738
13,0.04838154133292939,0.04815693320789573
14,0.04832187469592326,0.04793793000794482
15,0.04829636295799545,0.050705649753290755
16,0.04831533586297682,0.04828315057216963
17,0.04823103291634992,0.047782045035998415
18,0.048284434881195534,0.04780703544350823
19,0.04824592112850627,0.04796505558084688
20,0.04825174637001643,0.04760705729809024
21,0.04826649549373204,0.04772659213208901
22,0.04817404209660758,0.047803450937761297
23,0.048191990276829924,0.04829833138392693
24,0.048170257094290084,0.04804909088182817
25,0.04818675864944227,0.0482047702618614
26,0.04818418219959955,0.04850604786671281
27,0.048220630237061655,0.04792869169588313
28,0.048177513576525034,0.0478671082753963
29,0.04815072520935029,0.0478533460076563
30,0.04816648236560144,0.04890175075221139
31,0.04811968573266931,0.04801668633993138
32,0.048187249199188265,0.04799704625598319
33,0.04814958241167929,0.04823291682716027
34,0.04808226460404545,0.047652288981307744
35,0.048145923298225105,0.047918318732304004
36,0.04810940435497736,0.04806678632194205
37,0.048120853475468746,0.048013510869850694
38,0.0480894961471172,0.04771864223871788
39,0.04807934216749343,0.04764300572103537
40,0.04806721887981491,0.04781513718551286
41,0.048120352737098526,0.04789048076485679
42,0.0480379684238409,0.048705462807455586
43,0.04801937746103283,0.048170697892693515
44,0.04814464429183136,0.04773802193907442
45,0.04801426771386945,0.047615808440071725
46,0.04808415296980388,0.04826480518219825
47,0.0480883422063841,0.048034277115400884
48,0.04801423760731999,0.047692514288285255
49,0.04805374762909807,0.047725842460470284
50,0.04806536426536554,0.047462860824780455
51,0.04804399896344488,0.04778999302593654
52,0.0479794754203054,0.04778691375475537
53,0.04803819264366543,0.04765245679762918
54,0.04804775770977318,0.047439963211640054
55,0.04800356242856424,0.04749861207925877
56,0.04798589757769656,0.047455971901941764
57,0.048026511292036674,0.04908510894247989
58,0.04800019433962001,0.04841970828484928
59,0.04796391019852663,0.04765806912118985
60,0.047985834204513515,0.04753269075996878
61,0.047994765119733,0.04802958552468045
62,0.04799349263632555,0.04783421531863456
63,0.04803072564226327,0.04788939618269119
64,0.047996235286609665,0.04806678817099125
65,0.04795680275325588,0.04789795463380539
66,0.04795905894147243,0.04750815126365119
67,0.04794676587570181,0.04783818402477908
68,0.048005111852557875,0.04999874038840829
69,0.04800449629083837,0.047566131938668835
70,0.04792554924239198,0.047954384455063045
71,0.0479787280179077,0.047847490645914856
72,0.047936967632966676,0.04756791033726926
73,0.04799209651294902,0.04743378852635308
74,0.047937744007027557,0.04748366729923602
75,0.04794210403728141,0.04760500073843822
76,0.04787985280490189,0.04757870261807415
77,0.048019841718998216,0.04778669665160454
78,0.04790032020001243,0.04752739019456281
79,0.04794501107755759,0.048174676819971105
80,0.04795755831162342,0.04763241362397688
81,0.04794860890118765,0.047623600801702255
82,0.04792046112965068,0.04787710828091783
83,0.04796806089669538,0.04761034403440436
84,0.04789700790243544,0.047451125652758164
85,0.04786279817835821,0.04772990793352289
86,0.0479929046921605,0.0478273532946276
87,0.047894418418550605,0.04751174108390391
88,0.04788760018584917,0.04787875387730003
89,0.04793992149289414,0.04754768164838994
90,0.04794275860419218,0.04766403560716257
91,0.04792490814498561,0.04737428733769318
92,0.047899178238965875,0.047485624197553256
93,0.04785885836771004,0.04777846747929259
94,0.04797623892149942,0.04753708381384055
95,0.04787428498124962,0.04740928102281648
96,0.04789466710628463,0.04761289547152956
97,0.047956060099186563,0.047916021288673956
98,0.04790970648201205,0.04768202526967698
99,0.04792244260380562,0.04743920311948099
100,0.04786013491195235,0.04763595484021903
101,0.04790475616325513,0.047742188152073844
102,0.04793390606770857,0.047420346491576594
103,0.04794842054734858,0.04794701513594858
104,0.04788132547866926,0.04738897673139124
105,0.04790830505106619,0.047486224144527994
106,0.047902965973361765,0.04736620571769454
107,0.04785681608691513,0.047471558951620925
108,0.04786624129954054,0.04753632075474307
109,0.04786824656902455,0.04746937743914582
110,0.0479506650019446,0.04746843320344003
111,0.04784363684795492,0.04782620929816053
112,0.047942702878442545,0.04741669423267886
113,0.047842051552010594,0.04749181834015533
114,0.0478921201828721,0.0476209076524796
115,0.047855165142049974,0.04976671653144841
116,0.0479232842479948,0.04812316701650039
117,0.0478719297208912,0.047758991181221996
118,0.04794903918862152,0.04743750310908559
119,0.047803545149984215,0.04760875320553006
120,0.047881958697489305,0.047633561554205485
121,0.04786713029428708,0.047653920162961626
122,0.04789872598305667,0.04749246183646857
123,0.04788883596068148,0.047696411370965204
124,0.04781478100431691,0.04775869248122194
125,0.047867689509872344,0.04756338952376605
126,0.04785711409373461,0.04789931505966844
127,0.047846928707139795,0.04759533602415017
128,0.04787067723146575,0.04763607889873075
129,0.04784424831901339,0.04769908689379402
130,0.0478621366902816,0.047486882554087714
131,0.047901337483138726,0.047471860582303536
132,0.04782251219113795,0.04739736962311169
133,0.047841993693688856,0.04799083257449031
134,0.04785206367681511,0.04755046848881467
135,0.04789938696259685,0.04753304897095262
136,0.04786612538306163,0.0477647995614029
137,0.04779861704427734,0.04739470945162108
138,0.04782025103387926,0.04775857745948499
139,0.047865811107550456,0.047610855396211585
140,0.047873422755502625,0.047515387393818186
141,0.04783042280482139,0.04842669841593973
142,0.047852432901103845,0.04743829651434346
143,0.04784646528878147,0.04763317263450259
144,0.04780795979048845,0.04792197068302687
145,0.04789446207662646,0.04741711676761278
146,0.04784019952349132,0.0476260133546876
147,0.047820664283105906,0.04782146025699807
148,0.047845147943811665,0.047466323392983865
149,0.04783380687463465,0.04769707487447419
150,0.04785675483586504,0.04758180453104404
151,0.04783444097481841,0.047625860294503886
152,0.04777991723081319,0.048075242171974945
153,0.0478173318752248,0.04743480756697573
154,0.047857772306896286,0.04755334365155188
155,0.047841640930470705,0.04733214863641709
156,0.047814764582020365,0.04760167099964493
157,0.04782395889226487,0.04741194033625159
158,0.047783645539521406,0.04756076572295233
159,0.04785215754727061,0.047481403220067255
160,0.04780252484844817,0.04750752840599004
161,0.047873770106759805,0.0474669411506531
162,0.04778153144175096,0.0473987141356706
163,0.04779961004292516,0.04748207081444652
164,0.04785708995689575,0.04739584162263298
165,0.04777028852756067,0.047843851312233586
166,0.04779206185166935,0.04735037544251262
167,0.047863418892550885,0.04739033132308108
168,0.04782405135790714,0.04799996436681577
169,0.047785882148339905,0.04778373067094269
170,0.04781837144149266,0.04777510714356917
171,0.04781674151961282,0.04761860773136532
172,0.04778715798719298,0.04784802928421909
173,0.047835142201810385,0.04749552273498931
174,0.04778961746918382,0.0475595865039108
175,0.04780995356943533,0.047806207229597046
176,0.04781972546073749,0.04739646169463503
177,0.04780334991226204,0.04782002056372523
178,0.04778677736930221,0.04748020075497256
179,0.04784435938575489,0.04748306004368282
180,0.04778433554142928,0.047465469389066206
181,0.04781164485570476,0.04794910607824747
182,0.047763839389404074,0.04785723084491728
183,0.047831173398620704,0.04744012094580924
184,0.047753339524480035,0.047645934829480846
185,0.04781693128124774,0.04752292048974629
186,0.047783977191766996,0.04905518667360002
187,0.047803941814361615,0.04740819260357167
188,0.04780308587746538,0.047410825287072716
189,0.0477802479763428,0.04763363348584492
190,0.04783387518703365,0.048088330606305296
191,0.04780104504771429,0.04749991057405893
192,0.04775589674090843,0.04772015447997989
193,0.04778211797961147,0.04744648939755421
194,0.04783877479978759,0.04759982115281663
195,0.04775174284686414,0.04741636826826708
196,0.04780503541672583,0.0473394912712137
197,0.04778681320247887,0.04739951210010371
198,0.04782688750731077,0.0474551358990619
199,0.04781836264575119,0.047339334386036054
200,0.04779186475726726,0.047457743747294286
201,0.04778502009707608,0.04762346999959934
202,0.04777967001351001,0.04735708157837826
203,0.04779846138440914,0.04751000834654621
204,0.04781851442225033,0.04762236691485646
205,0.04774953028242334,0.04741367310080118
206,0.047830351125046286,0.0476383447302664
207,0.04778250002021118,0.04752678176069395
208,0.047822330346863395,0.0473791818041581
209,0.047735029555636466,0.04746207128077238
210,0.04781352175926093,0.047586071532331436
211,0.047814297978225666,0.0474897332803708
212,0.047797295944191055,0.0474461551335703
213,0.047769976263825564,0.047708485212059205
214,0.04777255898462333,0.04744173764928704
215,0.0477907353560265,0.04737414088211984
216,0.04778034495170399,0.047394690248097046
217,0.0477577082431011,0.047373317653390326
218,0.047824502471473525,0.047934803697797984
219,0.04773931744380938,0.048566534870514905
220,0.04778861221197465,0.04733253614214118
221,0.047807455395428154,0.0473738220480285
222,0.04779808159270365,0.04734772768563501
223,0.04775092847871962,0.04743370962452328
224,0.04780697502684984,0.04752519419484765
225,0.047779249799869555,0.04773616827631615
226,0.047774816379308985,0.04798050754720954
227,0.04781140885006389,0.04757798381832588
228,0.047796633398776246,0.04746249458312215
229,0.047766410014193184,0.0475227372072764
230,0.04778619553950474,0.04757635615651238
231,0.047758782255628095,0.04751949346135616
232,0.047779196625749906,0.04752778450128323
233,0.047798672365882186,0.04745012732632065
234,0.04777468928695918,0.04736466355627857
235,0.04777697229189716,0.04832344203099717
236,0.04775746349987982,0.04745685090125815
237,0.047774268460390665,0.04753912462938248
238,0.047784463303376906,0.048793786700092864
239,0.0477982875961867,0.04747786247817269
240,0.047773200893301886,0.047674075847632114
241,0.0477709041250716,0.04989257079019647
242,0.04776787829605506,0.04767582945024107
243,0.04778375193100867,0.0475387474324098
244,0.047820206390048046,0.04729980063856567
245,0.047757088847225716,0.04752310068140355
246,0.0477877174891096,0.04761969393295963
247,0.047817523307125985,0.047799151414961515
248,0.047743168244178624,0.04738382296296802
249,0.04778468749784917,0.04740713973622542
250,0.04774321894123375,0.04754095748127329
251,0.04781290901313313,0.04791965273066159
252,0.04774305733253328,0.04738983563589354
253,0.04777578703665419,0.047763813175230804
254,0.047785155646640175,0.04749465060615965
255,0.0477982164368785,0.04743230841987421
256,0.0477665300630898,0.04746617153830772
257,0.047756404977581136,0.04738266771207567
258,0.047747375459982165,0.04767148230233912
259,0.047795264620044596,0.04774728497159452
260,0.04780329306803053,0.04765214979201434
261,0.04777768296036747,0.047489766448446144
262,0.04782444676660222,0.04823353088370978
263,0.0477297149547894,0.047428180021743704
264,0.04773533062858759,0.04761788970507554
265,0.047783715203046515,0.04743958097510191
266,0.04776615439187154,0.047423955442841614
267,0.047820923269821035,0.04754981948765235
268,0.04775520056796322,0.04744753890519014
269,0.0477658119291258,0.047371479103285805
270,0.047757733282182004,0.04757995636104957
271,0.047801570204780805,0.0473200471018836
272,0.04775342024307999,0.04750076759929881
273,0.04778706942728942,0.047404765273049314
274,0.047782535865318304,0.047863336347968036
275,0.047833319601294895,0.04761510546298793
276,0.04773006975364456,0.04758925668574984
277,0.047762111701769194,0.04761573222419738
278,0.047809577868390886,0.048262865901210886
279,0.04778012780068491,0.04753847935048913
280,0.0477581404394107,0.04800084421814503
281,0.04777431701443451,0.048688492545101186
282,0.04776868780551432,0.047526156111331076
283,0.047808131915901164,0.04758060161879366
284,0.04774865856896743,0.04752211045513091
285,0.04777714243535999,0.04739637893759808
286,0.04778896304693005,0.04779354506455489
287,0.04774256720482778,0.047456503838953314
288,0.047773090232196475,0.04781538549892224
289,0.04779461184568745,0.0473713485882085
290,0.04776945243402421,0.04851683953418929
291,0.04778009734069518,0.04771917481322842
292,0.04776061970809157,0.04741346826723989
293,0.04777791960577997,0.04782124168548464
294,0.047744414704241116,0.047367439353770587
295,0.04777419908916215,0.04745992903037953
296,0.04775283009923392,0.04732619165552407
297,0.04781570979017463,0.047362079845389406
298,0.047741847460249884,0.04741706223576802
299,0.04774826152728881,0.0474805769005251
300,0.04777724012804089,0.04798055325679342
301,0.04779343199494889,0.04740891652143978
302,0.04771715298808031,0.047421405332076866
303,0.04774452557711242,0.04744621411280137
304,0.04776611474839996,0.04756368405132012
305,0.047812442433199376,0.047626970905360416
306,0.04772094805971731,0.04735519247551034
307,0.04781295629210764,0.04730746968795107
308,0.047737596470048375,0.04742873890290682
309,0.047797220510790786,0.04738803125392201
310,0.047752704037378746,0.04741713620982128
311,0.04776944611832989,0.047489306675715846
312,0.04777243230536616,0.047453870022456435
313,0.04775747709912811,0.04757570332129216
314,0.04776195690387769,0.04741956137078425
315,0.047763525351011055,0.047483761473849646
316,0.04774742293879211,0.047480385010308206
317,0.047766438630924786,0.04760643332858252
318,0.047764789961797414,0.04736140009320952
319,0.04777661585707584,0.04787229968345175
320,0.04781217552763257,0.04737660620854042
321,0.047723428090457154,0.04748898356645357
322,0.0477969338095861,0.04755935366873517
323,0.047713077697959586,0.047409235349488474
324,0.047799099976416105,0.047492707799289255
325,0.047763250899419865,0.04744203062690281
326,0.0477236899598729,0.04761590961206762
327,0.04781511700969395,0.0475441283589442
328,0.04777262670348128,0.047489022759045416
329,0.04777051693050741,0.04750554254829932
330,0.04774682242736471,0.04759075265719169
331,0.04779365822804079,0.04963924749984745
332,0.04774582049130105,0.04759297270663173
333,0.047777681964172945,0.04766386087503456
334,0.047776601284002664,0.04744175352331399
335,0.04775934840430967,0.047339358964492324
336,0.047730275791427725,0.04742167312092928
337,0.04778836927622008,0.04785906611386587
338,0.04774402463145023,0.047571493265885986
339,0.04781441459114595,0.04762382097149514
340,0.04772839078111492,0.04741493675975614
341,0.04777807914752594,0.04770570368916159
342,0.04774773858481641,0.047600385200440735
343,0.04780398314897779,0.047421498174287396
344,0.047787136139513686,0.04748119733810715
345,0.047786972296832084,0.04727844958588638
346,0.047728481509382005,0.047384602859894244
347,0.04778309994108015,0.04736634887700533
348,0.047796341646507416,0.047559810226778625
349,0.04774745611743845,0.04735487819757291
350,0.0477220519729931,0.04829043702547954
351,0.04776339592774502,0.04744701191408308
352,0.04775645944466583,0.04763731338984098
353,0.04775629673985313,0.04742858313259707
354,0.04775995115717475,0.04731876245078186
355,0.047749375627697516,0.04743185077113343
356,0.047772435639933455,0.04733074959503473
357,0.047715206732682654,0.04744415563763107
358,0.04776772368755982,0.04749381637075328
359,0.04778755353159719,0.04740771226167969
360,0.047768304078243944,0.04807437743632076
361,0.04772938302665161,0.047416954504481586
362,0.04779742832770579,0.04746889096699105
363,0.047747306257271596,0.04737861870825049
364,0.047773558239313105,0.047551588912925775
365,0.04772690262159316,0.04738628549768687
366,0.04776243524874946,0.04768830404555711
367,0.047758392509433915,0.047889097954017405
368,0.04772258736640573,0.04735992771527289
369,0.04777330945166137,0.04741997263014365
370,0.047799383305770764,0.047384397428111145
371,0.047718666483453506,0.04754513630225034
372,0.047746341240057666,0.04744840148966291
373,0.04779058713331711,0.04754509378620404
374,0.047821266803326754,0.04748574819865985
375,0.04772598944974241,0.04741250359833192
376,0.047755967252988446,0.047503332656544585
377,0.04772030192466857,0.04740017816569393
378,0.04778489141200808,0.04747318302712494
379,0.04779336758977991,0.047455599699214715
380,0.04776755298634736,0.04748436630932374
381,0.04771986342757773,0.047739605492604816
382,0.04778868478504394,0.04765794449466955
383,0.04775115002462681,0.04776132033665008
384,0.047715963640684984,0.047410570695355765
385,0.047764377631217214,0.0474185340910159
386,0.04777635488542821,0.04829606860392672
387,0.04777049954631645,0.04839465710042167
388,0.047753940015029105,0.047435435288965655
389,0.04773854439984187,0.04752683022874502
390,0.04780652545380583,0.0474460371418736
391,0.047766629429019575,0.04761265600153033
392,0.04774343815771602,0.047412914256448196
393,0.047736126474672264,0.04735228918728457
394,0.04776676528579336,0.04750868746676971
395,0.04777484196868298,0.04770095109190287
396,0.047780439843706266,0.047368570509618214
397,0.04774206353752636,0.047666459801302435
398,0.047772136814385247,0.04731180938829374
399,0.04774723052859211,0.04770591149268263
400,0.04776257211066562,0.04731006168028444
401,0.047727260877302974,0.04730317284506409
402,0.04776665797416833,0.04737333087469636
403,0.04776097297537222,0.04887367416375648
404,0.04773839245929873,0.04737009873971742
405,0.04775366779145381,0.047877022526729235
406,0.047771761696442684,0.04740456238824085
407,0.047750356440858135,0.04825345016200177
408,0.04774972520697059,0.047296879781351185
409,0.04777933040662132,0.047325106940420296
410,0.04774162809612801,0.04790346440764723
411,0.04782495883295687,0.04757550995062738
412,0.047768093636624806,0.0481593174692198
413,0.0477920574016028,0.04837082172324768
414,0.04779080000129626,0.04733863149959192
415,0.04773781509895483,0.047388695854170965
416,0.04781659573817654,0.0474407292981024
417,0.04772094974937059,0.04741234301203456
418,0.04779410631275826,0.04756295965004045
419,0.04773909842417992,0.047438374171388506
420,0.047810270809669125,0.047371379085435004
421,0.04770116773161819,0.04746942011230087
422,0.0477688993939502,0.04741847879477661
423,0.04789702173134534,0.04729916830905936
424,0.04768644461931707,0.047362194604271324
425,0.047744370361654354,0.04751977659550413
426,0.04774572295520762,0.04744299203278278
427,0.04778223738575382,0.04808241763097043
428,0.04772516350307352,0.04746086521728292
429,0.04777020690820998,0.047849432769966435
430,0.04775503071232306,0.047338726813244025
431,0.04772357810721147,0.04895826968736795
432,0.04779845316580432,0.04735457245789208
433,0.047724025681901205,0.04728626479475554
434,0.0477520552328866,0.04751350406167571
435,0.047781452269638605,0.047379661142971104
436,0.04772908230415815,0.0485796079051659
437,0.04775424176503459,0.04743902598238049
438,0.04775941034583591,0.047304665021725235
439,0.04771762330523484,0.04737995261898973
440,0.047756591356926864,0.04754271718997445
441,0.04776458704532434,0.04764379692677067
442,0.04774677612370639,0.047844696240099294
443,0.04776883873345854,0.047324716902828176
444,0.04774500746831739,0.047434538243291635
445,0.0477663075239707,0.047378411067880856
446,0.04778519595225302,0.047376214291685884
447,0.047729064761888415,0.04804990023966737
448,0.047761737299655035,0.04774299466684884
449,0.04772414260501381,0.04746346607115437
450,0.04781085344179093,0.04791173332243167
451,0.047742860959924825,0.04739724537123535
452,0.04779784294893686,0.04740341729805514
453,0.04770996051581742,0.047372655433943284
454,0.04775501884597602,0.04747929763039823
455,0.04775085316015015,0.04732040135191402
456,0.04773109186861255,0.04735239092426772
457,0.047781525149917584,0.047568220539443005
458,0.04777070255375939,0.04762996785759636
459,0.047770368962811886,0.047369819261369336
460,0.04775834088925842,0.04753874180670782
461,0.04777592506477411,0.04740378221637431
462,0.04778802330591518,0.04754527797204928
463,0.04774568627347604,0.04742822548357917
464,0.047775660002465435,0.04738415838713967
465,0.04775295394202105,0.04740885963296368
466,0.04771643331806787,0.047387905675685224
467,0.04775748912206261,0.0480812453186715
468,0.04776233690287515,0.04759774624769608
469,0.047734091173204256,0.04754221375309541
470,0.04773672788535909,0.04800997731870302
471,0.04774158852871319,0.04752319000377369
472,0.04775577741678807,0.047645342734922554
473,0.04776523867882997,0.047554659654914316
474,0.04775469281894861,0.047996145228206485
475,0.04775757128872377,0.04755656202440811
476,0.047758313033094496,0.04780526074300621
477,0.04776301791666268,0.049464111632553424
478,0.04774959159610842,0.04735158089267366
479,0.047800672432188517,0.047417459609130484
480,0.0476907006068956,0.047377802552436295
481,0.047784531128117806,0.04777531343945041
482,0.04774559102355957,0.047764408520731806
483,0.04777100742060104,0.04763762064018292
484,0.04770734201702144,0.04747332961261514
485,0.047744195786020675,0.04750053338640024
486,0.04775438098620185,0.04738710854513705
487,0.047748729808806324,0.04737460660081227
488,0.047765425533903325,0.04735818011300987
489,0.04774828759239043,0.04739989867526056
490,0.047735941058712254,0.04733752085852217
491,0.047768403822966245,0.04760245566421762
492,0.04770866413119795,0.047440665934932784
493,0.047759150776018895,0.04738452831481108
494,0.04771759302569352,0.04744682949873266
495,0.047768854296761004,0.047355076716570764
496,0.04774684792875146,0.04769042521920614
497,0.047751518792574936,0.04735922319127212
498,0.0477607589083805,0.047548533905983355
499,0.04773029818492617,0.047638993755599296
500,0.04777379548870582,0.04745783073720367
