epoch,loss,val_loss
0,0.7794063878205163,0.7779717400115418
1,0.7783466681978645,0.7779502731103164
2,0.7779093014261702,0.7780185513401742
3,0.777926815506502,0.7778717140110196
4,0.7778799948743943,0.7778440102454155
5,0.7778831548853042,0.7778837806533643
6,0.7778811417595478,0.7779276109510852
7,0.7778805543491908,0.7778975476993817
8,0.77787889623476,0.7782287143300248
9,0.7778626254051965,0.7779177713926614
10,0.7778678397983646,0.7778545086496226
11,0.7778638303599352,0.7779027874653156
12,0.7778593982011148,0.7779097318649292
13,0.7778519854448284,0.7778234512871016
14,0.7778556751049419,0.7778772891898901
15,0.7778496919230021,0.77785025441617
16,0.7778495421466213,0.7778495757810531
17,0.7778458809687262,0.7780597998841525
18,0.7778447069597163,0.7778399261292394
19,0.7778432540786526,0.7778636460268764
20,0.7778433163668909,0.7778401401735121
21,0.7778430213120273,0.7778553469305298
22,0.7778399031800045,0.7778823877090851
23,0.7778383184857549,0.7778310774869421
24,0.777836875925719,0.7778668585841176
25,0.7778364386325166,0.7778710554610411
26,0.7778379324151092,0.7778245246144145
27,0.7778331239568577,0.777945219997141
28,0.7778367039785339,0.7778290127110541
29,0.7778355863431285,0.7778245258863747
30,0.7778351499539232,0.7778281310947598
31,0.7778333850132274,0.777923960809968
32,0.7778348296573473,0.7778188146965084
33,0.7778301915567922,0.7778538086574072
34,0.7778282993189517,0.777818087194457
35,0.7778270323063126,0.7778093549513048
36,0.7778264560681288,0.7778123174944231
37,0.7778259238702213,0.7778313672572152
38,0.7778253226585268,0.7778381022271093
39,0.7778229403848552,0.7778512324056318
40,0.7778221613428951,0.7778500770220982
41,0.7778225302659942,0.7778055648945698
42,0.7778196977008097,0.7778387529974244
43,0.7778203529409228,0.7778167795898305
44,0.7778190111986478,0.777806241725278
45,0.777818988947383,0.7778139077108492
46,0.7778185175515615,0.7778339530339016
47,0.7778179711823561,0.777863175490358
48,0.7778166832452612,0.7778400432974766
49,0.777814838628188,0.777804269950384
50,0.7778153166115135,0.7778922727326897
51,0.7778143218779024,0.7778478634268711
52,0.7778136840069967,0.7778506927987187
53,0.7778137851410777,0.7777993278527082
54,0.7778127525255718,0.7778022269161404
55,0.7778121645732898,0.7778055503113985
56,0.7778139521517762,0.7778104667036468
57,0.7778118566415954,0.7778292056052916
58,0.7778105589506402,0.7778165235708724
59,0.777812949656096,0.7778120854652253
60,0.7778118683596377,0.7778186562339366
61,0.7778124957217747,0.7778171141745139
62,0.7778120523056881,0.7778007940382283
63,0.7778129322616462,0.7778208955641716
64,0.7778116899953355,0.7778046097412299
65,0.7778096686058152,0.7778267688254269
66,0.7778094486592252,0.7779051696396347
67,0.7778117864587649,0.7778788967996318
68,0.7778106622319115,0.7778001118534552
69,0.7778101891085564,0.7778032049943436
70,0.7778100161619259,0.7778081160325271
71,0.7778092196221794,0.7778489976603695
72,0.7778094285819708,0.7778029824604763
73,0.7778098057144046,0.7778060736194734
