epoch,loss,val_loss
0,0.669089328909663,0.667054423800769
1,0.6670016173853459,0.6668900915470076
2,0.6669834943572818,0.6667859528555764
3,0.66687594246734,0.6667864348988971
4,0.6668396831612651,0.6669025336246632
5,0.6668361373360786,0.6670393391223463
6,0.6668162384294274,0.6668228838047378
7,0.6668072960335752,0.6667625045362241
8,0.6668046487751697,0.6668254262756177
9,0.6668009509222868,0.6667454705640636
10,0.6667990445068377,0.6669696339306701
11,0.6667857961733483,0.6667436920679533
12,0.6667790298435977,0.6667466256813731
13,0.6667792738644345,0.6667458168921933
14,0.6667715225123363,0.666727779757592
15,0.6667646331979646,0.666730846187317
16,0.6667623317168623,0.6668948110220746
17,0.6667604683193682,0.666745909301578
18,0.6667651654455683,0.66675570079174
19,0.6667572221841995,0.6667613979013032
20,0.6667605425922727,0.6667478307600945
21,0.6667518774789856,0.6667403434997161
22,0.6667505886165952,0.6667195526009458
23,0.6667560724150903,0.6667651348610966
24,0.6667488814820159,0.6667821509666537
25,0.6667509868683253,0.6667431331745745
26,0.6667441391023219,0.6667344638194991
27,0.666743006807334,0.6667651684940896
28,0.6667447249436996,0.6667207146992459
29,0.6667373185098708,0.6667143120363391
30,0.6667331374815955,0.6667166283053737
31,0.6667346768829095,0.6668731426778561
32,0.6667273142850506,0.6667055910929262
33,0.6667287735658771,0.6667631833784042
34,0.6667278511023358,0.6667124798516778
35,0.6667290499065813,0.6667244132931711
36,0.6667243887761879,0.6667057572168393
37,0.6667268249820409,0.6667507964387425
38,0.6667222163016209,0.6669447418773736
39,0.6667277360959226,0.6667031548455099
40,0.6667227506411968,0.6667079427106208
41,0.6667255060345333,0.6666992541874017
42,0.6667229756749397,0.6667062237599943
43,0.6667216803985876,0.6667650687487486
44,0.6667230499809749,0.6667380505992521
45,0.666721763627847,0.666704931241407
46,0.6667219471771167,0.6667003093523068
47,0.6667210359322896,0.6667043318523662
48,0.6667186941657329,0.666805878259408
49,0.6667179428771141,0.6667140394523186
50,0.6667192477432501,0.6667031946312405
51,0.6667198126909364,0.6667389265360962
52,0.666717496612569,0.6667068373772406
53,0.6667211206910868,0.6666989249567832
54,0.6667159928654989,0.666767620833281
55,0.6667196905188083,0.666710083064607
56,0.666715011650036,0.6667013408824173
57,0.6667154901571435,0.6667810425864852
58,0.6667184372365123,0.6667728216121569
59,0.6667149665819166,0.6667401512266684
60,0.6667143918519723,0.666756075043832
61,0.6667177611318943,0.6667277442314489
62,0.6667126502243039,0.666702391107384
63,0.666714178563092,0.6667169664397133
64,0.6667126345589655,0.6667089371468234
65,0.6667134962496075,0.6667081311086271
66,0.6667158572548942,0.6666996253335447
67,0.6667121183995123,0.6667078839933902
68,0.666714412942082,0.6667014326114512
69,0.6667119685221614,0.6667049797829564
70,0.6667127933508634,0.6667772510507266
71,0.6667127733359265,0.6667054798999437
72,0.6667121745419902,0.6667044902853575
73,0.6667115754427775,0.6667007784985431
