epoch,loss,val_loss
0,0.6155561393855057,0.5559372869969598
1,0.5559619517879545,0.5558492763462493
2,0.555848356965495,0.5557716881371018
3,0.5558510754353628,0.5557108497501307
4,0.5557782038936049,0.5559871457942366
5,0.5557558045034378,0.5558432955304091
6,0.555738721355987,0.5557124896617445
7,0.5557295815582537,0.5557419932509771
8,0.5557275479466298,0.5556554162472709
9,0.5557091161175827,0.5556481111434198
10,0.5556976856969666,0.5556528848394863
11,0.5557043685308338,0.555658083902695
12,0.5556887072595558,0.5557486685274848
13,0.5556760240307295,0.5557215100482439
14,0.555672101298714,0.5556400853114447
15,0.5556675121181262,0.5556821280318514
16,0.555663888734566,0.5557583789375816
17,0.5556591210918611,0.5556293510621594
18,0.5556584747260649,0.5556377836255815
19,0.555651947501174,0.5556268411297952
20,0.555651027055455,0.5556395938911154
21,0.5556508750151373,0.555641694784756
22,0.5556456765042356,0.5556201670956671
23,0.555645829564508,0.5556391831958856
24,0.555650943819885,0.5560156382343018
25,0.5556463015511618,0.555637698049285
26,0.5556417377384989,0.5556859028250645
27,0.5556408734573451,0.5556072911612745
28,0.5556370963303873,0.5556559015740236
29,0.5556384243131326,0.5557443757802618
30,0.5556314988791082,0.5556233408433332
31,0.5556393060889173,0.5556695487008201
32,0.555632004317598,0.5556172775275654
33,0.5556334250460256,0.5556199760649991
34,0.5556273876005966,0.5556055610292306
35,0.5556296131317457,0.5556245410116967
36,0.5556267327651524,0.5556038810065012
37,0.5556273798298503,0.5556104534317187
38,0.555629170533674,0.5556056490902865
39,0.5556242791569612,0.5556218925244163
40,0.5556285593180607,0.5556214596438349
41,0.5556263648738405,0.5557638493128509
42,0.5556289310273008,0.5556512768747789
43,0.5556245255718915,0.555733248584028
44,0.5556267404073196,0.5556106100011404
45,0.5556270028772694,0.5556292348700776
46,0.555622953120255,0.5556062855732352
47,0.5556259341326448,0.5556353274409291
48,0.5556240642951575,0.555618481363907
49,0.5556262472942699,0.5556129332215851
50,0.5556243697309997,0.5556106840114735
51,0.5556227409388894,0.5556225471401924
52,0.5556237539662143,0.5556244967001543
53,0.555620880934934,0.5556160499085268
54,0.5556227210059905,0.5556004407388105
55,0.5556212533060011,0.5556171829883869
56,0.5556224276045109,0.5556177789165128
57,0.5556214889715698,0.5557505919974731
58,0.5556216937442614,0.5556026842103111
59,0.5556188745796897,0.5556203218902607
60,0.5556202243814221,0.5555991994831757
61,0.5556219638311358,0.5556005024436685
62,0.5556159416235004,0.5556559131991479
63,0.5556208151813737,0.5556094651778342
64,0.5556183713286205,0.5555993357308153
65,0.5556190839275845,0.5556010890835272
66,0.5556188858638766,0.5556038232950063
67,0.5556173161463185,0.555614170572598
68,0.5556189337378578,0.5556276734650283
69,0.5556167946070572,0.5556410375954791
70,0.5556177859960368,0.5556068746978533
71,0.555619623355891,0.5556106969972994
72,0.555613984943132,0.5556081086175317
73,0.555615513033439,0.5556105875495646
74,0.5556175370671114,0.5556059664887175
75,0.5556140877424293,0.5556007071700936
76,0.555618129835978,0.5556065114496955
77,0.555614985226938,0.5556110074739007
78,0.5556150447424452,0.5556045835426369
79,0.5556178955682127,0.5556068809689126
80,0.5556140965228755,0.5556014749903241
