epoch,loss,val_loss
0,0.3864684138152239,0.330374080996487
1,0.3231384609100058,0.31143451205086503
2,0.3095414649596889,0.30225131901211877
3,0.2921225773058921,0.28235679147463666
4,0.2840681283605947,0.2499761345966086
5,0.22287497488107327,0.1752685548027576
6,0.21272271802480652,0.21747770349200354
7,0.21129450418180126,0.20882772591373727
8,0.20422181148799678,0.19778890190344678
9,0.19592873441229622,0.18061672142856028
10,0.18229813963996708,0.18418985391190038
11,0.17432053525337307,0.15211300422520552
12,0.1601312796352245,0.12115961915997887
13,0.11996124430502252,0.10994168151031823
14,0.10486451780302919,0.10211794930139018
15,0.09855306720871815,0.09835388502304537
16,0.09411955388526408,0.08811247864210332
17,0.09762313068925524,0.09106060164527058
18,0.09612983964133463,0.08595084922936552
19,0.09817678287780161,0.09555247166997444
20,0.10125572981981398,0.10288680671775256
21,0.10572791839246269,0.09615759039628477
22,0.10964632835641182,0.11406303524688745
23,0.11911764420229468,0.14318297615226272
24,0.12894989985177557,0.1362029495219029
25,0.11785615781258098,0.13377525314582833
26,0.1120111381174992,0.11992071365500964
27,0.11288663090990601,0.11027175409170992
28,0.10956584890153434,0.10309502912572076
29,0.10988520902784751,0.10107237019156412
30,0.11060845599674302,0.10891286631562433
31,0.10886335384836204,0.12475651779874347
32,0.10542166012404063,0.12078373967989656
33,0.11013326214866148,0.10109514651648059
34,0.1089462324363484,0.10817523085421808
35,0.10901628040986286,0.12698265128043476
36,0.11142764063470131,0.09577145106978743
37,0.10901684402752457,0.10810565430121151
38,0.10657597817242336,0.1072862895518753
39,0.10388964594607587,0.12032274692227451
40,0.11067163597622649,0.10063181159504775
41,0.11110998000458276,0.12161775508744094
42,0.10974628988692134,0.11733929113717934
43,0.10776786236680573,0.09693156723771024
44,0.10771377043698808,0.09519543451710583
45,0.10699204067371303,0.09690766397278518
46,0.10616675698214012,0.12681004888397931
47,0.1052399080761855,0.11194920393725785
48,0.10851682765151767,0.11382147548066036
49,0.10769023125668128,0.11735657220022737
50,0.10894512674130268,0.14977652268468064
51,0.1060340624930952,0.10746017341291048
52,0.10449499811837189,0.12507069792419132
53,0.1089424538678474,0.11517214072954965
54,0.10753958992850628,0.09997463363039748
55,0.10781085226896236,0.11753897265999357
56,0.10917005234127708,0.10079999298633509
57,0.10999194000788826,0.10394348227657854
58,0.1093897057100118,0.11118208002754808
59,0.10793490228589347,0.10648178723482701
60,0.10997309627757369,0.11639482528559317
61,0.10993554808354254,0.10923010412818254
62,0.10856912724322362,0.10744615502202709
63,0.11159168670830918,0.10631891340017319
64,0.10996550030196361,0.11649671715890787
65,0.10957963113560618,0.1040359739517027
66,0.10991766239456136,0.11523173110531651
67,0.11204495755948132,0.11379864563152559
68,0.1094858281114857,0.12352482485272513
69,0.10984970862529785,0.11015879973510447
70,0.109321785249489,0.12122511733749672
71,0.11088554600296881,0.1013683738494211
72,0.10758937743725441,0.10258961261059697
73,0.10952714211244187,0.11626469277451146
74,0.10807088031310687,0.10296946058333532
75,0.1072956680950763,0.10016285331409656
76,0.10987787306618443,0.10125980158678265
77,0.10456649989759226,0.1027544313084684
78,0.11291378942116512,0.10126240235101358
79,0.11135635432228148,0.09991136053025769
80,0.11042407881632316,0.12595798081667667
81,0.11384624694522431,0.11563633224135228
82,0.11430472109338743,0.1144863190607189
83,0.11309344808665588,0.1103276111944134
84,0.1133730328670866,0.10385339552479272
85,0.11217034553184355,0.11867571179332372
86,0.11270829221958832,0.10746936501836626
87,0.11264416009640331,0.11017287875383787
88,0.11559451534468636,0.11565264499942525
89,0.111976390895095,0.10878525867223175
90,0.113971737437516,0.1081021572062606
91,0.1154352925988815,0.10447895810031571
92,0.11158027390627076,0.11018772468547136
93,0.11188399700446428,0.10625988933027684
94,0.11624991945285115,0.141874294407554
95,0.11542152837037944,0.11712240971089727
96,0.11342367586894907,0.10683410446546919
97,0.1142897820837206,0.11242549027292015
98,0.11473806085084363,0.11146269617536074
99,0.11255532302867642,0.11964555933260033
100,0.11263647660476078,0.11054424011246275
101,0.11569859396865805,0.10652467372938226
102,0.11268529088365184,0.114427480673169
103,0.11466404217794883,0.10872821934409468
104,0.11389766267681722,0.10775306838804939
105,0.11446693692680934,0.10735159942434826
106,0.1161606688585451,0.11985139260046485
107,0.1132662262973025,0.11128173723828633
108,0.11643400321082531,0.11159104847399946
109,0.11927813882206222,0.11163885766771146
110,0.12309924580103201,0.12044830872561862
111,0.119092957115919,0.11073280127032498
112,0.11572421269772722,0.11325115297392493
113,0.11332300811154332,0.10720182146109647
114,0.1133486647024858,0.11199276516803532
115,0.11551094660572678,0.1109206055591637
116,0.11581240281117239,0.12662905849804534
117,0.11530128771589576,0.11121738032565026
118,0.11689811654025607,0.1034895331931801
119,0.11991812431102367,0.107651161607693
120,0.11506334126150485,0.11968484944895486
121,0.11475030206096211,0.11018860089609542
122,0.11287186695612687,0.11372137971769286
123,0.11576532741351951,0.11088689925897376
124,0.11444789949926636,0.11017092467295249
125,0.1150960454152976,0.11126008135249696
126,0.11672722413200888,0.11440981952172147
127,0.1156403721168006,0.1309586131170498
128,0.11551622761417922,0.10952899862601236
129,0.1167575287864172,0.1124678260184407
130,0.11656201093179955,0.10518867730941468
131,0.11735295091154907,0.11024349610355771
132,0.11638190012446029,0.11568291937519268
133,0.11823432178174753,0.10702124596430075
134,0.11919347520509689,0.11823020062182207
135,0.11951045547541288,0.12475605382515674
136,0.12210688068509865,0.1277022320709552
137,0.12394584148085946,0.11655762426455188
138,0.12479836064920151,0.11721868049162246
139,0.12163376988921996,0.12173129768120368
140,0.12633935572336807,0.12586144927151108
141,0.12327648100735758,0.11774518717177383
142,0.12312978419730608,0.12183675163476225
143,0.1260806537128324,0.11897524929625271
144,0.12624951619669783,0.12183374245287211
145,0.12865609752474358,0.12312671893820955
146,0.12436522340936532,0.11791771484484519
147,0.12361690918687912,0.12097418681081111
148,0.1253213965349632,0.11945010882220874
149,0.1284477425148066,0.1211079048682313
150,0.12218080728733949,0.11293043350858206
151,0.1249378844112944,0.133099796916428
152,0.12831185603563447,0.11926337730230642
153,0.1281076970098497,0.13589248692156672
154,0.1295896137503983,0.12764993871561447
155,0.1278542240949081,0.1303155205220619
156,0.12862375901519157,0.1317034450895502
157,0.1318351616539496,0.12617546783344144
158,0.12823329832580546,0.12497293149380582
159,0.1297815342833527,0.12326063477414372
160,0.13054682919495017,0.13241432339023584
161,0.1278793274296178,0.12326789325089933
162,0.13042402885657706,0.13686285995905476
163,0.13011694606616914,0.13970754466709792
164,0.13119956375442915,0.12506553763560452
165,0.13031323128145375,0.12936575013935425
166,0.1310728848081746,0.1283930851809604
167,0.13254906394355875,0.1318818717465781
168,0.1340444162100863,0.13031028227582162
169,0.13898940676812835,0.13841961270114428
170,0.14580376702342196,0.1593756174408458
171,0.1545308393826016,0.1595292080373113
172,0.1608508830662254,0.16247087580040862
173,0.16376478216952559,0.16644482739746053
174,0.17123050505308796,0.17410308659523607
175,0.1768619068068185,0.1739252931434711
176,0.17836609843680612,0.17162869053274604
177,0.17784816963817004,0.1736046986355966
178,0.17585622174121873,0.16769959730549694
179,0.17300138256544595,0.16347714146009654
180,0.17126008956361827,0.1602805581799434
181,0.16770673463706204,0.16004321337828226
182,0.1670127808392572,0.16239826550564618
183,0.16792691558551825,0.16382403581769991
184,0.17067311424836457,0.16402330279538457
185,0.16676174039296585,0.16570664150162578
186,0.16686831318217216,0.16737204624285543
187,0.16543509109879284,0.16112071786137575
188,0.16501045348249274,0.16760348729736332
189,0.1689615022423837,0.17607809936049987
190,0.16804290508075678,0.16168834330791926
191,0.1704607278400426,0.16851519142889845
192,0.1661700614177876,0.16771759256285387
193,0.16585094908432518,0.16498630846120657
194,0.16524666804465934,0.15810005546745204
195,0.16302811925848135,0.15331908109603007
196,0.16310573124485336,0.1612209283468191
197,0.16214125160631135,0.15621054574741372
198,0.16053004058406983,0.17058461425853885
199,0.16948692495528933,0.20507259771592426
200,0.21156601882952866,0.19626139998200753
201,0.20741392564263753,0.22283037412608808
202,0.21737551145392547,0.22672229379580167
203,0.24310989194898774,0.261903806579988
204,0.2644695989745889,0.2679928809921856
205,0.2663942654725078,0.2702338077016204
206,0.26875550592307756,0.2678938699502501
207,0.26941336182762776,0.2754357812107315
208,0.26893321717743107,0.274268453398274
209,0.26948270992599993,0.2673377610725404
210,0.27120487806465415,0.26862134907362306
211,0.2710149356132026,0.2674180788841413
212,0.2711403784360722,0.26993452400651236
213,0.2715747132004022,0.280243222496598
214,0.27060855600497513,0.2770295509481957
215,0.27147130792041857,0.27138206940188403
216,0.27005567339708286,0.26887705759825253
217,0.26970630771012233,0.2712325184196587
218,0.2711900697230435,0.26771699033248303
219,0.27081776796866186,0.27310657937553046
220,0.27052588448178566,0.27877141905752995
221,0.2704123785729698,0.2730147833652918
222,0.26971596874278797,0.2693097588224682
223,0.2694653640750596,0.2689073697708682
224,0.26967217686245865,0.26908936990746946
225,0.2693075039070382,0.2712811571387861
226,0.2689922935694909,0.26913687279822796
227,0.2693920797890992,0.2794566121902067
228,0.2690314252635272,0.26907252362137624
229,0.2690199170467093,0.26712965411328854
230,0.2690646671812883,0.27076927994119904
231,0.2697897941279087,0.2671541554093267
232,0.2695304483866139,0.2650083796001365
233,0.2679073541737098,0.2661692482120142
234,0.2682905895032471,0.2668884969547967
235,0.26844125673424996,0.2695398315163983
236,0.2688721571680453,0.2685534792475185
237,0.2684694932793065,0.265694900970809
238,0.2677542246955571,0.2653248843331928
239,0.26801832013135907,0.2667868283783816
240,0.2673260397512278,0.2678358187897523
241,0.2674543695043412,0.26432235935304516
242,0.2674384105095951,0.26192992590456
243,0.2662180916165753,0.2665556869877542
244,0.2669810316593146,0.2668076678228454
245,0.2666540162133084,0.2655506507561916
246,0.2649823186232699,0.2638183259644091
247,0.2662662911079199,0.2707049890870453
248,0.2653424631146123,0.2637776112993966
249,0.2658515619181043,0.2685748364573496
250,0.26483511008757005,0.26466465052790594
251,0.26619779816467604,0.26468882506864694
252,0.2648175073434695,0.2599587887760778
253,0.26554331625942035,0.2616201125220605
254,0.26528851597381536,0.26350469897841505
255,0.26425896768423196,0.25862777401305787
256,0.26312725611037013,0.2609119192295029
257,0.26431117805359744,0.26125609839442404
258,0.2622610346304713,0.2610316057090413
259,0.262978154406559,0.2611353855341932
260,0.26205526902187737,0.2613414618544628
261,0.2602321662955719,0.260375643985518
262,0.2617676684038816,0.25860578418013236
263,0.2607170614502508,0.253706286566504
264,0.2599474942143396,0.2589200981131857
265,0.2596642438420575,0.25897443630889166
266,0.25970278945353203,0.2607867159566827
267,0.25889519073194167,0.2702853362816191
268,0.2600934910331127,0.265958377881227
269,0.2576999109830978,0.2640713539853657
270,0.2574981645785933,0.25663354074334005
271,0.25813736025092127,0.2564867167206571
272,0.25676870452676365,0.25908420754165845
273,0.255303907767236,0.25293401271786947
274,0.2558244624428993,0.25609320343340486
275,0.25362255888210117,0.2575971682121552
276,0.25344769335645945,0.24860357078587622
277,0.2518806610283234,0.24828539725213702
278,0.2505742040076416,0.2582260292632051
279,0.25001341031847907,0.2513176971942116
280,0.2517595248911783,0.2517010666130092
281,0.25352429296615886,0.2544556373131962
282,0.2508710595391256,0.2539542132037403
283,0.2523483934341003,0.2501580083614837
284,0.2517390266882716,0.24853916970782142
285,0.2517869477566007,0.25508633477064974
286,0.2531817564956671,0.2713584742658046
287,0.2549261468515503,0.26384490086228807
288,0.25340094838997157,0.2533232132538906
289,0.2523400014121946,0.2493406527491188
290,0.25233583351810107,0.24445660214727097
291,0.25086433826971777,0.245812196169863
292,0.25015561241540407,0.24844454919247524
293,0.2511363925157691,0.24928032826182403
294,0.2530941443441869,0.25281207509274173
295,0.25316325906250214,0.24698503774126968
296,0.2526147057005256,0.24888811446873335
297,0.25282599017631524,0.2517738624783887
298,0.2510702207470112,0.248925271484451
299,0.25201059902290834,0.2536350380461707
300,0.2510936554792307,0.25207441453634516
301,0.2522163703549299,0.2512625366472878
302,0.24981432931600428,0.2466732644267974
303,0.2495523277494452,0.2532761548223134
304,0.25316666901635704,0.2555023264301604
305,0.25174053996610796,0.24975470952754333
306,0.25097215735464456,0.25619542399963807
307,0.25099684968054725,0.25331299613805486
308,0.2490571280725473,0.2504970798740824
309,0.25147498011303177,0.2537209471921424
310,0.25123217072394444,0.25290312775026275
311,0.25289920268418026,0.24891076211677166
312,0.2518489403749923,0.25201285288808095
313,0.25299059488266396,0.26295220506125394
314,0.25452530712818355,0.2546412944440872
315,0.2527915409309782,0.25009293547275036
316,0.25170386950675244,0.24960645672224974
317,0.2493826713707807,0.25158882196389887
318,0.24419879955615548,0.24008751705865175
319,0.24333319298440603,0.24475876831735507
320,0.2464748655172656,0.2465956476064959
321,0.25245949566411935,0.25747795732311124
322,0.2588949494010253,0.2632855260428615
323,0.2606194502503561,0.2622981562610677
324,0.26185202003001784,0.2674542284308217
325,0.2611278796748673,0.26728738579772643
326,0.26000982117976884,0.266226861087845
327,0.25996859764738334,0.258231186899691
328,0.2605843949589512,0.2622897085022908
329,0.26095809639214895,0.2605846474372033
330,0.2622046653065178,0.2648113765698676
331,0.2625885372705978,0.26291703760341667
332,0.2638883040034228,0.26772750687109925
333,0.264218292511005,0.269417151620563
334,0.263055872455013,0.26299082745975083
335,0.26312044327207607,0.26111426488470635
336,0.26232464651433496,0.2631352191824751
337,0.26208527396908765,0.26390605759178454
338,0.2620320426676866,0.26923543715815706
339,0.2631573858890507,0.2606535337294945
340,0.2630874671393352,0.25980681407940887
341,0.2618841245758543,0.2587197137777506
342,0.2608797238480082,0.2637821776055876
343,0.26103349710158785,0.26379563500068276
344,0.25965491569728305,0.2560073226313941
345,0.259118191820445,0.25880560307118866
346,0.25992195997878514,0.25841371616276587
347,0.2604809801677148,0.25824948651355933
348,0.2605530659286238,0.26498258391420204
349,0.2604912687227023,0.2556261533390563
350,0.2591697878534083,0.26180038794628163
351,0.25884606714824215,0.2617456418562801
352,0.2589999755009187,0.2567350201326369
353,0.2579548581481742,0.25885832288553134
354,0.2573631491413791,0.25666292843239086
355,0.25781277067464986,0.25770562627274124
356,0.25762302298649703,0.2513265681365577
357,0.25656924997683433,0.25538931642353957
358,0.2562214822696744,0.25367620881373426
359,0.25672342700304557,0.2612566257802727
360,0.25721435541276644,0.2604747047411144
361,0.25869189860890335,0.25689533142330334
362,0.2571016980303849,0.2573814875348497
363,0.2575699721249364,0.2666959008459228
364,0.25974293269342086,0.25908651378743747
365,0.25854139970980294,0.25112491874310944
366,0.2595465455016644,0.2609421955899357
367,0.25873207351524863,0.2566313113790849
368,0.2589656617477548,0.26064945095245917
369,0.259124755382919,0.25762950533143913
370,0.26027314582888744,0.25894225029467405
371,0.26102070619376727,0.26008674314197067
372,0.2609183839935479,0.26520565065137025
373,0.2618625621191508,0.2637168898084734
374,0.2600240267866807,0.2585956213647395
375,0.2609626834781812,0.2656161633761925
376,0.25981404370279143,0.2623732003905967
377,0.2603287204063768,0.25729051662789804
378,0.25734349128773076,0.26125724012680474
379,0.2577313340539269,0.2606414607310728
380,0.2550640613626805,0.2569317359833051
381,0.25375745945768674,0.2551067986752729
382,0.2540307610238389,0.25315165858430566
383,0.25374042116504586,0.2530872544601571
384,0.25381710354110704,0.25237935440410475
385,0.2537719509262833,0.25428290781583385
386,0.2548778349165913,0.24942276387489398
387,0.2523809136520568,0.25548992064305903
388,0.2544942027111229,0.2548429640546594
389,0.25337405551632913,0.2550094023805579
390,0.25565517269116605,0.2527648196529947
391,0.2557180349965938,0.25719382226373044
392,0.2563794771496722,0.2564125878188021
393,0.2541726114902851,0.25417089122387965
394,0.2551008364577278,0.2572705485073713
395,0.2553516658697483,0.25174254137837426
396,0.2548567555624423,0.25696938345539544
397,0.25614725601830357,0.251869579434583
398,0.25563601871355357,0.2568357046796472
399,0.25641906003562287,0.25600699036019753
400,0.25512147041485844,0.25621529015247146
401,0.2560322521497115,0.2585151306432161
402,0.25587715325857713,0.2561863306689281
403,0.25634632289981385,0.25270483180021996
404,0.2547430625314907,0.2524457636223878
405,0.2573521035811979,0.266399363868803
406,0.2562094467590086,0.25936878454337087
407,0.2540662807526348,0.25167106370711384
408,0.2558222281799423,0.25164349013741033
409,0.2552394083649706,0.2526646542709083
410,0.2552359180091668,0.2517978037871426
411,0.25553323332664013,0.25743030903136155
412,0.2560026362109527,0.26117200260333595
413,0.2554139644145775,0.2573619520066757
414,0.25579649510739044,0.25664973320129264
415,0.25592472743716455,0.2526430414361848
416,0.25483930209200445,0.25116884843655807
417,0.25530899165988824,0.25918976208687583
418,0.2557642693987949,0.25944043524216365
419,0.25648085574070806,0.250471311273684
420,0.25601816903367985,0.25513642400667813
421,0.2567372432679867,0.26234954735521454
422,0.25519607233391295,0.2571775459617541
423,0.2560426811817929,0.2541813127573024
424,0.25686734593171867,0.2512004120362115
425,0.25563764305328196,0.25914176340025996
426,0.25560106399605315,0.2549565318727832
427,0.25511509580292,0.2538275985310373
428,0.25593176265533785,0.2545488500980853
429,0.25620802100018253,0.24976919373848727
430,0.2559839630310389,0.2546169868984275
431,0.25411365194905766,0.2523575926518572
432,0.2558766301218078,0.25737587559524255
433,0.25525457024883974,0.2550315436478572
434,0.2548895681516634,0.2505126228436957
435,0.25517500973910356,0.25312645162948966
436,0.25594794052205594,0.25730590496415123
437,0.2570334710686994,0.2500805401529208
438,0.2546027524949168,0.256982912815925
439,0.2553487422643043,0.26157077427162556
440,0.25661361618912953,0.24960870491583326
441,0.2555448906801397,0.2539834140578686
442,0.2561270406337188,0.2602723263903876
443,0.2572407026847394,0.2550912056156473
444,0.25702519038264793,0.258190434411368
445,0.25570489501924537,0.25569779527591924
446,0.25554827641216304,0.25426371102739526
447,0.25501992131808965,0.26162627197055244
448,0.2558297473404238,0.2582542754668557
449,0.25721823378241987,0.25553785378573535
450,0.254367034664924,0.2520795506149554
451,0.2550060071116633,0.2533770094566112
452,0.25478940187908,0.25823551011819396
453,0.25498754781284494,0.25338101398784907
454,0.2543617502855454,0.2528656802853921
455,0.25485324561238576,0.25523861213612953
456,0.2532667626353572,0.25682641598730455
457,0.2538680534878318,0.25713878811205476
458,0.25479239015151367,0.2502515597449764
459,0.2546243374999002,0.2540538533169544
460,0.25455584031619805,0.2606782254828368
461,0.2543249953445866,0.25415946546745
462,0.2533885093865921,0.2525055211363765
463,0.2552260247578057,0.2546426546249036
464,0.25480811915499607,0.25649703667449875
465,0.25334937028962073,0.2578783552290985
466,0.25628739877713386,0.24909433609590628
467,0.2536695182478304,0.2525988667027256
468,0.2549643938084967,0.25486663090919265
469,0.25367588976876054,0.25218476971351167
470,0.2546513011272577,0.2522643750096835
471,0.25418784940461936,0.2539981413447396
472,0.25312379670205065,0.25447205773421694
473,0.25434898907284464,0.25130025614361734
474,0.2539193260845997,0.24956837599919177
475,0.2537417266246893,0.2539186019570976
476,0.25499415319028806,0.2539796066994543
477,0.25619075322846807,0.24997248784613213
478,0.2555769984956554,0.2509767297176084
479,0.25436913981426246,0.2534242688950913
480,0.2537213438015571,0.2566801400380334
481,0.25363537065869424,0.2504521738781925
482,0.25457459793006965,0.2468442996727169
483,0.25265531408057795,0.24845864651423322
484,0.2524103879285373,0.25547428344447687
485,0.25247167556477396,0.25285456370159504
486,0.25085995302235575,0.25654665356606315
487,0.253411174130192,0.24963482895655809
488,0.2523528232122306,0.2536602658884866
489,0.25353398318770975,0.25406405721344905
490,0.2535164606668871,0.25348385686279756
491,0.2554662712186361,0.24781469544417856
492,0.2528096329477384,0.25002871690157746
493,0.252821640478526,0.25219128569610116
494,0.2531280078285699,0.246132681841632
495,0.2534434393905907,0.2536989645569364
496,0.2535033504323041,0.2556585587661099
497,0.25373151041954445,0.25162409985733486
498,0.25358893741354,0.2513598839692836
499,0.25397510323926603,0.24998493512596967
500,0.252705749472697,0.2497119993771167
