epoch,loss,val_loss
0,0.6695494486960901,0.6677049596315578
1,0.6670389648072985,0.6667862513816682
2,0.6669194778107932,0.6670737068055581
3,0.6668610943785049,0.6668885083115722
4,0.6668473737388863,0.6668223379563457
5,0.6668401802334434,0.6667757090208843
6,0.666833955954064,0.6669039846649832
7,0.6668049344603323,0.666761110527048
8,0.6668037942131677,0.6668536379970332
9,0.6667706247130851,0.6667227862490613
10,0.6667692393904207,0.666720038460147
11,0.6667590034063087,0.6667319847987249
12,0.6667507558379109,0.6667088799973575
13,0.6667592536967516,0.6668689167529123
14,0.6667461166890031,0.666818171724788
15,0.6667557481948831,0.6667448050922554
16,0.6667411672032638,0.6667214749764568
17,0.6667415606202661,0.6668639937937999
18,0.6667394118547184,0.6667387500294385
19,0.6667424957200458,0.6667412441658322
20,0.6667377635588317,0.666739464042796
21,0.6667305078763754,0.666803466889166
22,0.6667341633896955,0.6667056214129067
23,0.6667296200305579,0.6667070132035475
24,0.6667341321568333,0.6667220265634598
25,0.6667271987674769,0.6667078937253644
26,0.6667320080831847,0.6667041371241397
27,0.6667262398364096,0.6667608852126167
28,0.6667265741828038,0.6667247499780679
29,0.6667258746279022,0.6667057028479375
30,0.6667253971241842,0.6668291410204791
31,0.6667242242802736,0.6667197399044746
32,0.6667212394444336,0.6667581146171607
33,0.6667210072497087,0.6667162285253369
34,0.6667219620765031,0.6667001711523562
35,0.6667215021675973,0.6667006392928566
36,0.6667185028559717,0.6667279876787077
37,0.6667193622479685,0.6667209133320944
38,0.6667189024061131,0.6667126441711824
39,0.6667137817493956,0.6667089797426986
40,0.6667187184624292,0.6666970835725959
41,0.6667160893731028,0.6666975425727314
42,0.6667141434515617,0.6667172497614442
43,0.6667156185357715,0.6667795673197612
44,0.6667155959090245,0.6666983765053098
45,0.6667170557862051,0.6666981264616064
46,0.6667120305090672,0.6667152773949407
47,0.6667122029887114,0.6667047910891455
48,0.6667124964738068,0.6667337852139626
49,0.6667115434045217,0.6667663945749439
50,0.6667119374888727,0.666703821382215
51,0.6667110593472193,0.6667081553646116
52,0.6667123066691297,0.6667036015105898
53,0.6667094543154021,0.6666977662010761
54,0.6667096855106817,0.666701612904409
55,0.6667113919873783,0.666714246160635
56,0.6667095444666286,0.6667676353572912
57,0.6667093488900958,0.6667053469061556
58,0.666711830716248,0.6667149976228662
59,0.6667093531008605,0.6666999772228023
60,0.6667103770723875,0.6667238859029917
