epoch,loss,val_loss
0,0.035026393348185934,0.02815566969568617
1,0.023283186784738768,0.019348784613772006
2,0.018062053210718305,0.017262766904962566
3,0.01730310332799264,0.01635633129487854
4,0.01679937329630239,0.01751439454537763
5,0.01654811275662474,0.017210096213273317
6,0.016426809018976262,0.01618979181770799
7,0.016345349680134652,0.016283348256319982
8,0.016238665695864192,0.01586130369389915
9,0.01608497893548894,0.016229325648461915
10,0.015932670846194243,0.01669814563252346
11,0.0158001959235485,0.017278802658317993
12,0.015736296518337908,0.015571830728583537
13,0.01555884114192157,0.01579239648898541
14,0.01555801523734421,0.015410192303414972
15,0.015565283618085176,0.01573163491186152
16,0.015506626789011754,0.015046939194183935
17,0.015166354529069849,0.01454732430447124
18,0.013686085595716397,0.013353582252528768
19,0.01253877780294033,0.012187133017677824
20,0.012045933774073642,0.010963857899565554
21,0.011793480459891321,0.01136020885470783
22,0.011591404554883888,0.01179294470817812
23,0.01143538873831558,0.014175522607975355
24,0.011363610697752942,0.011732203216192592
25,0.011295812080880659,0.01139153781954763
26,0.011059085588549086,0.011191955761563394
27,0.011017858283769888,0.010735273976849563
28,0.011076304608249066,0.010259323184916902
29,0.010921449048038604,0.011484144181105545
30,0.010972006084614535,0.010790482347844996
31,0.01096860701650747,0.010828245120589846
32,0.010864831990671349,0.010895375971666192
33,0.010826357251248857,0.010673124422654324
34,0.01077863844430914,0.01086269264795792
35,0.010661555504792499,0.011849283740368139
36,0.010722452024739475,0.01017287106856371
37,0.010682952399969612,0.0105979659097736
38,0.010603094792340312,0.010149654960051808
39,0.01066478650550408,0.010642587645418443
40,0.010529105036374435,0.010840605227068695
41,0.01054437721547453,0.010453675741389874
42,0.010495771672068612,0.010163871544614324
43,0.010519288945345333,0.010052100187236854
44,0.01044074778990133,0.011033938168351614
45,0.010449426754456382,0.010408503530782742
46,0.010394860528277056,0.010091657763249969
47,0.010374415357457784,0.010486525026780944
48,0.010393315369059651,0.01165718769622278
49,0.010339380634310868,0.00999979046323607
50,0.010353011386504381,0.010720415577458833
51,0.010355600542119977,0.010301505875480234
52,0.01029599501046755,0.0100050370927632
53,0.010302770013926054,0.009979040190928774
54,0.01036060404347162,0.011112479111711234
55,0.010305992872421132,0.009880740469594303
56,0.010233345521450693,0.010397185477203974
57,0.010211959236030852,0.009858383936691965
58,0.010214346484034307,0.009800057712175118
59,0.010232531563324578,0.009658637480167834
60,0.010201752829850426,0.011781935750624677
61,0.010215620099682748,0.011194491926257131
62,0.010155704169177214,0.012099886052402906
63,0.010154758299021304,0.01014651682218606
64,0.010101064134195554,0.010396631076358832
65,0.010131713392132896,0.010395791795261889
66,0.010028981183396861,0.009899479121191625
67,0.010103031728506953,0.009685939051691564
68,0.010043364011484463,0.009978427698202523
69,0.010046463192206471,0.010478790061867266
70,0.01009567618389333,0.009784626110315914
71,0.010067677093226968,0.009854084874501004
72,0.010036222566013277,0.010026735056737074
73,0.009982158453979933,0.009895189571894576
74,0.010006424456695171,0.009853823238951396
75,0.010007133934919435,0.010143941918632972
76,0.00998433567997326,0.009547670345023164
77,0.009976942499856506,0.010215081627626276
78,0.009958398578265814,0.009701573456783153
79,0.009971803322273357,0.010131332745068422
80,0.010013990445884304,0.010004950168244448
81,0.009912104006809893,0.010033821929754601
82,0.009954512773767916,0.009523140467592416
83,0.00992206623705027,0.009635010273854432
84,0.009938917760179083,0.010479467952388244
85,0.009943641481819244,0.009764737377946194
86,0.00989711359139806,0.009824076183972229
87,0.009961315839301441,0.010240761111617532
88,0.009912899043173136,0.009377984874061409
89,0.00992599766782512,0.010236799103154734
90,0.00984480454133129,0.009442693962907377
91,0.009892979754465507,0.010270133770299757
92,0.009907931659039944,0.009749508268724453
93,0.00986075243864679,0.010118467546537259
94,0.009865329614613476,0.009632384629166747
95,0.009867131935158164,0.010262338559214886
96,0.00989113982715445,0.00974855619406434
97,0.009880295355135276,0.009712219323325099
98,0.009847440562491368,0.009371073318936541
99,0.009848579275526872,0.00992181674385485
100,0.009882832201435451,0.009386816352522625
101,0.009861736246334577,0.009980750247078113
102,0.00980502017821449,0.009666316441396625
103,0.009792755494265141,0.00993356943943956
104,0.009801814563564666,0.009559971499245234
105,0.009824011054796798,0.009366643326195238
106,0.009796539153361157,0.009770616234532065
107,0.009774011789296431,0.010621398583368835
108,0.009828718005962552,0.009609648684691406
109,0.009793027579253709,0.009255145830344917
110,0.009782512828926497,0.009703723396689956
111,0.009802139663949976,0.010128951035717286
112,0.00978674831225933,0.010155864906666002
113,0.009775657805642239,0.00948446216547016
114,0.009788450841339325,0.009468072985597048
115,0.009762042360425034,0.009602939806157543
116,0.009841718925409288,0.009490278507894825
117,0.00975512707032406,0.009859396596774274
118,0.009779985998685634,0.009768267713542611
119,0.009737882531083968,0.009260294032941756
120,0.009746982426265153,0.009395866062279523
121,0.009746313411227985,0.010140698825103918
122,0.00978149757594749,0.0094009071251114
123,0.009758576720903094,0.01033778238588616
124,0.00974744558924123,0.009578984120754391
125,0.009747858907521525,0.009594084132490471
126,0.009711468405161279,0.009540434141017072
127,0.009694661189345592,0.009793624097005309
128,0.009757609851882667,0.00953574263520779
129,0.009724431377092533,0.009762150299256995
