epoch,loss,val_loss
0,0.034376145183611734,0.02785861202823021
1,0.025849310712801648,0.02261589726169707
2,0.0198689891276296,0.01922072543861996
3,0.016834506774597167,0.01664096104170637
4,0.016185169300082118,0.016664535814327728
5,0.01593516046451421,0.015069052466091979
6,0.01588782442062673,0.01641232074323866
7,0.015562921315508998,0.01509876165206246
8,0.015401902822456797,0.015898221735345667
9,0.015224397175254218,0.015271558128667085
10,0.015052482856742273,0.015450681753863323
11,0.01495349960758673,0.014122546664797342
12,0.014839621507603802,0.014948612570337414
13,0.014775141609430564,0.014952045665226562
14,0.014528504647488583,0.01472813729104348
15,0.014134316736560189,0.013911248621052459
16,0.014019657767358282,0.013877032633417889
17,0.013975340218670045,0.013642147763010586
18,0.013974269645418522,0.014478753458144648
19,0.013927265931434021,0.01324789661026696
20,0.013888904966028534,0.013616488010116458
21,0.013829457380268136,0.01496228008454772
22,0.013814715117772136,0.013352247334499068
23,0.01368688515695821,0.013831449285260502
24,0.013633765829579272,0.01348204892128706
25,0.013560276492962067,0.013439995779311539
26,0.013557454877057638,0.01357345085119639
27,0.013533251660811848,0.013052098276486467
28,0.013503970411204557,0.013405510127803232
29,0.013457884065350529,0.013582820351935794
30,0.013408107402708095,0.013940529328385003
31,0.01341543946032062,0.013081030755144343
32,0.013331475260632462,0.012996821489564095
33,0.013324287764445471,0.01346406665337145
34,0.013318334074683025,0.01343736241781904
35,0.013252872800360159,0.0132385250065411
36,0.013059639527527908,0.012792861243021252
37,0.012421368562928772,0.011346997611372554
38,0.011608475471233606,0.010662130646814335
39,0.011213563416717746,0.011975364017279508
40,0.010984495659041974,0.011189458878345732
41,0.010811748920583324,0.010728549104525937
42,0.010647746731954634,0.012310667944697677
43,0.010682684152568426,0.010085960787261095
44,0.010691383686520362,0.01075060144575225
45,0.010540453295422261,0.01130621008362353
46,0.010547667095626644,0.011621211521401447
47,0.01051752865804543,0.009712961218585595
48,0.010437972613937778,0.010666857038626895
49,0.010400451014474565,0.012397580554537827
50,0.010340073639066855,0.0098860267119912
51,0.010399413859558376,0.01029076418763133
52,0.010306850553998116,0.009979664487186495
53,0.010331134388864188,0.010411481691002106
54,0.010310172982099967,0.009848447107055939
55,0.010203788047873467,0.010110275379425982
56,0.01022015213649236,0.010655293568377163
57,0.010230293271382303,0.009679231803781045
58,0.010198970257969604,0.00992905021536513
59,0.01013321957018644,0.01024726486254123
60,0.010137947271970024,0.00976265885730831
61,0.010118524689048426,0.010533756638874783
62,0.010096608463106975,0.010303963865465473
63,0.010128705888563874,0.009679625415827885
64,0.010111993547625663,0.009693207558956246
65,0.010027428193161827,0.009785877091454218
66,0.010023809429971504,0.009934206763582846
67,0.010010605359682465,0.009901644741057905
68,0.010011144025771329,0.009793731189395298
69,0.010003217319810364,0.010341166202487337
70,0.00999052254650853,0.010122167761842016
71,0.009957524696259863,0.010283483510314679
72,0.010001074571505454,0.00938409629368013
73,0.009997806276982754,0.009825455872041564
74,0.009977334757441716,0.009812893450408065
75,0.009981472378586334,0.010321941151383053
76,0.009914852049278588,0.010562066028990017
77,0.009940600230098438,0.009771958543057034
78,0.00987881360631958,0.009957108311539993
79,0.009989617112275842,0.010285896765387088
80,0.009862454083154606,0.00972298718942676
81,0.009893883963247483,0.010510262034408212
82,0.009898889648815004,0.009974709666673806
83,0.009848163422316463,0.009486459512679513
84,0.00981232828261615,0.009518922823331048
85,0.009846704571721755,0.009985109645106065
86,0.009841078998657117,0.009785210559602188
87,0.00987111796320138,0.010083844676318003
88,0.009791261919762862,0.00935896787464286
89,0.009823263584525236,0.010094889297286422
90,0.009842396995010518,0.00982423271179643
91,0.009818439812962066,0.009477462936608727
92,0.009726456701891597,0.009251154285783951
93,0.009789495103110403,0.009774582327872736
94,0.009764162614197928,0.009633340141169783
95,0.009703674758204746,0.00940417265588829
96,0.009758174803882852,0.009650121951387923
97,0.00976644146969952,0.009278920472648097
98,0.009676751873639257,0.009498130980758898
99,0.009664037042902343,0.009606105882776139
100,0.009677952599026459,0.009311717192621591
101,0.009717147384998518,0.010752428463999894
102,0.009697565679142343,0.009643532966191953
103,0.00967965391819196,0.009127168019507866
104,0.009726199545944367,0.009432111054233671
105,0.009657741806531695,0.009532718913209054
106,0.009640733273116516,0.009549265934926257
107,0.009630439357821697,0.009772540657566144
108,0.009675617153140406,0.009706018457452654
109,0.00962779187721316,0.009638351117429455
110,0.00966176015168148,0.00982464961615153
111,0.009667659408997506,0.009369490477753336
112,0.009620298360126227,0.009848675433148817
113,0.009621338324546357,0.009503830667058233
114,0.009599365808751648,0.009414389136041661
115,0.009651639493741457,0.009381410591858937
116,0.009592186825240748,0.010826708616748932
117,0.009613018638334981,0.010291625275542364
118,0.0095808469938358,0.009852595942062569
119,0.009574729531089201,0.009292139598253939
120,0.009587276079468795,0.009325424895596415
121,0.009536121365912647,0.0091799221757254
122,0.009535173070387459,0.009304224295777364
123,0.009558045523693827,0.009185075844931544
