epoch,loss,val_loss
0,0.45068140784090055,0.4449376095021629
1,0.44532483642604653,0.44469775567871167
2,0.4448575345852006,0.4446690886251388
3,0.44479807144673156,0.44475239901329683
4,0.44477408396364876,0.44469189433838535
5,0.4447643630149099,0.44470798815450363
6,0.4447310260481861,0.44461471784499385
7,0.44468179463967883,0.44465121319217066
8,0.44469660523432814,0.4445932905963869
9,0.4446735532379452,0.4449118519982984
10,0.44465090658170237,0.444609600793635
11,0.4446762838597109,0.4445601984525733
12,0.44461931364857277,0.4445875834442546
13,0.44462124268564146,0.44464435232780114
14,0.4446132905440397,0.4448686717757516
15,0.4446089053055073,0.44477704711646654
16,0.4445994403717373,0.4445727633483357
17,0.4445981249337262,0.4446712691346114
18,0.44458442100543216,0.44476072950931106
19,0.44459055994307023,0.44454175025298637
20,0.4445807749951249,0.44455211548592255
21,0.4445822867977081,0.444538651817194
22,0.4445755988707719,0.4445548410451146
23,0.4445677034198836,0.4445610398838005
24,0.44457172708325127,0.4446632238978488
25,0.4445642833074805,0.4445345427942631
26,0.44456412926511696,0.4445446344818134
27,0.4445609865149504,0.44456478673826083
28,0.4445581893630231,0.4445483854479589
29,0.44455755563543725,0.4445389733273101
30,0.44456067301807334,0.4445280840024167
31,0.444554722436035,0.44452128315681855
32,0.44456214050586806,0.4445266672754406
33,0.4445521300662651,0.44451918985056815
34,0.4445569977860212,0.44455547563491327
35,0.44455042858482285,0.44457370635889304
36,0.444554170122615,0.4445515736308938
37,0.4445503736220374,0.4445806110467272
38,0.4445486197848868,0.44452841571779467
39,0.4445543977993266,0.4445962272270146
40,0.4445473779591365,0.4445226039099634
41,0.4445525416894215,0.4445798778060648
42,0.4445440794378896,0.4445183919174204
43,0.44454395326285295,0.4445839056897696
44,0.4445477629250284,0.44452089402575057
45,0.4445493757764992,0.44451719015171154
46,0.44454254987720676,0.4445920350829662
47,0.44454254230248436,0.4445266088244341
48,0.444545169001267,0.44455012467599686
49,0.44454552258047514,0.44466574592862473
50,0.4445422119262622,0.44455316736739564
51,0.4445441568037892,0.4445703633369938
52,0.444543688955328,0.44453297655280705
53,0.4445409561619183,0.44453859861672074
54,0.44454310234444827,0.44452505253680585
55,0.4445424601006736,0.4445459703949486
56,0.4445412836601009,0.4445194113195386
57,0.4445397446603003,0.4445242806936316
58,0.4445432303937406,0.44452665810549524
59,0.44454279728606044,0.4447625127678769
60,0.444537614943375,0.4445616533827249
61,0.44454052995096277,0.44458015919027494
62,0.44454165210004276,0.4446232430692346
63,0.44454074703647306,0.44456099577932146
64,0.44454233410312327,0.44454317853113556
65,0.44453909956215093,0.44456323006608645
