epoch,loss,val_loss
0,0.559911306738874,0.5558903198975783
1,0.5562397299531836,0.5560217736080918
2,0.5561098906424995,0.5557536420987794
3,0.5558419858228772,0.5557062252875298
4,0.5558253563289249,0.5559933058972986
5,0.5557860757731244,0.5564670946107018
6,0.49198123422994366,0.44459629906318326
7,0.44465218525874345,0.44473778527072877
8,0.44470595010845176,0.44463451229608975
9,0.4446760369450581,0.44473254609640417
10,0.4446858771476553,0.4446127258666396
11,0.4446584937794487,0.4448365158833582
12,0.44464856475953335,0.4445983965402797
13,0.4446393205067525,0.4446367973725198
14,0.4446377998602223,0.4447346510277788
15,0.44462697369578313,0.4445630640013342
16,0.4446222959976319,0.444585971619296
17,0.44462282086456484,0.44462332891175527
18,0.44461937013340214,0.4445687079400046
19,0.44461803743109785,0.4445653541951854
20,0.44461579692601805,0.44457187160073086
21,0.44460545436057214,0.444551040605635
22,0.44460751759032696,0.44461991931901085
23,0.44460873214471,0.4445872795049369
24,0.44460674896918123,0.44463066164376425
25,0.4445988355460265,0.4445935746132588
26,0.4445986341329542,0.4445782674601297
27,0.4445945508286557,0.44454874147848217
28,0.4445956974479741,0.4445520679353189
29,0.4445968923885393,0.4445696455964971
30,0.4445902182085114,0.4446039834330159
31,0.4445904145648008,0.44457755093243223
32,0.44459446863631086,0.44464153082435837
33,0.44458743032965353,0.44459843885514044
34,0.4445891162995788,0.4445887892329072
35,0.4445860226090022,0.4445627093906734
36,0.44458498269525815,0.4445868692386239
37,0.44458224762884013,0.444547812991935
38,0.4445789416468564,0.44454427586299905
39,0.44457980620607207,0.4445758429709498
40,0.4445807023476009,0.44461746109330624
41,0.4445771615105693,0.44454757160051883
42,0.4445797820663527,0.44454772967854445
43,0.44457645351362873,0.44456480345122573
44,0.4445762418785266,0.4446910499639014
45,0.44457852850599466,0.44454019174682297
46,0.44457678118180377,0.444583736829663
47,0.44457401453307266,0.44461371311478814
48,0.44457492832344836,0.44458359879240505
49,0.44457431076960074,0.44458731108208743
50,0.4445760897644535,0.4446093030218451
51,0.444577938624239,0.44461604608199734
52,0.4445742132223214,0.44457598233932893
53,0.4445748581382514,0.4446864692951846
54,0.44457767815672955,0.4445786039083826
55,0.4445746863906398,0.4445422189850961
56,0.44457304069788606,0.44455680218583005
57,0.44457547568223865,0.44454796084990866
58,0.4445697728482501,0.44461809488443227
59,0.4445724068070128,0.4446019671986772
60,0.44457570991608436,0.4445827315226382
61,0.4445715741073834,0.44476091774462473
62,0.4445678955062462,0.4445613573561827
63,0.44457130193050864,0.4445477182161128
64,0.4445699224877693,0.44469491175327347
65,0.4445687889917906,0.4445422749809237
