epoch,loss,val_loss
0,0.035457982878368696,0.024306877329021176
1,0.02020688037193297,0.018903640852709562
2,0.01740672673972481,0.016299149899676478
3,0.01685598623811894,0.01586714611566688
4,0.01660933853788384,0.01800600137543072
5,0.01639286443438578,0.01611231910365243
6,0.016139309496444564,0.020245196948535094
7,0.01634045090761561,0.01707921344278468
8,0.015850035119335613,0.01542679700288672
9,0.015807714020625738,0.016513897375973224
10,0.0157451811553539,0.0153358261713356
11,0.015671602027474637,0.015459576990020926
12,0.015577670406249477,0.01617067874809057
13,0.015482276635044891,0.015145400450299159
14,0.015516529198622508,0.015186688401932751
15,0.015417683987148018,0.015225526720063562
16,0.015412811748663732,0.015744264055940118
17,0.015311426192004774,0.015062151716157757
18,0.015167084973976905,0.014780038795329945
19,0.014969718545013944,0.015268413389734831
20,0.014771688308339675,0.014974235748830564
21,0.014667563801528907,0.015320400560907927
22,0.014618261514666626,0.014816501952485914
23,0.014482320735706778,0.014313016242576445
24,0.014396934768235826,0.014417863417666396
25,0.014290679927475907,0.01450763518734842
26,0.014304686101073303,0.014123492220199433
27,0.01421418036329348,0.014273511827750034
28,0.014229670613766501,0.014029159296128354
29,0.014275270356313636,0.014065601885152367
30,0.014161892821550963,0.013943194035468415
31,0.01417142151918544,0.014874929399980653
32,0.014158837678960633,0.014169927384177449
33,0.014132341886028058,0.013917335353458933
34,0.014099400646266644,0.014635391422448027
35,0.014087433080286905,0.014253180646903757
36,0.014013442962446108,0.01394371386275398
37,0.01402549368031847,0.013766478066316461
38,0.014047339600988567,0.014799646050588368
39,0.01399898997972868,0.013885827941205306
40,0.013984226386727548,0.014215942188894038
41,0.013951936292925451,0.01459248220876192
42,0.013928907266577702,0.013664392656912432
43,0.013960801659954076,0.01364086012288965
44,0.013938538188638619,0.014424231848113294
45,0.01390597120859604,0.013597401978896362
46,0.01390387435525035,0.014079354276820536
47,0.013856411778148947,0.013855592444280241
48,0.013666123903137999,0.013059408617467058
49,0.012018369030743256,0.012110360844000693
50,0.011153856222888475,0.010902235700423013
51,0.01076003271595509,0.010308056523926353
52,0.010590210930752917,0.010370483200433236
53,0.010545211714371694,0.010147822475425955
54,0.010560659516177132,0.010632367737166047
55,0.010503790607805992,0.0106608696277288
56,0.010450734643702443,0.010559172328866592
57,0.010476859211020456,0.010010281402534498
58,0.010409641708497877,0.010827326831909326
59,0.010396730926386905,0.010180237846767932
60,0.010324519701960525,0.009899386503357005
61,0.01030994506700203,0.010430187574372841
62,0.010342090560430204,0.010800365473677591
63,0.010303453771101588,0.010184188394185627
64,0.010266692921733446,0.009774383602123106
65,0.01021723940150622,0.010490702769762973
66,0.010181581547096018,0.009845331509507472
67,0.010122448520493106,0.010050401770539822
68,0.010139286280185117,0.011247796977109856
69,0.010082091187455518,0.009870526237556567
70,0.010075682679169317,0.00990129560185943
71,0.010031885973465982,0.009767444204381914
72,0.010001414000455153,0.00962492055802724
73,0.010053915625847027,0.010322934969168886
74,0.010016214168866807,0.01028588732644435
75,0.010026814659059287,0.009933594547711293
76,0.009998840874345485,0.01006626007713322
77,0.009990470852405123,0.009900969426348695
78,0.009930024952641215,0.009624965070624358
79,0.009966598440320737,0.01005027270263463
80,0.009939805816194566,0.009726644515362625
81,0.009937156823932437,0.010034834090666498
82,0.009923087553535666,0.010108984393938895
83,0.009919055179717936,0.009789444728484076
84,0.009917852282773082,0.010563505188129823
85,0.009918206288983737,0.009837323905571963
86,0.009929441335056265,0.009678622689698973
87,0.009938755339536047,0.009838227372126604
88,0.009921381794543294,0.009948246124161236
89,0.009919909131598277,0.00964305082442373
90,0.009894234957428727,0.009958569466993767
91,0.009896085347836646,0.009734320364171458
92,0.009849323998353084,0.00962467500870636
93,0.009863853592548493,0.009801046934357795
94,0.009862131802959393,0.009468115716433112
95,0.009827178240283754,0.009711652395151388
96,0.009842390531186162,0.00977827862515195
97,0.009825841655293311,0.009930413504762035
98,0.009816048671475359,0.00975687335437122
99,0.00980258919226545,0.009817773681919717
100,0.009819786042128645,0.0095640117746244
101,0.009797359960500117,0.009819328679100011
102,0.009836495177996406,0.009439276355704658
103,0.009763129078277444,0.010362916244725436
104,0.009761628100401003,0.010650502548786458
105,0.009799689000836496,0.009474065351223679
106,0.009806225262000541,0.009901851742868091
107,0.009754342269289708,0.009622782732246827
108,0.009752608406457561,0.00937689117967121
109,0.009750121436819196,0.009715978229977653
110,0.009786380728485674,0.00971168458239908
111,0.009727675384730055,0.009627652686394325
112,0.009783002081401844,0.009536097913740143
113,0.009756008270251896,0.009857762677978641
114,0.009755052576794229,0.009621393851584595
115,0.00975400681540535,0.009741543360036005
116,0.009740493699097342,0.00945750157309525
117,0.00973951640908992,0.009753127114167877
118,0.009750801061447241,0.009749600266293616
119,0.009723053797183185,0.009413573604825856
120,0.009716660851675473,0.009529834982266571
121,0.009773325951481853,0.009815882137114594
122,0.009671829955114746,0.009548884218387657
123,0.009704492663978262,0.009550266564539438
124,0.009703470419553623,0.009631920609364365
125,0.009713859913705753,0.009438245702839963
126,0.009666676867810309,0.009737496866980942
127,0.009684245860479525,0.00948784236816999
128,0.009710367502970618,0.009703096042551266
