epoch,loss,val_loss
0,0.03334041981204041,0.019333646237554385
1,0.018643154964736237,0.01623513601886723
2,0.01737718611580062,0.016952360810587187
3,0.016697586538694284,0.017407640289727865
4,0.016134179820499996,0.016799297364008044
5,0.015845632685939248,0.016907311091315064
6,0.015586677092681519,0.0153605595965946
7,0.015383101495476621,0.016053845266587385
8,0.015244999981931401,0.014633269279862455
9,0.0151060535534322,0.014951356822074791
10,0.014924563299321965,0.014028241648049864
11,0.01474022039725111,0.015817985878725797
12,0.014558286921093658,0.014172025014722613
13,0.014463964938749444,0.014556997333637094
14,0.014191684865778863,0.014441039494560019
15,0.01421733802896799,0.014220292549626555
16,0.014037697631093428,0.014252266402890162
17,0.013983882915514211,0.013439298963761212
18,0.01374973699888687,0.013657724614678039
19,0.013711976828859555,0.014578038705951967
20,0.013634940163216596,0.014304715245222631
21,0.013527179350940534,0.014010545299862218
22,0.013409390158212643,0.01347960168426445
23,0.013377172760410526,0.013856480877948163
24,0.013309601415913783,0.012578121753913298
25,0.013241514072243795,0.014146509286820444
26,0.013243998853987138,0.013351096374169917
27,0.013124072914285044,0.012916304009317169
28,0.012921275452590478,0.012350241314370194
29,0.01250070905961781,0.012123613769451974
30,0.01232906261647597,0.01259127225005819
31,0.012250836931273651,0.011951787910301692
32,0.012160260606216406,0.012116147229729899
33,0.012109287772128729,0.012098209852486774
34,0.012012606116052142,0.011548067961655391
35,0.012048234608299907,0.0117363646131924
36,0.011911078794757899,0.011796510266255653
37,0.01181673607113854,0.011704083434109652
38,0.011676641445898764,0.01139516513656002
39,0.011437925580425107,0.011613524129276832
40,0.01128655311191259,0.010757990280817963
41,0.010773655817889713,0.010745135673019046
42,0.010206916571388483,0.009730452740051906
43,0.009833606640942743,0.009652054274718163
44,0.009734445070352805,0.009935245038040223
45,0.009667104269421876,0.010470246422860227
46,0.009617903745490748,0.009375510066193032
47,0.009585359578407926,0.009107716536847298
48,0.009570518972513882,0.009519678554393665
49,0.009489629454202782,0.009824998481268474
50,0.00951402631092588,0.00938269005644669
51,0.00948866423092441,0.009204701621723235
52,0.009494452711992308,0.009069183047759178
53,0.00944030481034191,0.009094857508617063
54,0.009408720870759292,0.009247925007258248
55,0.009405461028912439,0.009193499183869244
56,0.009405088816424543,0.009408256555988313
57,0.009331277102586261,0.009698494154932185
58,0.009358439935878768,0.009538066831807936
59,0.00934827482555519,0.009678299254541362
60,0.009327097355084319,0.009255362379713626
61,0.009309912161876622,0.009314971278992392
62,0.009309091291236993,0.009583432857806867
63,0.009292445580456705,0.009480858567371854
64,0.009282928942698335,0.009366110907798222
65,0.009247459560905641,0.009367103751277361
66,0.009264884725513003,0.00958379969305865
67,0.009236953760326946,0.00908269128732143
68,0.009201547605484112,0.009136397956821966
69,0.009231888771274451,0.00964263561724803
70,0.009188557082139306,0.0096042071480683
71,0.009237134804099769,0.0092725724901625
72,0.009160267333402038,0.00875977844683911
73,0.009132863624743607,0.009603632749439617
74,0.009196852181402666,0.009232866222838462
75,0.009121454906589875,0.00930091195529507
76,0.00914211066553906,0.008971132366009814
77,0.009143273791092954,0.009075359710337358
78,0.009095952873681876,0.008983479216509953
79,0.009108297818887697,0.008964508565295275
80,0.009117041051319158,0.00891913554582643
81,0.009092949206282811,0.009473692158944258
82,0.00909669035441231,0.00877181267037655
83,0.009079394007126282,0.009184823264240775
84,0.009098678114135806,0.009172820547138047
85,0.009108301775206043,0.009057883185475473
86,0.00906801791550929,0.00950024592142469
87,0.009048195098717217,0.008819983101845083
88,0.009074872160688518,0.00938270518754981
89,0.009061180818665483,0.009019455129729015
90,0.009023863195775103,0.008686481110714654
91,0.00905431585567185,0.008969639967803476
92,0.009040427857814231,0.008668824270016355
93,0.009006043012862681,0.008922174997239492
94,0.009005437199421944,0.008841198728080127
95,0.009002338917119747,0.008986884748872841
96,0.009022780163136823,0.009004767764609298
97,0.009008342068657365,0.009283558725756097
98,0.009016972847342148,0.009562957591883301
99,0.008999482074177122,0.009421367353526298
100,0.009007629351467691,0.009159499569044958
101,0.008994440084420387,0.008742152233480963
102,0.008964879546030056,0.008648928216480587
103,0.008952607450892217,0.008874474885519918
104,0.008961125866274398,0.009169292113935534
105,0.008968178859648748,0.009031066071547142
106,0.008941179236758011,0.009127661129159312
107,0.0089477681513083,0.008838673177228376
108,0.008970055994677727,0.009390756039517393
109,0.008945825487689114,0.008971455818961927
110,0.008932754178566411,0.008691762794946175
111,0.008936764376329173,0.008895221322534546
112,0.008921247635268572,0.008966247911192939
113,0.00891933459943122,0.00908825907846982
114,0.008894749555535481,0.009303519744472232
115,0.008918266470980029,0.008720596628748897
116,0.008886242890482142,0.008648566660880303
117,0.008888150640548374,0.008907914761611013
118,0.008870437205215402,0.008979892623714788
119,0.008871791573960838,0.009009197973657778
120,0.008899005692984109,0.009121764475992758
121,0.008869823348734814,0.00920021139159244
122,0.008842261801822422,0.009061537541578485
123,0.008871794014662962,0.00861640180699139
124,0.008910725457729798,0.00899122172467429
125,0.008849969713122826,0.00880530246212228
126,0.008851178589378988,0.008540995746259357
127,0.008856894876369635,0.008571903414968817
128,0.00882609371028648,0.00860940893654418
129,0.008824832706077586,0.008668193140670324
130,0.008787547461384819,0.008689000395822244
131,0.008802652047569571,0.00870022557897692
132,0.008798564517296747,0.008936097523747544
133,0.00877941905244483,0.008743020181287607
134,0.00875183648548049,0.008630425307816518
135,0.008742583516370236,0.008847974997392807
136,0.008748723105321564,0.008949556346825571
137,0.008750381504235823,0.008651837270716136
138,0.00877219758673499,0.008604895064685836
139,0.008728674375508243,0.008811221335074003
140,0.00872968927838929,0.008430516453131701
141,0.00872281899041731,0.00847593920245286
142,0.008721823641199796,0.008881099450242505
143,0.008727909013264324,0.008535155990431385
144,0.008727096668322614,0.008847061541652487
145,0.008722738057763304,0.008626170765155598
146,0.008728429993246491,0.008483980900189717
147,0.00871981448948571,0.008966412787180088
148,0.008698487903782927,0.008472164546511606
149,0.008708599137691498,0.008781626161474447
150,0.008711352127634964,0.008481097441379249
151,0.008740057321555111,0.008814999905343238
152,0.008701633372152675,0.00866020939523174
153,0.008708369963549862,0.009023156813195637
154,0.00868826942056322,0.008780305288621126
155,0.008721215409322842,0.008556529836354791
156,0.008710897343166399,0.00846223114636119
157,0.008669569279843832,0.0085010197778549
158,0.008678696454582498,0.00857455472048215
159,0.00869224978857949,0.008631291352767063
160,0.008736771520458073,0.008852858929236236
