epoch,loss,val_loss
0,0.5597464428969247,0.5570277358698785
1,0.5560939705196264,0.5560306092941436
2,0.5558965150439196,0.5563424478985239
3,0.5558218921971494,0.5560687039981114
4,0.5558226700692773,0.5556708944642514
5,0.555781013622214,0.5558355980120581
6,0.5557597845485521,0.5559945357644528
7,0.5557441020041561,0.5557720772090088
8,0.5557288035378259,0.5556779885410376
9,0.5557374231302064,0.5556981806423764
10,0.5557239003894305,0.5556994219275917
11,0.5557202053069121,0.555717677099829
12,0.5557039268533245,0.5556586718145139
13,0.5557001247355016,0.5557262005048709
14,0.5557039452558967,0.5558217014331676
15,0.5556974273541658,0.5556583325561164
16,0.5556927063201619,0.5556559559429254
17,0.5556866683193977,0.5556927290211244
18,0.5556758552120368,0.5556779068693629
19,0.5556712197745655,0.5556788587392708
20,0.5556711271527291,0.5556656173677658
21,0.5556690925329829,0.5556322339450751
22,0.5556629815032964,0.5556574105033212
23,0.5556631687845122,0.5556397448106676
24,0.5556639012319705,0.5559483925994513
25,0.5556630300982665,0.555649399047454
26,0.5556593437906726,0.5557800498553008
27,0.5556575618878048,0.5556865278012108
28,0.5556574845400482,0.5556279510777287
29,0.5556600976918904,0.5556994541998832
30,0.5556590371731659,0.5556304203961091
31,0.5556588792016492,0.5557123001396804
32,0.5556532135127901,0.5556731157799808
33,0.5556530549307205,0.5556301267507946
34,0.5556513503527333,0.5556521686667544
35,0.5556495726984939,0.5557731759163641
36,0.55565031699494,0.5560380882719906
37,0.555648848012316,0.5557091293500611
38,0.5556482834732427,0.5556294480860973
39,0.5556479755817785,0.5556358520801251
40,0.5556483205812971,0.5556250060462479
41,0.55564703258504,0.5556793699193533
42,0.5556455993221328,0.5556686065628866
43,0.5556452018860509,0.5556309321382206
44,0.5556487520947555,0.5557205635915619
45,0.5556444166699327,0.555664389423342
46,0.5556422421570337,0.555659012818159
47,0.5556436581998222,0.5556639641745215
48,0.5556409205637965,0.5556210356078136
49,0.5556445738037139,0.5556188646380422
50,0.5556423591008088,0.5556176593226771
51,0.5556404905499004,0.5556384198718863
52,0.5556412054672304,0.5556190722633533
53,0.5556393348022625,0.5556294385907667
54,0.555639906602499,0.5556417774030056
55,0.5556422152272291,0.5556340454825692
56,0.5556388481804797,0.5557029275681186
57,0.5556379464094787,0.5556192878162299
58,0.5556358823695974,0.5556165642241391
59,0.5556374823079512,0.5556775289197122
60,0.5556344155562507,0.5556189037730025
61,0.5556357303466339,0.5556238396883603
62,0.5556352549617084,0.5556128906848709
63,0.555634021654119,0.5556461949206464
64,0.5556304236282289,0.5556107851766771
65,0.5556316008872109,0.5556222876307391
66,0.5556275867449991,0.5556183466544518
67,0.5556294448833758,0.5556182643024264
68,0.5556264619596554,0.5556051610717111
69,0.5556264351607962,0.5556044934405286
70,0.5556249969061844,0.5556354336939734
71,0.5556271956731829,0.555626742952219
72,0.5556245149479537,0.5557242410058715
73,0.5556214196327856,0.5556218655174483
74,0.5556235961800724,0.5556183681890331
75,0.5556242441172143,0.5556089816259095
76,0.5556219021573948,0.5556028318168508
77,0.5556208977527505,0.5556014197340082
78,0.5556222538122566,0.5556494021534032
79,0.5556166606277492,0.555616393692736
80,0.555617744841294,0.5556188045601099
81,0.5556204953454735,0.5556055232845524
82,0.5556183606005575,0.555625324213771
83,0.555620541895801,0.5556011243434461
84,0.5556177560308214,0.555602022909349
85,0.5556155037789071,0.5556203822048367
86,0.5556156088531848,0.5556367602300999
87,0.5556160696810755,0.5556006006804057
88,0.555615749712652,0.5556477991582146
89,0.5556137762862506,0.5556087728469602
90,0.5556165260512982,0.5556533128984513
91,0.555617079295141,0.5555971008672312
92,0.5556146591687612,0.5556052602846037
93,0.5556134754824075,0.5556060602883843
94,0.5556164670011996,0.5555981759102114
95,0.5556140604189994,0.5556171984293916
96,0.5556135921398379,0.5556209743466626
97,0.5556163412895995,0.555636099254523
98,0.5556154260178044,0.5555984459798922
99,0.5556143497777347,0.5555987285029503
100,0.5556133678468047,0.5556285921752305
101,0.5556126345497785,0.5556092021187246
102,0.5556139770264525,0.5556028720758689
103,0.5556120392211643,0.5556082373517323
104,0.5556118831246923,0.555599664843112
105,0.5556118509476027,0.5556115403364669
106,0.5556158982955359,0.5556007787548283
107,0.5556116774598362,0.5556323551066756
108,0.5556126626707136,0.5556011094053094
109,0.555610928669436,0.5556141580600596
110,0.5556106125220963,0.5556002094195439
111,0.5556136254236533,0.555606520945026
