epoch,loss,val_loss
0,0.034246128124318057,0.018063524688037097
1,0.017565321030226337,0.01756154454726883
2,0.01678087316410367,0.01606467532192729
3,0.016565585151282983,0.017259661919869503
4,0.016354250266294702,0.01608625903919746
5,0.016197210389776766,0.016094065024043726
6,0.01609272967417456,0.01556073739366703
7,0.015981653196913498,0.016110211004394456
8,0.015886604655626965,0.015572501741645501
9,0.015792318824513252,0.01539915760576947
10,0.015624358360541657,0.015598323966189294
11,0.01562915543405544,0.015743439158808357
12,0.015513465988193543,0.016072410665840725
13,0.015381487299448196,0.015068941961779783
14,0.015267756057773531,0.015531985729784883
15,0.015152271488864024,0.01599195812627784
16,0.015025163289105354,0.015145596499940746
17,0.014986228138207207,0.01466925999163546
18,0.01487091578795069,0.014408993322596361
19,0.014850379849817762,0.015083094091887213
20,0.014748049917844586,0.014503560488854093
21,0.014704043428591414,0.014599728416975023
22,0.014682720341933152,0.014319572123530189
23,0.014629166646511496,0.014341423701189883
24,0.014652676649504157,0.014366448497764821
25,0.014559584761248226,0.014230515600803769
26,0.014573893020300351,0.014548280368334898
27,0.014550797055979142,0.01410792464663092
28,0.014512930384536066,0.014083995080319586
29,0.014447754015187761,0.01442776070376188
30,0.014391139543254109,0.01493538021486687
31,0.014417995424841765,0.01459783531688431
32,0.014376183183994482,0.013902617379024661
33,0.014310447575462798,0.014052958259123283
34,0.01436216735862848,0.014166310742016762
35,0.01432688894506525,0.01381284921815984
36,0.014325142485442342,0.014485499107512291
37,0.014319366100992686,0.013909501681293802
38,0.014278917345162219,0.014483605692666901
39,0.01428069608111914,0.01378302435591706
40,0.014235174900939125,0.014383192747720418
41,0.014191922470583112,0.014045461900439806
42,0.01414716609876023,0.014354765568640333
43,0.01411549762594211,0.013589262820447498
44,0.014089233683990237,0.013780861504135593
45,0.01388210945508383,0.013467737714350963
46,0.01201288481155629,0.011628688911147064
47,0.010701404085313032,0.009937559709267196
48,0.01045127935640568,0.010453841589372743
49,0.010303898680883635,0.009842878625388476
50,0.010293743442343933,0.01017554778300651
51,0.010180410281383973,0.010080895733282377
52,0.010148268394983501,0.010031161300153945
53,0.01013692409112008,0.009973176529922202
54,0.010098326502286531,0.00983270249900318
55,0.010084592326364286,0.010292804635432607
56,0.010064103501424745,0.010113302732427274
57,0.010028872787104926,0.009777859108009499
58,0.010032942468624547,0.00956986243270393
59,0.010000476566459,0.0104907173732707
60,0.010001001617731221,0.01029034427623669
61,0.009980564550149245,0.01026051311150526
62,0.009954491861964145,0.009947782659223742
63,0.009980391708087824,0.01005386008647624
64,0.009967351200720464,0.01013375041410142
65,0.009909649216769324,0.009872751023444733
66,0.00992581074053431,0.009794793673155474
67,0.0099198977454677,0.010050194425781075
68,0.009919684050143656,0.009674718480316861
69,0.009871403271057599,0.00953977731987834
70,0.009919503582246206,0.009523860197144539
71,0.009880667882698396,0.010021424624911757
72,0.009854377226834297,0.010085236336157724
73,0.009858082901503076,0.00981382680617772
74,0.00985276490835248,0.009901661551083732
75,0.00980306528418441,0.00946868841094947
76,0.009838737973605167,0.009664093137767268
77,0.009795784045359517,0.009807830182350156
78,0.00978625329774553,0.009678608139343653
79,0.009823047622244632,0.009853851978225685
80,0.009797432862649247,0.009519251244184249
81,0.00980958547968585,0.009387543126848289
82,0.009782086215002988,0.009790811539343362
83,0.009801690260392607,0.009858724794283546
84,0.009767503611930994,0.009415817377677478
85,0.009779086640968838,0.009609768918204692
86,0.009757975122571805,0.00954820708263083
87,0.00974476794295017,0.009702650838006963
88,0.009763768268066905,0.009546453467854495
89,0.009767989404569046,0.00955730170316569
90,0.009741162896218234,0.009851674742941229
91,0.00972287082131752,0.009507693171445696
92,0.009735450043723778,0.009661745269859103
93,0.009725092171850023,0.00953586474892963
94,0.009710313816040763,0.009601115905414001
95,0.00974785856482499,0.009488098752261982
96,0.00971239974918216,0.009606279190121306
97,0.009699944861051212,0.009645133197686586
98,0.00970926848867993,0.009745437347286244
99,0.009758329686052579,0.009518184947316759
100,0.009689007279847802,0.009676681812529085
101,0.009693871008047132,0.010365158091149022
