epoch,loss,val_loss
0,0.03450679503483011,0.019316485937379727
1,0.01845570021311658,0.020281008558888588
2,0.01704744608208224,0.016562497462365527
3,0.01660858183769418,0.016360473947567178
4,0.016381267887643436,0.015393500132647992
5,0.01616955846785715,0.016111768326414727
6,0.016026624629176863,0.017744052743368204
7,0.015946570938796638,0.016017558247257698
8,0.015686477025407618,0.015165880478678211
9,0.01573773920051898,0.015323977350319734
10,0.015557630530681004,0.015814592808522005
11,0.015496376281488632,0.015303542813004247
12,0.015305727207793475,0.015178641384795641
13,0.015121008399620807,0.015042161672068738
14,0.01506004495053155,0.014960449592443761
15,0.014981265334632761,0.015575890468604511
16,0.014993049265804161,0.015095945480036971
17,0.014933458227747602,0.0157206369670242
18,0.014907015747063828,0.014674337170833246
19,0.014938800584472264,0.014813292636616945
20,0.014854952023590886,0.015658955820477927
21,0.014854838143180685,0.014536368963366407
22,0.014851789634610547,0.014831310055835666
23,0.014804285775653995,0.01594810367517968
24,0.014757170776947662,0.014428295476117146
25,0.014724037501357983,0.015818784993243573
26,0.014793867155094285,0.014696365925333191
27,0.014711457823298697,0.015301112989633906
28,0.014701883073432388,0.014539801143571993
29,0.014703431544631112,0.014583975632233596
30,0.01464625655217366,0.014650124628512794
31,0.014670755724901218,0.014630351719855522
32,0.014644629840240175,0.014336820750984898
33,0.014637013210230436,0.015027081648410106
34,0.014643220152497903,0.01419411563631101
35,0.014603501462912323,0.014236210431746454
36,0.014597050716378452,0.014222396005213113
37,0.01460976147640461,0.014261681898485491
38,0.014571990212063839,0.014400083018425233
39,0.01458800533786342,0.01449309735473421
40,0.014536856287132095,0.014373757159591608
41,0.014562878236743525,0.014362264378342971
42,0.014553640129599569,0.014571574836895425
43,0.014537625538181763,0.014565835542348271
44,0.014512438193392329,0.014233778829850424
45,0.014482468418919767,0.014618987073802919
46,0.01448106323139286,0.014543213640286521
47,0.014471399742955676,0.014305736644484713
48,0.01447081400569085,0.01461227149667944
49,0.014466835339090649,0.014820073972971505
50,0.014466451947280735,0.014156089410666496
51,0.014458109959196299,0.014258991352862519
52,0.014470049609890847,0.01405381500610051
53,0.014412955464111293,0.014421243901842877
54,0.014415173816702364,0.014062851314287328
55,0.014405389048351005,0.014091125268849635
56,0.0144300585202538,0.014166536725244067
57,0.014419734799924994,0.014433783459160522
58,0.014409591816693575,0.014083393973300681
59,0.014412483306589886,0.01429817956819132
60,0.014396164348204447,0.014394628723376147
61,0.014389381629365592,0.014170486183268556
62,0.0143851314555688,0.014114913368417371
63,0.014368077345461916,0.013930370652165366
64,0.012494271778208114,0.011030224824402824
65,0.011046176722908458,0.010570593007260161
66,0.010847859969190677,0.011016784911101717
67,0.010726315317381952,0.010520622864938699
68,0.01071570096482869,0.011043487655613618
69,0.010553487962145676,0.010343773072358987
70,0.010528939475603691,0.01066106905555237
71,0.01050394043655763,0.011316228459679311
72,0.010433185279000676,0.010049047497639584
73,0.010382451327027248,0.01066562761980162
74,0.01038079577826007,0.010543594980339702
75,0.010372392839186067,0.01086160923231846
76,0.010373020877496678,0.010582044825567944
77,0.010365038704713714,0.010427088488734538
78,0.01036228782136667,0.010620632204261814
79,0.01033907704546059,0.01103535303360697
80,0.010298882902715816,0.010000253023196095
81,0.010303011300277614,0.010419039754081453
82,0.01031749587949476,0.01040615817906321
83,0.010275732376481765,0.01004202098957732
84,0.01028691591397341,0.009966099916705422
85,0.010269529933591533,0.010187128468164735
86,0.010276944885587424,0.010263312461487857
87,0.010303420882760173,0.010385438405605907
88,0.01022320842894148,0.01030773805135459
89,0.010246714977174928,0.010188563334438997
90,0.010237281897235224,0.010323336455628978
91,0.010219494924228783,0.010384258995336427
92,0.010201823556898339,0.01038544727142706
93,0.010232562022081412,0.010292796143989261
94,0.01021151011642697,0.010364500337994425
95,0.010196033027675093,0.009992223157184591
96,0.010218693305612193,0.010080924931053932
97,0.010206621285657164,0.010132109215275081
98,0.01017323536418981,0.01017026788700677
99,0.01020018256510444,0.010225432648533775
100,0.010157327885622031,0.010338455679417395
101,0.010162045787670099,0.01049587070415023
102,0.01013170160955454,0.009961322068280676
103,0.010148697536941038,0.010769128237409569
104,0.010114825608083328,0.010578584934933754
105,0.010124678663076285,0.010046398002312289
106,0.010149926764840535,0.010200583967599769
107,0.010123153316097817,0.010093336933230052
108,0.010098299995232164,0.009903517039608276
109,0.010115201849560364,0.01059484818982649
110,0.010108283937148068,0.010132274240088966
111,0.010097452115023817,0.010264294416119087
112,0.010076451203967083,0.00987053530997881
113,0.010080569748510487,0.009966448842369888
114,0.010073241809801188,0.00994549701105868
115,0.01006770986739783,0.010248778733163702
116,0.010080555397446006,0.009892119263661632
117,0.010084158705483582,0.010423695213316243
118,0.01006442176557253,0.009789060426889814
119,0.010071054353181124,0.009905474337635946
120,0.010053455022969613,0.00990110722696293
121,0.010039771437530874,0.010139741456464266
122,0.010067395559321885,0.009977704860621292
123,0.010051780599282396,0.010259137209273746
124,0.010026087506412845,0.010085527778651668
125,0.010036794095866627,0.009857276205907093
126,0.010032201507836933,0.009749224849932691
127,0.010025781185530179,0.00982439665415003
128,0.01004870329539681,0.009813719111085677
129,0.01004247685809793,0.009783868775899447
130,0.010023366092755375,0.009760846139830779
131,0.010010462469093581,0.009849365554731478
132,0.010014483960484492,0.010065399902981357
133,0.01003751157217986,0.009929709035265386
134,0.010024960052981112,0.010739211354025687
135,0.010006475923492813,0.009827240283321359
136,0.010017744783313118,0.01009619760260023
137,0.01002258475992113,0.009638509042468615
138,0.010044414482904671,0.010159996241127735
139,0.010001826625497237,0.009847126885435126
140,0.009987788780461448,0.009915534456355252
141,0.01003357535130146,0.009865688692510276
142,0.0099973256458569,0.009786352001259995
143,0.009966517780132909,0.01015225678090718
144,0.00998576169620582,0.010086245413767937
145,0.009990379861988679,0.010114199560939821
146,0.009988576238774393,0.009989248755995748
147,0.010009650953308873,0.010137375620270042
148,0.009972168196545528,0.009940580580448246
149,0.009976073084959788,0.009977090734498524
150,0.00999185596673271,0.009924453646221913
151,0.00997573902664803,0.009685454816180779
152,0.009965282648939257,0.01006610338846522
153,0.009975428668924917,0.009955576856715359
154,0.00995202997340685,0.009809323055923873
155,0.00999223497779775,0.009819785722302592
156,0.009971912032414135,0.009949786705484905
157,0.009934804984557887,0.00996758629228208
