epoch,loss,val_loss
0,0.036421625621599486,0.027780469572610655
1,0.024005980646395423,0.019521396028492646
2,0.018521639608242924,0.016361750978468075
3,0.016934739085546942,0.01578299621161693
4,0.01664165642716785,0.021056570240271
5,0.016127247197872226,0.01912401562866295
6,0.015923741313343853,0.016557421232515912
7,0.015749861498421332,0.015880305936592388
8,0.015578036212318755,0.01606732794076722
9,0.015401375188487222,0.015797398141388856
10,0.0153468267578645,0.015192906772972041
11,0.015144615455975495,0.014775875889264028
12,0.015123169867914973,0.01469131816021414
13,0.014945173384381024,0.015654271579909118
14,0.014889993903775718,0.014871773024369263
15,0.0146919691500488,0.014437485095252174
16,0.014683442898669512,0.01450939612513958
17,0.014518970592071603,0.014481228169414304
18,0.014389956470300502,0.014657961053048115
19,0.014356728577755504,0.015173736670361855
20,0.014344734540113898,0.015273103814932607
21,0.014260032783622692,0.01393521085899166
22,0.014256365079086578,0.013883689689281265
23,0.014219290951999978,0.013650348965568519
24,0.014208118990598591,0.016022843847203788
25,0.014153618807935545,0.014055447536925081
26,0.014148628421493024,0.013501526426902924
27,0.01406452380262694,0.014295051480752066
28,0.014068292149902751,0.014294826991800635
29,0.014042285311391733,0.013842124801600542
30,0.01401080706690075,0.014087498862823246
31,0.013991657879704316,0.013800654820081023
32,0.013969694755919566,0.014212159058610648
33,0.013925000003679746,0.013508850917978115
34,0.013955332838212146,0.013600106857180891
35,0.013906167458843531,0.014542761483407642
36,0.013927755439588298,0.013786701743881549
37,0.013859020048623922,0.013733374647722204
38,0.013829177683272683,0.013787106616380936
39,0.013823447783271067,0.014334059192824452
40,0.013782485348235628,0.01347323664494099
41,0.013784201245913117,0.01390036575995367
42,0.01381709977618215,0.013694320959281685
43,0.01378450334829684,0.01394778125625908
44,0.013744898546085333,0.013578041495001938
45,0.013720059827402674,0.013716357572942454
46,0.01373908286325813,0.014023965280549253
47,0.013705981280362062,0.013718629450474869
48,0.013740757587211553,0.013584506015753183
49,0.013703270388556827,0.01393404950390087
50,0.013683460084477525,0.013660334487429475
51,0.013715468095387116,0.014334365082142074
52,0.01367877358470489,0.013734076524305876
53,0.013686663053095719,0.013849268431218326
54,0.013632551419453205,0.013718908423414597
55,0.013623263548727187,0.013720255516118211
56,0.013651479358234315,0.013386369664822855
57,0.013614258281002597,0.013735893611835488
58,0.013635198311164541,0.013434730575560931
59,0.013582629014965517,0.013380428411935458
60,0.013576672345515618,0.01347773380429662
61,0.013578844851265988,0.013128496274795782
62,0.013561963086924356,0.01348546191347444
63,0.013605130437701249,0.013548763937989329
64,0.01354256697801262,0.01367222139098804
65,0.013566630202046055,0.013209083698061353
66,0.013567366377419947,0.013730065639202411
67,0.013537779323291976,0.013519619622038997
68,0.013515086937879391,0.013302934353722828
69,0.013520201222258154,0.013941601186380641
70,0.01352568176986909,0.013271197624430615
71,0.01351117023479133,0.013157670988837631
72,0.013518009354239847,0.013630250379646535
73,0.013520853305456253,0.013643998675344157
74,0.013514661597371046,0.013261031485613315
75,0.013477674928883023,0.013371464202906152
76,0.013483823794663072,0.013246863938535266
77,0.013488714888876685,0.01327494184391818
78,0.013496817418423016,0.013465112221263183
79,0.013430964726419725,0.013063964163121899
80,0.013464917893435962,0.013198502762035163
81,0.013449914888449913,0.013067655035158245
82,0.013520273522032214,0.01360529975979485
83,0.01348114876670838,0.013242857466930196
84,0.013449550356905088,0.013230463059586715
85,0.013465758589182288,0.01362886238547398
86,0.013477234070473115,0.013110443545278929
87,0.013434687218633766,0.013386455791131143
88,0.013425286893538634,0.013722721277447256
89,0.013395086556365012,0.013223469501393605
90,0.013397533764300213,0.013486158040816671
91,0.013439396864029785,0.013503913052158232
92,0.013445300101785044,0.013109146445878682
93,0.013450316690843562,0.013404040751290085
94,0.013407898143260618,0.013453751012091305
95,0.013419894527672168,0.013128075101609266
96,0.013420229166561454,0.013383682028716315
97,0.013417240931155636,0.0131353335723133
98,0.013422638433291797,0.013386407106763525
99,0.013405334492259025,0.013229271636873706
