epoch,loss,val_loss
0,0.5346653579855614,0.4689744201201384
1,0.4698280770358422,0.4615946921101685
2,0.4605080637690737,0.4505532411204235
3,0.4537134114191305,0.4415778978047826
4,0.45291758774758145,0.4445299349295971
5,0.4540201642697187,0.44798488946721227
6,0.4555949382096839,0.4506825685689274
7,0.4568730226452116,0.44973445108017773
8,0.45846293145994677,0.45871508871840977
9,0.4584093889791807,0.44959269495770604
10,0.45726294109194304,0.4521803567751995
11,0.4568102166449709,0.44634972201056056
12,0.4545246364949323,0.44721424457306175
13,0.45183079493798606,0.4421398620626168
14,0.45041457810800234,0.4524066120315558
15,0.4487410291231317,0.4360935586874374
16,0.44286531894851167,0.4346183878329201
17,0.44027171783643565,0.43142133970004704
18,0.44062076025396035,0.43077470022294123
19,0.4393814467816806,0.4380434825134353
20,0.4392340155980951,0.4371600270083126
21,0.4387253067380995,0.4320443749615971
22,0.4379001258374404,0.4323666186293186
23,0.4383042419223572,0.43108386824520534
24,0.43766341214890864,0.42928607958268256
25,0.43727905802923045,0.43555008948743107
26,0.43698618405585665,0.437409436975583
27,0.4367640435719471,0.42669457766420743
28,0.4359028597267793,0.43174563591745585
29,0.43581964251854055,0.43007524893711
30,0.43615886158079836,0.427049344839218
31,0.4360275445796317,0.427030861401238
32,0.43493606490816333,0.434732594213433
33,0.43460029142080164,0.42479505165882153
34,0.43507237140413857,0.4241702871333922
35,0.43463125939277725,0.4226912297690677
36,0.4346001224099494,0.42617856569429413
37,0.43375920921826155,0.4255137894693659
38,0.43421737802066773,0.4414016405898187
39,0.4343435130983615,0.4225537345319069
40,0.4341290690582528,0.4258880346143161
41,0.4349793097455439,0.4284194798665246
42,0.4345504116835735,0.430197368904466
43,0.4343123294347577,0.42531875907292777
44,0.43516274233706753,0.42807436292813156
45,0.4339613554050787,0.42370838451404313
46,0.4347785514393013,0.43481175327451566
47,0.4343612381784941,0.43369389076635606
48,0.43401025087951567,0.4208262142884797
49,0.43364474962321786,0.4236954828605185
50,0.4331062331879072,0.4226518238070638
51,0.43325920220759273,0.42228255423863476
52,0.433154722281116,0.42337217515344777
53,0.4315252625923172,0.42186013089923663
54,0.4317418630841634,0.4227575105104093
55,0.43258772857135813,0.42435931658406095
56,0.4320783871326515,0.42004250510997815
57,0.4323290273320856,0.426237975436115
58,0.43093101469447,0.42510824720503876
59,0.43107560194796507,0.42277971627492084
60,0.4316175955591156,0.43357866292124014
61,0.4304455398655624,0.42043528318311063
62,0.3816081484754404,0.3250983845510159
63,0.31634839288860583,0.2886764808442523
64,0.29731134389587444,0.27390387030972585
65,0.29289776380423255,0.28855852260538795
66,0.28522697262626756,0.2540453054487188
67,0.28030427666209773,0.26282275930905585
68,0.28027677868338796,0.26101543645550157
69,0.2775200379730986,0.27877403682813745
70,0.2776626070662082,0.28919590066386286
71,0.2816727445137015,0.279646817503619
72,0.2826632718435771,0.28624396422479503
73,0.2853645767799194,0.2832357344565282
74,0.28728518840506206,0.27043609571626265
75,0.29089403549115433,0.2704632613328657
76,0.2931315802472482,0.27423651295331114
77,0.2940299844117664,0.27298475864277927
78,0.2949144675327148,0.3040536411676994
79,0.29446626089507344,0.2767278139715413
80,0.2972069985860829,0.2755185286055048
81,0.2983447519554604,0.28014939120179005
82,0.29882034966104226,0.2811883819460775
83,0.30161654026650314,0.28634892491110686
84,0.30524116590154543,0.28738889220481606
85,0.3068163861378396,0.3057222184861092
86,0.3075946004842397,0.29156982768165285
87,0.30859467501548843,0.28750058392322997
88,0.3086782328659396,0.28594112522082715
89,0.30905268759393006,0.29234139481302124
90,0.30977336204142497,0.3006246048771874
91,0.3065966564259655,0.30612038999160823
92,0.28695230711278297,0.2574483240765667
93,0.2662892679540183,0.255509724086349
94,0.2656963775984103,0.24313612940891013
95,0.2663562652304304,0.25346508938539847
96,0.26869636379795775,0.258763518898903
97,0.2676813083467819,0.2518178845308104
98,0.2678575329869676,0.24526893139920464
99,0.26575676249347624,0.2500706190138985
100,0.2668803440009376,0.2502135303703555
101,0.2634405348834088,0.24561034534611662
102,0.26288544951821213,0.24494407624123882
103,0.26114019103568614,0.2507316193527938
104,0.2615517335925266,0.23775196347118083
105,0.2617412310043018,0.24463041470148664
106,0.2615232121089189,0.2433178120696272
107,0.26360265367465624,0.24808009408690748
108,0.26379877084688985,0.25691700984901017
109,0.2636744463555723,0.24253460679029798
110,0.2599037558936196,0.24407161705213545
111,0.257024614603447,0.23787619313482422
112,0.26091898032586924,0.25173523758656413
113,0.24937148604223386,0.22272600512290058
114,0.24046844392895794,0.21034912220492735
115,0.22939192986102414,0.21457140504043687
116,0.21085374824982658,0.18876148589784553
117,0.19600539620843627,0.16471552106698104
118,0.19443864867889243,0.17471899797856197
119,0.19413374012394202,0.1691914286226293
120,0.18145640188460346,0.16968936272606477
121,0.18712969721971656,0.16042891915684718
122,0.18131004939440915,0.16822466190725024
123,0.17891655395106731,0.19135088594108468
124,0.1751229248934989,0.165722979090067
125,0.16205176443671532,0.13423444121934902
126,0.16375359188881425,0.143365901601578
127,0.16122038816388468,0.16819551898770757
128,0.17540157530054773,0.15719754858076243
129,0.17017552993899818,0.13964908390108205
130,0.1635059802789244,0.1439854070344306
131,0.16581951733008563,0.13334765099430046
132,0.1562889262372784,0.1967043113477981
133,0.1535569684033533,0.12281956718889107
134,0.1416821068079828,0.1599045693991969
135,0.13424622713268805,0.18978482049661258
136,0.15002441526257354,0.11913734902028691
137,0.15603224477238603,0.08456631164171607
138,0.13846995993007383,0.08683697683494111
139,0.14854393551330106,0.1127714921191817
140,0.1560444180800808,0.1051659860134407
141,0.16042311579810917,0.13468668560461444
142,0.15405840292382392,0.11041801858578691
143,0.15304915029868232,0.14150808181175586
144,0.15701096462938996,0.16751850024159723
145,0.18744971956923712,0.16294189561349534
146,0.18430739068846813,0.16054997763110598
147,0.16638482974575672,0.1092175396707647
148,0.18001404920701597,0.12571400131709762
149,0.19992131294666243,0.26373594316000437
150,0.18929505591198123,0.17500256935771094
151,0.22059153891700825,0.23542807088325413
152,0.1897742568189911,0.2620337076232296
153,0.20869912761900064,0.21303080732698224
154,0.2367565612540209,0.1565915888326791
155,0.23677641315032824,0.12011960493408043
156,0.2229874683655709,0.36033008208214623
157,0.23982271566379557,0.14231571244059724
158,0.25619916016046856,0.21014262971063252
159,0.2285105773209811,0.1627681214412367
160,0.24537612839365938,0.1626551857228437
161,0.2635137414861974,0.21798788040476516
162,0.2915599403395165,0.28248789655992906
163,0.27848930756667917,0.12092581115539561
164,0.2660983299090565,0.24501321688823655
165,0.3174719723175279,0.34695446999315777
166,0.30214785523921084,0.14493604408372737
167,0.2818158631571096,0.21422561442136953
168,0.31588833680231987,0.45223138942997004
169,0.31965725306126713,0.23514389060290666
170,0.28326403797506616,0.25003489750807173
171,0.2944655708795924,0.4197481237204882
172,0.2856803495380328,0.23266547454937106
173,0.3220015412195028,0.34182144801449194
174,0.30157432440135307,0.3483220264021581
175,0.29439544751585056,0.20129615742339801
176,0.31290017340561566,0.24738078635559368
177,0.333661149511282,0.15151307209091291
178,0.3388312201943996,0.2343557988835209
179,0.3008948689003547,0.20041725726323328
180,0.3075086060199711,0.251760651934495
181,0.3215478583187651,0.2759381484566661
182,0.30401392689616463,0.48572162003054237
183,0.32139177427744026,0.321693491023078
184,0.3152433121316343,0.3751364317623385
185,0.30584958427958636,0.23577985681458166
186,0.31187575372110166,0.33142916523008337
187,0.32446295204613324,0.3190686002714764
188,0.3225758047900993,0.3739281629565765
189,0.3726052207549175,0.1300737571144725
190,0.19924117255804064,0.20520907344080466
191,0.1957659349262381,0.1755567151985492
192,0.21935870874223473,0.21079689090234988
193,0.22968774414558013,0.2524312035296033
194,0.2092764934243487,0.2598803425832536
195,0.20485817301247142,0.22911866558473132
196,0.22118976056504308,0.21595686832891267
197,0.23988750458752317,0.3045436466125964
198,0.27667663638576045,0.1258530588416293
199,0.26585387866750515,0.35799536264215576
200,0.5198985285384001,0.5088429079106593
201,0.5142771884810915,0.4918773326943404
202,0.4800404481274142,0.46666209791340785
203,0.4704751667382715,0.4751569483349807
204,0.4723994076418743,0.4645608843737168
205,0.4722253302995154,0.46750197746006633
206,0.47245390008060006,0.4687384587860333
207,0.47215428172970275,0.46454076446598686
208,0.47317264662038605,0.47161106695880456
209,0.47207550388827124,0.47425381252402476
210,0.4708406254708719,0.4741379847513378
211,0.47003910812637884,0.4657541015718335
212,0.469772751335141,0.4668684400671001
213,0.4687364461967985,0.4633701938338983
214,0.46806930801231894,0.4617486579877331
215,0.46649502665638254,0.46601102452345883
216,0.4659962760006114,0.46141851211779683
217,0.465151411940535,0.4598468704870957
218,0.4645428135216855,0.46282307807159123
219,0.4662467412215819,0.4594801966139154
220,0.46550401614057263,0.458608639997672
221,0.4645174078875594,0.4622745966008073
222,0.46382562302761704,0.4574661445175463
223,0.4635866482457002,0.4595690935779578
224,0.46342193148881317,0.45395910634049863
225,0.46305371812588686,0.4686531362894867
226,0.46633718788719103,0.45997022578070834
227,0.4656001644002067,0.46423172739047
228,0.46440285940965015,0.461188718123801
229,0.4636051211830714,0.4616633343856544
230,0.46343544226803846,0.45789063607225666
231,0.4633455997128948,0.458508280335963
232,0.46430650327226625,0.458474261231938
233,0.46489025751273216,0.46149579847809263
234,0.46459826931869574,0.4531072033561866
235,0.46421782249550547,0.4548855673024856
236,0.46368557173047037,0.46141229900395486
237,0.46487843233952036,0.46072812365469445
238,0.46617869540846507,0.46883631886321914
239,0.4663668903444025,0.4612140652224504
240,0.4663853159101366,0.4667271029177668
241,0.46834112473910183,0.458940473826927
242,0.4683177083444824,0.46392110872193404
243,0.469015943239347,0.45831438936675356
244,0.4709522023880415,0.471958016398956
245,0.47390381006790483,0.471500923690969
246,0.48534032827515683,0.5133880614152365
247,0.47724250520018935,0.4589308131465596
248,0.47034618447867516,0.4658174267554716
249,0.4820534585596179,0.45935819256277466
250,0.4618749776594549,0.4528853098237806
251,0.4610625998579341,0.45404999834303794
252,0.46125459737724345,0.46879084696427237
253,0.46727434570173754,0.4678122796406403
254,0.46459849334830383,0.45972633375929584
255,0.46671713094154804,0.45167268962020846
256,0.46610259285552513,0.4546376876974068
257,0.4619432839867975,0.4660706238287494
258,0.35790344459309187,0.2818356180341581
259,0.2891676138333089,0.24926618867110528
260,0.29565103284770444,0.26416762107314323
261,0.27070401996660004,0.2523751659899503
262,0.2648183728496043,0.2567758853499496
263,0.25982386561082327,0.2191561331712268
264,0.23454898075281763,0.20703701206851213
265,0.22798386855805805,0.19877956414796652
266,0.22329086844893478,0.20224331793299602
267,0.22188435689055566,0.18925339872665828
268,0.21981253248038624,0.21840755228650033
269,0.22306199258656428,0.20003949181009864
270,0.2197745214406249,0.19738403896506415
271,0.21978728504156134,0.20851472542336727
272,0.2180503507574304,0.20034786855365314
273,0.2170807565156695,0.20135376361899238
274,0.2174783019567851,0.19570291765628128
275,0.21855411835783106,0.20154372353956468
276,0.21717760551700013,0.20791917587700282
277,0.2148399264882985,0.19569775098736303
278,0.2177431290503219,0.1966272651937503
279,0.2166647636097112,0.19730488080957695
280,0.215842279723937,0.19694326284040875
281,0.21694446048385901,0.19923101065661272
282,0.21390359341907653,0.2012606317731651
283,0.21561546901242434,0.19777257238303758
284,0.21732125661189228,0.21245340372552624
285,0.21587559934571493,0.20309777172089752
286,0.2186469898330603,0.20763554684553168
287,0.2150410511058202,0.1929779620789691
288,0.2169192190543353,0.18532592935550843
289,0.21749486105976631,0.2093931448887725
290,0.21825926421548156,0.2116764112895365
291,0.21605484951719298,0.18152330640553488
292,0.21659865241042145,0.1873530099122846
293,0.21366342520423168,0.20679893967384602
294,0.21722259465381683,0.1946969880842278
295,0.2168898024647642,0.19479663731220112
296,0.21575830548072605,0.1956121055225547
297,0.21717663525010375,0.193744008171342
298,0.2142576763955809,0.1913367510429968
299,0.21559584831043208,0.2018211467960451
300,0.2167060376642991,0.20674095222257496
301,0.21846549578612562,0.19315630811448162
302,0.21862659384783129,0.19096072712044312
303,0.2185006842767592,0.18859772050154897
304,0.21563304876752323,0.20915059098457858
305,0.21692249679165207,0.21481131462949227
306,0.2169790109463161,0.18432652792689738
307,0.21572814087906805,0.2056890654935551
308,0.21667702041631884,0.1948363585155031
309,0.21903408627263266,0.20564428576354257
310,0.24421873782797873,0.24653368953089122
311,0.2568902422567542,0.2496883894339639
312,0.26348278288551563,0.24778244227476728
313,0.267680887927969,0.2605545446453079
314,0.272360549329949,0.26280200911866647
315,0.271978513502198,0.25601007681760435
316,0.2741772228067251,0.266942824577382
317,0.275994675396253,0.2547559234906861
318,0.27819209526792515,0.2639646397487517
319,0.2780867905663453,0.2704667832875873
320,0.28152471217367764,0.2581194673430383
321,0.28167205111538285,0.26092376628774494
322,0.2828245549369678,0.26309095157255974
323,0.2852065153211522,0.2759639988546778
324,0.2865139296789059,0.2754689317311277
325,0.28738003403401013,0.2717961656031123
326,0.28864580980665105,0.2791063850003147
327,0.2881953455597091,0.2727087688262574
328,0.28876131709269004,0.2733742498984559
329,0.2907210617578573,0.2761795212644804
330,0.2908092746369654,0.26656286027973436
331,0.29104175418019773,0.273360877205936
332,0.28774991545150225,0.2713378768858236
333,0.28742395635012336,0.26535306722749
334,0.2853982659588329,0.2602581149871272
335,0.284456383660257,0.25791525900740275
336,0.28478151258471296,0.2543904677139273
337,0.2867518960714912,0.2592637477399989
338,0.2868000044108485,0.26945714489060685
339,0.28685142429803107,0.242925099669805
340,0.26627046968653906,0.21960370209664928
341,0.24957783058059396,0.29869825818120915
342,0.3053960538656115,0.2716533232953667
343,0.27811366663895826,0.24445364407271783
344,0.2725094383318933,0.2532574633561257
345,0.2666291447875978,0.23668234764165358
346,0.2613725378680572,0.249478300173356
347,0.25889700390309167,0.23826173313650073
348,0.25873652925427487,0.24065820650501146
349,0.2529749491160436,0.23085628331130945
350,0.2529724633796133,0.24503338933226249
351,0.2507643064172815,0.22325794090646972
352,0.2409245050270304,0.22492427097217435
353,0.247966447316533,0.23441686953440743
354,0.24700578363488712,0.2058210198862306
355,0.23297848721607317,0.21405668902463018
356,0.21476048543203555,0.1847892000083389
357,0.19945044610068666,0.17810514001227215
358,0.19451188459861382,0.16402846725911913
359,0.19643667517758484,0.167966098163715
360,0.19232716698416893,0.17602267329769994
361,0.1899133463629144,0.16001101763773454
362,0.18652156752933988,0.15640862104971764
363,0.1793779124476784,0.15454024698617613
364,0.17431087644218352,0.14443210950496166
365,0.1711560005395056,0.1406327077814605
366,0.1648389274220196,0.12307611558859802
367,0.1583778520377515,0.1251466037277735
368,0.15014978650388577,0.12666658830153443
369,0.1423183562432071,0.11010899514124538
370,0.14110819052615992,0.1223710495464051
371,0.14259309700126652,0.1065484138871613
372,0.14761649416409714,0.11501098510639443
373,0.1339801154423246,0.092842351642291
374,0.13239794641101865,0.09954276491594578
375,0.13383745582853193,0.1409460915092323
376,0.1453268315485246,0.11828873185374743
377,0.1475429498820568,0.1334848998742209
378,0.1425410619617509,0.11545198324894285
379,0.14053227966852325,0.11637276357544062
380,0.1426797526584064,0.12084841823474385
381,0.14985437702825316,0.14246982985838436
382,0.15102515571551928,0.13034021889095523
383,0.148910286987452,0.13307974509888967
384,0.14466768300397503,0.13688465296610566
385,0.14411582111966886,0.10290184720539162
386,0.15077916952333958,0.1316775760268638
387,0.1533293731713133,0.1338527800299186
388,0.149516474693823,0.13785956783518608
389,0.14694227037324512,0.13541149335671526
390,0.14363358595031056,0.13778788824554683
391,0.1442726604062781,0.12507374791080028
392,0.14875777687826794,0.09832736987976362
393,0.15092365836782706,0.11873678469055736
394,0.1486975425105396,0.1486140956136309
395,0.1431559354936381,0.1251405192614072
396,0.14927765012954733,0.11203437242083598
397,0.1507895037049441,0.12397229200451038
398,0.14680131249052347,0.10671632814543776
399,0.13713274570963652,0.10323954163664613
400,0.14172119109464779,0.11214412446556453
401,0.14480930705555528,0.10810420798592052
402,0.1486823782205677,0.1167291149602881
403,0.15136854552762877,0.14784137179579618
404,0.15563064366638613,0.13435430477219673
405,0.14902501887709593,0.13412257478570222
406,0.14835924572414821,0.12956558809495858
407,0.14571694454414952,0.13930227737447456
408,0.14460448450822053,0.11741336763210906
409,0.14245259568845625,0.11300268698110294
410,0.13828543179648387,0.11006907725320055
411,0.14009726759519794,0.10584222273085186
412,0.1379707763812763,0.11285730403713476
413,0.13914954470251675,0.13105173613626184
414,0.13964037852976724,0.09967070650941477
415,0.13545293953540705,0.10190969255724194
416,0.13237001653090655,0.09972339475140764
417,0.13536042292757952,0.1279857636097857
418,0.13783418625104818,0.12019786268072798
419,0.13929556068971002,0.12394118841205325
420,0.1395001732628885,0.0982312570960388
421,0.14011318032011139,0.0865018650677699
422,0.13402494340301227,0.14065311852057524
423,0.1359869571183797,0.0998286028946114
424,0.1355748899418006,0.12397152124871018
425,0.1339578534886658,0.11895644487761661
426,0.13280976222430488,0.11086187679864519
427,0.13293185803017837,0.12595699522306153
428,0.13520459455254075,0.10441062311276547
429,0.13171983883082627,0.10712905842061107
430,0.12870316110330995,0.09497912335132368
431,0.12566037039063294,0.12207099556005556
432,0.12311210719158323,0.09238806488058561
433,0.12527478977942544,0.11180611411087515
434,0.12771488739241607,0.07959234345213297
435,0.13035688277402466,0.08913144822678608
436,0.12502832168178687,0.10847731028707741
437,0.1248868959788367,0.11110923208749096
438,0.12227998350521357,0.10862571059269706
439,0.1260940961801796,0.07699820190820998
440,0.12939970013942365,0.14354593133305413
441,0.12549151361381694,0.09195452601587857
442,0.12283879134366267,0.09493636037057653
443,0.1348837654885771,0.12942207665803776
444,0.14161896398908896,0.11659994965452986
445,0.13250048066988931,0.14074144498301758
446,0.1287500688197206,0.11371018572312787
447,0.12883616492247504,0.13125053109878992
448,0.13364422990442465,0.1237678118608745
449,0.13415053492184165,0.06662959657791757
450,0.13810720940907414,0.13452855632849914
451,0.14323531495605252,0.14455974939990063
452,0.13244267796679177,0.07802949761993883
453,0.13325941461405688,0.10487468651809745
454,0.13946270659494459,0.0799387811691204
455,0.13913301262054606,0.10683555231262777
456,0.1316317335771714,0.10819272379425443
457,0.12423366882043968,0.10503186175530599
458,0.12787298954350296,0.11824108986000235
459,0.12714875565408518,0.11360479490250797
460,0.1408480167609277,0.12238661159232742
461,0.1364308868785747,0.1077152642391287
462,0.14090619796959997,0.13497385277391516
463,0.1469279292533152,0.1408992611642136
464,0.1503485757068431,0.0923115302703469
465,0.14062937349974394,0.1257514751206822
466,0.14272600834479007,0.12403336163807216
467,0.13844514400553073,0.10487621138203115
468,0.1405453381599854,0.0939429995045948
469,0.14358418307108559,0.11276699629066117
470,0.15419157874062478,0.11428162330892393
471,0.1510816429861539,0.12843276753774663
472,0.14326392332736632,0.07886595696493125
473,0.13607115710346246,0.1032310207892612
474,0.13161276762696097,0.11239257173784718
475,0.13742525655803062,0.10076741701331586
476,0.13147393728700948,0.09714377538581109
477,0.13442407780997664,0.12786317531434024
478,0.13060640296835502,0.11692024622150736
479,0.13519066768727428,0.1339234333329532
480,0.13515070385986763,0.10924609879880039
481,0.1350334529324973,0.13960068237739184
482,0.13598734918508312,0.11526365152427129
483,0.13528891961029965,0.10006269077522696
484,0.14356070438282287,0.1251397765202605
485,0.1409596489886824,0.09212500853691877
486,0.13405178648700342,0.13150714980563313
487,0.1391359838686115,0.1291573656503855
488,0.14106919492582243,0.10656681309300516
489,0.13781717840096744,0.11634340828788874
490,0.14224892443151688,0.15491044663639641
491,0.1399388939981981,0.10874808131001931
492,0.14392342321949897,0.14041731899402796
493,0.14316954666214118,0.12480270543268748
494,0.15278653343089765,0.10891902394998516
495,0.14469097616622964,0.08524359257534535
496,0.14965120873612753,0.10147405356968493
497,0.14646985538178783,0.11374803383165019
498,0.16004161791299745,0.18784142780134597
499,0.15873671851033788,0.12261350108891278
500,0.14998609466339757,0.07577077335227449
501,0.15664463000093623,0.23014868340721822
502,0.1566965410695802,0.14774281843238302
503,0.16313073472927608,0.16440258840218058
504,0.16948571822328343,0.1826594090640498
505,0.17205648377930804,0.16762372385636973
506,0.1551655277335863,0.10089001768719237
507,0.1844544759203347,0.18626697016872565
508,0.1725195758848739,0.18034501598402564
509,0.18388331261910884,0.16272164942386494
510,0.17210821677550234,0.12793114166280464
511,0.18236599666037434,0.1720939608380469
512,0.22593432251843426,0.4997490834512387
513,0.4836410712197626,0.37965233728654196
514,0.38070024124724117,0.36725115964237687
515,0.38884157399765307,0.36380472953336485
516,0.3842563394257586,0.3792371720475481
517,0.36771430545668904,0.2753303238347279
518,0.28403504933718204,0.2741190640824746
519,0.29328555046773547,0.27834727194663006
520,0.399797923725953,0.39285180831200134
521,0.3942465370031093,0.3350673496205692
522,0.40002533958422287,0.4350210025071533
523,0.31955559170551057,0.2469826387366443
524,0.34099115551018316,0.18226017782372006
525,0.18573117209412307,0.1984644937251813
526,0.1911583734835557,0.12170646377878107
527,0.16705630727999693,0.17827116369307278
528,0.17200642158325724,0.09308500640864624
529,0.1697796393069718,0.22191468663307842
530,0.1705210733351757,0.21325203933956685
531,0.18025962551601593,0.13083149520966983
532,0.18575366313675706,0.1690843809269598
533,0.1743191372123744,0.15009642789918037
534,0.1686832102999794,0.10709387496784153
535,0.1734982353213022,0.10986503770526414
536,0.17839384446446177,0.22784751393753616
537,0.18877044364774256,0.13753513565497222
538,0.1878789915240926,0.17494657483972145
539,0.19378917538028637,0.18274958920977485
540,0.1966672434950237,0.25223937740030494
541,0.19917038340362714,0.10205729602708907
542,0.21967085170374215,0.14984213914237063
543,0.23072490590713102,0.12560870985323364
544,0.3493317260736708,0.2192639550333806
545,0.19594195716196208,0.1734386119041842
546,0.3480383606462313,0.1459793201996853
547,0.15064292769435403,0.0977819113864989
548,0.1303956854305298,0.09401987134916348
549,0.16161416373628792,0.14347809649586396
