epoch,loss,val_loss
0,0.6036856936689983,0.6006568220353896
1,0.6009064341794866,0.6013622096395375
2,0.6008093031055614,0.6005074089277471
3,0.6006623747817003,0.6007930419876912
4,0.6005815016037118,0.6007812284358381
5,0.6005226953768827,0.6003782471415423
6,0.6004842482472225,0.6005003331021103
7,0.6004288914515673,0.6012667348307948
8,0.6004304881612474,0.600665242382078
9,0.6003868863558662,0.6003208520986306
10,0.6003834725197743,0.6004588183043317
11,0.6003422432026514,0.600321690882406
12,0.6003424139161093,0.6002696511171591
13,0.6003952223724105,0.6004546083824215
14,0.6003329944235745,0.6003059861973556
15,0.6003129883948476,0.6002888998677653
16,0.6002881891354079,0.6002739012093461
17,0.6002896183208624,0.600427237130868
18,0.6002789228656442,0.6003538982448152
19,0.6002797884980605,0.6002483809556323
20,0.6002892760025708,0.6002503734960154
21,0.6002584804461343,0.6002411880504996
22,0.6002677536930832,0.600299999790807
23,0.6002699584930394,0.6002924084663391
24,0.6002655287574992,0.6002462566046798
25,0.6002702960333989,0.600314851256813
26,0.6002487291322441,0.6004926621766008
27,0.6002430775783968,0.60023189889586
28,0.6002653550409724,0.6004996662991811
29,0.6002422213172589,0.600239375152304
30,0.6002568367420164,0.6002455946825278
31,0.6002394155051817,0.6004132795274701
32,0.6002384313615886,0.6003491735044247
33,0.6002355791979685,0.6002962576544314
34,0.6002377549745702,0.6003355493616526
35,0.6002281211952875,0.6003851966881575
36,0.6002232725470298,0.6004696068337774
37,0.6002362334654564,0.6003632694556754
38,0.6002266182283684,0.6002243444878174
39,0.6002263048379831,0.6002412412657632
40,0.600217513636036,0.6002533064290844
41,0.600230405217256,0.6004126694007192
42,0.6002195588726205,0.6002300323091133
43,0.6002310077573372,0.6002214855946619
44,0.6002204446146331,0.6002681096493458
45,0.6002107712590526,0.6004741903570094
46,0.6002453264320394,0.6002491671453338
47,0.6002160023028056,0.6002321105441147
48,0.6002133384529773,0.6002128559069952
49,0.600215263668568,0.6002695461064946
50,0.60021242459634,0.6002168968061063
51,0.6002068927873966,0.6004152975662175
52,0.6002170430069554,0.6002196228237957
53,0.6002266358657773,0.6002691490182805
54,0.6002155542752294,0.6002280195652699
55,0.6002078374209534,0.6002500099520529
56,0.6002080527024136,0.6002271958971142
57,0.6001976048737657,0.6002213526008738
58,0.6002056808144537,0.6002315251762163
59,0.6002024963356718,0.6002553106833333
60,0.6002051434418335,0.6002228209457682
61,0.6002052985980224,0.6005791551421948
62,0.6002096632473509,0.6002312040210658
63,0.6058027321765296,0.6005562977222888
64,0.6003549817425308,0.6003121524531552
65,0.6002964013374839,0.6003135073569513
66,0.6002791985019248,0.6003369297046519
67,0.6002666558667307,0.6002992150505483
68,0.600255825943131,0.6002823931111887
