epoch,loss,val_loss
0,0.5041965845449652,0.5007972011790973
1,0.501109081949025,0.5007251741276781
2,0.5008752177489905,0.5008045672187142
3,0.5007769564049992,0.5036153456117616
4,0.5007587830496983,0.5005087102021533
5,0.5006081677619383,0.50053874147737
6,0.5005559463618102,0.5007769020556221
7,0.5005542198969968,0.500652409576009
8,0.5005059438106679,0.500453481780684
9,0.5005583289273482,0.5004962831217953
10,0.5005163473268939,0.5004187835357325
11,0.5004475827337698,0.5009432508099464
12,0.500455537400805,0.5016800777492098
13,0.5004197097651654,0.5003575733222677
14,0.5004025120112373,0.5005353564364147
15,0.5003819389112987,0.5006044274524187
16,0.5003678156916498,0.5003487867397942
17,0.5003813087945738,0.5007222680832553
18,0.5003587060973579,0.5003659177950535
19,0.5003615589732899,0.5003463848057219
20,0.5003422949226431,0.5005764504520236
21,0.5003310987003756,0.5004687811837303
22,0.5003345388541415,0.5003107811026183
23,0.5003204307066321,0.5005577356880415
24,0.5003226545268131,0.5003371364425488
25,1.0415844884348011,0.9500787088356302
26,0.9500643148945518,0.950061326435127
27,0.9500501559969939,0.9500446678982775
28,0.9500404888210932,0.9500396248128811
29,0.9500405397967467,0.9500446712408704
30,0.9500371891860209,0.9500462136552589
31,0.9500388188103449,0.9501037088280576
32,0.9500382824813444,0.9500436857379696
33,0.950032845535298,0.9500331196240692
34,0.950032448985859,0.9500429886150596
35,0.9500307325438963,0.9500327746566413
36,0.950031010470145,0.9500523373447636
37,0.9500309147908107,0.9500304045511534
38,0.95002883524099,0.9500418644389207
39,0.9500301695982558,0.9500340929989779
40,0.9500295970533655,0.9500322902468831
41,0.9500293653248381,0.9500317084878017
42,0.9500506095692431,0.9500324777574752
