epoch,loss,val_loss
0,0.5062636665444653,0.5020213755129584
1,0.501144119064466,0.5008202539188394
2,0.5009460317618548,0.502758609952761
3,0.5008202988279041,0.5009743700252277
4,0.500704912663459,0.5006741663066684
5,0.5006563946853407,0.5005923588873434
6,0.5010788224533876,0.5010249266553457
7,0.4964830512519997,0.4509834085889253
8,0.4181200322163345,0.4005637184266121
9,0.40063352713441525,0.40055804390173694
10,0.4006088618866256,0.4005752718774024
11,0.40056544698618923,0.4009762058482868
12,0.4005746719943239,0.4006846738956111
13,0.40059155834216387,0.40065081913772943
14,0.4004950801852527,0.40074706442894475
15,0.4008536079735263,0.4008969828449467
16,0.4005644163064676,0.40108004564387034
17,0.4005625219573285,0.4009423017058124
18,0.4005127960509837,0.40069786810105845
19,0.40052790368834346,0.40044877493647724
20,0.4004768552725375,0.40051013118871687
21,0.4004573671745775,0.40046352081499975
22,0.4004680151955863,0.4004469101837196
23,0.4004663760930975,0.4004321988551847
24,0.355555157903624,0.3507347645593932
25,0.35063360484526945,0.3505477873178629
26,0.3505618416768909,0.3505352609210807
27,0.35054520993280625,0.3504959335546044
28,0.35048630270126396,0.35044706567345424
29,0.3510030802033694,0.3505413029684914
30,0.3504259422175144,0.35054567784588625
31,0.3504538055142967,0.35064830908704336
32,0.35045610346223777,0.35046428189088336
33,0.35045105262746173,0.3505159191990609
34,0.35043914873364523,0.350485244223261
35,0.35043939605691105,0.3505119206887617
36,0.35042713340759607,0.35042497206562506
37,0.3511432760094159,0.3506440688155721
38,0.35041238619371196,0.35052523802291075
39,0.3504198514441462,0.35089380695269656
40,0.3504299216607529,0.350542265931075
41,0.3504052390989739,0.350455999965999
42,0.350412297061257,0.3504035113762981
43,0.3504179818886651,0.35067799212619033
44,0.35040331975502564,0.3503904841378072
45,0.3504340617074332,0.3504008671929759
46,0.35039784379393285,0.3504070396015129
47,0.35039782296650285,0.35040354035036736
48,0.35038198238196216,0.35042214307832364
49,0.350389602234828,0.35036551976026437
50,0.3503866650789175,0.3504922988988626
51,0.35038461595656556,0.3503641329095618
52,0.3504048054548906,0.3505464146657854
53,0.3503938815479371,0.3503785283630598
54,0.35037003733971345,0.3505529653345681
55,0.3504075933321708,0.3503864493618532
56,0.3503637891982822,0.35036882767014704
57,0.35037896583365247,0.35037824351793484
58,0.350373230833618,0.35035018091166287
59,0.350519924771784,0.350399896007022
60,0.35039238447593096,0.3503982662562993
61,0.3503620058364767,0.3504777539456749
62,0.3503574713682214,0.35045185071363044
63,0.35036467497224244,0.3505020288320688
64,0.3503591083116875,0.35061850362912594
65,0.3508452853463935,0.3505905779508444
66,0.3504978791067582,0.3504377790331545
67,0.35037148945837465,0.3504034783053339
68,0.3503726568305788,0.3505580208733419
69,0.3503677680775086,0.35034701281386627
70,0.35035406913184763,0.3503527183538631
71,0.35035869413746085,0.350438562752887
72,0.3503659191798593,0.35036472582047984
73,0.350348962260691,0.3507046110576791
74,0.3503448595776455,0.35033734881552514
75,0.3503555984629814,0.35033399777731883
76,0.3503432747974137,0.3503380725016961
77,0.3503494120161952,0.35033828879408446
78,0.3503460206822155,0.350370592825466
79,0.35033888177196404,0.35055551302640076
80,0.3503644512298113,0.3506236926053949
81,0.35035085146390965,0.350375500432315
82,0.350346879591055,0.3505051740641629
83,0.35033605185724226,0.35038196954774503
84,0.35036776075481674,0.35058068431932343
85,0.3503528076437666,0.35032219246362634
86,0.35033792236365574,0.3503998402774186
87,0.35034090835670656,0.3503502955655602
88,0.35033277629050036,0.3504231269395085
89,0.3503359407661777,0.35064158047695015
90,0.3504162674384934,0.3503749071072704
91,0.34642003517619063,0.3004997905519405
92,0.3004534776716329,0.3004223981507067
93,0.30037310895201524,0.3005125794753839
94,0.300376748813407,0.3007432250615681
95,0.30038098573607386,0.30040766108716394
96,0.3003638111480569,0.3003783023830679
97,0.30036880820368406,0.3003841760288693
98,0.30037639580491604,0.30089528310683467
99,0.3003664760983004,0.30057030895507664
100,0.3003595931805363,0.3004474247655561
101,0.30037701334495914,0.3005562347898412
102,0.30036876656381184,0.3003669588500749
103,0.30036740519706984,0.30047701785049724
104,0.3003502027373874,0.3003744818732401
105,0.30036936189518687,0.3007350243350708
106,0.30037620740435306,0.30042897629974497
107,0.30036163020818046,0.3004010932912898
108,0.30035547555077474,0.30037666871293306
109,0.3003659435738181,0.30051581429192803
110,0.3003582643430956,0.30041998765308864
111,0.3003525389253512,0.3003986128802335
112,0.30036703393115105,0.30040484513005905
113,0.3003609666246319,0.300538125419735
114,0.30035387923866397,0.30049022786670526
115,0.3003623438641742,0.3003904903497057
116,0.30036284680760045,0.3003974381510732
117,0.3003515698010464,0.3004825229236565
118,0.30035145691618664,0.30074122410554155
119,0.30036603290269126,0.3006564298871137
120,0.3003540632896285,0.3005008790096633
121,0.30035930210097234,0.3006668472852068
122,0.3003601737056067,0.30036296974636484
123,0.30036723255216613,0.3004935427279981
124,0.3003468543057993,0.30069787222753386
125,0.300350464709981,0.3005386244570351
126,0.30035161368000735,0.3004269716757403
127,0.30035288115647735,0.30059549163647975
128,0.3003473021223638,0.30040752989778446
129,0.300352681995115,0.30057892391166974
130,0.30034306737055205,0.30043538672752473
131,0.30035888726531323,0.3006164497536406
132,0.30034285878821493,0.30038662888571876
133,0.3003547249058396,0.3003875140220888
134,0.3003464085248059,0.30041201188605715
135,0.300337927256599,0.30048992731435126
136,0.30036187194378194,0.30041190400608714
137,0.30034739983845243,0.30044597689034624
138,0.3003499521783484,0.30040012490069007
139,0.30033800873465993,0.3004032470008576
140,0.3003590887762003,0.30053977501895235
141,0.30035910616394507,0.30056398429586634
142,0.30033999241977166,0.3009376193246534
