epoch,loss,val_loss
0,0.458723307697137,0.4511904560011019
1,0.451199624230258,0.45113260839180674
2,0.45095126109172073,0.45093888891837736
3,0.4202578657298436,0.40092412171233677
4,0.4007891457182221,0.4010046012792043
5,0.40077124872097963,0.40061238317868253
6,0.4007135541297288,0.4007642961613298
7,0.4007599985515429,0.40063676863686914
8,0.40063742445788114,0.4006122284432499
9,0.4005707635625798,0.40126593018288054
10,0.40126454837663544,0.40058724189514555
11,0.40053851792818057,0.4005105701776651
12,0.40053508226600226,0.4005052862333009
13,0.4005052966793929,0.40040833938210535
14,0.4004776185474004,0.40043852770003135
15,0.40139295967327493,0.4010981791220587
16,0.4004784171605817,0.40042816790990143
17,0.4004615696013945,0.4004565157310543
18,0.4004429532847664,0.400687854195351
19,0.4004217790863301,0.4004185176960588
20,0.40041607517164696,0.40041126576310054
21,0.40040742150780617,0.40039800013561105
22,0.40040205611675683,0.4009107812314708
23,0.40044258131955146,0.4003702192093539
24,0.4003769951012569,0.4004051343974641
25,0.4004216450817795,0.4003937254620545
26,0.3815870740081538,0.35070407576951435
27,0.35055750698449506,0.3506319177061985
28,0.350477219335903,0.3511982275002056
29,0.35048317753289393,0.35042254242944365
30,0.3504402258177612,0.35040580517896647
31,0.3504203248250538,0.3507214271253155
32,0.35042659472867643,0.3506063802810224
33,0.35041671147459896,0.3505625101532001
34,0.35040306765382767,0.35052844918987
35,0.35039967286714707,0.3504826360985304
36,0.3503815462637193,0.3503981759027571
37,0.35038924869939986,0.35043955894912737
38,0.3503860123374177,0.35039125321520764
39,0.350387798748044,0.35037648324339327
40,0.35038545222524803,0.350416739554914
41,0.3503824060868107,0.3504024018868619
42,0.35041106794668375,0.35069519100946467
43,0.3503605438901998,0.3503757126573889
44,0.3503717126841233,0.3503911195262786
45,0.350368057782145,0.3505217751557419
46,0.3503600111472121,0.3504820219192552
47,0.3503673873858821,0.3505001255655407
48,0.35037504882655746,0.35036733958028976
49,0.3503750726755937,0.35036019712464683
50,0.3503687644400498,0.3503747302160665
51,0.3503531885830851,0.35055721936095735
52,0.3503604552909927,0.3504293464253617
53,0.35035037678104114,0.35038868962387293
54,0.3503541177098579,0.35044709806406765
55,0.35036018067979424,0.3505116581473102
56,0.3503494396204479,0.3503548884805911
57,0.35035326647710524,0.3504133655770541
58,0.3503750495925096,0.3516015839635882
59,0.3503361018125465,0.350350695094163
60,0.3503487134804596,0.3504717942502895
61,0.35034500510815875,0.35055605576884363
62,0.35034999882270423,0.3504300471422986
63,0.3503272451504832,0.3505661286284255
64,0.35048999607202524,0.3504380010049929
65,0.35036555429122185,0.3505466781981825
66,0.35033208308882086,0.3503491439239559
67,0.3503401921717297,0.3503510057186666
68,0.3503346491113357,0.35071158771479394
69,0.3503364123481627,0.350394234053846
70,0.35064762864732746,0.35034692114399324
71,0.35030915009584335,0.35033597892922147
72,0.35032450258625353,0.3503443035683029
73,0.350329950349106,0.3504002363155261
74,0.3504014705950911,0.35034058521462436
75,0.35033378905672324,0.3503760437959477
76,0.35032454092803517,0.35034185643527405
77,0.35034089993123296,0.3503705804904105
78,0.3503200255868907,0.3503467906793353
79,0.35033958549266714,0.35037566597940906
80,0.35032650355025174,0.35033358394655933
81,0.3503233945236724,0.35036255785312603
82,0.3503289672002253,0.350346364750164
83,0.3503190219194063,0.3506685750508131
84,0.350346796637491,0.3506328059189373
85,0.3503284466130796,0.35037038558470107
86,0.35032074082093523,0.35038214720804106
87,0.3503280345608007,0.35038785407915896
88,0.350323091164026,0.3503702862091159
89,0.3503156038828044,0.3504421799709424
90,0.35031530737413064,0.3503562157562294
91,0.35031950187598543,0.350443381721861
92,0.35032636499929004,0.35041229781086924
93,0.35031617002832627,0.3503647147130138
94,0.3503158353372141,0.35040743908574506
95,0.35031370310747667,0.35035794674610676
96,0.35030822631693104,0.3503238880013118
97,0.35031274560418835,0.35039950237972267
98,0.35032117533312396,0.3503884760676779
99,0.3503095340930542,0.3503216902907966
100,0.350306243884084,0.3504206231746721
101,0.3503111308638685,0.35045172610590536
102,0.35032126848820816,0.3503994807268195
103,0.3502994564433198,0.3504133204372586
104,0.35031206786156877,0.35070207018414445
105,0.35031404318865167,0.3503782909945874
106,0.3503105908549846,0.35037130084877866
107,0.35030216801843506,0.35073811355654716
108,0.3503116142092535,0.3505036719087927
109,0.35031275546059626,0.35055817090548
110,0.3503147024805806,0.35035430784556765
111,0.35031388726651064,0.35038679150434643
112,0.35030117521311444,0.3503546862537157
113,0.3503059854568786,0.35074739358561213
114,0.3503050791737805,0.3504949001609244
115,0.3503098007228893,0.3503957384573319
116,0.3503030873747823,0.3503287039974487
117,0.350306951647137,0.35045587602383443
118,0.35031378821217507,0.35041688788617514
119,0.3503045645134951,0.3504905322349397
