epoch,loss,val_loss
0,0.6043352819237199,0.6019787888668903
1,0.6013623982298357,0.6018894275423906
2,0.6010848308891877,0.6009932468014378
3,0.6008854245396765,0.6028954692573169
4,0.5550104162268665,0.5511807441119816
5,0.550778491005663,0.550738242187216
6,0.5507191445056925,0.5507813944710099
7,0.5506587808362604,0.5505658076359675
8,0.5505976853062582,0.5506659520766871
9,0.5505693842824179,0.5504952027839112
10,0.5505364064099942,0.5507140587636318
11,0.5504950876744661,0.5507423585165228
12,0.5504836825547246,0.5504801946893223
13,0.5504778096478066,0.5510495896374913
14,0.5504499820746852,0.550496762828259
15,0.5504473484243544,0.5503929418902244
16,0.5504227463222592,0.5505361223043342
17,0.5504101664851401,0.5505015152263878
18,0.5504120249548247,0.5503739956886537
19,0.5503790086712025,0.5503812957934056
20,0.5504026034034483,0.5504527292831364
21,0.5503772776445959,0.5504227845603715
22,0.5504080947533954,0.5503382179044908
23,0.5503527110452897,0.5504018347553224
24,0.5503813356409204,0.5503742501102665
25,0.5503622063615652,0.5505420329848827
26,0.5503372076358811,0.5505429407798919
27,0.550351867430645,0.5503234456549803
28,0.550342497103403,0.5505751241229604
29,0.5503412128816888,0.5505582093009286
30,0.5503298114875826,0.5503230574704873
31,0.5503319721407709,0.5505034811147685
32,0.5503335392796497,0.5503090098833032
33,0.5503162626941792,0.5503572559534172
34,0.5503307366773141,0.5503243018320713
35,0.5503369520815878,0.5502985827680261
36,0.5503197936617873,0.5504883628329331
37,0.5503108355643105,0.5503747574448882
38,0.5503173137793077,0.5508663387215759
39,0.5503064398532954,0.5503455268242223
40,0.5503072105636525,0.5502994431159632
41,0.5503030786060107,0.5504900967808575
42,0.5503073238788181,0.5503304194279995
43,0.5503002905906855,0.5502774136533808
44,0.5503071747200897,0.5503649907727395
45,0.5502952239339887,0.5504099612496332
46,0.5503002719183341,0.5502678504356971
47,0.5502949906901223,0.5503433723307721
48,0.5502901782814192,0.5503344165775971
49,0.5502861808765636,0.5502552742106152
50,0.5502861741226168,0.5503017436186078
51,0.5502980456299098,0.5503363070357822
52,0.5502900052874591,0.5502739779706628
53,0.5502839100083045,0.5502764713379644
54,0.5502818333345514,0.5504670960435797
55,0.5502850015831938,0.5503004094803008
56,0.5502899720635946,0.5504635362116338
57,0.5502827295829663,0.5502576938633883
58,0.5502859757914961,0.5503762953926257
59,0.5502747684546397,0.5502643774224274
60,0.5502729811538207,0.5502529114115031
61,0.5502755379864875,0.5502598017084391
62,0.5502704138092299,0.5503503725487304
63,0.5502761991459671,0.5502725009291107
64,0.550265942376233,0.550239244820758
65,0.5502733934261828,0.550274910051237
66,0.5502665594070876,0.5502608159339754
67,0.5502752895213929,0.5502583447520254
68,0.5502635814758605,0.550294881216054
69,0.5502699272694853,0.5504026543709539
70,0.5502633024499853,0.5502739237496634
71,0.5502706868897073,0.5503125974617289
72,0.5502648083481897,0.5502771954678424
73,0.550263561601335,0.5504356038185858
74,0.5502663271729212,0.5502938888209038
75,0.5502664921437102,0.5502431389120022
76,0.5502641756993264,0.5502443278693679
77,0.5502586509716934,0.5502445351692938
78,0.5502539712509866,0.5504274683022322
79,0.5502724085805326,0.5504120260846822
80,0.5502562188843122,0.550369982565603
81,0.5502626632002079,0.5502958914186463
82,0.5502550036842733,0.5502562929619631
83,0.5502652328600095,0.5502519485672414
84,0.5502566166864103,0.5503695546545403
