epoch,loss,val_loss
0,0.5097473708442416,0.5030726032576549
1,0.5016112694317673,0.501204799156331
2,0.5012848503653273,0.5009735318626423
3,0.5011031959018075,0.5008755213273666
4,0.501034117790508,0.5023025017222459
5,0.5009917402566896,0.500887793494809
6,0.5008092258758134,0.5006817057174133
7,0.5008415672104509,0.5007170568920543
8,0.5007426115249234,0.5007963061332703
9,0.5006989109858653,0.5007873362110508
10,0.5006727320604479,0.5006913766375842
11,0.5006390993581019,0.5006752088702938
12,0.5005824028395718,0.5005613156051257
13,0.5005979763978913,0.5005557865126257
14,0.5005623464110359,0.5004857275977028
15,0.5005481328839725,0.5006012180602876
16,0.5005259724732413,0.5004694101532399
17,0.5005092225820242,0.5004291486799273
18,0.5004843201280844,0.5006469369526241
19,0.5004872668556358,0.5007003738034156
20,0.5004844424713882,0.500432563271771
21,0.5004580790280201,0.5004290699662997
22,0.5004512234731273,0.5005727976782446
23,0.5004269604172645,0.5004543653492892
24,0.5004375591408516,0.5006933803002237
25,0.5004232488797906,0.500473701953888
26,0.5004227295240057,0.5003830369589642
27,0.5004024709054018,0.5003817008683462
28,0.5004203087413209,0.500359854183481
29,0.5004164269550089,0.5003804499990591
30,0.5003916026124113,0.5003659708032537
31,0.5004010569285543,0.500373153532705
32,0.5003857710669092,0.5004348378619249
33,0.5003945422649629,0.5005449990480768
34,0.5003797766733548,0.5006806929117397
35,0.5003843167296688,0.5004176252237325
36,0.5003694451329657,0.5003391408151195
37,0.500367126255047,0.5004474178437264
38,0.5003703690045652,0.5007070388155007
39,0.5003763273313184,0.5005533425447071
40,0.5003671839617713,0.5004000634176855
41,0.5003575077088248,0.5004138795081202
42,0.5003680441654722,0.5004539305459773
43,0.5003560149745848,0.5004480423465851
44,0.5003662026942457,0.500511717500521
45,0.5003546910195961,0.5003648314523342
46,0.5003591042922925,0.500450407719198
47,0.5003536874116681,0.5003916306176197
48,0.5003500169248118,0.5003447556909794
49,0.5003500256058657,0.5003502513575495
50,0.5003492550193547,0.5004246911399122
51,0.5003430091055742,0.5004160914468411
52,0.5003504997515422,0.5003720371658098
53,0.5003382644579991,0.5003133511720756
54,0.5003312308622235,0.5003202180116999
55,0.5003425484165173,0.5003169968465422
56,0.5003469995300894,0.5005206092415613
57,0.5003336335736439,0.500365786102806
58,0.5003424628373387,0.500334720783139
59,0.5003360645077584,0.5004695965693547
60,0.5003472556057982,0.5003049413856147
61,0.5003315192238801,0.5006061890580814
62,0.5003430494494017,0.5004546830435249
63,0.500338740272836,0.5003006418053033
64,0.5003256029945194,0.5003726597755186
65,0.500333257663105,0.5003387583692376
66,0.5003263077517427,0.5003972495164233
67,0.5003254476316575,0.5002999129425503
68,0.5003340343007169,0.5005652158491073
69,0.50033608912393,0.5003204026234062
70,0.5003237122444087,0.5003206739058861
71,0.5003254766865652,0.5007202788854651
72,0.500318883657629,0.5003016947812537
73,0.5003300394918946,0.5004310398184632
74,0.5003246036083998,0.5004227152829135
75,0.5003161641433527,0.5003732093806302
76,0.5003193086561557,0.5003863071685394
77,0.500320470213513,0.5003222982285928
78,0.5003214959204619,0.5002855367459376
79,0.5003201504036441,0.5002976077957721
80,0.5003214087028873,0.5003005566727139
81,0.5003160971955065,0.5003416161383352
82,0.500313567574256,0.5004546338216247
83,0.5003219988118255,0.5008907191806632
84,0.5003101828333021,0.5002906017504614
85,0.5003222493744142,0.5003312211474473
86,0.5003147983702165,0.5003109450967377
87,0.5003205603363418,0.5003179594837407
88,0.500314781708588,0.5002981701796463
89,0.500310627019285,0.5002936342809692
90,0.5003134619635752,0.5002964559027339
91,0.5003135737933773,0.5003269541943931
92,0.5003064935281611,0.5002995248763792
93,0.5003179626557862,0.5003827688711748
94,0.5003090973055695,0.5007946034223211
95,0.5003109784706291,0.5004153856272733
96,0.5003098630092343,0.5003302544873051
97,0.5003130967992423,0.5002933477645476
98,0.5003110703123144,0.50052061042478
