epoch,loss,val_loss
0,0.5560543346314472,0.5519155508235429
1,0.5515891670055856,0.5516559517413155
2,0.5512164206780343,0.5515367955487064
3,0.551035133603343,0.5510063748797471
4,0.5509208065258993,0.5506706808104409
5,0.550863606416315,0.5507304916310842
6,0.550735434129087,0.5506768129007988
7,0.5507097963295342,0.5508256854253726
8,0.512835265430194,0.5006885343390718
9,0.5006432474764664,0.5005155729892532
10,0.5006336682257191,0.5005244025817284
11,0.5005772307536246,0.5005190873855988
12,0.5005541517138458,0.5007224752648592
13,0.5005533159235875,0.501174082028363
14,0.5005111847289718,0.500537313273172
15,0.5004912408496494,0.5005080005962854
16,0.5004746071054909,0.5006423632205272
17,0.5004758080143299,0.5004851787025224
18,0.5004418747700318,0.5008235939679015
19,0.500443223428752,0.5004536504485175
20,0.5004352413759696,0.5007766304773373
21,0.5004506931415872,0.5004591070392883
22,0.5004111487653632,0.500388130597382
23,0.5004123942532481,0.5005704118063669
24,0.5003978598151116,0.5004763069874596
25,0.5004106617113027,0.5003700557772635
26,0.5003905777976271,0.5004491720246914
27,0.5003929986292193,0.5003692749120462
28,0.5003915029573831,0.5004280207174884
29,0.5003796672131925,0.5004136608492944
30,0.5003837015391503,0.5003700296281289
31,0.5003773043155071,0.5003496368233087
32,0.5003691924547399,0.5003915875188766
33,0.5003664629964957,0.5005192971998645
34,0.5003725809528823,0.5004620098890206
35,0.5003598206839424,0.500338725653239
36,0.5003636487589448,0.5003665505212826
37,0.5003600503141868,0.500530051770932
38,0.5003548958845804,0.5004107849473693
39,0.5003523080793647,0.5006938800918257
40,0.5003604294991516,0.5003803248145149
41,0.5003564406341495,0.5003565740644488
42,0.5003338374983451,0.5003329798246435
43,0.5003319825744432,0.5006374807274963
44,0.500336788571551,0.5004409846537758
45,0.5003484253291046,0.5006625506777326
46,0.5003359375158901,0.5003133072154989
47,0.5003390109268779,0.5003278758922227
48,0.5003447516514384,0.5003057888956283
49,0.5003134403141862,0.5005233413528272
50,0.500333973516774,0.5003131754640906
51,0.5003271529684974,0.5003003767051413
52,0.5003335830144917,0.5003634593031246
53,0.5003125573101961,0.5010509569946648
54,0.5003180756167679,0.5003174193739596
55,0.5003159102637416,0.5003585624044053
56,0.5003189203365609,0.5008017475492605
57,0.500314764191081,0.5004851188316535
58,0.5003174338277527,0.5002876565710782
59,0.5003133053590978,0.5008290668575107
60,0.5003101617889444,0.5002921821461718
61,0.5003049235282025,0.500345268083861
62,0.5003149361982172,0.5003147955567901
63,0.5003110139702629,0.500321341566649
64,0.5003107426654377,0.5003184918434389
65,0.5003023018554386,0.5003475672258041
66,0.5003069352553666,0.500301274058245
67,0.5003113844189557,0.500309012456804
68,0.5002975373459592,0.500349549146799
69,0.5003038529321983,0.5002922864173246
70,0.5002982894833572,0.5002807977773416
71,0.5003042743715324,0.5003119727813872
72,0.5003029563753515,0.5002634144302633
73,0.5002946277659036,0.5004912029129104
74,0.500302009977186,0.5003485757423098
75,0.5002991538323501,0.5005774570457988
76,0.5002907353753746,0.5003346215110854
77,0.5003138965881719,0.5003786013972374
78,0.5002966593731151,0.5004778932696833
79,0.5002978021950147,0.5002963242400669
80,0.500303319090373,0.5002865242603103
81,0.5003019902754139,0.5004961191868368
82,0.5003093601368026,0.500276765486147
83,0.5002832309170254,0.5002660515586437
84,0.5002977140560888,0.5002946938237837
85,0.5002896558837552,0.5003889916552503
86,0.5002911472848756,0.5004162749344895
87,0.5002864324013647,0.5004872647763482
88,0.5002892724170312,0.5002925704194062
89,0.5002940441892514,0.5002725479028952
90,0.5002868011556546,0.5002826087528068
91,0.5002849636893087,0.500267407675239
92,0.5002961366332572,0.5005461882716669
