epoch,loss,val_loss
0,0.462040230740095,0.45201796167541675
1,0.451685218047623,0.451324578150922
2,0.45134574367710023,0.4511861271361263
3,0.45130930454975743,0.4513584919809999
4,0.45114688102818884,0.4513015794546965
5,0.45102299604726565,0.451412626058233
6,0.4509427611795603,0.45085629285417184
7,0.45093757752544805,0.4517436123959184
8,0.450781363555837,0.4506846561473297
9,0.45076197061540146,0.45073643544175784
10,0.45071200928447486,0.4506671810860078
11,0.45064864774933927,0.45054760502822344
12,0.45064092158452435,0.45080747946024535
13,0.4506020012096349,0.4507248476924139
14,0.4505795075718566,0.4505075068538893
15,0.45056443100880467,0.4505087597050679
16,0.45053944320878503,0.45053715432252245
17,0.4505272147251954,0.4504961302647224
18,0.4505331245208736,0.4506372841209099
19,0.450520112860681,0.45048007088026987
20,0.45051455011862995,0.45045996005126915
21,0.4505006258473597,0.4510801895824319
22,0.4504996872215182,0.4504829687013224
23,0.4504938398927477,0.45044073512773064
24,0.45047316571315726,0.4506286816916454
25,0.45051344707654567,0.45042929223394274
26,0.45045748102512073,0.4504134367476622
27,0.4504528976155997,0.4504713980346992
28,0.4504574484741266,0.45044381208810264
29,0.450450996677379,0.4503753923304915
30,0.4504354780790841,0.45039043935297735
31,0.4504412507886545,0.45043743254233237
32,0.45045827204346445,0.45044235921379355
33,0.4504193722984035,0.45047526662757914
34,0.45044974053873615,0.4504137358505732
35,0.4504247917533686,0.4503835750424832
36,0.45043848964081656,0.45057844748863807
37,0.45044016825058064,0.4504960861010824
38,0.45040728320942724,0.4504615325342041
39,0.4504334017472879,0.45043192424490197
40,0.45041770658243013,0.45042519201120135
41,0.45040853097071504,0.4504490271395548
42,0.45040868013338753,0.45046281626739215
43,0.45042389340943156,0.45038133909921196
44,0.4504108291931682,0.45037379343219786
45,0.45040814141344887,0.4503917993298239
46,0.45040335364024375,0.45039663592875745
47,0.4503963111740955,0.45047104002228444
48,0.4503984814348163,0.4504920161983215
49,0.45041269266520656,0.45037988161034975
50,0.4503816238196477,0.45037068178872613
51,0.45042013522342106,0.4509613638332405
52,0.45038573260033493,0.4508980420919565
53,0.45038979027757853,0.45035267584672933
54,0.4503951404024364,0.45036997237513143
55,0.4503761600376673,0.45067060594227415
56,0.4503777679794716,0.45040829140258487
57,0.4503973599167988,0.45084176693601585
58,0.45037852365160863,0.45035314525918985
59,0.45037370530224075,0.4503847957840628
60,0.45038496927183175,0.45075347169161434
61,0.45037939741920985,0.45034637940728633
62,0.45039254547370794,0.4503604211375376
63,0.45036780130168863,0.45035032600386266
64,0.45037606926208323,0.45035310463041583
65,0.45037944921839995,0.4506555955256185
66,0.4503708965091818,0.4504217396746794
67,0.4503750776258059,0.4504027458781344
68,0.45037278448419493,0.4503384137124045
69,0.45036615381158995,0.4505067890394414
70,0.45037109066266856,0.45040120066839173
71,0.45036581112807084,0.4503231121943547
72,0.45035944768796565,0.45050540079845686
73,0.45037195005308767,0.450369099011788
74,0.4503560396753977,0.45068802656074314
75,0.4503756856056461,0.45033619599070207
76,0.4503693442057942,0.45038214757779693
77,0.45036634296272293,0.4503678806366459
78,0.4503580517740998,0.45034300187977017
79,0.45036622081347083,0.45048015354289017
80,0.4503666837045415,0.4503527971266517
81,0.45036571370739836,0.45035514637790897
82,0.450359095050224,0.45035070401267435
83,0.4503618434845184,0.4504547768579819
84,0.45036982736817105,0.45037480203744495
85,0.4503605661031276,0.4503280042418771
86,0.45035361038322913,0.4503573593075755
87,0.45035933009301293,0.4504479716196841
88,0.4503643104566418,0.45035056683325
89,0.4503639679151118,0.4504386480037983
90,0.45036449227640585,0.4503879185497909
91,0.4503615793552686,0.45035554785882276
