epoch,loss,val_loss
0,0.702683226746631,0.7015002225527989
1,0.7011522294728427,0.7008943928974142
2,0.7009655756530785,0.7015984932187177
3,0.6939463485757795,0.6508935355371045
4,0.6509538933862926,0.650888235427014
5,0.6508951848787075,0.6507963502377494
6,0.6508751274246951,0.6509793559611583
7,0.650833044134036,0.6507464791645778
8,0.6507924462494032,0.6506825158377143
9,0.6508081298350524,0.6507167322464084
10,0.6507872085495183,0.6508365196566428
11,0.6507552817866769,0.6511405607902678
12,0.6507317839832691,0.650689515759868
13,0.6507444138991442,0.6506417728535295
14,0.6507016615765004,0.6506604579778817
15,0.6506986692333828,0.6507958462457207
16,0.6507116010101307,0.6506583341889582
17,0.6506944379078462,0.6509129288770424
18,0.6506785698113456,0.6505922544387079
19,0.6506600704530859,0.6508092175050646
20,0.6506640226344232,0.6505893568542992
21,0.6506249749706717,0.6506515071054843
22,0.6506166244791306,0.6515716275269577
23,0.6506352633227189,0.650654678752937
24,0.6506138167707104,0.6506103072805381
25,0.6506136271734951,0.6509152823287263
26,0.6506017631340383,0.6508957090507962
27,0.6506139367633064,0.6506530176025467
28,0.6505922798734236,0.6506647815479534
29,0.6506022344714866,0.6508234465388447
30,0.6505944998614773,0.6505503046601345
31,0.6505883218003289,0.6505952863480258
32,0.6505816263759754,0.650800386818112
33,0.6505934323158715,0.6505243023926803
34,0.6505771193273869,0.6506365348032627
35,0.6505849712109014,0.6507445196064175
36,0.6505803138779268,0.6505697960593269
37,0.6505636575740718,0.6505760466786236
38,0.6505739260941901,0.6511195061816175
39,0.6505635480176724,0.6506967040504474
40,0.6505595877248151,0.6505330462313763
41,0.6505745992343919,0.6505750373042842
42,0.6505725651147627,0.6505545802506856
43,0.6505601623435348,0.6505134892818649
44,0.6505590790828943,0.650685822993295
45,0.650583039741481,0.6505259784220466
46,0.6505510839608069,0.6505365103113444
47,0.6505657527734543,0.6506004644386821
48,0.6505552998379328,0.6510383290629234
49,0.6505572009500902,0.6506627912556859
50,0.6505511891841731,0.6506610106002012
51,0.6505522498377871,0.6505244733677904
52,0.6505533998277684,0.6505347473449802
53,0.6505509734349377,0.6505926949510503
54,0.6505491376779824,0.6505838910048416
55,0.6505435021586451,0.6510664224920438
56,0.6505529619082364,0.6508162947209833
57,0.650552678976084,0.6505899547938969
58,0.6505504213396287,0.6505035091274726
59,0.6505451467699154,0.650522403149096
60,0.6505431330667367,0.6506527171537243
61,0.6505443197585259,0.650597230879308
62,0.6505444770674268,0.6505838437648328
63,0.6505371606262701,0.6505204182996348
64,0.6505435678435774,0.6505357272571725
65,0.6505522761767595,0.6506731799459339
66,0.6505370410131005,0.6505696482457239
67,0.6505405095173505,0.6506454554444211
68,0.6505259523388758,0.6505311728115413
69,0.65053516811496,0.6505089245718111
70,0.6505425693338459,0.6505204661016725
71,0.6505234217718203,0.6505360376746128
72,0.650534163928821,0.6505089078588462
73,0.6505330777850137,0.6505056448669055
74,0.6505335370218379,0.6506697061339916
75,0.6505325109188973,0.6505046192233084
76,0.6505313114512473,0.65058734626983
77,0.6505325679977143,0.6504955604117798
78,0.6505300700132062,0.6505430882385291
79,0.6505282208848246,0.6505131609090801
80,0.6505298846859177,0.6505082050860668
81,0.6505229195004757,0.6506294476778868
82,0.6505266987549031,0.6509033181827062
83,0.6505348483232342,0.6507459829522125
84,0.6505252419628295,0.6505076453644348
85,0.6505235321935642,0.6505896449384855
86,0.6505273995955946,0.6509824211485037
87,0.6505180280243706,0.6505705692927831
88,0.6505298836572857,0.6505111477806905
89,0.6505273967471361,0.6506019633106204
90,0.6505207240710091,0.6505158033915253
91,0.6505263959332376,0.650489116040412
92,0.6505234129913741,0.6504906023406509
93,0.6505251468546067,0.6505822871813999
94,0.65052282951017,0.6505072898959403
95,0.6505249732145963,0.6507344362753497
96,0.6505205952388048,0.6504892850336307
97,0.6505280517939863,0.6506145475520094
98,0.6505195536180366,0.6504891362734527
99,0.6505344611490179,0.650508038607188
100,0.6505314858256568,0.6506754027702673
101,0.6505222524713258,0.6505569587570266
102,0.6505280219691822,0.6505068523416448
103,0.6505326361650888,0.6509614387161974
104,0.6505270228812398,0.6506674618046574
105,0.6505231214136651,0.6506862433317577
106,0.6505269590981722,0.6505356162120923
107,0.6505244539471601,0.6504831217654585
108,0.6505146990598784,0.6505408131159269
109,0.6505202117941681,0.6505424365807999
110,0.6505187951581809,0.6507679353872541
111,0.6505287159155156,0.6505010316153023
112,0.6505108074187361,0.6506231136120875
113,0.6505227411338069,0.6505119095073444
114,0.6505182071207054,0.6506558882095678
115,0.650510207265649,0.6504942972370176
116,0.650516066020201,0.6506998815252526
117,0.6505130614447251,0.6505690092484353
118,0.6505199412545062,0.6504935074384988
119,0.6505126690563546,0.6505133835021083
120,0.6505065409012086,0.6507974065267123
121,0.6505208239106232,0.6506437105221429
122,0.6505103057453233,0.6505903801906198
123,0.6505267938828465,0.6505343917285834
124,0.6505119875009341,0.6505523405063242
125,0.6505131386930894,0.6506195052090117
126,0.6505224117420423,0.6505282218048057
127,0.6505078322389418,0.6504992992351428
