epoch,loss,val_loss
0,0.3571601357184847,0.3530317307258066
1,0.35257550375205143,0.35200301663159733
2,0.35215749932412044,0.3521977748084009
3,0.3519884826099337,0.35295426762725224
4,0.3518150138300592,0.35177096415394293
5,0.35174891282763326,0.3514969466046127
6,0.3516434421775766,0.3532048550492185
7,0.35161652268253174,0.3516725024129853
8,0.3514923377607434,0.3515224626135294
9,0.35148067448002596,0.3512566060345463
10,0.35140041243719045,0.3514356704267024
11,0.3513906660037801,0.3513337229085028
12,0.351377419112663,0.35143852087463395
13,0.3513140574461875,0.35127110114464394
14,0.3512913112418026,0.35116970246246376
15,0.3512647336749739,0.351894031017649
16,0.35124954621214827,0.35135451311213206
17,0.3512162922348801,0.3511627056018886
18,0.35122610725966,0.35129685382689196
19,0.35122476369164224,0.3511995071364987
20,0.3511792136262389,0.35122543138546625
21,0.35117989844859127,0.3512737536252876
22,0.35116757205446686,0.35107709626406064
23,0.35116575610932527,0.35180026655161645
24,0.35112965136229635,0.3510666805076836
25,0.35116062045540675,0.3513063817107056
26,0.35112202520984886,0.3510359448031811
27,0.3511281862741169,0.3515672736812762
28,0.35110228385545206,0.35128941660187674
29,0.3511267003419421,0.3510014945017197
30,0.35109763904827984,0.3510058619544169
31,0.3510958140789441,0.3511281993341801
32,0.35110611876722814,0.3510051705553277
33,0.35108096853802395,0.3514023684094621
34,0.35108958026263226,0.35184471895617825
35,0.35106892705995474,0.35100538141970006
36,0.3510728951330241,0.3514397392201956
37,0.35106955222836056,0.35101350708575757
38,0.35109475751737607,0.3510338104096595
39,0.3510444889903373,0.3510052122489986
40,0.35105833226985916,0.35105664959320654
41,0.35103415963579104,0.35118047809482505
42,0.3510717824124127,0.35097125203674545
43,0.35106677146473275,0.35102756254134637
44,0.3510335355658284,0.35102736245905497
45,0.35102334187789364,0.3509907404335202
46,0.3510812523785119,0.3514060490480428
47,0.35102488305131024,0.35156556324982463
48,0.3510370811449005,0.3509890649513926
49,0.3510383624440064,0.35131652742698233
50,0.35103053405889406,0.35100851606198635
51,0.35100325618422734,0.3510075993928365
52,0.3510270800596163,0.3509806130571342
53,0.35102278871490566,0.3509639213014181
54,0.3510020046436639,0.35094745243453507
55,0.35104220272612463,0.35104279454529436
56,0.3509885298001397,0.35092531376086156
57,0.3510101614995839,0.3510967737983533
58,0.3510186588117667,0.3509842459380479
59,0.3509811384151802,0.35098364487771067
60,0.3509946325913049,0.3513744530695544
61,0.3509928969603083,0.3514102780937261
62,0.3510042100281418,0.3510471349910234
63,0.35100398534306104,0.3510276824605672
64,0.3509716539752674,0.3516661874413786
65,0.3510002768271934,0.3510451978400682
66,0.35099920027948067,0.35092952934743155
67,0.3509817603245425,0.3509347743195281
68,0.35098370183535094,0.35090426756785464
69,0.3509929374267986,0.3510478099285817
70,0.3509778937346106,0.352210542197263
71,0.35099014858241506,0.35091912827775734
72,0.3509899227681268,0.35096321873570197
73,0.3509662793695219,0.35121627288775764
74,0.3509810347185908,0.3510334885445777
75,0.3509883195372042,0.35132979697388395
76,0.3509771925736549,0.35097671377451783
77,0.3509692931888806,0.35093343904237295
78,0.35095659696608233,0.351294880099687
79,0.3509757093802915,0.3517892720237855
80,0.3509702536281873,0.3509520367268593
81,0.35097004478277605,0.35116088709819404
82,0.3509804281069731,0.3511024419486375
83,0.35096561348851135,0.350922169889469
84,0.35096971613842615,0.3509480089910569
85,0.35095296980009105,0.350931879426942
86,0.3509732060435842,0.3522228116137218
87,0.35096868952984667,0.3512438102928048
88,0.35095184034922317,0.35160592205767005
