epoch,loss,val_loss
0,0.6107057442750105,0.6024891038390602
1,0.6015757751686347,0.6032670351470967
2,0.6013353217086848,0.6011806795673985
3,0.6012133851909071,0.6011501059638655
4,0.6011518938095788,0.6024870487359854
5,0.6010874812997505,0.6017116309987108
6,0.6010495776016995,0.6013117064021657
7,0.6010070564183286,0.6010155515694441
8,0.6009667701941811,0.6015476116175688
9,0.6009623089567883,0.6008975813169929
10,0.6009047119262269,0.6010099509513703
11,0.6008805791855654,0.6008267234927668
12,0.6008644264530437,0.6008415656113447
13,0.6008286625925834,0.6011835956691808
14,0.6008452579026673,0.6007031348443801
15,0.6008409620478316,0.6008483758931125
16,0.600786766950734,0.6006945068428001
17,0.6007728747662325,0.6007094570484114
18,0.600777800678631,0.6006984297454209
19,0.6007811468080241,0.6007132338530964
20,0.6007691303022823,0.601286352775233
21,0.6007510053928631,0.6012472082308445
22,0.6007418700023127,0.6006945815630645
23,0.600752267650446,0.6008831783204753
24,0.6007426156050582,0.6014273186179604
25,0.6007424351487837,0.6006629725543796
26,0.6007248088734223,0.6006719290470662
27,0.6007404529088051,0.6008253812789917
28,0.6007120923599917,0.6006691255877095
29,0.6007345777915906,0.6007208787182129
30,0.6007304227315383,0.600852156395356
31,0.6007068675692796,0.6007139176352149
32,0.6007090609312276,0.600633975501096
33,0.6007087985299058,0.6006383852390734
34,0.6007139784039535,0.6006465906836554
35,0.6007240243396404,0.6007427229478992
36,0.6006885938576823,0.6006577432303511
37,0.6006875072508328,0.6006457537042887
38,0.6007038617387781,0.6006704284002999
39,0.6006826171212574,0.6009432545370854
40,0.6006875670447963,0.6010765933221386
41,0.600699024908744,0.6006274201733894
42,0.6006890907831384,0.6006783623257582
43,0.6006619295300105,0.6006374285771297
44,0.6006805714965695,0.6006220248437697
45,0.600678616740153,0.6010232695278991
46,0.600669145622759,0.6006158168795092
47,0.6006683405305376,0.6008934812865245
48,0.6006800699919658,0.6011781665882461
49,0.6006651858308077,0.6006344290288447
50,0.6006564888441298,0.6008472238521718
51,0.6006616174340922,0.6006023490695149
52,0.6006540587966582,0.6006427521741124
53,0.6006571626540467,0.6010189422602689
54,0.6006587103380565,0.6006957638648248
55,0.6006557138512246,0.6005930604769042
56,0.6006638515816114,0.6007289416440958
57,0.6006733038491675,0.6007045273153717
58,0.6006583940487277,0.6010276973099625
59,0.6006497873489548,0.6006285275774026
60,0.60064608247629,0.6006272623024271
61,0.6006366754732715,0.6006168529058509
62,0.6006272883999965,0.6006511252512116
63,0.6006415764602777,0.6006253862499303
64,0.6006447509903587,0.6006052041763703
65,0.6006334888449328,0.6006990824088861
66,0.600634355653492,0.600736961293753
67,0.6006430905291642,0.6006064794199638
68,0.600637169913919,0.6010418228121017
69,0.6006391207798351,0.600597165772696
70,0.6006272202594422,0.6006033726128988
71,0.6006341676820516,0.6006504002635
72,0.6006315661267722,0.6007085292865857
73,0.6006233476345805,0.600890194393565
74,0.6006276545330104,0.6007194901518431
75,0.6006377446612176,0.60058429593188
76,0.6006224498976467,0.6006465161112935
77,0.6006321204024022,0.6006342287690705
78,0.6006284614805556,0.6008823294793406
79,0.6006176943129692,0.6008396788211378
80,0.6006229061668994,0.6006763933314283
81,0.6006170897834633,0.6006141140798186
82,0.6006368905062509,0.600608528991491
83,0.6006161809477173,0.6005958112238654
84,0.6006228228903102,0.6006161005857861
85,0.6006159466373553,0.6005703949454996
86,0.600620858675844,0.6005769530537702
87,0.600626904531759,0.6005736997938038
88,0.6006227075415458,0.6005889608014015
89,0.6006211096888536,0.6006580156664695
90,0.6006150774757217,0.6005906067474308
91,0.6006171240635688,0.60065074851436
92,0.6006083467307984,0.6006170684291471
93,0.6006266600478801,0.6006277160964
94,0.6006151556777792,0.6006358619363373
95,0.6006217920488789,0.6008732778262855
96,0.6006232928686076,0.6005702423398607
97,0.600616546039478,0.6006383395668294
98,0.6006259342581316,0.6005838862719666
99,0.6006085444608321,0.6006329279087909
100,0.6006117344921754,0.6005889250090342
101,0.6006239038933245,0.6006072522097131
102,0.6006194756037063,0.6007412662577096
103,0.6006201949566171,0.6006889053964733
104,0.6006211153636833,0.6005804855829433
105,0.6006098719576594,0.6006222992321989
106,0.600624670258816,0.600956326737889
107,0.6006192590056918,0.6010102241861613
108,0.6006225499068587,0.6005933535897702
109,0.6006139082154573,0.6006208425420094
110,0.6006125056584752,0.6006244991316689
111,0.6006216543541901,0.6006007929593694
112,0.6006188624444204,0.600659598724422
113,0.6006171644578813,0.6005988134048121
114,0.6006172683568051,0.6006071723128666
115,0.6006099237205633,0.6006000551633148
116,0.6006178083909315,0.6007491077146222
