epoch,loss,val_loss
0,0.5653491607295885,0.5516414830169962
1,0.5516674183530443,0.5519763438636552
2,0.5514808293875763,0.5511531878050149
3,0.5513764835555997,0.5511335616076258
4,0.5513456952358727,0.5517077734393458
5,0.5512597959990178,0.5521346610769741
6,0.551225631288083,0.5511728623960509
7,0.551155504703465,0.5511469165681314
8,0.5511684009624359,0.5509468033946773
9,0.5511131612399236,0.5510206247973383
10,0.5510684729223524,0.551513268486146
11,0.5153624168825737,0.5016614461655061
12,0.5011259192873657,0.500970473685868
13,0.5010808421816357,0.5011017885456606
14,0.5010878155069955,0.5009984062859794
15,0.5010256279564161,0.501087465357248
16,0.5010260318380129,0.501141863898663
17,0.5010170999690725,0.5017335535574787
18,0.5009981979724093,0.5010352457427505
19,0.5009934081186699,0.5008871817411323
20,0.500971809837142,0.5009327375267635
21,0.5009862994146209,0.5009225931416078
22,0.5009409782367803,0.5011526406846626
23,0.5009616192343141,0.5012677526651482
24,0.5009360710906038,0.5009680541514168
25,0.5009403046398471,0.5008545796569465
26,0.5009240305011495,0.501325914374652
27,0.5009195188978672,0.5009722847796552
28,0.5009090306504531,0.5008838016105349
29,0.5009132267461353,0.50185167144605
30,0.5009148355714271,0.500890726102493
31,0.5008935842133697,0.5010869556266084
32,0.5009046351177132,0.5010977950640411
33,0.5008785733214455,0.5012132703814258
34,0.5008909673745446,0.5008075520655062
35,0.5008709322814441,0.5008777234749522
36,0.5008772593175239,0.5009142093267985
37,0.5008682789159309,0.500927771468908
38,0.5008671161808531,0.5012731185326209
39,0.5008550346717267,0.5008734433881699
40,0.5008717305376806,0.500852913270813
41,0.5008460447915745,0.5008055528103565
42,0.500844951794428,0.5009679395862607
43,0.5008558744077033,0.5009314160784776
44,0.5008381414141464,0.5008087184233938
45,0.5008524695066681,0.501778720596588
46,0.5008287905756931,0.5008880582695859
47,0.500824246621779,0.501045388353078
48,0.5008639953754916,0.5007963050092125
49,0.5008235166386199,0.5008807083217441
50,0.5008315484530494,0.5007843175242024
51,0.5008330363210085,0.500826646672289
52,0.5008207701882283,0.5008013049958657
53,0.5008300030337652,0.5008086564523114
54,0.5008227599023537,0.5008210968438804
55,0.5008217017595796,0.5012324321358731
56,0.5008187018618548,0.500799931130989
57,0.5008188608975006,0.5007625256815265
58,0.5008197739873969,0.5008112267584126
59,0.5008253530558244,0.5016356831448842
60,0.5008164442750955,0.5007699087890739
61,0.5008092617596066,0.5008720345887594
62,0.5008118050993676,0.500806901798059
63,0.5008140467265555,0.5008102592108563
64,0.5008043996996925,0.5013448346341514
65,0.5008136751955905,0.5007861168745433
66,0.5008105139320214,0.5012818921292685
67,0.5008015603371758,0.500778328928699
68,0.500807927768357,0.5008249031698734
69,0.5008018178067438,0.5007791698718486
70,0.5008101728750659,0.5008465335623502
71,0.5008056371494185,0.5009083587833433
72,0.5008254128245454,0.5007926114143864
73,0.5007962751119717,0.5009958780728854
74,0.5008189977970505,0.5007809652879871
75,0.5007989230976768,0.5007683953043841
76,0.5008172709086364,0.500745925063235
77,0.5007860502542809,0.5008980753404035
78,0.5007931710526433,0.500897577915239
79,0.500787736223023,0.5009790937598823
80,0.5008068426381939,0.5007874408371691
81,0.5007850874642663,0.5008939033998153
82,0.500797326064577,0.5007577200385536
83,0.5007974423646684,0.50076901016401
84,0.5007886441689707,0.5007491855112554
85,0.5007835455410685,0.5016045449685222
86,0.5007966542945699,0.5008515673890599
87,0.5007840100322771,0.5008939189591419
88,0.5007926653909153,0.5007945788409515
89,0.5007840206562149,0.5007925363983173
90,0.5007816183786499,0.500727404997899
91,0.5007787456558014,0.5008272151497398
92,0.5007752194045969,0.5007439362499909
93,0.5007961810615675,0.5014915411584726
94,0.5007793391843096,0.5007173663037586
95,0.5007771131443662,0.5007607214799886
96,0.5007788935752807,0.5007398917420627
97,0.5007851365948507,0.5009660487435296
98,0.5007707109574162,0.5010867909521383
99,0.5007723555402886,0.501177629821058
100,0.5007755182079718,0.5007448582436251
101,0.5007719396621932,0.50083442556651
102,0.5007739956591826,0.5008595382605238
103,0.5007728756580816,0.500787130242246
104,0.5007872058970048,0.5007786176636556
105,0.5007661485693768,0.5007536078505126
106,0.5007790199368752,0.5007414414628268
107,0.5007657143242065,0.5007554973917031
108,0.5007687209640457,0.5007343382160954
109,0.5007799436262556,0.5007363044594417
110,0.5007712443645972,0.5007918789132357
111,0.5007592067648016,0.5009532012951285
112,0.5007717929086019,0.5015304035939294
113,0.5007728800581651,0.5007922476633607
114,0.500762795842225,0.500755587730455
