epoch,loss,val_loss
0,0.8082425257475446,0.767533363440701
1,0.7280794452134368,0.674105004546392
2,0.6724390368834198,0.6656427021184679
3,0.6612315551578093,0.653356700735762
4,0.6618816904026827,0.6402469019581224
5,0.6567197399650165,0.6352195963910365
6,0.6566210213920577,0.6389631351313444
7,0.6547887358638784,0.6471514983165895
8,0.6503266730992724,0.6470259920809338
9,0.7098725549013113,0.7295837590754644
10,0.7372793715229804,0.7250244855974826
11,0.7322747712369732,0.7424148217890332
12,0.7329617581850619,0.7368470672415106
13,0.7339400550206121,0.7280075484217859
14,0.7326708149423988,0.7343855843171418
15,0.7284597970670361,0.7253668544418528
16,0.7242801137250676,0.7174227504910873
17,0.7120672283436564,0.693457247637912
18,0.685717432535619,0.6867612872475607
19,0.6820467297407649,0.665282176485566
20,0.6836301727260617,0.6869055080950119
21,0.7057604873351914,0.7395539941191203
22,0.7379098346264814,0.7305185603832013
23,0.7315227160041186,0.728361593519691
24,0.729916497624273,0.7206419184627548
25,0.6946884146649585,0.6583831471632857
26,0.663356777837427,0.6677922573772678
27,0.6650004332466758,0.6563927102672272
28,0.6631650222624711,0.6477014994705956
29,0.6620773886033385,0.6686542897640294
30,0.6626337204429267,0.6534152526787725
31,0.6631250596113152,0.6512930423797542
32,0.6630307598579988,0.6734937079656567
33,0.6618696369355817,0.6771626513401353
34,0.661680853445467,0.6624506707490666
35,0.6618614662155735,0.6528430232967838
36,0.661402232712693,0.6526687146879692
37,0.6603184757020166,0.6702932204519
38,0.662126558349668,0.6498296471590496
39,0.6596531929801123,0.6560002426839571
40,0.6608363811394198,0.6528071122039654
41,0.6492397485257719,0.6339082943235878
42,0.6092325336963152,0.608771431441371
43,0.5900474513630025,0.5780064800214655
44,0.5929084939362524,0.5696188189565617
45,0.5945776444878415,0.5899105321589472
46,0.5958343489195327,0.6081477537480695
47,0.6028439795954241,0.6060068158884169
48,0.6126579689107639,0.60462253116771
49,0.6235561481089615,0.6318375844370218
50,0.6625010798708331,0.6721128799027124
51,0.6783872894603286,0.6720450209084701
52,0.6769999851830762,0.666601828589812
53,0.678345289459522,0.6882101303494249
54,0.6781959126917102,0.668122104730019
55,0.677393702770785,0.6686990633195277
56,0.6783736973024196,0.6706174664969696
57,0.6772132297452215,0.6692496051492894
58,0.6672125856677215,0.6419362434507263
59,0.6226915192606447,0.6024911176669099
60,0.6162841506570363,0.6034260985648058
61,0.6144160690615408,0.6130493868027697
62,0.6140366146247164,0.5985644455020035
63,0.613251719525535,0.6057831993842557
64,0.6124315930844592,0.6062121540896047
65,0.611448387221562,0.5900691112102066
66,0.6109173579348458,0.6056458610150414
67,0.6120232000565834,0.6005847289064501
68,0.6116971861687209,0.6098892681459414
69,0.6123758058765714,0.6113605785059383
70,0.6097068900791861,0.6117803097806206
71,0.6110579890312908,0.5958000774235827
72,0.6085942176093968,0.6028426148309045
73,0.6100309749218009,0.5960223420384181
74,0.6112668552606416,0.6060825395085441
75,0.6135692069773003,0.6074029300376573
76,0.6162049009812345,0.6140392769272156
77,0.6175125419235915,0.6051276443201252
78,0.6229589724426361,0.6150408689558929
79,0.6282634015420644,0.631284269862224
80,0.6330680764502854,0.6344811104843724
81,0.6371008277320557,0.6262305258481448
82,0.643334312940673,0.6393597826726246
83,0.6450773456113802,0.648117564589185
84,0.6474029016937856,0.641802866743979
85,0.6510195616457006,0.6384780818821411
86,0.6522438841448318,0.6397531334819433
87,0.6545074988874219,0.6497175183555886
88,0.6545392483306065,0.6458696204089892
89,0.6514490850799852,0.6492128637284864
90,0.6632916407047702,0.6405713760015432
91,0.6409496852248121,0.6223590062797398
92,0.6324574349583577,0.6427739312447425
93,0.6315190957294856,0.6172040166375952
94,0.6296272188020077,0.6397465614465249
95,0.6303795127393149,0.6089772042225173
96,0.6319585606205663,0.6282205229306089
97,0.630840829855723,0.6115278380540006
98,0.6274690588863252,0.6430327419982524
99,0.6253015790030444,0.6091291824474802
100,0.6269877874117484,0.6261468862536956
101,0.631901848260209,0.6282005973848284
102,0.625968250010511,0.6009266676165123
103,0.6203055023301325,0.6107354836851571
104,0.6197772048455443,0.6239094602821752
105,0.6219071870108398,0.6125456827450853
106,0.6213960169935875,0.6094897495848792
107,0.6209468146760782,0.6175114979824873
108,0.6218763562105447,0.6230977961606836
109,0.6204698344381403,0.6126141808191998
110,0.6215870791583133,0.6248619174195164
111,0.6211513152582754,0.6120520438160968
112,0.6212486894510919,0.611770050983873
113,0.6215717527124998,0.6035347450362855
114,0.6207479475904331,0.6127479436741914
115,0.6224289368823183,0.6239569316064644
116,0.6189137512474037,0.6160351063147622
117,0.6207669555759735,0.6210120005125875
118,0.6632809437019267,0.6390786259872479
119,0.6421399025393905,0.6359614772220813
120,0.6378270355369643,0.6214750296220878
121,0.6374992353798483,0.6358766035009955
122,0.6385025649095516,0.6407960257665699
123,0.6395128810648724,0.6273105714437806
124,0.6399722188163242,0.6154982134429319
125,0.637680749372422,0.6165771771107683
126,0.6394636084755166,0.6344303512488563
127,0.6431627628638399,0.6313266774144056
128,0.6421858932641293,0.6414139694883396
129,0.6408941164600859,0.6370076185008533
130,0.6439298469480946,0.6393779889748806
131,0.6421390801882573,0.6302261523778926
132,0.6407234304838424,0.6299029734770708
133,0.6438307939625854,0.6315521485192058
134,0.6422727625313804,0.6328566699114576
135,0.6411209655084389,0.6457657603739563
136,0.6383676254492012,0.6248337608345306
137,0.6354023736598585,0.6313097374168266
138,0.6383846419439804,0.6294576434893409
139,0.6362172077647407,0.6312670072492127
140,0.6376694050505102,0.6385532827620066
141,0.6391426413703403,0.6374159947143546
142,0.642522917484208,0.6233684850802267
143,0.644769445133152,0.6460563290420253
144,0.644211170520428,0.6673234944608895
145,0.645137553473266,0.6387281037026159
146,0.6466313951688228,0.6613964207923215
147,0.6457185833502731,0.6411125625835786
148,0.6465294057612034,0.6517760784445359
149,0.6497495162258331,0.6420929842138253
150,0.6512154913205894,0.6393287109877053
151,0.6460511505270271,0.6364386497328577
152,0.6506309878411625,0.6167920797757492
153,0.6148836802926472,0.6053702358594539
154,0.6203585500053936,0.6123037201594252
155,0.6125464105694224,0.6023701325400006
156,0.6122478782344494,0.6093600721178605
157,0.6112666867917581,0.6014814149256099
158,0.6100636057430606,0.5832966844350593
159,0.611470988632249,0.6053511820139618
160,0.6161200247115368,0.5994001073143853
161,0.614634021086325,0.6242988921096218
162,0.613389576802389,0.6095477335901832
163,0.6186901258526565,0.6127099616022306
164,0.6201801057473171,0.6136948237197081
165,0.6239625112377672,0.6252212695418706
166,0.625979754433548,0.6295503860114594
167,0.6273136962112859,0.6035038394752035
168,0.6014649516863407,0.5937940081156607
169,0.5994197351814841,0.5846867720819215
170,0.602723405104604,0.5856901185547355
171,0.6103415517009896,0.6058741951186354
172,0.6021030625160173,0.5773245706131068
173,0.5988525018798743,0.5950496022449108
174,0.5991753451675057,0.592718939390254
175,0.5983360287287443,0.5895830915848289
176,0.5987448907739443,0.594847326085336
177,0.5964217039166119,0.6010879032496119
178,0.5956169734898803,0.5979396312158693
179,0.5957873192169874,0.5875413559300747
180,0.5943344581029494,0.5860967071816595
181,0.591188122501238,0.5875787440608031
182,0.5947327663798889,0.5931324769802326
183,0.5934518336070528,0.5850028267575703
184,0.5957913041638909,0.5931077066282635
185,0.6016330651039604,0.5961809647229118
186,0.6004677513401381,0.5847417801007005
187,0.6018922777234508,0.5957665422015427
188,0.60603535732777,0.6295773161850111
189,0.6081022171736907,0.6223924850608387
190,0.6127839281047277,0.5950351070139289
191,0.6144694580460529,0.6162336752841863
192,0.616613347324536,0.6160267160554147
193,0.6228503152120599,0.6202631601571285
194,0.6259917602312269,0.6172900802757952
195,0.6252799460427653,0.6348365969608972
196,0.6299451370414594,0.623547499374602
197,0.629469239478298,0.6147056653001879
198,0.6254923476232327,0.6163534904758857
199,0.6231504537993007,0.6380061256716171
200,0.633499366988381,0.634071210541872
