epoch,loss,val_loss
0,0.5622177902139314,0.5516780044541465
1,0.5516454317937295,0.5518436814064424
2,0.5514808491287898,0.5512446515317591
3,0.5513078272496503,0.5518706797961858
4,0.4528914500588505,0.45133026032234835
5,0.4514893163717108,0.45159282968298675
6,0.45139872444423645,0.45183168407113616
7,0.4513516779946851,0.4513743521557848
8,0.45133087001287847,0.45161243320694633
9,0.4512947720201907,0.45108775786371447
10,0.45126587202137813,0.45148888252509145
11,0.4511908712517683,0.45108350774194705
12,0.4511634437671635,0.45125143607851886
13,0.45114342367757465,0.4518948370558452
14,0.45115749625958296,0.45100868647506753
15,0.45113647094260195,0.4521176375319289
16,0.45113307110308254,0.4513280460319803
17,0.45110818497354715,0.4510349951370182
18,0.45108410789181197,0.451009985501358
19,0.4510838781495538,0.4509659740972164
20,0.45105482974337163,0.45135971001596664
21,0.45105476555563523,0.45090567335005727
22,0.4510274271194752,0.4510789880237863
23,0.4510154940401999,0.4512908343197986
24,0.4509897060150287,0.45092694484270535
25,0.4510131618350295,0.45117457195487864
26,0.45101441681961674,0.4511719890327075
27,0.4509954162703126,0.4508870315758821
28,0.4510126043011447,0.4508914311973392
29,0.4509992066152696,0.4509371976106989
30,0.4509633805864729,0.4510235049292704
31,0.45097412209308485,0.45097775074743457
32,0.45097658216059533,0.4508945968547471
33,0.450954645932067,0.45136688332403857
34,0.4509710635475638,0.4509218537629982
35,0.45095535946184834,0.45086322190152206
36,0.4509620154219177,0.45086655990953184
37,0.4509378721918137,0.4509258127094202
38,0.45094679200548765,0.45122889851222264
39,0.4509361100479081,0.4509788539066504
40,0.4509409036280717,0.45090792736699503
41,0.45093233794736326,0.4511410011399177
42,0.45092627922802747,0.4520062377671746
43,0.4509208272721589,0.4508828986815128
44,0.45090220937826886,0.45086044068667785
45,0.45092269667500173,0.4511690933414488
46,0.45092223036120566,0.4511559030702037
47,0.4509170179243314,0.45084694131432335
48,0.45091100555417196,0.4508349105235069
49,0.45090983120557154,0.45082257040972745
50,0.45089846437673226,0.45177328715253406
51,0.4508925276476997,0.45104997990740736
52,0.45087536629345837,0.4509179986292316
53,0.4508889474209283,0.4511058767143609
54,0.45087775009114595,0.4518715919986848
55,0.4508940171603656,0.4508676669289989
56,0.4508832863660401,0.45085594732471496
57,0.45087787996184253,0.45119755254785715
58,0.45089772652540666,0.4511758641480808
59,0.4508629256939759,0.45088364564751277
60,0.4508873677807007,0.45128642947738873
61,0.45088088069256993,0.45112068521473603
62,0.4508720801796896,0.45083839998351727
63,0.450873723394734,0.45089716995620255
64,0.45087092733020634,0.45143884843395604
65,0.4508670063399235,0.4508194926358926
66,0.45087491923022477,0.45091606286855845
67,0.450875913882981,0.4508351914492198
68,0.4508744413916492,0.4513977080361719
69,0.4508629189041375,0.45108453578156216
70,0.4508685601243359,0.450876174952197
71,0.4508697285867006,0.4517271783896179
72,0.45086698225305555,0.4514962095924406
73,0.450866399164688,0.45086270368128795
74,0.45084535549838073,0.4510166808038432
75,0.4508692046071993,0.45089205695736795
76,0.4508459681204746,0.45110689065888265
77,0.45086195648447763,0.45080486453200685
78,0.45084984467172856,0.45106662778049783
79,0.45086999472312367,0.45083728971019865
80,0.45084944235280033,0.4509081518088026
81,0.45085349777833394,0.45095025738770556
82,0.45085210089697036,0.45086283300709784
83,0.45086632851842107,0.45107026570488146
84,0.45083004825081535,0.45102697057700336
85,0.45084782863125206,0.45109650924543
86,0.45085508344244773,0.45083938340099516
87,0.45086317886679694,0.4508296228076329
88,0.45084620146886073,0.450845064655427
89,0.4508406298197565,0.45088199106398646
90,0.450849189810253,0.4509215672909474
91,0.45084121268212474,0.45104714021197617
92,0.45086447207563046,0.4514116884904819
93,0.45084965804484567,0.4508667486033428
94,0.4508380691238038,0.4508292659488564
95,0.45083453077828595,0.4511267774158317
96,0.4508386121649432,0.45079242368194067
97,0.450840695085821,0.45088702885447896
98,0.4508408841111359,0.4511812154767531
99,0.4508534291136033,0.45088132207210246
100,0.4508366583334277,0.45085976329394073
101,0.45084877761322417,0.45079751561948145
102,0.450831897642271,0.4509021474173288
103,0.45085409567695023,0.4508028865895851
104,0.45083105742905333,0.4510094528754355
105,0.4508525336394231,0.4508257639171468
106,0.45083874869019414,0.4509011617813158
107,0.45083544770938094,0.45085155634075474
108,0.4508303043004927,0.45080082580706027
109,0.45083607614195775,0.45113708592821883
110,0.4508387936814028,0.4507838194630578
111,0.4508396169229825,0.4510651557824156
112,0.4508357415364334,0.45085716488639416
113,0.4508302127636895,0.45085969388337055
114,0.4508295960239126,0.4510219795088614
115,0.4508380682750247,0.45087013858423636
116,0.4508309725771744,0.45111068632111656
117,0.45084157402497965,0.4508479994076949
118,0.4508303510117412,0.4513691371043326
119,0.4508463767200527,0.45077899228550367
120,0.4508407549531455,0.4521897128734636
121,0.45081998762912007,0.45102008875487165
122,0.4508284980638538,0.4510106510175369
123,0.450844021170696,0.450803629769285
124,0.4508351743685903,0.4508134145298903
125,0.4508315116094891,0.4508925045690229
126,0.45083152250438924,0.4510311918578136
127,0.45084577667424613,0.45124991753556887
128,0.4508302553264907,0.4507959218533992
129,0.4508181208869946,0.4507843417062357
130,0.45084475598739965,0.4508695475812585
131,0.4508319006173364,0.4508654996863666
132,0.4508229804735379,0.4510112449046104
133,0.4508424356915624,0.4509266355197424
134,0.4508308966840169,0.45085001062814417
135,0.450836382568568,0.4507706428431991
136,0.45082856048500947,0.4508306431859066
137,0.4508156214214615,0.450801329932201
138,0.45082933643712975,0.4510293794329054
139,0.45083444618593144,0.4511938017148238
140,0.45082530616929833,0.4507981033538175
141,0.45082503214853775,0.45091849923429655
142,0.45082491895840154,0.4508301767758637
143,0.45082656423662604,0.4509551722861401
144,0.45082072485529934,0.45092006083161895
145,0.45082116411189505,0.45078916846966327
146,0.4508201216253879,0.45132513685202774
147,0.4508317626382752,0.4508012000147817
148,0.45082817272982123,0.4507826014724618
149,0.4508135312832004,0.4508042355181266
150,0.45082447385658914,0.45083246068386523
151,0.4508326514172763,0.45084619306157303
152,0.450835228526771,0.45076109743295767
153,0.45081809746234786,0.4507911370498667
154,0.45081974398613206,0.4511548127193309
155,0.4508117392995031,0.451511798203731
156,0.450826373779588,0.4508006249408864
157,0.45082322967697563,0.45093677588195424
158,0.45082144897273224,0.45081401554585687
159,0.4508272491808524,0.4508172710243585
160,0.4508162677517604,0.45159720732615544
161,0.45082616024380445,0.4508472278307449
162,0.45081269158942605,0.45105352228687656
163,0.45081917607166305,0.4507950947095383
164,0.45083473543975267,0.4507854326782984
165,0.45081256050393415,0.45087036453464785
166,0.45081839096006454,0.4507774246093949
167,0.45082254161175067,0.4507700878692324
168,0.45085151741379437,0.4509128211597651
169,0.4508173803875728,0.450811344000601
170,0.4508146625377239,0.4507721098865528
171,0.4508183430568968,0.45077471039431266
172,0.4508366450598162,0.4508708884639125
