epoch,loss,val_loss
0,0.7074906277957257,0.7010022145642832
1,0.7011377340935327,0.7011008992384444
2,0.7010127314582724,0.7009367526908666
3,0.7009042592701227,0.7007859209335175
4,0.700886278478031,0.7008210172132582
5,0.700863913558077,0.7008309188906667
6,0.7008325410022376,0.701425369028418
7,0.7007602428454719,0.7006733575766495
8,0.7007390515598344,0.7007104859754406
9,0.7006902641826996,0.7008292952778913
10,0.7007031386708023,0.700911761010551
11,0.7006668066560692,0.7007561445236206
12,0.7006387572770897,0.7009016823827776
13,0.7006502644049339,0.70072735269963
14,0.7006172050252628,0.7008656357121527
15,0.7006395106150842,0.7005307141959519
16,0.7006030487915775,0.7005050080585716
17,0.7005997780078953,0.7006760916698068
18,0.7005891478558165,0.7005546147119318
19,0.7005840258786006,0.7012753389905168
20,0.7005871840870381,0.7005912401835912
21,0.7005652314575891,0.7007176513411567
22,0.7005739536623145,0.7005974784382519
23,0.7005603062078063,0.7005427231859629
24,0.7005832545261373,0.7009675814259437
25,0.7005500313486648,0.700536910771732
26,0.7005438471961852,0.7006514567891067
27,0.7005498257500702,0.7005149449071576
28,0.7005368249256156,0.7005852323903635
29,0.7005449419027223,0.7005063947909523
30,0.7005408236596469,0.7008330921381343
31,0.7005370572788949,0.7005075910251135
32,0.7005278764644637,0.700744669727297
33,0.7005395745147545,0.7005496065610691
34,0.7005369725634834,0.7005382957588651
35,0.7005302249052954,0.7006453805170935
36,0.7005267759466296,0.7006570681153101
