epoch,loss,val_loss
0,0.508606375399676,0.5015525505501343
1,0.5017340244660441,0.5014041119414583
2,0.5015339383351869,0.5012908414930622
3,0.5014333431318526,0.5012719275933637
4,0.5013403541851419,0.5010692505919312
5,0.5013377798594217,0.5016729614574915
6,0.5012846764650035,0.5011671891283457
7,0.5011807848418605,0.5011967585932824
8,0.5011518886179851,0.5020639676609938
9,0.5010983615179295,0.5010768912270407
10,0.5010924470539663,0.5009448788302117
11,0.5010797260213391,0.5009235244530897
12,0.5010378675577499,0.500964037064583
13,0.5009994924212806,0.5009743258911682
14,0.5009690328409575,0.5008657493011531
15,0.5009562526028325,0.5008749882873176
16,0.5009603460577718,0.5010994715075339
17,0.5009422036190131,0.5011789769747713
18,0.5009156797193196,0.5011446290808931
19,0.5009196329781961,0.5009165839285176
20,0.5009105632686338,0.5010884074360206
21,0.5008987917374221,0.5009470876925637
22,0.500893604378184,0.5014425650128064
23,0.5008973210099101,0.5007882533239076
24,0.5008833200807135,0.5008571728287501
25,0.5008916663291479,0.5010435075677062
26,0.5008767083896806,0.5008222692657641
27,0.500869773022732,0.5007857600157669
28,0.50088534372786,0.5015376968655929
29,0.500849701684555,0.5012328728552787
30,0.5008667516026195,0.5011994523682606
31,0.5008627664182896,0.5008805456587457
32,0.5008597634204701,0.5008554848192939
33,0.5008372313872699,0.5008327249853546
34,0.5008444512940026,0.5008359909057617
35,0.5008248897486468,0.500805655543325
36,0.5008220057739534,0.5008815771592758
37,0.500838626613672,0.5010337226739888
38,0.5008213994514412,0.5010583275009326
39,0.5008278019720656,0.5008330690357881
40,0.5008139338097481,0.5007710164593112
41,0.5008014635164072,0.5013391230301585
42,0.5008112464220764,0.5007826573499675
43,0.5008046031321649,0.5022183785959153
44,0.50080919513518,0.5009919260335027
45,0.500812370666284,0.5008111581317248
46,0.5008043345535299,0.5007501018254396
47,0.500802016530701,0.5007426743471889
48,0.5007957275800337,0.5007358788260751
49,0.5007856254064205,0.5008857811059313
50,0.5008029794926802,0.500723955619424
51,0.5007874903721049,0.5008152685745182
52,0.500781194225747,0.500787862772977
53,0.5007866141094403,0.5007784398554572
54,0.5007905422630716,0.5008698451016145
55,0.5007777047252578,0.5007782894091926
56,0.5007858004260913,0.5007861333508645
57,0.5007940376016781,0.5009688593317794
58,0.5007868673327462,0.50082494334015
59,0.5007730863777486,0.500910804644412
60,0.500787895014132,0.5007546261877339
61,0.5007705365064904,0.5011078228134079
62,0.5007775907679861,0.5007811703102168
63,0.5007787275032877,0.5007251070095943
64,0.5007674037969232,0.5007689965569944
65,0.5007874934256588,0.5008261364979425
66,0.5007662026853553,0.5008499507276947
67,0.5007646834346565,0.5007262555008787
68,0.5007644028366468,0.5016830702277626
69,0.5007739870656885,0.5007511576706954
70,0.5007688557716232,0.5007462858266334
