epoch,loss,val_loss
0,0.6546072244487977,0.6511984348001314
1,0.6513694075196068,0.6518025073460846
2,0.6511421373826622,0.6519271968612008
3,0.6510801109084271,0.651492824092988
4,0.6402504708150989,0.6011776947797676
5,0.6011110149096462,0.6010214009296805
6,0.6010586678902109,0.6008909549370002
7,0.6010128760154506,0.601042490561606
8,0.6009638529506599,0.6008708059639848
9,0.6009462329409607,0.6013927092327374
10,0.6009186953899791,0.6007939580948122
11,0.6008964996200256,0.6008288745253021
12,0.6008921981731871,0.6007916218589612
13,0.6008508220511989,0.6007997988471322
14,0.6008048318177089,0.600774251320226
15,0.6008273392639242,0.6011424618974217
16,0.6008017464401979,0.6007430303185513
17,0.6007838567246282,0.6011275901687944
18,0.6007884038015128,0.6009093885386256
19,0.6007439876580554,0.6007822402653564
20,0.6007549233422134,0.6006893766133424
21,0.600735262992186,0.6006552368476432
22,0.6007198081406726,0.6007468413182583
23,0.6007170784118604,0.6017962446283762
24,0.6007232421376347,0.6007403271074034
25,0.6007157331750766,0.600793875624465
26,0.6007080194390383,0.6007074567283649
27,0.6007217206308875,0.6011509100793313
28,0.6006932480582202,0.6006818878443602
29,0.600702405072917,0.6007620013972962
30,0.600690923641939,0.6011022188527413
31,0.600688445308718,0.6006529555131425
32,0.6006882145070637,0.600728024531239
33,0.6006820883192552,0.6006778310605373
34,0.6006780507141386,0.6006898090797973
35,0.6006795760506466,0.6008121563838078
36,0.6006641387339944,0.6006993633641794
37,0.6006783226618587,0.6006700794690891
38,0.6006754682595442,0.600678846765097
39,0.6006747175712236,0.600691581541492
40,0.6006707569620463,0.6006931412308743
41,0.6006704535661138,0.6007080934479574
42,0.6006552559017679,0.6006347879286735
43,0.6006672909994006,0.6006265558025086
44,0.6006454398282409,0.6006330034868889
45,0.6006566338544109,0.600639631523388
46,0.6006593036961778,0.6006142895807404
47,0.6006614367608899,0.600687894128984
48,0.6006492220707494,0.6006395400309977
49,0.6006569193526212,0.6006999404199662
50,0.6006505879211907,0.6006112514891044
51,0.6006467147536153,0.6006478232426324
52,0.6006468244606809,0.6006361233981017
53,0.6006348020545045,0.6006417092555214
54,0.6006498857536904,0.6006508443846597
55,0.6006441193156983,0.6006819437514463
56,0.6006422331005608,0.6007093563269149
57,0.6006417962120272,0.6005947004476788
58,0.6006465099099293,0.6008308612974939
59,0.6006342234364261,0.6005958333796366
60,0.6006474215223504,0.6005921128665839
61,0.6006404933313716,0.6006065016940569
62,0.6006396999532484,0.60068478108044
63,0.6006397361738711,0.6006045654748865
64,0.6006388379533857,0.6007885143419649
65,0.6006365322638851,0.601139056830489
66,0.6006300070702267,0.6005848087684689
67,0.6006381692038015,0.6006088923579705
68,0.6006254791942083,0.6017835019539959
69,0.6006409559293926,0.6006941655137699
70,0.6006308491135257,0.6007902913294714
71,0.6006290910364237,0.6007960190844004
72,0.6006411218286323,0.6006245034504173
73,0.6006189576047057,0.6006485144494486
74,0.6006334594981587,0.600655384395022
75,0.6006217471992649,0.6007671414474696
76,0.6006396516588218,0.6006521150432804
77,0.6006110798279068,0.6008430932946596
78,0.6006310635517287,0.6006220918139512
79,0.600625145972683,0.6006247830745896
80,0.6006211025136726,0.6007670601899215
81,0.600625935917826,0.6005873688988886
82,0.600628746271187,0.6006189869591971
83,0.6006204535778743,0.6011232390001453
84,0.6006167890703354,0.6005730794913715
85,0.600630837778065,0.6007450144876617
86,0.6006243792545852,0.6005981960012658
87,0.6006258307449448,0.6006572519579242
88,0.600608432378605,0.6005809459437803
89,0.6006240134970535,0.6005887765150804
90,0.6006089680718101,0.6008927119872706
91,0.600603673458762,0.600786533929574
92,0.6006208110203682,0.600668693653703
93,0.60061657170558,0.6006011099140934
94,0.6006180896807436,0.6006918450443088
95,0.6005996385837796,0.6008112190970711
96,0.6006149777654756,0.6006316205999691
97,0.6006109802888364,0.6006853071394984
98,0.6006137327138125,0.6010897380246714
99,0.6006090755015286,0.6006321603252042
100,0.600604005364522,0.6007056666367108
101,0.600609734266126,0.6005861789949478
102,0.6006063859808655,0.6005822265414387
103,0.6006073685026277,0.6008662638534091
104,0.6006049968631487,0.6005808998574098
