epoch,loss,val_loss
0,0.6062559384418151,0.6016075338086774
1,0.6014469013639006,0.6013834313482563
2,0.6012858521442782,0.6011427222942892
3,0.6012438555639772,0.6009888279822565
4,0.6011241610954103,0.6010479134010618
5,0.6010820472218834,0.6010624621701299
6,0.6010257898037611,0.6010826877565597
7,0.6009891564274833,0.6009929344021061
8,0.6009638762573768,0.600883627115349
9,0.6009101695648136,0.6008554721292728
10,0.6008933252059022,0.6007611427354458
11,0.6008429918659808,0.6008262585173766
12,0.6008537029360524,0.6008257767106996
13,0.6008175066352606,0.6007187178945423
14,0.6008169977062062,0.6013351735642767
15,0.600783732238867,0.6008267092645612
16,0.600755525136063,0.6007069550140324
17,0.6007663786227488,0.6008707738691761
18,0.600749410941598,0.6006728650914233
19,0.6007389644326595,0.6007185182855383
20,0.6007437356968743,0.6006990752504127
21,0.6007212043751972,0.6007310603747593
22,0.6007127707537889,0.6007552772538538
23,0.600708597440253,0.6007481171238807
24,0.6007018764381463,0.6009144449056526
25,0.6006889357523731,0.6007492541083627
26,0.6006870503749712,0.600738615670216
27,0.6006894823968796,0.6008155344437724
28,0.6006867389866317,0.6006796632451987
29,0.6006733281009006,0.6006267355925984
30,0.6006823015040101,0.6006424841454839
31,0.6006575068221404,0.6007921376831774
32,0.6006710777066765,0.6006229459795703
33,0.60065608104679,0.6007555622025104
34,0.6006600088336164,0.6006291188318144
35,0.6006600704900031,0.6006000221515116
36,0.6006535574916281,0.6006505698187475
37,0.6006469465618144,0.6007215385401515
38,0.600654882694543,0.6006516119978268
39,0.6006596541630644,0.6007568509939587
40,0.6006427262554183,0.6008753482816237
41,0.600642641473745,0.6013832441926298
42,0.6006442633691308,0.6006534069702584
43,0.600626940094499,0.6005946101385073
44,0.6006486926802814,0.6005883900166741
45,0.6006228417014955,0.6008022405373548
46,0.6006358179168778,0.6008939409965913
47,0.6006308547867778,0.6006303287025717
48,0.6006316219497747,0.6005813786172985
49,0.6006183217792315,0.6005896838072216
50,0.6006253197846579,0.6006197003217844
51,0.6006202670965302,0.60060287492151
52,0.6006229345134394,0.6005915842636051
53,0.6006278397971926,0.6009539174382799
54,0.600616731787212,0.6006877669921288
55,0.6006124273570254,0.6005771568632008
56,0.6006220273815622,0.6006754456915275
57,0.6006098579733137,0.6006988480724117
58,0.6006232946300609,0.6007685071185564
59,0.600614200772102,0.6006894164286536
60,0.6006076658064404,0.6006891187899758
61,0.6006102642245502,0.6005776696406286
62,0.6006018939547206,0.6005742600183037
63,0.6006131462950125,0.6008115793280211
64,0.6005998502808048,0.6006389099965912
65,0.6006162884247657,0.6005941341296023
66,0.6006107150469444,0.6005897669875001
67,0.600623781208458,0.6005637423572114
68,0.600595645355769,0.6006449269893448
69,0.6006070266962856,0.6006916432463502
70,0.6006050363731849,0.601418750457669
71,0.6005973109143712,0.6006512561152059
72,0.6005924326471938,0.6006365571069362
73,0.6006010465552784,0.6006518796714896
74,0.6005985230726887,0.600876743444438
75,0.6005984822468872,0.6005608689400458
76,0.6005952599808698,0.6008984595315332
77,0.600602962801104,0.6009597313906951
78,0.6005994187421038,0.6007439815968497
79,0.6006037924108936,0.6005635707017506
80,0.600595093618588,0.600760516783144
81,0.6005954383570045,0.6007504004698533
82,0.6005822853368331,0.600584120164734
83,0.600585706187185,0.6007163347144873
84,0.6006087639585789,0.6006342523447041
85,0.6005966009824352,0.6006355543290415
86,0.6005861350596468,0.6015042331023488
87,0.6005922009399646,0.6005765918466649
88,0.6005908654341651,0.6006518941067585
89,0.6005868378100913,0.6007653966435131
90,0.6005895876437668,0.6005817724220806
91,0.6005823559393201,0.6006801010657185
92,0.6005788526296051,0.6005831093409517
93,0.6005858611911301,0.6009024310940253
94,0.600583755435649,0.600620381530402
95,0.6005760166424841,0.6009803466406413
