epoch,loss,val_loss
0,0.5618107955722814,0.5518282251381696
1,0.551655518133195,0.5517695170478253
2,0.551531474451878,0.55126447784102
3,0.5513649727628598,0.5510442383827702
4,0.5243105523636222,0.501608924889387
5,0.5014100106297528,0.5018805522185106
6,0.5013305142550848,0.5010934150840154
7,0.5012277123167986,0.5010912741975808
8,0.5012119186896209,0.5011055548196987
9,0.5011639144871171,0.5010638944564327
10,0.5011201520652785,0.5015500310632787
11,0.5011057126691031,0.5009599990939384
12,0.5011010533183061,0.5016537582312269
13,0.501042765336592,0.5012832467372601
14,0.5010273720775703,0.5009027645842313
15,0.5010388802151144,0.5009215094611308
16,0.5009791260377061,0.5009333133401705
17,0.5009979649967445,0.5008904962030889
18,0.5009637200012459,0.5008680311976828
19,0.5009973634253443,0.5009550291610415
20,0.5009432058449141,0.501025713762042
21,0.50093406470144,0.5008506402484241
22,0.5009677927652225,0.5011615973548321
23,0.500929824113483,0.5010862697738572
24,0.5009595054225311,0.5008014969139478
25,0.500904671177415,0.5008398318704838
26,0.5009082048593807,0.5008610220760034
27,0.500883061272504,0.5008892060805196
28,0.5009129452575385,0.5008819185178865
29,0.5009398062692577,0.500841702657657
30,0.500897656000777,0.5008054711091016
31,0.5008858284588216,0.5008259303220745
32,0.5008771473102356,0.5008313161563637
33,0.5008955478038728,0.5008399070048747
34,0.5008658550844253,0.5008143896796271
35,0.5008796436082291,0.5009038246890747
36,0.5008819446152457,0.5010549873039681
37,0.5008924637129405,0.500859631586903
38,0.5008702414131182,0.5008167339909462
39,0.5008738913486344,0.5009323177799102
40,0.5008698893220345,0.5008814667945464
41,0.5008643315046376,0.5010540068593273
42,0.5008518881868532,0.5008290297636028
43,0.5008511452661235,0.5008467752643614
44,0.5008497360798294,0.5008719752503388
