epoch,loss,val_loss
0,0.4567959178940918,0.4519272339994795
1,0.4522128717668922,0.4517343759240938
2,0.4518003482373294,0.45189202281440755
3,0.4516721878862547,0.4540878798618506
4,0.45161082054539403,0.4521542484352074
5,0.4514897145181324,0.45134669419553675
6,0.45141002925343354,0.451247371411501
7,0.4513808787322625,0.4514117194612328
8,0.4513251956437542,0.4511191183520902
9,0.4512707900068424,0.4512539659629093
10,0.4512436506369909,0.4520567178578294
11,0.451192257065084,0.4511561552732813
12,0.4511647108894497,0.4512772178679483
13,0.4511758076495575,0.45100052375947275
14,0.4511055703978701,0.4524162222966367
15,0.4511180208644096,0.45104921906816753
16,0.4511005869455845,0.4515226118174144
17,0.4510852006625647,0.45101096252945455
18,0.45107455995438744,0.451307438280683
19,0.4510583402211682,0.4509412647033152
20,0.451057415583222,0.45100440178852225
21,0.45104553253852825,0.4510275486681065
22,0.4510040716967899,0.450987018692878
23,0.45101842965355693,0.4509821296921439
24,0.45099090587985363,0.45122732592575604
25,0.45101110152591095,0.45117451720143076
26,0.45098713025758547,0.45090828561605356
27,0.4509959382737993,0.45089856091859026
28,0.45097109109186556,0.4511722705352395
29,0.45098453265906807,0.4509473433565561
30,0.4509668534489985,0.45095815661527383
31,0.45098104914893994,0.45096673228900425
32,0.45094498038746295,0.45145473054265856
33,0.4509602550351268,0.45094937634823046
34,0.4509460431997054,0.4508533164230233
35,0.4509324836518131,0.45130956721660814
36,0.4509648997385681,0.4508621057121097
37,0.45092210088807844,0.4510667577718683
38,0.4509348690626543,0.4523725266787905
39,0.4509384053651072,0.4511436804500466
40,0.4509181504618839,0.4509893728988638
41,0.45092915788246934,0.4509139862309023
42,0.4509282946114101,0.45092105554883594
43,0.4509132352377126,0.45102104745786775
44,0.4509275460083566,0.45105165775597245
45,0.45090986350926804,0.45135450960684653
46,0.45089416753625583,0.45125234223181204
47,0.45091271261381255,0.45134030466635827
48,0.4509071135730448,0.4514025205861842
49,0.45090631507029943,0.45178918030954174
50,0.40583634054565665,0.401023409576629
51,0.400991621303848,0.40095990356381417
52,0.4009885069700328,0.40098353930501723
53,0.4009990344683531,0.4009377724627407
54,0.40098691321766944,0.4009725068106545
55,0.400967877350162,0.4009431450745604
56,0.40097816612344345,0.40094151272075645
57,0.40097715100848474,0.40115374817741717
58,0.4009630004725053,0.4009283992995695
59,0.40096304469539534,0.40107038788700816
60,0.4009650647857156,0.40101343093084046
61,0.40096055240188794,0.40135435890914783
62,0.4009765319475809,0.40089233675902297
63,0.40096977545372875,0.4011065959043006
64,0.4009374926379141,0.4009203652442241
65,0.4009747097683304,0.40096435574976447
66,0.40095516305886025,0.4009110915897502
67,0.4009523156286035,0.40094153299816787
68,0.4009708867915244,0.40107803145058396
69,0.4009468029700413,0.4009566905776561
70,0.4009626278352088,0.4009920065071683
71,0.4009428384770686,0.4012336282369221
72,0.4009747691986441,0.400867744725632
73,0.4009434688481906,0.4009349375445553
74,0.4009359577479082,0.4009520325116425
75,0.40093899717105136,0.40106818662683663
76,0.40095308215383285,0.40111827724624805
77,0.4009456468516542,0.4008765522362872
78,0.40094721173803416,0.40092721778169166
79,0.40093863772887794,0.4008734526172761
80,0.4009293180373046,0.40092285485480617
81,0.4009514135700747,0.4009929382919378
82,0.4009377159788317,0.40099976481338295
83,0.4009269465338983,0.4009146527232367
84,0.4009346556170338,0.4008806764487889
85,0.40093537848141314,0.4009603238283257
86,0.40093427674720594,0.40089535371541385
87,0.40094463077826925,0.4009095938270796
88,0.40092499890060007,0.4009718595012542
89,0.40094594802821865,0.40086366448449734
90,0.4009231442338561,0.4012873643533172
91,0.4009328134476944,0.40192340272236105
92,0.40093351572326424,0.401097210036318
93,0.4009246944413272,0.4012819744665037
94,0.4009388817777181,0.4014826308704783
95,0.40092786363064725,0.4008673602978586
96,0.4009551043313924,0.40096692379295973
97,0.40091306725896414,0.4008899364518764
98,0.40091589272587835,0.4011089191839062
99,0.40093108653955956,0.4008759230449241
100,0.4009343552344249,0.40095055229018994
101,0.40093022139424456,0.40087716617891866
102,0.4009208367186127,0.4008893958688078
103,0.4009110146097615,0.40087630244401784
104,0.4009285712469782,0.40089115342194626
105,0.40091884825635765,0.40092125662207306
106,0.4009261277077842,0.4013781507316949
107,0.40092732445200496,0.4008922791954306
108,0.40091984058956465,0.40090532734731293
109,0.40093220729320256,0.4009050409344231
