epoch,loss,val_loss
0,0.6058791492587071,0.6016497966669333
1,0.601582677241513,0.6013639878694236
2,0.6013999681163179,0.6011431079052814
3,0.6011998270924865,0.6011508094169957
4,0.6011701347146017,0.6011185269793565
5,0.6010639862722291,0.6014226701360187
6,0.6010259919591207,0.6010693943530099
7,0.600958843175573,0.6013396900877468
8,0.600940080799128,0.6012716259909031
9,0.6009226527870482,0.6009520318608722
10,0.6008968618641166,0.6007581469438804
11,0.6008591464909011,0.6009380163093359
12,0.600828427925671,0.6011762483540007
13,0.6008273136995811,0.6008316878645354
14,0.6007962060472263,0.6006870372419617
15,0.6007981466670533,0.6007865338999935
16,0.6007965854719948,0.6020841738722165
17,0.6007613795623149,0.6009200539541599
18,0.6007513393448433,0.6013381223524771
19,0.600738059009384,0.6007419497736038
20,0.6007486293130703,0.600716631347429
21,0.6007207319515325,0.600704636289819
22,0.6007269482542814,0.6006757210856928
23,0.6007190421443527,0.6007404498959298
24,0.6007071738673109,0.6009107451876695
25,0.6007101791369556,0.6010879664799712
26,0.6007167964334014,0.6006911689531123
27,0.6006968121763318,0.6010346976166624
28,0.6006916325996723,0.600697205705619
29,0.6006840311896089,0.60082950086215
30,0.6006842108554776,0.6006902289745529
31,0.6006789472283887,0.6006932700538162
32,0.600678268836169,0.6015058058367178
33,0.600678631126801,0.6007305525372697
34,0.6006684676186429,0.6006582786959986
35,0.6006607994295425,0.6006919391397803
36,0.60066145080282,0.6006391131552514
37,0.6006646196241516,0.6006430364719987
38,0.6006737901530526,0.6012509885260249
39,0.600667421088997,0.6006317575279596
40,0.600660634310454,0.6007314664258555
41,0.6006541866420385,0.6006731098993836
42,0.6006564811885525,0.6006748786043589
43,0.600649301181537,0.6008287059166295
44,0.6006520914710538,0.6007523728659372
45,0.6006462186714164,0.6020509200119795
46,0.6006420260166028,0.6006265225540616
47,0.6006407678877465,0.6008065321605199
48,0.6006332473751664,0.6006049168021153
49,0.6006333354596632,0.6007521267860166
50,0.600633276463205,0.6006581967876804
51,0.6006413280354134,0.6009835248549582
52,0.6006330262910862,0.6005962959590089
53,0.6006298386136061,0.6005936236002901
54,0.6006342260963546,0.6015785799132979
55,0.6006228052883986,0.6006048479979447
56,0.6006346102619804,0.600990027204045
57,0.6006135427608357,0.6005867027171492
58,0.6006334394642899,0.6006100608456519
59,0.6006200578795808,0.6013062204675698
60,0.6006315079112537,0.6005952395813046
61,0.6006226880803661,0.6007409332703716
62,0.6006241386241319,0.6020761418579235
63,0.6006221832981815,0.6006556583101637
64,0.6006221142654625,0.6006983678334996
65,0.6006234179941083,0.6010030568977147
66,0.600614649833043,0.6008455673163345
67,0.6006186570004362,0.600580434142508
68,0.600620023390436,0.6008973601734077
69,0.6006133599656857,0.600899133995804
70,0.6006190463415634,0.6005821097577476
71,0.6006118799489332,0.6005983985091558
72,0.6006199084408185,0.6006381084250457
73,0.6006092084316952,0.6010617549898607
74,0.6006084320401976,0.6006168744700127
75,0.6006194185935173,0.6005857640401305
76,0.6006031067291129,0.6009867896513075
77,0.6006041585312862,0.6005784814470163
78,0.6006044472100517,0.6006108793963866
79,0.6006117222077544,0.6007610620103462
80,0.6006054997639783,0.600904164627823
81,0.6006233498196344,0.600701200163394
82,0.6006028004523799,0.6005899664190212
83,0.6006057828286536,0.6008893506698514
84,0.6006084675745399,0.6005744499544944
85,0.6005990651751225,0.600648663239207
86,0.6006138659894859,0.6006095818787
87,0.6006011973255827,0.6005938409575753
88,0.6006151861588883,0.6006076248348795
89,0.600585454478429,0.6006718431453847
90,0.600609499188234,0.6005959519381558
91,0.6006159403582831,0.6005947216272945
92,0.6005962607174632,0.6006274805175459
93,0.6006012604957308,0.6009162079607583
94,0.6006175377053364,0.601015287475018
95,0.6006039933625015,0.6007600139743341
96,0.6005894686379949,0.6005632409682641
97,0.6005874317937533,0.6007533528668709
98,0.6005939612983576,0.600648902663522
99,0.600591114879773,0.6006091702073147
100,0.6005899082716505,0.600694293212654
101,0.6005962523172321,0.6006266188384877
102,0.6005891044825732,0.6005838061680568
103,0.6006016295308435,0.600602771389869
104,0.6005906838577545,0.601220274622328
105,0.6005904990850123,0.6005725810900515
106,0.6005930501008602,0.6006456442861344
107,0.600592988794713,0.6006320594262249
108,0.6005906469902926,0.6006436419546161
109,0.600596055401269,0.6005949915786535
110,0.6005803463262155,0.6007934414127625
111,0.6005884096811502,0.6009320790063655
112,0.6005904637139574,0.6005977451061788
113,0.6005947073822884,0.6007821642731319
114,0.6005965924299602,0.6005687733441961
115,0.6005876700001377,0.6005823452182798
116,0.6005985093352462,0.6005765711403367
