epoch,loss,val_loss
0,0.5597396811053025,0.5515969093916729
1,0.5516098084393414,0.551807085840637
2,0.5514414980904042,0.5511301292675009
3,0.5513129028942553,0.5512250687289179
4,0.5512336680539868,0.5510283025263557
5,0.5512221061996112,0.5514704283354596
6,0.5511592654780151,0.5517188167453699
7,0.5511175800154854,0.5508874734637164
8,0.5510652278702447,0.5515777928657627
9,0.5510352431944507,0.5509256007061999
10,0.551011567939415,0.5508542842663843
11,0.5509893156972533,0.551040700233308
12,0.5509474934345661,0.5510094747058215
13,0.5509786166015931,0.5508800502746336
14,0.5509105698902153,0.5508256966067898
15,0.5508861553422704,0.550965004079691
16,0.5509028142500472,0.5507845913801832
17,0.5508725301508594,0.55089499512618
18,0.5508447751199534,0.550797769331163
19,0.5508518183828182,0.550799967278322
20,0.5508316995603412,0.5510080524177172
21,0.5508191290937118,0.5510511936384158
22,0.5508301380757826,0.5509104762716269
23,0.5508082302699162,0.5509050282296117
24,0.5508007877661308,0.550797486127754
25,0.5508015158734565,0.550869344215535
26,0.5507890231450537,0.5517167668780382
27,0.550777474842746,0.5511716059360552
28,0.5507906987825133,0.5507154389883093
29,0.5507657237264071,0.5507718902663616
30,0.550763096228147,0.5507485049238275
31,0.5507674333426398,0.5508639324391746
32,0.5507735955775288,0.5507876405644949
33,0.5507472556791037,0.5507353609016457
34,0.5507544678474321,0.5507297317679999
35,0.5507490763276331,0.5510936755696242
36,0.5507256997079519,0.5509289219420838
37,0.5507419336668983,0.5508791908141105
38,0.5507304410874119,0.5509595037098263
39,0.5507185499872049,0.5506939601957355
40,0.5507235295067876,0.5511825585187813
41,0.5507146818247441,0.5506715274034599
42,0.5507254536700815,0.5508381043711016
43,0.5507280077055636,0.5507996082305908
44,0.5507099958557296,0.5506742794223813
45,0.5507139230856432,0.5510252557972228
46,0.5507127995064177,0.5506651313961588
47,0.550705270224435,0.5507021621794026
48,0.550702139928682,0.5510585382321928
49,0.55070247962412,0.5509338936793893
50,0.5507105220695866,0.5506686905181734
51,0.5506942669298153,0.5507916501378894
52,0.5507071052966874,0.5507669806776212
53,0.5506957964873428,0.5511521979833655
54,0.5506951486156736,0.5507367508582974
55,0.5506923701222932,0.5506835149772114
56,0.550695376846537,0.5507950090592907
57,0.550690951301252,0.550648714088033
58,0.5506856950591722,0.5506686816736132
59,0.5506759807507888,0.5507238014460202
60,0.5506994984815735,0.5506477965018886
61,0.5506831547792757,0.550665676120493
62,0.5506927383543788,0.5506883275124335
63,0.5506915769547871,0.5506834916382215
64,0.5506828924244948,0.5509296890228025
65,0.5506926251457052,0.5509346964933145
66,0.5506825842593072,0.5512299445959238
67,0.5506845979175226,0.550667214600679
68,0.5506720594008003,0.5506872392765642
69,0.550687522606004,0.5508056312873405
70,0.5506729988635886,0.5506308582521254
71,0.5506713586878991,0.5507425811982924
72,0.5506721688372977,0.5508697444984398
73,0.5506848600048907,0.5506934414134723
74,0.5506777147362899,0.5517574036387592
75,0.5506705254203134,0.5508467554454473
76,0.5506795834157774,0.5506556476316145
77,0.5506677739174773,0.5508177396973073
78,0.5506679217817387,0.5509147535186844
79,0.5506676356784972,0.550676053895548
80,0.5506800237215146,0.5506645236062648
81,0.5506714445786647,0.5507964033642715
82,0.550670152894636,0.5506588324423759
83,0.5506616025022061,0.5506437258448258
84,0.5506669024390555,0.5508515579528903
85,0.5506667849486224,0.5506290180215765
86,0.5506649361199957,0.5506492063366154
87,0.5506584989311624,0.5506756514828495
88,0.5506608194246011,0.5506292496070673
89,0.550660151156202,0.5506338782405144
90,0.5506542323797152,0.5507104143611254
91,0.5506675710119421,0.5507893793044552
92,0.5506868387030308,0.5507801189611923
93,0.5506527087092123,0.5507403023781315
94,0.5506614690009279,0.5506486682087257
95,0.5506481834339604,0.5507980399924531
96,0.550670307848096,0.5508406032995314
97,0.5506520953464088,0.5506585041879128
98,0.5506627343254747,0.5506372615953828
99,0.5506544047102709,0.5506604300243387
100,0.5506492336450673,0.5506275031170241
101,0.550640331977202,0.5506412772327736
102,0.5506597710853834,0.5507450345728001
103,0.5506570274810838,0.5507003580961867
104,0.5506625501340988,0.550649728431891
105,0.5506378858400024,0.550650461140105
106,0.5506632763403486,0.5509164737708515
107,0.5506503156491045,0.5507373661320499
108,0.550646259994022,0.5508348462303578
109,0.5506631994871873,0.5511189629067262
110,0.5506545012865028,0.5506527204075758
111,0.5506432760953098,0.55063945374477
112,0.5506538600094371,0.5506398689658115
113,0.5506513877659694,0.5506509752190735
114,0.5506612258896101,0.5507874878701147
115,0.5506464063003477,0.550638875417023
116,0.5506411446295525,0.55062420394817
117,0.5506434476386151,0.550631136515596
118,0.5506472877077496,0.5506367469543855
119,0.5506432856369753,0.5506231373356235
120,0.5506500396049997,0.5508298668908718
121,0.5506434833496547,0.5506657526155855
122,0.5506497240003737,0.5506922745231363
123,0.550647293802236,0.5508991796976284
124,0.5506456969694987,0.5506708637360603
125,0.5506528541115411,0.5506965606443344
126,0.5506404742210628,0.5507501932586689
127,0.5506467732632088,0.5506138728806753
128,0.5506391151009034,0.5506203807021489
129,0.5506474415142536,0.5510629982569674
130,0.550639690930474,0.5510863606154771
131,0.5506448685208643,0.5506180313621502
132,0.5506483907190696,0.5506249417442246
133,0.5506365964719733,0.5507411380263771
134,0.5506440595381423,0.5509342799115713
135,0.5506275806693499,0.5506668005332758
136,0.5506431787712689,0.5506306291809745
137,0.5506399450948521,0.5507084541521948
138,0.5506454086685819,0.5508052282534521
139,0.5506382216985803,0.5506342440917533
140,0.5506371045759133,0.5520083297275136
141,0.5506322269106118,0.550668618578473
142,0.5506377969138261,0.5506383159616153
143,0.5506348954981419,0.5506566575679827
144,0.5506337095762491,0.5506148384167597
145,0.5506317297500848,0.5507129499989171
146,0.5506434007522467,0.5506776260974685
147,0.5506341365539457,0.5507452192732477
