epoch,loss,val_loss
0,0.40902489276517057,0.4025431746140899
1,0.4023473820847293,0.401968988147622
2,0.40194212498856197,0.40153167762472375
3,0.4018488829400247,0.4021574814473429
4,0.40163895508847053,0.4014893547033258
5,0.4016143148291794,0.4013345745006211
6,0.40149162394635296,0.4018032311357872
7,0.4014400869051407,0.40130791986550646
8,0.4014068934779279,0.40125627443749023
9,0.4013177000039516,0.40152568243277575
10,0.4013321880621475,0.4012123535939541
11,0.4012515404069754,0.4014942168154137
12,0.40125476462021503,0.4010856949366056
13,0.4012303565292231,0.4012954807163172
14,0.4012050835177322,0.4010962935298607
15,0.401173349777198,0.40119741576776907
16,0.4011590130312314,0.40105314547607385
17,0.40115449824147786,0.40111752059264455
18,0.40111812285421145,0.4011219071543246
19,0.4011039776877854,0.4010946489593231
20,0.4011284245812346,0.4012028689419957
21,0.4010940715683404,0.4017901088996206
22,0.40110573540636496,0.4010542828598922
23,0.401075999404705,0.4013124216874835
24,0.40106222854039725,0.40103272035459137
25,0.40107704283780593,0.4012100478999372
26,0.40105712502097157,0.401215012271706
27,0.4010488471185812,0.40096875898003875
28,0.4010200668682222,0.40097746955549746
29,0.40103050917546745,0.40107792775625034
30,0.4009994948627827,0.400975369430949
31,0.4010179990530093,0.4009897744833092
32,0.40099045800160277,0.4010358375148205
33,0.40100696886250453,0.4009357694212911
34,0.40100454258365953,0.40110523338353365
35,0.40099805953866746,0.40128409087510025
36,0.40098155542658503,0.40094137037954025
37,0.4009868593785697,0.4008932832748659
38,0.4009795965627403,0.4009170658387262
39,0.40099370830572834,0.4010530507002516
40,0.4009804314249421,0.40095825442309413
41,0.4009659214562552,0.400937117491999
42,0.40097602314040054,0.4009152379284426
43,0.40096632380713093,0.40090964117062006
44,0.40097048212859326,0.40104549540479484
45,0.40094758149807996,0.40097287122724073
46,0.4009651975896697,0.4008821551172668
47,0.4009510346509451,0.4010139316246468
48,0.4009569678720588,0.40104300449267216
49,0.40093698326869365,0.40096904876510203
50,0.4009499449250691,0.4008825009129479
51,0.4009359485663428,0.40097245331437653
52,0.40094915035108236,0.4013229163645515
53,0.4009381591799626,0.40111206459348314
54,0.4009335565372334,0.40087133410846626
55,0.40095374112589194,0.4017224086277538
56,0.400947090516444,0.4011097278103935
57,0.4009402907502397,0.4010453320910262
58,0.40092844316928805,0.40116836527736843
59,0.4009447966838195,0.4009042846801559
60,0.400930886577931,0.4008773447857897
61,0.4009169082044869,0.40091153476433483
62,0.4009318957206717,0.40118899283278964
63,0.40092943322554253,0.4020915741660163
64,0.40094332329953425,0.40138786957222533
65,0.40092260581919387,0.40086127705964497
66,0.40094386639549723,0.4012153735379723
67,0.4009070387020508,0.40110295759537085
68,0.4008990625919053,0.4010905126336195
69,0.40092839503736005,0.4009279552227806
70,0.40091347239322006,0.40092658910798673
71,0.4009154539780768,0.40123750484610904
72,0.400934286524731,0.4014015063310675
73,0.40091842001653605,0.4013040129363389
74,0.40091181942510423,0.40090444323146907
75,0.40091971079775085,0.4009016381451865
76,0.4009133078180285,0.4008455797697119
77,0.4009006835742224,0.40088873041178985
78,0.40089831587217906,0.4008668186646833
79,0.4008990493683844,0.40094639519899716
80,0.4008999693636824,0.4010171133738298
81,0.4009096741513043,0.4008380596454327
82,0.4009080004283307,0.4011530584496245
83,0.40088759526359724,0.40086074767278385
84,0.40091817229017906,0.4008515580860024
85,0.4008849847933763,0.40088504753988374
86,0.4009063383831692,0.40227714388009633
87,0.40089690857473403,0.40087722428974976
88,0.4008908956196585,0.40104988813400266
89,0.4008911879858012,0.40122383563749253
90,0.4009126702910518,0.40107999028402286
91,0.4008854084217085,0.40197857414226673
92,0.40091472563410263,0.40096689869393193
93,0.40090021915795243,0.4008507492968226
94,0.4008898814658869,0.40087665329795913
95,0.40089984315157084,0.4011328130442806
96,0.40089001311539096,0.4009250264901381
97,0.4009023246909839,0.40085000027498
98,0.40087888361615354,0.40097380101532853
99,0.40089525768360273,0.4009675685880202
100,0.4008955429956496,0.4010975254380673
101,0.4008690349517966,0.40084289733884354
