epoch,loss,val_loss
0,0.752940644443077,0.7513694432473952
1,0.7063184766749467,0.7027457343141731
2,0.6666838738833774,0.650946669306412
3,0.5809903857029932,0.5511500005686549
4,0.5513167931754578,0.551138508526918
5,0.5512336729273672,0.5512462605317828
6,0.5511781776237414,0.5509983865558066
7,0.5511149825881437,0.5510270490835677
8,0.5511111283626989,0.5510550770511107
9,0.5510338995652988,0.5515363767484281
10,0.5510207050306788,0.5510951956211781
11,0.5510083581692246,0.5509031109123609
12,0.5509876338343619,0.5510425801016853
13,0.5509636422679101,0.5509194719584349
14,0.550943630093423,0.5509092802741096
15,0.5509422040230509,0.5508799373955644
16,0.5509134820757702,0.5508773823234047
17,0.5509120718971303,0.5508319262239537
18,0.5509017490448946,0.5508156004082181
19,0.5508889333008252,0.5509035093021156
20,0.5508933691063982,0.5508859212877733
21,0.550870345834404,0.5509336604373922
22,0.5508472562408931,0.5508225754531973
23,0.5508492302983572,0.5509944006172066
24,0.5508366438406034,0.5508066632019971
25,0.5508345650401695,0.550773908867138
26,0.5508358616819831,0.550760103484833
27,0.5508375271782678,0.550879843625478
28,0.5508174520978901,0.5507761088553492
29,0.5508027302515365,0.5514913925757775
30,0.5508082126680046,0.5507600301252701
31,0.55078910863825,0.5507805072048462
32,0.550794681231976,0.5508026629168697
33,0.5507888582113398,0.5508176721355164
34,0.5507933194684533,0.5511719143124432
35,0.5507836165231397,0.5507185644902307
36,0.550786908955422,0.5507331291144303
37,0.5507693649927018,0.5507373483541882
38,0.5507753325077255,0.5511035048932059
39,0.5507850691628219,0.5510343146974928
40,0.5507765913970121,0.5507614985589058
41,0.5507808222610843,0.5509515041453075
42,0.5507577104888809,0.5509286870731609
43,0.550760927843654,0.550744571934267
44,0.5507612120805282,0.5510066753877304
45,0.5507644455447501,0.5506991581053059
46,0.550754699491555,0.5507563048201815
47,0.5507611858796008,0.5507092128320604
48,0.5507682978896286,0.5509861443829596
49,0.5507513158604822,0.5507275910590482
50,0.5507599220262185,0.5507451977090859
51,0.5507667364949964,0.550728473030308
52,0.5507429270326812,0.5509601795939595
53,0.5507521498758771,0.5507415940980461
54,0.550751402696264,0.5507018055868503
55,0.55074261934789,0.5507738864747229
56,0.5507388042065142,0.5507554831339171
57,0.5507283438962381,0.5507402732117892
58,0.5507553471810048,0.5507313140568603
59,0.5507415906102634,0.5507754072362081
60,0.5507377212566721,0.5511093926488909
61,0.5507346073898431,0.5508138185695146
62,0.5507428649085193,0.5509164123026372
63,0.5507282115261396,0.5510167288129442
64,0.5507414883860219,0.5509708518130016
65,0.5507310503388431,0.5507205383653381
