epoch,loss,val_loss
0,0.5601833867328778,0.5519402268802558
1,0.5516716951048284,0.5520505038739434
2,0.5514398936525746,0.5513103879415072
3,0.5514209027620769,0.5520353486461024
4,0.5512960423154593,0.5514389589465877
5,0.5512538222806493,0.5510334737543433
6,0.5511818047715897,0.5510146484185685
7,0.55115537785753,0.5510301651197391
8,0.5511140625155405,0.551342965355582
9,0.5510521712156882,0.5511188068993335
10,0.5510395907254193,0.5520067210232945
11,0.5510268472727181,0.5511046863371326
12,0.5510108172960575,0.5522433193682441
13,0.5509750738488923,0.5510357595554948
14,0.550935580382849,0.5511959766335878
15,0.5509546400173546,0.5514735446674356
16,0.5509313993032998,0.5508887621960037
17,0.5509170582164118,0.5508450644779442
18,0.5509190824756889,0.5519370444063513
19,0.5508909226402573,0.5509722424795847
20,0.5508802761515472,0.5508856753261746
21,0.5508776426708144,0.5508022009291069
22,0.5508612976764159,0.5508791041433367
23,0.5508701959097234,0.5507927309490611
24,0.5508440576673297,0.5508003101159562
25,0.5508303676902505,0.5508616596534294
26,0.5508381283166014,0.5507938845577666
27,0.5508361154740343,0.5513842986476036
28,0.5508122381062356,0.5510520920859968
29,0.550824375142554,0.5508608219641314
30,0.5508015557360989,0.5508676135214623
31,0.550810158019223,0.5507992397762705
32,0.550793180316799,0.550731167544798
33,0.5508244656093118,0.5507886948715665
34,0.5507881984188994,0.5507080393156993
35,0.5508017635481453,0.5507107881399301
36,0.5507755033024326,0.5507592569213943
37,0.5507827055267933,0.5507249562379444
38,0.5507892603054519,0.5507531539973787
39,0.550777096756619,0.5508117220537834
40,0.5507799071817634,0.5507365374943755
41,0.5507943422362285,0.5508058466627344
42,0.5507765257389,0.5509047589586036
43,0.5507829815787864,0.5507653379262825
44,0.5507732777854824,0.5510097947073338
45,0.5507842087847898,0.5507212764276168
46,0.5507719982572957,0.5507666120753987
47,0.5507813105993571,0.5508677815385256
48,0.5507724233473265,0.5506841005521732
49,0.5507780980288267,0.5507030920414416
50,0.5507732981948334,0.5507124069310891
51,0.550763960347591,0.5508279619974179
52,0.5507550522365773,0.5507015487396392
53,0.5507806189366813,0.5508824063885597
54,0.5507639680512869,0.5506953226425512
55,0.5507587729820422,0.5508040469574278
56,0.5507487152581072,0.5507419018828248
57,0.5507539974833978,0.5509173016690143
58,0.550769213558993,0.5507159793347343
59,0.550763973467381,0.5506892968052374
60,0.5507494163938205,0.5515144248162547
61,0.5507577126297605,0.5509685376737609
62,0.5507464260511711,0.5507508061364035
63,0.5507467103298531,0.550713098256227
64,0.5507653479476025,0.5508937085236865
65,0.5507479068031114,0.550722950238448
66,0.5507574162323114,0.5507602869133204
67,0.5507470057105026,0.5508192075097531
68,0.5507606666271523,0.5507094978102975
