epoch,loss,val_loss
0,0.19994539422073143,0.07505678820064338
1,0.07269996741740442,0.07348734022198272
2,0.07200006296267088,0.07137951632078088
3,0.071826246427856,0.07103240120370932
4,0.07179697945886712,0.07145963929117244
5,0.07186370060223041,0.07133238969904378
6,0.07170278418639438,0.07113825355751267
7,0.071766545101226,0.07125106064607142
8,0.0716322516675571,0.07136831054465452
9,0.07167213936622957,0.07148573526137912
10,0.07161280695947526,0.07140781138248112
11,0.07160072671703631,0.07093058092829836
12,0.07148310510988096,0.0711505455159727
13,0.07159354330318199,0.07216425197994324
14,0.07153841532725129,0.0722475816284754
15,0.07154074343268296,0.07198585992371745
16,0.0714701148424503,0.07090916316706361
17,0.07157522448443537,0.07099498035393555
18,0.07142072411880886,0.07108696281686484
19,0.07148288868123488,0.07125748927104444
20,0.07141531791558844,0.0711238252700269
21,0.07145830665787252,0.07111536946673984
22,0.07147174115649325,0.07081543768284917
23,0.07134582445942622,0.07134859653185369
24,0.07145489541907533,0.07090816416299145
25,0.07135573689260785,0.07123163595925003
26,0.07143088315370129,0.07125691651427661
27,0.07135379697671897,0.07115666905525357
28,0.07140378085978263,0.07096559544929672
29,0.07135936736518578,0.07152350233675178
30,0.0713263165167005,0.07140592501837623
31,0.07132122025257058,0.0713746281577408
32,0.07135803117710862,0.07233208771603919
33,0.07133595703793563,0.07104312432099254
34,0.07127661313965833,0.07124828303198977
35,0.07132997522376282,0.07130360286962167
36,0.07128699931750099,0.07117364355072603
37,0.07130178710896906,0.07130074343734495
38,0.07126016590258867,0.07146737756003238
39,0.07122381486528688,0.0734287593704843
40,0.07126366268161485,0.07095947145133763
41,0.07122864660253818,0.07093177534986785
42,0.07123216626485236,0.07236075944957436
43,0.07125943329938643,0.07102032023722389
44,0.0712486786557902,0.0709536108199357
45,0.0712158820799572,0.0709812968128435
46,0.07116825788540186,0.07108910195970497
47,0.07118784693284906,0.07085850240917026
48,0.07118247823118211,0.07093502092744858
49,0.07124927949508746,0.07073835836577905
50,0.07121237982764281,0.07094687685052899
51,0.07119983473835852,0.07119189839348515
52,0.07118316749475605,0.07098678810538131
53,0.07115597691205289,0.07090388229609289
54,0.07126302028791033,0.07090581096150128
55,0.07109543102995144,0.07076181237892364
56,0.07120934115956537,0.07063315016377038
57,0.07115091422913696,0.07120593116216614
58,0.07118143668944696,0.07164426775974087
59,0.07116837385627958,0.07087768406416829
60,0.07117103644126326,0.07095486578408808
61,0.0711513684361244,0.07080095304556973
62,0.07113450609123725,0.07078006633960927
63,0.07114827693949977,0.0709990684792764
64,0.07112163527132415,0.07089216291210551
65,0.07114938797829724,0.07078794777781454
66,0.0711565931140781,0.07075179857514276
67,0.07111508809000278,0.07113741988047145
68,0.07116699692525928,0.070774790264178
69,0.07115498047432216,0.07088485553907709
70,0.07113609688697482,0.07069133061271722
71,0.07112902640808019,0.07128887997841685
72,0.07112811431497168,0.07094764422798777
73,0.07110996969895873,0.07071272204405883
74,0.07108275096217315,0.07072867456626591
75,0.0711358420872431,0.07069404479689549
76,0.07105170275947506,0.07078179731765129
77,0.0711695023795231,0.07086375038468094
78,0.07112034302737882,0.07079578713523467
79,0.07112320423793259,0.07083185831850781
80,0.07112931509723337,0.07073809519327806
81,0.0710475144790207,0.07089632196203403
82,0.0711586658271859,0.0707921004532921
83,0.07110894020858238,0.07090309226992757
84,0.07110247213235624,0.07118577095837977
85,0.07116415819598378,0.073122811031064
86,0.07106262938283997,0.07066021760265566
87,0.07103731119030005,0.07078821006824204
88,0.07107303393699473,0.07068223111631368
89,0.07107651104732192,0.07078346610069275
90,0.07106930562715641,0.07084058348057114
91,0.0711616614638425,0.0706627297567258
92,0.07109105446599989,0.07133941500849769
93,0.07105370813297282,0.07073333786819615
94,0.07119366190702224,0.07073150787152638
95,0.07110054989149578,0.07056544958110296
96,0.07105185621552806,0.07057892196262645
97,0.07117411669799321,0.07069209779906009
98,0.07103439350333288,0.07085566097413261
99,0.07101254923482068,0.07078430075683552
100,0.07107247143007106,0.0718725441992518
101,0.07107037838569266,0.07103254527865005
102,0.07104823495492898,0.07088606297711077
103,0.0711628439055263,0.0706803160113148
104,0.07099062058297421,0.07118526902917152
105,0.07116822593753858,0.07156862039486536
106,0.07103573750677726,0.07070668282512144
107,0.07108190133691215,0.07059891270833779
108,0.07105362646394878,0.07098747899530906
109,0.07108015436336672,0.07068440332220781
110,0.07106844143425342,0.07076558470726013
111,0.07102835684609737,0.07071678717374426
112,0.07120349234063848,0.0713412065555848
113,0.07100855121068912,0.07147972467160639
114,0.07105714938403081,0.07208891000066485
115,0.07107423468203329,0.07070059959659825
116,0.07101583247669309,0.07053943428533606
117,0.07104623525423541,0.07168970048874498
118,0.07102127099405232,0.07072382991591022
119,0.07104842323991511,0.07069684642395732
120,0.07102967295304334,0.07101562652140032
121,0.07108174928044864,0.07076275022002121
122,0.07103932559710564,0.07079671098370673
123,0.0711322626803252,0.07062614393650592
124,0.07104535839355869,0.07079104195630447
125,0.07099345183040169,0.07089103304067275
126,0.07113425894755777,0.07118475256927294
127,0.07099025400071074,0.07074673377100935
128,0.07105753822274488,0.07082284218098765
129,0.07100211539500051,0.07097368406009844
130,0.07103985028980161,0.07119780224060673
131,0.07101700098203907,0.07062548736511673
132,0.07103004033783739,0.07061368488392777
133,0.07112634457576332,0.07063516551347915
134,0.07099962217076648,0.07073275098649177
135,0.07103656595952505,0.07070172533992716
136,0.07105328262799221,0.07082632763844922
137,0.07104503111742574,0.07057698604363387
138,0.07115282362504162,0.07081424113548263
139,0.0709562079532803,0.07082271123130018
140,0.07107426526455236,0.07058160832914764
141,0.07104323259878645,0.07068469174553206
142,0.07104829285326573,0.07081272077306387
143,0.07098654612041205,0.07099618851526948
144,0.07106390599902872,0.07069022091724501
145,0.07104307237556941,0.07123868833365832
146,0.0710186119214427,0.07078050431555054
147,0.07099254271365422,0.07146352032036318
148,0.0709991238290648,0.07064432325025384
149,0.07107082317969639,0.07137121638281664
150,0.07102476243677137,0.07093568021562406
151,0.07101131303252267,0.07079230591172578
152,0.07108142741506907,0.07066446208139998
153,0.07099004547527844,0.07063166543123943
154,0.07105225578492447,0.07091098155564649
155,0.07098199777025209,0.07065464315999184
156,0.071045525458386,0.07072177428778646
157,0.07103370091945624,0.0709660400466695
158,0.07100856990563116,0.07125953082421585
159,0.07109918260424257,0.07169086551962636
160,0.0709978777685945,0.07090913282667641
161,0.0710671594966468,0.07058561302503923
162,0.07098847472344895,0.07365938602713684
163,0.0710585338549672,0.07060863074112239
164,0.07100439991364234,0.0706434026830951
165,0.07104868381816468,0.07070355822391744
166,0.07112609941830976,0.07076321842462036
167,0.07093928962034717,0.07126253878002385
168,0.07101026418612158,0.07063760180923068
169,0.0709869943910556,0.07101842946569188
170,0.07112023845124398,0.07066789032169563
171,0.07097889741452383,0.0705993003913899
172,0.07101603274901422,0.07079644410355691
173,0.07107464337853982,0.07060313496765135
174,0.07104753661784623,0.07069233131919118
175,0.07102249312452037,0.0716814094714838
176,0.0709716131230243,0.07070771220486373
177,0.07099460450996407,0.07100436783556686
178,0.0710370984363208,0.07297920710873962
179,0.07098863122435353,0.07078044603989646
180,0.07113411954100088,0.07289204262520445
181,0.07095899544269156,0.07057349804286046
182,0.07099448958133384,0.07105211322596436
183,0.07099672629208349,0.07232346740310928
184,0.07107244032345039,0.07063545984375542
185,0.07095831325597805,0.07125005944563632
186,0.07108879701750313,0.07098770022815669
187,0.07095983856283933,0.07073085539001786
188,0.0710785127923095,0.07064336094631862
189,0.07099384604413495,0.0709756505341161
190,0.071035604259903,0.07064743437337517
191,0.07105117745334201,0.07061653316973605
192,0.07091580130767336,0.07072579071819547
193,0.07104881923738048,0.07075119756850184
194,0.07098489692159217,0.07064689886068959
195,0.07099753348298257,0.07061511811806917
196,0.0709877718927906,0.07066318758226044
197,0.07106075566455566,0.07082226968296138
198,0.07097689005033338,0.07070901281043782
199,0.07097368268556685,0.07100083151774889
200,0.0710163979242436,0.07078267672432156
201,0.07104676850527215,0.07057178938421756
202,0.0709305258853425,0.07059409194747199
203,0.07103750850412724,0.07072116764763631
204,0.07099721839518951,0.07064572257749095
205,0.07096854959734433,0.07062675257014212
206,0.0710464579125436,0.0706997950985475
207,0.07097473549697515,0.07059774474015176
208,0.07103085299458006,0.07064220462738291
209,0.07105189805580892,0.0707231741207457
210,0.07100863537664036,0.07076164181825677
211,0.07099908654191654,0.0705659809009993
212,0.07096202929856346,0.07073249194797514
213,0.0710363015502715,0.07114649528156798
214,0.07103065335951883,0.07073405295339925
215,0.07097267568391337,0.07096688076853752
216,0.07099740657892874,0.07085052132312482
217,0.0710066121747549,0.07056557782870536
218,0.07101045553978208,0.07078206061658279
219,0.07103394092671829,0.07102885508017458
220,0.07097300131478422,0.07222122095684037
221,0.07104954408328358,0.07065286584663033
222,0.07097830950802893,0.07059206022353932
223,0.07100771576297178,0.07057222968295228
224,0.07097899185703527,0.07054066994678061
225,0.0710687329910761,0.07059974014029884
226,0.07102637453158077,0.07057700641659083
227,0.07103715261234511,0.07079289933253483
228,0.0709244587572573,0.07057466132723636
229,0.07103315946295392,0.07101472203444098
230,0.0709805760702355,0.07112999878759071
231,0.07098169405040124,0.07062936652431172
232,0.07101387579104217,0.0707914655397469
233,0.07101203265229909,0.07082316055364654
234,0.07102244137246594,0.07060130804647774
235,0.07096964305342673,0.07062139927505882
236,0.07101239944598992,0.07074115971645786
237,0.07096141125324915,0.07059517954406347
238,0.07105333099572016,0.07103672393707186
239,0.0709393966100294,0.07083897540476629
240,0.07098906729921257,0.07156257085860858
241,0.07103592752040529,0.07063059563489062
242,0.07100215369908454,0.07129535605306218
243,0.07102813678000756,0.07086384510467066
244,0.07093456445439018,0.07091087630369951
245,0.07108689486521849,0.07104968211680486
246,0.0709743413368432,0.07081600856668101
247,0.07096124529171524,0.07056607726458593
248,0.0709445036018638,0.07069045619270231
249,0.07101335128446182,0.07054313685930236
250,0.07098260422130759,0.07087712761399872
251,0.07104807681769586,0.0706073078543724
252,0.07097363446524246,0.07065991879438639
253,0.07099628766520703,0.07161007805388558
254,0.07095103366799253,0.0706070729317445
255,0.07109630724592365,0.07060510048020893
256,0.07100812836046175,0.07079347942227346
257,0.07102411194778174,0.07137675177902807
258,0.07099066280590878,0.07065655720650256
259,0.07105161971319542,0.07065769007404489
260,0.07096491081954287,0.0708232376321668
261,0.07101219024309675,0.07098662290184067
262,0.07097649631603396,0.07168207772446601
263,0.0709810370577873,0.0704693997715436
264,0.07101492425330061,0.0708424482691589
265,0.07095434999080014,0.07078940546303258
266,0.07101670420355648,0.07191080249252052
267,0.0710027446266082,0.07192867381267408
268,0.07097877908667787,0.07123635196212999
269,0.07098138555556797,0.07082573543196131
270,0.07105155760120097,0.0708930332510605
271,0.07093486977334645,0.07063067949949613
272,0.0710112184277184,0.0707022846362538
273,0.07104714720589604,0.070537992483321
274,0.07094788198902023,0.07072884019908231
275,0.07095295973539019,0.07193264884737503
276,0.07103215190593144,0.07069820878055497
277,0.07097856769953176,0.07070154375628213
278,0.07101089733062411,0.07054921490123353
279,0.07103202791570379,0.07067067576270925
280,0.07096561705983943,0.07080517413760605
281,0.07093657032965565,0.07088473763231602
282,0.07103474650808947,0.07100130328004438
283,0.07102093737361004,0.07058392610950741
284,0.0709407450311142,0.07077414800884127
285,0.07095264031780328,0.07056290431399466
286,0.07101104737852784,0.07051089981713442
287,0.07093877254796924,0.07101525544191122
288,0.07101203479932891,0.07066732147545352
289,0.07097032656379455,0.07065766432926048
290,0.07101199815092947,0.07093975735620993
291,0.07103410439876963,0.07090432011326091
292,0.07103591593954679,0.07059524409420018
293,0.07093220703351459,0.07056918355394463
294,0.07094158739042129,0.07058674815362988
295,0.07103284161618288,0.07110977622709033
296,0.07100458287125487,0.07131379909501738
297,0.071011829044786,0.07105935915669495
298,0.07094659775995808,0.07053614368378504
299,0.07099219927672955,0.07088564372464909
300,0.07100449083931297,0.07053271409685723
301,0.07099378268144352,0.07063483760854627
302,0.07101847653945001,0.07060334669468717
303,0.07095523831173242,0.07072270370802262
304,0.07103610244377864,0.0706465326002619
305,0.07098787827945822,0.0712843386848893
306,0.07099145846359498,0.07080168701008538
307,0.07094105549877305,0.0712572284183967
308,0.07095693682672546,0.07073394304410435
309,0.07098588256461681,0.07170997843169846
310,0.07105822998622387,0.07076423881015348
311,0.07097850127263274,0.07077895878463536
312,0.07102592451293929,0.07074059600094311
313,0.07099559153917787,0.07064287468273525
314,0.07104333409433551,0.07067175893717237
315,0.070995068432187,0.07056272094562097
316,0.07091015384351607,0.07089456833822574
317,0.0709784278596977,0.07066719889958355
318,0.0710221256489019,0.07100278825661566
319,0.07103461650409382,0.07098911887574309
320,0.07094823065802729,0.07064422824212012
321,0.07107355604045015,0.07066684705811688
322,0.07102195197920338,0.07099174842203143
323,0.07093776662280853,0.07072133480643981
324,0.07099417506528796,0.07093769753529693
325,0.07098154193289179,0.07055911415013255
326,0.07105999056258791,0.0706633052802641
327,0.07099702008676043,0.07061760518302951
328,0.07100494429290438,0.07070843967143814
329,0.07092870507451841,0.07092774650280459
330,0.0710678458910623,0.07092579169567871
331,0.07099383778357915,0.07080803609555315
332,0.07095956547761993,0.07059384455820568
333,0.07098414575894006,0.07055174120082193
334,0.07098575549231445,0.07064495002520113
335,0.07100618467461482,0.0709349469773489
336,0.07098163869365942,0.07091333253431151
337,0.07094800853126532,0.07055029574702269
338,0.07110201024400482,0.07091188590441432
339,0.07090618912216952,0.07172838062483114
340,0.07099251425434217,0.07053368934081028
341,0.07105177813034645,0.07099936633490632
342,0.07093229222980192,0.07054161201889061
343,0.07097951294057708,0.0708919740748763
344,0.07097105369668641,0.07080287902065403
345,0.07100527877096745,0.07063455376906384
346,0.07093243894251369,0.07081440730048336
347,0.0710547903044928,0.07054482062289164
348,0.07100643490781362,0.07066521619247373
349,0.07095728047507749,0.07065705498702524
350,0.07100717640883154,0.0707101949564848
351,0.07095237076133609,0.07085177733988487
352,0.07097432478744206,0.0708658835764654
353,0.0709647893917551,0.07230124998640713
354,0.07110246913366133,0.0707785745416698
355,0.07090006523775301,0.07057787290382499
356,0.07097629164691738,0.07061520302646163
357,0.07101310309704592,0.0708973311481743
358,0.07097688517559299,0.07078661558812965
359,0.07098197359159934,0.07318635557755393
360,0.07098072945779796,0.07091176113806189
361,0.07099034599840737,0.07060927178801847
362,0.07095946108313392,0.07060772295814852
363,0.07095803996379808,0.07060431156839643
364,0.07097272688208772,0.07085070190120608
365,0.07097990427175158,0.07103492123763581
366,0.07109701341028503,0.07057353180569274
367,0.07097723055407583,0.07071884259017039
368,0.07090510868971392,0.07069325285369049
369,0.07098006191317269,0.07094515171181337
370,0.0710326907717043,0.07059405398302974
371,0.0709619049926837,0.07072975889330504
372,0.0709870455147837,0.0712068959241461
373,0.07094395413345618,0.07088692192555697
374,0.07102324759556378,0.07054876372359264
375,0.07096747036347334,0.07077671568355602
376,0.07098831713116235,0.07275439012610452
377,0.07095757012160943,0.07054276036682237
378,0.07107637935637427,0.07053584746881178
379,0.07097672833223566,0.07063853255845753
380,0.07095234567741696,0.07059623832625485
381,0.0710030726561372,0.07059003171329434
382,0.07100679238530086,0.07053419395152188
383,0.07099783719389988,0.07061560580473109
384,0.07107026495789881,0.07058365229920036
385,0.07093534022599435,0.0707307304707727
386,0.07099853964637128,0.0706652993661217
387,0.07094661741674566,0.07104810539577171
388,0.07093797563065252,0.07064364099582539
389,0.07104576724044663,0.0709493527690209
390,0.07093187493177579,0.07085456343951334
391,0.07102561334697463,0.07078818313265844
392,0.07104146379015619,0.07106347822223297
393,0.07099357611096972,0.07296021773105733
394,0.07099295383859738,0.07060455910761523
395,0.07092960683299865,0.07067122908151799
396,0.07101874578026511,0.0706496025129106
397,0.07099300153184232,0.0706924509842187
398,0.07096714855467291,0.07072042645599867
399,0.07101728387927408,0.07058329647370183
400,0.07099023446899286,0.07057253794704918
401,0.0709760506435645,0.07276679387855643
402,0.07100096872027258,0.07062846286062095
403,0.0709601105328539,0.07074499284023832
404,0.07104856691075315,0.07056309310123972
405,0.07092500607119047,0.07063486398254311
406,0.07096736215585046,0.07064075706248783
407,0.07101349822200126,0.0713107370151811
408,0.07099440763983653,0.0710714202206626
409,0.07094334855193285,0.07092342218170979
410,0.07100627858409111,0.0709342848400761
411,0.07099555442623383,0.07058648888871438
412,0.07091873008415377,0.07063351697696413
413,0.0710520417772704,0.07076490379946385
414,0.07100171567820054,0.07053861226048541
415,0.07101047165739498,0.07126724300428272
416,0.07092676994701226,0.0709725898861791
417,0.07099640162305819,0.07064677163041193
418,0.07094528005241776,0.07058642230980869
419,0.07097102695112702,0.07053504364701736
420,0.07103749329178072,0.07058531193219966
421,0.07089374814149764,0.0706072886839756
422,0.0709917144023543,0.07117580159346043
423,0.07105683799323848,0.07070077015432487
424,0.07094431490444546,0.07070434262539424
425,0.07096157826298623,0.07090967889190096
426,0.07104684935240961,0.07077010635113096
427,0.07091971893581174,0.0706771380887694
428,0.07096689515899744,0.07069752639087525
429,0.07095512323718753,0.07095640098886313
430,0.07095439664030866,0.07081574179532026
431,0.07098067832215846,0.07060714572044743
432,0.07099666535931763,0.07060954499557533
433,0.07094297340388397,0.07056484938596964
434,0.07106516787783801,0.07069527378104386
435,0.07093151791883315,0.07056783702174509
436,0.07100088532856233,0.07075027421987141
437,0.07096582234239311,0.070939093560639
438,0.07103108761788939,0.0726154427372666
439,0.07090140301451313,0.07118578299280218
440,0.07097188786690613,0.07115460531499411
441,0.07103634689399284,0.0706450043197636
442,0.07100642578963705,0.07075399695509706
443,0.07087586775755615,0.07236284317761871
444,0.07100765300329498,0.07062233516089353
445,0.07096819187120663,0.07060525491069224
446,0.0710853056775199,0.0706418091585623
447,0.07091091392333988,0.07053292950213944
448,0.07104411100198944,0.07069530860236431
449,0.07090493742016246,0.07066500787318176
450,0.07102851165707211,0.07078599503768084
451,0.07089389214734379,0.0712247971936343
452,0.07100271038133368,0.07149525849705808
453,0.07100136508699134,0.07063980105067673
454,0.07097160512005253,0.07075389944481492
455,0.07095604160909268,0.07063937919021782
456,0.07098312988478264,0.07100253970007211
457,0.07092663875187663,0.07062010898974437
458,0.07102112701798467,0.07054302467719814
459,0.07097441651415434,0.07074185685734628
460,0.07098377507468827,0.07058431175496979
461,0.07095025847111341,0.07104025242207741
462,0.07094463681747064,0.0705780324620954
463,0.07101086431222377,0.07056301585806574
464,0.0709568296985732,0.07082343566354185
465,0.07098940356398563,0.0705685092881616
466,0.07097217569248282,0.07055736501901848
467,0.07102430532638022,0.07092810999940208
468,0.07094315360400745,0.07080796134276661
469,0.07100108764517746,0.07056939521629507
470,0.07108047487680241,0.0706520505461198
471,0.07092393637537289,0.07076018413303871
472,0.07099433601510038,0.07072086536105732
473,0.07099148764652456,0.07072330422070239
474,0.07100857914738852,0.07162620967523076
475,0.07095657244509311,0.07067012714535209
476,0.07101202426965145,0.07062097336882292
477,0.07095774672895694,0.07060917810887546
478,0.07099118871654538,0.07062106558960446
479,0.0709576433930966,0.07067223528036944
480,0.07102079714367764,0.07070147902679048
481,0.0710012808197932,0.07054384895721663
482,0.07097953771182197,0.07053251881755142
483,0.07106535136997462,0.07068682031231126
484,0.07091113218931938,0.07052271652616848
485,0.07096366739446977,0.07070765826901114
486,0.07097127616143437,0.07069576472549713
487,0.07099769888914746,0.07064035330805707
488,0.0709531183297233,0.07074793707505868
489,0.07093931353397126,0.07056069516392326
490,0.07099727834973166,0.07077091957876884
491,0.07092638490207905,0.0711360875290731
492,0.0710513642047354,0.07090939810439274
493,0.07098581202381807,0.07085963512970034
494,0.07098018868620114,0.07056597836062771
495,0.07098299617038595,0.07066503117462265
496,0.07094996129955462,0.07055213608747406
497,0.0709763672589946,0.07077676182481936
498,0.07102123516605055,0.07074679787422883
499,0.07097603502474148,0.07061562371376282
500,0.07101204160967176,0.07107869998479134
