epoch,loss,val_loss
0,0.03226229270081106,0.022354162810318563
1,0.019024408624263703,0.01852762581739437
2,0.016232239557376103,0.014676976776895554
3,0.015780338655881642,0.013814638554768888
4,0.015582929029473603,0.014976653451378339
5,0.015054418071712272,0.01622858394328691
6,0.014583279686449745,0.014490022005746105
7,0.014242862996817755,0.013539822259230123
8,0.014022100768853261,0.013211742133418018
9,0.013480627599297338,0.012517456230390222
10,0.01284998333442369,0.013202380751698443
11,0.012683361367222283,0.011396422258987774
12,0.012377075698848045,0.011907151027551379
13,0.012204817503351683,0.013313177185171849
14,0.01214438925863848,0.012828325271137309
15,0.012020231102264392,0.01150105903221672
16,0.011942456813443018,0.011183773534702561
17,0.011906606729046055,0.01123009914838012
18,0.011785669098916044,0.011405727516283553
19,0.011804163278661383,0.011320074395688802
20,0.011692256533837578,0.011373421834200226
21,0.011538992987323225,0.010735656044195834
22,0.011571238318369915,0.011083851347587043
23,0.011524368684912632,0.010926139486432418
24,0.011458630813439463,0.010964924810572273
25,0.011346882613356568,0.010559873775791567
26,0.011365371431626602,0.01079418570619199
27,0.011347261010901222,0.010834237105099667
28,0.011224493421280901,0.011039899521188895
29,0.011228921926425708,0.011112139720679138
30,0.011239345591451386,0.011063863354403338
31,0.01112217463086967,0.010514710895756781
32,0.011140830843229121,0.01073877572649769
33,0.01113911323583028,0.011168929072484736
34,0.011065849550506164,0.01061417228803015
35,0.011028841115546927,0.01040003223895461
36,0.011064921148403403,0.02121009275524843
37,0.011042130742236195,0.01035008679731393
38,0.011017264639438562,0.010547825301714431
39,0.010996728940728496,0.01271031252292649
40,0.010940094330731339,0.010879260021342771
41,0.010910272389486718,0.010679144667849307
42,0.010946867247478549,0.010324603780791725
43,0.010907249456015157,0.010392093037646894
44,0.010897592412543525,0.010193681804394051
45,0.010850413816638252,0.01073326758917747
46,0.010964503842405451,0.010387206104981443
47,0.010812406256421284,0.010229707161515977
48,0.010850635608699545,0.010379940565549486
49,0.010867939339523803,0.01024168519631835
50,0.010793353094764627,0.010216057809970164
51,0.010815134185537718,0.010393806983251938
52,0.01076459294556753,0.010499971574377957
53,0.010793334114082464,0.010421565522686622
54,0.010782365282745553,0.010607337207348988
55,0.010738388957505412,0.01072479491980623
56,0.01076055548353058,0.010270614486394164
57,0.01072373061125432,0.01031265766756236
58,0.010717005510329405,0.010408906512752492
59,0.010678168498834751,0.010166310789953927
60,0.010701673673617015,0.010339218693625194
61,0.01066724741254672,0.010190370132649998
62,0.010685511195466362,0.010133602036799473
63,0.0105751823241283,0.010145117492870984
64,0.010517742982360277,0.009788594036835603
65,0.010374130822488257,0.00977806217660981
66,0.01035395959176243,0.010123133888532925
67,0.010249930861854085,0.010073170044027684
68,0.010125475889751856,0.009437265161021701
69,0.010121695804486066,0.009602814600617344
70,0.010038641859697979,0.009591752138655537
71,0.009989067844603707,0.011275617522021145
72,0.010004839913849525,0.00965466902525325
73,0.009997543435675974,0.010243634616527797
74,0.009931094300783785,0.009546845745294102
75,0.009916682585336246,0.010304818092701179
76,0.009886930207306998,0.00956251043847787
77,0.009877372616585056,0.00932635192458212
78,0.009868171758037779,0.009197054821407763
79,0.009798898263959731,0.009631899611502933
80,0.009787640186855538,0.016051301376517564
81,0.009820843445488666,0.009380250762481338
82,0.00978523261670688,0.009122741719678562
83,0.009808032910662024,0.009278079354662282
84,0.009764967462585934,0.009237431878174026
85,0.009753425721025201,0.009472650982503411
86,0.009753154194685637,0.009208756465567177
87,0.009668698793127359,0.009303552831672647
88,0.009753666005638836,0.010574349378659666
89,0.009705771420807821,0.00947304614287888
90,0.009702236834725831,0.009003315895484643
91,0.009745049752079378,0.009181262712218122
92,0.009721174741773655,0.009737837083564653
93,0.009656288000102051,0.009133844101428512
94,0.009649272260471683,0.009936942250858439
95,0.009680239897813619,0.009039183182303765
96,0.009657281873817602,0.00915844375959794
97,0.009603075401166394,0.00908437475360361
98,0.009681230406015807,0.00923362461581166
99,0.009575176889162821,0.009055039568021669
100,0.009611251240216404,0.009129086546210889
101,0.009642392354855383,0.009124699205545272
102,0.009576838411351415,0.009511247185931942
103,0.009621249691382866,0.009051525929652252
104,0.009571683680944097,0.008980146179118277
105,0.009593808535157062,0.009224194925899898
106,0.00961787993309981,0.009133391866486472
107,0.009523125491264352,0.008915228753727671
108,0.009515484836386435,0.009107756483402148
109,0.009537882551336311,0.009672227584818584
110,0.009468994097024706,0.009605935413462278
111,0.009567196631769758,0.009326954407094478
112,0.009498768922364046,0.008876372469596213
113,0.00951896127887303,0.009064604437881771
114,0.009458797343321012,0.008929583828487195
115,0.009509619841959988,0.009043428245106585
116,0.009510985806778503,0.008913240765123951
117,0.009462112377225282,0.008900181762681857
118,0.009453130041392,0.009159917963293927
119,0.009456400095124958,0.010010884052232128
120,0.009508285529534397,0.008951926359620459
121,0.009481384873334883,0.008859438164593296
122,0.009456390142544326,0.008915317489046646
123,0.00944233536732416,0.009023831222123234
124,0.009425786005483642,0.00897869262620996
125,0.009417748589591874,0.009842025304546828
126,0.00943098386881725,0.008862370240008223
127,0.009388959992131246,0.008774506681854146
128,0.009415013547184756,0.009442935423196078
129,0.009404444313286076,0.008947422426708347
130,0.009383959331134702,0.009304869422518701
131,0.009420249837519327,0.00898303246635536
132,0.009378802503296533,0.00880169854437282
133,0.00936114732940957,0.009022227233257728
134,0.009367645885204615,0.00901187235349427
135,0.009361414122640948,0.00901535926163386
136,0.00938146862578101,0.009184444098596855
137,0.009321241015377893,0.00934501258476389
138,0.009295774020589212,0.009011614040632972
139,0.00936134323537201,0.00910014614182731
140,0.009333430253965448,0.00899670932700626
141,0.009355294796320987,0.009251363838941323
142,0.009319202943157735,0.009023014498332937
143,0.00932436129674246,0.008740349635390136
144,0.009279562539922102,0.009826808390983321
145,0.009335155796069071,0.009215077045063769
146,0.009344072173968442,0.00884121128235782
147,0.009262207121671712,0.00877099157953941
148,0.009334126706642793,0.008985512856385474
149,0.009313671310176715,0.008942270373002083
150,0.009268253055669173,0.008742227526934756
151,0.00929928254694654,0.009484428118403226
152,0.009290033649752708,0.008804468577757255
153,0.009257596524645488,0.008573941531059715
154,0.00929251501049804,0.008678031777446873
155,0.009256188805532571,0.008737884150995174
156,0.009259910390590482,0.009461261830419097
157,0.009270831783996748,0.008772438937681006
158,0.009228836153835069,0.008626825351181384
159,0.009232287595813352,0.008917230597474018
160,0.009188908604136408,0.008829280759574842
161,0.009193308362887478,0.008990475039604364
162,0.009147195510579891,0.008734562987843562
163,0.009189013841079195,0.008574054084875889
164,0.009132046155589687,0.008736381118265833
165,0.009139820561554301,0.008686158809746098
166,0.009145037088446993,0.008670400626647123
167,0.009119675914558046,0.00866820310909944
168,0.00916561434906695,0.008679921659455353
169,0.00910504141446815,0.008603532056687868
170,0.009124211927317145,0.00878719180087756
171,0.009108029406667394,0.008733782603455554
172,0.009095278989478022,0.008821322663637032
173,0.009103284650981062,0.008672945855556025
