epoch,loss,val_loss
0,0.033098702928174246,0.02174591160798941
1,0.01946584174732831,0.01681407849495612
2,0.017089910851826318,0.016027905913704333
3,0.016247524622963663,0.0526500360072085
4,0.015730723805718525,0.017597985389049785
5,0.015541821960057725,0.01723360391117766
6,0.01482894366307239,0.015019901005271098
7,0.014489185970095145,0.014013475330781067
8,0.013892508812627677,0.013296071949273073
9,0.01380337624089295,0.013766558282772439
10,0.013838326404826873,0.013308678288974089
11,0.01383965017996306,0.014528164476196464
12,0.013607907381142386,0.012822078030076655
13,0.013464411602251572,0.012983154280684157
14,0.013232887080251254,0.013748017763720442
15,0.012507294708788223,0.011798568851915991
16,0.012035098401707767,0.01063006998689652
17,0.011875091508697479,0.011190767827174158
18,0.01157300469599533,0.010733669801803455
19,0.011355640614006055,0.010777741304557486
20,0.011346415404063698,0.010439317290163432
21,0.011175967133169255,0.0124485515791178
22,0.011113917449364519,0.010894719264870109
23,0.011001012861110987,0.010606251598662807
24,0.011026576292683152,0.010357471893599047
25,0.011023739451065136,0.009869678885909203
26,0.010853526839316813,0.01061871759757655
27,0.01068273314518273,0.010213853386555406
28,0.010600306899635882,0.010910711133175518
29,0.010521886053392682,0.011400961034486214
30,0.0104917272027449,0.010049151034794401
31,0.010420036295762844,0.009917338330955927
32,0.010381461364456534,0.00964923245028195
33,0.010298421473730173,0.01109818094826339
34,0.010378636336702385,0.01092258757687259
35,0.010282156117986845,0.009943290949101478
36,0.01029183714996455,0.009686953516900942
37,0.010178110571391605,0.010370060616114134
38,0.01015689178384255,0.009794087990491633
39,0.010134878928587311,0.009781465247045384
40,0.01008217501459768,0.009422421028508633
41,0.010050697689030524,0.009289183613366649
42,0.010097123985324974,0.009746560589260246
43,0.009994516664312619,0.009483015787204568
44,0.010025196796613203,0.009408302910934157
45,0.009988711199557776,0.009433266718448751
46,0.009945470802196798,0.00941462832921872
47,0.0099759165053864,0.009943353580729496
48,0.009985049967800995,0.009822760082941638
49,0.009960524643332745,0.010087095854361109
50,0.009928965879014973,0.008893794733866794
51,0.009842745817743574,0.00936979794435822
52,0.009834284403601281,0.00927453642477806
53,0.009799243457146481,0.00958830259016533
54,0.009824163977352567,0.009188535480566437
55,0.009905754202595228,0.009653995218990692
56,0.009752516702155564,0.00956162597820055
57,0.009777250475272413,0.009198193353530844
58,0.009795448371201027,0.009160310619399637
59,0.009747821812425065,0.00908651214309051
60,0.00974009140397851,0.010622122432932741
61,0.00968100131939342,0.009172515325796653
62,0.009755491951919932,0.009341543402220496
63,0.009837226513929855,0.00971245680603203
64,0.009683013970984974,0.009299575453155288
65,0.00975265358673073,0.00934546055328867
66,0.009725307310501259,0.009591788456575436
67,0.009701319048654027,0.014009931805749625
68,0.009760891738595609,0.00929142508155295
69,0.009661723944287307,0.0090594027249525
70,0.009666990310276506,0.009122394168455427
