epoch,loss,val_loss
0,0.03557682086864403,0.020448441502716696
1,0.018120594906154617,0.018133078334116218
2,0.01600869570253303,0.015539356402426305
3,0.014806118225780299,0.013081962942138814
4,0.01409632207814897,0.01468898114478087
5,0.013161847748455075,0.012414075947049115
6,0.012180820691814451,0.011622718538247713
7,0.011845250545731417,0.011905442716174297
8,0.011502048172775422,0.011630643929854894
9,0.011390916477159353,0.011104081455356065
10,0.011269084750224154,0.011914709935590982
11,0.011142363982394052,0.010432492139892247
12,0.010902793174567575,0.022132546491554158
13,0.010930386670009964,0.009867977785996351
14,0.010787272693219788,0.010345958037355437
15,0.010761826911241319,0.010035543509977752
16,0.010671746960311333,0.011050261215232721
17,0.010723078691811806,0.010426045251195004
18,0.010599781423558918,0.011719547666692703
19,0.010531994378271504,0.009688025346316891
20,0.010472613303353952,0.00941879507229655
21,0.01046643726280648,0.01660735754342624
22,0.010402532149881582,0.010289879388351757
23,0.010377153306912674,0.00985561236644503
24,0.010330020462479233,0.010054933954832186
25,0.010341895188561255,0.010859171784787125
26,0.010296548085753136,0.010134003617118512
27,0.010261037467722849,0.009484612848055064
28,0.010186857357987246,0.010119889058706324
29,0.010217673869761607,0.010003879474022224
30,0.010194469219596247,0.009634546467530642
31,0.010178588049673337,0.009875260470519325
32,0.010145021954822453,0.009612839897900492
33,0.010078859053034451,0.009854482520158405
34,0.010064977942861625,0.009565762625967266
35,0.010028443456199361,0.009615404059671484
36,0.010157731020622729,0.01085633436540029
37,0.010059182894105545,0.00963068484951048
38,0.010055825005182891,0.009526844928196394
39,0.009995068230926827,0.009389222125955103
40,0.01007432016370526,0.009304274945357618
41,0.009955553101032188,0.009898961362323511
42,0.01000962008809813,0.009873376193787498
43,0.009972625749241305,0.009245526831646192
44,0.009981675672094289,0.010037510730139823
45,0.009909248935802516,0.009168850771166717
46,0.009911681689048674,0.009650486258790489
47,0.00992644918714731,0.01005479923581235
48,0.009908552127951636,0.009811790465388067
49,0.0098674579675835,0.009112076131358969
50,0.009896349075970177,0.009489890139985387
51,0.009848734660916,0.009285361840408452
52,0.00982393798807549,0.009677688189228614
53,0.009834086428222788,0.009285739926721593
54,0.009803570386678047,0.009594175051019243
55,0.009845230977526034,0.00926269669322676
56,0.009849198112676288,0.009351878516633067
57,0.009809989405786158,0.00970468687755688
58,0.009749677572728087,0.009368037924907625
59,0.009794701733509738,0.009671105553129975
60,0.009739840761056507,0.009167700608382059
61,0.009809318323019909,0.009311504690914255
62,0.009804955807311798,0.009153347057762913
63,0.009719389266067064,0.00925822291718889
64,0.009728078236398596,0.009213137978848205
65,0.009730670103287585,0.009270150073041836
66,0.009755756058386716,0.009129474431451434
67,0.00974454028651203,0.009421548045447254
68,0.009682686136441436,0.009273525833888626
69,0.009716874893135732,0.009336594199910831
