epoch,loss,val_loss
0,0.034229900331887435,0.03457211751454744
1,0.021464821684710693,0.017376360532570183
2,0.01663447123799854,0.017442910816421065
3,0.01588336537924784,0.015319282349112683
4,0.015240497070145138,0.015193521193269631
5,0.01488407614226222,0.014289206656813266
6,0.014726687576349018,0.014246396170371493
7,0.014417619093012393,0.014881936892496157
8,0.014142924968882855,0.013084583964576858
9,0.013914617415265718,0.01417976980129686
10,0.013721651071518957,0.01254227321076714
11,0.013682077636737388,0.013280082593039116
12,0.013420100336951223,0.012620150324886604
13,0.013312781453955449,0.013263390918420704
14,0.012987019910213537,0.013121969419152458
15,0.012568233773485055,0.012073718317087319
16,0.012139456362216054,0.011375617359616827
17,0.011899334743891448,0.012494305555148315
18,0.011708029285662171,0.012600482194936615
19,0.011609274730063845,0.011160086511241025
20,0.011391855452734733,0.011485636369167707
21,0.01116000031690843,0.010868821677912902
22,0.011097692166466904,0.01118802173855604
23,0.010911024820343729,0.010894584680845459
24,0.011001825355177923,0.011123934324127657
25,0.010923135894528847,0.011115587871372037
26,0.010611183884342526,0.01099981758138616
27,0.010683309880246137,0.009661015268994683
28,0.010565027700900561,0.010582553770040245
29,0.010447658832376767,0.010668914810007023
30,0.01034723826105872,0.01010596778411498
31,0.010319633622443746,0.010085834731820101
32,0.010261259402791491,0.009965237536547034
33,0.01014258847431928,0.009241113613649661
34,0.0101384113504491,0.009956098404673486
35,0.010015869384382092,0.010639052373276217
36,0.010024988848770719,0.009698445320677214
37,0.01002579544145815,0.00991354031005112
38,0.009982114689502787,0.009165252080950067
39,0.009917702902984691,0.009788153512272921
40,0.00988887078292031,0.009149221821212028
41,0.009802520331706352,0.009293103916651889
42,0.009742721579911741,0.010254916724529575
43,0.009755055308645422,0.009853383732932415
44,0.00970941216878005,0.008951946777577486
45,0.009657330751801932,0.009919259211090487
46,0.009682371470566283,0.009515687674730638
47,0.009614258868000726,0.009632892584208116
48,0.009622809412068107,0.009474570626716564
49,0.009610427402747491,0.008985058259563833
50,0.009540336361598109,0.009275905699353049
51,0.009524473016072137,0.009311963771195537
52,0.009570242677887465,0.008827510208503177
53,0.00951645943090138,0.008956187857966884
54,0.009497470963850506,0.009372453578622538
55,0.009509473248004807,0.008858117746924
56,0.009483570608414049,0.009055332370692228
57,0.009453412577331611,0.008888655947033261
58,0.009475070147432594,0.010003051061002185
59,0.009515490334127297,0.009110371916092978
60,0.009449860646758627,0.00932930815322758
61,0.009440320248877402,0.009790759764773524
62,0.009470937878471345,0.008897179375333561
63,0.009423668036697933,0.010025205145401731
64,0.009407515366857246,0.008947869629964614
65,0.00933447497935902,0.009038316021487473
66,0.009382316460913498,0.009026193303645144
67,0.00939292665073721,0.00900840029848554
68,0.009301676471343301,0.009288464872897433
69,0.00936070327794641,0.009076216811917951
70,0.009308363085666477,0.009329741678487736
71,0.009356401620995162,0.009033967346053263
72,0.009312863185302899,0.009213433048114174
