epoch,loss,val_loss
0,0.670511457105589,0.6668451603336979
1,0.6671396805642374,0.6669161073770034
2,0.6668891564575666,0.6668156992684892
3,0.66689108011271,0.6667522124653869
4,0.6668843190243918,0.666779607936695
5,0.6668387833802687,0.6669748128880314
6,0.6668278624854993,0.6667331514357384
7,0.6668490670901962,0.6667340259590243
8,0.6667920505124869,0.6667296169380432
9,0.6668120493334453,0.6667603419681608
10,0.6667914472910956,0.6667565720098746
11,0.666803526620182,0.6667656008499055
12,0.6667861161896986,0.6667571336632023
13,0.6667976972135898,0.6667292990513372
14,0.6667812313282222,0.6667467228652978
15,0.6667807338962308,0.6667520724176622
16,0.6667824430733323,0.6667330093387197
17,0.666770740959253,0.6667254118620639
18,0.6667772869033859,0.6667494267788466
19,0.6667666987817266,0.6667495469820203
20,0.6667669817672278,0.6667238856632217
21,0.6667807708409588,0.6667268647453947
22,0.6667656059228915,0.6667914622186271
23,0.6667722318787673,0.6667300496278196
24,0.6667688293514835,0.666728279458846
25,0.666773645975271,0.6667672286189623
26,0.6667650724536891,0.6668571899320391
27,0.6667629734466636,0.6667251966625087
28,0.6667704994051857,0.6667299388996737
29,0.6667614549916469,0.6667293941329089
30,0.6667655355976378,0.6667213854343716
31,0.6667623346601591,0.6667510575153571
32,0.6667615497449172,0.6667345926243672
33,0.6667661295001216,0.6667420571004093
34,0.6667597701033385,0.6667470825424606
35,0.6667634883202517,0.6667345667881153
36,0.6667569855448894,0.6667256307484556
37,0.6667574127068432,0.6667200788697004
38,0.6667566191928699,0.666805188135626
39,0.6667558030134582,0.6667251299444941
40,0.6667554994623094,0.6667975440742062
41,0.6667610132770837,0.666721304555876
42,0.666760090198033,0.6667255051783083
43,0.6667527997840895,0.6667359655094995
44,0.6667567642417375,0.6667520989732968
45,0.6667531547241152,0.6667835285819976
46,0.66675618186168,0.6667372312492011
47,0.6667553216647465,0.6667833256545437
48,0.6667574525764491,0.6667325919121622
49,0.6667538075075178,0.6669973079147691
50,0.6667526010252951,0.66673042100915
51,0.6667535643517879,0.6667233768182651
52,0.6667571957961356,0.6667387078768945
53,0.6667557131866511,0.6667520230736868
54,0.6667523576195149,0.6667584543883545
55,0.6667506320664882,0.6667281069158466
56,0.6667538878126952,0.6667214886468612
57,0.6667526078559265,0.6667206034038262
