epoch,loss,val_loss
0,0.03242547348181061,0.020313039628133044
1,0.018652965219925287,0.019457726098942543
2,0.016227029324020793,0.014767136348685646
3,0.01575047703500297,0.015408371931318492
4,0.015427400681972406,0.016353986283407215
5,0.014910629058920238,0.01504438101015695
6,0.014567582247813172,0.013369233723731624
7,0.014200548329973221,0.013397865565838309
8,0.014083669754640303,0.014311620836779629
9,0.013807217288978931,0.013272624519488414
10,0.013513712166187505,0.013358801890611862
11,0.01341678717482187,0.013019946421031723
12,0.013139733451276218,0.013573615495704159
13,0.012706245079522345,0.011730449023049124
14,0.012553517404537891,0.011845106582666236
15,0.01237902596571433,0.011610083435069753
16,0.012196343987226327,0.011973960083823995
17,0.01213384963909312,0.011190361615385147
18,0.012013001779666627,0.013300879254560916
19,0.011916146791809653,0.01228481350247422
20,0.01189949527680796,0.011761161753112396
21,0.011836703578949184,0.011233416326936795
22,0.011812852742400933,0.011992064482794667
23,0.011766188299796587,0.010664430405289096
24,0.011730268917591494,0.010954535397628052
25,0.0116589631561339,0.011914575684413951
26,0.011654678243863625,0.01141534013428446
27,0.011656929519914701,0.011644787501731
28,0.011597725671501215,0.011199648598895573
29,0.011541310078917117,0.010919521922039746
30,0.011567762421167398,0.010922849195914238
31,0.011543382858064508,0.010998791911634392
32,0.011523338884042354,0.011256027131549788
33,0.011495634360697634,0.011246258065776539
34,0.011450102494702179,0.010924148647215502
35,0.011465361367778261,0.010917356104807558
36,0.011485570949616745,0.011047720232811633
37,0.011406059332512987,0.011122138015856372
38,0.011368960078692517,0.010609594989209783
39,0.011351697721664264,0.011953294298488676
40,0.011328675389701807,0.011126519408192658
41,0.011331238827927147,0.010556927043841067
42,0.011271293053774641,0.010599959124564741
43,0.011331462876079432,0.010807384497682614
44,0.01127351812887159,0.011069689459404503
45,0.011311812155644262,0.011030547673065183
46,0.011234234457277564,0.01177582595896994
47,0.011231962466976157,0.01076526128518655
48,0.011248905796439,0.011341799650856257
49,0.011239792860327238,0.011504482132706146
50,0.011149351392752912,0.010943218029113196
51,0.011227180559821855,0.01083430143627676
52,0.01116367130770586,0.010835367786167529
53,0.011126356600754573,0.010552121328952538
54,0.011164616253255712,0.010748092658122346
55,0.011171735162538884,0.010986621714495413
56,0.011115721856228212,0.010597478050943562
57,0.01112448883469618,0.010558680038624386
58,0.011090234596085364,0.0110870993452341
59,0.011100161948750324,0.01080562126548712
60,0.011037878479145828,0.010423690572925881
61,0.011082446371297669,0.010649746742672783
62,0.011049981594130162,0.011623717923316622
63,0.011021683965681987,0.010344677458462383
64,0.011034007182136834,0.010443094525913956
65,0.011006309258791425,0.01059223604514989
66,0.011019800883090325,0.010587507030265978
67,0.010969103044107418,0.010529549108004431
68,0.010965449478440584,0.010632389483409
69,0.010965903200370549,0.01054281442542542
70,0.010912417335617309,0.010839025589855018
71,0.01094988252567846,0.013828336901617264
72,0.010945106103730461,0.010466802007635105
73,0.010871481402275401,0.012861653454930101
74,0.010920438574938138,0.010309141259887447
75,0.010925033008445634,0.010836923087620066
76,0.010904292144392366,0.010354829021574679
77,0.010887701744634538,0.010228507321945256
78,0.01092727004037374,0.010461846053088876
79,0.010915537350927566,0.010476762348755234
80,0.010886108698756778,0.010290254179909778
81,0.010908680407031229,0.010607717495995246
82,0.010879058142364652,0.010764484926768337
83,0.010844992051484387,0.01033817798490696
84,0.010832831533472706,0.010312549867048298
85,0.010858546090855866,0.01018522668073635
86,0.010850929480273283,0.010913021178102354
87,0.010785583268840541,0.010239088566338133
88,0.010751947412214934,0.010342758049631137
89,0.010794751461257912,0.010687487266827016
90,0.010779786112719634,0.010036528772538878
91,0.010742769057417152,0.010203318606462517
92,0.010734295820866664,0.01022478724905725
93,0.010736883877521232,0.01022116308313053
94,0.01074919485736977,0.010484896223398738
95,0.010734131783370368,0.011232247762248921
96,0.010720965646802532,0.010218757083655772
97,0.010704286997626085,0.010315768221069032
98,0.010699234933018088,0.013291389684874505
99,0.01072316604176806,0.01046770293218549
100,0.01072517678293956,0.010268399569553355
101,0.010690792437732514,0.01031798327819243
102,0.01066529121146088,0.010075720838428299
103,0.010715034196125711,0.010205512508276388
104,0.010719973602429893,0.010692220529862611
105,0.010673119731502577,0.010365778444758153
106,0.010674889858214848,0.01039335297399767
107,0.010662023332578463,0.01040488773027643
108,0.010698384058104353,0.010306772849749853
109,0.010653514046867754,0.010151395922293333
110,0.01068211291316088,0.010892358964648673
