epoch,loss,val_loss
0,0.221176486584642,0.10027382705309289
1,0.09724349530340673,0.09537229950434777
2,0.0989981973595959,0.0957097658118579
3,0.09994618288331551,0.0984463937707481
4,0.099881708627944,0.09826753433530928
5,0.09993798789188707,0.10188234095905045
6,0.09923896437780776,0.09491997310062394
7,0.09920086631710955,0.09532789211034388
8,0.09911284438543934,0.0975745660581438
9,0.09850042766098789,0.09682824112783094
10,0.0990427589898495,0.09563057384448427
11,0.09902695751338124,0.09864237366149026
12,0.09830339193594656,0.10295883563119806
13,0.09913526535976687,0.09460590788241044
14,0.09804487051524287,0.09712715579887182
15,0.09758395216673064,0.09348053157643776
16,0.09720230471787213,0.09474753545535258
17,0.09710644210298792,0.09445661122684834
18,0.09645907899097884,0.09550826870877861
19,0.09587983467024837,0.09400702785135573
20,0.09641584181029192,0.09342118825186392
21,0.09602359149029391,0.09535927556920419
22,0.09671577136572883,0.09416535160136436
23,0.09618171741417926,0.09352160156353256
24,0.09595277807336029,0.09473436503442245
25,0.09500849475447325,0.09474652840635782
26,0.09509606253776291,0.09746083150113972
27,0.09439531962176244,0.09251907318588784
28,0.09506474793840161,0.09249708813593238
29,0.09400872668748002,0.09137207000166638
30,0.09417800278402119,0.09188923998664089
31,0.09341314408459885,0.0900837298413166
32,0.09296533671782625,0.09055887810456878
33,0.0925207516883878,0.09475963249717992
34,0.09270645638971066,0.08778150831647549
35,0.0920199543786488,0.08732211218794864
36,0.09153493296644323,0.08948481904715903
37,0.091027386403017,0.08888831440984768
38,0.08995545510533717,0.08742081379368358
39,0.09011129618848296,0.24115894120926792
40,0.08960587284665665,0.08791537527886234
41,0.08912549405287895,0.08717024845991884
42,0.08968408999620102,0.08668245097194759
43,0.08851894919124483,0.08545225268321993
44,0.08855895712088832,0.08306509566652708
45,0.08840904750222202,0.08271291444118875
46,0.08786713318217745,0.08679849181297052
47,0.08798648418636443,0.08054727600209131
48,0.08708935526398728,0.08463082787945612
49,0.08715264846662506,0.08570170591661626
50,0.08601932921368566,0.08266655582895341
51,0.08640169553619752,0.08296516612897244
52,0.08464223394592443,0.08398496542074578
53,0.08346612616520438,0.07800658752375855
54,0.0809132199081256,0.07910384818766529
55,0.08062141160782668,0.07844227643960004
56,0.08133229212440234,0.07993954628560955
57,0.08108570374357547,0.07838447232763165
58,0.08155827059763207,0.07792240174884538
59,0.08196184795358784,0.08007271896627795
60,0.08145444751161637,0.07936713362334709
61,0.0821137529260235,0.07918505220457199
62,0.08234529113106197,0.07946460378648591
63,0.08294498693016025,0.0816617512143393
64,0.08369407713789048,0.08532324899214608
65,0.08378969441601236,0.08234386498959008
66,0.08421202292225903,0.08141088398703694
67,0.08480271517192486,0.08427046626709576
68,0.08485567118760774,0.08431785568196118
69,0.08492224288879155,0.08180022503748621
70,0.08550269143570892,0.08949802412265505
71,0.08513721312173278,0.08723355501600136
72,0.08544420569335776,0.08850515916617248
73,0.08545130546435153,0.08519292204049382
74,0.08571587484016764,0.08429660108801512
75,0.08539018126799643,0.08365065190527174
76,0.08588399708247166,0.08374662823606485
77,0.08598062339976274,0.08546214167025644
78,0.0862196503465084,0.0860960959530128
79,0.0858177912411831,0.08265990191664235
80,0.08574775034327618,0.08307569864940953
81,0.08620087653577471,0.08509642305116971
82,0.08541359053887397,0.08443289622966584
83,0.08516859321790136,0.08249797545742041
84,0.08563822889931685,0.08748185169329416
85,0.0855134968176854,0.08417074223685729
86,0.08648792576578687,0.08306525903848352
87,0.08669758837720792,0.08515981042157898
88,0.08687760919523392,0.08294862328400868
89,0.08730439412846767,0.08695454471906994
90,0.08640181754169175,0.08813798221527612
91,0.08698255566058395,0.08651905256079545
92,0.08728039733248295,0.08378893775685667
93,0.08775610942169845,0.08664587619265017
94,0.08743411320462238,0.08557869752586517
95,0.0877690349412475,0.0891698411720996
96,0.08789496841408712,0.08504849839698755
97,0.08788313957943833,0.08635393319242095
98,0.08838242480010867,0.0868144643048107
99,0.08865927272827459,0.08689135345664338
100,0.08874494390334006,0.0853138171855454
101,0.08906631133227562,0.08979445216091106
102,0.08936784575559838,0.08699050832718055
103,0.08920194930117353,0.0885279844760508
104,0.09085160249574266,0.08983364586460812
105,0.09264568632857813,0.09027590928334872
106,0.0943089979465863,0.09584945774450596
107,0.09999219479980327,0.10376498881434389
108,0.1062627154603016,0.11666335019268645
109,0.10696505379674433,0.10024152325114291
110,0.09824474079547833,0.09481681836806752
111,0.09608608552570148,0.09502398884354427
112,0.09483475777342187,0.09313780452454853
113,0.09477750534375158,0.09317329736835862
114,0.09366307613418234,0.09346679219823491
115,0.09284272732688867,0.09299610780562605
116,0.09153467017987235,0.08955379616580934
117,0.09126193880187787,0.09343567257935886
118,0.09058482294158042,0.08885905478339996
119,0.08955074768301675,0.08696016306110446
120,0.08908266733714444,0.08861495260170389
121,0.08914821967482567,0.08906253806745146
122,0.0892825405612242,0.08800925454011509
123,0.08939270699043289,0.08829436691693919
124,0.08675040603817416,0.08518752019432436
125,0.08646209667428577,0.08452374386598883
126,0.08411249122302755,0.07995147911555285
127,0.08120072581726995,0.07724226374309041
128,0.07824948064541463,0.0749392964380936
129,0.076403638061652,0.07555960785274281
130,0.0763131486530825,0.07362297292729267
131,0.07530332059026051,0.07774040904515464
132,0.07450491374879002,0.07108196863921212
133,0.07316928193885817,0.07124787467831727
134,0.07238129466575227,0.07115126787613102
135,0.07170523214694545,0.0708775306445307
136,0.07150713640382235,0.06944250584325458
137,0.07082623314467357,0.06865884137958506
138,0.07025191375167013,0.07055238238554705
139,0.07010204785520598,0.06795875447751638
140,0.06990869230090427,0.06880441691125203
141,0.0698407941995214,0.06897467257876466
142,0.06935116823753708,0.06748089781340698
143,0.0692292640002085,0.06950271072505164
144,0.06859209455603404,0.06730965113407794
145,0.06849387978569711,0.06627553953681162
146,0.0684294385091365,0.06790596450356479
147,0.06814671067403162,0.06606202140837207
148,0.06790425286913891,0.06803270361090906
149,0.0675869089147871,0.06837066950915503
150,0.06768962847377606,0.06635769653917326
151,0.06721674424675916,0.06629605901889074
152,0.06871620585934651,0.06642099962375653
153,0.06822564825564742,0.06532570545388641
154,0.06950190365821529,0.06500861939988481
155,0.06931677060701352,0.06614366347168098
156,0.06837549436840418,0.06778016103324326
157,0.06880122984202505,0.06553835707617696
158,0.06878664526488898,0.06692877285551077
159,0.06909888782042613,0.06785956654162882
160,0.06872531981487051,0.06709493732341208
161,0.06934830915478109,0.06721001190933287
162,0.0695083035682563,0.06692949186070896
163,0.06899376146292524,0.06766176960957505
164,0.0692036208287299,0.06816957710312327
165,0.07102377989811837,0.06961590250151871
166,0.07738737680697985,0.07602004334934823
167,0.07686496841713035,0.07224075013087324
168,0.07573830693799129,0.07461779758285819
169,0.07807271424874819,0.07880892915483519
170,0.07967639320475564,0.07938141708427682
171,0.07881536795269307,0.07572377356190751
172,0.07806702089862073,0.07822542576555885
173,0.09408230937904029,0.09344990669907541
174,0.09764717199844872,0.09182519949700711
175,0.08639601703950937,0.069967069136642
176,0.07210858834473441,0.07236136396665546
177,0.07147641174698038,0.07087794510951298
178,0.07483647311116763,0.07325631060123154
179,0.0766754608192713,0.0761223267960239
180,0.07697084059773253,0.07391524702818145
181,0.0773033382038506,0.07774085114617127
182,0.07673737649068392,0.07764509381289803
183,0.07647577705558202,0.07399299415999182
184,0.0766901553744932,0.07667911818911173
185,0.0769879535792039,0.07577031033849291
186,0.07668106123846803,0.0754225176712989
187,0.07701461849729713,0.0742587491519453
188,0.0767674568602092,0.07538979343725527
189,0.07654828584497217,0.07631547295844178
190,0.07723910169298645,0.0750635711586485
191,0.07708718742522075,0.07456476090888327
192,0.07726035882577932,0.07812866813292468
193,0.07676522914108465,0.07766233274028829
194,0.07628837779904003,0.07418103362014404
195,0.0767950474160065,0.07468135320768063
196,0.07667246476722489,0.07426444487608455
197,0.07609199628001265,0.07356265005379892
198,0.07685225774900163,0.0759955887854196
199,0.0766839750627096,0.07582243266066012
200,0.07642306436339409,0.07395418573530438
201,0.07681174863508647,0.07597498138286385
202,0.07583608191081578,0.0756640730989192
203,0.07604900946776517,0.07354380628766322
204,0.07582302468629767,0.07592241386886737
205,0.07596207284230629,0.07393840868675602
206,0.07611677740917529,0.07445415999477507
207,0.07600131516961502,0.07792716521682144
208,0.07591748229258533,0.07552513740322306
209,0.07544022963924395,0.07324792846239686
210,0.07592006567999827,0.07593141052047121
211,0.07587042740815349,0.07486215375200675
212,0.07582394788571126,0.07618981057178269
213,0.0756568575458373,0.07449939216442546
214,0.07568196890006264,0.0731912211175866
215,0.07595946070692652,0.07373293445408587
216,0.0755096807020058,0.07297734047277904
217,0.07556582037046301,0.07714724667605982
218,0.07544863543915357,0.07370262778540114
219,0.07529875503970777,0.07662616334160652
220,0.07565708474529753,0.07389698532279294
221,0.07634797056106399,0.07331152178123533
222,0.07544813937603759,0.07867270621070027
223,0.07666867869414741,0.07551089327688731
224,0.07477426731450448,0.07726316806608743
225,0.07574398728986804,0.07158087529936943
226,0.07382987323757693,0.07326386823331739
227,0.07476317131514545,0.07138414182137495
228,0.07473775295106719,0.07543546226652095
229,0.07690795484909399,0.07288320003634821
230,0.07553876911083443,0.07383644878139171
231,0.0760787077072122,0.07237729831732392
232,0.07612435164167176,0.07985329689927828
233,0.07626982890606356,0.07230142119664636
234,0.07344899971703227,0.07139975230140794
235,0.0740041258566684,0.07230409966526434
236,0.07074841753907019,0.07169891847335316
237,0.07126730587706268,0.06690305634269555
238,0.07048456227366594,0.0668226560065636
239,0.0689815383142023,0.06195744800487864
240,0.06767232865512705,0.0678448631622302
241,0.06591701130714533,0.05974526121148904
242,0.06209728227043935,0.05625703361939823
243,0.06156928017079305,0.06293800435144536
244,0.06217519405951874,0.06215580633183562
245,0.06370326778810438,0.061051307579945084
246,0.06203970715278287,0.06141143817596579
247,0.06254091861548187,0.05728150567301192
248,0.07208758957976337,0.14565965324181032
249,0.1928600524041393,0.20093885896801464
250,0.1998792203654758,0.19660620403454154
251,0.2008451708645416,0.20126784534253248
252,0.1995801425772347,0.19886136567408924
253,0.1979354900703896,0.19331751416972856
254,0.19520591605630658,0.1914848804304683
255,0.19386075497317828,0.18675823205143866
256,0.19305392270616956,0.18757354594398493
257,0.19374516263926286,0.19374568191177943
258,0.1927684452161014,0.18417223236566624
259,0.19390275168290036,0.18775656085766532
260,0.1937321797371197,0.1957043109390664
261,0.1977636063392397,0.18845311884027327
262,0.19979826372871407,0.1911408828098602
263,0.19989602489052438,0.20201170152024533
264,0.20285764179103752,0.19654834356282846
265,0.20362841683902963,0.20536873763350094
266,0.20491259724044913,0.20477026499149187
267,0.20499549354549595,0.20309597314225883
268,0.20621939661433164,0.20328501364803855
269,0.20678041521027338,0.2025252949364864
270,0.206923935368502,0.20661788439228587
271,0.20771976964797279,0.2016696807507664
272,0.2074208012025198,0.20678519718016636
273,0.2085207847951411,0.20237801724928525
274,0.20835022454718954,0.2076588261929935
275,0.209045382531239,0.20825568911077913
276,0.2085362123705751,0.20289897292683207
277,0.207168132830277,0.20100018082357285
278,0.2073431401681289,0.2043005397115794
279,0.2064650539365456,0.2043014479572949
280,0.20696556145806996,0.20405518990508542
281,0.20787180233016025,0.2062569551973544
282,0.20642624074239746,0.20599830846716888
283,0.20669603839313822,0.20330154528389688
284,0.20706456423020533,0.20369361374838413
285,0.20668968036949778,0.20341188434605084
286,0.20551204856774444,0.2027388578469639
287,0.2044224712410099,0.19982259435955335
288,0.20342058428317858,0.20163009806996135
289,0.20165910484721128,0.2015863072915669
290,0.20393622129129543,0.20236346862805343
291,0.20456973717415972,0.2005312278540465
292,0.20381709770429984,0.20426722390566623
293,0.2049140044457441,0.20255233464643227
294,0.2045663611782943,0.20304734017533785
295,0.20505173722083708,0.20704849635984293
296,0.20510435642434466,0.2065074573854847
297,0.20400404736841077,0.20249620634708962
298,0.20560451985312234,0.20171027878920236
299,0.205280810576663,0.20183489139932786
300,0.206083869252852,0.21020511057400065
301,0.2076277541663286,0.20898235749395902
302,0.20718852818918954,0.20278199307094816
303,0.2073413030005055,0.20468822212259846
304,0.20833631703336303,0.2072224413125571
305,0.20911948705573766,0.20664617194456486
306,0.2101304691502626,0.2114564734363788
307,0.20905465396453707,0.21082224617715975
308,0.2099860008355615,0.20304092871204973
309,0.21101794378746977,0.2092099051381743
310,0.20893418980990533,0.2061011211860499
311,0.20969550390903047,0.20768649610241352
312,0.20881208576995722,0.20534131241492498
313,0.20920544844851482,0.2071368072396454
314,0.209986209547262,0.21351260842343026
315,0.21147691318280606,0.21199635344361833
316,0.21245530378326977,0.20650388846673912
317,0.21077861342790893,0.2086480252039887
318,0.2120108940333629,0.21572100424901897
319,0.2117453213450048,0.2147388069226504
320,0.21119997554941117,0.20497211083975247
321,0.21174750993068547,0.2133572150175879
322,0.21073878778396749,0.21255119482096094
323,0.21188866215242777,0.21080313331696046
324,0.21317876887331016,0.20353367183862037
325,0.21249310213556472,0.21753264428248564
326,0.21403558996675298,0.21211778508485668
327,0.21407920274260142,0.21227752484399326
328,0.21391636186284577,0.21003836423569547
329,0.2132618951263,0.21343408062123517
330,0.21441586194537562,0.20993830959727294
331,0.21573484606080479,0.218469219957535
332,0.21721179903245527,0.21313789176293146
333,0.21777456130286615,0.21900296375602604
334,0.2148119338196788,0.21755938376968503
335,0.21693132010052163,0.2166450286627009
336,0.21703221835046888,0.22169418856562007
337,0.2199356413488869,0.20774372880379552
338,0.21933143208320852,0.22724947272909432
339,0.21926822661279774,0.22124594738835351
340,0.21588543760146592,0.21569531585564966
341,0.21811526644530538,0.21498710742493712
342,0.21860746766706768,0.22139353395136796
343,0.21946209339235573,0.21638059889216396
344,0.2198774918579788,0.21686131133118589
345,0.21770779038067337,0.21920506617496968
346,0.21976930439305173,0.2194252859042702
347,0.21807373865090723,0.22139790100676204
348,0.21672835676454372,0.21904104904536784
349,0.21923728091560238,0.21629342700249765
350,0.21947358583836102,0.22093374810853048
351,0.2220721351410791,0.22293668611931394
352,0.2238818633379795,0.22675586650744745
353,0.22141239573184351,0.22141063260481014
354,0.2225833587927089,0.21888516355073268
355,0.22189255031921845,0.22078575700255593
356,0.22336078782359345,0.22744443482097726
357,0.22379823113151126,0.2188053463207254
358,0.22168510156669458,0.22264697723580104
359,0.2218389448712023,0.2189335841307868
360,0.22212845167582088,0.22249093880183504
361,0.2216459601473293,0.22439246904482613
362,0.2214717857414384,0.22461957037932295
363,0.222517032083795,0.2174989561650778
364,0.22194892731163385,0.2203859123072775
365,0.22120020069700894,0.2225719457681065
366,0.22243002417375796,0.22646545972267207
367,0.22152707498487803,0.2191672778936875
368,0.22157848333482077,0.2232719326009619
369,0.2223438945970982,0.21966538031412544
370,0.22419306787373638,0.22451531833879174
371,0.2243535934602193,0.22423679093374824
372,0.22506825471993347,0.22107545068277543
373,0.22474198197846035,0.22343864765045415
374,0.22399826436113415,0.2261634633875628
375,0.22644253393069946,0.22627898181780315
376,0.22646931111454677,0.22886526322374476
377,0.22833355538863195,0.230735639719004
378,0.2284328785476635,0.22922605381249803
379,0.22692933945273094,0.22790509861171102
380,0.22837242515708467,0.22901944567155566
381,0.22837328927530298,0.22644895425146416
382,0.22824525053473452,0.22837880517251108
383,0.2282203939363802,0.2298169936456046
384,0.22824415906941634,0.22952279440049514
385,0.2277320858487804,0.2264118794735524
386,0.22737318289886005,0.23029882913426664
387,0.22824581763785395,0.22697981499552436
388,0.2274358196376418,0.22735160354763534
389,0.22805522851126972,0.22972634190577176
390,0.22756621351926398,0.22810090510272826
391,0.22764135638268304,0.22539813225576769
392,0.2282016091436458,0.22939928650662653
393,0.2281919420481301,0.22630641939962964
394,0.22735784245763807,0.22620687295969
395,0.22661736589655865,0.22796550314550176
396,0.22616203530751963,0.22639591448063398
397,0.2256119917985723,0.23031375158973952
398,0.2270127697419032,0.22677317019990084
399,0.22760748511867776,0.22721394202811682
400,0.22807901250041895,0.22795298254451227
401,0.22587882790616076,0.2205442108594588
402,0.2260167239796075,0.22952851276038047
403,0.22718756911370924,0.22741560659704418
404,0.22656496054082034,0.22461790444642088
405,0.22502306306524406,0.2226912197139528
406,0.22439483027037282,0.2275283692309456
407,0.2272108054344801,0.22935329933574503
408,0.22622229960606136,0.2269194787557011
409,0.22463953169323714,0.21950056186944417
410,0.21819365596036322,0.2228681355086363
411,0.22617568947177968,0.22850468966260928
412,0.22720421300686483,0.22812636062466604
413,0.22680670138690068,0.22299776054066753
414,0.22433008729003734,0.22999366575252303
415,0.22388180387053516,0.21901191112382182
416,0.22271584056681687,0.22929334851995486
417,0.2261566672566607,0.22594656881673106
418,0.22707010446499595,0.22521087290403424
419,0.22157156431646324,0.22057197897393627
420,0.2212124980443282,0.22548523710833657
421,0.22079702213800267,0.22801185505040178
422,0.22281311207217536,0.22800351635818064
423,0.22770084086969625,0.2306629061843937
424,0.2264695483997309,0.2251763031043759
425,0.22558738151080518,0.22892186028727263
426,0.2270663621916687,0.22737862665239428
427,0.22285420959405272,0.22534967958927155
428,0.22319099551634944,0.22448522211426367
429,0.22534624225287747,0.2298272567267159
430,0.22525526804505014,0.2232773710413861
431,0.22326497187177308,0.22181846011680795
432,0.22109734269382478,0.22346307093161252
433,0.22384772356077612,0.22293587159501374
434,0.22555498973286753,0.2289524694356315
435,0.22593386196274104,0.22701885801983962
436,0.22347463026129788,0.22237021098365073
437,0.22405920619722172,0.22223882672028725
438,0.22510931015706617,0.22313806769911682
439,0.22581026390540876,0.21942526322018296
440,0.22518471008639415,0.22478545956851406
441,0.22628877906082534,0.22177610804371398
442,0.22708114211539251,0.22609986552163439
443,0.22608505030146975,0.22481336573324645
444,0.2213010778001922,0.21930982450450812
445,0.2224464274769883,0.22410935620321845
446,0.22392334780089848,0.22713645766976395
447,0.22459758495430263,0.22518634026309675
448,0.22814465193652075,0.22649872516918645
449,0.22569132868865666,0.22783158980581883
450,0.22313253244488024,0.22390469809614927
451,0.22021030404383513,0.22386418146421924
452,0.22067226669352183,0.22139047550313953
453,0.22183873170943524,0.22705203839800556
454,0.22630752141686608,0.22646717235313038
455,0.22491103658278147,0.21855183529447755
456,0.22619613908451972,0.23014341277846068
457,0.2250764583162158,0.22470597268987844
458,0.22279967982068455,0.22817899051083845
459,0.2259028762268772,0.2234325825032043
460,0.22646118673660737,0.22374045990244315
461,0.22488961604426058,0.2307992461775728
462,0.22504621154193977,0.2259240696344159
463,0.2242733805035476,0.22545897901444925
464,0.22695817616436365,0.22829719151265238
465,0.22650698466216018,0.22654339555116176
466,0.22594510370774495,0.22538044842055244
467,0.22450177020149484,0.2287254710436254
468,0.22396930337572593,0.22433562923618575
469,0.22452243543964467,0.22409396425844302
470,0.22554450096775763,0.2289295688162755
471,0.22733996603324758,0.2259184247410017
472,0.22507122772827065,0.22463974148784338
473,0.22437741898531147,0.22541524520610662
474,0.2242430371640204,0.22299365948248182
475,0.22397050655203118,0.22772991935218725
476,0.2246871880584473,0.22889391801169706
477,0.22534934517213875,0.22617952555828916
478,0.22433177468846377,0.22596815373485685
479,0.22399903499216342,0.2259023244774448
480,0.22417050342353656,0.22523922808558983
481,0.223104524441821,0.22425094934517256
482,0.22314818338263598,0.22335129277742885
483,0.2231716039397413,0.22125980423556435
484,0.22206035607738242,0.2240590455444093
485,0.22130209213500027,0.22878919605887815
486,0.22292651955464823,0.22702273969377623
487,0.223645137013007,0.22359434230629255
488,0.22291756587757694,0.2250820674116981
489,0.2204199905236594,0.22146546961520613
490,0.21933467338403,0.2228323058176118
491,0.2195868213967479,0.21877430270623116
492,0.2207637903354376,0.21959570297987985
493,0.22230396706094924,0.22854205735166772
494,0.2229870892255854,0.22599073224500824
495,0.22255383580445862,0.22477560191258897
496,0.22208920336537977,0.22203642775252497
497,0.220827454681679,0.21912921713748215
498,0.219144682558753,0.22390550498254688
499,0.21864863674792412,0.21856749365944642
500,0.2204078395990394,0.2219020766353375
