epoch,loss,val_loss
0,0.558118267216913,0.5573289859327074
1,0.5561434569063782,0.5561295300603802
2,0.5558646558371152,0.5557799250980738
3,0.5559626195500122,0.5557593792624865
4,0.5557736964506961,0.5561460074317139
5,0.5558037409124422,0.5562584846762224
6,0.5557922773139647,0.5557060541568227
7,0.5557477991769345,0.555712868566454
8,0.5557707383593425,0.5558180525432754
9,0.5557725912092463,0.5556657614453513
10,0.5557503911473877,0.555726654816946
11,0.5557461379341513,0.5556631812656306
12,0.5557470073048527,0.5556815575091862
13,0.5557336224389355,0.5557192837612693
14,0.5557355054037245,0.555653377470562
15,0.55572993998828,0.5556681931908592
16,0.5557221957220817,0.5556820251221541
17,0.5557459074501322,0.5557174367461296
18,0.5557267326311357,0.5556576148051771
19,0.5557383225744063,0.5556638784374115
20,0.5557257384794413,0.5557318218259446
21,0.5557174332755864,0.5556853068467452
22,0.5557301645128995,0.5556641796599954
23,0.5557270981801546,0.555658354344814
24,0.5557226173494059,0.5557007813607017
25,0.5557101183141228,0.5556560347378207
26,0.5557170391498463,0.5556933514812891
27,0.5557119614306035,0.5556608452974131
28,0.555723395509347,0.5556570611691805
29,0.5557130590202789,0.5556611103142218
30,0.5557120689601008,0.5557036017621909
31,0.555709900885961,0.5556611687451369
32,0.5557104292666013,0.5558326105352468
33,0.555713987565728,0.5556545655784558
34,0.5557177330195819,0.5556585751006542
