epoch,loss,val_loss
0,0.03180154033874251,0.02230155821925135
1,0.018948908931914945,0.014715358611815683
2,0.01574766407798485,0.016470452864137158
3,0.01471123747562775,0.01310161355347783
4,0.014267840233420558,0.014405942151945026
5,0.013123681937344452,0.011855631256163977
6,0.011962626632687663,0.010777138102440555
7,0.01163993692554471,0.009672170596884092
8,0.011186527492101849,0.0102567319345671
9,0.010986425594994019,0.010097733767299706
10,0.010913118398469885,0.010182722681079977
11,0.010729993133709106,0.010153149190690556
12,0.010709150073110551,0.010114588778438181
13,0.010565569678806064,0.010000681756960566
14,0.01055241834373613,0.010527311326691557
15,0.010498179443515259,0.009212648180858122
16,0.010440669770660785,0.010505945235660884
17,0.010302132590469557,0.009865145357290177
18,0.01027643177774976,0.013630574442873957
19,0.010327293008757779,0.010328983641259889
20,0.010302628399833383,0.01053948418328375
21,0.010217187016354736,0.010181502633162667
22,0.01010128212273255,0.010227001763944442
23,0.010104958310349018,0.01007313619362454
24,0.010040796549173291,0.00913174266026089
25,0.010051762620011102,0.00977044828825926
26,0.009955917924433382,0.009304754576409596
27,0.009942913737566087,0.009659945729505274
28,0.009963878173196536,0.009435078875139967
29,0.009959220349284276,0.009256840510551482
30,0.009865598293937922,0.010076351024792289
31,0.009878806663014491,0.00951394834544593
32,0.00987344171932208,0.009542103899064243
33,0.009842641365701978,0.009303123504537198
34,0.009779872173176465,0.009468369582738643
35,0.009621483829398154,0.010342635537969646
36,0.009684034850084856,0.009446652707699565
37,0.00957028831854801,0.009062258860713667
38,0.009570878468805099,0.009368216640082121
39,0.009556159131891567,0.009462986985505177
40,0.009531902661794489,0.00938860841295999
41,0.009537546142326379,0.00909190995026216
42,0.009580879613724447,0.009935536095014704
43,0.009526816831469592,0.009141309030116793
44,0.009454117622072414,0.008804123402907864
45,0.009467322543550904,0.00923505579590252
46,0.0094096487176129,0.00885173837615543
47,0.009504930928141546,0.008936372203126784
48,0.009428030238555261,0.00858410255396607
49,0.009421581694086724,0.008935546997675164
50,0.009432406231498184,0.00908858503782357
51,0.009450995060447467,0.008772543399587773
52,0.00935572982449554,0.01167442485123958
53,0.009394752285161095,0.00959148636955649
54,0.00938996948548034,0.008772174635781066
55,0.009396210366598951,0.009054254302916209
56,0.009407973318534917,0.009034247727207135
57,0.009344885282721711,0.009131890969720387
58,0.009296927389755523,0.008545160689653717
59,0.009316168598604364,0.0089101245819742
60,0.009355790826712698,0.009327724077612367
61,0.009335883790429737,0.008868913434551458
62,0.0092796201941182,0.008835351167222148
63,0.009318128256066784,0.00889317887699581
64,0.00926059188995942,0.008659193540324453
65,0.009296970712595155,0.008677837473563809
66,0.00927715997337295,0.009186985939019385
67,0.009258737294029928,0.015647889589747374
68,0.009236179313117576,0.008434018995290438
69,0.00919529764055761,0.009268771933746056
70,0.009225459088034226,0.008629658253868187
71,0.009284195856632387,0.008715612116188867
72,0.009225903274160688,0.009419680155304328
73,0.009217006446880702,0.008449802929710029
74,0.009210729021536137,0.008723508938917752
75,0.009157774230467377,0.008598550474169128
76,0.009150103240557608,0.008803010115623877
77,0.009174833310661655,0.008656843393656227
78,0.009158100877829914,0.008549566859134194
79,0.009217865654459105,0.008553469277165826
80,0.009170300960667966,0.008509777610153089
81,0.009131887650353585,0.008982856081373019
82,0.009157980597797023,0.008414676682338798
83,0.009106541569668324,0.009042462216604697
84,0.009152967405786125,0.008679597435666406
85,0.0091461306867932,0.008454270537307271
86,0.009106702290409085,0.008486611298652955
87,0.009120621773663939,0.008574990722696418
88,0.009144952297164352,0.008334299691148045
89,0.009137365115276965,0.008468927124977214
90,0.009070138510133979,0.008637736795645527
91,0.009083279144530797,0.008778148394344827
92,0.009080147188273265,0.008825933252062962
93,0.009128724224218373,0.008430916529108292
94,0.009101681987258222,0.008382559183876141
95,0.009099846000740864,0.008928018587750716
96,0.009085484516516898,0.008450166079587968
97,0.009064568623987329,0.00876643052994637
98,0.009113921169668084,0.008804823324619382
99,0.009068312526920922,0.008647845262903835
100,0.009030619924873409,0.008585603196197274
101,0.009036255613054638,0.008966487068134202
102,0.009067088828905154,0.00833496980928003
103,0.009044161259083992,0.008327361453217772
104,0.009021997057211725,0.008520071672274775
105,0.009047993739220439,0.008640401255844017
106,0.009046694662188654,0.00858726292520694
107,0.009063657613987162,0.008411877624213113
108,0.009023662169885578,0.00845615711265473
109,0.00904740680577212,0.008727037858882614
110,0.009011264143803472,0.008700256800614457
111,0.00904497328942159,0.008491463069084482
112,0.008979436364097225,0.008526740736831366
113,0.008997949090862305,0.008614645902749535
114,0.009024218316697459,0.008513867650859914
115,0.00904818082310967,0.00857549412207072
116,0.009006224350407394,0.00845275502268131
117,0.009028323275692019,0.00851576327251166
118,0.009022336357070298,0.008881631833640925
119,0.0089554063370048,0.008881481786326405
120,0.00900422977374987,0.008456330918345339
121,0.008987005595974028,0.008912012774010089
122,0.008953033800865082,0.008453664248566663
123,0.00897970028890536,0.0083764016809664
