epoch,loss,val_loss
0,0.5590068714837355,0.5558695977541006
1,0.5565519653612662,0.5558007157556931
2,0.5559494428844559,0.5558525132616114
3,0.5559117784859153,0.5556709241001913
4,0.5557880357734213,0.5556549472109901
5,0.5558110803867188,0.5556890309964435
6,0.5557697898528628,0.5556641639613605
7,0.55585326325291,0.5558335498266416
8,0.5557533684511987,0.5556644723872373
9,0.5557473432895703,0.5562857290866243
10,0.5557826346035257,0.5556711005382695
11,0.5557253559916868,0.5558798262926062
12,0.555749757365438,0.5558695085695742
13,0.555729662642319,0.5558057841288015
14,0.5557460210960008,0.5556610090942331
15,0.5557281517392932,0.5557322374777092
16,0.5557229204241182,0.5556856089922214
17,0.5557094056456562,0.5556547100418652
18,0.5557260190417427,0.5557032062247459
19,0.5557042032929266,0.5558455352160748
20,0.5557194611823603,0.5556546173456152
21,0.5557098522377769,0.5556441250728845
22,0.5557132331167824,0.5556805744442993
23,0.5557071002418658,0.5556439688153848
24,0.5557030479187671,0.5556477525318655
25,0.555703808819719,0.5556491691810244
26,0.5557031934697072,0.5556760950373982
27,0.5557020741189549,0.5556797702501403
28,0.5556973686618311,0.5556527675476002
29,0.5557053951180237,0.5556480960181843
30,0.5556954640452142,0.5556574253850803
31,0.5557041091257361,0.5556740969566195
32,0.5557001214145978,0.5556889524748728
33,0.5556929267304617,0.5557738038799546
34,0.5556971545115362,0.5556457965870367
35,0.5557026640028865,0.5556478167131096
36,0.5556933254261266,0.5556652679866659
37,0.5557055374187049,0.5557343897193656
38,0.5556935217968229,0.5556750384771542
39,0.5557002344550608,0.5556643475270071
40,0.5556933180626593,0.555686171189819
41,0.5556997739500493,0.5556516429962233
42,0.5556977130969852,0.5557139984280113
43,0.5556917138423774,0.5556945016322787
