epoch,loss,val_loss
0,0.2319799547857571,0.22306511270369503
1,0.22441809315109718,0.22263508529886095
2,0.2228259388648888,0.2230053737425929
3,0.22286081673701774,0.2225094102127828
4,0.22267735781523262,0.222467701764396
5,0.22269584789448288,0.22252995665179978
6,0.22262609655943127,0.22238592330081813
7,0.22260367683443882,0.22246512331450688
8,0.2225579454706769,0.22255397621972306
9,0.22254852779925502,0.22241115379573922
10,0.22252377482930882,0.22317699742412803
11,0.2225473601605053,0.22246533641152408
12,0.22250403428531731,0.22253970781242693
13,0.2225402250828874,0.22240137694439321
14,0.2224751369036741,0.22277090332754948
15,0.2225067701828629,0.22239677783126052
16,0.2224905869505165,0.22239284712169896
17,0.2224813585435717,0.22237616414179098
18,0.22248476172270185,0.22243644184719405
19,0.2224778296979197,0.22238290922091236
20,0.22247060342709235,0.22236862091582144
21,0.22245452862298468,0.2225156089041618
22,0.22247090614921014,0.22238015969518596
23,0.22245317189852015,0.22237204360393034
24,0.22246473423371846,0.222351991994922
25,0.22245571623124466,0.22236374118071767
26,0.22245858797391532,0.22267820061493132
27,0.22245174296593148,0.22373815193211483
28,0.22245679226266385,0.22247940341650502
29,0.22246523636144844,0.22235601431101074
30,0.22243420724695964,0.22240036485336007
31,0.22244894906757293,0.22234649374804194
32,0.22244499696690373,0.22243917048597442
33,0.22244524149929043,0.22233929585299264
34,0.2224334675254417,0.22236446132305143
35,0.2224363072909641,0.22235802847259628
36,0.2224409395673708,0.22244813134788766
37,0.22243223788842736,0.22249951693147293
38,0.22242949457712838,0.22234723136143703
39,0.22244455024098253,0.22234731714782666
40,0.22243316682058661,0.2223478356523894
41,0.22242475612766804,0.22262721749876574
42,0.2224332391525527,0.2223721666100935
43,0.22244993837000795,0.22234530863126573
44,0.22242445373763595,0.22242201716819981
45,0.22243259492893427,0.2224344889348947
46,0.2224108063454752,0.22241563236967085
47,0.2224379220643331,0.22233549478377013
48,0.22242189821604996,0.2223364239375478
49,0.2224235250027758,0.22238111493841928
50,0.2224352932809806,0.222364084288414
51,0.22241724099012977,0.222348780323773
52,0.22241757222931557,0.22234586119055463
53,0.2224439288024047,0.22235835028751058
54,0.22240488354718363,0.22238861013849293
55,0.22242104407189062,0.22243991901789542
56,0.22241947060887451,0.22240636558078936
57,0.22241758631160163,0.22239159747936885
58,0.2224082011392192,0.22235532889545806
59,0.22241484514475965,0.22234114203634614
60,0.2224048514450102,0.22241403426805223
61,0.22242297970213404,0.22235975872056152
62,0.22240774069297348,0.2223378046802799
63,0.2224019207659087,0.22238595149517817
64,0.22241182745132484,0.22240927355174359
65,0.22240894294416058,0.22232774341955475
66,0.22241198091414685,0.22234230805871713
67,0.22239729579479514,0.2225594205744251
68,0.22241518281169628,0.22236184633135966
69,0.22239919367366198,0.22234520857790754
70,0.2224093280673028,0.22233770187362634
71,0.2224078592013138,0.2223901358545915
72,0.22240007324830688,0.22232933533661173
73,0.2223958468464527,0.22234483354050374
74,0.2224049574174123,0.2228563144372364
75,0.22240300975566962,0.22233325463662132
76,0.22239951114006792,0.2223582599115065
77,0.22239573925552733,0.22234765992067873
78,0.22240172217138224,0.22232555751480979
79,0.22239684731585993,0.2223533902856231
80,0.22240046146108816,0.22233236634922496
81,0.2224004189461359,0.2223649121464785
82,0.2223989610322692,0.22232913653141018
83,0.22240686998120998,0.22240534806835552
84,0.22239260574041206,0.22234501483796493
85,0.2223957177279358,0.22233154962029517
86,0.2224020086559109,0.22237327422284695
87,0.2224059102337093,0.22232544440725824
88,0.22240068188837397,0.22236636487126105
89,0.22239530622025194,0.22232472726787406
90,0.222402753329331,0.22232663984859635
91,0.2223976907621871,0.22233348238159592
92,0.22239423757261167,0.2223314157665978
93,0.2224075811874347,0.22234724711686518
94,0.22240056669694633,0.2223684330113979
95,0.22239167181740352,0.22239726864195483
96,0.22240011650069044,0.2223681168852864
97,0.2223983618016247,0.2223706008712318
98,0.22240118549668544,0.22236580254824478
99,0.22239999268617724,0.22232427199563282
100,0.22240364963673548,0.22247242158710984
101,0.22239968665700682,0.22233167467456935
102,0.2223938400418102,0.22232884762707222
103,0.22239583912112246,0.222347293512318
104,0.2223930801169022,0.2224423060350727
105,0.22240351151414164,0.2223305924638351
106,0.22239990263919582,0.22235217257773326
107,0.2224024127742942,0.2223289638984879
108,0.22238546389063263,0.22232969701810737
109,0.2224019079959921,0.2223274595662774
110,0.22239875758306038,0.2223579808466204
111,0.22239823433219713,0.22339301092299618
112,0.22240476311199706,0.22232831816493812
113,0.22239077374830823,0.22232148200817783
114,0.2223951878552764,0.22237302875952322
115,0.2224011108029474,0.2223470314191848
116,0.22239486390245247,0.22235987906098573
117,0.2224042089495585,0.22238278593078234
118,0.22239375820428625,0.22233219310222438
119,0.22239847166637058,0.22237163631025716
120,0.22239905507009608,0.2223609209697228
121,0.2223994500234868,0.22233072170188772
122,0.22240155225227579,0.22247778546796898
123,0.22239487138414146,0.2223300145226413
124,0.22240143867611756,0.22234159056910716
125,0.22240250060444605,0.22232332175494907
126,0.22240552113608927,0.22238216667477623
127,0.22239238720270157,0.2223248629543409
128,0.22239868164784649,0.2223301850731399
129,0.222402492332476,0.22232588237763512
130,0.2224029986680706,0.22232429865893816
131,0.22240117087397138,0.2223592097108584
132,0.22239498311302383,0.22233794542254012
133,0.222396887763362,0.2223319282273991
