epoch,loss,val_loss
0,0.432490160210813,0.43296682841681833
1,0.4245835365139419,0.4226495250765508
2,0.42162109801261355,0.4188565272535032
3,0.418617880464696,0.41744414287095194
4,0.41822440751331696,0.419213107383524
5,0.41802765155653304,0.4263170196277096
6,0.4123669024720657,0.4089466032778643
7,0.40395745370004005,0.3955173662613016
8,0.3916078238285703,0.38592413836985756
9,0.38620564471974933,0.38533155451916107
10,0.3855775032433674,0.3814567793234183
11,0.38526644228364254,0.38468251397925846
12,0.38594574758188904,0.38588982318317033
13,0.3860759138882303,0.3858956249214668
14,0.38565420822130975,0.3886782167083933
15,0.3854695755026514,0.3840317001894128
16,0.38548359895448125,0.3834437225263892
17,0.38658419253228665,0.38708466059736313
18,0.38768332487316154,0.3823816617855239
19,0.3881552944080435,0.38729426485869295
20,0.3875834964257445,0.3883465937299811
21,0.3851432130157614,0.38607917761322824
22,0.3836517579478326,0.38010857764105205
23,0.38190027013671196,0.3796725853536669
24,0.3729317668173239,0.35702021828107977
25,0.3591195472138677,0.35667206695113673
26,0.3573279717652727,0.35301197429011916
27,0.3557903555740746,0.35275440053292495
28,0.3533628420482913,0.35580712580360946
29,0.35303931586819587,0.3479254080633903
30,0.3498784910461647,0.35011819373131176
31,0.348039457450906,0.34564286991424603
32,0.3487944303394603,0.34493140661067256
33,0.3512912253550679,0.34725601918225035
34,0.3492540504268224,0.3443098363320284
35,0.34404364797613507,0.3429565135780619
36,0.3441809322014987,0.3415818704966964
37,0.34665168026725734,0.3436964602454403
38,0.3487287678366466,0.3439264230330158
39,0.34960617660451754,0.35498230833186817
40,0.35158501037781376,0.35037895476103015
41,0.3501984728195017,0.3410178624746267
42,0.3503184101695446,0.34968687775056007
43,0.3508386939263744,0.35425562198084926
44,0.3523513527570678,0.3473276898864695
45,0.3524855350454648,0.3488225434813428
46,0.34999212241477723,0.3426198097976438
47,0.3478386778649476,0.3518702339589737
48,0.34542815259797016,0.3383952040040032
49,0.33359311223863886,0.30957531554428913
50,0.30755791241387953,0.29732941470940283
51,0.29907659059770103,0.29706447649726553
52,0.29633134982580667,0.2938056764587607
53,0.29216941181037254,0.2832558843018318
54,0.29008342383457697,0.2811607871830887
55,0.28998469324897136,0.28490180708026924
56,0.2901947610616255,0.2818133954455651
57,0.28892612111844795,0.27837503284521714
58,0.29000559065648784,0.28468310745946046
59,0.2889155055717122,0.2806720379225457
60,0.2887553894143406,0.2796208032398781
61,0.2896771227820314,0.28173138282975535
62,0.29195657401359815,0.28719818550908105
63,0.2909979597627402,0.2822194270666133
64,0.2947670087385044,0.29534990912054876
65,0.2970967596913461,0.2903557281114967
66,0.29604683539492904,0.2903752572416977
67,0.29517985073079783,0.28174273665015304
68,0.29302602695475377,0.29100037582553834
69,0.2920420187816536,0.2914686577707741
70,0.2928743229525314,0.28359084236476023
71,0.29206123161051484,0.2895107961420761
72,0.2890304385585417,0.27604973999505544
73,0.28716571478963754,0.2785719373302377
74,0.2863589865442136,0.2838465027222976
75,0.2860907946052931,0.2770607271588216
76,0.2873602508903026,0.2703912427447495
77,0.28641289859402663,0.2979108937784453
78,0.28677744743266076,0.2954213789472358
79,0.28738950768844496,0.27768809056672505
80,0.2858730145096541,0.2789594121306735
81,0.28604591802822693,0.27376949052666716
82,0.28914157404221125,0.299745248920257
83,0.29477804758363396,0.28229170658970404
84,0.2897638158052326,0.2753280103441854
85,0.28664528564226144,0.28133197892060313
86,0.2853177964038176,0.28331143468406694
87,0.2860658768412592,0.2825814567935589
88,0.2821815324147685,0.27098247030163336
89,0.2829882386628148,0.27348930449258085
90,0.28157554218749536,0.2760115441731703
91,0.2821577822031687,0.26953177190523214
92,0.28311784004124046,0.2791763017190754
93,0.28041121625988413,0.26970407116831807
94,0.28161681679894124,0.27042423948445654
95,0.2793018987281717,0.26631373472823433
96,0.27661270896891516,0.2783455353027361
97,0.2839239930047644,0.27735837764785154
98,0.2839232020461254,0.27368485456554553
99,0.2839693107264791,0.269579439708447
100,0.28290086549868304,0.2806091717875841
101,0.2844282240866662,0.28439014035129323
102,0.283075512881926,0.27641310049448786
103,0.307572485037821,0.30054992522629775
104,0.3083435541851153,0.3026632115997568
105,0.3066331129029786,0.2985530898280753
106,0.30398713975704067,0.29493336935822384
107,0.3024641026219399,0.2976446221476008
108,0.2990019628993994,0.29920328323212586
109,0.29696671309755096,0.28012815413624637
110,0.29322843833995477,0.2906490660257102
111,0.2882668637096596,0.2774398510286257
112,0.28603226087278694,0.270378540839703
113,0.2877884457210938,0.280533628851387
114,0.2862626990641383,0.27092413301414264
115,0.2841415103766129,0.2894601355282547
116,0.2846171361901205,0.27687315394677037
117,0.2838943489521242,0.270431780712804
118,0.2841313262012222,0.28098416570118306
119,0.28444824267705854,0.2875037993927028
120,0.2840730082913697,0.27973118200368924
121,0.28271247360477153,0.27647133205077173
122,0.2849180760780732,0.2777511994600672
123,0.2857510550684637,0.2872945965159664
124,0.283813504804429,0.2753367077297551
125,0.284552088580567,0.27419561381733315
126,0.2865993295320504,0.28214229052355655
127,0.2861302658397374,0.2783048642062727
128,0.2890616077914846,0.2803951051694818
129,0.28743177618113736,0.27921516007810665
130,0.2879192836844712,0.27366623340649404
131,0.2870905963744191,0.2790712471154607
132,0.28654445016043456,0.27959049737702796
133,0.2854683653598161,0.28741542255798475
134,0.284312721904662,0.2738101888380374
135,0.28569375720622536,0.2706766126952307
136,0.2911691041045385,0.28641560801320315
137,0.29065121042666486,0.28490503853291343
138,0.28806698287753085,0.2831279884056492
139,0.2871289056518095,0.2856952116457891
140,0.2866506355283834,0.2741071874688908
141,0.2860727809923444,0.27205043387229555
142,0.2877830929613466,0.2922238016584866
143,0.2865146806509756,0.2804159272723811
144,0.2866328823492586,0.284106745222185
145,0.28651431086454554,0.2762532567615667
146,0.29075638399862175,0.28366152627574426
147,0.28881636653229487,0.27892318226238266
148,0.28785480714613776,0.28208136927239424
149,0.28687368693361753,0.2779432223270329
150,0.2865684464436879,0.2819382890988356
151,0.2992453871043228,0.28018532367018895
152,0.29197013496959523,0.2919524435862464
153,0.29282755631622936,0.28585259642837174
154,0.29087701483036305,0.2921869732680618
155,0.2915849207902698,0.2856759532651002
156,0.2904606928868736,0.28313945207359664
157,0.29186029100327565,0.2804962912223051
158,0.2907319327832745,0.2786699627491557
159,0.2904086496820934,0.28920159295448283
160,0.2898056202297874,0.2903117675101936
161,0.29059645318263155,0.27615772390586707
162,0.28993185691172174,0.2871221455303627
163,0.2905992560005255,0.2869683760905605
164,0.29022699826769977,0.2841440287978045
165,0.29025588729839435,0.2885183382370666
166,0.29051037150309333,0.28492805821013995
167,0.28970342057702736,0.2873866436348812
168,0.28924903499303484,0.2774042101443143
169,0.29118186264610785,0.28386045980025393
170,0.28916367012962735,0.29715579836949085
171,0.2898998770216624,0.2888926660323011
172,0.29022699985191597,0.2876901872450193
173,0.291802173469969,0.2907107818780589
174,0.29083485271540477,0.2854970180809545
175,0.29046274440811215,0.2772319112987432
176,0.29034940376103546,0.28271328627875025
177,0.29007760160189455,0.2878651309290926
178,0.29039595454490535,0.285769816673263
179,0.2904736955972503,0.2755540821998253
180,0.2913412985136564,0.27944834062266555
181,0.2902889392769737,0.2948203654731929
182,0.2898673049980502,0.29356425324338764
183,0.2903862134021201,0.28616604538841706
184,0.2891241017904737,0.2835468957531424
185,0.288280409556046,0.2877094803500006
186,0.29074984223400946,0.295767070015491
187,0.28815194509988973,0.27679457393751994
188,0.2875639028835306,0.2972241515012924
189,0.2857881694567575,0.28423924743541135
190,0.2856158181625924,0.2798097927443795
191,0.2859640351081971,0.2803364995905237
192,0.28681567114451045,0.27984919439010386
193,0.2876682910832951,0.2760675983722509
194,0.2857592470175642,0.26919051239174374
195,0.2842614837705517,0.28428742570042514
196,0.28575027142938,0.28524725524313166
197,0.2867506284960549,0.27805397898288065
198,0.28617512402858,0.2766956224237828
199,0.29680884210504505,0.2899714468227848
200,0.3007685868240756,0.2914061281233203
