epoch,loss,val_loss
0,0.7787253679037094,0.7778893284400304
1,0.7779201507700814,0.7778240207831065
2,0.7778786410490672,0.7778289469480515
3,0.7778598649899164,0.777824103752772
4,0.7778509480158488,0.777856877843539
5,0.7778404365115695,0.7778172147274017
6,0.7778359843227598,0.7778200528621674
7,0.777834892961714,0.7778391801913579
8,0.7778294342888726,0.7779111372232437
9,0.7778276403612561,0.7778639046748479
10,0.7778250636259715,0.7778313912947973
11,0.777822515103552,0.7778093469937643
12,0.7778219212293624,0.7778127419948578
13,0.7778201447460387,0.7778107610940933
14,0.7778192772203022,0.7778188270727794
15,0.7778187714285321,0.7778038872083028
16,0.7778191351095836,0.7778086346785228
17,0.7778179595470428,0.7778070153792699
18,0.7778171477052901,0.7778233147064845
19,0.7778175105651219,0.7778453522523244
20,0.7778172708882226,0.7778040945529938
21,0.7778159091340171,0.7778253117005031
22,0.7778160993523068,0.7778069814840952
23,0.7778152586619059,0.7778326892455419
24,0.7778156646225187,0.7778053109645844
25,0.7778147302468618,0.7778104739983877
26,0.7778151358498467,0.7778239672581355
27,0.7778147214121288,0.7778265320857366
28,0.7778148937887616,0.7778040651082992
29,0.777814191142718,0.7778088267644246
30,0.7778139496776793,0.7778068392674128
31,0.7778128264612622,0.7778202945391337
32,0.7778126996358236,0.7778102241754532
33,0.7778126312096914,0.7778093123833338
34,0.7778120737605625,0.777807564775149
35,0.777811758240064,0.7778273596763611
