epoch,loss,val_loss
0,0.5581246618032455,0.5561198743184408
1,0.5559435366921954,0.5559428244431813
2,0.5557950804233551,0.5556896991729736
3,0.5557337370183733,0.5556850469907125
4,0.5557157756355073,0.5556523884534836
5,0.5556943567461438,0.5556222249269486
6,0.5556826498375999,0.5556574705044428
7,0.5556732595099343,0.5556622353792191
8,0.5556637115213606,0.5557531327009201
9,0.5556534895499547,0.5556123194694519
10,0.5556496416992611,0.5557186159690222
11,0.5556455442375607,0.5556995719671249
12,0.5556453804572423,0.5557627600431442
13,0.5556421446402867,0.5556197984218597
14,0.5556395233737098,0.5556586221456528
15,0.5556381956471337,0.5557131303946177
16,0.5556355932818519,0.5556910345156988
17,0.5556350471973419,0.5556083601713181
18,0.5556333809958564,0.5556734030246735
19,0.5556323344972398,0.5556267041365306
20,0.555633751100964,0.5556235965490341
21,0.5556315431859759,0.5556837287743887
22,0.5556298358572854,0.5556118611097336
23,0.555628012696902,0.5556263471444448
24,0.5556276051203409,0.5556134011348088
25,0.5556273951398002,0.555644327322642
26,0.5556268259286881,0.5556317187547684
27,0.5556266269816292,0.5556467172702153
28,0.5556258406374189,0.555605259736379
29,0.5556260134114159,0.5556073832511902
30,0.5556257416672177,0.5555992111762365
31,0.5556247605615192,0.5556293685833613
32,0.5556248366302914,0.5556055186986923
33,0.5556242255369822,0.5556081909338634
34,0.5556240549484889,0.5556619855562845
35,0.5556238968107435,0.5556083240111669
36,0.5556237377855513,0.5556062991619111
37,0.5556233401298523,0.5556603272755941
38,0.5556219246784846,0.5556209578911463
39,0.5556233450041876,0.5556045252482097
40,0.5556220827235115,0.5556046973466873
41,0.5556234724521637,0.5556031407515208
42,0.5556210939619276,0.5555997581879298
43,0.5556215062803692,0.5556260147094727
44,0.5556204120980369,0.5556176402568818
45,0.5556195243597031,0.5556121158202489
46,0.5556205940114127,0.5556045637130738
47,0.5556196298996607,0.5556801017920177
48,0.5556199969318178,0.5557414249181748
49,0.5556205155452093,0.5556125604708989
50,0.5556205858786901,0.555598865946134
51,0.5556185428036584,0.5556163583596547
52,0.5556198544237348,0.5556127770741781
53,0.5556201899316576,0.5556428767840067
54,0.5556187822024028,0.5556231704552969
55,0.5556188394228617,0.5556333254973094
56,0.5556190323432286,0.555692369222641
57,0.5556192387872272,0.5556245230038961
58,0.5556188008520339,0.5556110626856486
59,0.5556171839237213,0.5556074082056681
60,0.5556170646879408,0.5556055122216542
61,0.5556174095206791,0.5556085793972015
62,0.5556170783837636,0.5556132386128108
63,0.5556183648374345,0.5556040269931157
64,0.5556177700095707,0.5556046723922093
65,0.5556171714597278,0.5556132198174795
66,0.5556165457699034,0.5556039220094681
67,0.5556166303952536,0.5556071123282115
68,0.5556177235576841,0.5556140606800715
69,0.5556184120178222,0.5556030059258144
70,0.555616916206148,0.5556160989999771
