epoch,loss,val_loss
0,0.5574036338329316,0.5594909769296647
1,0.5558097811937333,0.5557633618513743
2,0.5557399454514186,0.5556484783490498
3,0.5557059090402391,0.5557021649678549
4,0.5556867376036114,0.555795088092486
5,0.5556733153793547,0.555728334347407
6,0.5556655821005503,0.5557980473041535
7,0.5556575700971815,0.5556326037247976
8,0.5556572591198815,0.5557647884289424
9,0.5556536725097232,0.5556290872494379
10,0.5556516355805927,0.5556207412083943
11,0.5556482710573408,0.5557018995285035
12,0.555645993842019,0.5556295889616013
13,0.5556450865268707,0.5557044729789098
14,0.5556424307955636,0.5556206151644388
15,0.5556418062845866,0.5556149120330811
16,0.5556402483781179,0.5556242398023605
17,0.5556382394366794,0.5556423616011937
18,0.5556367095046573,0.5557006126642228
19,0.5556366022692786,0.5556294695536296
20,0.5556356255345875,0.5556503678560257
21,0.555634515007337,0.5556613478263219
22,0.555633139676518,0.5556219706535339
23,0.5556331799295213,0.555617261449496
24,0.5556326366927888,0.5556215666135152
25,0.5556309017605252,0.5556083214680354
26,0.5556303822729323,0.5556215393145879
27,0.5556301544242435,0.555651559750239
28,0.5556289005014632,0.5556226105690002
29,0.5556298741499583,0.5556159451802571
30,0.5556297032568189,0.5556179790496826
31,0.5556289737621943,0.555632879336675
32,0.5556282564004262,0.5556501557826996
33,0.5556287695831723,0.5556369978189468
34,0.5556287730534871,0.5556686822970708
35,0.5556279442575243,0.5556871979236603
36,0.5556280932823817,0.5556923966010412
37,0.5556280773878097,0.5556273074150085
38,0.5556290065050125,0.5556413213014603
39,0.5556277081171671,0.5556431471506754
40,0.5556273601452509,0.5556188942193985
41,0.5556275611983406,0.555610099752744
42,0.5556269526481629,0.5556271022558212
43,0.5556280451350742,0.5556112596988678
44,0.5556266745196449,0.5556168516874314
45,0.5556263809204102,0.5556135973930358
