epoch,loss,val_loss
0,0.4474773609638214,0.44490521351496376
1,0.44481374794244766,0.44472507121165594
2,0.44470255818631915,0.4446067611575127
3,0.4446444974806574,0.44487182386716206
4,0.4446249903639158,0.44457312814394634
5,0.4446059597929319,0.44465137843290964
6,0.4445902405778567,0.44454265173276264
7,0.44457788413763044,0.44455721153815586
8,0.4445721766352653,0.444668236553669
9,0.44456637093755935,0.4445726934075356
10,0.4445643999311659,0.4445502277215322
11,0.44456066495842406,0.4445339972178141
12,0.4445580852826436,0.4445226366122564
13,0.44455348440673614,0.4445330968697866
14,0.444553723540571,0.44451556871334713
15,0.4445507524940703,0.44455696348349255
16,0.4445482983986537,0.4445180688301722
17,0.4445467061466641,0.4446019915342331
18,0.4445485514667299,0.44455840440591177
19,0.4445445526374711,0.444746198395888
20,0.4445434858931436,0.44453371900320054
21,0.4445437036090427,0.4445229704976082
22,0.4445427557296223,0.4445150927702586
23,0.4445422682431009,0.444541362841924
24,0.44454109903176625,0.44452445197105406
25,0.4445419763856464,0.4445111133654912
26,0.44454104317559134,0.4445096187790235
27,0.44454131699932947,0.44451951519648236
28,0.44453963053888745,0.4445377497871717
29,0.4445401744114028,0.44452856586376827
30,0.44453946957323287,0.44454894616206486
31,0.4445437388751242,0.4445196847120921
32,0.44453841451803844,0.44451721596717836
33,0.44454098459747104,0.4445701919992765
34,0.44453777225150004,0.4445261384447416
35,0.44453593250115714,0.444575495839119
36,0.4445366429554092,0.44451169393459955
37,0.44453732566701043,0.4445234259168307
38,0.44453589353958767,0.44450976510842644
39,0.44453574672672486,0.4445451836983363
40,0.44453714493910473,0.44456441817681
41,0.4445362839102745,0.44452376079559325
42,0.4445347306595908,0.4445646586616834
43,0.44453555414411755,0.44453706403573356
44,0.4445357712242338,0.4445114987492561
45,0.44453376338216993,0.44456007798512776
46,0.4445326084891955,0.4445685269633929
