epoch,loss,val_loss
0,0.5368732244705411,0.4543880548830943
1,0.4272584770914081,0.3912437825148371
2,0.3987733156894513,0.3842568337305757
3,0.3290589527784587,0.21770313732625934
4,0.22770732607272604,0.2032955436134489
5,0.22262689720193068,0.22827309628782447
6,0.22106115269265492,0.19905248885325963
7,0.21887300489879816,0.18410708547673454
8,0.21792756141327935,0.2142545035036888
9,0.21892589476587865,0.19954273645672727
10,0.21983895040482734,0.20598508521102973
11,0.2202694819127913,0.19958460968408231
12,0.22337768192318894,0.22227555930896736
13,0.26367593360104435,0.27128422530786955
14,0.29286180333577566,0.27484985689714186
15,0.28782949239301453,0.26396819454012843
16,0.28325789601063367,0.2573973745131173
17,0.2785431008151681,0.2575944731601506
18,0.2827532757386315,0.2631259849199462
19,0.28399961323236866,0.2663020018455826
20,0.28353688479970685,0.289607805030122
21,0.27729138383548035,0.23305158012479707
22,0.27188762788363785,0.2570860746368801
23,0.2683558184608853,0.2584030304659796
24,0.2669413746070328,0.25765008890403
25,0.3037366242312508,0.275272030797923
26,0.2932773167900235,0.2620985602640974
27,0.2864156600882967,0.26755679206483085
28,0.2574036840400059,0.19544972034778385
29,0.2205841400080638,0.20184082245629137
30,0.21981569020439395,0.19838409782067565
31,0.21923168294792839,0.18625228805577745
32,0.21960094179824102,0.20639319967216832
33,0.22289882658673324,0.2103190487566762
34,0.22512686896405154,0.1992603899130411
35,0.22235186782171973,0.19742150177801324
36,0.22397633206596573,0.19278820274190445
37,0.22442327095545547,0.21321466754483914
38,0.22462127101626234,0.2049544221223953
39,0.22976120974091316,0.20091030928405515
40,0.22733565700425803,0.2081320522663249
41,0.22284626353273002,0.19938939013580873
42,0.2119799538208045,0.1888553496764792
43,0.21621175778569648,0.1919832346047956
44,0.21608159428448986,0.18979252169192448
45,0.21389768867612743,0.18053498937091964
46,0.21341927958835516,0.1935849498484016
47,0.2103531271112051,0.1585836033994698
48,0.21242981428484456,0.17978512417545633
49,0.20570909691085631,0.2048968982536584
50,0.2113610240135738,0.17982346913244374
51,0.2132513279871022,0.1872712688692555
52,0.21110770815043903,0.19044734968053326
53,0.21264554776971956,0.17666897382337274
54,0.21138630671014222,0.21115366677035471
55,0.21352930215718172,0.18050748994243174
56,0.21509695833297277,0.19394072446892746
57,0.2150445861889304,0.19214673739017796
58,0.21185951390497976,0.1879237072737836
59,0.20827782219000382,0.19948928961390666
60,0.21335995117489764,0.1884320308325699
61,0.2106991998321242,0.1862948217915096
62,0.2127709545367818,0.18658796525556645
63,0.2094946148739063,0.19085134903370346
64,0.2056243323760448,0.19455942054056424
65,0.20810990523305728,0.185209232822778
66,0.20424065865772806,0.17626973905474913
67,0.20722872606641668,0.19196792885414143
68,0.2102889895891781,0.1774143067018762
69,0.21066097181430346,0.19060306672092112
70,0.2105114398826417,0.17426084898171126
71,0.2099869593287067,0.19703255789008964
72,0.20429844758231386,0.18074087971481828
73,0.2051550036878418,0.1717928153210582
74,0.20340516157954527,0.18497572347651153
75,0.21134534192909535,0.18969656200087154
76,0.20876878816232408,0.16721729854240885
77,0.20705893143809004,0.18223837562546358
78,0.2073575539542712,0.17709072744554671
79,0.2120403108431948,0.18887519378923673
80,0.20662197892328532,0.18425495462711156
81,0.20768091765096147,0.19338631248888108
82,0.20953695440916514,0.19571412103610802
83,0.21129586523194774,0.1923239604285503
84,0.2056596878049471,0.20212918548200107
85,0.2101888575440021,0.1727154429446268
86,0.20535369626552366,0.19356670302957085
87,0.20762766842885935,0.1799555496616258
88,0.20404866319313514,0.19633944880661292
89,0.21426856705991865,0.17590875282660184
90,0.20400663283017043,0.19288569881677062
91,0.2065691788502925,0.2020296806906186
92,0.20497504615788456,0.20511553839331267
93,0.20535354580072096,0.1920162403828155
94,0.2078732658359263,0.18294844769923443
95,0.20847133876417848,0.1750533287696417
96,0.2083185531979175,0.18935196028747422
97,0.20432523621334064,0.1722955385365633
98,0.20787697680872216,0.1581069724288811
99,0.20847533816556565,0.1661054771437641
100,0.20611184232717128,0.17508205015215236
101,0.20551440008371757,0.17437201900659063
102,0.20787153490703644,0.17089557453648915
103,0.20975372861686656,0.18079406460533956
104,0.20872576796798875,0.1676701764093202
105,0.20708120252779252,0.16043530688007326
106,0.20414635531908032,0.19173107540268736
107,0.20463180966038022,0.16167600701056603
108,0.20444563859634451,0.17993564759076064
109,0.20365719422757578,0.19459712848761182
110,0.20366950807192152,0.18094480572813781
111,0.20390266497477258,0.19216779378943305
112,0.20173242549411208,0.17956499179094537
113,0.20606241754585986,0.1848551463497466
114,0.20288147098964734,0.1991771932370849
115,0.2079620436429501,0.16361921053047526
116,0.20977897746123667,0.2000741814898993
117,0.20873569410672482,0.17857208846823475
118,0.20180280860379446,0.1929886953018741
119,0.20773489031788828,0.19843273458748045
120,0.20592279545813919,0.20230863630865725
121,0.20700616600940364,0.19125525304061178
122,0.2071901843261471,0.19901724434924484
123,0.20702299351791303,0.19725629757875143
124,0.20944084000768518,0.19670234250100277
125,0.21035941990969373,0.1824373521716367
126,0.2054298929483008,0.17327596273070353
127,0.20809968724120245,0.17357043857262092
128,0.20994549506097485,0.19291962933709703
129,0.20381330367591646,0.17962126921929988
130,0.20897920397545794,0.17180920155291116
131,0.20805167600953225,0.19611312436041348
132,0.20920802747531475,0.18074549638152404
133,0.2076974679037726,0.1952345284097479
134,0.20585935015520224,0.18011682591714911
135,0.2060796892304691,0.18829330496178337
136,0.20924948744303126,0.17425967054331312
137,0.20702484886732986,0.17880830507440273
138,0.2100186836150148,0.18919645338050944
139,0.21381531256756528,0.20453979247841386
140,0.21153984061605352,0.17173738954052176
141,0.21248571510366399,0.1730385933721169
142,0.20718226126796432,0.18659745002696151
143,0.2068176691373475,0.16017513014758394
144,0.20930755457027161,0.1633828018557489
145,0.20312246657032476,0.17327472033609814
146,0.20896310373533258,0.18055498732905173
147,0.2064127948144071,0.18627049790984923
148,0.2094759165311603,0.1810804903977672
149,0.20896148514881027,0.1910079038909974
150,0.20990756573937208,0.1923315605147203
151,0.2064431483666007,0.1817230188832475
152,0.2061084440881781,0.16592119924647655
153,0.20771809395173377,0.1867617095608173
154,0.20854543055371225,0.18947529712810984
155,0.2066915307780631,0.16786415696191148
156,0.20581156095202496,0.17429278503982873
157,0.20452141488413159,0.19226700318029008
158,0.2071226209842806,0.15999086797472617
159,0.20492672433646367,0.17575036658484255
160,0.203721806323595,0.2066244463118024
161,0.20555537880110225,0.17811380833646118
162,0.21128983775393473,0.1854211812120022
163,0.2060338685409628,0.1842794505013381
164,0.2038365038190719,0.19130002409102131
165,0.20566198065412417,0.1801728430162195
166,0.20692910378475746,0.19484733947168303
167,0.20723608481607658,0.17839437228022548
168,0.2090137215386287,0.18487590728967135
169,0.20503473258633123,0.17226427674716913
170,0.20850609518069443,0.2021138367567273
171,0.21200270622635153,0.19615425678718343
172,0.20515002001770777,0.21946357995059984
173,0.20521168167189918,0.17753006062737203
174,0.20694277193144167,0.1894379326251895
175,0.20254599219031758,0.20669980649413702
176,0.201263572993896,0.1617881464106696
177,0.20363589510809985,0.17467729512075786
178,0.20733317090190953,0.17219450013695878
179,0.19853886364580248,0.18886735392021398
180,0.2040266568223826,0.18763680726689622
181,0.20497746273672743,0.19949875867263295
182,0.2072754904306192,0.17264534647105337
183,0.2052420387081772,0.17743559186394608
184,0.21004932120049313,0.17987757638955362
185,0.20477061828882764,0.20459073111591325
186,0.20380177353616719,0.17239871176566868
187,0.20613060330601332,0.1883585321545695
188,0.20385337998564962,0.18614954440821413
189,0.2092607189103854,0.1765826267808464
190,0.20963473039732086,0.19596534027720214
191,0.2050263560671124,0.18895309626021156
192,0.20515199421311645,0.18178817585122425
193,0.20807467031774285,0.17718618386075924
194,0.20480557875953417,0.17681011536409277
195,0.207225379439519,0.15897925283933306
196,0.20696934521031513,0.18390880487477018
197,0.20824525761995002,0.18690214636011582
198,0.20787667482495784,0.18037390481936433
199,0.2078645478942983,0.1698574406618948
200,0.2070221216153565,0.18854955190406036
201,0.20382538185321647,0.19042751799913119
202,0.20660721498141757,0.19078246943340965
203,0.1991515912824302,0.17021126631168088
204,0.20217919599809805,0.19595327130103543
205,0.20349454701685316,0.18864719453249376
206,0.20719773813689069,0.17788054722919178
207,0.20263897642481338,0.2013978725850535
208,0.20402258404677243,0.1870019652049374
209,0.2074040244463727,0.17055952293767454
210,0.2050964110891977,0.1890119191409098
211,0.20488446560218562,0.2014474829492742
212,0.20383509059699415,0.19697439009595688
213,0.20061894123860113,0.17417634241488758
214,0.20414770898415888,0.18478373405777193
215,0.20496912763940153,0.18245851354939596
216,0.199351981603842,0.16499597755067444
217,0.2056771853892542,0.19327190920604714
218,0.20976660333329636,0.1672063586320478
219,0.20478080772905707,0.18313987938879792
220,0.20111537658029513,0.16294810718076852
221,0.20865352067658655,0.19875873312436415
222,0.20649756456045604,0.1710117633124459
223,0.20641078775544627,0.16181303691280668
224,0.20502110978039048,0.16058830838082996
225,0.20523241499392725,0.16742084658136497
226,0.20899629702480385,0.1784841114244973
227,0.20416805036157537,0.1838747475475614
228,0.2089896073146499,0.19614514943738576
229,0.20549209677367855,0.18949195951952555
230,0.2016442176833046,0.22077087547568328
231,0.20344943273291408,0.19058803560090234
232,0.2061273959412468,0.20027967955808332
233,0.20779800401340953,0.20103960192005937
234,0.20555458338759977,0.16985107363211233
235,0.2037641625526807,0.16731279233401464
236,0.20911921205209028,0.187182283662583
237,0.20511842698907012,0.18061583048730925
238,0.20405850885249824,0.17466972066176248
239,0.20761161376770548,0.18874128713274718
240,0.20916751931778058,0.19442009909376914
241,0.20553650489623407,0.17823544909094108
242,0.20871119283371978,0.19682616691657098
243,0.20865056746535832,0.18155963059100186
244,0.20255890650024042,0.18617078524315178
245,0.20915596932172775,0.1859978545977548
246,0.2056649124129213,0.18035502438951687
247,0.20431045598858932,0.18587277812005595
248,0.20427312289806102,0.1902574067545765
249,0.20402957346561335,0.1970014544740472
250,0.2036699792749876,0.19521928836768693
251,0.2103850531587593,0.1926333282580974
252,0.20713895889852257,0.20214469076943567
253,0.20753891916154957,0.15871874597614546
254,0.20630749243555024,0.20305536446274033
255,0.2100892154444798,0.17958350952394195
256,0.20671293896427162,0.15993680293953316
257,0.2012898685167924,0.1802099347702612
258,0.2052062373045537,0.19456705278125258
259,0.20887894030335805,0.19905135464790588
260,0.20777671382748347,0.17837910448225258
261,0.2042720036016856,0.16807987214593126
262,0.20500990022405638,0.1788398511854795
263,0.20531969404906678,0.1803215779158292
264,0.2060965681604916,0.17586713034333257
265,0.20814980171638714,0.1751327797264778
266,0.2099762754998714,0.1736179565762382
267,0.20939998916513342,0.18608603201330226
268,0.20890543013096427,0.17780168145165823
269,0.2035984491511024,0.18241786054719972
270,0.2040726649318096,0.1665698564137261
271,0.21000457940984973,0.18508837584350274
272,0.20729303526149379,0.1859633006396591
273,0.20656932601563746,0.1961742496292894
274,0.2064550594746066,0.17669804191956298
275,0.210819707702485,0.1836387213751756
276,0.20866115317999315,0.17101650799741497
277,0.2032907288447082,0.18914401715866863
278,0.207249434773537,0.16148957641884956
279,0.20510406463409214,0.21364784662941824
280,0.2114097637285908,0.1851774981008709
281,0.21054151054504489,0.16568357049948415
282,0.20261183316759068,0.17061600675946065
283,0.2041459666024581,0.18475205395385422
284,0.2048317447042675,0.1935413049941187
285,0.20280248478209847,0.1554945780121631
286,0.19959943565866833,0.1761681015861251
287,0.20482495953019955,0.19156517510632406
288,0.20246093004918117,0.1688752553316205
289,0.20384247247859252,0.19428792800504388
290,0.2099127401527074,0.18827247589050358
291,0.20362449776259162,0.18527310871428737
292,0.20528845019120393,0.16689887963935157
293,0.20836181942221643,0.18098757127277854
294,0.20894457836993496,0.1781384695230174
295,0.20620350512883645,0.19709104007872993
296,0.2070534044651867,0.18032074749657934
297,0.2088299593527159,0.17128945951774163
298,0.2078854831919777,0.17768918662298921
299,0.20041911452889538,0.19461972230564636
300,0.2035917060778772,0.20394330488807494
301,0.2104160918844499,0.18604341244594075
302,0.2083306910215522,0.1837679966402129
303,0.20335682576222958,0.2209390126398067
304,0.2093957332100609,0.18236048656038722
305,0.2098387514503835,0.17529500564582345
306,0.20610749481512394,0.1681609823888178
307,0.2048266049531057,0.18654502888269658
308,0.2086683345629538,0.18888724344211388
309,0.2080548682051311,0.1752254123187197
310,0.2083326067736776,0.1479419468128032
311,0.2041974384471667,0.19441431156273611
312,0.2069371455459953,0.19853946588927587
313,0.20477268538719934,0.19395472618568196
314,0.20260370962268157,0.21097910100772047
315,0.20822918985030062,0.1758969020989342
316,0.2046728802623032,0.18588843724110415
317,0.20439750842934698,0.18517416755609278
318,0.2037184894215956,0.16121182655996474
319,0.20396925123046628,0.20772018700532305
320,0.20139420703708602,0.15906954598455045
321,0.1994811923955556,0.19255000219960428
322,0.21064358430324223,0.19391428636300254
323,0.2053283656732165,0.16526232813885575
324,0.20449475494386862,0.1782732103152264
325,0.20819711573809074,0.183988894052927
326,0.20532521314853483,0.16155184968870837
327,0.2123351372736726,0.2035294376848811
328,0.2040732208070614,0.16803778520981533
329,0.20454350175807992,0.1927557590093402
330,0.2047889234719993,0.17501779058220449
331,0.20493854253555088,0.17510321793964553
332,0.20845480918360176,0.17613212225610286
333,0.20356387326376235,0.17662562571036694
334,0.2045941296145975,0.17239307782126864
335,0.20492607642182534,0.17197596912743449
336,0.20478576180531824,0.2006114918647456
337,0.20528819600193143,0.17837148579021278
338,0.20381563502869351,0.1720649247670042
339,0.20656697562844348,0.1682402429706766
340,0.20888789675885636,0.19390457032370398
341,0.21069751893111366,0.15864947660522566
342,0.20435726528259204,0.17300885748750314
343,0.2046254345838972,0.15477248996896073
344,0.20349432006895207,0.16613455395484028
345,0.20479702780382048,0.19071706933070096
346,0.20290454521739512,0.19620153750127567
347,0.20979996186961755,0.1850087017103171
348,0.2079275642379487,0.18876384838462912
349,0.20672785500875956,0.16967092243911905
350,0.20277399115329928,0.1678041687915903
351,0.20929842195708118,0.1872173442719203
352,0.20394556493543797,0.1745950778521415
353,0.20449099944030447,0.20213915043067254
354,0.21013923891656977,0.19475153815398183
355,0.20803648478192963,0.15978428837861616
356,0.20632303446578942,0.17874476640546239
357,0.20255623700068914,0.1708657201482446
358,0.206364467817483,0.19921143218910214
359,0.20737941348128658,0.1699161823800726
360,0.20525892731621206,0.17853695114202733
361,0.2047196276884952,0.199418489398595
362,0.20422515296916977,0.19260895303976094
363,0.20885393707800826,0.18525551717019778
364,0.20576321674312809,0.18129165381216683
365,0.20303234496086145,0.2010092228980354
366,0.20833434436699563,0.1830709676810297
367,0.20346479719991592,0.16013444587294287
368,0.20486750554957456,0.16841786692908362
369,0.2047662921696544,0.1716288652185765
370,0.20737832676258972,0.19589704237496092
371,0.19975361984363085,0.18291844576950042
372,0.20419629160567915,0.1850935807238438
373,0.21052955409629548,0.19098152617770286
374,0.20504756746508426,0.1763183687884881
375,0.202270948433047,0.1946426046087503
376,0.20665621682465504,0.16793724735750395
377,0.20429081607350913,0.16987683590510366
378,0.19972225786041584,0.1778795826877302
379,0.20325418613511595,0.16142399690239656
380,0.20264295438568083,0.18624970568571866
381,0.2006793146153434,0.19382306934579113
382,0.20954205869413395,0.18663640027452663
383,0.2034912690829983,0.17216980062136994
384,0.2045584744650969,0.16552751667168353
385,0.20405800581621608,0.18813085827708903
386,0.20217691266612944,0.1685204845695112
387,0.20431650261417758,0.19183662293836087
388,0.20803361149023858,0.19312862375634998
389,0.2033721910272952,0.19546439351062656
390,0.20413918157728264,0.18819519379944338
391,0.20948813593001675,0.1854316188462061
392,0.20662082947915691,0.1949865111659245
393,0.20271392894401064,0.17480101573391985
394,0.2065531308773896,0.19007818196218787
395,0.20174942327012643,0.15917241467484924
396,0.20496501116086538,0.18122450207619564
397,0.2018668332355295,0.17778800010398887
398,0.2024634719597731,0.17977416249552203
399,0.2020251542556105,0.16188938173611708
400,0.20067045691130544,0.19940332131020744
401,0.20475240518077673,0.17571385817539062
402,0.20200422086375508,0.19513453434985176
403,0.20766543810197013,0.17070233337316534
404,0.20237340459482467,0.18175180619781
405,0.20422401173795154,0.16943171926154427
406,0.20750187631014536,0.19960366223586667
407,0.20721565955262675,0.16297351219048156
408,0.20506056081905638,0.17521354137392806
409,0.20142175358452863,0.16575640125969027
410,0.20199106849855084,0.2140842956074035
411,0.20330284869404053,0.18643995218608167
412,0.20139402476884574,0.18194385766747811
413,0.20619234640440115,0.16681875643668065
414,0.20452579135874766,0.1847325692331123
415,0.20375631148104284,0.18380902860469486
416,0.20891550266676,0.18877836229204661
417,0.20498030000238968,0.1970283351456357
418,0.20893076763188334,0.20575971654436206
419,0.20095005047192677,0.18516132520142745
420,0.20278174770202378,0.17529584495637393
421,0.2020952662022756,0.1750207587359172
422,0.20034251140533305,0.1982988092075113
423,0.20078597510223098,0.1855210882171271
424,0.20559797628963594,0.1772757978564468
425,0.20432431660562778,0.16846903975120942
426,0.2102681527749526,0.1775576529323161
427,0.20360782434590619,0.14729716450023012
428,0.20317599951005955,0.184272198069726
429,0.20540402039325686,0.18543580517866712
430,0.20714610317747276,0.17090665032144786
431,0.20776361875015673,0.1971317036893298
432,0.2058399728567099,0.19313627293284896
433,0.2062611630935368,0.20439191876477675
434,0.20217000278566094,0.1869023360529563
435,0.20205264978057189,0.17398288599035358
436,0.2010949815539338,0.18775984180331137
437,0.20452040518454606,0.18487469274506574
438,0.20434196480363012,0.1652239482282369
439,0.20398094092937205,0.18723047115996586
440,0.20526815729914047,0.18227330933383062
441,0.20380126396052653,0.15637178086303027
442,0.20540312885475767,0.1666349526009601
443,0.21008285660323478,0.16729618450178343
444,0.20008186999556543,0.18653570623640572
445,0.2058940687053781,0.16851001742700938
446,0.20545348905616526,0.17893513338530073
447,0.20656588078021623,0.17273228186834677
448,0.20691751469549038,0.18479444290016614
449,0.20464198224597888,0.17421873920577288
450,0.20568331427496972,0.1639042163257441
451,0.20396304966138898,0.18402367986697518
452,0.2079981191397952,0.18778455823118892
453,0.2049436724181179,0.16550110996757422
454,0.20648049824029135,0.16183525532037138
455,0.19806306024225687,0.1874174478492496
456,0.20309069774133695,0.20139688649747722
457,0.20883893047710309,0.19377426228000125
458,0.20215613231193916,0.18570499583173194
459,0.20012038021231537,0.1784912853750923
460,0.2048581275555918,0.1960013243586601
461,0.20481586813640823,0.2000589591951566
462,0.2026256804557727,0.16160456198778506
463,0.20363333584855406,0.1790887185129107
464,0.2047231250660692,0.18175603120037206
465,0.20249228915579312,0.18206328024239454
466,0.2069145940738521,0.19048538934601134
467,0.20668094449168106,0.1795142863736721
468,0.2031509416590301,0.19254261404628722
469,0.20213403291315388,0.1719631838488033
470,0.20706578218441407,0.20303769543731692
471,0.20509281868843152,0.2154931787345573
472,0.2018408316800253,0.18848903250205018
473,0.20397820730479976,0.1728375176322112
474,0.20347278393048654,0.17714344823605072
475,0.20510688047114609,0.20381967996224326
476,0.20480527992633513,0.16281485515216626
477,0.2070885119583014,0.16057727747576953
478,0.20395812746598949,0.1960165850059574
479,0.2058801028213436,0.1884471934873849
480,0.20380316566911152,0.1874897631492404
481,0.20375608596846545,0.16508354781740936
482,0.19948301059331636,0.19166794823866334
483,0.202758202289077,0.18557995769482669
484,0.20633364824963799,0.18385643317366362
485,0.20623792424428758,0.1907695317560044
486,0.2080993076665796,0.1873629399190856
487,0.20263636768531265,0.16721865871146427
488,0.20642199457811414,0.21155043065124549
489,0.20268902572677386,0.1937799011169688
490,0.20497954465883622,0.16230636171779014
491,0.20255283624839057,0.1581430045892238
492,0.2020796532634732,0.1725439157369293
493,0.20349438032872386,0.1839358209269952
494,0.20643300116419505,0.19346092479052088
495,0.20661759104350394,0.17358224788987928
496,0.20641247975788146,0.1887906419073585
497,0.20202898642094397,0.17339086850139224
498,0.2056814139957527,0.1663506755630332
499,0.20453304338226502,0.1749075849929379
500,0.21082571798639235,0.20392723973096594
501,0.20645660085739087,0.19367696179022634
502,0.20392880420223605,0.18353437562344482
503,0.2046498445917567,0.17849535754372403
504,0.20307640072038705,0.20718347669917953
505,0.20819040752357718,0.19929068209199144
506,0.20474302880078865,0.17402193777045585
507,0.20155570672141562,0.18800518158955562
508,0.19704204125941802,0.18301981758111655
509,0.20467544832437348,0.16531874545230202
510,0.20584955356485077,0.18317821547800664
511,0.20334818124247017,0.20310690833201253
512,0.20430752125194224,0.17408288932966265
513,0.2040309503817444,0.16507393700359557
514,0.20671826409850474,0.1583088770120654
515,0.2080480805415806,0.1971361933139336
516,0.2037828488351344,0.17216100820708483
517,0.20640336071177542,0.19044809278627034
518,0.20306762601498315,0.16887349959377615
519,0.20604699895345716,0.18516664513943226
520,0.21067031987493845,0.17993300348731978
521,0.20769468070767957,0.16514509641098618
522,0.20637529170055754,0.18815321548773534
523,0.20421765107426235,0.19282170796168538
524,0.20640831607446777,0.1810511678645436
525,0.20735039882999148,0.16797902863752023
526,0.20414727710062366,0.18351306965620195
527,0.20432888237025432,0.16645594472807979
