epoch,loss,val_loss
0,0.8893955604235331,0.8889836291074753
1,0.8889532832172182,0.8889617012739182
2,0.888940726465649,0.8889157733122508
3,0.8889321893718507,0.8889079198042552
4,0.888925968779458,0.8889062711795171
5,0.8889253491560618,0.8889194541772206
6,0.8889225512478087,0.888910626689593
7,0.8889192129506005,0.8889199959834416
8,0.8889174372487598,0.8889278233846029
9,0.8889160212145911,0.8889077017307282
10,0.8889144643280241,0.8889117140769959
11,0.888914561841223,0.8889060341119767
12,0.8889142342673407,0.8889048739671707
13,0.888912938978937,0.8889080319007238
14,0.8889131957160102,0.8889256921609243
15,0.8889122429291407,0.8889105058113734
16,0.8889118458297518,0.8889100114107132
17,0.8889119974639681,0.8889028047323226
18,0.8889113339715534,0.8889031631151835
19,0.8889106758832932,0.8889243071476618
20,0.8889102780818939,0.8889195115963618
21,0.88891017862161,0.8889068373441696
22,0.8889099559783935,0.8889043649435043
23,0.8889093416929245,0.8889394993384679
24,0.888909428636233,0.8889118155638377
25,0.8889089240762923,0.8889042003552119
26,0.8889086551931169,0.8889067807594935
27,0.8889081907007429,0.8889037241141001
28,0.8889085952970717,0.8889027289549509
29,0.8889080553584628,0.8889062931140264
30,0.8889084254900614,0.8889060813585917
31,0.8889079056448407,0.8889120098749796
32,0.8889078210062451,0.8889022134542465
33,0.888907955871688,0.8889078588883083
34,0.8889073410696453,0.8889105195999145
35,0.8889072482188543,0.8889063628117243
36,0.8889070939885245,0.8889026227792104
37,0.8889070244497723,0.8889275064071019
38,0.8889069182872772,0.888918500383695
39,0.8889065424336328,0.8889034625689188
40,0.8889066178533765,0.8889032425085703
41,0.8889065809647242,0.8889022813240687
42,0.8889071088234584,0.8889162565867106
43,0.8889067495266596,0.8889016792376836
44,0.8889067266517215,0.8889535604317983
45,0.8889067145718469,0.8889027143319448
46,0.8889067296319537,0.8889097214539846
47,0.8889063832362493,0.8889032055934271
48,0.88890690308147,0.8889020295540492
49,0.8889065460628933,0.8889127905766169
50,0.8889069041411082,0.8889154742558797
51,0.888906355301539,0.8889038800001144
52,0.8889065812826157,0.8889030711253484
53,0.8889064397149615,0.8889019366900126
54,0.8889063807593451,0.8889098187287648
55,0.8889063400295045,0.8889029558897018
56,0.8889062601857716,0.8889052240053813
57,0.8889063457515505,0.8889044038852056
58,0.8889062596691979,0.8889079690376918
59,0.8889064915445116,0.8889024553696314
60,0.888906142340766,0.8889023236036301
61,0.8889064019521078,0.8889040577809016
62,0.8889062886900372,0.8889023161729177
63,0.8889062738153669,0.8889037665923436
