epoch,loss,val_loss
0,0.3365736492143737,0.33442061857382455
1,0.33370238183604345,0.3335769170721372
2,0.3335992737611135,0.333544029434522
3,0.3335546510352029,0.3334943345189095
4,0.33351955561505425,0.33345069924990334
5,0.33350817111465664,0.33347412729263304
6,0.33349634067879785,0.33343027279774345
7,0.3334872131678793,0.33365798163414
8,0.3334815542300542,0.33344602553049724
9,0.3334796863132053,0.3334256159067154
10,0.33346942327419915,0.33341329018274946
11,0.3334670866264237,0.3334170895218849
12,0.3334641376601325,0.3334516217509905
13,0.33345979856120217,0.3334097072680791
14,0.33345707086059784,0.33342809466520945
15,0.3334510322146946,0.3334176007906596
16,0.3334512935810619,0.33349220536152524
17,0.33344946879810755,0.33343664471308393
18,0.33345037460989424,0.3334085669318835
19,0.3334453155265914,0.3334389314651489
20,0.33344425408707723,0.3334948472181956
21,0.33344672756724886,0.3334370626409848
22,0.33344345498747296,0.3334071047504743
23,0.3334422238137987,0.3334435871243477
24,0.3334418081442515,0.33341630335648853
25,0.33344292806254494,0.3334879754185677
26,0.3334395312468211,0.33351842776934304
27,0.33343852648470135,0.33342509692907335
28,0.33343926246298683,0.33345074361562727
29,0.33343712698751027,0.3334048523306847
30,0.3334363440407647,0.3334211882352829
31,0.3334365352127287,0.33341161626577376
32,0.33343598084979587,0.33341920022169746
33,0.33343461636039945,0.3334099550445875
34,0.3334345730543137,0.3336355130076408
35,0.3334334869649675,0.3334142922560374
36,0.33343392736381955,0.33340388850371044
37,0.3334318018224504,0.3334068497220675
38,0.33343256680170696,0.3334304891029994
39,0.3334312975737784,0.33341197814544044
40,0.3334316877126694,0.33341359269618986
41,0.33343152529001235,0.33342074062426885
42,0.3334315875371297,0.33341510405143104
43,0.3334308859242333,0.3334125709533691
44,0.3334307956695557,0.33340330042441685
45,0.33342959408627615,0.3334271673162778
46,0.33343054901891284,0.333410637040933
47,0.33343046920167074,0.33344736246267953
48,0.33343267549408806,0.3334155197342237
49,0.3334313869211409,0.3334269605477651
50,0.33342969067229167,0.3335185353755951
51,0.33342949432796903,0.3334482341210047
52,0.3334292935993936,0.3334503684838613
53,0.33343074891964597,0.33341483994325
54,0.3334291281435225,0.3334065353870392
55,0.33342898957596884,0.33342341729005176
56,0.33343035516473984,0.3334188387989998
57,0.3334312042925093,0.33340463654200236
58,0.3334272794392374,0.3334095976948738
59,0.3334282262391514,0.3334244590202967
60,0.3334271543489562,0.33341069966554643
61,0.3334280575315158,0.3334072235226631
62,0.3334273307191001,0.3334137681921323
63,0.3334269413550695,0.3334022497534752
64,0.33342511861191854,0.333418504913648
65,0.333426083597872,0.33340874361991885
66,0.3334247398045328,0.33340509863694506
67,0.33342590063148075,0.3334191454052925
68,0.3334268461002244,0.3334624213576317
69,0.33342462601264317,0.3334040529727936
70,0.33342418230904475,0.33343696949879326
71,0.3334256234235234,0.3334310199419657
72,0.33342467159695094,0.33343372575442
73,0.33342565256357193,0.3334114084045092
74,0.33342554999722374,0.3334038819273313
75,0.3334245367248853,0.333491576731205
76,0.3334249377383126,0.3334123573700587
77,0.3334244943194919,0.333416141808033
78,0.33342413400279153,0.33340444167455036
79,0.3334248697625266,0.333412437359492
80,0.33342611038684844,0.3334070950349172
81,0.3334239774677489,0.3334644533594449
82,0.3334242115881708,0.33340791646639506
83,0.33342550100220575,0.3334022181828817
84,0.33342381070719823,0.3334041285713514
85,0.33342487544483607,0.3334078196287155
86,0.3334248258140352,0.3334052567680677
87,0.33342469725343915,0.33339840147892635
88,0.33342356881830426,0.33340106801191965
89,0.33342317018244,0.3334040954311689
90,0.3334253107044432,0.33340574498971304
91,0.33342241056097877,0.3334284738898277
92,0.33342445115910635,0.3334037373860677
93,0.3334233855870035,0.33342057673136394
94,0.33342380921708215,0.33341049116849897
95,0.33342404423157374,0.3334205601612727
96,0.3334253067837821,0.33340953455368677
97,0.3334236187140147,0.33342568012078605
98,0.3334241633878814,0.33341614335775377
99,0.3334231100479762,0.33340063913663226
100,0.3334227350552877,0.33340129667520524
101,0.33342412541972266,0.33341380435228346
102,0.3334229474862417,0.3334364394942919
103,0.3334227308101124,0.3334270710746447
104,0.33342405707306333,0.33341684873898825
105,0.3334237594074673,0.3333967838088671
106,0.3334235421948963,0.3334288051923116
107,0.33342351842588847,0.3333994816740354
108,0.3334230691194534,0.33347006809711455
109,0.3334246950149536,0.3334691673119863
110,0.3334236094885402,0.333467594007651
111,0.3334234533707301,0.33340342561403913
112,0.33342365392049156,0.33339942250649135
113,0.33342322248220446,0.33340235777695976
114,0.33342381827698814,0.3334330304662387
115,0.33342318647437624,0.3334039982557297
116,0.33342248553037646,0.333403823475043
117,0.33342337674564787,0.3334025171995163
118,0.3334238348470794,0.3333980873823166
119,0.3334221070342594,0.33342806792259216
120,0.33342282586627536,0.3334140808582306
121,0.33342128658956954,0.3334111385146777
122,0.3334241754081514,0.33339962490399677
123,0.33342224139637416,0.33341289063294727
124,0.33342212020026313,0.3334099637468656
125,0.33342459438244504,0.33341385261217754
