epoch,loss,val_loss
0,0.7790712248616748,0.777935817639033
1,0.7779197473261091,0.7779075820446014
2,0.7778746528493033,0.7778238575061163
3,0.7778588252597385,0.7778208841482799
4,0.7778527717457877,0.7778153238296509
5,0.7778461045159234,0.7778792374531428
6,0.7778428378502528,0.7778284378449122
7,0.7778385579983393,0.7778786403735479
8,0.7778346105946435,0.777820842941602
9,0.777831817123625,0.777854502081871
10,0.7778304291036394,0.7778667598962784
11,0.7778287556966146,0.7778117535114288
12,0.7778266699579027,0.7778173953692118
13,0.7778262243668238,0.7778105439742407
14,0.777823475850953,0.7778438498973846
15,0.777824528031879,0.7778324199914932
16,0.77782280629211,0.7779583576122919
17,0.7778220151662827,0.7778098451693852
18,0.7778215169244342,0.7778076665401459
19,0.7778196178674698,0.7778234918912251
20,0.7778189207315445,0.7778090766270955
21,0.7778187215460671,0.7778103728294372
22,0.7778189856873619,0.777815284371376
23,0.7778184414704641,0.7778069525957108
24,0.7778173083464305,0.7778207191228866
25,0.7778166885508432,0.7778072205781936
26,0.7778170875045989,0.7778112033208211
27,0.7778173079490661,0.7778318855762482
28,0.7778171930048201,0.7778071664174397
29,0.7778169196314282,0.7778175367514293
30,0.7778164854447047,0.7778191273609797
31,0.7778165501091215,0.777805940469106
32,0.7778159943819046,0.7778262434403101
33,0.7778163393206067,0.7778123449484508
34,0.7778154210646947,0.7778175251881282
35,0.7778147644201915,0.7778094387849172
36,0.777815184129609,0.7778073196808497
37,0.7778144840134514,0.7778174841403961
38,0.7778147815863291,0.7778115008274714
39,0.7778141880697674,0.7778096668322881
40,0.7778150768942304,0.7778095240592957
41,0.7778142016993629,0.7778253759145737
42,0.7778143679036035,0.7778081407149633
43,0.7778140691121419,0.7778082173665365
44,0.7778142993847529,0.7778127874533335
45,0.7778138974905014,0.7778072057962417
46,0.7778141221072938,0.7778039357662201
47,0.7778136749135124,0.7778051108121872
48,0.7778144191900889,0.7778079026937484
49,0.7778132341702779,0.7778125005960465
50,0.7778136985434426,0.7778272032737732
51,0.7778135645786921,0.7778090115785599
52,0.7778136290709178,0.7778112797339757
53,0.7778129572735892,0.7778209034204483
54,0.7778131946457757,0.7778072057962417
55,0.7778130781915453,0.7778155856927236
56,0.7778130926158693,0.7778067799011866
57,0.7778131131331126,0.7778057103157043
58,0.777812792301178,0.7778090276320775
59,0.7778136316935221,0.7778073806762695
60,0.7778129340277777,0.777816480477651
61,0.777812790022956,0.7778048754533132
62,0.7778124351501465,0.7778051284154256
63,0.7778131295839945,0.7778033942778905
64,0.7778120100100835,0.7778317224582036
65,0.777812909219,0.7778115222454071
66,0.7778129035101996,0.7778162243763606
67,0.7778122842311859,0.7778074857393901
68,0.7778127428028319,0.7778320602973302
69,0.777812702788247,0.7778111434380214
70,0.7778125811682807,0.7778254321018855
71,0.7778121931287978,0.7778047196070353
72,0.7778128152820799,0.7778054394721985
73,0.7778126959668266,0.7778060570955276
74,0.777812134332127,0.7778070375919343
75,0.7778125100798077,0.7778065469662349
76,0.7778131133053038,0.7778138173421224
77,0.777812243156963,0.7778034269809723
78,0.7778128525151147,0.7778108588854472
79,0.7778121401071548,0.7778046160141627
80,0.7778121248881023,0.7778147364854813
81,0.7778122648398081,0.7778060629765192
82,0.7778123305771086,0.777833700021108
83,0.7778122089438968,0.7778255763451258
