epoch,loss,val_loss
0,0.6687891603045993,0.6668333597183228
1,0.5690592829253939,0.4445807249546051
2,0.444704909755124,0.4445986415743828
3,0.44466039119164147,0.44458567108710606
4,0.44463491339815986,0.4445801633397738
5,0.4446141040126483,0.4448019414146741
6,0.4446024518079228,0.4445967263976733
7,0.44459309628936977,0.4445678320725759
8,0.4445831409229173,0.44461141792933145
9,0.44457640542586646,0.4448402391473452
10,0.4445680699547132,0.444524265229702
11,0.44456420211659536,0.4445461196899414
12,0.44455387590328854,0.44454226350784304
13,0.44455265714062586,0.44453078001737595
14,0.44455172299014195,0.4445401641925176
15,0.4445467145840327,0.44455839445193607
16,0.4445487550960647,0.44456821395953494
17,0.444545056965616,0.4445268048445384
18,0.44454226814375986,0.4445089555780093
19,0.4445421303576893,0.4445707800587018
20,0.4445407085021337,0.44455195609728493
21,0.4445413629412651,0.44451961110035576
22,0.4445400421420733,0.444511523604393
23,0.44453707916869056,0.444567944308122
24,0.44453646481699416,0.44456713608900705
25,0.44453734970092773,0.44452363713582355
26,0.4445372420284483,0.44451922138532
27,0.4445353771911727,0.444516266087691
28,0.44453442003991867,0.4445668058594068
29,0.4445327641103003,0.44457709417740504
30,0.4445337285200755,0.44450976288318633
31,0.4445320985714595,0.44453994019826254
32,0.4445321690109041,0.44457265752553937
33,0.4445310007399983,0.4446158439119657
34,0.4445309646460745,0.44450510054826736
35,0.4445304751329952,0.44452131519714994
36,0.4445295310748948,0.44450475680828094
37,0.44452906866206066,0.4445049950877825
38,0.4445296694040298,0.44452298843860627
39,0.4445296456085311,0.44452932916084925
40,0.44452860999107363,0.444509549677372
41,0.4445279326173994,0.44452819967269896
42,0.4445272023346689,0.4445003786087036
43,0.44452865622440974,0.44453588459889093
44,0.4445254673163096,0.44451901445786157
45,0.4445250781112247,0.44451882922649383
46,0.4445261816912227,0.44453420440355934
47,0.44452638571129904,0.4445055036743482
48,0.44452509425083797,0.44451226089398066
49,0.444525246196323,0.4445041905840238
50,0.4445245019925965,0.4445222569704056
51,0.4445262632568677,0.44451072601477304
52,0.44452564272615647,0.4445058109760284
53,0.4445254062546624,0.4445137929121653
54,0.444524164126979,0.44450273625055947
55,0.44452619877788757,0.44450890320539477
56,0.44452424381838906,0.44451301902532575
57,0.4445247293247117,0.44450895839929583
58,0.4445233240392473,0.44450584302345914
59,0.4445238113999367,0.444503145078818
60,0.4445234081082874,0.44451004630327223
61,0.44452388256788256,0.44455876900752384
62,0.4445234480831358,0.4445184509952863
