epoch,loss,val_loss
0,0.44753378309806185,0.44601747347911197
1,0.4449170858131515,0.4446746043165525
2,0.4446939446197616,0.44459216795365014
3,0.4446508805023299,0.44473058100541435
4,0.4446196203364266,0.4445371550321579
5,0.444601570877764,0.444535493850708
6,0.44458602825138305,0.44461778980493544
7,0.4445776725875007,0.44452138302723565
8,0.4445760999785529,0.4445301077961922
9,0.44456661853525375,0.44454019715388615
10,0.44456329703330993,0.4445185904105504
11,0.44455901484356986,0.4445354924201965
12,0.44455481488837134,0.44454167544841766
13,0.444549981282817,0.4445315288901329
14,0.44455037760734556,0.4445861575007439
15,0.4445480334361394,0.44451706675688424
16,0.44454713726705974,0.4445350518623988
17,0.4445478342903985,0.4445303492148717
18,0.44454403162002565,0.44451721797386806
19,0.4445444830126233,0.4445187365412712
20,0.44454235039816964,0.4445215660730998
21,0.4445398872759607,0.44451101873318355
22,0.4445404792560471,0.4445153486132622
23,0.4445378669102987,0.4445095365246137
24,0.44453768177164926,0.4445217074155807
25,0.44453528045945695,0.4445176865061124
26,0.4445350675317976,0.4445168388287226
27,0.44453208245833714,0.4445066326856613
28,0.44453118355406657,0.4445380096634229
29,0.4445320259862476,0.44454280213514963
30,0.4445309326781167,0.44452502646048864
31,0.44453069049782223,0.44453235451380413
32,0.4445288259718153,0.44452628709872566
33,0.44452968574894797,0.4445323557257652
34,0.44452831589513353,0.4445184070666631
35,0.44452872423993217,0.4445318581461906
36,0.4445274122423596,0.4445122842391332
37,0.4445260300570064,0.4445168983538946
38,0.4445266377859645,0.44450887209177015
39,0.4445260921650463,0.4445171133677165
40,0.4445248819920752,0.4445082498788834
41,0.4445250959330135,0.4445480943719546
42,0.4445254304673937,0.4445071390469869
43,0.4445245529479451,0.444539807120959
44,0.44452425897783704,0.4445112241109212
45,0.44452577567100526,0.444529026945432
46,0.44452373797363703,0.4445311904748281
47,0.4445237856441074,0.4445246444543203
