epoch,loss,val_loss
0,0.1980429804123801,0.08957376551021247
1,0.0763258323412862,0.06854746250498925
2,0.0677116024110624,0.06801376073388199
3,0.06758538577452504,0.06747212258021287
4,0.06741503118980322,0.06749785649160184
5,0.06727107087199351,0.06830497865801076
6,0.06732117205703382,0.06703838326430923
7,0.06721999555480757,0.06775862374581873
8,0.06719021225641433,0.0677249799993392
9,0.06725953801793398,0.06728558551634779
10,0.0670897778463092,0.0670884316838578
11,0.06707668188009426,0.06750104070921159
12,0.0670360673507817,0.06751430423043804
13,0.06701285243600154,0.06692839001070917
14,0.06709449929442052,0.067031504514303
15,0.06701288764758838,0.06785125103679904
16,0.06698013758428281,0.06672386058856863
17,0.06699199550491061,0.0675756872206009
18,0.06699242929873658,0.06676418105200603
19,0.06690687595082702,0.06675457330192744
20,0.06691088827310515,0.06657237534858904
21,0.06689983607678533,0.06714807590138941
22,0.06693741583602605,0.06672397725160609
23,0.06689519157036126,0.06699532410975226
24,0.06688286120639288,0.06656890754141766
25,0.06685080951441535,0.06686174668424602
26,0.06687490379722189,0.06681093856127787
27,0.06687212565974843,0.06654423109205011
28,0.06682821674991568,0.06656366609031042
29,0.06673505731063972,0.06671243195363924
30,0.06681891927252905,0.06672253260049373
31,0.06684080596944744,0.06647656930003377
32,0.06679369615529367,0.06676093886746792
33,0.06685581204476211,0.06720654663189528
34,0.0668045435514715,0.06654542797754483
35,0.06678689206145602,0.0664866059171749
36,0.06676124503238977,0.06654512945741956
37,0.06677721137498066,0.06651136954186371
38,0.06672526319041479,0.0666169242517348
39,0.06674978514905457,0.066880596926599
40,0.0667342274434132,0.06672747734854705
41,0.06679113053952714,0.06646246067303414
42,0.06672890799240672,0.06653042519854671
43,0.06667757105621264,0.06651152823570212
44,0.06671650577440774,0.06656071632194914
45,0.06673957118771964,0.06681744746375762
46,0.06672366530441647,0.06674110010889636
47,0.06670886645023581,0.06664303512310267
48,0.06668746594688017,0.06677023625117451
49,0.06671277194810238,0.06733622038832497
50,0.06673920257307357,0.06651782287665493
51,0.06674046316842953,0.06674635072768723
52,0.06664850793296484,0.06660233692640193
53,0.06672327024795169,0.06716144476277017
54,0.06669265853701163,0.06648140744362747
55,0.06664225962206566,0.06695657948233429
56,0.06667595293870171,0.06668162336477447
57,0.0666504557148444,0.06634965785077075
58,0.06664106216308453,0.06645589066050424
59,0.06666273248495816,0.06708621849094965
60,0.0666416519992262,0.06805218800302557
61,0.06667105583466595,0.06664689728180159
62,0.06667882338356819,0.0672522016728169
63,0.06658469386202254,0.06668253808966658
64,0.06661939764355156,0.06647609735838333
65,0.06665388425494984,0.06661489358335004
66,0.06663349959001744,0.06678569871394203
67,0.06661946763642591,0.06710017949707318
68,0.06663736674508793,0.06650275844954183
69,0.06663064735023666,0.06632045133961122
70,0.06661367674561428,0.06741139547636213
71,0.06659620795860517,0.06644634361472201
72,0.06660578178493477,0.06642341790772274
73,0.06663055970020097,0.06663041947896121
74,0.06663320246610424,0.066543861032826
75,0.06655940548222747,0.06659298725337989
76,0.06659404641623311,0.0666321752961922
77,0.06660714905432089,0.06648152424485644
78,0.06658100702172275,0.06635978773836085
79,0.06661795773100462,0.06642455178670932
80,0.06662723217174399,0.06691102553879358
81,0.0665582898545632,0.06648740363208064
82,0.06659428807769081,0.06640888307752248
83,0.06657365703587528,0.06690858406527078
84,0.06659974270968509,0.066667704330647
85,0.0665468640422983,0.06649670967186824
86,0.06662444817981751,0.06653804063573539
87,0.06659251207606398,0.06666129657847258
88,0.06656271664144324,0.06633047439340257
89,0.06658824363784444,0.0666877723048311
90,0.0665321404741203,0.06653091326450022
91,0.06659846830157211,0.06643020266986024
92,0.06658502601140695,0.06634716604907587
93,0.06657551278581293,0.06646301787002593
94,0.06653659677149343,0.06645493702147076
95,0.06657217326704308,0.06661829143621456
96,0.06654379124657142,0.06648685689942048
97,0.06656487293982154,0.06653850699680099
98,0.06657147730628458,0.06633170039320237
99,0.06654592685335926,0.06631947922407876
100,0.06655848020319935,0.06717306570441778
101,0.06656553987398756,0.06625678710751207
102,0.06653403512222304,0.06648059046423709
103,0.06653328473232299,0.06633873754302252
104,0.06654216194425604,0.06624548879893821
105,0.06649606641855457,0.06679022210137808
106,0.06657415764074293,0.0664167508759316
107,0.06650624158743808,0.06664497443807813
108,0.06654375368099419,0.066504222847339
109,0.06654832369650153,0.06653740961507446
110,0.06650323059103139,0.06660618785042507
111,0.06652552179015464,0.06653959001837138
112,0.0665288951536782,0.06641477212639145
113,0.0665445488220234,0.06628141152924595
114,0.06656561665487089,0.06670597792789046
115,0.06655862457383213,0.06642792532962895
116,0.06648425993284018,0.0665608309032932
117,0.06651577024871735,0.06633257724185958
118,0.06650844397995588,0.06631702085002822
119,0.06651714118234783,0.06674332593015639
120,0.0665488477936275,0.06649841818937939
121,0.06656815991740671,0.06638962039231501
122,0.06649808287858773,0.06635271139507606
123,0.0665042001745112,0.06653980849326926
124,0.06651158282886163,0.06661732236971607
125,0.06651913325974552,0.06667912485638094
126,0.06652801493398673,0.06657612683646963
127,0.06653195145509416,0.06652325568772152
128,0.0664765676461178,0.06664124544013082
129,0.06651939246669519,0.06641240524688197
130,0.06653407278606932,0.06657052498190254
131,0.06650308952878992,0.0666391424652433
132,0.06654317501476771,0.06632482164319614
133,0.06651582912081104,0.06633717888685409
134,0.0664943436132394,0.0664198559333277
135,0.06653404161095809,0.06674651695737334
136,0.0665299980033883,0.06630913282273412
137,0.06651177597667673,0.06670307569446861
138,0.06649518116034096,0.06631123318962441
139,0.06648564763325486,0.06647862355506316
140,0.06651094686284625,0.06637599249535785
141,0.06651761825028941,0.06662552679382447
142,0.06653074562686573,0.06651836162360993
143,0.06646511152678494,0.06627821646507273
144,0.06651265957176114,0.06644054223807572
145,0.06647314389141724,0.06664496531155792
146,0.06657051100141759,0.06644807941476567
147,0.0664635189681602,0.06628486159497955
148,0.06651136228036013,0.0662917666984009
149,0.06646959889504454,0.06745627376926444
150,0.06651711034373366,0.0674581716209062
151,0.06647941129777929,0.0663543393939804
152,0.06652663146063006,0.06633258661830058
153,0.06650238524494077,0.06655104249868697
154,0.06647495675882657,0.06650584076120332
155,0.06649327827401631,0.06627890000732846
156,0.06650943454387757,0.06665548559898642
157,0.06651388790509065,0.06723546757470837
158,0.06645945212591609,0.06650187087193096
159,0.06653563046811534,0.06647155480643098
160,0.06651027372432984,0.06638959999583609
161,0.06650341198825055,0.0662544544259911
162,0.06648114381981887,0.06626244048693092
163,0.06649371034962287,0.06634308326027952
164,0.066508422820843,0.06757040996613141
165,0.0664597403758364,0.06640141530237334
166,0.06645323932438875,0.06655078736775583
167,0.06650553771751008,0.06665803822846797
168,0.06651606519284436,0.06650046029531682
169,0.06649097297444856,0.06637730789918456
170,0.06650192721290507,0.06657625473124264
171,0.06654774300087032,0.06638998779355774
172,0.0664435834300032,0.06629984929934203
173,0.0664979537039233,0.0667457735458508
174,0.06650139049565096,0.06632581509902614
175,0.06645195143257114,0.06626628790618212
176,0.06648157654906349,0.06630812024943172
177,0.06650175556367774,0.06637119642960902
178,0.06647932257422869,0.06643905806125104
179,0.06650483628048552,0.06635326688966604
180,0.06654670014143657,0.06633593583363384
181,0.06647149740988545,0.06662853225924503
182,0.06648209438228207,0.06643445112675593
183,0.06647315013447969,0.06666149239584321
184,0.06647982652917754,0.06650243357600145
185,0.06650180300380543,0.06657986067406003
186,0.06649634571705791,0.06629977443188594
187,0.06648254805921222,0.06648767310258621
188,0.06646347689262921,0.0663912271744121
189,0.0664524005921029,0.06637734923608772
190,0.06653164663343883,0.06656205981099521
191,0.06640802493555654,0.06637242198543183
192,0.06649220480526284,0.06648519998614771
193,0.06649685088994739,0.0663388528711888
194,0.06646246741787135,0.06630586581370825
195,0.06645940410957443,0.06630165288967228
196,0.06644965804291429,0.06640872618311394
197,0.0664802238666754,0.06644977227841294
198,0.06646407789421929,0.0665107025061429
199,0.06649117518832787,0.06643766459980252
200,0.06645637123937087,0.0663140456691302
201,0.06653026158033278,0.06621281306046901
202,0.06644912412037238,0.06838620117708935
203,0.06650099809989511,0.06651398197592669
204,0.06649623597882015,0.06703359539890345
205,0.06643916927069593,0.06646766865239336
206,0.06649245700533156,0.06627584986782677
207,0.06649347966898689,0.0664225226648934
208,0.06642449436803087,0.06638462857094071
209,0.06647976116983773,0.06628006301532134
210,0.06648636075238482,0.06640317867603374
211,0.06646096276239954,0.06645974813539303
212,0.06649425660344147,0.06630545116567009
213,0.06647889104356869,0.06633775227283434
214,0.0665282369118562,0.06675206849846957
215,0.06646626796290504,0.06651055021321764
216,0.06647975906151996,0.06652485659814954
217,0.0664596107083378,0.06624225453836012
218,0.0664970436387306,0.06628724035013824
219,0.06644711591345039,0.06637561941062171
220,0.06645268152693479,0.06637565487291555
221,0.06652746425210525,0.0663966702910371
222,0.06642558136664563,0.06632703426569676
223,0.06653020173597107,0.06642612351520662
224,0.06642868713610511,0.06634797984712126
225,0.06648241981363696,0.06631672485851357
226,0.06644805587774558,0.06632354968736844
227,0.06646829854836948,0.06628307818355011
228,0.06650282882547064,0.06640831478110616
229,0.06643820790310415,0.06632277989302833
230,0.06650703790174019,0.06639628194348965
231,0.06645643447103688,0.06637986876723234
232,0.06647427099124847,0.06659923444172013
233,0.06647489914040772,0.06641810288286717
234,0.06645944211438454,0.06624667783397901
235,0.06649529037447713,0.06654150309754152
236,0.06644026264339853,0.06651423899743532
237,0.06646390685098444,0.0664081412684334
238,0.0664738143200902,0.06645151612002641
239,0.066460499745443,0.0663572443147861
240,0.06642483239718001,0.06637977953667987
241,0.06649173749573559,0.06626967271612023
242,0.06648894133184739,0.0663324927186392
243,0.06643273326591384,0.06712836095653092
244,0.06645810367951957,0.06669738278051672
245,0.06643927845803144,0.06643908637286926
246,0.06645035650506675,0.06629061157320462
247,0.06646418760416747,0.06669837328728109
248,0.06645159667683877,0.06624599963414829
249,0.06645683488912052,0.066577350045977
250,0.06644536929129125,0.0666732599557434
251,0.06645803783330129,0.06642627893655245
252,0.0664942029366295,0.06674340988296924
253,0.06645886683992916,0.06634743261167922
254,0.0664564345603724,0.06750928379166003
255,0.06647048774603412,0.06626793636037029
256,0.06647324928646084,0.06665533372945642
257,0.06641932641514105,0.0662415415730736
258,0.06648949160576344,0.06632524528838371
259,0.06644016494609707,0.06642617447553137
260,0.06646264807807266,0.06642047228804704
261,0.06644394943456379,0.0663885459856622
262,0.0664973168192412,0.06630274714885873
263,0.06643533932237174,0.06626589439850486
264,0.06650548648360155,0.06635524876468654
265,0.06642764869282286,0.06648510400773318
266,0.0664598454790507,0.06672231204684267
267,0.0664981449682483,0.06795423960970345
268,0.0664529895959355,0.06654914504691853
269,0.06645304684063419,0.06632043322770259
270,0.06646458840639376,0.06639835043812513
271,0.06644451936973418,0.0663229241532045
272,0.06644120555576517,0.06636089277942536
273,0.06645579681360274,0.06625891804118841
274,0.06648896066553825,0.06635055036505283
275,0.06642752795589628,0.06633901212367375
276,0.06644473812557,0.066449822042058
277,0.06648289523482752,0.06663299731516235
278,0.06643911130386862,0.06629774905594203
279,0.06644212464682109,0.06642151899171234
280,0.06644284833285162,0.06646767457404659
281,0.06644910094376615,0.06626494162096315
282,0.06642949346938341,0.0663534259392741
283,0.06646514913851885,0.0664844896670816
284,0.06644195033837375,0.06626438289210376
285,0.066466800892334,0.06631697212134935
286,0.0664850451725183,0.06646159463271722
287,0.0664419247526869,0.06757806194762404
288,0.06646854482549462,0.06641523202773898
289,0.06644723165056689,0.06630943753795542
290,0.06646832969221328,0.06652105229464966
291,0.0664132169048063,0.06657210137068802
292,0.06644719544437816,0.06633389275447533
293,0.06645543611408185,0.06664350800269123
294,0.06644238965611139,0.0665051684477429
295,0.06644409739201684,0.0664240610745354
296,0.06645852725187557,0.06633938719013496
297,0.06646747080286106,0.06634322594742466
298,0.06641461594040683,0.06665912237909241
299,0.06645667682186686,0.0661910880524621
300,0.06643138707226082,0.06643632999617656
301,0.06644900394923729,0.06660715977484162
302,0.0664563123687661,0.06642906679150713
303,0.06640992497207879,0.06734853811803161
304,0.06646550123056442,0.06628945786520639
305,0.06643917004940368,0.06628272612450531
306,0.06646633714878207,0.06634815869927876
307,0.06641129431107061,0.06654737220860976
308,0.06646279385127277,0.06705264694806433
309,0.06647677328750241,0.06653253490953533
310,0.06643238582973666,0.06641843451603059
311,0.06646097953365052,0.0665337682805291
312,0.06641911730902801,0.06637365590919166
313,0.06644722228373984,0.06643969789676621
314,0.06644948624330554,0.06644442395822402
315,0.06643897435999364,0.06635298684898003
316,0.06640851789181658,0.06648094209400612
317,0.06642587245594588,0.0664299060167905
318,0.06643556229335418,0.06652519988056328
319,0.06643973239403453,0.06647017263258266
320,0.06648699188386079,0.0668425445710239
321,0.06643183597420856,0.0664058378041261
322,0.0664420580204061,0.06638147268553089
323,0.06642328945846913,0.06653913988451743
324,0.06642263414982935,0.06627479740128145
325,0.06644480788319422,0.06685078844733848
326,0.06644017403449515,0.06622966546815215
327,0.06645586468922578,0.06624766236910598
328,0.06648585687634899,0.06635182905698161
329,0.06643320349820084,0.0670613504287617
330,0.06644125279637693,0.06627428922405276
331,0.06643655157382254,0.06630373664417884
332,0.06642283054052306,0.06658662920016516
333,0.0664345538072425,0.0662618779710361
334,0.06645210643263934,0.06666821577742801
335,0.06644810267316875,0.0667410626678177
336,0.0664423090635801,0.06636035365023854
337,0.06645793400758462,0.06627830619840709
338,0.06640734403527422,0.06629963758994767
339,0.0664767740855662,0.06635453932475366
340,0.06639276250756139,0.06645764249076312
341,0.06642363446620966,0.06624510771673593
342,0.06640669792670188,0.06631082623326694
343,0.06646853399356539,0.06627497358663682
344,0.06642175424281213,0.06634371782981606
345,0.06642335353137778,0.06651420044788434
346,0.06642123931150833,0.06626527405093294
347,0.06644083064296644,0.06666629960512023
348,0.06642929833087562,0.0666620587134747
349,0.06647285764112318,0.06639467527312186
350,0.06642120870218861,0.06641572797648909
351,0.06640259088348333,0.06636055717105083
352,0.06641520651654421,0.06630714287086087
353,0.0664429570586204,0.06649234385215681
354,0.06647252358144803,0.06640679354837492
355,0.06640922416486948,0.06628925949276293
356,0.06645605987984594,0.06651999157483689
357,0.06645054714404326,0.06627068435148452
358,0.06640119240027395,0.06626483486067054
359,0.06642495136228588,0.06638693161185275
360,0.06639913571991032,0.06700255105826172
361,0.0664481324546462,0.06633516895013619
362,0.06642250472502552,0.06643304027081853
363,0.0664178042037548,0.06624501125318098
364,0.06644285230530347,0.06629143009916383
365,0.06641471960383068,0.06644187681523946
366,0.06644594812725517,0.06631871261696413
367,0.06642371501407321,0.06674872919176165
368,0.06642354818449604,0.06653632337687612
369,0.0664095896706402,0.06635851622356988
370,0.06645340859282503,0.06651635060194165
371,0.06640833399320345,0.06630896479067787
372,0.06644272049970859,0.06636256688725035
373,0.06644304612313481,0.0662549222542389
374,0.06644291083643333,0.06621469702533407
375,0.06642972327155365,0.0662312165237875
376,0.06645657980053736,0.06624900589931547
377,0.0664269955193015,0.06674568350967122
378,0.06641517284748366,0.06637491990283614
379,0.06647210711870881,0.06631626182580522
380,0.06640675074184875,0.06691972421513077
381,0.06642782398396069,0.06628068297478093
382,0.06643068029446234,0.06640802226202076
383,0.0664358240433877,0.06626255497418715
384,0.06645108792457363,0.06633374016752559
385,0.06641053976409203,0.06641678944606431
386,0.06642152658022708,0.06627212916431036
387,0.06642743615027097,0.06658931122982512
388,0.06644813728620776,0.06633083826635142
389,0.06639232675282122,0.06635553068418905
390,0.06644289952358134,0.06628640083671086
391,0.06643723020944997,0.06650806836425176
392,0.06641373626566191,0.06638985998111159
393,0.0664393394384429,0.06667902544964084
394,0.06641639901591624,0.06654371635513505
395,0.0664448723164227,0.0663886656242275
396,0.06641818178024032,0.06636097586486597
397,0.0664238187340762,0.06665171043625383
398,0.06642482225164521,0.06645997503409258
399,0.06645740695196471,0.06632302949041857
400,0.06640755558471313,0.0662571330479072
401,0.06643034654150573,0.06624890645141195
402,0.0664437553219253,0.0669590732040091
403,0.06645734118168159,0.06667916627855121
404,0.0663835102145811,0.06648986801305153
405,0.06645766082707402,0.06665172963605308
406,0.06642704863967798,0.06626122159076282
407,0.0664599863819772,0.06637179082657939
408,0.06643226362324113,0.06676614078404212
409,0.06642400051246015,0.06644680459219918
410,0.06646351424826802,0.06637368217145917
411,0.06637515111429562,0.06629006520219459
412,0.06642199406246964,0.0662676218041493
413,0.0664182052516537,0.06635313283213971
414,0.06640105964623386,0.06634915776509606
415,0.06647757401646708,0.0664600122693541
416,0.06641183239515784,0.06627367441590226
417,0.06642976479320456,0.06633486168572257
418,0.06647615639163817,0.06683550822095036
419,0.0663764966617552,0.06667839934800963
420,0.06643246272377831,0.06652690242643702
421,0.06639263780860545,0.06678775991677015
422,0.06641234359670457,0.06630884696036318
423,0.06641034664903328,0.06629943854418813
424,0.06643859673586251,0.06627068872362869
425,0.0664133288034742,0.06632052368433718
426,0.06643617866213897,0.06642964563164169
427,0.06640175999932105,0.0663880107346584
428,0.06643978997820811,0.06643132604041152
429,0.06642399316163752,0.06637355796081303
430,0.06642524921428337,0.06802475343634035
431,0.06644585647052235,0.06676367990490294
432,0.0663949902505159,0.06633368976290713
433,0.06640848956948561,0.06687978410765517
434,0.0664683961727136,0.066557824649887
435,0.06640651150138306,0.06624667797805102
436,0.06643166249360351,0.0665738667995796
437,0.0663995946199893,0.06661791861904072
438,0.06640711153368298,0.06625351517945646
439,0.06644477671701654,0.06652408463390869
440,0.06641053613558186,0.06715278018445317
441,0.06641561314195608,0.06642781189204015
442,0.0664021436818879,0.06669348390991987
443,0.0664659517673518,0.0666713703573691
444,0.06643105517003796,0.0664968952189634
445,0.06639913012899702,0.06625076006118857
446,0.06641367381717042,0.06646419828132842
447,0.06644240469574261,0.06651907030201937
448,0.06642818798293933,0.06651772766270408
449,0.06641680703198405,0.06638051385402491
450,0.0664565529388418,0.06657465494104794
451,0.0664180897110753,0.06642251572297517
452,0.06641912821689241,0.0667412367597187
453,0.06641802355962739,0.06636165836921525
454,0.06641353894587901,0.06712631115891281
455,0.06644023461438578,0.06655157466537386
456,0.06646438019512464,0.06746891309413838
457,0.0663967103281205,0.0662340279565661
458,0.06640683887429613,0.06633387920288655
459,0.0664210159653168,0.06632869137008546
460,0.06641498187349902,0.06668810580210979
461,0.06644203613023106,0.0668679673927406
462,0.06639128547164795,0.06640392400165572
463,0.06642375595057659,0.0662818214170276
464,0.06643815196568159,0.06638866817341983
465,0.06642722774395268,0.06629633311044068
466,0.06643064757682485,0.06662894005651256
467,0.06640556662065758,0.066635598976168
468,0.06643162399000353,0.06630513255191113
469,0.06643572739280051,0.06624048138250492
470,0.06640858293103752,0.06635644966949604
471,0.06642285905194749,0.06654732910167917
472,0.06640495975568092,0.06640754185540523
473,0.0664228408959963,0.0663195480846145
474,0.06645543986915065,0.06627448972523353
475,0.06638263626475271,0.06629571441234616
476,0.06639436870473894,0.0664071645867006
477,0.06644628297457163,0.06630698866971667
478,0.06642689473843641,0.06625458127109668
479,0.06643096992759395,0.06677637885794362
480,0.06641512458249152,0.06638689625834798
481,0.06647086463016953,0.06628195506291966
482,0.06638585268813882,0.06623108775282151
483,0.0664555469005228,0.06625388131051338
484,0.06637942589533558,0.06628492809155839
485,0.06643264618166965,0.06642920321005014
486,0.06643645800233221,0.06663153673380308
487,0.06642136219248687,0.06634280288734583
488,0.06639873282425553,0.06644363384385135
489,0.06643222761210159,0.0666468534809732
490,0.06639453306270066,0.06624285226956822
491,0.06641541555118885,0.06627833688280295
492,0.06639234838392333,0.06630016494345364
493,0.06641566508012614,0.06634281015563125
494,0.06642370581251683,0.06623167418172816
495,0.0664323092915481,0.06656739826666246
496,0.06639384168932001,0.06632759595244253
497,0.06643565324433655,0.06662709684050168
498,0.06639277049415498,0.06722164913812019
499,0.06638570458030434,0.06644263173782082
500,0.0664465676868062,0.0665124804545973
