epoch,loss,val_loss
0,0.159149856395948,0.05183329158877894
1,0.04859665654924252,0.03241618292813425
2,0.04130806705559329,0.054984225776125904
3,0.0338439201860935,0.028438723615966825
4,0.03210688699602628,0.022437273309328657
5,0.027412424420306593,0.022802782430950824
6,0.027555947939267487,0.013803405647519638
7,0.025291200953540947,0.024401748774906924
8,0.024293901690421144,0.019206465260899717
9,0.02377069376272817,0.011603405818213793
10,0.023589649491926296,0.016544579517981294
11,0.023784221613036692,0.025565534274387097
12,0.024726670886055648,0.009825635935167392
13,0.021460372396074026,0.024597766386505272
14,0.02066001771754927,0.028607473193411292
15,0.023457555370003307,0.029810490113136894
16,0.020134879471391712,0.02374104903783023
17,0.019831733570414053,0.028357079476059283
18,0.020733738098469234,0.012831561233563129
19,0.02056626272894037,0.029800038515709948
20,0.018372397393183255,0.03169972743565583
21,0.019603777796679215,0.013737676111685778
22,0.017248725981267688,0.0058138699527321225
23,0.019250747569420523,0.017334556306294078
24,0.017201513492894605,0.015884595463712476
25,0.01780572828917141,0.023207010295544915
26,0.018587611599279633,0.016726913624505593
27,0.01761724074020517,0.02230970632658291
28,0.01637977460022572,0.01944591409740668
29,0.018029656644976088,0.018553923133351996
30,0.01620806982855407,0.01920456235056659
31,0.015780264901058327,0.009035862111593079
32,0.016256455418584552,0.017266496333816245
33,0.017113835505990806,0.01660735700676407
34,0.016641355828932232,0.01567305502464852
35,0.0159799862907251,0.025285191919240033
36,0.015177016101441057,0.029393225020325455
37,0.017846779941732317,0.012015452979672069
38,0.015657447053113584,0.01457623500765052
39,0.01589962806933069,0.015189159906306838
40,0.014015431709153552,0.015782555429986734
41,0.0154630642795234,0.029295491267821876
42,0.014639262128978682,0.005987668561733724
43,0.014143338576212323,0.008245195371290667
44,0.013480349101027925,0.015523838243890486
45,0.013796796428514637,0.008177553683933938
46,0.013719594664425015,0.015560908701003257
47,0.015712558557160295,0.02494743371407348
48,0.014385902813708724,0.02034575072717695
49,0.012976556352963544,0.010764611806300041
50,0.014121189814445814,0.009610956084150777
51,0.014686183014930748,0.010320563886635117
52,0.01370345440450877,0.008135512997502875
53,0.013472140945351239,0.016612341703924966
54,0.013627743978480654,0.004501591086308248
55,0.012780210817977936,0.01346603144495362
56,0.013048819906497412,0.008776192995480717
57,0.012565609927532627,0.007713804884807111
58,0.013046365402501932,0.013406708555762092
59,0.013722526482779154,0.013005281089942523
60,0.01259322307114642,0.010332526335523604
61,0.013067877109476673,0.014659855830841114
62,0.012104750025554372,0.01286292914889206
63,0.012269519396397255,0.014854004153071799
64,0.012940293158234048,0.012876114959445588
65,0.012214970285185336,0.0175934810420732
66,0.012797708453187685,0.009524764593443653
67,0.012062243296862316,0.007893200046379169
68,0.011975284913170644,0.008812163644797377
69,0.011631590640284031,0.007951872291715246
70,0.012009583152480704,0.010373149769146939
71,0.011647189920433133,0.005707300646302614
72,0.010918881645691183,0.010834790923542269
73,0.01159867838158724,0.013269346822626541
74,0.010948843614523597,0.01565937297279052
75,0.011578990838495638,0.006769467939070669
76,0.01180302681277419,0.015287169838219811
77,0.011282571466925512,0.010866719677356302
78,0.011481781423145489,0.00811320152383624
79,0.011277284836943754,0.008147322033600324
80,0.01084517353928263,0.009626081974878496
81,0.010942968388953858,0.006285595599541348
82,0.009939343707139442,0.012705837335252301
83,0.011455245865069682,0.008526890648524523
84,0.010412125015273232,0.00647133613011161
85,0.010272384597566261,0.013016415376954174
86,0.010402757033287323,0.003729469440554011
87,0.010179969293774842,0.017686118485719177
88,0.011043810876917174,0.01122705480370497
89,0.010941825794159539,0.0068620791333126995
90,0.009543940305432898,0.004084981941186544
91,0.010587068503260237,0.011526899085907176
92,0.009766240165454241,0.011760311119622995
93,0.010588137407341956,0.005825982904304246
94,0.009908065025833883,0.009098677488739272
95,0.010185181931815862,0.009152682171730235
96,0.009706072896781513,0.008368427960397624
97,0.010358956102899712,0.005809105084451899
98,0.009478409981655089,0.015886917197231523
99,0.010692279050435623,0.007215721032493281
100,0.010130320253281696,0.006969111072577259
101,0.010313561682192553,0.013185242526144988
102,0.009667113388543851,0.008537065508998137
103,0.010058254113146882,0.006343058063468551
104,0.010176972068621398,0.013079892282374939
105,0.009701124250071405,0.01730061620297447
106,0.009696489251829195,0.009858230841158645
107,0.00940316018257975,0.012720386394032739
108,0.009632190907106762,0.009519996984487645
109,0.00969116119874476,0.009853826600531941
110,0.009707281819647468,0.005855310274230724
111,0.009201419618569589,0.008518943664542125
112,0.009056334521790459,0.009770659474037064
113,0.009408972051599882,0.005641403965998938
114,0.00980309729542893,0.009672331494362267
115,0.010170724968962687,0.006620145704223823
116,0.009385866815593544,0.01061465206314187
117,0.00889729099788537,0.0066854823149164406
118,0.009345594050119267,0.007020641500887409
119,0.009568860995948768,0.010952583007696772
120,0.0094755500509254,0.00651031966124909
121,0.009186647073414139,0.005800973455294461
122,0.009726816213032384,0.005480588045141762
123,0.010023582092248838,0.013843712481451768
124,0.0092407579437534,0.007596104714178554
125,0.009718806571814773,0.009965703061148936
126,0.009270466846521113,0.0063645656385268624
127,0.008844852601799617,0.008161474854686102
128,0.009212527779670958,0.005787778541375166
129,0.010183208229334401,0.010509892566763188
130,0.009644337899169231,0.008498989998259314
131,0.009346231630501552,0.011253695208770417
132,0.010004324380488549,0.00476518494919407
133,0.008476460145579444,0.010703860957766483
134,0.009673582707277889,0.008316745499741424
135,0.00976155136202311,0.008345966391638803
136,0.008366115990174498,0.013423285354443348
137,0.009595001545019275,0.015193153672573035
138,0.009177234348953425,0.013105118717783628
139,0.01006588601028185,0.005889046745008738
140,0.009376278157244703,0.014754646895093154
141,0.009270639209315734,0.005493016131428065
142,0.009235257332173766,0.008435043237659413
143,0.009131835348406087,0.008078661773371456
144,0.008978421355394436,0.015586758822631958
145,0.009343008024634407,0.007000628898130478
146,0.009054033196721819,0.009871115268523427
147,0.009255250245217327,0.00954148091630159
148,0.008773172650278526,0.006176984049350423
149,0.008606551743807088,0.005276708891607921
150,0.00945720426039584,0.01022382971228651
151,0.00864162105902416,0.015492658030121178
152,0.008468298906114974,0.005796820740123598
153,0.008945888351946086,0.01227649473221333
154,0.009253985017815755,0.01106054052025456
155,0.008579970720383398,0.012702001699032564
156,0.009504310021230535,0.011831533650396468
157,0.00950169285115742,0.00430717493055334
158,0.009163455800157037,0.007216815680894639
159,0.008695233391961165,0.008340619165956057
160,0.009731740011259628,0.006872648614713806
161,0.009008152933186776,0.004943685121716669
162,0.008240107758373446,0.009968562867571824
163,0.009211557601086443,0.009950446672061342
164,0.010101326089501261,0.007094553956981005
165,0.00920127496569247,0.007933358453073037
166,0.008859224427550239,0.00765985373632531
167,0.009503221746141778,0.016171295912502645
168,0.009196854841658662,0.006884050995093824
169,0.00918420142024014,0.007300820017870054
170,0.008962777650004609,0.009920224333483352
171,0.008543802420240191,0.007687919243917328
172,0.009884897179322408,0.025042899580703257
173,0.008965763317191785,0.0058116541856395604
174,0.009415234823217638,0.005004188129656317
175,0.008280542203326443,0.010942439015751856
176,0.008761009545162988,0.00905464295056761
177,0.008283533568164225,0.016757625973274036
178,0.009500563410270831,0.00943648593387057
179,0.009182727241666792,0.015965571602028755
180,0.008725237320467597,0.006240357919033814
181,0.009045571962324568,0.003387769558683814
182,0.009109124601211884,0.009079252859252639
183,0.008954166561915285,0.006766684470226328
184,0.008932679047738071,0.010916987879476682
185,0.009080408633571955,0.008071606156608088
186,0.009116198851739605,0.0090659828011267
187,0.008954199431143957,0.008263339227890182
188,0.008993301408750256,0.005579636308740187
189,0.009341252823661772,0.007342430182983297
190,0.008829407913008814,0.010191552010941853
191,0.008594454844206047,0.012502533967306084
192,0.008621115600027674,0.005913097948723876
193,0.010082559737966483,0.00796796844929645
194,0.007811496600428288,0.008187602893776468
195,0.008947398583907232,0.009876981648839217
196,0.00797891216495891,0.0037163692096876012
197,0.008608395163956985,0.006792180135775572
198,0.008391191970633654,0.010351667571709959
199,0.008493940383910561,0.007889257392962923
200,0.008788133366424278,0.006561391701702772
201,0.008078989614699062,0.009612197201219759
202,0.008708842622256166,0.007877078926486229
203,0.009144573911859227,0.013937571302832538
204,0.008328585337168522,0.010284462945878318
205,0.008556137179794292,0.006519061976701209
206,0.009058049104052137,0.011497316293965294
207,0.008856683719637458,0.01016543211522729
208,0.008145327534363549,0.008402259831832046
209,0.00857646055796893,0.013519968225928677
210,0.00832264717613577,0.004614710940846375
211,0.00835155695360407,0.011276973229145665
212,0.008917276331463265,0.010761779081737938
213,0.008060815912350524,0.01744598388045603
214,0.00841454113507904,0.009387318320548853
215,0.008080506157747906,0.009045333633877061
216,0.008168018105135356,0.005004857484862832
217,0.008472705305052204,0.008527868211228215
218,0.008472608442107092,0.007233863867357691
219,0.008011518412535425,0.007859679259471565
220,0.008351477312868078,0.010944580779085267
221,0.008095125614103008,0.009038754781868365
222,0.008697543971536072,0.006409328548500833
223,0.008016971018009758,0.007371894520175979
224,0.007908933230010951,0.003335715343936066
225,0.008205719679935749,0.006337196075143594
226,0.008549687429815144,0.011367342284871023
227,0.0085600170084081,0.004219852947838011
228,0.008056317292098745,0.01400163706947756
229,0.008501497071815564,0.01077588751541646
230,0.008384049364955995,0.006569729269656405
231,0.008541896728594765,0.010286266425949387
232,0.008324137433237738,0.010495062533768971
233,0.007846507221199036,0.006709208945363713
234,0.008021371414252876,0.008577012014814197
235,0.008611840880021817,0.010838210429105358
236,0.008379585726624377,0.006785850166677605
237,0.008437056158710984,0.007513974802076064
238,0.008379970770347848,0.009045523114284852
239,0.009089193095342903,0.013403893602775276
240,0.009090170683190346,0.007841247684103984
241,0.008091153438220904,0.004875307158811786
242,0.008251297636981979,0.011341384706846728
243,0.008324393405684,0.005481006823121419
244,0.007763275052893529,0.014419637304372738
245,0.0077834947380519435,0.007364760551766302
246,0.008658571554179251,0.010400401889225254
247,0.007743232714240815,0.007342908520768996
248,0.007603747818115012,0.005231652248594925
249,0.00840362088310329,0.008350903174201146
250,0.00806257520414454,0.008718068351647165
251,0.008936663808525919,0.006796984227290399
252,0.008989332129432114,0.006340709170172228
253,0.008106212191329116,0.009556074740678284
254,0.008452010145985992,0.009275614569917757
255,0.008148096948876965,0.010310640809991365
256,0.00801685254452832,0.010413415963749012
257,0.008379362639598846,0.006222677369320496
258,0.00855414179298166,0.014595985209720757
259,0.007558719184585392,0.004638898817068165
260,0.007811646083936387,0.012314455263939964
261,0.007771850040600859,0.015117439665576559
262,0.008453925049098449,0.0032983724516320273
263,0.00858923635115366,0.00692404406373084
264,0.008014373969641045,0.007811315298880191
265,0.007808129895656413,0.005400458431634361
266,0.008445885010360688,0.005130304441138244
267,0.007918875439365735,0.00407745730629501
268,0.00811691134911236,0.0077747917750992926
269,0.008537518062374199,0.0070858823966849435
270,0.008016847437794813,0.00638678655301786
271,0.007504831672256007,0.006213994894100275
272,0.009617781573753927,0.006735222568866321
273,0.008107256464311015,0.011777971592609019
274,0.007542325872377002,0.01387687284284769
275,0.00822449420287693,0.007891903251730017
276,0.00819305357548202,0.0064380713668670255
277,0.007958727737823182,0.006407672558097432
278,0.008154631772679355,0.005649766268395328
279,0.00731397767310782,0.005865248543119915
280,0.007393030521960901,0.003819538364164831
281,0.007484562205635368,0.004221936705284815
282,0.007970337902078871,0.008791375043048525
283,0.008029024493392947,0.010495376593088577
284,0.008113418371032485,0.008908570386122415
285,0.008487574244420574,0.005504575693258029
286,0.0080020526383291,0.008486033352966632
287,0.007666531564882971,0.0077149418370846745
288,0.008201827660748671,0.0075796779848623435
289,0.008464565860657698,0.0060777483727039085
290,0.008192834374550685,0.005483431429929308
291,0.007933999269941656,0.005640244167283377
292,0.008216544936078308,0.0035017226547393843
293,0.008015812355760696,0.0061585356646027024
294,0.008029949226357835,0.004699813744131161
295,0.007598177427973161,0.0061138990969524295
296,0.007798260292890731,0.003612661356401895
297,0.00819678099633907,0.012899350452853547
298,0.007397247350225292,0.007903736007885732
299,0.008248640117693325,0.010310918374256111
300,0.00821024120711222,0.009855445955851319
301,0.007795129957425369,0.00899471256267441
302,0.008133743566067832,0.003601801626335744
303,0.007301229673080804,0.009667415353421771
304,0.008718770562684525,0.01021987489544461
305,0.007401544982169142,0.008279208770872997
306,0.00768680474860482,0.005646772495593697
307,0.008108689263798029,0.005115891774438598
308,0.008143025949198327,0.006455632325058955
309,0.008486341144390803,0.0066441812871528266
310,0.007001421573072326,0.004943665028450498
311,0.00797558807992011,0.015137684734386776
312,0.008323598314161532,0.005855504121637265
313,0.00853694919690335,0.009101018965267816
314,0.007398718745346448,0.00534789424812996
315,0.007505565980835695,0.011873428156303907
316,0.007983962293073302,0.010741373431452072
317,0.008484181435536788,0.014342300508585894
318,0.00763553462959424,0.00786629788196795
319,0.00851531996414792,0.012743365796519577
320,0.008121976281328649,0.005663089396471735
321,0.007631469127196494,0.008167709747289661
322,0.008770233166938592,0.0058744667629375405
323,0.007591714358536436,0.004633131585853511
324,0.007365036652506077,0.01037318562984396
325,0.008465545998940574,0.006419065174291641
326,0.007650591847713855,0.011749132430502865
327,0.008062479781827404,0.012242087467346448
328,0.007677631634700713,0.011587875468866648
329,0.00701031025205415,0.012546116784626608
330,0.008316535591635463,0.009926718486224513
331,0.007896202869045523,0.012953909885082408
332,0.00746964703896176,0.009605562468753994
333,0.007674059112199681,0.010414538400037466
334,0.008094158609766963,0.007985232984860322
335,0.00795714052806837,0.004648943064879882
336,0.0074399396385193516,0.004637404864296705
337,0.0074749555192898205,0.010644846595823765
338,0.008077145738845064,0.008694688132034223
339,0.008017420387014652,0.004548808038616943
340,0.007834107185219624,0.01040877906962841
341,0.008034034958313986,0.007156697539252471
342,0.008735689740768708,0.010659135525256701
343,0.007454924284853488,0.005772012603434645
344,0.00763903457658748,0.005430164286056746
345,0.007799656100688036,0.006080516518094381
346,0.007466256851888746,0.007056534563021436
347,0.0074204085518506996,0.005395950485629506
348,0.007343764581492723,0.004953992260868448
349,0.007851681762768013,0.007399881122988114
350,0.007590493087922569,0.008815801373867416
351,0.007755307295693935,0.006786183805088053
352,0.007451244759921291,0.008979942635269196
353,0.007482941451982753,0.0074024754693994815
354,0.007945280127356843,0.008761220555767217
355,0.007569163623783324,0.009002371977841234
356,0.007580622284199304,0.007564586803725764
357,0.007336318743214916,0.005728223133205944
358,0.008104181656208959,0.007961398975198887
359,0.006909412500313778,0.008822501193799648
360,0.008161298669199069,0.009349217211302802
361,0.007482689722228221,0.005576144259984604
362,0.007845577150065865,0.006258436963814821
363,0.007455011141106045,0.004570636692278281
364,0.007431661300409546,0.004213298330062907
365,0.007520834644634774,0.014772473048674562
366,0.00724190318103445,0.011891976960338564
367,0.0083999881455913,0.009627511832148612
368,0.007223858202671369,0.008721617760538068
369,0.00775698191288272,0.0037729265361262786
370,0.007644510076237585,0.008410026613716991
371,0.007939657087897142,0.0062771224131588635
372,0.006963926681578323,0.0038817015508867524
373,0.007212042168481089,0.00973983736813139
374,0.006998702408520685,0.008627503887612752
375,0.007137554918332465,0.005806160713645211
376,0.0075204182307509115,0.004753583404525891
377,0.007375242506272251,0.0056471616318618445
378,0.007801272928976058,0.011380376946254565
379,0.007552215898447454,0.0056329168061025284
380,0.007368104294133034,0.010595340046505338
381,0.007534644762735269,0.014645817675631443
382,0.007150498231211089,0.006571367732524848
383,0.007515523566504856,0.007608761791148662
384,0.00746690028718934,0.007400099766582556
385,0.006889070518579867,0.00741395206266357
386,0.007132690360335608,0.008940904234383835
387,0.007874660726489988,0.007987721142121653
388,0.006973203848306683,0.004659798382924783
389,0.0074708977727022926,0.007592214003863914
390,0.006999606038998369,0.011609269181838305
391,0.007382974908123244,0.008642618884733087
392,0.007271844071853864,0.004489822961881039
393,0.007376385802536351,0.00874749482840876
394,0.007757024400752875,0.010162653203762556
395,0.007678030676459321,0.010215565768065373
396,0.007421784221100138,0.012652480543312495
397,0.007648757907456244,0.02149198190606807
398,0.00786275751806861,0.009727771316773324
399,0.007269312273342457,0.011240810574853429
400,0.007655038245503964,0.005668100508057822
401,0.006731467725758215,0.005028245468559986
402,0.007061895309406951,0.008726388245421126
403,0.006918824581186668,0.005750924316856014
404,0.007185466018960261,0.007892608780769635
405,0.007444855212855587,0.011333617139181332
406,0.007223205377279277,0.009693194516649985
407,0.007883334267351457,0.015074121016029918
408,0.007453462730688925,0.006290668539699952
409,0.007449675296756367,0.006010124911925364
410,0.007477609953805089,0.006957261849579937
411,0.006898697095288099,0.027220476852419722
412,0.00736236827234722,0.007429453371579287
413,0.007487784488871842,0.005579869661644842
414,0.0071480255862467175,0.008393550375821958
415,0.007091262900318167,0.004349688572651797
416,0.0074711857232556255,0.012269458706301785
417,0.008297374502451962,0.00578080838907807
418,0.006671374740762462,0.0061855538951816665
419,0.007771716224259327,0.009428660835903182
420,0.007518045110185054,0.00843279103468442
421,0.007223086079212574,0.007096542123023012
422,0.0070378929822349084,0.00993512040805351
423,0.007549197336161534,0.004862985754166542
424,0.007212763434264073,0.00528428155374614
425,0.007036925280570156,0.01046863610723189
426,0.007419887926153315,0.0043408931166833324
427,0.007127709792283692,0.007753242494872145
428,0.006983986228341899,0.008919613938278797
429,0.007000263403750492,0.005493154702597866
430,0.007050056830696243,0.00502909789885076
431,0.006820052410325156,0.010842226803649714
432,0.007154492879158733,0.009052265175980616
433,0.007312842237623148,0.006322884200406926
434,0.007266936038690005,0.0048633524446050624
435,0.007426116193423597,0.009359215324466728
436,0.006731580426398334,0.003932662644690371
437,0.006582136076560868,0.004429079222308373
438,0.007558784286434249,0.005167833478693522
439,0.007511946162470221,0.011774443986001642
440,0.007589839660772141,0.0074584594105929726
441,0.007356732836005082,0.006224608694915472
442,0.007759973361379475,0.00630170147389691
443,0.0065698969499137306,0.009048440062162344
444,0.007260194078250099,0.008151713400732228
445,0.006902118662199516,0.007748704263977207
446,0.0070199462823658364,0.010283927208999056
447,0.007009338928021038,0.009135751252892503
448,0.006659450051620406,0.0037621059851910576
449,0.007876359339193742,0.004618222542965657
450,0.006699893965112637,0.0031017282078720353
451,0.007332973543219164,0.007832880972442823
452,0.007642367499605786,0.004884151017459458
453,0.006760961355564804,0.005165638463114459
454,0.006426043359688941,0.013077873567555867
455,0.007305720434274724,0.008597270831474543
456,0.007150883453791674,0.01253525329784629
457,0.006941348837177119,0.005182680780113614
458,0.007191871065735001,0.009023434923551595
459,0.007120768679101184,0.010841262684113272
460,0.006835960271990866,0.005960483452042046
461,0.0074049794100422995,0.005469857236177858
462,0.007458674846349923,0.012506062973470037
463,0.007589079668003914,0.006524175856462382
464,0.006632305439289877,0.00393345750369949
465,0.00697736939473776,0.006415211577953414
466,0.0067377881320799405,0.0055513596474601
467,0.007542648163682176,0.006652330845188652
468,0.006789702471799041,0.008208959553046733
469,0.006810436525819846,0.0033219814991127133
470,0.006675336925213491,0.008287090179675804
471,0.008185723749678776,0.013537591751062127
472,0.006955504673188828,0.005140849904781288
473,0.006748724002506492,0.008854021605665795
474,0.007142049144952745,0.007645691694263971
475,0.007119127747258074,0.010680563532509903
476,0.007041884713890337,0.004348828820232376
477,0.006934641314083063,0.0072573047126154545
478,0.0066221784630925845,0.007043701940566748
479,0.007426264718808472,0.004086749562030715
480,0.006858275690991476,0.004888815083853377
481,0.007094582946043086,0.01405068342048372
482,0.007485530848207651,0.007915196823795644
483,0.006911417560951172,0.011571706854830178
484,0.007343794189603459,0.0028903641307619185
485,0.006745325610060975,0.006715891032678905
486,0.006891128901436144,0.008165073358316354
487,0.0065382092153645315,0.009757720561728953
488,0.007061455458634161,0.009987083149025688
489,0.006808643900764381,0.0031222591980418516
490,0.006987254198310788,0.00666820549427428
491,0.0067921796001956984,0.004914904525613775
492,0.006694933458510191,0.006835572909998936
493,0.00668771848228457,0.006664468860878494
494,0.0074143621275464975,0.005495744313744809
495,0.007254653697437737,0.00864474068306851
496,0.0071456623375326465,0.0027757661882787943
497,0.007023847367896287,0.010303819786548473
498,0.006864500093850033,0.008397843106557933
499,0.006618637292559142,0.006484294303596584
500,0.00688204352746157,0.006524239160302783
501,0.00676711597534784,0.009964199089125422
502,0.00678612424410972,0.0029371734214218917
503,0.006855751030712122,0.007200578741079465
504,0.007243787685230889,0.005670347083771591
505,0.006901262709751821,0.006979486418060294
506,0.00694016299711512,0.008826490118952604
507,0.007177371455789756,0.005415501165252999
508,0.006946240340900733,0.011705415528458737
509,0.0065966347211243795,0.00295875131942026
510,0.00686518930051912,0.00547041850540884
511,0.006813524062369319,0.007778597472275254
512,0.006312334580703539,0.004704920989229699
513,0.006933856160948716,0.006384512399276975
514,0.006576573365363482,0.005365611361626362
515,0.007230301492205031,0.005293402621256453
516,0.0065169452448009995,0.005979467546104233
517,0.007691759050763819,0.006865077738774369
518,0.006918347767572091,0.010123110959201981
519,0.0069577564950846285,0.006255068558238112
520,0.006245963613185913,0.008372780162364762
521,0.007377434611621258,0.007289222554078042
522,0.006400273611285551,0.014247494505684537
523,0.006469130630699469,0.007698537384166478
524,0.0073520844018899745,0.0038424023658981004
525,0.006839003981754398,0.0057426234350731594
526,0.006694930562737221,0.008378751490679705
527,0.006736202750073598,0.005762969741660987
528,0.006914462740935064,0.007198180539876035
529,0.0063200457349902005,0.0030376200083475605
530,0.007672054338180345,0.009691066506312133
531,0.006855782053999522,0.007825668543597775
532,0.006353579999960521,0.006918063675051212
533,0.006680726327218315,0.010904428179375092
534,0.007056064798580788,0.003117298844822439
535,0.007206984892968449,0.004119487857334345
536,0.0071663276541685545,0.011995895850253839
537,0.0075136647826033855,0.011118674078175612
538,0.007449721461526758,0.00785794168462258
539,0.00683282827688597,0.007502900041792698
540,0.0072632046446366475,0.005265937539606981
541,0.006756511528408237,0.00725455350156553
542,0.006965850219432024,0.008555474990997949
543,0.006570118893351819,0.006203163420338986
544,0.00656887357427309,0.005957447487093514
545,0.007051129086068917,0.005580688277649052
546,0.007015733120672264,0.008991632785504036
547,0.007286522492755586,0.006464823354226732
548,0.006752053478477354,0.011933837385132215
549,0.006945900837762384,0.0034828172758112836
550,0.006782009263245983,0.004559283070530869
551,0.0071216444269925966,0.009021006312865202
552,0.006727459630026273,0.009274108538987746
553,0.00679070855338993,0.004510885536017951
554,0.00689843685967739,0.0070944265241939765
555,0.00709310651495889,0.008189204101169212
556,0.0067799251645149815,0.0051498871760467845
557,0.007141803235126783,0.006578787686060687
558,0.006740790226529884,0.008107934441879074
559,0.006673937003656054,0.004910707042641473
560,0.006617759720595043,0.00392190291988792
561,0.006505930471773015,0.008180106215652346
562,0.006758878501947317,0.010139429376511331
563,0.0072083713025316975,0.004859036580022151
564,0.0067007250831291965,0.005762624701715847
565,0.00630498859531832,0.008910696446342833
566,0.007068515397428865,0.005669453214771675
567,0.006555293544402553,0.003944891608770769
568,0.007240132544841841,0.004839469898850808
569,0.006409189467708082,0.005172041764125616
570,0.006566952708062622,0.0045924536237344675
571,0.0066229972851944326,0.008133679659979826
572,0.006867669993448708,0.011853768297668838
573,0.006756443786137044,0.006675809906647139
574,0.006781947971276975,0.008478870785897326
575,0.006784722159935279,0.007465132020028704
576,0.007342777702102004,0.0061236916359105305
577,0.006282129337442376,0.007061323973525906
578,0.006657405865663807,0.007896243682426666
579,0.006989079593255711,0.008924565508802905
580,0.006621541365354637,0.005335673526291101
581,0.006946621958700885,0.004968032318784105
582,0.006832950024699552,0.0037681727580823176
583,0.00677432786791677,0.00638797650835532
584,0.007070195824216804,0.0029528657843277224
585,0.007285845261975396,0.006927395189488226
586,0.0062298455087060065,0.011762497137317576
587,0.006698288943208709,0.008142827207703311
588,0.006706048153479659,0.009195748105021847
589,0.00666839106910699,0.006980891458193265
590,0.006855673690923571,0.004797813227516323
591,0.00678259497232025,0.007431910218907654
592,0.006888237833935056,0.004320403858144557
593,0.006512235596606271,0.00272180816587193
594,0.006857556351877415,0.00822809174356963
595,0.0061587843072260446,0.0038697173421645293
596,0.006524468242195617,0.008962196328081103
597,0.006953645804372105,0.008192588711905733
598,0.006645336442730865,0.004712306929277381
599,0.006359218721196865,0.00869413314096118
600,0.006664325865610934,0.008729976210478567
601,0.007766580934195945,0.009636143058532557
602,0.0068135955852071505,0.006061145139015746
603,0.006418347976607479,0.0044919651868329
604,0.006647090701074403,0.009228195126250022
605,0.007164076027787215,0.009572962190935296
606,0.006920131203727045,0.0046351322674155
607,0.007310750040070837,0.00736157256660023
608,0.007425462147578311,0.005585478520977892
609,0.006973618438955378,0.013016550964142923
610,0.007216911189716687,0.009839269873592783
611,0.007068829669151455,0.005037741634139134
612,0.006792903418833617,0.009179230509641938
613,0.006816481500748637,0.006617584059216323
614,0.006648733847414245,0.0024970554490886107
615,0.0068475271562683125,0.004637395968218205
616,0.006365819495302706,0.00424521016570774
617,0.006861554278670508,0.006754468430727485
618,0.006190126750487566,0.0054483253089086265
619,0.006901732758854514,0.005214876272945703
620,0.006703042281533984,0.008925801283446888
621,0.0064319473497538296,0.004626215324937804
622,0.006840878976884929,0.006788748420477972
623,0.006689682471391698,0.0049028955616833144
624,0.0066786681485774034,0.005232016085893292
625,0.006828940998854787,0.0045513621514520495
626,0.006669766348025439,0.004195915168664332
627,0.0065177060191152535,0.005971201185736843
628,0.006901779288551111,0.008198922944358818
629,0.00669277533908359,0.007903919737909545
630,0.006614769332910807,0.007512875265517546
631,0.006914264033846319,0.0070194118496709765
632,0.006468807214185772,0.005778636705077414
633,0.006450083296594146,0.004657958049824037
634,0.006286189328398195,0.00486514560147626
635,0.006905953402303049,0.01153973392310134
636,0.006606705096908744,0.005248297956325966
637,0.006365808498056279,0.005362769218724759
638,0.006789883951560485,0.003937778961730808
639,0.006974795592629048,0.005476104855999033
640,0.006299038662984267,0.00500542994246075
641,0.007012338419690531,0.005010130328229895
642,0.00673073500716429,0.007941700422205766
643,0.006737235895016317,0.003642705238285315
644,0.006806680011275641,0.0036737420596182346
645,0.007157904011311663,0.012916480095494001
646,0.006687869515949689,0.00778273269004867
647,0.007457879398090335,0.003405032295920396
648,0.007103170673318243,0.006300630052327733
649,0.006966705151361233,0.010271093822080692
650,0.0063710904668653305,0.009891357392678369
651,0.006642697997129545,0.007332645348201917
652,0.006871578886855221,0.006510722140716161
653,0.006078664191876078,0.004215015184454732
654,0.00671959558766496,0.005480206173851251
655,0.006199784123422139,0.007149913930058503
656,0.005904916465076969,0.007900447273757764
657,0.006996395045442493,0.01233902021186998
658,0.006848177605522253,0.004597213230446428
659,0.0063958149842101245,0.005210291051791706
660,0.0070653658385461515,0.005895078574008093
661,0.0071592092600861025,0.005639163719162333
662,0.0064068176575823215,0.005589298867556577
663,0.006822624827221819,0.00713472365495038
664,0.0061460566754135745,0.008880774631667015
665,0.006663999684117019,0.007287101379074539
666,0.0063550145357201765,0.006247709195431684
667,0.00622962866786035,0.013997381619209366
668,0.007435953250150386,0.007149655008784127
669,0.007214035003741594,0.006869343642715802
670,0.006542556329031396,0.006578716449807056
671,0.006544591345303922,0.008003197643823552
672,0.007263008762224705,0.009931508482572782
673,0.00710487453103941,0.0030818623088185557
674,0.00626368771300098,0.00762446776646959
675,0.0066623324282198615,0.006451853067667798
676,0.006417918840697189,0.0039474633123561
677,0.006442569764249092,0.006153964132126406
678,0.007091140115840567,0.007740916621789701
679,0.00663326451193644,0.003710535031852872
680,0.006521218210655293,0.003586071751785377
681,0.006103911575843408,0.0038432133394707326
682,0.006362707069650632,0.009503515562940839
683,0.006718728653883723,0.002155094021316044
684,0.006995647148049394,0.021325473002530782
685,0.0070374290696899894,0.008725589942833924
686,0.006187059776969164,0.0063359421900610995
687,0.006683445738187041,0.005788766538640506
688,0.0073675996519522455,0.0033215080266972767
689,0.007308028228443226,0.0055546747982184435
690,0.0067912510022607375,0.006225695100707761
691,0.006725050259813693,0.008023572255414047
692,0.007225274316706716,0.004854539096511271
693,0.006548440707441744,0.002673730333376126
694,0.006285033806850263,0.011811734848283083
695,0.007380080896691768,0.0023385589112084426
696,0.006823764857761622,0.008208679918849571
697,0.007012584163594416,0.005879236990181639
698,0.006576459253175954,0.0058780005701538985
699,0.006384532391406346,0.0076317047364362935
700,0.0065361307203422765,0.001929901712651246
701,0.006381127825877864,0.005239443576746953
702,0.006303815774742043,0.008853330375772225
703,0.007654669593867409,0.008648596298619929
704,0.0070018053520936145,0.01120759504049687
705,0.006342994392342154,0.007718852330837178
706,0.007178071045430659,0.010301856603399918
707,0.006921807475809416,0.004989759200829616
708,0.007341265534817559,0.008311132655273931
709,0.006985638757002913,0.010490717544957654
710,0.006845989961923062,0.005091453902423382
711,0.006249064735850122,0.003621807741993581
712,0.006419045962536593,0.008761467544425165
713,0.006301102436865665,0.007632198614151391
714,0.006346853408250782,0.0050799985270691414
715,0.006568351709231776,0.006679994614990377
716,0.006522989095963663,0.009905810200336559
717,0.006551097239619664,0.006175536185285428
718,0.006591426545438051,0.0068509024770043924
719,0.005817898885078198,0.00937733226826954
720,0.007045849613907884,0.013779107960501146
721,0.006243047402301754,0.006732073010128482
722,0.006511974001513998,0.005104196145424903
723,0.006316635187379911,0.006264834792295143
724,0.006714028811423208,0.0030073919146076937
725,0.007245835130769971,0.006812076843634024
726,0.006202265279546981,0.0071809917031225015
727,0.00661818951777414,0.007063963929751348
728,0.006132812787061014,0.00376186962992882
729,0.0063313112536863645,0.009497835688975116
730,0.007243219382759797,0.005092869253995246
731,0.006483695866315991,0.004328621236420727
732,0.006733014875148936,0.004035554397718918
733,0.006786119896448779,0.004433387632451617
734,0.00652093276977807,0.005991760633618298
735,0.006464326156315942,0.0044419210905469395
736,0.006602852863704802,0.005443457933032522
737,0.006401720879494111,0.004183776881736898
738,0.006065127591527685,0.005265044782754701
739,0.006436077796453558,0.005232494452346378
740,0.006516365504687389,0.002235845742131941
741,0.0064326263806443185,0.0024257834643146114
742,0.006369196092166442,0.006060430215526116
743,0.006585576003871495,0.006111761752072054
744,0.007176283887707718,0.006352406318557479
745,0.006314143065741355,0.005422145382581307
746,0.006757225163776403,0.007944165896947753
747,0.006290293248177846,0.004923418912178033
748,0.006954080885048021,0.005176500184277709
749,0.006244965808622042,0.007965976170586876
750,0.006388360341034865,0.014207140069187347
751,0.006901993746791097,0.010208558824116212
752,0.007046608673352793,0.006997031050909901
753,0.0073320928281344335,0.0071289117397312675
754,0.005912049664564127,0.004615336421350842
755,0.006305288659532641,0.005891866951478144
756,0.006663077638289489,0.007749008546614962
757,0.006327118333555657,0.006837023659546778
758,0.00644298714258411,0.00682296564629053
759,0.006418008923171003,0.004043906585489059
760,0.006242061184319429,0.006569098795881023
761,0.006917220506052911,0.012521485450376934
762,0.006575559056950264,0.0035648459394777747
763,0.006946472002086874,0.01906929050602354
764,0.0062259719146863755,0.003999343354713639
765,0.006595569028374668,0.006318204173628585
766,0.0064507772666599445,0.007485239205318897
767,0.006152627866068999,0.003509128152744899
768,0.006508362698705597,0.005741098521155288
769,0.006143213652218018,0.00622551362401414
770,0.006671883916626755,0.0052875083306658755
771,0.006816003187042143,0.0051849138479747444
772,0.006353682425762001,0.008114531165798912
773,0.00681395171451934,0.007182504270952004
774,0.00661855930736814,0.005735876730730685
775,0.006520531495841746,0.00542599356666372
776,0.006099303362151827,0.00437417748015177
777,0.006429356251268921,0.004452448086327952
778,0.006321739109562819,0.0035418662137477624
779,0.006410107860225532,0.008582496173582801
780,0.006294020669034896,0.011042794922768082
781,0.006804170071346154,0.00931597732877816
782,0.006375071743429139,0.004411887149264023
783,0.0066955805782952325,0.006030012341105948
784,0.0060964000903979704,0.004794889728405646
785,0.006602714466639042,0.011631274594386544
786,0.00674431566443059,0.005788977006148921
787,0.0066244145733867135,0.005504317442727023
788,0.005749324588555482,0.006207024512464077
789,0.00624081381340902,0.006983278640828903
790,0.007034541909919038,0.005190914451573176
791,0.006613951442643351,0.007644209610526145
792,0.0067119031500028105,0.007414591561888228
793,0.007580084959277697,0.0041810888311904345
794,0.006167428776920348,0.006555908703228316
795,0.006904490379034821,0.01351468157076116
796,0.00655142435211045,0.003856484506436533
797,0.006362691832411153,0.0038686454365575345
798,0.006473582146390022,0.006516938932437006
799,0.006690322128777801,0.005556565089387953
800,0.006484642873738158,0.0052895364891840605
