epoch,loss,val_loss
0,0.1515738518788017,0.06088739901416492
1,0.04783436366551214,0.026884916256863296
2,0.024676631957435493,0.023955883755221456
3,0.024103166527307623,0.024739547121767087
4,0.024250391797035288,0.023997696570834497
5,0.023937575992563073,0.024717363123888562
6,0.02384099590448405,0.02375467525590755
7,0.023805566175991923,0.02362296667211669
8,0.023871540466396453,0.024319531249019134
9,0.0239085155501247,0.02680657223754966
10,0.02396861177539344,0.024258340234796928
11,0.02384556600560459,0.023073618578847318
12,0.023736127247240283,0.02351770060461811
13,0.023731080229304057,0.02388410002504782
14,0.023799774513172684,0.023765686214346535
15,0.02360068223730242,0.025170448933740534
16,0.02374740496358211,0.023318700837860827
17,0.023631747601349815,0.023946532903161215
18,0.023772127040439277,0.023588367622425072
19,0.023622022260525385,0.023267263772984895
20,0.023701827927715153,0.023638893949380988
21,0.023508772029162503,0.02300429238034405
22,0.02358922051216701,0.0232639270669236
23,0.023699301708159114,0.023088559205478445
24,0.023514564259262155,0.02327636614053759
25,0.02361968775271631,0.024043056711072326
26,0.02357941796090439,0.029087165748405006
27,0.0236489446669948,0.023190586146293612
28,0.023609344378488956,0.02424586459776738
29,0.023432593795654776,0.023438037585558246
30,0.02356006817030106,0.023207637160169672
31,0.023610155966927966,0.02331761991415517
32,0.023532777522905744,0.02375633900230949
33,0.023549195002320764,0.02463050592387861
34,0.023403271531714478,0.025233548643227723
35,0.02341230371989292,0.02480675265980971
36,0.023554398493616464,0.022950731763276607
37,0.023476766201285578,0.024990500823463054
38,0.02341777420670485,0.023448894154677356
39,0.023433185810093685,0.024757090275305975
40,0.023487520669188668,0.02348205193012788
41,0.02350286177793543,0.024281277827736234
42,0.02334866438397496,0.023060222334965724
43,0.023477078951466425,0.023418245913538766
44,0.023378746601924908,0.023040947699132827
45,0.023385760232919363,0.02372208396274223
46,0.023357788100094198,0.023384459841564214
47,0.02337974469682915,0.023498204666841847
48,0.023428379957058685,0.02312608120261729
49,0.02336867055003282,0.02329723281754973
50,0.023335036473254935,0.02374870954750322
51,0.02336062448207947,0.023714129894607257
52,0.023393076949482627,0.02393449694153448
53,0.023314875703182913,0.028218343920106012
54,0.023420678471757782,0.0241122113389346
55,0.023371077371205834,0.02327809067356276
56,0.023313821795181357,0.024548378757597335
57,0.0233765020825082,0.022883008953827805
58,0.02329196474499268,0.02335727323749306
59,0.0233319888344045,0.022898181362905272
60,0.023309263713407715,0.02299646731692454
61,0.023353593462674644,0.02292909224583064
62,0.02333039310809186,0.02296958010770151
63,0.0233205372428925,0.02333470489080016
64,0.023394681009308374,0.023015090578251123
65,0.023255142607360627,0.023339268100913246
66,0.02336572512067098,0.024572304112582388
67,0.02327244813821251,0.023149034697871183
68,0.02326722636440699,0.02403572912386015
69,0.023407206120941756,0.02313503074359028
70,0.023251541627408695,0.023040567600442464
71,0.02330123040479698,0.023471102386054415
72,0.023310376711630467,0.022919767723663546
73,0.023255119679404867,0.023173185873956028
74,0.023341773186537098,0.025165039471158758
75,0.02323845094315511,0.02406373838787485
76,0.023224539159954212,0.022981004117625665
77,0.023344897285407538,0.02387204975030887
78,0.0232265234733526,0.02349009008191661
79,0.023261338779829343,0.02333140658727761
80,0.023262597046506635,0.023499553293965893
81,0.0231535327617082,0.022945380501372663
82,0.023249683892734047,0.022859780829408646
83,0.02327323749551265,0.023187215903798897
84,0.02320575686864001,0.022900663691131074
85,0.023222840188605657,0.02288330018949631
86,0.023292354949050957,0.023102335383396688
87,0.02323711009474276,0.022827313039760565
88,0.02317304203627731,0.02324685754861621
89,0.023221748461909622,0.02276672145767812
90,0.02328895506181782,0.024195585986444963
91,0.023170834424332987,0.022896557581782245
92,0.023288712977505416,0.02346355947147652
93,0.023257215393425748,0.02326267739668218
94,0.023146726485851,0.022890950949317184
95,0.023223507017058005,0.023190389176346977
96,0.02317118889195837,0.023001446871597088
97,0.02320099148681934,0.023309231567436913
98,0.023156853208093527,0.023203104466858488
99,0.023272221861816614,0.022896712529748654
100,0.02314558648671821,0.02371060527602377
101,0.023186363990781167,0.022942583334662356
102,0.02322855721012675,0.023272326171997974
103,0.02322245411780312,0.023433582285373532
104,0.023216391061927726,0.022931340670223396
105,0.023090414826473078,0.02329197954077747
106,0.023274741719196215,0.02399468484122215
107,0.023100921066759303,0.023179209527236885
108,0.02319399950181623,0.022868699744790676
109,0.023211460023802772,0.022946128315911956
110,0.023185718768119194,0.02319412871801251
111,0.023124703382559533,0.02298446149427823
112,0.023070877156615686,0.02301869412182868
113,0.023180652703110167,0.024337999505044536
114,0.023206849905590025,0.02410975492602742
115,0.023156416230945946,0.02304802693414848
116,0.023172498464012602,0.02323145972713299
117,0.023106818158122943,0.02289836595883121
118,0.023219883120317253,0.023331316595201712
119,0.023155786126828212,0.02321363848376058
120,0.023155317299341935,0.023087368610637718
121,0.02306468577997433,0.022903765755357852
122,0.023263315000176,0.02459963396097509
123,0.023077197628263994,0.022649826183503505
124,0.023200243402519624,0.022715949101319157
125,0.02312944957883738,0.02351475409110795
126,0.02317576914531388,0.02284091739417675
127,0.02312496429805061,0.023139964274609286
128,0.023171476263412944,0.023281365530102294
129,0.023159646312240885,0.02347931186885418
130,0.023087573941978665,0.02300312736563402
131,0.02329162551279215,0.02309540560838032
132,0.023090095470676558,0.022972465642002407
133,0.023179530444518506,0.023483384396195787
134,0.02306386000059134,0.024066653249648583
135,0.023181383187572163,0.023224268280610666
136,0.023145925651172655,0.02300096254416498
137,0.02309861837951042,0.024143394126888325
138,0.023060591020386854,0.02310278417208859
139,0.023170727071353047,0.02383522699780368
140,0.023143429407398764,0.02421432029200099
141,0.023278138950187193,0.02272897946700489
142,0.023076283802791274,0.023444075656330013
143,0.023099517364867872,0.023797630650691848
144,0.023111679616550224,0.023430574785303485
145,0.02313088758258249,0.02281434533657431
146,0.023089862234300845,0.0243609505040305
147,0.02319297647262982,0.02282652468071411
148,0.02304033709051226,0.022753816170010776
149,0.023138850642223773,0.02302058215746281
150,0.023047790225359986,0.022715810233552153
151,0.023205041996300888,0.022837513521160775
152,0.02309690187904808,0.023295192106758504
153,0.023050577532377936,0.023251663037849958
154,0.023116421340097434,0.022988045655761354
155,0.023178887961478493,0.023523837896894544
156,0.023075517022805057,0.02328008204116394
157,0.023149483083046787,0.022978964801980646
158,0.023077337836606992,0.022731468951786796
159,0.02309497087586412,0.022831782835352674
160,0.023086730790563482,0.023016284141269085
161,0.02316768252202194,0.022888421775639385
162,0.023109507650214373,0.023631623530820683
163,0.023014062587514247,0.024070014875755597
164,0.023161718825088273,0.02308099807755347
165,0.0230613484797027,0.02511870265065824
166,0.023142973479958508,0.022839632817347782
167,0.02314195706159901,0.023038167781369273
168,0.023110295297484176,0.02354095098963147
169,0.02309973953108636,0.023001907921110256
170,0.02324920159494348,0.022764906472428726
171,0.023084054771009728,0.023122080537801477
172,0.02311150987910257,0.024251928472128457
173,0.023077326986066207,0.02342509534048253
174,0.02310471280107943,0.023028675400620383
175,0.023076455379805738,0.022809670735282887
176,0.023217234748611443,0.02287286577192036
177,0.02295508464466301,0.022906857072989492
178,0.0232080563643782,0.02338569333457815
179,0.023100768928404906,0.022949953468688472
180,0.023155448193714727,0.024210880517124566
181,0.023052889106275558,0.02298413968006268
182,0.023159169594196678,0.02281986540675916
183,0.023014688351415662,0.023617244123436375
184,0.0231562432781648,0.023101527232091634
185,0.023092139693204877,0.02330951180952971
186,0.02303252986473717,0.022750212513233795
187,0.023165446584024352,0.023217242061150948
188,0.022990296448883916,0.022708875595370707
189,0.02307726746852354,0.0229260062118191
190,0.023116863887313363,0.022814826811968857
191,0.02308214726231748,0.025057849921903557
192,0.023123728412149144,0.022668854147489842
193,0.02318769496910983,0.024002243014200994
194,0.022971549325233265,0.023275072018203533
195,0.023150554605775316,0.023222400328319376
196,0.023041892688063313,0.02298557715256711
197,0.023065414839535118,0.023138273885178116
198,0.023006884477955163,0.023072405520535494
199,0.023145526060931308,0.022959200309585096
200,0.02304739777302499,0.023702960114429197
201,0.023094204462153448,0.02326012280899752
202,0.023079453507433834,0.02302017592734583
203,0.02315069975958263,0.0226985965535668
204,0.023067867680401397,0.02301469963593754
205,0.02304038491552706,0.024432026739243266
206,0.02312175118231135,0.022746531041405196
207,0.0230708273327191,0.023214844432560215
208,0.02317319507692024,0.02270994736609397
209,0.023091893757788015,0.022813239553097955
210,0.023027617458274943,0.022794931984397023
211,0.023043798824711192,0.02334427387816001
212,0.023103837786669686,0.022917335589828693
213,0.023053599501417266,0.022945578607723952
214,0.02315908750529579,0.02274748373809017
215,0.023054543342128645,0.022741847241557575
216,0.02311995392330259,0.023413386520795117
217,0.02307497769248762,0.02472509834224442
218,0.023049007157990926,0.02280569153278478
219,0.023083654352926093,0.022896158264181045
220,0.023079569903399638,0.022845218891620448
221,0.023050010438076408,0.022880018621847773
222,0.023087773266599047,0.025401995291649684
223,0.02309058928083506,0.02290017780830941
224,0.023040297578165617,0.023078050498204526
225,0.023062637148739146,0.02310184038728593
226,0.02300812525646411,0.022970314316257495
227,0.023025945182606804,0.02276733455019573
228,0.023162095793347947,0.023190533010187635
229,0.023013331889391517,0.022656893581093157
230,0.023144599901204058,0.023197248301688574
231,0.02305639382127187,0.023003620077174484
232,0.023056883140088177,0.022837917210906156
233,0.023026399132010225,0.023081923118294836
234,0.023113052185764798,0.024049182099767245
235,0.023119524534461165,0.023773422567636926
236,0.023017232916760836,0.022679214569392314
237,0.023142519003475647,0.023850157580558203
238,0.023078160265164314,0.025269777103141246
239,0.02318059467895926,0.02311685764993046
240,0.0230511285440563,0.02311081441020815
241,0.02312601008917764,0.023993612522143215
242,0.023026939431617825,0.022811124746664923
243,0.023053686729342722,0.02326096904823511
244,0.023064942134888196,0.022823722764038157
245,0.02300662503798874,0.023253955711458458
246,0.02307914633476596,0.023212103218710506
247,0.023023811613412784,0.02379756458044852
248,0.023257039456094482,0.022676001250708584
249,0.022922931903069443,0.02280959765255545
250,0.02305712216019297,0.0228034908035748
251,0.023052810982381888,0.02271187155938986
252,0.02309369142476222,0.022902647021572797
253,0.02300672606378198,0.022887876983540868
254,0.023034286262433257,0.023624999785315078
255,0.023161831242646532,0.023432141062586724
256,0.023071755266500463,0.023643462766541112
257,0.022977888743451937,0.022854024216520948
258,0.023160588813664243,0.02303287331617622
259,0.023019062540531873,0.023943942126942227
260,0.02308692836271916,0.022893314822426254
261,0.023061724938750028,0.02285034218310557
262,0.023064394963147352,0.02271043959837451
263,0.02310719131622359,0.023181150528442794
264,0.02307223778614085,0.022821918659165042
265,0.022947137440583833,0.02289422478265149
266,0.02310428095700072,0.022797754834146602
267,0.023025145011244537,0.023932582690676742
268,0.02300273875395457,0.023031642928060907
269,0.02316565174523065,0.022972464182170808
270,0.023181818243262056,0.022643138874313355
271,0.023105263832858283,0.022666509790256348
272,0.022912735572839668,0.02316187913570003
273,0.023055035766097996,0.02343500267652517
274,0.02307683201007944,0.022664033774736365
275,0.023003614180796533,0.022932930031369404
276,0.02311665063305534,0.023634585868728943
277,0.023154450095832634,0.022915200489825305
278,0.023033470899569426,0.02287473815075036
279,0.023002519013939335,0.023053104693000957
280,0.023021555026259116,0.02266180717431144
281,0.0230306656465387,0.02304164468859864
282,0.023170319696267445,0.023712424864226565
283,0.023028900151510986,0.023165784652720497
284,0.023000369898135142,0.022664773924057184
285,0.023070140869068584,0.02283453323746772
286,0.023082900240713602,0.023284236066213913
287,0.02302480874647149,0.025581506734394896
288,0.023029119984584033,0.024548185593797733
289,0.02305380805216128,0.02334496406242898
290,0.023025940586295392,0.023070704441843958
291,0.02311569221279056,0.022869173328567888
292,0.02301461233435084,0.023327940769181914
293,0.023057341074599304,0.022691402494636876
294,0.022960735167816673,0.022901364864565392
295,0.023072457491910812,0.022720192800898577
296,0.023039928951608144,0.0230427284408199
297,0.02304759242465432,0.02306217657609445
298,0.02306474566379254,0.022919543228614208
299,0.02306257445457504,0.02275411079431154
300,0.023015051774180336,0.022927216756221527
301,0.02304968179883264,0.02277432714060431
302,0.023025848890850537,0.023451284954549293
303,0.023034093075906106,0.024474783651324925
304,0.023093000724375676,0.0231398616732931
305,0.02298665122775961,0.023085205338677743
306,0.023057438325223258,0.023078288046471135
307,0.023104230815963113,0.02291465185041633
308,0.022991092154215707,0.022950469424335054
309,0.023066714491626675,0.023037637531722072
310,0.023072026681146034,0.02296545201561163
311,0.02310385902097328,0.025517118192074237
312,0.022979606337529674,0.022905214343458154
313,0.023257581245371525,0.02303308606494715
314,0.02297257922208614,0.023777088118039347
315,0.023010253186354773,0.022710230053000404
316,0.023001092614131056,0.022881174364495483
317,0.02306239722187904,0.022696246717186924
318,0.02302946798357484,0.022930090600108668
319,0.02299947288039205,0.022575767002205916
320,0.023059211503103864,0.023026584929124332
321,0.02304203948341042,0.02416094698176529
322,0.023022523583125152,0.02295289023822701
323,0.023032470732826077,0.022805257667305907
324,0.02300463298664724,0.022689926574019907
325,0.02310357475467175,0.022750001238995683
326,0.02300689817457605,0.022874767225362132
327,0.02298279200642586,0.023201427614314873
328,0.023045406160171894,0.02285699997664721
329,0.023043873528544184,0.022773424448664488
330,0.02303301351223823,0.02285109888012473
331,0.023049080850099393,0.02285006275252037
332,0.023023067152412008,0.023408583017696803
333,0.023075272921743772,0.02287895218472878
334,0.02309155101693577,0.024729296168122784
335,0.022979563257718782,0.022638028433168603
336,0.0230152152655877,0.022789312908815508
337,0.023073880855056593,0.025537744071849142
338,0.023018552353687518,0.023310342428716224
339,0.022975660107142443,0.022994555365338322
340,0.023120554545961267,0.02269095134933868
341,0.022983601316809654,0.022879941515395186
342,0.022990736042072687,0.022817949556408194
343,0.023086293402472608,0.022633744106755168
344,0.023060101852696434,0.022786303956264478
345,0.02301623162811251,0.022816286696490096
346,0.02303132182694406,0.022660905849585498
347,0.023008236549884008,0.022737882077258784
348,0.02299602095150857,0.022609539256499524
349,0.023105627305501943,0.022957109101557693
350,0.022986287714914976,0.02267119193180584
351,0.02303449868512668,0.024577042331952886
352,0.023021341632786605,0.023031429473631196
353,0.02304355680218918,0.022723882029093243
354,0.023048304975759402,0.022709608679283014
355,0.022989271306912962,0.022695465632306372
356,0.02304158081485928,0.022756860230556133
357,0.023014294541181087,0.02346178847817144
358,0.023101373581583505,0.02276143286562427
359,0.02309261557372878,0.02305420034439336
360,0.023003582405648548,0.023732659171005355
361,0.02307345318815691,0.02287484549468158
362,0.02299298895977074,0.023072050752055016
363,0.023020239558806426,0.02307197046131719
364,0.02298891084189776,0.022784348705161623
365,0.02307443880214751,0.0232122441152465
366,0.02297604033912567,0.023074091895062245
367,0.02308254201876388,0.023407023583833588
368,0.022997192276134004,0.022824166721907676
369,0.022985217063952026,0.023744181645321112
370,0.023046140103406613,0.022648609122048236
371,0.023067292392545704,0.023739746713682997
372,0.022969534127808493,0.022716130011648104
373,0.02298873176367925,0.023873498067906642
374,0.023021069038167988,0.022788960814487773
375,0.02296155730082239,0.02334271756977713
376,0.02313439008205843,0.023189401678923274
377,0.022983127473135124,0.02278934412686582
378,0.023024833097839526,0.023196328744503957
379,0.02301222171565945,0.023229902061827085
380,0.023032348637999914,0.023880298292792115
381,0.02296719394868417,0.022654637886944867
382,0.023046366090951065,0.022639274269330663
383,0.023120594158810345,0.022738020145279175
384,0.02294291506449191,0.022980515628276892
385,0.023073840942933594,0.022771670277970647
386,0.02307132495303663,0.022920538967544393
387,0.022928750807260104,0.022904187952474807
388,0.0230409550561691,0.022729014389763786
389,0.023073151884086842,0.024301065568648274
390,0.02305689659029198,0.027557619993634458
391,0.023015430054182915,0.022796641004690057
392,0.023016796180819102,0.022799303515534185
393,0.022955235308237214,0.02295951138014575
394,0.023152699298727854,0.022704169756917383
395,0.0230614369888481,0.022740998137051324
396,0.022949160078911186,0.02283014288141253
397,0.02298663338224927,0.022578637214890594
398,0.023086709528714777,0.022655822324912755
399,0.02297470236657192,0.022979903661873084
400,0.022980737560938637,0.023007369980263072
401,0.022988908137265535,0.02373172361300795
402,0.023017745846949465,0.026395149903861482
403,0.022992261978749224,0.022904738239891056
404,0.023087914111457473,0.02334638336569
405,0.022993295510067974,0.024027218843715437
406,0.022983503679065206,0.023085788605351005
407,0.023005518116813294,0.022680144905514763
408,0.02306483978544065,0.022911893475827214
409,0.02303925100981975,0.02478873202666911
410,0.023059153288370556,0.02292826516522887
411,0.022953324800105594,0.022894305636446215
412,0.022985531536074612,0.024907673984742484
413,0.02304793430267454,0.022686338540234243
414,0.023013987570262545,0.022775791676592997
415,0.023042766317028365,0.024518149548402056
416,0.02304756452294467,0.022803954259678426
417,0.02303253942735785,0.022608315214902846
418,0.023022314553691758,0.022726589361030752
419,0.02301091967905454,0.02309227315819254
420,0.023047221741146987,0.02308335490142537
421,0.023010139608179495,0.02301976000471151
422,0.022993105367647943,0.02296341819822459
423,0.023007254289696924,0.022742179959671368
424,0.02301542462258459,0.02293776581394644
425,0.022963445592704388,0.02315180550675601
426,0.023019006344780837,0.023166274528394745
427,0.023044803520019867,0.022988263882208548
428,0.02297367020283076,0.022750594918546287
429,0.023030369513505084,0.023047179464418397
430,0.02301317683274416,0.022660141812244926
431,0.02303339069266971,0.022884570029817797
432,0.023023896110649828,0.0232542370105693
433,0.023009875758761743,0.022789598785887672
434,0.023014544225711045,0.022732372052420662
435,0.022970681461385735,0.022802591337083643
436,0.022974087261884428,0.023338783692624404
437,0.023083823730798363,0.022671411397566264
438,0.023127976165478417,0.022688300949363326
439,0.022914728704396245,0.022639869601298903
440,0.023076194394335187,0.02329801397299616
441,0.02302529366849233,0.022632739107523645
442,0.022970429596325143,0.023209979018194993
443,0.023014657104091583,0.022657232364932195
444,0.022990115654679368,0.022953574689018416
445,0.02299364538510426,0.022826474893547083
446,0.023031731635677538,0.02354207650215116
447,0.022992153170345118,0.022714113766634757
448,0.02300267217518519,0.02298192142258268
449,0.02306836489870918,0.022890636656248107
450,0.022978806748337074,0.02283944246736256
451,0.023087670222567996,0.023064470046509317
452,0.023000286024013203,0.02271144233214733
453,0.02303024962154343,0.023954132248389503
454,0.023057833933334746,0.022942825803428817
455,0.022935564722791374,0.022673143684017252
456,0.023048635064471634,0.02285728451590794
457,0.022977081878627424,0.023074572132613682
458,0.02303465684990493,0.023549074127729143
459,0.02298165324533419,0.023610885264594535
460,0.022993037882867714,0.022754098837805624
461,0.023034515708005972,0.02277504770642392
462,0.02303149656494625,0.02291203147328173
463,0.023025591556968497,0.022883158224181292
464,0.02302332028305883,0.023391880466946017
465,0.023031714568874963,0.02305163688451969
466,0.022958113408411484,0.022980650156242413
467,0.023056971775047737,0.02355001460916665
468,0.02296054334663373,0.023101256828058303
469,0.023082380162196145,0.022790987332716832
470,0.022998490201072586,0.02280457263875638
471,0.02306633008618673,0.02416695287449678
472,0.022929853326428853,0.022701829811521374
473,0.02301181768395489,0.022909265987710304
474,0.02302321270227337,0.02412431872940101
475,0.02299644940083833,0.023149831145531378
476,0.023083753300924523,0.023307313163483247
477,0.02296843310724274,0.023661130198351775
478,0.022994935892963055,0.022658890649829216
479,0.02299071718707121,0.02478656423555271
480,0.023053788641790786,0.022716256464230988
481,0.02298932236066158,0.022876693510642275
482,0.023045132709421413,0.022872927944869063
483,0.022967228732949537,0.023686072020993612
484,0.02303876397724775,0.02278231090227261
485,0.022965999094577288,0.022927130590874374
486,0.0230000828415882,0.02276736238843452
487,0.022978660122727413,0.022806642212461748
488,0.023021655708110687,0.02363601030565757
489,0.023038794041620934,0.02268556185837044
490,0.023039863542389336,0.022629194264465555
491,0.023014903383450115,0.022756710310408518
492,0.022978798176595965,0.02296331717140955
493,0.0229781171758112,0.022682071471588294
494,0.022987951704715605,0.023663550949028465
495,0.023029227517723894,0.024035549001516842
496,0.022964718440424005,0.023915778039921527
497,0.02300123969535176,0.022796625716886655
498,0.02315398067426529,0.02266722315247593
499,0.02295645513533831,0.022749313233448185
500,0.023020337043936065,0.022854993249206628
