epoch,loss,val_loss
0,0.12522191051569873,0.11321958192065536
1,0.10985966849316202,0.10180392968859563
2,0.09922788649856797,0.09464205421740449
3,0.09300699882722564,0.08976114495029255
4,0.09057176265628751,0.08884576865502515
5,0.08925376978630502,0.0899437913682672
6,0.08839998108812983,0.08817162672647866
7,0.08775977925728906,0.08665627699149532
8,0.08705389893498387,0.08657365073952028
9,0.08661860580835053,0.08555099476771884
10,0.08580966603263777,0.08590112446381523
11,0.08550400754726772,0.08646193749780255
12,0.08519510349094155,0.08763648788415858
13,0.0849352845828208,0.08503844735533714
14,0.08433600259565173,0.08481541825010272
15,0.08363676768827907,0.08267155224041786
16,0.08322746054711946,0.08294159793871034
17,0.08266300658183486,0.08196106203384336
18,0.08215227034499906,0.08210777417440555
19,0.08171416953773704,0.0814562458917676
20,0.08143646337661685,0.08153505889145424
21,0.08106614228603017,0.08215039455427553
22,0.08083699149067523,0.08034238698869371
23,0.0806864660036527,0.0812944763570631
24,0.0804115425171251,0.08056585423172713
25,0.08022978948860911,0.07955890164910394
26,0.08006768662432731,0.07990381409299786
27,0.07975275653568313,0.08096121489967366
28,0.07943132251361662,0.07914739674525458
29,0.07932078520554826,0.07937721153332238
30,0.0789624899339098,0.07853203137565391
31,0.07875921814659406,0.07948444715446805
32,0.07855884349506505,0.07742234605485927
33,0.07831368603831472,0.07761655891619118
34,0.07812815840566582,0.07918695809415158
35,0.07789624051091086,0.07787943431421018
36,0.07765159703484939,0.07945859392997535
37,0.07751224378236937,0.07834395176849518
38,0.07738264884789835,0.07809933905745757
39,0.0771455318130073,0.0778953705846137
40,0.07715323746761567,0.07649301873762276
41,0.07701332389806899,0.07868720761951244
42,0.07681741323481174,0.07698080432050347
43,0.07677700714867186,0.07890917294878647
44,0.07676396404505305,0.0786450629462576
45,0.07646939192525745,0.07683719278100097
46,0.0761862195177263,0.07730818227760533
47,0.07612329633637416,0.07596686139746575
48,0.0758057480542424,0.07586080813891352
49,0.07562745715538721,0.07479083138904496
50,0.07551064680636727,0.07573859149621785
51,0.07527879071134533,0.07532838244527716
52,0.07507634005243484,0.07522594321998922
53,0.07499123764806813,0.07491333369648995
54,0.07483027300993118,0.07423844908426087
55,0.07468262265013177,0.07406398750562383
56,0.07456011500619525,0.07446428504635677
57,0.07439206784492022,0.0749229440388366
58,0.07442253991113813,0.07364947388174327
59,0.07428767435716137,0.07472446727690213
60,0.07414826945227064,0.07609721589511077
61,0.07418825566925223,0.07405786722607417
62,0.07406073193744604,0.0756929342395231
63,0.07400471018487088,0.07419034102285298
64,0.07382851396680704,0.0734559448430874
65,0.07381647887467711,0.07501811820262952
66,0.07369045751495308,0.07452208902204682
67,0.07356100933954646,0.07368507717950668
68,0.07343130542028753,0.07343843239123658
69,0.0735035677823508,0.07405675110821736
70,0.07347667108557714,0.07491650288530867
71,0.07326605365621824,0.07486538418650163
72,0.07322438404701474,0.07292659667849881
73,0.07312474046781635,0.07444653240231715
74,0.07299376033813025,0.07266799338092136
75,0.07295890998760111,0.07490427824669325
76,0.07296641075609911,0.07343237860873993
77,0.07288024849753429,0.0735022836459905
78,0.07279022298598213,0.0734542533882496
79,0.07276944448225095,0.07516731012080735
80,0.07260929019997273,0.07421362097334422
81,0.07258719105855942,0.07273568627548034
82,0.07254948545967911,0.07333581731651007
83,0.07260523850108766,0.07306286283145022
84,0.07238373594282259,0.07216339428152321
85,0.07243673909871064,0.07326365804321305
86,0.07240214958545196,0.07269397678706492
87,0.07219545101972452,0.07261485932047299
88,0.07215555399027522,0.07181443970597783
89,0.07210259976930082,0.0723807730120251
90,0.07202570216353005,0.07230228776304763
91,0.07208919657468031,0.07402943825825152
92,0.0720277742681654,0.07234309297998605
93,0.07195278143070798,0.0721400108262932
94,0.07181216123122108,0.0717035908635356
95,0.07172513138092536,0.07262822092247942
96,0.07178886303652285,0.07295538869677402
97,0.07173535018257421,0.07210130079911023
98,0.07169794701262382,0.07146105959736981
99,0.07160729741300631,0.07287900654514176
100,0.07173726739850458,0.07136560614240468
101,0.07159882752929289,0.07182424260536763
102,0.07143817399757411,0.07256518231108205
103,0.07156252674441681,0.07193182243458124
104,0.0715284097715143,0.07135866039277439
105,0.07156208637135952,0.07278393690777674
106,0.0714152808260398,0.07218249071858573
107,0.07141266231833786,0.0721855401502955
108,0.07140524203488872,0.07291023990937134
109,0.071355279908479,0.07360256168318681
110,0.07137701249059042,0.07219432674677283
111,0.07126600406257658,0.07170793829299126
112,0.07133919791079228,0.07193295241150001
113,0.07127047261648398,0.07242481196404203
114,0.07119104210639951,0.07235026994786065
115,0.07122506497383538,0.07329138083809687
116,0.07114195818470735,0.07114894262681987
117,0.07108303809714447,0.07223743780363603
118,0.07121423875306176,0.0735203785896041
119,0.07112598782279973,0.07150384566066463
120,0.07104548392043059,0.07104352153204671
121,0.07093892875135352,0.07130455994783023
122,0.07090968181636467,0.07156166448101829
123,0.07105390715544987,0.0713894443099288
124,0.07102111757725588,0.07148403708558433
125,0.07085036821734125,0.07087697848625575
126,0.07092056416733182,0.07123907153447771
127,0.07086947025260994,0.07285290123941843
128,0.0709302661171016,0.07138716768043295
129,0.07076366518203775,0.0722831050068618
130,0.07072728021403618,0.07122204035055558
131,0.070830711552466,0.07138506991160765
132,0.07082396540418211,0.07103228437755246
133,0.07077331233106593,0.07061764272543643
134,0.07075609074985394,0.07254632057085791
135,0.07067693785582119,0.07044155207859423
136,0.07073561458044572,0.07122031192382366
137,0.0706402508574073,0.07103681667061984
138,0.0707618923336718,0.07133054030133
139,0.0706045639406305,0.07396981960651476
140,0.07074309076575484,0.07428361742366954
141,0.07059800144920517,0.07127160552699206
142,0.07057041054888459,0.0712371037372861
143,0.07064617717242498,0.07107560381847032
144,0.07064410281674573,0.07062921877219806
145,0.07052801501574096,0.07075055227528418
146,0.07046796137758353,0.07142301400354624
147,0.07058031148901159,0.07093385162211485
148,0.07062312814161406,0.07187330986572643
149,0.0704822186938579,0.07080625930772341
150,0.07043217801765121,0.07102158071249322
151,0.07043206060591832,0.07202488826746048
152,0.07049522695525144,0.07102116037912079
153,0.07041933778556693,0.07100872038713481
154,0.07038007894350219,0.07133369491554942
155,0.07039589847095025,0.07054665265020651
