epoch,loss,val_loss
0,0.12528718860704488,0.1130308265081517
1,0.10998287454254475,0.10522347804095625
2,0.10368183923956797,0.10215051204015835
3,0.10002722513568255,0.09845808031543561
4,0.09602631359521972,0.09518663834721887
5,0.09318090335960504,0.09183394825371444
6,0.09128910924627781,0.09062275694964499
7,0.08979335210043222,0.08895524534414131
8,0.08926996050152361,0.08931526710847663
9,0.08846519025567712,0.08869914873743485
10,0.08733001852571198,0.088522686164105
11,0.0861232948248539,0.08702329343117682
12,0.08499747362623973,0.08465566225166508
13,0.08363225467260663,0.08369589546878452
14,0.08266650584132089,0.08325790084202753
15,0.08201674931494524,0.08150054722857537
16,0.08159644298511164,0.08122777335383607
17,0.08126451602317286,0.07999964755182894
18,0.0808537709564155,0.08151301097823492
19,0.08046382754031751,0.0814276302178024
20,0.08000763457491585,0.07916726297951084
21,0.07953757971350275,0.07975043350709693
22,0.07909602871384201,0.08042331670992324
23,0.07889479144812032,0.07796583611861863
24,0.07855111110240846,0.07805394461091235
25,0.07844447293220115,0.07787361830693021
26,0.07799330692128033,0.08006160084187171
27,0.07796362334663438,0.0766804409872256
28,0.07766099985248749,0.07737878638359456
29,0.07762005623313838,0.07732313627172163
30,0.07736701612470302,0.07697331928526037
31,0.07721780579967125,0.07737123725022686
32,0.07720919591677922,0.0770992539200103
33,0.07693782375375513,0.07724122463626266
34,0.0768809236926117,0.07758456244248331
35,0.07685006300678783,0.07710203392514259
36,0.07662756234650771,0.0771168846002818
37,0.07660283793676716,0.07586783201729369
38,0.07649367376473257,0.07645150301281387
39,0.07637519714224565,0.07632326079913788
40,0.0764031051738792,0.07669540863955647
41,0.07612934866321179,0.07577110468076442
42,0.07617632672355822,0.07650175409878703
43,0.07619810803741747,0.07628481925375095
44,0.07593299512013359,0.07583890644407791
45,0.07607063262797084,0.07658108721040716
46,0.07586244958199151,0.07619329092070776
47,0.07577582469471357,0.07595683315291714
48,0.0756939286295421,0.07521472033157611
49,0.07564279616675354,0.07614739913755472
50,0.07554553519707315,0.07551274443279235
51,0.07538717458016499,0.0754692773228934
52,0.07549525614586867,0.0787164129154709
53,0.07526336391449308,0.07533075045057709
54,0.07526526694147657,0.07546243760826495
55,0.07516362911526597,0.07529907043634596
56,0.07502858006209248,0.07585932963526408
57,0.0749396601718723,0.07538629857841296
58,0.0749118894242867,0.07541355364792533
59,0.07474943779464789,0.07487953922801384
60,0.07471630792618346,0.07484362838289625
61,0.07460231168034184,0.07449244685874527
62,0.07438726792135422,0.0762034534017174
63,0.07436625293752502,0.07549691083090436
64,0.07428272542671624,0.07403561244210696
65,0.07433793958414131,0.07404214267041999
66,0.07411613918910546,0.07501925224500723
67,0.07407664548729005,0.07548785747033472
68,0.0739677386234255,0.0749289744591427
69,0.07373072466440608,0.07374466528646602
70,0.0737048663483459,0.0744467762343104
71,0.07351571613738592,0.07310406925836754
72,0.07347091679330242,0.07391234268995624
73,0.07334611247985745,0.07354561316921103
74,0.07319331221578826,0.07264621713111018
75,0.07301303169126566,0.07264515497287351
76,0.07302068417583278,0.07345200316412252
77,0.07288928602293314,0.07344386434575641
78,0.07280243962657663,0.07341531687530758
79,0.07267905605393694,0.07303980387402978
80,0.07268098886061408,0.07297482074569507
81,0.07255809896142246,0.07320213444354667
82,0.07246444310395414,0.07321138477122403
83,0.07263957419310046,0.07278369650409176
84,0.07247837641817839,0.07372959275629826
85,0.07244959821161044,0.07225364373311488
86,0.07233444077695499,0.07263643545114427
87,0.07230451166646751,0.07292961397018814
88,0.07223386899410535,0.07216612824675288
89,0.07223856642225943,0.07393323529020072
90,0.07215514596532503,0.07360497519388091
91,0.07209232259252778,0.0731619687522283
92,0.07200401610614757,0.07243022376785907
93,0.07201161479926997,0.07210096150514804
94,0.07193710695400089,0.07239763410038724
95,0.07191261392721804,0.07288286856104831
96,0.07190788138403642,0.07268084687865148
97,0.07192987695278069,0.07164027048424253
98,0.07177418906708552,0.07238821193459906
99,0.07185901196084585,0.07246214386749565
100,0.07170755014740886,0.07208337823048232
101,0.0718575039924349,0.0724250637914773
102,0.07176973105588745,0.0718829750269888
103,0.07171206732810412,0.07152190117045056
104,0.07165109941851189,0.07309723102362058
105,0.0717010046374376,0.07180119143455525
106,0.0716309968029353,0.07255354218897231
107,0.07157068991075465,0.07260331942713012
108,0.07159047031769657,0.07482605656126491
109,0.0713754295953011,0.07120129470760025
110,0.07145750175688517,0.07217611848411151
111,0.07156405631123892,0.07147901326007354
112,0.07149568879442517,0.07251733076788706
113,0.07137744531954476,0.07244033523244679
114,0.07147913767411375,0.07179766297352225
115,0.0713610592282107,0.0728625819496414
116,0.0713663218886543,0.07261129811924374
117,0.07136323251830423,0.07146205220738867
118,0.0713241237396204,0.07162757201082691
119,0.0713087344881195,0.07138563654677904
120,0.07134598681315871,0.07082991480202605
121,0.07120238499545851,0.07270096918564761
122,0.07123089782909484,0.07132966233701654
123,0.07114932246456569,0.07220852833459523
124,0.07110595555293633,0.07261142252305633
125,0.0712194797989977,0.07226985235850414
126,0.07108259285550225,0.07146664926797336
127,0.07111263526584537,0.07097906229979976
128,0.07111082292105082,0.07123392214976418
129,0.07099213794483038,0.07233813051172802
130,0.07107150421053633,0.07188030990331357
131,0.07101977411888913,0.07130389118930054
132,0.0711125368947097,0.07123296861299422
133,0.07089719724480274,0.07180803881717643
134,0.0709197440858641,0.07171971617600492
135,0.070894835254127,0.07261722053009091
136,0.07091702025588084,0.07182168813707177
137,0.07096214343905287,0.0718201683668252
138,0.0708510670719363,0.07160286198279792
139,0.0708096127099308,0.07138044081423629
140,0.07093086408588463,0.07215112608682783
