epoch,loss,val_loss
0,0.45700393612449935,0.45625082780269094
1,0.45146849029698866,0.45009077617587107
2,0.4503470791758952,0.44956743504218455
3,0.449799710675325,0.4489314596090162
4,0.44945784167928454,0.4489902185294786
5,0.4491078278631605,0.45013908441055006
6,0.44876578646673815,0.44826776280996816
7,0.44862224535112827,0.4484653241798691
8,0.4484703517871526,0.4480813832387709
9,0.448256757615166,0.4484682591927512
10,0.44813245594234485,0.44996942271878837
11,0.4480388201343516,0.4480583814991946
12,0.4479376471879473,0.44781217196498085
13,0.4478707488063998,0.4485308403214027
14,0.4478381455871059,0.4476407570215716
15,0.447759608195447,0.44776414411918347
16,0.44771418176826605,0.44756607628728123
17,0.4476981476179322,0.44752294317358765
18,0.4476572828496531,0.4477316082678694
19,0.447633035645885,0.44739512333902876
20,0.4476169475874377,0.4483736661931759
21,0.4476155777713239,0.44743200275932815
22,0.4475481597729243,0.448072433855035
23,0.4475682144069531,0.447681969120727
24,0.44750658571994234,0.44739876540573853
25,0.4474874252871179,0.447578929581206
26,0.447490602459568,0.44764489064438867
27,0.44746421431566225,0.4475652622726014
28,0.4474386259640026,0.4485124864710008
29,0.44740587761991885,0.4474964602629268
30,0.4474345200043356,0.4472537311922468
31,0.44739442737369106,0.44727223521615844
32,0.4473798431776195,0.44732345640186055
33,0.4473741915896906,0.44731128773548046
34,0.4473911697919417,0.44765331717886886
35,0.447372709632151,0.44728598440660833
36,0.4473784977709856,0.44720123638676257
37,0.4473518029295968,0.44841959105373586
38,0.44735239283443173,0.44760697145338607
39,0.4473481497991084,0.4474787904508382
40,0.447348241670096,0.4477171901840056
41,0.44734606840879376,0.44720695232973984
42,0.44730233193777713,0.4472423715640273
43,0.4473162553575148,0.447556038094131
44,0.4472697983348009,0.447263524307795
45,0.4473038673256134,0.44802913780825393
46,0.44732205651079465,0.44741962461532514
47,0.44727782965849394,0.44814628701522763
48,0.4472654683691517,0.4472125630487956
49,0.4472646780176831,0.4471228862847149
50,0.44726443622776396,0.4474557661098659
51,0.44726320544846565,0.4478491864612183
52,0.44726798003699114,0.447077127275002
53,0.44725632301419027,0.44768526475259535
54,0.44724629742001815,0.4473191580971934
55,0.4472434192236648,0.4472479138352369
56,0.4472161362163553,0.4471170521996902
57,0.44723709739298845,0.4472638935404428
58,0.4471989511136892,0.44730325919002584
59,0.4472286520838857,0.44720952283092313
60,0.4472308272795278,0.44728914554467064
61,0.44720120199331176,0.44730079219003166
62,0.4471951015941648,0.4471735967844086
63,0.44720708811418075,0.4474573456684483
64,0.44719022261537694,0.4472293648215084
65,0.4471911381572268,0.4495888704891638
66,0.44718635375817284,0.44723110203139455
67,0.44718438914724296,0.4478190622292607
68,0.447190985683957,0.4483683497750117
69,0.4472087904949636,0.44707335635122847
70,0.4471667996543526,0.4470522455422674
71,0.4471979106236204,0.4471313177460202
72,0.447162345342932,0.4472830123620808
73,0.4471713858002342,0.44714010451376507
74,0.4471708805435236,0.44730346968283025
75,0.44715399514166615,0.447080227835833
76,0.44715492959997544,0.44736772473225317
77,0.44715903096861725,0.4471568063254089
78,0.44717548370741533,0.4472205632993186
79,0.4471747766832219,0.44725678543808234
80,0.44716789366641624,0.44820492138545703
81,0.4471676332461756,0.44704630515188076
82,0.44712282922917934,0.4469893565201771
83,0.4471719291692969,0.4470553747435231
84,0.44715558256066135,0.44704384157132093
85,0.44713123418888734,0.4480231575631179
86,0.44714149267331926,0.44857559705823685
87,0.44715844634185414,0.4474122313132111
88,0.44713915076692445,0.4474543542029537
89,0.447127211330701,0.44722657829016677
90,0.44712822063370533,0.447120519865784
91,0.4471449918036143,0.4470488182538953
92,0.44710560340500105,0.4471058340153657
93,0.44716168601168343,0.4469811151202603
94,0.447123403925516,0.4475664616090183
95,0.4471339821650631,0.44717158846189164
96,0.44715374056230756,0.4470128626369646
97,0.44713403884522424,0.4473417272227178
98,0.4471326591878187,0.447113405797753
99,0.4471095211014766,0.44957806465785544
100,0.4471152836768139,0.4470652837009871
101,0.4471104020429183,0.44715686476342315
102,0.44712372045206433,0.44711516104190147
103,0.4471467642170052,0.4471028864606138
104,0.4470986951415993,0.4470569638646896
105,0.4471165955696145,0.44700403912864034
106,0.44709711254336787,0.4472139190000372
107,0.4471174917609665,0.4474508731004945
108,0.4470984916616272,0.44701489833152086
109,0.4471314892243707,0.44697375689278673
110,0.4471225700844316,0.4479078589279689
111,0.447105097665938,0.4470699111658447
112,0.44709239936525225,0.44705042031448533
113,0.44710392672930543,0.4474287053006063
114,0.4470813981388807,0.44718758963262617
115,0.4470735745986666,0.4470797240833489
116,0.4471262505187119,0.44700420561604637
117,0.44708593248748313,0.44702009686320776
118,0.4471015367945278,0.44712848481212664
119,0.44710615607778686,0.44719003675257346
120,0.44707437806949113,0.44698914795124817
121,0.44708646128461094,0.44710512339538744
122,0.4471013076765166,0.44701539134532475
123,0.44707523135454647,0.4470447778337358
124,0.4470834378847848,0.44699335707375526
125,0.44710528983389686,0.4471631024387198
126,0.4470736157126078,0.4469579262394214
127,0.4470669373006059,0.4470606285162307
128,0.4471192500498704,0.44742683986548265
129,0.44706215394119303,0.44717921817351924
130,0.4470718154203883,0.4472877886823686
131,0.4470653164427136,0.44752161523331074
132,0.44706358978930805,0.4474230480677782
133,0.4470582238666383,0.4470152477361824
134,0.44708740064571945,0.4471948360434142
135,0.4470332389243021,0.4470030057684891
136,0.4470974249109573,0.447394012694929
137,0.44707250539206145,0.44703962418064536
138,0.4470721002209232,0.4475435241595401
139,0.44708330367386034,0.44725824237030726
140,0.44706870303974533,0.4469376648155795
141,0.4470791344536482,0.4479715418480532
142,0.44705372880728067,0.4469837596610707
143,0.4470922426091817,0.44710385078132125
144,0.4470465691690287,0.4471949779440226
145,0.4470709424107458,0.44693379576232334
146,0.4470791412067799,0.447895011734599
147,0.4470584063005825,0.4471906977446094
148,0.44708528362146877,0.44698931118486723
149,0.44707570561882953,0.447897984460647
150,0.44705229381481876,0.44729074393025614
151,0.4470643329717936,0.44696155409358956
152,0.4470333811190866,0.4478499874986125
153,0.44707809134219295,0.447059123371165
154,0.4470376325683643,0.4471621399945601
155,0.4470748892307796,0.44822311478748156
156,0.44705750156650415,0.44699955154822635
157,0.4470291682505122,0.4470170218097003
158,0.4470598401624939,0.4470686082241174
159,0.4470409155406661,0.4470904345159893
160,0.44706048138600224,0.44775892385929866
161,0.44706037266876614,0.44697657749541925
162,0.44708323592010146,0.44781481572251597
163,0.44704092919384386,0.44704450870414036
164,0.4470339484886353,0.4480599434305339
165,0.44702499295829895,0.44700848790734876
