epoch,loss,val_loss
0,0.45989732914027837,0.46140101795984445
1,0.45188428075797876,0.45098861977185867
2,0.45099158164097763,0.4509731754057177
3,0.45027734565258587,0.4499992529338213
4,0.4497397961563635,0.44914707087355416
5,0.44935417491661755,0.448826396124068
6,0.4490091165972228,0.45054439096407645
7,0.4488123902093968,0.44871932258913777
8,0.4487125488048525,0.448384338250061
9,0.4486172784853948,0.44820471309102944
10,0.4484860656451971,0.44863900683059454
11,0.44843544244132827,0.44820082928569466
12,0.4483566946992314,0.4481876932104675
13,0.44835850759788826,0.4480983015514848
14,0.44828373928135284,0.4481455952672139
15,0.4483068738502294,0.4480445277450462
16,0.44822885849684785,0.4493514433259413
17,0.4481765364817227,0.4483466171330453
18,0.4481521042821785,0.4480296008801184
19,0.4481390023528569,0.4481364752406901
20,0.4481162813615795,0.4485917133562372
21,0.4480584274259118,0.4478411542951862
22,0.44804266432256,0.44814193083338083
23,0.44801268702612645,0.4486968301559642
24,0.353714929584612,0.33753122530353435
25,0.33753445093811923,0.3388679803094543
26,0.33756818669023125,0.3376498806636561
27,0.3375028431266869,0.3372986871954447
28,0.33748640290440274,0.33730817091726245
29,0.33748171528110765,0.33724810209078543
30,0.33746992115918356,0.33739118194492995
31,0.33744052044807044,0.3372051238076581
32,0.3374173596805138,0.33758343780809347
33,0.33740727437994145,0.3373730481877788
34,0.33740158174097834,0.3373387164093302
35,0.33739510302486786,0.3373195599171213
36,0.3373538962659322,0.33743358217091035
37,0.337335716573195,0.33727739134657586
38,0.3373209549715952,0.33735976261346323
39,0.33732941791870646,0.3372889321338227
40,0.33729898689070476,0.33743790618877706
41,0.33729832707296253,0.3371277310880608
42,0.3372712238801828,0.33728621859379715
43,0.33727069122955977,0.33709355274164166
44,0.33723181740715624,0.337225375978913
45,0.3372630037916202,0.33722587014988187
46,0.3372130149374413,0.337307375452718
47,0.3372126625462324,0.3372285121160593
48,0.33718162504776367,0.3372920355201241
49,0.3371903918871806,0.33711752927320354
50,0.33718817761980585,0.33740956300409025
51,0.3371592461337138,0.3377281327285103
52,0.33718862634386126,0.33699475769033427
53,0.33715465516194115,0.33704843024602105
54,0.3371004597831285,0.33705031213702447
55,0.33715616115901254,0.3379405470917258
56,0.33713254762104305,0.3370521723069292
57,0.33709778380525557,0.33760221055458134
58,0.33710258413397,0.33694282686197324
59,0.33707583360769117,0.3369395970252273
60,0.33708427086253323,0.33749054461760203
61,0.33707476230109773,0.3371947652478246
62,0.33705580730743245,0.33694564273892386
63,0.33705960253213313,0.33697901917001793
64,0.33699859999205967,0.337807294604266
65,0.3370307625717306,0.3379746813475565
66,0.33699143047248425,0.33718194971439364
67,0.33702516530248666,0.3378926762985354
68,0.3369981531201115,0.3369166756056785
69,0.3369691422894058,0.3369083400518152
70,0.3369861779594369,0.33698428062639557
71,0.3369614885193132,0.3373132295148116
72,0.3369707809643647,0.33729303345777545
73,0.33695889175314064,0.3370815238603168
74,0.3369381562042668,0.33719710974214717
75,0.3369468339526318,0.3368126441344053
76,0.33694922541492467,0.3370081295905765
77,0.336924670892492,0.33800633591717344
78,0.33694245426938013,0.33730364237936106
79,0.3369392913192284,0.33756295019044597
80,0.33691562792817964,0.33678102800443627
81,0.336890870052772,0.3368727374648563
82,0.33693258016641925,0.3369223318706529
83,0.3369345436028228,0.3369405783247868
84,0.33691708410155463,0.3367434226346807
85,0.3368800547604566,0.3370211367377482
86,0.3368856205637946,0.3369841565257768
87,0.3369030966801923,0.3368504265858973
88,0.33685549145491017,0.33693199708515903
89,0.33689930999230194,0.3369801029035245
90,0.3368784035660257,0.3372035933445801
91,0.33688044566808156,0.3367214389423425
92,0.3368623579082529,0.3368477636842628
93,0.3368777849373581,0.33685848575007904
94,0.33688842003592717,0.33686272930356836
95,0.33682159153060776,0.33677765032744167
96,0.3368809393595735,0.336860029313495
97,0.33686384653866364,0.33783165642916824
98,0.33684753306148957,0.3368460525496339
99,0.336864155224125,0.3371798864040599
100,0.33682516422142805,0.3367118859704722
101,0.33685952784105194,0.33677938111021116
102,0.33682297401705186,0.3373063609858288
103,0.3368417569670709,0.3373615182906612
104,0.3368172303986002,0.3378586800245703
105,0.3368194803466475,0.3380548413479084
106,0.3368183261203923,0.33675749971693575
107,0.3367955742459364,0.3366435043453432
108,0.33681354750049664,0.3374346590347852
109,0.3368139564896341,0.3373145064641052
110,0.3368436857460754,0.3369598338504396
111,0.3367905187216118,0.33676690630388767
112,0.3368428678153258,0.3368315442589629
113,0.3368074297137858,0.337035079991153
114,0.3368363931631235,0.33710311966575063
115,0.3367853351305392,0.3367148235887502
116,0.3367948810977574,0.33670735241109007
117,0.33681486586482656,0.33676466144407213
118,0.3368060155535864,0.33668115147242605
119,0.336742821918382,0.33673253163461064
120,0.33678384068685446,0.33684313009045364
121,0.33677773409778056,0.33689377065384146
122,0.33680075623317723,0.3366363083883677
123,0.33675965556200604,0.336992825404678
124,0.3367803819593956,0.3369783458396217
125,0.3367634151164858,0.3366481874511415
126,0.3367539409728507,0.33713126524262943
127,0.33675883618005786,0.33761463878797277
128,0.3367555629301359,0.33680906934181204
129,0.33676745266670216,0.33694707557419395
130,0.33673495294731026,0.3379109769595773
131,0.33674463920415876,0.3368040487532277
132,0.33674419395931204,0.3366582496631556
133,0.3367498003504602,0.3367218153853823
134,0.33673377126226356,0.33711024110272175
135,0.3367802396557564,0.3371329859587736
136,0.3367399892875743,0.3367033072510503
137,0.3367499686027293,0.33672928576083605
138,0.33673606784783855,0.3370474916527115
139,0.3367211602239894,0.33685580189168995
140,0.33672997104227664,0.33658701415921044
141,0.3367137868122928,0.3366785937047902
142,0.3367018306526767,0.3370149366312677
143,0.33673371867125235,0.3366971602179767
144,0.33673043630179256,0.3368978869688782
145,0.33668741013796344,0.33696351728875507
146,0.33673737643496693,0.3367021599065998
147,0.3367201998549127,0.33704981620309465
148,0.336720956914793,0.33660591623367386
149,0.33671443614961644,0.337078388986823
150,0.33671296228400277,0.3368495021578015
151,0.33669989222504537,0.3366125122964505
152,0.3367092225848542,0.3368005885956911
153,0.33667097764278436,0.3365653177656142
154,0.33672103307501267,0.3370087986472714
155,0.33668804721217577,0.33717388961548767
156,0.33669932422484944,0.33671450701065814
157,0.3366918436778593,0.3365875434355829
158,0.33670288941869775,0.3368385360792589
159,0.33667592057172757,0.33660096298309855
160,0.33668621175614627,0.3372728132966853
161,0.3366987382754625,0.3366075487236797
162,0.33666484843343086,0.3365692634899237
163,0.33664684013062013,0.3368610649004198
164,0.3366655595016152,0.3366794523566947
165,0.3366568706559883,0.3376175193857045
166,0.33666125156247484,0.33745238134524774
167,0.3366635401210028,0.33669578275861145
168,0.33665796517584334,0.338486345527152
169,0.3366652336409749,0.33715077776775976
170,0.33665981009749757,0.33654382790111825
171,0.3366428047080001,0.3365900704661721
172,0.33665468843626106,0.3368028061378943
173,0.3366765885127507,0.3365026534039084
174,0.336655622831269,0.3367528250804492
175,0.3366732993499303,0.33669938006267786
176,0.3366621623030837,0.3366480784315296
177,0.3366593895336758,0.3369328696443407
178,0.336664306758715,0.33698666837833713
179,0.3366384441230268,0.3379730405207568
180,0.3366993514257026,0.33657234216164233
181,0.3366551282561216,0.3365653111444535
182,0.3366538862066165,0.3365564994680819
183,0.33666267007981965,0.33670954708449513
184,0.33663039946207124,0.33676653709253734
185,0.33664670878679404,0.33657562944961766
186,0.3366476055699448,0.3370105831968003
187,0.3366123381129133,0.33662455607657016
188,0.336673358011365,0.3365962634190541
189,0.33661890697194335,0.33666346652253726
190,0.3366808789174128,0.3366056317556694
191,0.3366222187528741,0.33653681292805726
192,0.3366355103973745,0.3369736842443134
193,0.33663601276411154,0.33660872718853213
