epoch,loss,val_loss
0,0.7831750322881604,0.7811276921066231
1,0.7809698223350667,0.7807521876956388
2,0.6896470033527,0.6705980464704873
3,0.6705136787804068,0.6702146508333247
4,0.670004991718741,0.6698810552507616
5,0.6696692292240203,0.6693522599465851
6,0.6694693628599026,0.6692140364866512
7,0.6693234774823378,0.6693697283433433
8,0.66923614453019,0.6694345714479131
9,0.6690897725429982,0.6688873954750307
10,0.6690298033935778,0.6688716671372928
11,0.6689470170874566,0.668933424146777
12,0.6688840034736453,0.668872030397171
13,0.6688621637215824,0.6688038467774036
14,0.6687758123034512,0.6688591281686564
15,0.6687699188441594,0.6687360117600913
16,0.6687344856941271,0.6688037851329302
17,0.6687121938397667,0.6686208868464042
18,0.6686752317270853,0.6690962223547006
19,0.6686396364908498,0.6685735978539906
20,0.6686778929941942,0.6685166564113814
21,0.6686429120265229,0.6686492385524634
22,0.6686012235743664,0.6688205378006731
23,0.66862648895812,0.6686312042239433
24,0.6686010007022872,0.6684855273390111
25,0.6685778307783161,0.6685388435659777
26,0.6685719182998234,0.6685856947146164
27,0.6685721723895331,0.6685976933274399
28,0.668550156120133,0.6687805499276301
29,0.6685644911273221,0.6693242481062672
30,0.6685307199670687,0.6685290429892001
31,0.6685308312414039,0.6690810577385157
32,0.6685374912443431,0.6686066742433296
33,0.6685197327364121,0.6684988546564558
34,0.66849958898254,0.6684933488087292
35,0.6685354332534473,0.6684021492202793
36,0.6685036433861041,0.6685778161675585
37,0.6685034336602002,0.6689159563558148
38,0.6684822790541165,0.6686918103961844
39,0.6685173425170741,0.6684201892612661
40,0.6684670197207806,0.6684244459434902
41,0.6684678613611454,0.6683917770229371
42,0.6684749636730102,0.6684932668464267
43,0.6684625710589576,0.668448892603493
44,0.668449519603108,0.668403356656851
45,0.6684570354306509,0.6688242697215978
46,0.6684605377891184,0.6684457487684783
47,0.6684504812348597,0.6684010307694572
48,0.6684536259201024,0.6687573157398781
49,0.6684323348224703,0.6683835416241868
50,0.6684485122464728,0.6685565284448748
51,0.6684222751658532,0.6684460192185196
52,0.6684275240511998,0.6685198622174314
53,0.6684217327496633,0.6685393536982507
54,0.6684134161858755,0.6683350977196056
55,0.6684208895829665,0.6685306804983203
56,0.6683972482511619,0.6684635693788036
57,0.6684051978279446,0.6684117047289203
58,0.6684009187703974,0.6684521835806712
59,0.6684133811859391,0.6683917670320363
60,0.66838046832555,0.6683823858743171
61,0.6683984754623141,0.6683991429340808
62,0.6684040412417908,0.6683658978400276
63,0.6683798444884224,0.6684147521571846
64,0.668393963349253,0.6686583813673279
65,0.6683863640707902,0.6684142292038077
66,0.6683927660017526,0.6683521970446307
67,0.6683737960914459,0.6682991133108014
68,0.668399943542459,0.6683752612450851
69,0.6683811781243546,0.6683198159954861
70,0.668376988604913,0.6685789289106466
71,0.6683700705213199,0.6683710526763134
72,0.6683720078602072,0.6683373516450634
73,0.6683675079171788,0.6683043279836381
74,0.6683620185296324,0.6685392350142998
75,0.668360457701352,0.6685751871833995
76,0.6683687102443867,0.6682852838689493
77,0.6683629555239403,0.6683641672702333
78,0.6683495047749084,0.6694987856179395
79,0.6683629676501945,0.6684130395340961
80,0.6683630465181745,0.6683207979292383
81,0.6683678726533373,0.6683174249045675
82,0.6683654770764557,0.66831672539006
83,0.6683402631115533,0.6683576109817487
84,0.668349814479502,0.6683702273313556
85,0.6683295660776265,0.6682855689480169
86,0.6683549700393101,0.6684727546467144
87,0.66834921956183,0.6683271192398755
88,0.668360091387195,0.6685403554292261
89,0.6683246391095015,0.6683522577520133
90,0.668338512051823,0.6682978497718428
91,0.6683510134006626,0.6684145174349075
92,0.6683390997519562,0.6684138392415788
93,0.6683391423393796,0.6682782662053023
94,0.6683216236848586,0.6684354086688573
95,0.6683420976446843,0.6683682488016955
96,0.6683373614976387,0.6682666651271574
97,0.6683306841871989,0.6682884002585666
98,0.6683379029976348,0.6682593119992554
99,0.6683288443931524,0.6683297945484957
100,0.6683231523505238,0.668336074224858
101,0.6683134652135693,0.6685049510984662
102,0.6683365052581253,0.6683776571823715
103,0.668315808152506,0.6682735837573606
104,0.6683056707704885,0.6682970017000703
105,0.668318803838166,0.668340559339493
106,0.6683298582475448,0.6684641327737948
107,0.6683028762372429,0.6682681980370831
108,0.6683258741286109,0.6683529162049123
109,0.6683143369068983,0.6682662393851035
110,0.6683028674831176,0.6683997107920844
111,0.6683058452408843,0.66832525490749
112,0.6683100632277981,0.6682909022669423
113,0.6682955935933942,0.668334931016858
114,0.6683003905432751,0.668633909675646
115,0.6682871950517743,0.6684019989213509
116,0.6683008841566755,0.6683817214959762
117,0.6683137860063535,0.6686750474961689
118,0.6682996086945011,0.6685630114604428
