epoch,loss,val_loss
0,0.12978061832686213,0.11478341752697271
1,0.10702909450595151,0.10071977844785107
2,0.09775317371119535,0.09596479895965569
3,0.094434367642236,0.09362315128892967
4,0.09182702466555924,0.09101973942156934
5,0.09003545118125664,0.08793848490601913
6,0.08792054249128517,0.08665914282886608
7,0.08611887438819285,0.0884639063010864
8,0.08508030743480996,0.08484774553100893
9,0.0841267931940492,0.09057616355240448
10,0.08341805176868208,0.08353953796004196
11,0.08285640492323719,0.08388065680215448
12,0.08229364634055746,0.08221619076641122
13,0.08189254572931572,0.08195852518095863
14,0.08171652222350642,0.08145110836888242
15,0.08153245284987445,0.08109183321407158
16,0.08125790310683607,0.08043539947100257
17,0.08089136448868288,0.08023736243589835
18,0.080311015805045,0.08082654018340195
19,0.07988395390929642,0.07994770171729812
20,0.07955011505266134,0.08084505634186843
21,0.07942066898222232,0.07946409945764749
22,0.0790486947370316,0.07913983392675462
23,0.07870351236909595,0.07850725803928317
24,0.0785324280875224,0.0785940105859554
25,0.07816198725577171,0.07765984592720575
26,0.0777203373882765,0.07800608106952575
27,0.07735414375798119,0.07728947689279037
28,0.0770570179805389,0.07795028728668853
29,0.07670262290676354,0.0767277416651715
30,0.07656682289386121,0.07649269630182673
31,0.07617900772861466,0.07835256628844782
32,0.07598887411373358,0.07563306613886936
33,0.0755747223704949,0.07733200772459713
34,0.07536148556183242,0.07567996850388996
35,0.07502698253999719,0.07567886118989332
36,0.07489129434932702,0.07496310693396875
37,0.07448075926227074,0.07580449118085024
38,0.07437077749556555,0.07474906018900979
39,0.07425777819441846,0.07523069954841823
40,0.07406517568409549,0.07440456626287514
41,0.07391501144431058,0.0739432394939963
42,0.07367200081489748,0.07416861432170999
43,0.07352650397771329,0.07525089400104157
44,0.07321918234904007,0.07307138793082896
45,0.07301450591886552,0.07390985592261456
46,0.07290221453057127,0.07327158725143842
47,0.07274708003177432,0.07229491808608929
48,0.07261055625836944,0.07321448952234111
49,0.0725326974485503,0.07270567177748877
50,0.07231465313512053,0.07309977554479383
51,0.07214820085037263,0.0729811767272075
52,0.07215116563811348,0.07247753323339623
53,0.07195311807964623,0.07260318165823962
54,0.07190424581297214,0.07207613266212932
55,0.07182058723705552,0.07231930288834781
56,0.07168664951796505,0.07480353431659917
57,0.07156386721852351,0.07208472838939155
58,0.07159627307342781,0.07196118618848685
59,0.07150352911630457,0.0721672761854632
60,0.0714654790425589,0.07224020976422371
61,0.07132543908628944,0.0712707343642766
62,0.07123197107434188,0.07144592496631107
63,0.07113332977100609,0.07215989809480332
64,0.07094892193640961,0.07220333428958474
65,0.07090913174615729,0.07175113942059416
66,0.07083375743716892,0.07264565689199659
67,0.07055858545708785,0.07118721858817036
68,0.07059028746792827,0.07088798480615675
69,0.07043453699968798,0.07050626290784917
70,0.07028598295513883,0.0700032728978125
71,0.07026611261209147,0.07095678803807207
72,0.07031205448365746,0.07143424962314042
73,0.07002798885424434,0.07170032960970155
74,0.06996728090327103,0.07007141429377782
75,0.07001901374951365,0.07131639071405219
76,0.06992407062086305,0.07044237322025078
77,0.06972709743641861,0.06994153818682639
78,0.0697152320425059,0.07072847734616733
79,0.06972146160779363,0.06973004014326956
80,0.06960724321022163,0.07087176355015802
81,0.06959934645155119,0.06950888838408976
82,0.06952483317565106,0.0718592883522371
83,0.06937106653888332,0.0708119065922457
84,0.06945645373219939,0.06940786583990696
85,0.06942713117034428,0.0693499494719069
86,0.0693994784159373,0.06982159981353521
87,0.06932821632023871,0.069738653065317
88,0.06926306695707567,0.06976183202269721
89,0.06913377419726914,0.06967809028498745
90,0.06916329893961885,0.0704665175312679
91,0.06908143130048272,0.06941597244223234
92,0.06905039070675469,0.06969617151980488
93,0.06888713755537193,0.06981717826340365
94,0.06899202419759638,0.06980199683430992
95,0.0688270837637925,0.07030873945965234
96,0.06885722359952226,0.07198613931049104
97,0.0688492276173169,0.06959827205384224
98,0.06880347808044282,0.06988323316314078
99,0.06881439654555391,0.06914402182233632
100,0.0687618386954229,0.06929905510899309
101,0.06870070004030616,0.0706414415804104
102,0.06866637627613911,0.06883745360394801
103,0.06873209153194225,0.07128174873996258
104,0.06869811820743854,0.06938804014783653
105,0.06863241555775235,0.06856924762491746
106,0.06859953500962919,0.07219057889234902
107,0.06864142737835972,0.06896061924881777
108,0.0686094850539665,0.06990338857919427
109,0.06860351002647735,0.07157570196823533
110,0.06849270880165527,0.06897649927573846
111,0.068589462528175,0.06862127314557892
112,0.06835079732281166,0.06961528101410348
113,0.06852907457965558,0.06904407476301427
114,0.06844838592436275,0.06890590069615853
115,0.06835797891658028,0.06862849699076261
116,0.06847028522568181,0.06920059474487711
117,0.06827247406325587,0.068595176334606
118,0.06824707710736719,0.06855674265155162
119,0.06832225639520102,0.06941797926771143
120,0.06832054095883196,0.07003129732229936
121,0.06827241058337447,0.06903041272081183
122,0.06832270828592699,0.06827829793132267
123,0.06816918185565683,0.0685542145720598
124,0.06816921434419536,0.06856169045085053
125,0.06823764361745663,0.0685758761983505
126,0.06810195311325466,0.06823613025349805
127,0.06807958139924213,0.06866661931953204
128,0.06805126513458719,0.06792375899594569
129,0.0680815137271164,0.06890703733564985
130,0.06801669006173071,0.06845269782851145
131,0.06796275571157163,0.06818477417111198
132,0.06789260740024643,0.06945259827154392
133,0.06796815618458521,0.06836233441953822
134,0.06797175572132245,0.06878162805793805
135,0.06794717891626675,0.0704651245152513
136,0.06789603900341526,0.06862268641227831
137,0.06795540967022207,0.06967939290547723
138,0.06790380111125624,0.06924950750241474
139,0.06777295517284845,0.06796945923398331
140,0.06777795768326539,0.06923143601121033
141,0.06776162158019153,0.06850445086048608
142,0.06786182543790388,0.06804004928597916
143,0.06770069899980012,0.06877941235382869
144,0.06772417536020994,0.0688338326741343
145,0.06777306489129621,0.06873188943572417
146,0.06775517920744592,0.06782089865282687
147,0.06772812319454456,0.06796588881595875
148,0.06764822287631708,0.06786865802333575
149,0.06776662033534368,0.06912276792128928
150,0.06762484524210247,0.06817738681869534
151,0.06758141706298429,0.06895866025992332
152,0.06755238108307493,0.06797754781831536
153,0.06754810272714254,0.06858483047666948
154,0.06756990451837733,0.068097872713991
155,0.06757338567892325,0.06817367490856055
156,0.06747886545161072,0.06786641607950496
157,0.06750224505815094,0.06838948269414158
158,0.0674851284941264,0.0679633963896899
159,0.06750419147802339,0.06778708486691323
160,0.06745993221591651,0.06778219255947236
161,0.06740599482921458,0.06836110033238049
162,0.0674925615466294,0.06821043007975015
163,0.06748153455320031,0.06998501361517967
164,0.06737334036697211,0.06850872006180345
165,0.06731479115434581,0.06754152551595088
166,0.06740186903561267,0.06790707038609882
167,0.06734290252717157,0.06857501187657428
168,0.06727923660294309,0.06807745275322372
169,0.06734104337109108,0.06915171267587514
170,0.06735313210247622,0.067343221899558
171,0.067364368602054,0.06824737220437012
172,0.06731607941091441,0.06903352855935596
173,0.06731035184147882,0.06807858156055396
174,0.06728287653026538,0.06773345513904977
175,0.067176713165484,0.06827440141018835
176,0.0673268972915852,0.06791445391561154
177,0.06730227655096939,0.06751635627830258
178,0.06726490911520686,0.06762937637634915
179,0.06718703510699604,0.0682153436699159
180,0.06719658923508645,0.06834482517799197
181,0.06714841132584962,0.06872514635827336
182,0.06717213235786969,0.06804403418322177
183,0.06715826607219944,0.06797952622817692
184,0.06727411011985815,0.06800404517194505
185,0.06710613913295195,0.06889895338618947
186,0.0670970724084671,0.06750337172099072
187,0.06711450954214351,0.06790062599919401
188,0.06711689859932958,0.06763329420564704
189,0.06707718390298106,0.06775505462303764
190,0.06705430700487704,0.06746519879524208
