epoch,loss,val_loss
0,0.5679988033453138,0.562075241143616
1,0.5619219549378544,0.5611583928806698
2,0.5608765107803482,0.5599578066924384
3,0.5603027531102323,0.561090082417637
4,0.559979520778896,0.5596561631939422
5,0.5596936256277346,0.5592383999133159
6,0.5595634482758118,0.5591621649242572
7,0.5593589630630651,0.5596833251734963
8,0.5592754278442058,0.5591536916369992
9,0.5592282874509088,0.5593610936277382
10,0.5590951542971304,0.5588116196151459
11,0.5590989341770674,0.55901708648056
12,0.5590065031888964,0.5588174112613227
13,0.5589360630576841,0.5586085676749358
14,0.5589161656817984,0.5591701458177056
15,0.5588436910896556,0.5587159434074028
16,0.5588524605441486,0.5589744095454353
17,0.5587573607329339,0.5588853364807094
18,0.5587331579807258,0.5585891610670793
19,0.558663516004798,0.5585313213189594
20,0.5586544801170261,0.5584371905251497
21,0.5585782598746177,0.558680287013456
22,0.5585390369353227,0.5590003309305536
23,0.5585334905899568,0.5583429177005802
24,0.558511862294824,0.5584131899250298
25,0.5584656334833933,0.559077471551468
26,0.5584513865191354,0.5585829384822552
27,0.5584052560153172,0.5582124732904478
28,0.5584121284359476,0.5597437899397046
29,0.5583833188162248,0.558347136837652
30,0.5583761514928715,0.5584060818557988
31,0.5583762479933384,0.5582344365608357
32,0.5583731807625424,0.5581990922180758
33,0.5583597981916448,0.5583256023051683
34,0.5583320253019686,0.5590837859049173
35,0.5583025576663248,0.5582205347263645
36,0.5583178474458428,0.5581733948828134
37,0.5582797186929366,0.5592388792635808
38,0.5582545047757568,0.5581398511171455
39,0.558243197913827,0.5580691649210686
40,0.5582420192420042,0.5581589893857808
41,0.558216269179611,0.5582287578056857
42,0.5582352189360249,0.5584678279562225
43,0.5582253394153743,0.5580677951122439
44,0.5582062128584433,0.5581142056153012
45,0.5581975177256696,0.5580252854430677
46,0.558212109028059,0.5582451927949649
47,0.5581760394125724,0.5581757958983738
48,0.558156014666451,0.558053982443368
49,0.5581751682434023,0.5585961055477328
50,0.558160010082608,0.5582645739546575
51,0.5581426551246297,0.5580847282314634
52,0.5581355060265482,0.5581364957978087
53,0.5581127639050382,0.5579568731779141
54,0.5581162114117878,0.5580319020319159
55,0.5581027565388986,0.5581305081577023
56,0.558100558387736,0.5581279769291362
57,0.5580777399097918,0.558030244280691
58,0.5580626969933734,0.5583627784140474
59,0.5580433309939983,0.5582331859234384
60,0.5580233817228247,0.5579886883757541
61,0.5580158785464838,0.557989028747903
62,0.5580371480281785,0.5581133731806375
63,0.5580077896207173,0.558021276966814
64,0.5580238517490715,0.5585390218897852
65,0.5579715538843047,0.5579911250622855
66,0.5580026822156976,0.5583393025089677
67,0.5579903162363355,0.5583026692406117
68,0.5579957867214237,0.559123984486106
69,0.5579726985343058,0.558722104470806
70,0.5579578295479537,0.5581948373201103
71,0.5579606982873591,0.5581626356197044
72,0.5579748744558429,0.5581081047576061
73,0.5579142728701691,0.5578574414421343
74,0.5579258819363682,0.5577633838076543
75,0.5579248097090455,0.5578422682028225
76,0.5579450176280214,0.5584105464538279
77,0.5579237826264426,0.5579109398480425
78,0.5579294615587866,0.5593799044873121
79,0.5579588698930801,0.5580106264630139
80,0.5579012130526234,0.5577997862582776
81,0.5579297706757227,0.5578082163589084
82,0.557917303484379,0.5583488034107807
83,0.5578964988342751,0.5578763574593707
84,0.5579058359785705,0.5578808237801323
85,0.5578888974871788,0.5578412785451715
86,0.5578887553300597,0.5578436317691088
87,0.5578940947631784,0.5577955466850573
88,0.5578874369854497,0.5584148227108344
89,0.5578648231693003,0.5577972545800974
90,0.557866986159611,0.557748032729361
91,0.5579253168961519,0.5580335830400269
92,0.5578553765361233,0.5579451615845985
93,0.557869912997838,0.558009053953909
94,0.5578556278007384,0.5578410895652235
95,0.5578649555760372,0.5586466468505032
96,0.5578638878693393,0.5577623308916517
97,0.5578663782969082,0.5577968030585851
98,0.5578223280266265,0.5578082277412469
99,0.5578458726580028,0.5579835458825614
100,0.5578622602898673,0.5577848775956259
101,0.5578257055934522,0.5583985888221557
102,0.5578370466665162,0.5577220290837751
103,0.5578530794372354,0.5577945784432407
104,0.5578422076741858,0.5582463081600137
105,0.5578202403759842,0.5577397635669505
106,0.5578360157909587,0.5577414054680916
107,0.5578290605196867,0.5577549532337456
108,0.5578219537199326,0.5576927592607838
109,0.5578076129986613,0.5577387368090289
110,0.5577959902420137,0.5578082414947086
111,0.5578172483728466,0.5576820603169693
112,0.557818349519625,0.5577698609451084
113,0.5577673013314876,0.5578091866074242
114,0.5578046418561831,0.5580020939071386
115,0.557816442940863,0.5577393231532755
116,0.5577875250438584,0.5582386299468457
117,0.5577861397382358,0.5577399201652106
118,0.5577742467569322,0.558515481491098
119,0.5578163468773923,0.5576782150601364
120,0.5577772483120684,0.5577108707998941
121,0.5577754644003098,0.5576473939403648
122,0.5577964532964335,0.5576913043044949
123,0.5577619109318954,0.5577222894009322
124,0.5578126777973262,0.5577192156678706
125,0.5577608714931026,0.558420018343693
126,0.5577636342009458,0.5577759329044423
127,0.5577648857655728,0.5576307455026595
128,0.557777879283122,0.5578647441280556
129,0.5577807211586898,0.5586025761397505
130,0.5577414782453489,0.5576739184947663
131,0.557755576784272,0.558361024994386
132,0.5577889775431907,0.5579426985222782
133,0.557744750630941,0.5579622183666544
134,0.5577497972820312,0.5576674617981937
135,0.557739228710831,0.5576815070879919
136,0.5577632340404753,0.5576969186133651
137,0.5577602946602955,0.5577692839528372
138,0.5577519498282081,0.5577223776010402
139,0.5577492183805908,0.5577279272932504
140,0.5577196052180653,0.5580394448922781
141,0.5577599180660756,0.5577174417410689
142,0.5577486302765909,0.5580956046829645
143,0.5577598359837272,0.5576312327519359
144,0.5577543174814966,0.557715342861519
145,0.5577832949515938,0.5576569730845145
146,0.557740219797635,0.5578453155316984
147,0.557728746036626,0.5580760933291975
