epoch,loss,val_loss
0,0.13542975270977758,0.12049593527283539
1,0.1137679903416339,0.11057389859859672
2,0.10459806331665171,0.09961845127018801
3,0.09730683290381277,0.0952724749427978
4,0.09270761716279598,0.09263615819439351
5,0.088524159627026,0.08854117857672987
6,0.08567762851215777,0.09007966258690739
7,0.08418040368056828,0.08373087476977417
8,0.08288663469534355,0.08072697347639685
9,0.08160182865770883,0.0810524631535366
10,0.08051998580191795,0.08077151678432751
11,0.07969239064815799,0.07955768792266617
12,0.07876545857824648,0.08138504761025814
13,0.07815424992647137,0.07743758677238885
14,0.07769570907543202,0.07734202762939389
15,0.07729860206861677,0.07695519401664788
16,0.07691331632093228,0.07757770038143745
17,0.07638641481205823,0.07591429214444788
18,0.0760402834865467,0.07525203091207622
19,0.07546750131852724,0.07687386515248157
20,0.07524905744803605,0.07498707642611037
21,0.07470536923335268,0.07432602264717096
22,0.07449715981688225,0.07458187520861323
23,0.07421642801356886,0.07488109822029611
24,0.07394955404677099,0.07627151608325118
25,0.07354256719604414,0.07533868278243797
26,0.07327929457374531,0.07422955884490673
27,0.07317230199282321,0.07352710207955306
28,0.07306172551432336,0.07246024584510373
29,0.07270010538625063,0.07392637582804326
30,0.07254230235370297,0.0725745120116391
31,0.07243580321087013,0.07218406077847654
32,0.07224417201568223,0.07350327132533889
33,0.07199639000959775,0.07154536500368465
34,0.07191795163098692,0.07153758863352472
35,0.07180406679776735,0.07196252428531193
36,0.07156707901751085,0.07288164900293687
37,0.0715145045649698,0.07227055963033557
38,0.0712490211746933,0.07198958662562623
39,0.071143156044165,0.071914740172711
40,0.07096177676727275,0.07190059474525196
41,0.07089721473000554,0.07043075109838644
42,0.07074210654096194,0.07154352419469988
43,0.07049525178291967,0.07155426397206188
44,0.07041991918972847,0.07152872060777432
45,0.07016925766747686,0.07120743296639359
46,0.07019002639661935,0.07132716444556876
47,0.06998406992973602,0.07204466218438502
48,0.06977061885650104,0.07019383789536943
49,0.06962532688003763,0.06927942945797169
50,0.06956616687943619,0.07017548183712512
51,0.0694538736175152,0.07082911515104093
52,0.06947900157518727,0.069614607200372
53,0.06928791367565418,0.06957249533386813
54,0.06909401150635762,0.06918429561688187
55,0.06921615706842998,0.07155409368748644
56,0.06893253821017095,0.06986297967410218
57,0.06885301887678355,0.0697712794390556
58,0.06882324400221802,0.06868424136839406
59,0.06874703481257807,0.07118976106566959
60,0.06855578596357935,0.06915277132327564
61,0.0685004246730005,0.06918839259229616
62,0.06850077589766981,0.0689772655215716
63,0.06831305759421619,0.06927208037423116
64,0.06834904722721939,0.06862615546063996
65,0.0681457529458324,0.07140820265781772
66,0.0682396655969746,0.0691693427633658
67,0.06798717994416566,0.06848417818741523
68,0.06805183198076574,0.06823064434911942
69,0.06797563376649304,0.06843697895603992
70,0.06788383099034333,0.06906246009380529
71,0.06791530892088161,0.07014934594432513
72,0.06777608786134848,0.06896993144281766
73,0.06776644441121038,0.06989941199241942
74,0.06774407481493418,0.06813074097336663
75,0.0677140628956116,0.06888729167875267
76,0.06757913175390176,0.06937982282653506
77,0.06747563313588169,0.06883174190479639
78,0.06755434176367525,0.06874135351916268
79,0.06744902447289326,0.06931499163585418
80,0.06743804262689541,0.06778447402172928
81,0.06737202952771526,0.0673618964807716
82,0.06733415755058703,0.06811928255987845
83,0.06729871788435955,0.06711745038285452
84,0.06727723614712193,0.06825635313682468
85,0.06713345123098574,0.06822766962820422
86,0.06712360902846215,0.06761882694315935
87,0.06708857167401475,0.06767111826065099
88,0.0670496447118403,0.06764339127962232
89,0.06705804352337848,0.06807350642814682
90,0.06690322506093865,0.06715861880790625
91,0.0668637490363747,0.06752410215071711
92,0.06675256566192304,0.0672782770703667
93,0.06682716114968301,0.06831946557221175
94,0.06667057598369461,0.06789687175699477
95,0.06668266567381936,0.06732343038763246
96,0.06658875238621248,0.06699576495785893
97,0.06662713347559253,0.06909086653861864
98,0.06660804152436943,0.06859690682542206
99,0.06657684170300741,0.06798797545338436
100,0.0665641281789595,0.06784133265900938
101,0.0664859389087487,0.0677417977684208
102,0.06649636453281976,0.06726980616458497
103,0.06641845779758107,0.06769088961418297
104,0.06631438984224693,0.06713540510510961
105,0.06642571363044197,0.0671631440813719
106,0.06629974482983197,0.06743473055103534
107,0.06637089774216175,0.06748316119170168
108,0.06630195240126321,0.06665174055466515
109,0.06623578386651642,0.06672994373077833
110,0.06614635131224128,0.06659284785711729
111,0.06620457289514144,0.06706231119451644
112,0.06617216942557456,0.06711486906933703
113,0.06611068463785096,0.06620564521819103
114,0.06608335460218707,0.0668778720221454
115,0.0660808511076928,0.067488623173351
116,0.06602118261703184,0.06693124879291791
117,0.06611185466321992,0.06735525924013742
118,0.06603840126091749,0.06850844545933828
119,0.06597949949185286,0.066796151885953
120,0.06592658180552788,0.06616500946025357
121,0.06590403241934735,0.06672273016223713
122,0.06585796651048087,0.06686502671922571
123,0.06575098647220179,0.06632850492011938
124,0.06562011124867927,0.06620613493265491
125,0.06566266713963767,0.06702137504371079
126,0.06565260302690501,0.06647277657845975
127,0.0656625995536471,0.06740160393298657
128,0.06556071799970187,0.06628768030410298
129,0.06566974414197475,0.06679631860289892
130,0.06556715068689482,0.06655120550083493
131,0.06548439013257285,0.06644798108853242
132,0.06543268005736962,0.06681991520779831
133,0.0654595804665416,0.06729531234725707
134,0.06540292766151838,0.06742641635798775
135,0.06533652737933804,0.06600915895245776
136,0.06538562061421897,0.06618039395346023
137,0.06535067999128356,0.06583274793774907
138,0.06527194685055379,0.06839740712344126
139,0.06533469618212485,0.06586982717783996
140,0.06513729313405488,0.06593799638540163
141,0.0652600399018335,0.06650291701338917
142,0.06525783917118955,0.06721531732810364
143,0.06516767246719846,0.06638914828699118
144,0.06523785396108475,0.06580345394858599
145,0.06512874366218518,0.06693814651813132
146,0.06508928094767007,0.0656629062012342
147,0.06514416939893676,0.06571280461485629
148,0.06502928882784051,0.06598863730493124
149,0.06502852396081643,0.0669854303506304
150,0.06494408744072072,0.06530500764590143
151,0.06493637545678925,0.06673446788523706
152,0.06496845222339843,0.06593113002196198
153,0.06496147037198655,0.06663634910397451
154,0.0648092221867106,0.06641481541794066
155,0.06480776842608396,0.06566742341743588
156,0.06482156782809328,0.06605953394796368
157,0.06484582938788638,0.06588661426502891
158,0.06480385755107006,0.06591187893240409
159,0.06473831182623345,0.06607624186844471
160,0.06478520058375924,0.06668889322474171
161,0.06484555382967135,0.06588483858414021
162,0.06472044708843036,0.06601583249588912
163,0.0646159431567477,0.06659271542000046
164,0.06468759998830019,0.06635710750587435
165,0.06465946391882131,0.06762110701871142
166,0.06462901767475382,0.06533174563571396
167,0.06461493866583032,0.06520371008424773
168,0.06469050599256387,0.06745872796273987
169,0.06458586789176331,0.06746510918032836
170,0.06462779341685189,0.06544567346460473
171,0.06458767964954122,0.06532568400892849
172,0.0646032449806927,0.06528965199544579
173,0.0645795955387457,0.06695628037999524
174,0.06453958727866578,0.06640846087992645
175,0.06444417070539606,0.06576636084972894
176,0.06454386920464236,0.06519344078525675
177,0.06450632638823114,0.06666693606289517
178,0.06440736962751895,0.06612005120544694
179,0.06448435367209332,0.06483668218029147
180,0.06446605839648543,0.0649789711009378
181,0.06446973588306171,0.0658290793248703
182,0.06439520484730775,0.06525530251343799
183,0.0643618261438125,0.06524678252812499
184,0.0643209749877181,0.065466664714642
185,0.06441767680655106,0.0671062078980656
186,0.06439002059460278,0.06572684956892286
187,0.06427466612337886,0.06717873045608783
188,0.06426747701153775,0.06532684060596598
189,0.06431986900809744,0.06536373022422537
190,0.06434337414260151,0.06580944864881859
191,0.06422440224719779,0.06556182222289093
192,0.06419579456403263,0.06518912369322356
193,0.06424428327940053,0.06547068044624907
194,0.06423547278259943,0.06509197052412607
195,0.06416536288526921,0.0649045878565461
196,0.06418812599483005,0.06527205570563213
197,0.06427662754636516,0.06480277241594416
198,0.06404772379168891,0.06542158067050113
199,0.06410244254500955,0.06612915731345317
200,0.06409089711388878,0.06603374873028117
201,0.0640825441437058,0.06522424225511296
202,0.06408026659882665,0.06584267861749495
203,0.06418753265325854,0.06592982414946
204,0.06412345394713508,0.06465238976820757
205,0.06401108486220726,0.06473492616951722
206,0.06403723706659091,0.06891321897659346
207,0.06407814146073607,0.06538501007925221
208,0.06407799376997318,0.06510511184268307
209,0.0639265980157757,0.06529616114483933
210,0.06404148708157999,0.06545773236033972
211,0.0639697131502165,0.06667781088277
212,0.06401695806851306,0.06517157973288278
213,0.06390069644018341,0.06519768064569789
214,0.0640258758117302,0.0650058707169986
215,0.0638603162457318,0.06543030922089765
216,0.06393978748802655,0.06606137666337183
217,0.06387712859865141,0.06507030838196223
218,0.06398584053838409,0.0645959323888258
219,0.06402542805787666,0.06528903518687908
220,0.0639625009157768,0.06669398064196952
221,0.06379267777759894,0.06632499471401457
222,0.06380526203224693,0.06499190606876122
223,0.06381706530871192,0.06535775967359979
224,0.06383770560919425,0.06638528799204216
225,0.06385767495769738,0.0647262860910678
226,0.06389944907124376,0.06538122459892311
227,0.06379455785071352,0.06519821713985725
228,0.06387399636178988,0.06775191203422332
229,0.06382381302417296,0.06544189483379304
230,0.06375698006076613,0.06578055868327277
231,0.06379066176374167,0.06547198777230644
232,0.06383433195625646,0.06456693432981417
233,0.06386242775674907,0.06517981563478695
234,0.06368415565445548,0.06507587836123856
235,0.06375799692860415,0.06497019558863373
236,0.06369741090357935,0.0661016373271121
237,0.06368200307051473,0.06475014516091951
238,0.0637172165465671,0.06486134407090842
239,0.06369210497480357,0.06502765866358241
240,0.06375046809366594,0.06511106268038812
241,0.06370910765555475,0.06475827177373904
242,0.06370749072094205,0.06445373867546564
243,0.06376095702132116,0.06669181539758871
244,0.0637020025462774,0.06542799159782699
245,0.06372516985206647,0.06549248979003189
246,0.0636472011807799,0.06445268137424555
247,0.06365753008342086,0.06474930669343885
248,0.06359329179761121,0.06481113715302297
249,0.06360780914721884,0.06503024328294749
250,0.06374859956715923,0.06450473024704038
251,0.06362839701962686,0.0647156095102356
252,0.06355598446299505,0.06457379456252754
253,0.0634837547578549,0.06462508904806381
254,0.06354441841522589,0.06511749286451272
255,0.06353381614364072,0.06572377643041692
256,0.06353248949294509,0.06485770600753984
257,0.0636147282836408,0.0650589406997325
258,0.06347394469963165,0.06562646923207216
259,0.06358175782790769,0.06511867923251793
260,0.06348992383067646,0.06464669550610039
261,0.06353603834163143,0.06451609378483289
262,0.06359349771451331,0.06538574082390294
263,0.06349293372340116,0.0654414658767019
264,0.06342819352508122,0.06557390495823577
265,0.06362182834419053,0.06448893965311717
266,0.06344630708872065,0.06477897351127598
