epoch,loss,val_loss
0,0.34915631107234985,0.343313099993625
1,0.3423063220825118,0.3431278282173933
2,0.3411046141674615,0.34107206755921027
3,0.3400195569522318,0.34282831877484216
4,0.3391837780286241,0.3383013766276111
5,0.3388698870435319,0.3381560907106239
6,0.3384758400966117,0.33801957865035476
7,0.3382283422955165,0.3379112623557413
8,0.3380559921920143,0.33757827137176133
9,0.3378272714359659,0.33801617308071497
10,0.33767125121041025,0.3377600751293071
11,0.33758958275020434,0.33722542791171967
12,0.3374251675963338,0.3373642913312103
13,0.3373895406689893,0.33791233534110204
14,0.33723701988491106,0.3373195704925206
15,0.33724538796693937,0.3374627098661198
16,0.33723612853029616,0.337159764836265
17,0.33712861341198225,0.33710985580938135
18,0.33706746834563023,0.33702609925510885
19,0.33702648990801576,0.3368656662308604
20,0.33703681012429443,0.33695031838112643
21,0.3369424337059019,0.3369418631257643
22,0.3369829698438594,0.33786448288270554
23,0.33690241951669264,0.3367085010215595
24,0.3369063250129639,0.33670928009175033
25,0.33688670967680584,0.33725583119554825
26,0.33686704395138034,0.33700943799629957
27,0.33681897070971906,0.33679524967315294
28,0.3368118479937141,0.33674174494188286
29,0.3367946679916393,0.3377725726316822
30,0.3368208483433893,0.33669076124240205
31,0.33675406354578946,0.3366274077972382
32,0.33671392195380645,0.33688216968928325
33,0.3367524739216981,0.3366567440826741
34,0.3367468091956793,0.33738512137030086
35,0.3367110807607495,0.33679554700775716
36,0.3366935878349799,0.33677295190636386
37,0.33665970191033645,0.3368911391092479
38,0.33668768119717196,0.3367203408614102
39,0.3366493279314783,0.3366707219847691
40,0.3366567925430891,0.3373664053319957
41,0.33661744187859743,0.33655856550449753
42,0.33666938346395264,0.3374615634942558
43,0.33661843454872425,0.3365225714999796
44,0.33659268085823596,0.33650409432276857
45,0.33659646317221886,0.3369954959473876
46,0.33658076954122845,0.3376388627398633
47,0.3365745152357556,0.336692514908168
48,0.336557838825033,0.3364609664861259
49,0.3365267456728318,0.3366627340820719
50,0.3365591098249542,0.3364942176594362
51,0.336531765789015,0.3383324218658638
52,0.3365431469077851,0.33657476776636686
53,0.3365477619778552,0.336496142713403
54,0.3365083772467771,0.33646794840071115
55,0.3365407424233562,0.33638954783065256
56,0.3364962939052518,0.3364436616258847
57,0.336510192691687,0.33813659359542875
58,0.3365245514165766,0.33639682749869315
59,0.33648350295463647,0.33694449371433605
60,0.33647672346593244,0.3368732651557471
61,0.3365001518077701,0.33658371814635324
62,0.3364508094817935,0.33637583802877313
63,0.33649111363976875,0.3374879576155775
64,0.33647547075911993,0.33644082193831254
65,0.33645019173914775,0.33643376046331114
66,0.3364694863759946,0.3364023821437588
67,0.33644857876276846,0.33656517354357673
68,0.3364922092649326,0.336319513994019
69,0.33647357827822283,0.33829208676760514
70,0.33645991117853274,0.33648094014977964
71,0.33642838100711275,0.33637437063710207
72,0.3364227778104157,0.33636780897217816
73,0.33648094602355977,0.33652668080813397
74,0.3364455247956792,0.3364376158246317
75,0.3364207710597076,0.3365748690810112
76,0.33646694511407654,0.33635918325150754
77,0.33644199834936583,0.33695319191754874
78,0.3364425535191046,0.3370206941564594
79,0.33643485287504094,0.3366541740642344
80,0.33644007052461467,0.33672526655773405
81,0.336433831353887,0.3362940297853536
82,0.33641645821362676,0.3372803321334508
83,0.33645107302726796,0.33634000883152393
84,0.33638825678573436,0.3367855957676271
85,0.3363943017155313,0.33640032418146765
86,0.3364152301736408,0.3363510146654275
87,0.33639556860204695,0.33641717092743256
88,0.3364104876085071,0.33635377696019725
89,0.33638559100017,0.3364786455649998
90,0.3363990631764185,0.3379824998190578
91,0.3364088917844315,0.3365795557269297
92,0.3364051643791575,0.3362720487410064
93,0.3363820960753732,0.33625204660967456
94,0.3363606445359929,0.33699782424376695
95,0.3364082189735417,0.3363763389226575
96,0.33640174522550376,0.33642226402458925
97,0.33639021198546676,0.3364608156405613
98,0.3363913016683875,0.3367089665686685
99,0.33636465581653696,0.33727016555414857
100,0.3363937195673815,0.33661504255243
101,0.33636535893813213,0.33698130571616913
102,0.3364038280764826,0.33664157435271935
103,0.33638143247552227,0.33653312279995573
104,0.33638881435836143,0.3364757894215479
105,0.33639790612013865,0.3364432197308491
106,0.3363662089005559,0.3366428586946171
107,0.33638093660595064,0.3366175694576006
108,0.33632684608535723,0.33636129434636536
109,0.3363669463800026,0.33630129985294777
110,0.3363311023279879,0.33626354899276945
111,0.33639239303895024,0.3363274585160449
112,0.3363757562268801,0.3362601699101389
113,0.3363306744288985,0.3362552014436725
