epoch,loss,val_loss
0,0.45840292866101895,0.4524842051829689
1,0.4525380784003259,0.4552758425729737
2,0.4505820409810062,0.45001417045150655
3,0.44992991970514423,0.4502646376286989
4,0.44943793749209304,0.448814957763669
5,0.4490745621414365,0.4521491738544753
6,0.44881075084778566,0.4502818255821485
7,0.44869299271127905,0.44849491139025804
8,0.44859773743526277,0.4482797538905706
9,0.44847282559860613,0.44907847181026456
10,0.44835947411528265,0.44908544239457193
11,0.4483118826695838,0.4480148197351533
12,0.4482434599947011,0.4482690982706342
13,0.4481498400745618,0.4484049928615221
14,0.44811515361442356,0.4478853574741146
15,0.4480069149309342,0.4477943355566323
16,0.44796432254020624,0.4481850224145541
17,0.4479233933110225,0.44761549766023556
18,0.4478900699436436,0.4481748951883264
19,0.447795551795071,0.4478025419458011
20,0.4477886582603786,0.4481490951848443
21,0.4477405901674256,0.44753842418328604
22,0.4477218190072367,0.44749014105364426
23,0.44767092927839075,0.4486115715282009
24,0.4476724177350678,0.4475410677325788
25,0.4476415447747936,0.4475136425039097
26,0.4475592608993025,0.44805309407878
27,0.4475917845495686,0.44774082954041217
28,0.44756057668641885,0.44753509251128987
29,0.447528700194805,0.44761588242823724
30,0.4475271433056049,0.4473516835695186
31,0.4474860809291963,0.4473521172555454
32,0.4474767822431428,0.4480451131048743
33,0.4474680311708931,0.44737999468724726
34,0.4474827758020081,0.44795324767328776
35,0.447440374568192,0.44894544580294365
36,0.44746191091838705,0.44767094199640783
37,0.44742220808335376,0.44747563595760054
38,0.44740331413882706,0.447485454930698
39,0.4474338542506606,0.4474683194945535
40,0.4474040571499454,0.44742756144658186
41,0.4474413865412914,0.44792952269377245
42,0.4473703478858067,0.44729921913429044
43,0.4473737535223511,0.4472522574349852
44,0.4473662636379165,0.44805298947248645
45,0.44737605886816456,0.44752908137292546
46,0.4473675696847078,0.44733203899979646
47,0.44735898549457803,0.4474503569694214
48,0.4473585794102041,0.44758396561522135
49,0.44736349283716137,0.4472695954483578
50,0.4473374517154833,0.44749423993311555
51,0.44732606277633236,0.4473577277876563
52,0.4473113930758918,0.44749269050578383
53,0.44733294695701553,0.4477712490884429
54,0.44734387704586454,0.4473053129496074
55,0.44733201695504343,0.4477893514909195
56,0.4472824151768835,0.4472437857829031
57,0.4473289390629959,0.44766871989890283
58,0.4472944171810839,0.4479873654282773
59,0.44731388303806763,0.4471978885499526
60,0.4473016188506539,0.44720879114533635
61,0.44729216156352175,0.44727201239445935
62,0.447305496700596,0.447345038195896
63,0.44730512046429505,0.44733045822252293
64,0.44725820256248033,0.4477212848016075
65,0.4472780217530942,0.44864212135312975
66,0.4472677332196421,0.4473741627580044
67,0.44727080123371854,0.4472427012306254
68,0.4472688077362655,0.4471758882928807
69,0.4472571378950367,0.4472576907694065
70,0.44725271720571247,0.44740394336875894
71,0.4472548290049383,0.4486217942548514
72,0.4472558809221854,0.4471891923061113
73,0.4472489916050204,0.4473762004355959
74,0.4472313925496798,0.44710970440089975
75,0.44721375421594045,0.44727026914081175
76,0.44724929229321203,0.4471710158853052
77,0.4472039944389927,0.4473412506884576
78,0.44726253468708077,0.4472119259975326
79,0.4472064055485702,0.44716262161419357
80,0.4472202326039093,0.44706852420542154
81,0.4471953644443103,0.44712674539676445
82,0.44719989574991154,0.4474583486749082
83,0.4472077470488591,0.44728296474793683
84,0.44720546885795104,0.44727217642791844
85,0.4472070980966681,0.447223550661492
86,0.4471948116382169,0.44709463359316853
87,0.44716881983855705,0.4471319605073835
88,0.4472053067362516,0.4474837135654301
89,0.44716530032305307,0.4479205142472952
90,0.4471649173099564,0.44731352853693623
91,0.4471967437948718,0.44729600482343285
92,0.4471773963260347,0.4474981529657398
93,0.4472000274970127,0.44738602264354926
94,0.4471913576187231,0.44708469626268205
95,0.44716542541838367,0.4470291652314262
96,0.44720011460896025,0.44713068412365714
97,0.44715544502513344,0.44752748914468815
98,0.44714922147091185,0.44717292873579606
99,0.44715830560398706,0.44705785622582733
100,0.4471671970116176,0.4471264663448935
101,0.44717394655147924,0.44704445895314576
102,0.447156515701474,0.44742972351112537
103,0.44716999912722305,0.4473936977520128
104,0.447159482626622,0.4470741187856938
105,0.4471525083917596,0.44764516720208397
106,0.4471364679891833,0.44737339176430446
107,0.4471456610757409,0.4481146672410171
108,0.44715174055881507,0.4471445920894463
109,0.4471403069245615,0.44715519627588446
110,0.4471466892606947,0.44710676384593107
111,0.44712329459419753,0.4471251160469588
112,0.4471280671482053,0.44709530601960357
113,0.44715670202579,0.4470388525645847
114,0.4471315413880484,0.44744948418069985
115,0.4471349670528688,0.44801765961203666
