epoch,loss,val_loss
0,0.4558082667444277,0.4550705399421618
1,0.4512612483081902,0.45034740161229375
2,0.4503835357887177,0.4498313205363695
3,0.4497709428989881,0.44928088178185216
4,0.44907210025706457,0.4484280702569702
5,0.4488211964129947,0.4488272717855877
6,0.4486407929938007,0.4482511447235878
7,0.44843974554471755,0.4482416425131608
8,0.4481655153333662,0.4480291297080991
9,0.44803717709573965,0.4479640538642875
10,0.4479524540468684,0.4476792673605935
11,0.4478636491315004,0.4475442933547832
12,0.4478245375178126,0.4476944562985402
13,0.447720328166011,0.448329515079572
14,0.44767071873607656,0.4475708400609665
15,0.4476767371660682,0.44744740100688396
16,0.447595214661655,0.44838675241565373
17,0.4475733747072643,0.44769965983514315
18,0.44755721983531016,0.44734380116287786
19,0.44750038731746333,0.4475427105400474
20,0.4475036958250628,0.44961542665144366
21,0.44749559118911986,0.4474052738174098
22,0.44740558877775943,0.44735369765656285
23,0.4474183116699411,0.44751215963367813
24,0.44739770640237697,0.4478590322691845
25,0.4473977176205227,0.44727777181039713
26,0.44736377451187087,0.44732645850664704
27,0.4473380833122541,0.4472624915581725
28,0.4473585460683297,0.4473305825148194
29,0.44730812871537473,0.4472229227042679
30,0.4472917991718802,0.44745405539882094
31,0.44726952216159144,0.4475223847338183
32,0.4472567963484757,0.447772099545537
33,0.4472887364749213,0.4472165859694971
34,0.4472691775714377,0.447181507334532
35,0.4472335875349853,0.44738769434464626
36,0.44724654440656525,0.4473712960722826
37,0.44722545840989353,0.4471269184698354
38,0.44723260212361227,0.44751314364985395
39,0.44719516825996847,0.44778050130627467
40,0.44718385758260315,0.44793354256183016
41,0.44720614979705176,0.44710334382001155
42,0.447184406443503,0.4471344308700186
43,0.4471748846361088,0.44754352283199494
44,0.44720669118760165,0.44713618249595594
45,0.4471716063577709,0.44733853884276764
46,0.44713688155771114,0.447159072402282
47,0.4471794222049957,0.4478575154341496
48,0.44717931609987766,0.44720367469427147
49,0.4471435449400757,0.44752244149879444
50,0.4471711416559381,0.44705067195172193
51,0.44711228920827545,0.44718803840202626
52,0.4471327801090059,0.4470197756659214
53,0.4471159846755455,0.44707370678526986
54,0.44714083477985966,0.44778285418945174
55,0.4471134418005272,0.44705999288006926
56,0.44712374881324535,0.44724534774973823
57,0.44708881158780367,0.44712806281606904
58,0.4471175409486912,0.4470382127612096
59,0.44710820613984154,0.44725418597937805
60,0.44708958307842334,0.447043788661195
61,0.44710874102790166,0.4470319893789117
62,0.4470889499267265,0.44716524306849786
63,0.4470924115301577,0.4473367415123636
64,0.4471034784148355,0.44833530323532284
65,0.44710697437256863,0.44739365575094725
66,0.44709536737105904,0.44904973331293985
67,0.4470730359225818,0.4471508542237555
68,0.44707255539836555,0.44725505045496966
69,0.44706824840263243,0.4476915428150792
70,0.44707837500488085,0.4471779331832305
71,0.44705781699168756,0.447103351354599
72,0.4470652641019498,0.4471526650236545
