epoch,loss,val_loss
0,0.10274137406423688,0.048348101682960984
1,0.04883494058996439,0.04874391690641642
2,0.04875991183146834,0.04829290856420994
3,0.04867509626597166,0.048396906562149525
4,0.0486670221760869,0.04820933562517166
5,0.04857769855856896,0.04814633551985025
6,0.048571826051920654,0.04919473692774773
7,0.048545341186225416,0.048447235956788064
8,0.048580667115747926,0.04811346377432346
9,0.04846908615902066,0.04832382157444954
10,0.048471467975527045,0.04811079166829586
11,0.04848325376212597,0.04831927843391895
12,0.04845346459373832,0.04819991618394852
13,0.04838771506398916,0.048185255378484726
14,0.04842691695690155,0.04806310905516148
15,0.048394721735268834,0.049198433622717856
16,0.048359175566583874,0.048129946820437905
17,0.048332088015973565,0.04805864661931992
18,0.048359215557575226,0.048413861870765684
19,0.04830371299386024,0.04822954241931438
20,0.04829099839180708,0.04813650625199079
21,0.04832200957834721,0.04826139395684004
22,0.04826453824341297,0.0480930048674345
23,0.04826775091141462,0.048430907756090165
24,0.04828058905154466,0.04778486515581608
25,0.048236922096461056,0.04809556493908167
26,0.04823131515830755,0.04792270509898663
27,0.04824632578715682,0.04786504131555557
28,0.048182504162192344,0.04788432881981135
29,0.04824545897170901,0.04807601270079613
30,0.048156259521842,0.0482241293117404
31,0.0482018035389483,0.04811174073070288
32,0.048207380305975676,0.04803389153629541
33,0.04819766137003899,0.047963890053331855
34,0.04817956632003188,0.04789292979240418
35,0.048162020761519674,0.04802537325769663
36,0.0481858072951436,0.04797951201349497
37,0.048163578137755396,0.04853376558423042
38,0.04816071759164333,0.04820452380925417
39,0.048148901149630545,0.04844485715031624
40,0.048148674089461566,0.04805863213539124
41,0.04814861874654889,0.04805286444723606
42,0.04813806125894189,0.04789559975266457
43,0.04815713055059314,0.04802585156261921
44,0.04809883424267173,0.04805944026261568
45,0.0481154828928411,0.04788034830987453
46,0.04810383192077279,0.048170731961727144
47,0.0481315641477704,0.047835643962025644
48,0.04810529778152704,0.04776938808709383
49,0.048117093041539195,0.04793597684800625
50,0.048108707685023545,0.04829912104457617
51,0.048113437201827765,0.047962178505957125
52,0.048102608479559425,0.048204880215227605
53,0.04812596894800663,0.047718981236219406
54,0.048108275528997185,0.048278904296457766
55,0.0480714883133769,0.047947060510516164
56,0.048094297032803296,0.04783091977238655
57,0.04808341847360134,0.04797267609089613
58,0.04810488527268171,0.04806086549162865
59,0.04806298600882292,0.04807896666228771
60,0.048124129205942154,0.048136892586946485
61,0.04808490015938878,0.04776059596240521
62,0.04810781559720635,0.04816698630899191
63,0.04807584697380662,0.04823077054321766
64,0.04806414358317852,0.04790371754765511
65,0.04811533418297768,0.04791352213174105
66,0.048045551754534246,0.048492921724915504
67,0.04804621035978198,0.04836146690696478
68,0.048095672477036715,0.04776537303626537
69,0.048088123310357334,0.047972736544907094
70,0.04805810552090407,0.04838086581975222
71,0.048070459458976984,0.04796403757482767
72,0.04806493191421032,0.04789871670305729
73,0.0480753090493381,0.04862990615516901
74,0.04805414808914065,0.050013350121676924
75,0.048051559697836636,0.047953768566250804
76,0.04810028114914894,0.047750769339501856
77,0.04806003623083234,0.04789070393145085
78,0.04806680680066347,0.048981109693646434
79,0.04805466105043888,0.0477313579171896
80,0.048055133532732726,0.047786324337124826
81,0.048061716806143524,0.047985050566494464
82,0.04807702852040529,0.04778567608445883
83,0.04808585647121072,0.047777059637010094
84,0.04804635010287166,0.04796277823299169
85,0.04803799755126238,0.04780621049553156
86,0.04807260592281819,0.04894345852732658
87,0.04805474876612425,0.047868840865790845
88,0.048044446259737014,0.047905105344951154
89,0.048058636892586944,0.04918696388602257
90,0.048045976538211105,0.04777394223213196
91,0.04803791639208794,0.04791390289366245
92,0.0480495325922966,0.04800878475606442
93,0.04804424971342087,0.047837202340364454
94,0.04803018493950367,0.047974984757602215
95,0.04804933980479836,0.04780104301869869
96,0.04803121381253004,0.047963223330676555
97,0.04805657287687063,0.04782931587100029
98,0.048090304780751464,0.04830003793537617
99,0.04798636820912361,0.048112469188869
100,0.04803534384444356,0.04787241545319557
101,0.048053634069859984,0.048359760373830794
102,0.048051908556371925,0.047953732244670394
103,0.04802213022857905,0.04812712820619345
104,0.04805078335478902,0.04810109427571297
105,0.04802318373322487,0.04775473814457655
106,0.04806300138682127,0.048049968495965004
107,0.04804601342603564,0.04791946662962437
108,0.04802380956709385,0.047688262984156606
109,0.048033761363476514,0.04782843428850174
110,0.048055140107870105,0.048045264020562174
111,0.04801645092666149,0.04778995393961668
112,0.04804879940673709,0.04780683194100857
113,0.048018641758710144,0.048398294903337954
114,0.04803975963592529,0.04821180532872677
115,0.04801425094529986,0.04776993997395038
116,0.04805408852919936,0.047759555362164974
117,0.047992890808731314,0.04793258840590715
118,0.04806136114895344,0.04800883179157972
119,0.04799180005118251,0.04795636338740587
120,0.048033886324614285,0.04896875838935375
121,0.04806981199979782,0.04790219653397799
122,0.04798232924938202,0.047998535260558126
123,0.04801501408219337,0.04821512891352177
124,0.04802469304203987,0.04890780955553055
125,0.04801682430505753,0.047926602363586424
126,0.04801029824838042,0.04782363816350699
127,0.0480085313655436,0.0485385667681694
128,0.048040749903768304,0.047903688587248326
129,0.04803113765642047,0.0486698012650013
130,0.04800366136431694,0.047853303104639054
131,0.04802437220513821,0.047985900953412056
132,0.04800478147342801,0.04790585751831532
133,0.0480422983057797,0.04781304620206356
134,0.04800304682925344,0.04784268970042467
135,0.04803007742017507,0.04785011440515518
136,0.047997722033411266,0.047981056526303294
137,0.04803684596344829,0.04785362509638071
138,0.04801082682609558,0.04789838743954897
139,0.04802596439421177,0.04773793474584818
140,0.04801085416972637,0.047830271653831004
141,0.0480202198959887,0.04796034299582243
142,0.048020363625139,0.04784992318600416
143,0.04802422642335296,0.048746518574655055
144,0.047993994124233726,0.04778457373380661
145,0.04803451933711767,0.047991269551217554
146,0.04801464020833373,0.04784977914392948
147,0.04800453798100352,0.04806111101806164
148,0.04802830549702048,0.047722812347114084
149,0.047992769487202165,0.047855205319821834
150,0.04802800785005092,0.04777035123854875
151,0.04801709288731217,0.04779651521891355
152,0.04799995832145214,0.047857579946517945
153,0.0480169482268393,0.04778153768181801
154,0.04803512712568045,0.04765008131414652
155,0.04801183846592903,0.04804779323935509
156,0.04801019535958767,0.048197012662887576
157,0.04799580647796393,0.04780647574365139
158,0.048023338694125416,0.04809017885476351
159,0.048001361899077895,0.0488927605971694
160,0.04798620964214206,0.04804084555059671
161,0.048047049026936295,0.04789237380027771
162,0.04798793776705861,0.04768248558789492
163,0.04800565804168582,0.04781701699644327
164,0.04801599565148353,0.04837713834643364
165,0.04801028515771032,0.04831155774742365
166,0.04799206236377358,0.0479349689334631
167,0.048017699010670184,0.0477129285633564
168,0.0480096968524158,0.047735750168561936
169,0.04801807440817356,0.047739278130233286
170,0.04800410913676024,0.04891972593218088
171,0.048002646021544935,0.04786287279427052
172,0.04801810239255428,0.048143352039158344
173,0.04802060044929385,0.04844432788342237
174,0.048000065885484215,0.04787908764928579
175,0.048010779991745946,0.047988174825906754
176,0.04796839373931289,0.04797931158542633
177,0.048022139985114336,0.04776288802176714
178,0.04798996110260487,0.047915380015969275
179,0.04799699614942074,0.04785165291279554
180,0.047996892508119345,0.04835114223510027
181,0.04798735573515296,0.04786407766491175
182,0.04799916311725974,0.047956170715391634
183,0.04799429740384221,0.0478094544634223
184,0.04799632161855698,0.0477493888437748
185,0.048010644786059854,0.04789393864572048
186,0.047996691208332776,0.047776638828217984
187,0.04798386692255736,0.04796550889313221
188,0.04798654476553202,0.04778325819969177
189,0.0480199641212821,0.04791393981873989
190,0.048015153910964725,0.04777223060280084
191,0.04797295186668635,0.04787912616878748
192,0.04801349806413054,0.04797994735836983
193,0.04800318519771099,0.04773175799101591
194,0.047995750699192284,0.048187483094632624
195,0.04800789631530643,0.04767656322568655
196,0.04797851351648569,0.04797853054106235
197,0.04799321052804589,0.04808653588593006
198,0.047994210716336964,0.047973050855100154
199,0.048001234147697684,0.04788662499189377
200,0.047997353531420234,0.047776779130101206
201,0.0479981444068253,0.048188342109322546
202,0.04799148885905743,0.047811254709959033
203,0.04799314643070102,0.0482783767580986
204,0.04800244859233498,0.04774437370151281
205,0.04797164594009519,0.04875962221622467
206,0.048012027483433486,0.04786644476652145
207,0.04798810874298215,0.04778368226438761
208,0.04798315376788378,0.048061337627470495
209,0.04798300395905972,0.04810892080515623
210,0.04799744711443782,0.0477930466607213
211,0.04799176918715239,0.04783294279128313
212,0.04800709926709533,0.04788765971362591
213,0.04800342896208167,0.0478452121168375
214,0.048026005938649176,0.04790779710561037
215,0.0479659845083952,0.04772992276400328
216,0.047999305829405786,0.0477228591516614
217,0.04797909647598863,0.047938406318426136
218,0.04799615152180195,0.0479450126811862
219,0.047989728532731535,0.048228180170059205
220,0.04796760033071041,0.047824766933917996
221,0.04800203842297197,0.04794693168997764
222,0.047985123563557865,0.047796061761677264
223,0.04797155498340726,0.04787435986846685
224,0.04801673674210906,0.04866816671937704
225,0.04796523791924119,0.04796447105705738
226,0.048005820404738185,0.047712686702609065
227,0.04798460415750742,0.04779448958486319
228,0.0479943442940712,0.04800652295351029
229,0.047992118045687676,0.04780106947571039
230,0.047972748655825855,0.048431385688483715
231,0.04798003792762756,0.04801027739048004
232,0.04800038484111428,0.047855526342988015
233,0.047969044964760545,0.04824961099028587
234,0.04800110420957208,0.04840564385056496
235,0.04798413015156984,0.047904931895434856
236,0.047974707745015624,0.04785008384287357
237,0.047987568512558934,0.050245295487344264
238,0.048007201097905634,0.047827971041202545
239,0.047974176734685896,0.048630953021347526
240,0.04799279946088791,0.047731920883059505
241,0.04799715020507574,0.04794446580857038
242,0.047980873562395575,0.047842306055128576
243,0.04795992447435856,0.04772041009366512
244,0.047986142084002495,0.0480235418304801
245,0.04797058392688632,0.04782201226055622
246,0.04798314378410578,0.04774241185933351
247,0.047952150728553536,0.047799609273672106
248,0.047957687370479105,0.04789292429387569
249,0.04797314154356718,0.047874569527804854
250,0.04800163738057017,0.047753382436931134
251,0.0479920083321631,0.04876432061195374
252,0.047959382228553296,0.047887773036956786
253,0.047997693706303836,0.04811860189586878
254,0.04796395661309361,0.04780523567646742
255,0.04798391218110919,0.04820510569214821
256,0.04796792053431272,0.0478752875328064
257,0.04797433015331626,0.048237735740840434
258,0.04797879340872169,0.04815555240213871
259,0.04796159288659692,0.047834663592278955
260,0.04797832256183028,0.04788944109529257
261,0.047966609463095666,0.04786017175018788
262,0.04796914173662663,0.049021495513617994
263,0.047966464303433896,0.047681227512657645
264,0.0479737541154027,0.047867435961961746
265,0.047968345623463395,0.04790328055620194
266,0.047998016677796844,0.047893804728984836
267,0.04799458971247077,0.04782134711742401
268,0.04795070947706699,0.04789099320024252
269,0.04797296031564474,0.047829358905553815
270,0.04798540442064404,0.047702028229832646
271,0.04797798516601324,0.047765133045613764
272,0.04798380712047219,0.047821507945656774
273,0.04797229576855898,0.04784091867506504
274,0.047955908723175525,0.04805423618853092
275,0.0479651096239686,0.049804932095110416
276,0.04800080334022641,0.047753255046904086
277,0.04797139487415552,0.048003066070377826
278,0.04796108513697982,0.047751171715557574
279,0.04797382694482803,0.04782310393452644
280,0.047965235870331524,0.04765259073674679
281,0.047983430195599794,0.04802509304136038
282,0.047962439242750406,0.04805663770437241
283,0.047941335931420324,0.048130614772439004
284,0.04799740431830287,0.0477235539779067
285,0.04795886634290218,0.047724779941141604
286,0.04795741080120206,0.04815440990030766
287,0.047968583915382626,0.047909154906868937
288,0.047985900703817606,0.047813653074204925
289,0.04793967543914914,0.04781207118183375
290,0.04797911373153329,0.04785157358646393
291,0.04798215426132083,0.04772671785950661
292,0.04796889194846153,0.047781145401299
293,0.04797726775333285,0.04773280154913664
294,0.0479576817676425,0.04779270195215941
295,0.04797918090596795,0.04776501895487308
296,0.04798067692667246,0.047796356961131096
297,0.047964071311056615,0.04827441209554672
298,0.047982627991586924,0.04784006774425507
299,0.04796191830560565,0.04831672859191895
300,0.047960593543946745,0.04771640914678574
301,0.04795325554534793,0.04795629908889532
302,0.047987775009125475,0.04812112859636545
303,0.04798731414601207,0.048242756970226765
304,0.0479504389539361,0.04796639925986528
305,0.047953178092837334,0.047903316959738734
306,0.047976782474666836,0.04779174564033747
307,0.04796085336059332,0.0478924367800355
308,0.0479887770190835,0.0480383070409298
309,0.047944038055837156,0.04880652892589569
310,0.04796601852029562,0.04772200930863619
311,0.04798165002092719,0.047889572136104105
312,0.047979129780083896,0.04797376596927643
313,0.04797621187195182,0.04767086160928011
314,0.04794173918664455,0.047932164251804354
315,0.047999874450266364,0.04780693344026804
316,0.047946246743202206,0.047963300555944444
317,0.047973490726202724,0.047699492201209066
318,0.047956603921949864,0.0477952832877636
319,0.04797787632420659,0.04780837154388428
320,0.047974097900092605,0.04803727275878191
321,0.04796415387094021,0.04803813717514276
322,0.047940839193761346,0.0481261929422617
323,0.047991055835038425,0.04773482120782137
324,0.0479694259352982,0.04784984266757965
325,0.04796799243986607,0.04779398413002491
326,0.047953829068690536,0.04768616611510515
327,0.047979529913514854,0.0479197920486331
328,0.04799131569266319,0.04769340422749519
329,0.04794674053415656,0.047976086609065535
330,0.04795758781954646,0.04803194097429514
331,0.04795888129249215,0.04778072311729193
332,0.047993419136852025,0.04779202838242054
333,0.04795757643133402,0.047844134107232095
334,0.04798557672277093,0.04779176627099514
335,0.04795285117998719,0.04779248637706041
336,0.04795801351964474,0.047679421350359914
337,0.04796742508560419,0.047800556443631646
338,0.04795267213508487,0.048162978649139404
339,0.047957250501960515,0.047691393658518794
340,0.04797056854888797,0.049009876504540445
341,0.0479791393019259,0.04785078932344913
342,0.04795674834400415,0.047888815894722936
343,0.047944380566477776,0.04783927960693836
344,0.047957012090831995,0.04774347767233848
345,0.04794637816026807,0.04790671703219414
346,0.04795641249418259,0.04771154876798391
347,0.04796233320236206,0.04780170206725597
348,0.04796849074214697,0.047801655769348146
349,0.04796448770910502,0.04778102328628302
350,0.047970771390944716,0.048049194686114786
351,0.04794404569268226,0.047817746721208094
352,0.04797398151084781,0.04776605396717787
353,0.047966403882950544,0.0480633390545845
354,0.047970435742288826,0.04775872753560543
355,0.047972568441182376,0.048015258461236957
356,0.04794146625325084,0.04788921194523573
357,0.047972651291638614,0.047855596259236334
358,0.047948883827775714,0.047748360857367514
359,0.04797496956586838,0.04785820823162794
360,0.04800486572831869,0.04777227608114481
361,0.04792254528403282,0.04772279811650514
362,0.04799294051900506,0.04831046569347382
363,0.04794567585736513,0.047741206809878346
364,0.047997966513037685,0.04784305395185948
365,0.04793777706474066,0.048238731376826764
366,0.04798547626286745,0.047806576780974865
367,0.04797199375554919,0.047806893117725846
368,0.04797029159590602,0.04784526723623276
369,0.04796689422056079,0.04777784106880426
370,0.047927021950483324,0.04788661251962185
371,0.0479709134735167,0.04783598316460848
372,0.04796023106202483,0.04845929017663002
373,0.04795661662518978,0.047802159778773785
374,0.04795914836600423,0.047852644585073
375,0.047963868990540504,0.04780739196389914
376,0.047976684629917145,0.04773639720678329
377,0.04798068849742412,0.04787928257882595
378,0.04795826144516468,0.04777855902165175
379,0.0479851186349988,0.04803778808563948
380,0.04796529158949852,0.047863975889980793
381,0.04796980905905366,0.04886751843988896
382,0.04794429436698556,0.04779596504569054
383,0.04797496753931046,0.04807212305814028
384,0.047934840608388186,0.047824855737388136
385,0.04796743172779679,0.04779663869738579
386,0.04796876569092274,0.047857309885323045
387,0.04797080327197909,0.04771876477450132
388,0.04797204092144966,0.04777124232798815
389,0.04798130360990763,0.047725019872188565
390,0.04797557957470417,0.0478841402977705
391,0.047961773794144395,0.047690046973526475
392,0.04795271031931043,0.047777508020401004
393,0.04795752350986004,0.047719986349344254
394,0.04795439436659217,0.04784866000711918
395,0.04797338343039155,0.04821158362179995
396,0.047949600402265785,0.04825500248372555
397,0.0479788721986115,0.04781517332047224
398,0.04794856590777635,0.04773176246136427
399,0.04799953306093812,0.04774914963543415
400,0.047942775402218106,0.047855677850544454
401,0.04797156668454409,0.04771196586638689
402,0.04798612571880222,0.04772357109934092
403,0.04797332179918885,0.047748034663498404
404,0.047979436341673135,0.04782850934565067
405,0.04796297108754516,0.04788955830037594
406,0.047971186544746164,0.04771965757012367
407,0.04797401723265648,0.04790429821610451
408,0.04794121687859297,0.04799331285059452
409,0.04795048124343157,0.04845453954488039
410,0.04797184232249856,0.04771833254396916
411,0.04795873305946589,0.047779856085777284
412,0.047967825651168826,0.047825012870132924
413,0.047948144100606445,0.047782589346170426
414,0.047959649946540596,0.04781429439783096
415,0.04797525387629867,0.04787294426560402
416,0.047952174145728346,0.04779814643412828
417,0.047956338331103326,0.04771835882216692
418,0.04794037513807416,0.047701966807246206
419,0.04799743637442589,0.047957783944904804
420,0.047939846716821194,0.04791148370504379
421,0.0479367627799511,0.04767346340417862
422,0.047972829576581714,0.04777994702756405
423,0.04795158157125115,0.047717270858585834
424,0.047999384500086305,0.04891427524387836
425,0.04791731531918049,0.04963116178661585
426,0.04795382498577237,0.04792992890626192
427,0.047943021237850186,0.047819950200617314
428,0.047978833641856906,0.04775266794860363
429,0.04798053815215826,0.04811661734431982
430,0.04795346321538091,0.04792197411507368
431,0.04796395843848586,0.04781251143664122
432,0.04795274205505848,0.04841062387079
433,0.04795797952264547,0.04773552185297012
434,0.047963127076625825,0.04771298983693123
435,0.04797493543475866,0.04781641699373722
436,0.047951180025935174,0.047726510994136336
437,0.04795959877222777,0.04860231064260006
438,0.047948445223271845,0.047711482770740984
439,0.04797290691360831,0.04780628276616335
440,0.04793079217150807,0.04838753132522106
441,0.047965555500239135,0.047704772606492044
442,0.04797036146745086,0.04814826741814613
443,0.04798484540358186,0.047890817560255525
444,0.04797217264026404,0.048697865910828114
445,0.047948656167834995,0.04795569843798876
446,0.04798602687567472,0.04786304374784231
447,0.04794981062412262,0.048164316348731515
448,0.04797096793726087,0.04867400028556585
449,0.04797852150723338,0.047714356988668445
450,0.0479979739189148,0.04898015305399895
451,0.047941860180348156,0.04801413562893868
452,0.047974884990602734,0.04779086349159479
453,0.047951271928846836,0.047639133177697655
454,0.047959629368036986,0.04822749904543162
455,0.04796030766516924,0.04788023557513952
456,0.04799347833171487,0.04775319718569517
457,0.04795966976881027,0.047768642462790015
458,0.04796225456148386,0.04783546871691942
459,0.04797016329690814,0.04778822447359562
460,0.04796363705024123,0.04792258229851723
461,0.04794475882872939,0.04787719048559666
462,0.04795582503452897,0.04770138834416866
463,0.047972818359732626,0.04869760536402464
464,0.04794599489122629,0.04825236525386572
465,0.04797864825278521,0.04796630331873894
466,0.04796005343273282,0.047778293557465074
467,0.04794829742237926,0.04785168907046318
468,0.047960807207971815,0.047696143373847005
469,0.047966168254613875,0.048060849100351334
470,0.04797324929758907,0.04801185956597328
471,0.04795897150039673,0.04765339206159115
472,0.047934211507439616,0.047846310399472715
473,0.047964630074799064,0.04796414083987474
474,0.04797700104862451,0.04776774910092354
475,0.047944354962557556,0.0477540538161993
476,0.047954292524605986,0.047678468897938725
477,0.047949795793741944,0.04778192911297083
478,0.04795003383979201,0.04799326802790165
479,0.04798348335921764,0.048087456122040746
480,0.047970225621014835,0.04782729570567608
481,0.047948840472847226,0.04773836923390627
482,0.047949568662792444,0.047698707543313505
483,0.04794879590719938,0.047817024528980255
484,0.04795200659707188,0.04772934489697218
485,0.047953368775546554,0.04798739884793758
486,0.047966182600706814,0.04784802287071943
487,0.047963501770049335,0.04777657198160887
488,0.04796142436936498,0.04798454186320305
489,0.04797379396855831,0.04785543241351843
490,0.047960624363273384,0.04793912100046873
491,0.04794273826479912,0.04801908678561449
492,0.04795901095867157,0.0479437338784337
493,0.047960993647575376,0.04777249539643526
494,0.04795706593617797,0.04792593608051538
495,0.047944558382034305,0.04770242866873741
496,0.04795731226354837,0.047692950963973996
497,0.04796075282245874,0.04793939392268658
498,0.047978988531976935,0.04807204695045948
499,0.047953106272965666,0.04784414028376341
500,0.04797167581319809,0.048337061829864976
501,0.04794275508075953,0.04791623768955469
502,0.047948355857282875,0.0478646078556776
503,0.04795973109826446,0.047783047899603845
504,0.04794509825855493,0.047749380744993686
505,0.047984925132244824,0.04865484424680471
506,0.04794644310325384,0.04777363791316748
507,0.04794401478394866,0.04770691329240799
508,0.04798821188509464,0.04851123678684235
509,0.04794480730593204,0.04796359170973301
510,0.04796595162153244,0.047771929450333116
511,0.04795841072872281,0.0495299126803875
512,0.047969838667660955,0.04792588439583778
513,0.04795199243351817,0.04782482799887657
514,0.04794048455357552,0.04771866232901811
515,0.04795252033695579,0.04766700951755047
516,0.04796809593960643,0.047931179493665696
517,0.047928784985095264,0.04810870419442654
518,0.048001368310302495,0.04785638723522425
519,0.04793975333124399,0.04778707506507635
520,0.04795483869686723,0.04795159396529198
521,0.047966665409505366,0.04770926727354526
522,0.04797027232497931,0.04787352830171585
523,0.047959648363292216,0.04777740804851055
524,0.047949697453528645,0.04771507255733013
525,0.04795484922453761,0.04796609514951706
526,0.047947835721075534,0.04776485349982977
527,0.04793696431443095,0.048030440427362917
528,0.04795840414986014,0.04783112359046936
529,0.04795167156681419,0.04785273002833128
530,0.04797213698551059,0.048013348832726475
531,0.04796369221061468,0.04784591145068407
532,0.04796840009465814,0.04781563693284988
533,0.04794308713078499,0.047726241782307624
534,0.04796765934675932,0.04815231181681156
535,0.04794114871695638,0.047790167912840846
536,0.04795354077219963,0.04810289221256971
537,0.04798012652620673,0.04784671285003424
538,0.04795462330430746,0.04798047188669443
539,0.04797314077988267,0.04783232516050339
540,0.04794759534299373,0.04843215180188418
541,0.04800236023589969,0.04811088551580906
542,0.047932459659874437,0.0482661419659853
543,0.047957395441830156,0.04771218601614237
544,0.04793237629532814,0.0477986580953002
545,0.04797166354581714,0.04787762105464935
546,0.047938314255326984,0.047802376322448256
547,0.04798348172008991,0.04776530046761036
548,0.04795682490617037,0.047882232427597045
549,0.04795871327072382,0.04774222873151302
550,0.04796096870675683,0.04780229669809342
551,0.04794382556155324,0.04773551493138075
552,0.047967715039849285,0.04778172513842583
553,0.047962018720805646,0.048337003283202645
