epoch,loss,lr,val_loss
0,0.429619114491627,0.003,0.41405363674933454
1,0.3982538371849403,0.003,0.37703220042875646
2,0.3696267314606624,0.003,0.36704715722973363
3,0.3609714119089879,0.003,0.35244107425165816
4,0.3580004380201455,0.003,0.3604794450768732
5,0.3561097470571478,0.003,0.3650498820414389
6,0.35375911137349697,0.003,0.3499827279335133
7,0.35172812311316753,0.003,0.3506086597596931
8,0.3491050029913489,0.003,0.3404150661301594
9,0.3480278537880412,0.003,0.3432068583079935
10,0.34943802744078695,0.003,0.3560041425942246
11,0.35127020776748274,0.003,0.342409661002957
12,0.3470867370649112,0.003,0.34301782829279776
13,0.34615788306239886,0.003,0.3415607604908962
14,0.3454401064619458,0.003,0.33772444622716097
15,0.3464076074240781,0.003,0.34256220423714234
16,0.3447509295851302,0.003,0.3416821118782333
17,0.3452819070691685,0.003,0.3369830948871802
18,0.34435986352862596,0.003,0.33937197202712227
19,0.34300881471755884,0.003,0.33857966505502657
20,0.3429957735214493,0.003,0.3359648849353512
21,0.34658369981199144,0.003,0.3431864677566003
22,0.3466328848704255,0.003,0.3384279877935325
23,0.3449825188346046,0.003,0.3386791232611687
24,0.34442377589541756,0.003,0.348596465804018
25,0.3455251473888791,0.003,0.3488738326195572
26,0.34439476830758253,0.003,0.3368182897850013
27,0.3433777157255976,0.003,0.3384851912108574
28,0.34396145068150724,0.003,0.33483696463734686
29,0.3437018166188237,0.003,0.34414250494790244
30,0.34635719549146105,0.003,0.3351276195016355
31,0.34317310283081137,0.003,0.33880695146703305
32,0.3433402843243308,0.003,0.3354440787785055
33,0.3421156477275417,0.003,0.33606420551450966
34,0.3425641133160376,0.003,0.3427448577314451
35,0.3424167518290303,0.003,0.33493773686246037
36,0.3433236321516269,0.003,0.34192191397193483
37,0.3427056459833583,0.003,0.3383881289985298
38,0.34261924037330155,0.003,0.337569567662294
39,0.34275141046296875,0.003,0.33808680205666936
40,0.3427744500106759,0.003,0.3380238519659547
41,0.34322625631503734,0.003,0.33584518233150973
42,0.342415409193908,0.003,0.3389553012651257
43,0.3442074023574281,0.003,0.34826468366426844
44,0.3439502601536344,0.003,0.3390395612982943
45,0.34448649587152863,0.003,0.34185454602211407
46,0.34452623148544803,0.003,0.3415289944965442
47,0.34495928220683153,0.003,0.3405552239237381
48,0.34476399428243165,0.003,0.3439862355531062
49,0.3442853848746926,0.003,0.34145468364057335
50,0.34793055622125985,0.003,0.3449086070225384
51,0.35032254589094725,0.003,0.3456095595268537
52,0.341584306159656,0.003,0.33534794427225134
53,0.33969731204848974,0.003,0.33573389240344303
54,0.3395156596930955,0.003,0.33552948878850164
55,0.3400558042261812,0.003,0.3331654353248104
56,0.3385416287109911,0.003,0.3337292695196012
57,0.3386826232361565,0.003,0.33526893351712184
58,0.33944493626280847,0.003,0.3344945647675124
59,0.33886346133421363,0.003,0.33403001592774606
60,0.3396433355401365,0.003,0.34196885084202655
61,0.33948276225301766,0.003,0.3417667932249753
62,0.3395672924667716,0.003,0.33826986623261984
63,0.3408875401071507,0.003,0.33741882202327955
64,0.3400635720728684,0.003,0.33772794223128105
65,0.33959812329684513,0.003,0.3380164866406991
66,0.34045104866476655,0.003,0.33971612708203514
67,0.3410442154303634,0.003,0.3325601706565038
68,0.34180609235684456,0.003,0.3443119513325176
69,0.3421882191996018,0.003,0.3387348542861705
70,0.3428485780882893,0.003,0.3357076908108185
71,0.3424360560689518,0.003,0.34257939865999365
72,0.34101062285885825,0.003,0.3344292448158799
73,0.34146033143468324,0.003,0.33699802973181975
74,0.34165404312949865,0.003,0.3394164034910059
75,0.33989474092789596,0.003,0.3371554000248755
76,0.3400495736290225,0.003,0.34712501809930085
77,0.33911047332125793,0.003,0.33493454167479686
78,0.3375540260407183,0.003,0.3414872041958566
79,0.3376952671914173,0.003,0.3314939426947694
80,0.33834925361221835,0.003,0.33669116105163954
81,0.33883055571100407,0.003,0.3403741033202377
82,0.33746745916221926,0.003,0.3398188492070057
83,0.3377505692420341,0.003,0.33328031925535995
84,0.33680749412992306,0.003,0.33538367068240654
85,0.3472676504132368,0.003,0.3391269594548533
86,0.34499519641736714,0.003,0.34106117751575776
87,0.3444985479211731,0.003,0.3373725204225027
88,0.34452427061889573,0.003,0.3412456256179426
89,0.3434182821775226,0.003,0.33994411748276043
90,0.34388822333799374,0.003,0.34106539186287227
91,0.34382707649450317,0.003,0.3366972991304315
92,0.3433607926995729,0.003,0.33513758195109883
93,0.34420306988352306,0.003,0.3390901061899566
94,0.34311466698321125,0.003,0.3379987836142836
95,0.34299333205373644,0.003,0.34140558840726054
96,0.3428455321170348,0.003,0.33948547851173727
97,0.3428234719246221,0.003,0.3421165975488446
98,0.3435459112068065,0.003,0.33960405192040233
99,0.3428090930485325,0.003,0.33873263348390853
100,0.34281107791655546,0.003,0.33797050579711974
101,0.34334413949057735,0.003,0.3418088221441787
102,0.3427237566533706,0.003,0.34165943754453215
103,0.34307791495756756,0.003,0.3374486801162327
104,0.34337272802941043,0.003,0.33722851501267637
105,0.34395781611438564,0.003,0.348949933508389
106,0.3429610888353831,0.003,0.33966543773614055
107,0.34458956901999493,0.003,0.33946608733782735
108,0.34530605954660787,0.003,0.3411591954958561
109,0.3474251779137279,0.003,0.3480173684333193
110,0.34550332520410215,0.003,0.35136109021298984
111,0.3460031761218318,0.003,0.34119210636277036
112,0.34545832504328494,0.003,0.34491144955722763
113,0.3450069127203845,0.003,0.33706425919529015
114,0.3434414358959972,0.003,0.34584334889028423
115,0.3437465164515612,0.003,0.35016061589063013
116,0.34318898618221283,0.003,0.3361618884831032
117,0.3425210567591764,0.003,0.33807452155928397
118,0.3413178343757642,0.003,0.34121300882256306
119,0.34058389862735783,0.003,0.3350763161796797
120,0.34118568005679034,0.003,0.3388270421016847
121,0.3404070842418549,0.003,0.3340329412950148
122,0.34009288176358177,0.003,0.34331959563630154
123,0.3401172529521892,0.003,0.3349335141297674
124,0.34040101341528,0.003,0.3387662403891194
125,0.34045832428476697,0.003,0.33852360401693626
126,0.3400687845788604,0.003,0.3395927546761971
127,0.34047279796368785,0.003,0.3468826885005105
128,0.3405830296311828,0.003,0.33782778375715183
129,0.34109703481769105,0.003,0.33812592750754805
130,0.34095499438824034,0.003,0.3331176005274457
131,0.34044175675447036,0.003,0.33649749501116555
132,0.34153091631752314,0.003,0.3389272631484877
133,0.3416417866564102,0.003,0.3427097568054696
134,0.3415959669793729,0.003,0.3414407749296458
