epoch,loss,val_loss
0,0.14878081761038092,0.06518859214119957
1,0.05385554310462301,0.04808636010901675
2,0.048576933086467225,0.048407786376985805
3,0.04863594825699436,0.04838685811907416
4,0.04843565872799548,0.04789117518555606
5,0.048444322091911296,0.04789949504889711
6,0.048321169922598085,0.04807074796121389
7,0.04846760210505813,0.04793381495197324
8,0.0483310208562687,0.04799392718794572
9,0.04829005861850239,0.04796478012992131
10,0.048438939898967553,0.0481383027289809
11,0.048279670664400844,0.04779078253671007
12,0.04831300586539569,0.04779989176580119
13,0.048340610297824785,0.04820904405205983
14,0.04836664605495021,0.04816619909254401
15,0.04825880508825147,0.047905650512532115
16,0.04830490535735082,0.04780537280082606
17,0.048244533997724014,0.04812844786777887
18,0.048297756802651574,0.04833825494843291
19,0.048257214495176975,0.04810669227516081
20,0.04830013256552842,0.04915887118292261
21,0.04822874751040418,0.04941713529286207
22,0.04820640706229773,0.048819617334291014
23,0.04817393980920315,0.04775317271888885
24,0.04818264359505392,0.04832327950803226
25,0.048166673138343975,0.04883325711158554
26,0.048190692205539794,0.04773744393596297
27,0.04808511780507809,0.04834705098424128
28,0.0481698311972704,0.04776503171073839
29,0.04819029331911173,0.04770439330545848
30,0.04807039270635315,0.04799632790339061
31,0.048244135039713115,0.04787068835490618
32,0.04811204293425127,0.048085140301532506
33,0.04814521483987498,0.04801047739889307
34,0.04814268299956337,0.04765800012023296
35,0.04805399013833822,0.04776418468305374
36,0.04810811844978741,0.04847488738747505
37,0.04813334943385149,0.047860049430374585
38,0.04810489359959733,0.047716512396895394
39,0.04808732880066165,0.0482454030606095
40,0.048049272207306135,0.048693388325841275
41,0.048073725809184335,0.047747001961320756
42,0.04809393875414224,0.047796468269336735
43,0.048044893957728194,0.047802844649031215
44,0.04805898265517932,0.04772323441283063
45,0.04805052507105019,0.04785216681278535
46,0.04801806025177217,0.0482184219733787
47,0.04806036913724209,0.047466931056415564
48,0.04799181560398914,0.04778605229421447
49,0.04797876012430275,0.0475320971577707
50,0.04799795319871295,0.04772818874679536
51,0.04801250861329828,0.04769467679060095
52,0.047986113285128355,0.04819980659201101
53,0.04803508225891044,0.047982519654147716
54,0.04797978412577684,0.047541391482125044
55,0.047981937441995755,0.04786902876073813
56,0.047975191238035765,0.04773484539340302
57,0.04800041396919492,0.04773400340830516
58,0.0479583430802636,0.04758756212581973
59,0.04797030129194785,0.04778118469334674
60,0.048010425616780504,0.04747771980529477
61,0.047978526852231584,0.048158988565061504
62,0.047962144761382816,0.04785841513071617
63,0.04797148269364794,0.04745736343231708
64,0.04794085478101424,0.04751715102721692
65,0.04797280702390987,0.04782226487438271
66,0.04793368119916456,0.04779955881911376
67,0.04795066895242259,0.04793405162724942
68,0.04794776251463531,0.04773524659780207
69,0.04793123075748988,0.04778363722446771
70,0.047957627266776666,0.04803195989117425
71,0.047930403397059895,0.04763184548548248
72,0.04791699988309673,0.04782371494589738
73,0.04793303184139671,0.04742819490779829
74,0.047930577304587066,0.047731021287740004
75,0.047958651520282,0.04773907736850191
76,0.04784706084160589,0.047571983656695675
77,0.047935442375638085,0.047658212473865265
78,0.04791161857748194,0.047494935081774686
79,0.04787310308592619,0.04768648119122153
80,0.047896230244357366,0.04873728936436886
81,0.04796443240429231,0.047469103870503994
82,0.047906045153963746,0.04764571701631929
83,0.04790549660273034,0.04742593962369851
84,0.047876583634494686,0.04815156035433431
85,0.04792642807237524,0.047419184627009905
86,0.04789371706927128,0.04762558922449554
87,0.04793760348693002,0.04766775013551128
88,0.047879607353308755,0.04797221241943351
89,0.04790082779691351,0.04757323588598867
90,0.04792120545100364,0.0477415959004068
91,0.047880048515369075,0.04754809702883285
92,0.047908851699389104,0.047697562250004294
93,0.047879908017641165,0.04781310267244909
94,0.04790617245957077,0.04778778341516478
95,0.04786325853058488,0.04767450247645765
96,0.04789127911134564,0.04764145827532685
97,0.04792704082595958,0.04790421145373694
98,0.04789645537537179,0.04737274171988459
99,0.04783068769562951,0.047692003678787266
100,0.04786545096682586,0.04781941575544304
101,0.047887705023392284,0.04765044418310887
102,0.04786546807661593,0.04774613498082416
103,0.04793206891052431,0.0476355938435761
104,0.04785412494495833,0.04763378635568534
105,0.047843387769497904,0.04742010041092434
106,0.04785116028347857,0.0495166618373949
107,0.04788849064058738,0.04733787847430553
108,0.0479051721818429,0.04762452784004196
109,0.047853524775040734,0.04753953653228351
110,0.04784953248522299,0.04779212427871651
111,0.04787836746246315,0.04761009333415043
112,0.04785660083135001,0.04820662516336178
113,0.04787489724419325,0.04759488500116902
114,0.047870691822434634,0.04752242381156506
115,0.04787235029691978,0.04756974417713243
116,0.04784598806090026,0.04795845684392222
117,0.04784026028539201,0.047673174756407644
118,0.04793377281774321,0.04775316496919735
119,0.04781015312598885,0.047618966087372636
120,0.04784879787825794,0.047429920203639356
121,0.04783720964099093,0.047799639240668636
122,0.047878149189979576,0.047454904344926885
123,0.047824945430561386,0.04741977955556844
124,0.047864013950260666,0.04771062274012543
125,0.04784403861260968,0.04759215639370878
126,0.04785754139855015,0.04774962449317914
127,0.04782472360279676,0.047459946756477
128,0.04785706951402969,0.04822553266126841
129,0.04781697137509469,0.0476846146848225
130,0.04787157106401922,0.047409967198327414
131,0.04785146120729878,0.0480819304155704
132,0.047860722671195066,0.04768096537775657
133,0.04782648391729359,0.04778802839303442
134,0.04783651644619013,0.04790791504489921
135,0.047858331849078256,0.04764805738991678
136,0.0477767034729807,0.04768389678542825
137,0.047815637243948904,0.0474676142559241
138,0.04783865544733236,0.0476127560012532
139,0.047859942158751244,0.047509312723360696
140,0.04780732689229988,0.04745745833809068
141,0.04785583463547419,0.04772055717993343
142,0.047805656884029636,0.04778427838529887
143,0.04784860212156017,0.04778372500596352
144,0.047832059993850796,0.047459796527272204
145,0.04784139648849388,0.04742762171161049
146,0.04780200559249203,0.04744255420391577
147,0.047868284160454716,0.04745964676032971
148,0.04779923604495579,0.047608837560846475
149,0.04786394842213588,0.0475304575436065
150,0.04778994882465888,0.04788979985551049
151,0.04786568450584137,0.04747179901984196
152,0.047817311624737624,0.048658527902177166
153,0.04784163103414307,0.04795100502760451
154,0.04781691587900667,0.04742762778446816
155,0.047860811202763746,0.04742784033750772
156,0.047812639936220175,0.04745480021505653
157,0.04785553327171778,0.047956658169228374
158,0.047855593443060035,0.04741273153594424
159,0.04783055345543487,0.04768598970367187
160,0.047827095588187485,0.047453389182046286
161,0.047806897074628395,0.04758650069906764
162,0.04779116376888475,0.04761317810715937
163,0.047841412755694264,0.04740487138490704
164,0.04780550822138405,0.047570849086753936
165,0.0478520244345057,0.047778399756355006
166,0.04780181882093199,0.04754291841305569
167,0.047811419178871176,0.04744410697621537
168,0.047834692682453495,0.047468855315388844
169,0.04782119248244312,0.047547001548758
170,0.047806936606251786,0.04832636835680487
171,0.047849905288653724,0.04769475700670592
172,0.04781800262433133,0.04749055953344386
173,0.04781074955868568,0.04755973124337312
174,0.047829456256032944,0.04755014562125817
175,0.04778828334102066,0.04755693543264272
176,0.04782499209959045,0.047479453083469146
177,0.04787138788651427,0.04748528238630643
178,0.04782750742514435,0.04770521691789592
179,0.047815151426126905,0.04763716564718438
180,0.04780620224237012,0.04765601057048648
181,0.04783944365940541,0.04764669965907315
182,0.04781172897747223,0.04747863896704745
183,0.04783468361231114,0.047668458550975075
184,0.04780887457444441,0.047839526123301536
185,0.04780984256532882,0.047459606990665315
186,0.04785105928903918,0.047520862075002425
187,0.04783578874398652,0.047823651495109414
188,0.04777440404574617,0.0475060968430953
189,0.047807690753840844,0.047532650543148695
190,0.047824886091369645,0.04743537173847406
191,0.04778498004796841,0.04749221033556424
192,0.04780870085780481,0.047441336689615095
193,0.047811589250751164,0.04757221346450645
194,0.04783213777009777,0.047912638688827086
195,0.047793934261911,0.047590115508676444
196,0.047791629421224203,0.0474906547020725
197,0.047812067201917316,0.04750993998913096
198,0.047803924673254054,0.04754650796441073
199,0.047835211598391145,0.04762981607845326
200,0.04782237289987916,0.04778523046435714
201,0.04781051866674395,0.04756943330120383
202,0.047788541719281645,0.04740142277823361
203,0.04779210247642236,0.047573021964290134
204,0.04784553352477934,0.04766237807957892
205,0.04779312921743139,0.047541681338714954
206,0.0478054633120998,0.0474782999807369
207,0.047764527164787365,0.04792242744652024
208,0.04779176873634394,0.04730694180555394
209,0.0478387681157399,0.047519446087023735
210,0.04778469976983231,0.04741528654729363
211,0.04778870229301355,0.04777667181383568
212,0.04781342134643212,0.04737654443156497
213,0.047811203371521664,0.047475968976259615
214,0.047783161244326064,0.04760668827681549
215,0.04783274802275664,0.04788196690845857
216,0.047807888573019194,0.04765391459164345
217,0.047794967036756925,0.047666375823651304
218,0.047816944615043,0.048222752866567097
219,0.04781635361369416,0.047563457536750564
220,0.047787934496962996,0.04801890283025384
221,0.047829679074026854,0.04754855646619638
222,0.0477510833705636,0.04766162928112232
223,0.04778024243612925,0.04750865561901218
224,0.04784916606459549,0.04763552812679647
225,0.047816071355099486,0.04788104041395686
226,0.047798135211233425,0.04753762405948821
227,0.04780451426084181,0.047429867720251054
228,0.047792453975010335,0.04757300231663173
229,0.047804704329686414,0.047570141743859526
230,0.04781250322641756,0.04742824322176192
231,0.04779049375201102,0.0475758680226304
232,0.04780558791992853,0.04741018509608599
233,0.04781564935487065,0.047509904382848585
234,0.04779154951687905,0.0473813489834806
235,0.047802083195747136,0.047402648271846266
236,0.04777680482086036,0.047418696813388075
237,0.04781711807517742,0.047460942608451614
238,0.04775160743599181,0.04749519085784995
239,0.0478109352371161,0.04741452481757792
240,0.047810876242416776,0.04748447201028164
241,0.047786444802884104,0.047456688707617364
242,0.04782319069803477,0.04781086112932277
243,0.04776736159620283,0.04757554278031463
244,0.047837226905877155,0.04789011152906816
245,0.047817928418278505,0.04761532898342716
246,0.047814248456322164,0.047358266528868036
247,0.04776976565816242,0.04752424338776603
248,0.0478052483697096,0.047387736937860504
249,0.04778663330883671,0.04754507885180831
250,0.04775034661163942,0.04757264659219608
251,0.04781808238700211,0.04731539557389583
252,0.04778502778030091,0.047940792662408034
253,0.04780757056326986,0.04757347318063591
254,0.04775399725296623,0.047521020359052264
255,0.04784817555196005,0.0474033487110194
256,0.047766165761612626,0.04740149376722051
257,0.047804437151210036,0.04767183944981754
258,0.04777525520150522,0.04748469391431348
259,0.0477893399857611,0.04759487693121737
260,0.04782066092169504,0.047428536706959824
261,0.04777346935430415,0.04743470254883666
262,0.04780767774067706,0.04783977818012914
263,0.04776793019361406,0.047317601746402906
264,0.04781010917412509,0.04753218596047342
265,0.047780482933593334,0.04742503571660173
266,0.04782033487975454,0.047495876543906676
267,0.04777229713757721,0.047305369911305996
268,0.04774319102541746,0.04772450909356905
269,0.04778223047353584,0.04810639921899066
270,0.04779761007355393,0.047643493927429094
271,0.047796393268174225,0.047616834218242934
272,0.04773231253797432,0.04746417946877851
273,0.047813254750793795,0.04756448515490701
274,0.047803646794634405,0.04767543813462965
275,0.04776383133931719,0.04757633031816475
276,0.04783588966833438,0.047449771813377555
277,0.047764832267255856,0.047537481229501535
278,0.047774468151162014,0.04751424106791168
279,0.04778986037809482,0.04766074014224855
280,0.047809946919687756,0.048147226137691464
281,0.047775900804156585,0.04856316099926793
282,0.04775501839261803,0.04754380749452433
283,0.04782650314921661,0.047542800463657504
284,0.04777216822732153,0.047618058956525045
285,0.04778978269281771,0.04748285511343922
286,0.04777529747713748,0.04731727009284139
287,0.04780320350149329,0.047464245454455815
288,0.04777819548455403,0.04739119274736611
289,0.04776136617543843,0.04762014927341023
290,0.04776882496569231,0.04803473800602041
291,0.0477762346739789,0.04756415432012381
292,0.04777138837851029,0.04745533749678709
293,0.04773506750199821,0.047560573554773784
294,0.047878896728086415,0.047454229759207996
295,0.047721110239589186,0.047460405514043034
296,0.047732373077669935,0.04744551658618286
297,0.04780521734153108,0.04770100165373024
298,0.04775961618229234,0.047561493834415686
299,0.047766325761190505,0.0484998656704188
300,0.04781558181347849,0.04745726364710809
301,0.04780160885504048,0.04743248485602795
302,0.04775261171341086,0.04882905901759404
303,0.04778417319005685,0.047445630293644646
304,0.047729099322978356,0.047393999446941795
305,0.04777231597877723,0.04740176108776798
306,0.04781390894040334,0.04733957293151069
307,0.04774486383138369,0.04736534271023666
308,0.04776648199073881,0.047438390988067985
309,0.04779159199234674,0.047423235325796856
310,0.047768919595224175,0.04745877897011876
311,0.04775890444455336,0.047655034151656395
312,0.047805194390283,0.04785262712028968
313,0.04775409364373422,0.047329652779535464
314,0.04777846873713265,0.048180814228184515
315,0.04785633558113638,0.04778168296980742
316,0.04771719374257722,0.047643597996873
317,0.0477891610629612,0.047939604548593896
318,0.0477563443379678,0.04737367889778167
319,0.04780596603689383,0.04743789207712964
320,0.047740031224641925,0.047666917507448336
321,0.047781565631504916,0.04738594259574272
322,0.04771547872510502,0.04779457870420652
323,0.047775921247022644,0.047415305793116175
324,0.04780959985327062,0.04814645090870807
325,0.047763432432010804,0.047413268944570326
326,0.04781709815576088,0.04740011670293599
327,0.04774346655522517,0.04771047046548549
328,0.0477475967359624,0.04746842101542619
329,0.047801272872033077,0.04760241519058515
330,0.04776678418366311,0.04768095088145255
331,0.047791041675403274,0.0473151034180797
332,0.04774681633536676,0.04742334482455679
333,0.047801068868395614,0.047597063631302734
334,0.047782145283990995,0.04744083171790437
335,0.04776815894552715,0.04754901068875776
336,0.04776148243640975,0.04737815554257534
337,0.04783032505397944,0.047340478503356015
338,0.04776159402063553,0.04735600997581292
339,0.04773426490028301,0.04761515046256109
340,0.04779266417056346,0.04745435925912103
341,0.0477750331455703,0.04776954790463993
342,0.047751929831681396,0.04749859507525731
343,0.04776102943782858,0.047377578609011956
344,0.04780842997939039,0.047307885856959074
345,0.047757111959535185,0.04757831791311575
346,0.04778599602172526,0.047450774671798396
347,0.04777934787879952,0.049467042290937194
348,0.047767416333214484,0.0478037934529762
349,0.047755580016667604,0.04726751632112269
350,0.047789553870813094,0.04734013169484223
351,0.04777554600679273,0.04751323566251621
352,0.0477857709518545,0.04738808115407982
353,0.0477244493016918,0.047703735693527836
354,0.04775778712291685,0.047342879252035446
355,0.047777570848218244,0.04748243434597879
356,0.04777562092569134,0.047651205299496166
357,0.04774213010807625,0.04815089396244128
358,0.047705409383241706,0.0478599667095935
359,0.047795582522419666,0.04731881134786068
360,0.04774154279175236,0.047514017780114264
361,0.04777761272268834,0.04736803024886395
362,0.04776258692234826,0.04741974581948452
363,0.04775293776877314,0.04789102930403394
364,0.04775508189852759,0.04768148684890794
365,0.04776315951050282,0.047671168686071255
366,0.047779211838594716,0.04795812863164671
367,0.047741076413145345,0.04735283740922289
368,0.047793106940255056,0.04761231983713474
369,0.04778828609397738,0.04741240796139834
370,0.04770621116622817,0.047447445081049894
371,0.047785901578607036,0.04767229059365157
372,0.047808151183615595,0.047481684487038094
373,0.04774263391108681,0.047471745370223285
374,0.047755453356797456,0.04747939790808275
375,0.04780681251739864,0.047428214809247755
376,0.04772872735766338,0.04746005595008339
377,0.04778473371799418,0.04729787477527028
378,0.047765160215089475,0.04730966814400119
379,0.04778559264794791,0.04743987587125729
380,0.04776608072567263,0.04736398274663591
381,0.047719768554962474,0.04768240393803357
382,0.0477519891320991,0.047484889239773745
383,0.047749561564124424,0.047594540241111705
384,0.047818758364638586,0.04756927057581033
385,0.04773298209403352,0.047478514322399225
386,0.04777284071082063,0.04750122816361553
387,0.047727093040895424,0.04741482808581717
388,0.04779612541413479,0.04794012911357922
389,0.04775616100387539,0.047566143685569634
390,0.047776501372253734,0.04740553979806463
391,0.047723635252687434,0.047312849321359554
392,0.047769382097918665,0.04738960951107455
393,0.04780299252598547,0.04735726699994428
394,0.04770874176129663,0.04758355660486396
395,0.047760178165747416,0.04769377693811859
396,0.047785074246511926,0.047435367466324437
397,0.0477428474695421,0.047531618009300995
398,0.04778374838765809,0.047368595683274964
399,0.04780593268823824,0.04808365750305554
400,0.04769440473551698,0.047362841508636025
401,0.04777394055878763,0.04748507855280279
402,0.04772209905064087,0.04743985581874171
403,0.047799339015379826,0.047599658082992394
404,0.04775949366378775,0.04733861629025586
405,0.04773905127942323,0.047909216561021595
406,0.04782634938629367,0.04764560788918199
407,0.04772385729370927,0.047730282208876984
408,0.04776929069557984,0.04751010079296353
409,0.04774420836968742,0.04738592925962644
410,0.04774430533013552,0.047523019012042596
411,0.04774939582748018,0.0475120508026661
412,0.04777167466811365,0.04754621153040234
413,0.047771883224717995,0.0474126542203086
414,0.04779834245548571,0.047435049704802494
415,0.047702986917035686,0.04765406507766063
416,0.047778974347609915,0.047579826601302826
417,0.04772801022138521,0.04769593271497102
418,0.047775737061392695,0.047416313370842324
419,0.047761622191465694,0.04765507400893914
420,0.047746772074802005,0.04794354838019257
421,0.04781216143923487,0.047487389471529945
422,0.04774824456812096,0.04738901066688242
423,0.047762786766724456,0.04751992131985984
424,0.047761399841742866,0.04762680600461492
425,0.047789034148077184,0.04737664371523447
426,0.047761741563307945,0.0473520703378095
427,0.047733510163626834,0.04852848377347669
428,0.04775663490762846,0.047372378164181744
429,0.04776131340844618,0.04744563543291374
430,0.04776850584193503,0.04778902473446323
431,0.04775727910397528,0.04821620204479155
432,0.047762747257470706,0.047448649083997596
433,0.04774875602602147,0.047627342364842194
434,0.0477890740570018,0.04765755536649542
435,0.047792947165864866,0.047391623140759134
436,0.047732336894035624,0.04740299574807226
437,0.04777216196680565,0.04748508677684188
438,0.04773368062921244,0.0476113651265048
439,0.047776023462844236,0.04758590811505515
440,0.047740682662786055,0.04762045426380315
441,0.04773725358973607,0.04740297968068069
442,0.04776320682825137,0.04767704934232233
443,0.04773735825577863,0.047715860365346884
444,0.04777220096603167,0.047373841463045095
445,0.047765386029123495,0.04740851607237129
446,0.047741981475256844,0.047359978443272985
447,0.047755387217235906,0.04732140859729472
448,0.04774775231082598,0.04741592184373836
449,0.047812186931673765,0.04742422954625747
450,0.04772924947245919,0.04736069629432608
451,0.04778118873890445,0.047483423605428315
452,0.04774417901028386,0.04746462769099396
453,0.04773142390710722,0.04785738968791173
454,0.04779987208831539,0.04736438615357885
455,0.04776411539792203,0.04764137856378269
456,0.047739666146192676,0.04780544393785775
457,0.04773217345848143,0.04837739572762863
458,0.04776337799326098,0.047500019021398734
459,0.04778202239713304,0.04774705742373277
460,0.04774171451302029,0.0476714537871
461,0.04778877805301053,0.04740375484923763
462,0.04776639696076405,0.04742660414539308
463,0.04774538764030672,0.04747232028554343
464,0.04778853150828778,0.04752023308405717
465,0.04773686337527081,0.04759277727542519
466,0.047776872603844604,0.04745274673111054
467,0.04782465413612447,0.04784972385623449
468,0.04771255795732797,0.04737024442183227
469,0.04774510989590489,0.047391209298169236
470,0.04781700657446495,0.04756726694065966
471,0.047724934901782666,0.047581889693053485
472,0.04776743728610828,0.047844653624349365
473,0.04774844782312122,0.047366122731037096
474,0.04776166746462938,0.04742915799051209
475,0.04781889865656582,0.04733608007757333
476,0.04772971469082767,0.04784224415915533
477,0.0477724383153421,0.04769396070400004
478,0.047747378451548354,0.04749439327712476
479,0.04779392747048906,0.04748453627380528
480,0.047760164459124864,0.04748308662527572
481,0.04779105167313993,0.047960575923794956
482,0.0477195054119687,0.047564447503189486
483,0.047749129402114926,0.04743891780393837
484,0.04776954914393236,0.047645936787297644
485,0.04779535576587825,0.04759218564010788
486,0.047717336380333784,0.04745678078241205
487,0.047757231332868744,0.047432257725108666
488,0.04776607366283241,0.04747696862301494
489,0.04779605645450761,0.04736548224093947
490,0.04778402783215237,0.04747385775182466
491,0.047711624069701586,0.04730200925834374
492,0.04776797695212168,0.047749100768121396
493,0.047755928232884104,0.04737111032673816
494,0.047736548838780535,0.047358582142229884
495,0.04777186676812134,0.04734632110001107
496,0.04775343069119201,0.04738154242061447
497,0.04775061156209991,0.04735931025973589
498,0.047793387169177956,0.04742106508889628
499,0.04770623170453801,0.047424793394474314
500,0.04775318406742988,0.04748807771966792
