epoch,loss,val_loss
0,0.5134709285258193,0.506089026105611
1,0.5070107998312,0.5100049912485828
2,0.5067537916834501,0.5051050655007658
3,0.5061453053366931,0.5052986257129508
4,0.5057525827409295,0.5051009910278226
5,0.5058158537962916,0.5058659123427814
6,0.5057918176531604,0.5069346396857988
7,0.505780384801376,0.5058190236168523
8,0.5055103573863691,0.5048494718506673
9,0.5058133913374485,0.505736917390421
10,0.5054287344067029,0.5057719455463419
11,0.5055252423805298,0.5051750560256447
12,0.5053592516695471,0.5051763417998851
13,0.5054726112476721,0.5047846953419243
14,0.5053090129318151,0.5053119521283038
15,0.5055488943130722,0.506531338286459
16,0.5053534142875055,0.5057877727536942
17,0.5052907083825584,0.5058279096488622
18,0.5053059602082403,0.5063315415944414
19,0.505283559843476,0.5051623278752746
20,0.5052403911796947,0.5050833890810794
21,0.5052634894743745,0.5056427015116434
22,0.505194012341054,0.5047357844803528
23,0.5052392241786341,0.5060265857587677
24,0.5050697931438932,0.5046939854882195
25,0.5052130072001462,0.5069695531878223
26,0.5051745029751035,0.5047296331331097
27,0.5050934519037432,0.504960796052114
28,0.5050036204894444,0.5054155109242233
29,0.5051617346553833,0.5046660410855012
30,0.5051240566347589,0.5048916818634156
31,0.5051552169429712,0.5051534931357977
32,0.5050079184737216,0.5047526111082167
33,0.5050837679234362,0.5048719501081235
34,0.505055157854865,0.507326453288199
35,0.5050576515023959,0.5053402775570417
36,0.5050288837048728,0.5047911567960128
37,0.5050253328655,0.5051290253847468
38,0.5049466447880622,0.5047641793788219
39,0.5049393825488662,0.5047083768891933
40,0.5049266512922371,0.504896156515732
41,0.5049023421660488,0.50479594693882
42,0.5049592701768524,0.5065267413780647
43,0.5049493174380574,0.5049732734784299
44,0.5048756093266791,0.5052386671970264
45,0.504978598936651,0.5051061711595313
46,0.5050641630039695,0.5051979822349312
47,0.5050051040038609,0.5046322199458224
48,0.5048894229762375,0.5046133151716985
49,0.5049106847973117,0.5045918104666338
50,0.5049655867380831,0.5044685189244765
51,0.5048960165719468,0.5076895586314332
52,0.5049328401516543,0.5066613728887686
53,0.504878898565785,0.5047844452094795
54,0.5050226391411716,0.5047895250190281
55,0.5048912151441263,0.504821646627658
56,0.5048406056307322,0.5047676290235211
57,0.5048645277148329,0.5055338756618074
58,0.504909593164838,0.5051565478220766
59,0.5048022123819794,0.50502459171688
60,0.5048306621086055,0.5045211635511507
61,0.5049135446689662,0.5044463051459925
62,0.5047509634192345,0.5043730608286988
63,0.5047596684578758,0.5049168602112801
64,0.5048238791598232,0.5048114853520547
65,0.5047616201402291,0.5054741825714301
66,0.5047330910539402,0.5047846888490114
67,0.5048318666760295,0.5050537069145562
68,0.5047424150864349,0.5045458165942587
69,0.5048153083852569,0.5060098107340318
70,0.5047757182944688,0.5048772213180959
71,0.5047143113682387,0.5045898964919759
72,0.5047184810567149,0.5045664580820808
73,0.5046948442235268,0.5048288323743172
74,0.5047268279243794,0.5074010902243867
75,0.5048144628245731,0.5044697765972714
76,0.504695367964802,0.5053791333664736
77,0.5046500584864664,0.5055364861677657
78,0.5046677698787528,0.5044919644632647
79,0.5048187820772353,0.5048919742515602
80,0.5046793643764155,0.5042166027478485
81,0.5046810721278584,0.5049042695213488
82,0.5046471947432432,0.5046885275663276
83,0.5046728334006466,0.505697417747294
84,0.5047538580943819,0.5069295483990284
85,0.5046066228769243,0.5043599761153569
86,0.5046395558358387,0.5046927839147838
87,0.5047505193196282,0.5046934760829651
88,0.5046420063948146,0.5049124777760754
89,0.5047126343037891,0.5043152329347861
90,0.5046431590912651,0.5052152454705156
91,0.5045334935611105,0.5043961535612348
92,0.5046490303870016,0.5046407215648491
93,0.5047116555423706,0.5048916044956993
94,0.5046384318866528,0.5043335354949345
95,0.5046677299009416,0.5043615401826484
96,0.5045343414606698,0.5041765415047298
97,0.5045688122538914,0.5043267921833483
98,0.5045077006164125,0.5041808085465254
99,0.5046471783928075,0.5057135555643597
100,0.5046199821267527,0.504238172737008
101,0.5046402726053373,0.5046061387724675
102,0.5045213914588361,0.5042391558143104
103,0.504573905492914,0.5043873746401027
104,0.5046441137811978,0.5053983468867413
105,0.504587054217916,0.504293275914772
106,0.5045887090906576,0.5047387795767773
107,0.5045924151485366,0.5046187755043986
108,0.5046723326817157,0.505317801725184
109,0.5046761787262237,0.506961907701516
110,0.5045813607768989,0.5042109967461295
111,0.5046191814322483,0.5046333987718776
112,0.5046308627305898,0.505382574063081
113,0.5046152761972303,0.5043101152178667
114,0.5046440838767222,0.5054556123080384
115,0.5046008348431835,0.5043371222155266
116,0.5046064416105231,0.5058195130109195
