epoch,loss,val_loss
0,0.5139989071097681,0.50592607236086
1,0.5069286902392169,0.5115619901983672
2,0.506862384964611,0.5098252706137247
3,0.5060639138055203,0.5062351696248681
4,0.5061264846461262,0.5084413281149663
5,0.5059753489707939,0.5083231111022438
6,0.5057694073566551,0.5067077088001053
7,0.5055633106920305,0.5053535455805492
8,0.5056164372898291,0.5050646615235445
9,0.5054002342952557,0.5053256500743459
10,0.505543115214388,0.5093693401618276
11,0.5055505034988584,0.505400946625409
12,0.5053702486921942,0.5053900910666208
13,0.5053267312160933,0.504849492083708
14,0.5052408338779476,0.5048923440074211
15,0.5053571877949253,0.5072159765819758
16,0.5052622576312447,0.5045616510784064
17,0.5051891604696445,0.5047673295804348
18,0.5051793772732921,0.5049188183791584
19,0.505125962333952,0.5051700124965413
20,0.5051336444084,0.5048917543207742
21,0.5050493592224291,0.5051662742647877
22,0.5052184354698716,0.504732729350367
23,0.5050737264241187,0.5054963352366654
24,0.5050907017592694,0.5059322672801337
25,0.5051445646674178,0.504655910100298
26,0.5050871396148059,0.5059682973561157
27,0.505123935639168,0.5049226130504466
28,0.5050107785575709,0.5049140172915778
29,0.5050865447657993,0.5048262557084152
30,0.5049588345788416,0.5052918493895614
31,0.5051097528405112,0.5054213330112675
32,0.5050131745852503,0.5048469898866365
33,0.5050253990257012,0.5077597705365411
34,0.5050754642800053,0.506271432617462
35,0.5050342133722611,0.5054041357844994
36,0.5049889932078109,0.5046013912255356
