epoch,loss,val_loss
0,0.5131511615616845,0.5054512350050451
1,0.5069607311876958,0.5054498974797743
2,0.5066946928763115,0.509529298603091
3,0.5063125090543779,0.5051306940485762
4,0.5060375371070781,0.5055257593283878
5,0.5058310935268713,0.5047059719231229
6,0.5056510206011052,0.5066132063309549
7,0.5056758396151686,0.5052691066531331
8,0.5056278836376745,0.5049805115529384
9,0.5054651728911507,0.5050441433123264
10,0.505442830174343,0.5047464332864539
11,0.5054594007294214,0.5062228067341277
12,0.5054456073878496,0.5048079211126191
13,0.5053629022593963,0.5049128921392834
14,0.5052656220922154,0.509387299647698
15,0.50528929435917,0.505276588529866
16,0.5052080612783325,0.5053571917283032
17,0.5053047013185592,0.5064118257527316
18,0.5051755232300665,0.5056528504669814
19,0.5052961081534999,0.5052353195753642
20,0.5051535335860392,0.5052429910629026
21,0.5051983349371644,0.5049173858266315
22,0.5050645190632533,0.5046124003365378
23,0.5050325272512752,0.505660682901851
24,0.5051112870221494,0.5050998577852699
25,0.50519355551055,0.5048523185566697
26,0.5050248142977544,0.5071444272551288
27,0.5049024990951291,0.5055784543158103
28,0.5049368139188798,0.5047768641346442
29,0.5050230091950559,0.5052906741279526
30,0.5049787542971463,0.5048970053420765
31,0.5049310938896205,0.5065964599105324
32,0.5048964409532155,0.5057825743412557
33,0.5048889652476527,0.505892933006618
34,0.5050276656508536,0.5052865024831691
35,0.5048981313133638,0.5049590040377293
36,0.5048559059448924,0.5048230358152177
37,0.5048466615236966,0.5059896855437135
38,0.504950600820064,0.5049493124999715
39,0.5048859039432052,0.5047733343860352
40,0.5048549189698006,0.504506196159287
41,0.5048168841338007,0.5048597481647141
42,0.5047841307098094,0.5066736190253984
43,0.5047928538544235,0.5061313379491233
44,0.5048005062310689,0.5046050106029653
45,0.5048712233703131,0.5044715208983599
46,0.5047923268497663,0.5056698949106277
47,0.5047859783599269,0.504503922752352
48,0.5048215175305735,0.5050915369029081
49,0.5047627669003533,0.5047416444303972
50,0.5048267028475355,0.5047786180198045
51,0.5048353788292971,0.5044024381832805
52,0.5047901638411373,0.5060279262272951
53,0.5047918126351689,0.5050832225726201
54,0.5048255544778074,0.5047200565598443
55,0.5048261711122758,0.5049254298505949
56,0.5048051586804083,0.504427857789449
57,0.5048410483739484,0.504430118890909
58,0.5047483523775076,0.5052054055867065
59,0.5048697933550114,0.5044240632956436
60,0.5048761639770025,0.5043532045544229
61,0.5048079619027628,0.5045757039752846
62,0.5046826436360563,0.5045740905825613
63,0.5047569204700582,0.505580846932035
64,0.5048907799357967,0.5046479793695303
65,0.5047866056842001,0.5049909272353643
66,0.504753456726386,0.5045269638373893
67,0.504839806899621,0.5047239308617547
68,0.5047982979113613,0.5044201447857225
69,0.5046619026348322,0.5046840102146044
70,0.5047210299529815,0.5055074766315243
71,0.5048043094500959,0.5044900503998655
72,0.5048007774972415,0.5046014698208414
73,0.5047136578221342,0.5055631902910048
74,0.5046907665995799,0.5066097017553249
75,0.5048143864001398,0.5100771337821525
76,0.5047727915053379,0.5057054523942488
77,0.5047057549558668,0.5044066747276126
78,0.5047430837105954,0.504959030955956
79,0.5047878451170401,0.5046509200822626
80,0.5047981349331524,0.5064830562612851
