epoch,loss,val_loss
0,0.7074138017132454,0.7034114871664023
1,0.7044078276206003,0.7096099375199444
2,0.7040388110516645,0.7032017346647182
3,0.703802656606596,0.7037671384977052
4,0.7036375437213411,0.7034129127970996
5,0.7036644823411303,0.7032058267972013
6,0.703595458139925,0.7031989813442562
7,0.7034097757565209,0.7032738028625697
8,0.703400958754371,0.7029694941440232
9,0.703383040633888,0.7028884538054171
10,0.7033616484416058,0.7116673083518338
11,0.7033174188126232,0.7039068537373696
12,0.7033331518459657,0.7029045433915283
13,0.7033023849689548,0.7059381145105764
14,0.7032182249830288,0.703068028135276
15,0.703259494236944,0.7036693639258297
16,0.70319924513297,0.7029310231173305
17,0.7029592000304279,0.7026080143362949
18,0.7028522051707042,0.704835599379859
19,0.7028134523228013,0.7027701744074857
20,0.7027121536803755,0.7024868859546652
21,0.7026966912742548,0.7025481445321966
22,0.7026760231962502,0.7025150588665056
23,0.7025703334542988,0.7023777513882659
24,0.7026607840529531,0.7022524596443839
25,0.7026767472584651,0.702951001440621
26,0.7026526408275893,0.702382551884237
27,0.7025913900806584,0.7025151962677835
28,0.7025942685232999,0.702417399865522
29,0.702474912373666,0.7024015585187056
30,0.70252005674514,0.7039671626635284
31,0.7025196176549869,0.7024543414044913
32,0.7024944544191896,0.7029243118709725
33,0.7025090826758147,0.7024701272583481
34,0.7024887991602163,0.7024456148703696
35,0.7025714417144814,0.7040721290164786
36,0.7024788432763636,0.7023273939530252
37,0.7025141272476896,0.7021895137377472
38,0.7024461432244857,0.7031860294768
39,0.7024734648534786,0.7024204170141859
40,0.7024664307142005,0.7030132401669883
41,0.7024543734852048,0.7023265698411625
42,0.7024494128099381,0.7035750592908552
43,0.7024525775837924,0.7023147765223501
44,0.7024304346053748,0.7023777774782394
45,0.7024675165322217,0.7025879517974096
46,0.7024168605686814,0.7023662405925116
47,0.7024221477107379,0.7021412905924965
48,0.7024796972459555,0.7022899869949587
49,0.7024209746538436,0.7025320668670143
50,0.7024290780504846,0.7021993968386212
51,0.7024135249228146,0.7021893848260639
52,0.7024308786446357,0.7025075533845584
53,0.7024528558823682,0.702176520487215
54,0.7024236505561773,0.7022921993182256
55,0.7023864440489098,0.7021842643285804
56,0.7024085494301996,0.7022263746107779
57,0.7024274224334838,0.7022289332621743
58,0.7023863283002094,0.7027224031926385
59,0.7024617726428827,0.702678957766398
60,0.7024331830096938,0.7023099574794248
61,0.7024115643535233,0.7021308862541804
62,0.7023725077397275,0.7021799038716641
63,0.7023554798244469,0.7024891129498446
64,0.7023611031264136,0.7031336107265861
65,0.7024721450319493,0.7022987272248374
66,0.7024596447718153,0.7040782893857648
67,0.7024011347018426,0.7026356592959269
68,0.702397183013523,0.7022310878147854
69,0.7024175054688349,0.7022385717917317
70,0.7023946299688091,0.7024753084845342
71,0.702398980987187,0.7024831852309461
72,0.7023487488381422,0.7022038581649364
73,0.702437017567286,0.7022834469011936
74,0.7024064390419308,0.7021781512288834
75,0.7024543495529472,0.703293371170981
76,0.7023455438490392,0.7023187619285015
77,0.7024657406891319,0.7036764508737228
78,0.7024778040323346,0.7025319547274568
79,0.7023848084783991,0.7021407878724281
80,0.7024192486000096,0.7023110426389254
81,0.7023977735626273,0.7021688672212454
