epoch,loss,val_loss
0,0.3312420304779106,0.3195786174266569
1,0.32106997917748575,0.31870269368659176
2,0.3200090022242717,0.31969067120078776
3,0.319165539042851,0.31998081961577346
4,0.31935546793377584,0.3183843572293558
5,0.3185540221421403,0.317700210265427
6,0.3185054233643533,0.3181025250230179
7,0.31813694658027436,0.3225968540898032
8,0.31806065489140484,0.3173349409186219
9,0.31790005522199405,0.316928412778206
10,0.3174523093410089,0.3193960380909165
11,0.3175685471409034,0.31764656036130845
12,0.31735323876620924,0.3208784149539086
13,0.3174563753565605,0.3175178912082322
14,0.3171950702515876,0.3175807192958614
15,0.31709086094722844,0.3184266635856912
16,0.31706258148561156,0.32265310445731094
17,0.31711660787169155,0.3163982150276601
18,0.317094633565639,0.31660400889351703
19,0.3169965176267373,0.3162098088867907
20,0.31674677808915414,0.3217991197819154
21,0.3167597208992415,0.31711221854976623
22,0.31659627573634436,0.31675770924641533
23,0.3166184637398902,0.31647612017674126
24,0.31680283387648756,0.316780114602806
25,0.31665814047201396,0.31870612584923397
26,0.3166031519806222,0.3175882479984766
27,0.3166378819863276,0.3164531768699438
28,0.3164741496513268,0.3180113324012709
29,0.3165090246716518,0.31888989815049373
30,0.31654446268297487,0.31857609981047014
31,0.3166050487546191,0.31669353638630054
32,0.3164591455547628,0.3162261393910306
33,0.31646078955114154,0.3160277483333133
34,0.3164451879992827,0.31682940279283833
35,0.31639487421086165,0.3177052329255097
36,0.31651288949579187,0.31703120443424576
37,0.3162733199706494,0.31625682198380123
38,0.3165336388787096,0.3157394356674355
39,0.31629110135486993,0.3188690334484536
40,0.31636141410490637,0.31787094146974626
41,0.316283674503013,0.31662201307547594
42,0.3163946028421414,0.31601012735153844
43,0.3163318273901594,0.3193542495406887
44,0.3163024306840016,0.316047528763267
45,0.31625960821915206,0.31612966124236436
46,0.31633322145658965,0.31608354551324774
47,0.3162628351846132,0.3163371991282953
48,0.3163076094343636,0.31885004533135863
49,0.31625078881975344,0.31605594220291594
50,0.3162053714068491,0.3159543484819142
51,0.31616141494905914,0.3163387582704388
52,0.31631430535291793,0.3162495687640926
53,0.31617492515101686,0.316650698306247
54,0.31617861225611604,0.316901404952293
55,0.31626099832605936,0.31644572194101794
56,0.31631203413875775,0.31609305007286165
57,0.3162489131062853,0.3165917441507723
58,0.31622624460029114,0.31633818295989974
