epoch,loss,val_loss
0,0.7078828678933058,0.7038859460549083
1,0.70442266309134,0.7033509995446312
2,0.7039492256499935,0.7040736077145371
3,0.7040528220833835,0.7029939629008102
4,0.7037345502826851,0.7035463522444884
5,0.7035059316921155,0.70356708960261
6,0.7035768859649376,0.7037775565613588
7,0.70344471362318,0.7033885489918162
8,0.7034536671572859,0.7030277920124253
9,0.7032629516668354,0.7030189017208279
10,0.7033201176879995,0.7030094733900822
11,0.7032725280951555,0.7031921946677026
12,0.703195001515124,0.7063148846105666
13,0.7032836831547918,0.7031405475240191
14,0.7032165970042003,0.702856505124208
15,0.7031876821915892,0.7035693055346941
16,0.7031361516132462,0.702997268547787
17,0.7031519924115592,0.7028376026721509
18,0.703169896679431,0.7028612312253001
19,0.7030815193073507,0.7035044212495127
20,0.7030693539781326,0.7036310044766656
21,0.7031262139032054,0.7029238381397636
22,0.7031101528719577,0.7030508778231316
23,0.7030235428756858,0.7030779451353674
24,0.703133613006454,0.7043121481947509
25,0.7030075825202099,0.7029263312408409
26,0.7029570613303275,0.7033434638018644
27,0.7030388670964667,0.7028993739975298
28,0.7029835234592541,0.702969619298987
29,0.702984865087149,0.702668633177026
30,0.7029874352257692,0.7029780297953793
31,0.7029295713370071,0.7029779090774858
32,0.7029046401444796,0.7035674757460506
33,0.7029230256046297,0.702700575291371
34,0.7029241349739047,0.7027420487652346
35,0.7028610721466958,0.7033480879982411
36,0.7028952069152912,0.7026828969382767
37,0.702805611814189,0.7025159242727029
38,0.702670927822264,0.7027100773958059
39,0.7026571542775183,0.7027704261964367
40,0.7026137064939911,0.7026089388146886
41,0.7026350516011203,0.7023667441408332
42,0.7026986778882855,0.702409647150016
43,0.7026096310984837,0.7029892688945268
44,0.7026005580348241,0.7023852857703311
45,0.7026632892339406,0.7031783594387045
46,0.7025786399473715,0.702322921711517
47,0.7025604326424841,0.7026199523923414
48,0.7025571161525205,0.7024626686910246
49,0.7025930318371596,0.702334877456684
50,0.7026358778899432,0.7026563968315314
51,0.7025825198507506,0.7025865117018631
52,0.7025480866771386,0.7026809395394905
53,0.7025761313294596,0.7029584243043185
54,0.7026024867536007,0.7032522544671524
55,0.702560377785796,0.7027634550856597
56,0.7025744611743557,0.7022637212838487
57,0.7025552508247639,0.7025003873384916
58,0.7025196714656888,0.7023799963979508
59,0.7025352743778819,0.7023993163783261
60,0.7024648872141351,0.702417951393364
61,0.7025987456208719,0.7023492848606914
62,0.7025296256582941,0.7022961755544317
63,0.7025586730800187,0.7024749264527788
64,0.7024933527741201,0.7028156808233142
65,0.7025488742471201,0.7024251601240475
66,0.7024706110348969,0.7035687483865629
67,0.7025031602691407,0.7025038657354066
68,0.702547958943772,0.7028523627345082
69,0.7025131555549603,0.7024131028291309
70,0.7025469112608593,0.7028836651120529
71,0.7025188722218394,0.7023640455442386
72,0.7025221507928333,0.7023577115080197
73,0.702491079201758,0.7023478324892504
74,0.7025754247453103,0.7038843982568745
75,0.7025645960230958,0.7027888685834615
76,0.7025032458672511,0.7025728302617227
