epoch,loss,val_loss
0,0.7094341206919139,0.7042859697164436
1,0.704420991629148,0.7046680644191524
2,0.7040183896055179,0.7034462469683096
3,0.7039274737291933,0.7052213060944607
4,0.7037458295567257,0.7079668965588136
5,0.7036217514619914,0.7038495605695928
6,0.7035462913080464,0.7029298247829561
7,0.7034777826865056,0.7032027905395546
8,0.7035535019578807,0.7039995311507516
9,0.7033646614173128,0.7070200734635441
10,0.7034046656637901,0.7044419775825577
11,0.7033872276864441,0.7055333926423312
12,0.7033542573820378,0.703762031518496
13,0.7033411674823183,0.7063907461485851
14,0.7033234824865886,0.7028231931383497
15,0.7032725371406481,0.7028495156143795
16,0.7032413335786212,0.7031340760273614
17,0.7032915131759339,0.7041545420071623
18,0.7032193340296731,0.7035082145896798
19,0.7032275681682714,0.7034708575338643
20,0.7031366119291873,0.7028547350289508
21,0.7031356331740795,0.7030195284422219
22,0.7032173788961966,0.7030190612482965
23,0.7031732127489492,0.7033468892201596
24,0.7031626534462606,0.702958992456384
25,0.7031206463390478,0.7034683737210541
26,0.7032023214066152,0.703055897569538
27,0.703177341814747,0.7030115520096298
28,0.7030895455597528,0.7035494854077512
29,0.7030964560265517,0.703347192005839
30,0.7031227021924704,0.7054906454630584
31,0.7031204500028735,0.70431972446276
32,0.7031598540757541,0.7030511257370412
33,0.7031090662864065,0.7031471227298007
34,0.7030569255195044,0.7028272083320334
