epoch,loss,val_loss
0,0.3318897874278232,0.32040824725965117
1,0.3217262453402372,0.31863066230163384
2,0.320615842664897,0.3208053043994951
3,0.3197256504280076,0.3181807425714308
4,0.3191823303014002,0.31994593393418097
5,0.3186987455366774,0.3178630764815707
6,0.3188961130497614,0.3219651903467202
7,0.31842797408317114,0.31787028175133925
8,0.3184660941378552,0.3224914419000261
9,0.31818343918568465,0.31822520612782934
10,0.3180802040178444,0.3213107182429387
11,0.3177320740145657,0.31681380350299865
12,0.3173010542631241,0.31626619069511186
13,0.31673707901856435,0.3165783809077355
14,0.3164617284069265,0.3192978336260869
15,0.31625964097129733,0.31557948781598
16,0.316297812621851,0.3160359411914059
17,0.31603739930624475,0.31613317414489633
18,0.3158482407476311,0.31699395987295337
19,0.3154423489792562,0.31462528637561843
20,0.3148444206797678,0.31501976044538893
21,0.31505602507869485,0.31461211897007585
22,0.3148048218795279,0.3149434272911649
23,0.31490567531187463,0.3139666579497363
24,0.31487420746618483,0.31549180083475986
25,0.31481079988300803,0.3143821422130831
26,0.31461210952738017,0.3173483799320297
27,0.31481845924512114,0.3159053974204856
28,0.31461815829801515,0.314959877611094
29,0.3145958955557618,0.3138960092890056
30,0.31447794034009613,0.31643712201130303
31,0.3146442264266009,0.32038420531944956
32,0.3145287520711673,0.3142306317762465
33,0.31440297134487916,0.3158573624809682
34,0.31457216118949327,0.315393867504508
35,0.31460276803456844,0.31536887029264465
36,0.31437079429041154,0.31441745355762263
37,0.31438097079865496,0.31644168491694824
38,0.31439634427366914,0.31463984674023043
39,0.3143584482820749,0.31394647352452903
40,0.3142990821485659,0.3146651334117719
41,0.31435200816550585,0.3138307922827103
42,0.31426336217337714,0.31369004795332406
43,0.3143079917741297,0.31507835681030233
44,0.31427580090254803,0.3150064116080405
45,0.3142010314386538,0.3139211399827347
46,0.3142259490136407,0.31527245074288723
47,0.31426678618199977,0.3142277941218677
48,0.3143014491509187,0.31433641298237275
49,0.31412838753613814,0.3153143829950328
50,0.3143010921882293,0.31589399023032366
51,0.31427283148987634,0.31422466731840565
52,0.3142905460295872,0.3173750378801568
53,0.3142384594567575,0.3143071175582947
54,0.31432715360960645,0.31397699423818376
55,0.31414219458793785,0.31451344478219084
56,0.3141848674905734,0.31628967510263617
57,0.31418388507135875,0.314395058229011
58,0.31424333172529123,0.31427604757230865
59,0.3141355559051773,0.31512495294102366
60,0.31422304850471455,0.31423912903215395
61,0.31401561217085533,0.31562031923097655
62,0.31431790900421935,0.315160384707652
