epoch,loss,val_loss
0,0.7077357341017955,0.7082108318657793
1,0.704475878395232,0.7036020978212948
2,0.704011574865383,0.703155666219981
3,0.7038686264840885,0.7034165692684372
4,0.7039488779258625,0.704385348496307
5,0.7036153250635384,0.7035504164530089
6,0.7037037206401949,0.7034154127904263
7,0.7035305446437532,0.7038993282590256
8,0.7035139634450163,0.7033577845646785
9,0.7034382809858852,0.704150880447984
10,0.7033322228509272,0.7028947050459036
11,0.7034359096043529,0.7029414584263974
12,0.7033654474388245,0.7034474337663011
13,0.7033357957557956,0.7035321745624021
14,0.7033025311001606,0.7034987646651919
15,0.7033339558219952,0.7033600996800747
16,0.7032088376896707,0.7031954987173341
17,0.7032454544847805,0.7027651855726692
18,0.7032408342038535,0.7029283005309755
19,0.703192342332792,0.7038303339747578
20,0.7031472130799987,0.7030680838648794
21,0.7031401259535552,0.7031776591506844
22,0.7031837863254834,0.7029362074790463
23,0.7030782091958516,0.7031388377137575
24,0.7031453846544123,0.7032443515420256
25,0.7031760686176952,0.7035480515241032
26,0.7031176549212257,0.7032461894652979
27,0.7031341617658088,0.7037768563029192
28,0.7031505203233187,0.7028714410128724
29,0.7030149460307431,0.7028056816486804
30,0.7030883651817443,0.7028219449313048
31,0.7030607098460969,0.7029363029056388
32,0.7030629044528156,0.7037385840569773
33,0.7031078794147646,0.7028523168256205
34,0.7029705502808601,0.7028594216105364
35,0.7030405758307895,0.702825392298308
36,0.7030245747212954,0.7040062076696391
37,0.7030598961414496,0.7028582353745737
