epoch,loss,val_loss
0,0.15258206734039206,0.05193304084682427
1,0.0457404995170369,0.026500738936681492
2,0.040480550903034845,0.08105151362323158
3,0.03400069426932781,0.03341936001637928
4,0.03139584117511706,0.04363531077717267
5,0.03002240825768301,0.029495382916708585
6,0.027415935032376403,0.01079425246079159
7,0.025216060099292465,0.03715302045997335
8,0.023374759316850874,0.015137849932046933
9,0.023268218739233692,0.01564333905431353
10,0.024298143792535653,0.03538552794867175
11,0.022348507807376405,0.025764166381160105
12,0.022995612764028277,0.029693349260886823
13,0.024122475652205797,0.021213899043865718
14,0.023774482430235076,0.015414190720458057
15,0.021722092021101837,0.018383652642192855
16,0.021460582124743815,0.021319135467815137
17,0.020377738143523616,0.02990001620579255
18,0.02042123331553597,0.02487308104193954
19,0.019765117489319625,0.015055218365281562
20,0.019755788688673722,0.017089127818006367
21,0.018931576325152393,0.019301876111136897
22,0.018545136936075932,0.015466390065143169
23,0.01805693423729107,0.01408019709020806
24,0.019249525421457612,0.026502508571593423
25,0.01774961646362621,0.014767261197012809
26,0.01909623027304195,0.02877936780088138
27,0.017291322408383974,0.012307322027651267
28,0.016597292310246328,0.011549728634401908
29,0.015505160557476135,0.035207616346105405
30,0.01642924475150077,0.026456060823003138
31,0.01767832609444416,0.019511239988333894
32,0.01664551107981931,0.02043030083902774
33,0.015329957360306458,0.021034250973820123
34,0.016037409877416482,0.028043111412835196
35,0.015351158449892327,0.01943851787752774
36,0.014888119158728851,0.012622959791273232
37,0.015388584180495334,0.019918615704118594
38,0.015242535488785718,0.01297372878523986
39,0.014782490985963842,0.00990446708764184
40,0.013537544902670179,0.017385270253952884
41,0.013834808381266153,0.008172171688385032
42,0.013631456760878709,0.021361103513658095
43,0.013906176871177909,0.008649169697096218
44,0.013788866069388213,0.0205989672001907
45,0.013144033756084758,0.015211417130249734
46,0.013523458302740177,0.009889433414020356
47,0.013413580167267344,0.018359007766645258
48,0.014030559724539244,0.005310401780605787
49,0.013175214280662454,0.011195211980018497
50,0.0140803168038484,0.016773062856645923
51,0.012418861664886729,0.01812706647798031
52,0.01431262165932975,0.00870780670837497
53,0.013862482806984827,0.023659227489425425
54,0.013529034568552228,0.011395261545048847
55,0.013744656683327697,0.008991156890694326
56,0.01364121243278001,0.008193713660633461
57,0.01261502554469692,0.01017254498002914
58,0.013682049042511758,0.019597860363377486
59,0.01278613884017604,0.012954170454731587
60,0.012802121251152246,0.008898400237758798
61,0.013049767641957364,0.014170477677639442
62,0.012714174136498587,0.007541265344539776
63,0.012683033931078754,0.017937011049432648
64,0.012565227477423412,0.0212010706553637
65,0.012183197070010674,0.01602886459954089
66,0.01322931501179484,0.015030118680890612
67,0.012177349192177434,0.0070249096504408914
68,0.012964913342743635,0.010247893073546812
69,0.01219592113487071,0.00991312239389652
70,0.011494024979902788,0.01642709698501589
71,0.013776207656720928,0.020334261323265795
72,0.012599153793696092,0.017988752254711988
73,0.011208212365851187,0.01719576269594016
74,0.012238163326447792,0.011338143405852208
75,0.013121438689707077,0.014042837284328952
76,0.01226166171877147,0.010559962714721626
77,0.012192326670547546,0.016485119902256113
78,0.011859938839553214,0.0036973171944979168
79,0.012246031462747923,0.006801886333339357
80,0.01152202864713538,0.016435388502853775
81,0.012334114646253964,0.01048052854594887
82,0.012345385794854648,0.011358830409643446
83,0.01221420658457515,0.013217809824706677
84,0.01114985919118279,0.009192212894206077
85,0.012155659735477496,0.014977811518159785
86,0.012197820175302139,0.016149626333992737
87,0.012378351724457939,0.008866167282898805
88,0.011832344822762764,0.010665870731771462
89,0.011891488258136537,0.007594793775481273
90,0.011419823170631385,0.014753470353888026
91,0.011944299394028078,0.005867092778660716
92,0.011333051009764738,0.00899285992170848
93,0.012225904636070888,0.010807448772429808
94,0.011169011315921221,0.0060578855184577965
95,0.01193139358354043,0.01196417874408902
96,0.01067565603544273,0.0072593802700867405
97,0.010951151170371045,0.00953088461288384
98,0.010703581393689668,0.015770661063204156
99,0.011803934197808853,0.016852630556641175
100,0.011253669768922496,0.015498466550092483
101,0.010838295853187551,0.014031112968815812
102,0.011972199723166939,0.010127036555154924
103,0.011276877690780368,0.006074914753572294
104,0.011259703604738228,0.010968163563930903
105,0.011860565731687535,0.015696927620614008
106,0.011206416084507792,0.009446219804284369
107,0.011531307129561604,0.01036654731174953
108,0.010773536539990173,0.012048587327986226
109,0.010892286216453027,0.009502236192550542
110,0.010472983190734728,0.010430492431325242
111,0.010788599086600058,0.01237156063732827
112,0.010402360630369069,0.014903585046482726
113,0.010763249005660783,0.021996307485952278
114,0.010685896008297039,0.008069439153477326
115,0.010470674967383601,0.007397947050836864
116,0.010509141247725482,0.01444673658684543
117,0.010090228202354482,0.010161810994130613
118,0.010617385996575598,0.012192037773201714
119,0.010327577982715767,0.006166504764739768
120,0.010238379262556002,0.007171609133905374
121,0.01036105367081831,0.011142802953972953
122,0.009782099167534935,0.01539935050833597
123,0.010381111445156284,0.00663165972019004
124,0.01021711938835079,0.015652121239486602
125,0.010327545930255505,0.012593898420893215
126,0.01095338388726556,0.011485062895347118
127,0.009884724291216443,0.022925363857984167
128,0.010359525134292641,0.018554867817869598
129,0.010333200534738653,0.010743502506158582
130,0.009984362650745296,0.008609637835643004
131,0.01084007266181172,0.010467037221897561
132,0.011112291054583515,0.012786311808982372
133,0.009974174360989583,0.008296024201668641
134,0.009731086768782427,0.00938550199381272
135,0.010108125102103238,0.016631848228788083
136,0.009200363677068741,0.005520794861130387
137,0.010476214836796761,0.007121287673658852
138,0.00959166580272152,0.013353741247774394
139,0.010298062589664985,0.01617320701288796
140,0.010357513644942473,0.010477309490847323
141,0.010121552067321928,0.004763601540022581
142,0.009842262708590918,0.012287205881964719
143,0.00951957097500384,0.013473035184035831
144,0.010041089310738103,0.008316146431456966
145,0.009485749424703949,0.01340066139742838
146,0.009803402764394398,0.0059598559328452655
147,0.009162788646095406,0.007051487929601554
148,0.00981504560227124,0.008363461628006425
149,0.010086654220613913,0.014706008673602187
150,0.010939479497786935,0.012471515958762678
151,0.009694575854345596,0.021188177506497458
152,0.009642720377972747,0.00534771353884026
153,0.009175094271761377,0.007389341038523129
154,0.009559975530625396,0.013067237743938778
155,0.010003449069689677,0.013311652700404247
156,0.010354316478474535,0.00923419955620967
157,0.009689507200375206,0.014836777519837504
158,0.009321754724684385,0.011523366452951128
159,0.009277304845786155,0.005338444484760889
160,0.009590189452644149,0.005886488505172372
161,0.008814138700913111,0.006312358275058825
162,0.009679591828148714,0.007285888885657267
163,0.009333913306445837,0.005675038551777931
164,0.009475299984393127,0.014226537996839846
165,0.009465050863304573,0.006426471530297372
166,0.008913869758677796,0.0061349079561226465
167,0.009034569986327607,0.01176062695191028
168,0.009308544251949435,0.007527811184816574
169,0.009033667413033188,0.008396422590078358
170,0.009463649658247275,0.009951482871701705
171,0.008669010659349973,0.012618065313322156
172,0.008825625509874587,0.0042168465409877735
173,0.009087019249611496,0.012575875176080071
174,0.009850836438901103,0.00966652970020119
175,0.009305957718555042,0.0097980818372358
176,0.008973483644093838,0.004281336884142944
177,0.009257293179453306,0.0069909618080291535
178,0.010258236407510024,0.008477451817089164
179,0.009640688596529326,0.009981057003887272
180,0.00866757923060452,0.006309380384725125
181,0.008642256244098385,0.004578160046876924
182,0.008958410834231012,0.008409328657645664
183,0.008815696415436312,0.011415578893164574
184,0.009488472323153736,0.010391024108932022
185,0.008805699191513292,0.010103739989184918
186,0.008503036520858522,0.00912044899377916
187,0.009148114176893637,0.003387226701817742
188,0.008577934754502437,0.006985736431608354
189,0.008717512933639355,0.009577502897148916
190,0.009286960461091318,0.010719552955163117
191,0.009009370852230515,0.01413586866419289
192,0.008839301506450457,0.005487611493788183
193,0.008706508293118087,0.005591636821671721
194,0.009038814367055684,0.011739327834702986
195,0.00911232333663452,0.010912863922841265
196,0.0087104683511516,0.007129739422348182
197,0.008252077775137822,0.005706734655405841
198,0.00896658689864233,0.00923143846850957
199,0.008992715469125263,0.00855945436366273
200,0.008976844181180102,0.008556199849575123
201,0.008451017186244417,0.00564080737781106
202,0.008807583634710337,0.008946346372642335
203,0.008128849189091238,0.0033331721884749047
204,0.008976000490308784,0.008649298224389411
205,0.009039959903779647,0.006968648227677043
206,0.008676404267442312,0.009550150098674581
207,0.00900134408921316,0.009369373289190509
208,0.009447318661225055,0.0062361546816346956
209,0.008785326323147378,0.012760213470408413
210,0.008926830725274611,0.009984214569647057
211,0.008633694860884706,0.012434874411345987
212,0.008865855335589978,0.007783381860841421
213,0.008486451746018933,0.008376886250764343
214,0.008809963201390778,0.011142604649890194
215,0.009278738196268468,0.011186603650791774
216,0.009444388437183867,0.008234358757613748
217,0.00904147515016095,0.009426268186617199
218,0.008505406068469718,0.004988522342337853
219,0.008912592258625965,0.01659579173056813
220,0.008416461368868623,0.011426055038696259
221,0.008527114532879002,0.005998593000893576
222,0.008051470186163803,0.009527729558828269
223,0.00892328809936353,0.011509988278344615
224,0.007813517641325256,0.01040857534961453
225,0.00821701553622283,0.01101875894547873
226,0.00880873219255614,0.004970958280717423
227,0.008685386704262733,0.007776633719821779
228,0.008521438754393722,0.016646966072065488
229,0.008789851285366834,0.009130215240699763
230,0.009762535181393821,0.005878919807586881
231,0.008365764706149893,0.006422922964154168
232,0.008882963938246237,0.009757364397367203
233,0.008285900263367393,0.009034593929569719
234,0.008743626100262799,0.006339889516996627
235,0.008635332935759955,0.007313173171647346
236,0.008644154370702106,0.011837658259926486
237,0.008814262623301625,0.010384884744517993
238,0.008853231190344979,0.007131034476004818
239,0.008929291994200735,0.010139507091594618
240,0.008736624292728545,0.008223449155297232
241,0.008295657954530137,0.010757330993973984
242,0.00945973202489766,0.009003737595538009
243,0.008878244523355047,0.008599500812446051
244,0.008453068127267533,0.008593283528969245
245,0.008322830738624085,0.004849802775803921
246,0.007932576698531731,0.014258320758673462
247,0.00863954772819861,0.020379838688797433
248,0.008596891389998178,0.0075979418674044326
249,0.008566038400998606,0.0086453468325653
250,0.00814304507946481,0.00960008309008855
251,0.00866519286521345,0.004657095169167798
252,0.008504389353534973,0.007887168558815754
253,0.0077259945345846725,0.00836324442513199
254,0.007887179438351578,0.007444717871699991
255,0.007646809496878119,0.010269978279931487
256,0.008500223966604985,0.011891066419414958
257,0.00812692297522059,0.011050929839486858
258,0.008180676772781044,0.007132323409174146
259,0.008311640259187793,0.0072884164752781205
260,0.00850858010969934,0.0064399608443237565
261,0.00908755306625362,0.00858349035859355
262,0.008099002575186892,0.009114247450535939
263,0.008199709286034066,0.008675555344274078
264,0.008593701819187964,0.005308251967249348
265,0.009120953792287743,0.017220589423430136
266,0.008163379302224535,0.010074035119744577
267,0.007963786792508115,0.013387280924285408
268,0.008737057495823533,0.0077013225991487645
269,0.00791634906575249,0.01890600175576927
270,0.008099409615171315,0.007057588775337166
271,0.008245086189445784,0.009622646780168578
272,0.008280821536354226,0.006230076109724385
273,0.00880754058532935,0.008827389495398763
274,0.008948483206104668,0.014945896521751675
275,0.008533278549221052,0.009760748822133233
276,0.008176121184863687,0.011005553391915706
277,0.008262842596094642,0.012323340475294613
278,0.008238047031949249,0.007355008294163441
279,0.007479157770048085,0.009845085241394477
280,0.008383313112305574,0.009125133073685107
281,0.00837045631713519,0.005497453801169251
282,0.008184449757255024,0.0060637471844584056
283,0.007651071849768217,0.007767948463129875
284,0.008799051081457978,0.00621192113422122
285,0.007889832247426058,0.007208637926645206
286,0.008087582517989265,0.007007835780571038
287,0.007589096459262311,0.008983385715348426
288,0.008400507130912118,0.00475404859353636
289,0.00758976899718361,0.003954762820964466
290,0.007580658359595274,0.006914533084095254
291,0.007825612463969008,0.010702925837865569
292,0.00790801357660669,0.003144145403873255
293,0.007694740459113735,0.006979595080323829
294,0.008068278529323923,0.00763411473684254
295,0.00802684168237895,0.004210454559919513
296,0.00834432273306962,0.007203899820106606
297,0.008545903848755143,0.009900616953809524
298,0.008141693571280185,0.00620709718796759
299,0.008297848011025314,0.0063727309588481095
300,0.008364659856627439,0.006972875815081898
301,0.007775353625782287,0.009524168777437595
302,0.007674230926604622,0.008125803355809709
303,0.007772536919010039,0.007902759184286104
304,0.007357782763830996,0.007128571814709676
305,0.008109752134941845,0.014958291317482539
306,0.00844277582540036,0.007846349422123809
307,0.007253221102631379,0.010608969871528099
308,0.008720351087073122,0.011404448488011263
309,0.007916828393277307,0.006713738880357642
310,0.008433123165983512,0.009151699990269322
311,0.007617184213440058,0.0036056107659871973
312,0.0073715040425239185,0.009240817482235542
313,0.007866921976560817,0.005457522132931587
314,0.009226581453886195,0.006386187496861912
315,0.007634052680414483,0.005797272418341184
316,0.007115701685375203,0.008452786142249086
317,0.007476154826026853,0.007270811418557999
318,0.00718009392794171,0.005231446592797302
319,0.007790827244850728,0.004815486652281167
320,0.007722932903980502,0.00646044586909363
321,0.008080350445229098,0.011542108123820649
322,0.007763749970920491,0.012508020406234612
323,0.0072226629041203805,0.0073612087300369234
324,0.008587695965204659,0.0085667489933022
325,0.007685710502833836,0.011114493949631349
326,0.00776041508987278,0.006296578484521951
327,0.007256633899867725,0.010443232966779533
328,0.007767234916622333,0.007811257926248831
329,0.00863453788313565,0.003873304653568774
330,0.008541798464664303,0.010679429638822105
331,0.0076344664885865735,0.005257713285751859
332,0.007723723994761551,0.008122427745162853
333,0.007746881377573559,0.006100019267683035
334,0.008159838829392033,0.0034214751352059885
335,0.007923368370062935,0.011925783290600532
336,0.007824554190997758,0.005519168936568823
337,0.007941451501849441,0.008426439697356585
338,0.0073947981168381235,0.002983895005127555
339,0.007911621267143502,0.005242980179768688
340,0.0074921458826320685,0.006245344812557654
341,0.007324702874422342,0.004892921442020429
342,0.008030544997354467,0.009849645099628367
343,0.008101897760216954,0.006469127879755156
344,0.007809332411026777,0.010778707713800193
345,0.007811169527347485,0.005536320593557964
346,0.00792562594884064,0.007935669893162191
347,0.008334859566063993,0.010968087325585622
348,0.007884952494763672,0.00853361343323961
349,0.0075925389518045625,0.007753340711915644
350,0.007905483820946883,0.007140715503969598
351,0.007416769585328,0.009284489444841431
352,0.007575572927022349,0.005779946180267793
353,0.007779664419636839,0.0032082671004082146
354,0.007097013960897678,0.007472283202837256
355,0.007904144561961948,0.008259681944353852
356,0.007986448477204743,0.009206857518296639
357,0.007769811320673975,0.010407657583039062
358,0.0073327298310930005,0.006690703536403654
359,0.007423514154457527,0.011756609403473143
360,0.0073739644740227995,0.007924282035019305
361,0.00770186563901831,0.005069165402727867
362,0.007397494293923537,0.007273392291664607
363,0.007722940708925243,0.00611528876474996
364,0.007191326454479834,0.006736527867438808
365,0.007540544910396603,0.007498658378700407
366,0.006958908410875021,0.012689418427722607
367,0.007473130680272262,0.010909881445725508
368,0.007974795517104073,0.004424015961252241
369,0.007255922172882622,0.00633028871251157
370,0.007998826512177256,0.006402271696099543
371,0.0074300348416617,0.009466997721918285
372,0.007642879403832046,0.00938707269395936
373,0.007149709623584674,0.008831787314898119
374,0.007567368274134734,0.004615644095928629
375,0.007517432760846296,0.007125941765271921
376,0.007612452227648327,0.004475531513760809
377,0.00748777059655038,0.011253807671668028
378,0.0072923498308222045,0.011535383108194738
379,0.007644868842854673,0.005110335649868096
380,0.0070743270867078345,0.008701577473905205
381,0.0076899000793973875,0.008771682019921016
382,0.0070940340835814,0.005939582919212383
383,0.007418977850445097,0.0038355549655181387
384,0.007356223588765448,0.00968486449556997
385,0.007918985471293943,0.005761643573597673
386,0.007431626920201194,0.004062524340104462
387,0.007389196601557098,0.006285238936808087
388,0.008667170451834893,0.005362029956622842
389,0.007142507822065205,0.004220500544313379
390,0.007734560422959636,0.0029565991428419773
391,0.007627630001324847,0.01153877537679912
392,0.007506588804783102,0.005861646704884406
393,0.007474708559213401,0.008640942021531083
394,0.007327346700998537,0.005698270072179957
395,0.007431263694067677,0.009536916556920277
396,0.008031268916029533,0.006982258623561453
397,0.007071920121527857,0.00558340094135317
398,0.007589269881706229,0.010190717919326102
399,0.007194945465778555,0.010393944102903238
400,0.007643709666461205,0.007728340469180197
401,0.007853232990510368,0.00905853642213975
402,0.008018488258061608,0.0054261759180802005
403,0.0075992259021430055,0.004422306723932382
404,0.0071965599210923915,0.004423243087005597
405,0.00757904381531817,0.006305661354943134
406,0.006927742815980737,0.006888017362687846
407,0.007025679005950177,0.013096342509393392
408,0.007224289387249373,0.01171935323314137
409,0.007244559552408472,0.0048151842172198065
410,0.007206748247419824,0.007360211837428145
411,0.007616671105464481,0.006833110640123898
412,0.006939215070142193,0.005436208186599102
413,0.007254660500801257,0.004445749358696703
414,0.0077854042715891055,0.010487022851582766
415,0.007472316108772056,0.008091562600319745
416,0.007399213442811184,0.00466592740024945
417,0.007757955160606906,0.004321617286375944
418,0.007040123946478607,0.006381278082834235
419,0.007514115436364421,0.007958704172747523
420,0.0072029383032680225,0.010818980938527841
421,0.007990167755317195,0.012578485995948597
422,0.007327868165984321,0.004171590699506269
423,0.006835282028229873,0.007236425181220109
424,0.006848589249728002,0.0024261089531012357
425,0.007443377726914571,0.005871461226951093
426,0.006971648669422721,0.009697575129468608
427,0.007163422547640364,0.00894941291062495
428,0.007208364290020746,0.008806910512097116
429,0.007340462889420323,0.005374292969474335
430,0.007381001060052837,0.008914639774912816
431,0.00710613076384518,0.010003048850880566
432,0.0076041680785435,0.006566054632059565
433,0.007431582567359445,0.0061741412232094095
434,0.0071343165704795125,0.007528037002976122
435,0.0067202283843174025,0.005267867305402033
436,0.006949914250724601,0.007715815891039094
437,0.007394258986688037,0.0065285786291718155
438,0.007522228001940736,0.005456120049949932
439,0.007074743188336212,0.007941233663104516
440,0.006921575373436193,0.0028379653911631856
441,0.006829268016798837,0.006496795029000871
442,0.006984797719070207,0.006087481986948869
443,0.007049713904193664,0.007375399098785237
444,0.007578945616621235,0.0039290611122403335
445,0.006557927346512151,0.007235572878462457
446,0.007264930682314886,0.008250825206330891
447,0.007494824131013458,0.007896327515792076
448,0.0074504002254809154,0.005648858145455629
449,0.007501247694478002,0.008330786103807572
450,0.0067584237099984745,0.004461602170399633
451,0.0065520742758669315,0.006352230065208937
452,0.007528306641928602,0.004369106844226347
453,0.006968145318933094,0.0066795941176159045
454,0.007419156619525558,0.007147008715963378
455,0.007155472160425695,0.002941574212590022
456,0.0075166192360603505,0.0076710243530030454
457,0.007328673885313706,0.0043469992113074
458,0.007874637473902057,0.006554679035105476
459,0.006942096015465983,0.006321371739896363
460,0.0069572653094355725,0.005414409893355387
461,0.007192930993646365,0.00957930276145381
462,0.007409441175213237,0.004595679915330028
463,0.007431662903330345,0.0025152823450036448
464,0.007324571712043056,0.006092763128054594
465,0.006551923283007663,0.005014156450053652
466,0.007051548524703875,0.004460317024633276
467,0.006884419437714492,0.007896190773087076
468,0.00711681500055286,0.00785758244733737
469,0.00671876474221473,0.007970315668123297
470,0.007546125991205922,0.004111778959132078
471,0.008329875332278778,0.007520740509588909
472,0.007161474430566575,0.011145056661250747
473,0.007542821372186186,0.006758870948003142
474,0.007082353886436495,0.009603171912922384
475,0.007377403909522894,0.004383977047214028
476,0.006943363140828142,0.006272116379743264
477,0.007183258198659501,0.010789923090561225
478,0.007472712611820516,0.009619519247540407
479,0.007203373497427939,0.00404463741735753
480,0.006767834040733109,0.0031839345808595937
481,0.007517517158418423,0.009616220010490095
482,0.00752636512851627,0.011383556979895813
483,0.007007673815105685,0.013899268169358854
484,0.006759160042027209,0.011356283380593385
485,0.0071816278828514945,0.006491294279532844
486,0.006730090332426709,0.013470575057599332
487,0.0073795215554087225,0.013928654185410269
488,0.007557458277206591,0.009529188745776405
489,0.006927362481261686,0.008327682737052299
490,0.006490891696781003,0.0058281320369939875
491,0.007460997972490756,0.006980995875110684
492,0.0063614716103727025,0.010234412987846601
493,0.007381028202969095,0.007421149918919792
494,0.007000429189032901,0.006022023454958304
495,0.007035952411219031,0.006790586197770832
496,0.006700779983980788,0.00796981869433031
497,0.006725513079720322,0.009926678451114784
498,0.006835836143665415,0.004666936387555658
499,0.007018614886533305,0.011416966937946915
500,0.006944369197944827,0.004903182488422909
501,0.0065676950621414935,0.011313223615200527
502,0.00733455199116229,0.008477948875046661
503,0.006791566897330316,0.008932808962457276
504,0.006801038590478722,0.00450936195880892
505,0.007740461948900212,0.003968283670771376
506,0.006775705857283557,0.005503994289964978
507,0.006938852288173609,0.0076586115173995495
508,0.0074241529989371195,0.007165892674104731
509,0.007056866391494179,0.0045342331617297315
510,0.006828895768989696,0.007369664611240471
511,0.007368878395256432,0.010489239652906475
512,0.0070435911281887505,0.005489809571999848
513,0.006856935804796894,0.008023199475360792
514,0.006600037136505604,0.009263082726431485
515,0.007297123089614365,0.006392788302576744
516,0.006696100670166483,0.006088740326502399
517,0.006675238981634545,0.0071051886860919265
518,0.007406867426100949,0.006414776280575271
519,0.00704068432484443,0.005903268452357404
520,0.00776761094378836,0.005878298083612814
521,0.006582245037765901,0.007020542251450416
522,0.007054612854310274,0.005810728669313577
523,0.007093959487416297,0.004523124093014891
524,0.007257251985196909,0.005559577109349484
