epoch,loss,val_loss
0,0.10699593345075846,0.048603345908224585
1,0.048875322792679074,0.04863864553719759
2,0.04869535285234451,0.04892894343286753
3,0.048666333708912136,0.04886803529411554
4,0.048631138384342194,0.04800835085660219
5,0.048562510695308446,0.04943346851319075
6,0.04854885139688849,0.04968008018285036
7,0.048573720876127484,0.048160479858517645
8,0.04852388523891568,0.04812926699966192
9,0.04844257138296962,0.04863209066540003
10,0.04847589333355427,0.04856458878517151
11,0.04844949479773641,0.048026542000472544
12,0.04843971224874258,0.0480002937540412
13,0.04838508788496256,0.04842633165419102
14,0.048380561731755735,0.04812810587882996
15,0.048338115260005,0.04789285692572594
16,0.04831768415123224,0.048054032944142816
17,0.0483523626960814,0.047962481155991554
18,0.048353794384747746,0.049493168167769906
19,0.04829471582919359,0.04817518747597933
20,0.048322280034422876,0.048399450816214086
21,0.048274930227547884,0.04823538104444742
22,0.04829761415719986,0.048469655469059944
23,0.04825998295098543,0.04798900605738163
24,0.048271735951304434,0.048182248204946515
25,0.04823637356609106,0.04796547631919384
26,0.04824809389188886,0.04799320703744888
27,0.04825052016600966,0.048175605669617656
28,0.04820472666993737,0.04805397286266089
29,0.04824625677987933,0.048234417013823985
30,0.048224330719560386,0.04851732183992863
31,0.04823459481075406,0.048381132259964946
32,0.04818466283380985,0.047827410601079465
33,0.04821804434061051,0.04795801490545273
34,0.04817632037773728,0.047898474998772145
35,0.04820285945758224,0.04808040561527014
36,0.04815961172431708,0.04804731388390064
37,0.04819076328352094,0.04813295311480761
38,0.0481599399484694,0.04793573680520058
39,0.048133543103933335,0.048169268861413005
40,0.048158951982855795,0.048086196340620516
41,0.048206948526203636,0.047901360645890234
42,0.048157059758901596,0.04796613927930594
43,0.04811396614462137,0.04805936191976071
44,0.04814230136200786,0.04869105435162783
45,0.048132041938602925,0.04798066844791174
46,0.04817272248119116,0.048105346500873565
47,0.0481497372277081,0.04833424136787653
48,0.0481428021080792,0.04785881856828928
49,0.04813388908281922,0.04797734494507313
50,0.04814881885051727,0.04785070076584816
51,0.048148775085806846,0.04804574596136808
52,0.048132550340145824,0.04798742863535881
53,0.048128374215215444,0.04784924340993166
54,0.04809802405908704,0.047893916495144365
55,0.04814046235382557,0.047799463734030725
56,0.048114831488579514,0.047999227270483974
57,0.048132496923208236,0.04813119015842676
58,0.04812772161513567,0.0479382259324193
59,0.04811857519298792,0.0478377811089158
60,0.04809646240994334,0.04825342170894146
61,0.04811199663206935,0.04780197594314814
62,0.04809084621444344,0.04780990166217089
63,0.04810822160542011,0.0479743705317378
64,0.04807117652148008,0.04810032964497805
65,0.04810824640095234,0.04839665479958057
66,0.048110588181763884,0.04806241104751825
67,0.04807625713571906,0.050692333072423934
68,0.04811650133877993,0.047958098232746126
69,0.04809475102648139,0.048105546474456785
70,0.04814186560362577,0.04858127079159021
71,0.048077158905565735,0.04865975885093212
72,0.04808313832432032,0.047889706701040265
73,0.048100636519491674,0.04797548843920231
74,0.0481003473252058,0.04822414323687554
75,0.04810234904661775,0.04821318766474724
76,0.048082473646849394,0.04818820062279701
77,0.04806655779480934,0.04784752955287695
78,0.04809311893209815,0.04781747757643461
79,0.04806395507603884,0.04835911251604557
80,0.04805564441904426,0.04807705115526915
81,0.04809360662847757,0.04775573717802763
82,0.04810302527993918,0.04787878176569939
83,0.04810404217243194,0.04909906073659658
84,0.0480491797067225,0.04792338636517525
85,0.04807404527068138,0.04778928552567959
86,0.0480545185059309,0.04786551656574011
87,0.04809111561253667,0.048572929613292216
88,0.048042005375027654,0.047925647266209126
89,0.04809360457956791,0.04777345583587885
90,0.04809633909538388,0.047792107306420806
91,0.04804543775320053,0.048008564718067644
92,0.04803646571189165,0.04835797552019358
93,0.04806558970361948,0.04786041181534529
94,0.04807792932540178,0.04814763540774584
95,0.04807180121913552,0.047957253664731976
96,0.048068013172596694,0.04794101409614086
97,0.04806922615692019,0.04780252480506897
98,0.048021954074501993,0.04779436071962118
99,0.048063407100737095,0.04786046323925257
100,0.04804506931826472,0.04831650357693434
101,0.04803937340527773,0.047867276318371295
102,0.048075665678828955,0.04801399104297161
103,0.0480419652312994,0.04811433748155832
104,0.04806246395781636,0.047793210349977015
105,0.048074035506695506,0.04782388837635517
106,0.048044415157288314,0.04790207485854626
107,0.04804595505818725,0.04789555367082357
108,0.0480372453071177,0.047764946930110457
109,0.04804693663865328,0.04768709473311901
110,0.0480609702244401,0.04785911637544632
111,0.04805940788239241,0.04828192506730557
112,0.0480462312027812,0.04791140297055244
113,0.04803074928373098,0.04811557111889124
114,0.048039273899048565,0.047899542078375816
115,0.04807032500207424,0.0478366473838687
116,0.04804160378500819,0.04816535185277462
117,0.04803302050381899,0.04807603751122951
118,0.048053964532911775,0.04784821607917547
119,0.04802543166279793,0.04780881024897098
120,0.04803474475070834,0.047726582653820515
121,0.04804176178202033,0.047859464146196844
122,0.04802558171749115,0.04865795935690403
123,0.04804805091395974,0.04783691420406103
124,0.0480435395129025,0.048375034153461456
125,0.048049087524414065,0.04804837453365326
126,0.047994682874530556,0.04805702082067728
127,0.04803369003534317,0.04816529727727175
128,0.04803854634985328,0.048127695992588995
129,0.04802109968662262,0.047749642811715606
130,0.04803254472836852,0.04785289346426726
131,0.04803255986049771,0.047804008096456525
132,0.04803133713826537,0.047793915063142775
133,0.04802903632447124,0.048272269934415815
134,0.04803261936828494,0.04794994577020407
135,0.04801562660560012,0.04778849352151156
136,0.048031970836222175,0.04777859376370907
137,0.04799366549775004,0.047834651812911036
138,0.04803163931518793,0.048096489630639554
139,0.04802303210273385,0.048564698487520215
140,0.048007923740893604,0.04786964626610279
141,0.04803385230898857,0.047913404777646065
142,0.048016218226403,0.04854284219443798
143,0.04804169905930757,0.04791070248186588
144,0.04802130245789885,0.048227520182728766
145,0.048037757221609356,0.04783181321620941
146,0.047996388744562864,0.04775624815374613
147,0.048010706789791587,0.048033822029829025
148,0.04801136298105121,0.047992784194648266
149,0.04800966209545732,0.047882028877735135
150,0.04803196949511766,0.04797650366276503
151,0.047991567969322205,0.04805059287697077
152,0.04800701471418142,0.047908269867300984
153,0.0480052552446723,0.0479232809767127
154,0.04801606183871627,0.047815319411456586
155,0.048015935722738504,0.04798123451322317
156,0.047981026623398065,0.047758627220988274
157,0.04800245378166437,0.04812263918668032
158,0.04800954218581319,0.0479219100177288
159,0.04799770806357265,0.04780236169695854
160,0.048008544780313966,0.04782839909940958
161,0.04801469568908215,0.04790463018417358
162,0.04802874038368463,0.04781634525209665
163,0.04798953097686171,0.04790284514427185
164,0.04799241059273481,0.04788190248608589
165,0.047995825909078124,0.047978774212300776
166,0.048017383597791195,0.04783567572385073
167,0.04801170188561082,0.04840673243254423
168,0.048002010785043236,0.04776248083263636
169,0.04799275082722306,0.0477437759116292
170,0.04795471265539527,0.047868508026003835
171,0.048008710708469154,0.04804714222252369
172,0.048005604472011326,0.04780006121098995
173,0.04798419973254204,0.0478413343578577
174,0.048004336152225734,0.047732720866799354
175,0.04800276358798146,0.047738292165100574
176,0.04798534185811877,0.04793479659408331
177,0.048021705955266954,0.04795618477463722
178,0.0479857537895441,0.047897826611995695
179,0.048020758241415024,0.0481245486587286
180,0.0479969342648983,0.04784926588833332
181,0.04802392866462469,0.04786831247061491
182,0.047987544521689414,0.048023762062191964
183,0.047990223500877616,0.04770274943113327
184,0.047993843551725146,0.04801244305819273
185,0.04798418190702796,0.04780961761623621
186,0.048001462794840334,0.04788713039457798
187,0.04799343337491155,0.04794434808194637
188,0.04798871948942542,0.04799038321524859
189,0.048001017082482576,0.047936261855065825
190,0.04798990672826767,0.047966946117579935
191,0.04801002918183803,0.047916480697691444
192,0.04798524054139853,0.0478078940808773
193,0.04798222771286965,0.04799603470414877
194,0.04799990300089121,0.04793972836434841
195,0.047992134291678666,0.04780103824287653
196,0.04798543201386928,0.04789185731112957
197,0.047987654659897086,0.047791462041437624
198,0.04800433478504419,0.0487776458337903
199,0.0480087147988379,0.04777571466565132
200,0.04798749298602343,0.04783033795654774
201,0.04796900885179639,0.04775080692023039
202,0.04798260625824332,0.0479622728601098
203,0.04798834316805005,0.04812725562602282
204,0.048009427592158316,0.04770793250948191
205,0.047979022704064844,0.04791492192447185
206,0.04799639698117972,0.04774340691417456
207,0.04799549704417586,0.0479113182798028
208,0.04796065112948417,0.04798582459241152
209,0.04797867189720273,0.047722076408565045
210,0.04799973471462727,0.04796405272930861
211,0.04796643854677677,0.047849455453455446
212,0.04796520299091935,0.04774979244172573
213,0.04797584293410182,0.047743431560695174
214,0.04800217793509364,0.047872749119997025
215,0.047961689863353967,0.04774058971554041
216,0.0479993357360363,0.04792602787911892
217,0.04797957626730204,0.04796844357997179
218,0.04797964702174067,0.047675575405359265
219,0.0479777451865375,0.04784817069023847
220,0.04797160904482007,0.04778339462727308
221,0.04798010896146297,0.04784817337244749
222,0.04798885831609368,0.04774577898532152
223,0.04798450474441052,0.0478768487200141
224,0.047973658815026285,0.04799431224912405
225,0.04801861936599016,0.047801992923021314
226,0.047942906238138676,0.048544349879026415
227,0.048014828886836766,0.04804069062322378
228,0.047959816187620165,0.04819811423867941
229,0.047995467308908704,0.04822675140202046
230,0.04798338432982564,0.047745706610381605
231,0.047982555195689204,0.04776183213293552
232,0.047965905621647834,0.04798760910332203
233,0.04799019658565521,0.04779226624965668
234,0.04797290888801217,0.04805756145715714
235,0.047980364736169574,0.047862467586994174
236,0.047988598357886075,0.04846503358334303
237,0.04797617097198963,0.04793335073441267
238,0.04798142358660698,0.04773952926695347
239,0.04797731402888894,0.04788028401136398
240,0.04801155933365226,0.048739099107682704
241,0.04795497674494982,0.047696002803742886
242,0.04799133421108127,0.04770181353390217
243,0.04797045835852623,0.04775303154438734
244,0.04796456323191524,0.04813407228887081
245,0.04799700464308262,0.04773967207968235
246,0.047979122601449486,0.04790225149691105
247,0.04795654909685254,0.04792365683615208
248,0.047978698089718816,0.048189399540424345
249,0.047978795040398835,0.047758933380246164
250,0.04795204600691795,0.048140944674611094
251,0.04797024074941873,0.04783072160929441
252,0.047987580440938475,0.047788434080779554
253,0.04798163340613246,0.04797685833275318
254,0.04796551652997732,0.048152945838868616
255,0.04797005820646882,0.04799441672116518
256,0.04799687411636114,0.047797934904694556
257,0.04794998722150922,0.047669775247573855
258,0.047973709668964144,0.047728168159723285
259,0.047974679231643676,0.04803119245171547
260,0.04798270154371858,0.04787894155830145
261,0.04796442099660635,0.047738864585757254
262,0.047975598368793726,0.04785293997824192
263,0.04795937017723918,0.04771520663052797
264,0.04798767382651568,0.04785997655242682
265,0.04797406711429358,0.04775280186533928
266,0.047993637315928935,0.04889844264090061
267,0.0479574224576354,0.047809518173336986
268,0.04795814351737499,0.047930851235985755
269,0.047967535674571994,0.04797850351780653
270,0.048003971461206676,0.04766827419400215
271,0.04795483015105128,0.04783896662294865
272,0.04797121623158455,0.04818976080417633
273,0.04798483143001795,0.048089473821222785
274,0.04795991116017103,0.04815758878737688
275,0.04793527718260884,0.04827294628322124
276,0.04799168311432004,0.0480153457224369
277,0.04795994518324733,0.04799147630482912
278,0.04798373582214117,0.04825114692002535
279,0.04795725892111659,0.04804560272395611
280,0.04796498327329755,0.047734351642429826
281,0.04798555318266153,0.04780453826487065
282,0.04798910053446889,0.048070493787527084
283,0.04796312455832958,0.04784869973361492
284,0.04799296085909009,0.047803580462932586
285,0.047958505913615224,0.0477926367148757
286,0.048004587311297656,0.04764115377515554
287,0.04794267858937383,0.048481083899736405
288,0.0479805345274508,0.047775666117668154
289,0.04798383459076285,0.04766393614560366
290,0.04796292082592845,0.04779730818420649
291,0.04798571473732591,0.047774012811481956
292,0.04799312702938914,0.04765249539166689
293,0.04794003279134631,0.04784523790329695
294,0.04798495650663972,0.047738865666091444
295,0.047959396421909335,0.04778990525007248
296,0.047973784089088436,0.04789695267379284
297,0.047974982414394615,0.04775185766816139
298,0.047960122276097535,0.048434092350304124
299,0.047951239425688984,0.04776882553845644
300,0.047969205420464275,0.0478737671226263
301,0.04799788664653897,0.047755248963832854
302,0.047981419809162616,0.04783310077339411
303,0.047952262558043,0.047836873076856135
304,0.04795681855082512,0.04813141297549009
305,0.04798496298491955,0.04780288224667311
306,0.047939536608755585,0.048389415942132474
307,0.04795511721074581,0.04774454328417778
308,0.047990286536514756,0.047780039466917515
309,0.04794669969379902,0.04778922300040722
310,0.04794855331256986,0.04805815566331148
311,0.047983096722513434,0.04783193984627724
312,0.04797600496932864,0.04788716974109411
313,0.047930858410894873,0.04773074210435152
314,0.047987965147942305,0.0477227920666337
315,0.04794595981761813,0.04774754812568426
316,0.04796312089636922,0.047709646239876745
317,0.04798164248839021,0.047689616493880746
318,0.04796375573053956,0.04781853102892637
319,0.047979348361492154,0.047750300101935865
320,0.047948970265686515,0.0478238637521863
321,0.047965979255735876,0.04782459741830826
322,0.04796242157742381,0.047884600058197974
323,0.04798856908455491,0.04880799838155508
324,0.04796907953172922,0.04853530237823725
325,0.04795571579411626,0.047767703473567964
326,0.0479478090852499,0.048257796943187714
327,0.0479681401476264,0.04771540630608797
328,0.04797658317908644,0.048006660863757135
329,0.04793914271518588,0.04782212436944246
330,0.04795927134156227,0.04771905311197042
331,0.04794380284845829,0.04821227253973484
332,0.04797933387383819,0.04789693470299244
333,0.047957593366503716,0.047973714351654054
334,0.04796888769045472,0.047805749855935574
335,0.04798354098573327,0.04766232042014599
336,0.047940107867121697,0.047918006010353564
337,0.04795712422579527,0.0481922702640295
338,0.047972746506333354,0.048448199220001695
339,0.04796474399417639,0.048029136575758455
340,0.04798212796077132,0.047851381726562975
341,0.047960049375891683,0.04775274726003408
342,0.04795828209072352,0.04826591700315475
343,0.047959332372993234,0.04768302979320288
344,0.047958270475268364,0.04830325619131327
345,0.04797944701090455,0.04786267007887363
346,0.04795349801331759,0.04780501502007246
347,0.04800777219980955,0.04812560819834471
348,0.04795781757310033,0.047758182518184186
349,0.04796183209866285,0.048030665531754495
350,0.04797126005217433,0.04791034258902073
351,0.047960238326340915,0.047770620360970496
352,0.04793325710296631,0.04795392898470163
353,0.047956292644143104,0.04795055312663317
354,0.04796466265246272,0.048219288371503355
355,0.047959194708615545,0.04781851737201214
356,0.047956605561077593,0.04790727935731411
357,0.04796689891442656,0.047859404407441616
358,0.04795754374191165,0.04839080231636762
359,0.04797907179966569,0.047977675937116146
360,0.047960106037557126,0.04799544041603804
361,0.047963383670896295,0.04822744686156511
362,0.047962634980678556,0.04775841879844665
363,0.04796227070316672,0.04771346192806959
364,0.04796511327847838,0.047847766041755675
365,0.047959023725241426,0.048026581168174744
366,0.047972182489931584,0.04784613947570324
367,0.047984596345573664,0.047774736747145656
368,0.04794272931292653,0.04773172284662724
369,0.047996444392949346,0.047900636114180085
370,0.0479492973908782,0.0480116121172905
371,0.04794164568558335,0.04772226751595736
372,0.04799289194121957,0.047842985183000564
373,0.04797072276473045,0.04795415113866329
374,0.047934635125100614,0.0478346074000001
375,0.04795201100409031,0.04815362614393234
376,0.04795283392816782,0.04786712109297514
377,0.04796030298247934,0.047760523341596126
378,0.04793483536690474,0.047809666007757184
379,0.0479830136038363,0.04792326707392931
380,0.04797121743485332,0.04776834860444069
381,0.04795665069669485,0.048019115306437016
382,0.04795221807435155,0.047829415246844295
383,0.04800309795513749,0.047802190788090226
384,0.04794176034629345,0.0478343680202961
385,0.04796395188942552,0.04780426672846079
386,0.04796036264300346,0.04797526600956917
387,0.047976443979889156,0.04803737862408161
388,0.047963414426892996,0.05022375653684139
389,0.04793419136479497,0.047670273922383787
390,0.047950691122561694,0.04777469538152218
391,0.04795870629325509,0.04797119556367397
392,0.047977496195584536,0.048692394629120825
393,0.047948513887822626,0.047985916182398794
394,0.04795635648444295,0.047765635639429094
395,0.04796128736436367,0.047852410338819026
396,0.04795974969118834,0.047767546340823176
397,0.04797385156527162,0.04773700336366892
398,0.04796063009276986,0.04772028172016144
399,0.047956322964280845,0.047708006873726845
400,0.047933471105992796,0.0478975045979023
401,0.047968015503138305,0.047787975519895554
402,0.04798723864555359,0.047839898899197576
403,0.047942391626536844,0.04782723519951105
404,0.04799509058892727,0.04775080836564302
405,0.047964728198945525,0.0478469719439745
406,0.047976892672479156,0.04773866454511881
407,0.047960679937154055,0.04813270994275808
408,0.04794928977638483,0.04801644575595856
409,0.04798543055355549,0.04784590648114681
410,0.04796932975575328,0.04794613505899906
411,0.047937723975628614,0.04784599538147449
412,0.04796516249328852,0.047717981837689875
413,0.04797249989584088,0.04771657640486956
414,0.04795417013764382,0.047813664965331557
415,0.04798015105724335,0.04808631113171578
416,0.04796372757852078,0.04775472881644964
417,0.04795981614291668,0.048016727916896346
418,0.047955729708075524,0.04795546472072601
419,0.04795095336064696,0.04778043285012245
420,0.047978653337806466,0.0477829302996397
421,0.04797208311781287,0.0479521993547678
422,0.0479636308811605,0.0477425124719739
423,0.047972005154937505,0.04783223489671946
424,0.04796313697844744,0.047753157712519166
425,0.04797222266718745,0.04840533585846424
426,0.047964903101325035,0.04772496887296438
427,0.04796652648970485,0.047749510183930394
428,0.04797180067002773,0.048152772925794125
429,0.04796278692036867,0.048045241706073286
430,0.04793907209485769,0.04788002542406321
431,0.04800078336521983,0.04770321904867887
432,0.04794635597988963,0.04787261126935482
433,0.047961866125464436,0.04781341294199228
434,0.047961423981934787,0.04774101854115725
435,0.04796596125885844,0.04785730136930943
436,0.047949209440499546,0.04801682521402836
437,0.04797622141614556,0.04778655230998993
438,0.04795186045393348,0.047958060018718246
439,0.04796827624738216,0.04780841449648142
440,0.04798665932193399,0.0485967765301466
441,0.04796772184967995,0.04795011133700609
442,0.04794989414140582,0.047842827640473845
443,0.04794898378103971,0.048265384830534455
444,0.04796906880661845,0.04768172818422318
445,0.047952735256403686,0.048496713139116764
446,0.04796259004995227,0.04831089719384909
447,0.04796537542715669,0.048141542725265024
448,0.04793883160129189,0.04772154401242733
449,0.047976192593574524,0.04792293363064527
450,0.04795441057533026,0.0487633310854435
451,0.04797254721447825,0.047923450231552124
452,0.04795901112630963,0.04778257154673338
453,0.04796687677875161,0.04858081169426441
454,0.04792772866785526,0.04782869264483452
455,0.047963027872145174,0.04792461095750332
456,0.04798071214184165,0.04786682646721602
457,0.04795877546444535,0.04804348400235176
458,0.04799996031820774,0.04790513523668051
459,0.047952871583402154,0.04770152144134045
460,0.047979446206241845,0.0479204788133502
461,0.04793503999710083,0.047696182481944564
462,0.04796509326994419,0.0477298995256424
463,0.04795274258032441,0.04790882766991854
464,0.04796215490996838,0.047737417548894885
465,0.04795613149926067,0.04785234630852938
466,0.047966302283108234,0.047942261643707754
467,0.04796685072779656,0.04774196331202984
468,0.047963473852723836,0.04805455707758665
469,0.04796438711509109,0.048049273617565634
470,0.047959873843938114,0.047739076860249044
471,0.04794781513139606,0.047825569681823256
472,0.04795827458426356,0.047798816479742524
473,0.04796843293681741,0.04812401258945465
474,0.047964876927435396,0.04774762205034495
475,0.04794281084090471,0.0483856825530529
476,0.04795447937771678,0.04803871855884791
477,0.04797918774932623,0.04774667330086231
478,0.047970104098320004,0.047913457475602626
479,0.04796722444146872,0.04782719407975674
480,0.047954930223524574,0.047781199537217614
481,0.04795378465205431,0.04778648383170366
482,0.047955508779734375,0.04784500163048506
483,0.0479760033339262,0.04783996148407459
484,0.047946765810251236,0.047829467177391054
485,0.047943840328603986,0.04796409206092358
486,0.04796289933845401,0.047737897224724296
487,0.04798348867148161,0.04772154626250267
488,0.04794619283825159,0.04800579062104225
489,0.04797564409673214,0.048090016148984435
490,0.047948619186878205,0.04765912684053183
491,0.047967451393604275,0.047796887151896957
492,0.047982789751142264,0.04781739742308855
493,0.04795552705600858,0.04768856855481863
494,0.04798784411326051,0.04768387693166733
495,0.047951877512037756,0.048128600046038625
496,0.047968038462102416,0.04840067709982395
497,0.047949753273278474,0.048027922920882704
498,0.04797222644835711,0.04780058836191892
499,0.04796224366873503,0.047790180549025535
500,0.047965337093919515,0.0479179949387908
