epoch,loss,val_loss
0,0.15941744819908835,0.058578040683090735
1,0.044871848931224895,0.02955302382042395
2,0.025295929112981598,0.023738106440726284
3,0.02413428954774146,0.024055613869332193
4,0.023886946546618076,0.023343487040690294
5,0.023854237912650064,0.023951414169856855
6,0.02399930246933687,0.02319802717403483
7,0.02387149469833151,0.024441827078303578
8,0.023715060668067632,0.024218798831881456
9,0.023797244114204228,0.025310814340952444
10,0.023808973507105494,0.023303336927692254
11,0.023747211908080358,0.024038813142333807
12,0.023806720248443616,0.023477672073687263
13,0.023828368205175126,0.02362632674430427
14,0.023642662413072862,0.023049780702028767
15,0.023645918300415545,0.024630417767985656
16,0.02372675661375816,0.023012480333200476
17,0.023628875485165037,0.02399556900814893
18,0.02363544534728062,0.023285675151442673
19,0.02374753698209326,0.023763171763945115
20,0.023633198817815188,0.0254552344429206
21,0.02369268466349986,0.025367897267041004
22,0.02352959429807991,0.023779133819896308
23,0.023693113865481195,0.023117841514681586
24,0.023572235684588754,0.02283217034199008
25,0.023607186011249403,0.02333553188172446
26,0.023717361732388285,0.023192878736105132
27,0.023523262558247354,0.02419163403707691
28,0.023572483797558396,0.022942926076071037
29,0.023672611090830332,0.023027667912471548
30,0.023478322132355827,0.02352363556100095
31,0.02352626501492483,0.024431973816305047
32,0.0234801772964015,0.02307457084331629
33,0.02362884703776438,0.023305169938113057
34,0.023542164639531852,0.02481798292082553
35,0.023548077960177768,0.023065473876993488
36,0.02343576215282023,0.022952129054394123
37,0.023539923300458898,0.023435952721109234
38,0.02351778225867535,0.023978546632258273
39,0.023463746458351566,0.024778340105922936
40,0.023527807593315863,0.023465171138790524
41,0.023558379820198844,0.024050484381280927
42,0.02343541136432847,0.023295309344613845
43,0.02334509851212958,0.023529259843756197
44,0.02353568838538526,0.023757988525276684
45,0.023491615197248312,0.024003461958883122
46,0.02338290844204948,0.023111435732471257
47,0.023413258279375227,0.02362667049568708
48,0.023537018646052083,0.023945362568078027
49,0.02342682009224864,0.026033337791792125
50,0.023468865508244906,0.02310720867173777
51,0.023373277193094663,0.0231899041829494
52,0.023474462936333807,0.023698518634865672
53,0.023448975890023198,0.023328457004151763
54,0.02337769138664722,0.023592947202351684
55,0.023361692595169795,0.030705454135232773
56,0.023449430636745944,0.02475412043242259
57,0.02335638179407298,0.02357575829245956
58,0.02343176509276759,0.023229998715027827
59,0.02345840969040311,0.022923973535247083
60,0.02332603488992944,0.024456471244450998
61,0.02341734587723355,0.023152413887531153
62,0.02337852272939839,0.023138698011095728
63,0.023317586903800543,0.023223177052816728
64,0.023336673668361636,0.023743716932262786
65,0.023415753481646092,0.025106021774243256
66,0.023438108883958926,0.023026105719188488
67,0.0232391999289989,0.023257911712483995
68,0.02333600300890531,0.02290769685397914
69,0.023328703449224587,0.025354088340674975
70,0.023356480671347473,0.023505386401735242
71,0.023322692397031948,0.02340593487729966
72,0.023212251420930134,0.024343952723288497
73,0.023388431350932087,0.022989092316793098
74,0.023384288766329808,0.022992338652957023
75,0.023333759528013774,0.023884357531696866
76,0.023347693000384848,0.02291114874560483
77,0.023259616147973936,0.023651497319470076
78,0.02324172682750473,0.0233607422795673
79,0.023441494078480368,0.02606968634306867
80,0.02320902075150983,0.02360317377842545
81,0.02341941027469534,0.023199187402026148
82,0.023247019585808642,0.023193660716290254
83,0.023290475069595088,0.023059132711075382
84,0.023319338036657904,0.02296301745607473
85,0.02318069458359199,0.022941432646295643
86,0.02330648161316042,0.02299624157668148
87,0.023290637823240125,0.02320724651188058
88,0.023354778227825865,0.023735595993468306
89,0.02325037937703655,0.0232554230730225
90,0.02328157497586297,0.023154994153844716
91,0.023224845469790062,0.02279216228104428
92,0.023257115828267914,0.022963356922050582
93,0.023250548856155715,0.02354612855509735
94,0.023226811623514938,0.023608263601102786
95,0.023288637774138095,0.023265833974519676
96,0.023256667539757265,0.02289223081734393
97,0.023238736624679835,0.023209575865044307
98,0.023242946584626355,0.02426071437671134
99,0.023355665802806735,0.023218819445209326
100,0.023225583432377767,0.022810703237565278
101,0.02323322962719402,0.023091234227064657
102,0.023193457244272284,0.02272057647492675
103,0.023254673966734436,0.02307186930954174
104,0.023246534953383708,0.02341688934040286
105,0.02327183907111581,0.023399615945513548
106,0.023261959211890407,0.02287153316031033
107,0.023211946655109488,0.02285164865593837
108,0.02323909389148418,0.02279133794369101
109,0.023237815982164095,0.023001182684711612
110,0.02324739303648305,0.02301536884449934
111,0.023250095977289355,0.023138381587819216
112,0.02321470405409138,0.022780074823968224
113,0.023192084063109544,0.023181217912975595
114,0.02331601727983172,0.024029352439783554
115,0.02325510437846732,0.02539163521081562
116,0.023216004749919347,0.023339382574938373
117,0.023237000108598995,0.02340562517689313
118,0.02319086972418592,0.024342216724778314
119,0.023166839602879054,0.022824882800913552
120,0.023196776540463062,0.02316508745743754
121,0.02326676983767443,0.022878086707468756
122,0.023229537848874535,0.02282673847033174
123,0.02318310731877502,0.022963113188978812
124,0.023248298730191994,0.022833722329683066
125,0.023252679966390133,0.023121202946732432
126,0.02322009132488621,0.022981817659869754
127,0.02320616984059461,0.023467418195969397
128,0.02323666466347915,0.022726241693241726
129,0.023173075277271936,0.024928330043191126
130,0.023230348202994733,0.02298868077659381
131,0.023251622849755245,0.0241123270684443
132,0.023291551501309272,0.02329438965070784
133,0.02316374389780797,0.023116352586421144
134,0.023226695207448647,0.023242170044060005
135,0.023171583404221076,0.02367729027391703
136,0.023214912653969917,0.022853763944571566
137,0.023238121307076073,0.0236788339127846
138,0.02317333400627668,0.023290129234365995
139,0.023243502416699337,0.022913782136263394
140,0.02320149749648466,0.02283265159098577
141,0.023193556025511118,0.02357743087723769
142,0.023149082274120346,0.02316797446186089
143,0.023165518282462272,0.023684710908119567
144,0.023223076591180336,0.022950930215106673
145,0.02324593941391491,0.023081945589116547
146,0.02323802444282815,0.02344149279819056
147,0.023186917616267334,0.023069415370850648
148,0.02319367017022235,0.024425285464798076
149,0.02315995822192358,0.023817351451048064
150,0.023216638889768236,0.023295098270312387
151,0.023202543228054696,0.024190400892481995
152,0.02313192872081896,0.02312418923293547
153,0.02313942640430207,0.02403574346049432
154,0.023292299002694854,0.023099019316384525
155,0.023098927393234034,0.02388209855770538
156,0.02320846703743263,0.023856674187949727
157,0.023190848744488495,0.022736319118041925
158,0.023158495721640252,0.0233817000982911
159,0.02321658052912028,0.02333876198332613
160,0.02315396413603108,0.02279397091830492
161,0.02325798782611565,0.02357098309509897
162,0.02315766097148426,0.022798927561119023
163,0.023165704129333737,0.022729831226552293
164,0.02316082817547732,0.02321520384809777
165,0.023240847361209294,0.02283561165167435
166,0.023150300976338623,0.0229830697543431
167,0.023245489839717543,0.023026811952784294
168,0.023013444067232852,0.023006658342497124
169,0.02325526686782817,0.022974111663137915
170,0.02314905931117485,0.02273617660143099
171,0.023108741905775478,0.02356248478028091
172,0.02324813036181086,0.02393790546160753
173,0.023129204472007274,0.023049965518473072
174,0.023158396368654226,0.02300701811674456
175,0.023256789765608826,0.023018116137305394
176,0.023088966179147755,0.022967020908242715
177,0.023204588885906693,0.023238934422148524
178,0.023172597756697166,0.025511433518158703
179,0.023145513017948486,0.022698933133692277
180,0.023132491741421745,0.023172435267654196
181,0.023174195304709516,0.022734873893581795
182,0.023158334345995284,0.022995896175821276
183,0.023158998687942918,0.022769753576418784
184,0.023095976739978905,0.02317711103181248
185,0.02336297821637681,0.02350757370578697
186,0.02306492905095994,0.02287015135840299
187,0.02315447437498781,0.022785723199090245
188,0.023076579332810272,0.022895144876430802
189,0.023282142433462192,0.023217971897562754
190,0.023065567139437873,0.02286206588190234
191,0.023232774443471795,0.023124484183603418
192,0.02317584114823696,0.022848811262267354
193,0.023165013528705168,0.022808911843370902
194,0.023055545655157356,0.023041353627874708
195,0.023241742142587066,0.02366792369007641
196,0.02309006423303049,0.02288992536984143
197,0.023316411283626545,0.024066153128690954
198,0.023130347933635102,0.023839747080404455
199,0.023093783403102825,0.022878417670256338
200,0.02309090624095129,0.02320790510909851
201,0.02315186956997136,0.022775425380882355
202,0.023164307580982372,0.02306771395403095
203,0.02307471937517063,0.0231750888592654
204,0.023239087844215377,0.022833745376792777
205,0.02313373132283501,0.023343698542797386
206,0.023103476486367572,0.022929337209394905
207,0.023144770537962395,0.02561976670066296
208,0.0231345170292911,0.02335153560682649
209,0.023175737058980572,0.023172139937694656
210,0.02310778962434839,0.024052011803227705
211,0.023282188537279716,0.02346179983780764
212,0.02299947095372313,0.022883851408970195
213,0.023128011558714103,0.022684032090108226
214,0.023192868888122047,0.02294024340690782
215,0.023130801132620334,0.023262309774921084
216,0.023168627360313058,0.02340271893591747
217,0.023122052873501914,0.022938282573750007
218,0.023078868860195723,0.023524061333455717
219,0.023211309292482482,0.02310753024044287
220,0.023129186874402942,0.023222524108219636
221,0.023123238547641835,0.02293180914091471
222,0.02311315749445074,0.02267696355758404
223,0.023105175459949518,0.02279127943722771
224,0.023113511295037734,0.02426453992789104
225,0.023146173104548532,0.022849081295829826
226,0.023155276729114098,0.02297556650660926
227,0.023180648234846304,0.02364127685028498
228,0.023093838315400527,0.022879092743136605
229,0.023116665907936703,0.023196707822929336
230,0.023152346593245186,0.02288528470338661
231,0.023165191852038712,0.023573725809943703
232,0.023121392629820284,0.02272777362552419
233,0.023101643020425625,0.02364048751507722
234,0.023081064271888763,0.0227863826034054
235,0.02317982666465423,0.023686972773841918
236,0.023121579954449793,0.022679714716812148
237,0.023084690555376257,0.022920714707452664
238,0.023076933980595578,0.02315974853133111
239,0.02316310034125305,0.02326996158881976
240,0.02311257111038164,0.023486314767761408
241,0.02311776251830667,0.02289363517239984
242,0.02312051170065606,0.02286492547295229
243,0.02314983356482,0.022815715725921042
244,0.02306628540727041,0.022818338431729607
245,0.023129882491219767,0.02317877004000975
246,0.023099483839488573,0.023329516281774407
247,0.02306582296206106,0.023175333611132033
248,0.023103995460102694,0.02386651638580667
249,0.023165644305816992,0.022807080175171898
250,0.023091654567945777,0.02267938913761299
251,0.02321473120761623,0.022842964141290775
252,0.02303396574378633,0.023566778152357807
253,0.023073359752158754,0.022931927895936424
254,0.0230790664383071,0.023532407880182238
255,0.023153566735253917,0.022948139763915736
256,0.023039425285510735,0.023073237155576624
257,0.023128451039489035,0.02267516119186579
258,0.023123887537284005,0.022684010695416153
259,0.023129089763737936,0.02289274930454138
260,0.023052112385481716,0.024579267825375603
261,0.023190984097447135,0.022957800895610756
262,0.023073416043200987,0.02276022222419376
263,0.023153440369446453,0.022633167399768294
264,0.023077102149460765,0.023494087331637964
265,0.02317609780986937,0.022842895874684497
266,0.023009647683744475,0.022735631444742103
267,0.023116527437913616,0.02466265762690822
268,0.023118698314356385,0.02331054219630589
269,0.02314668814677724,0.02328178071914551
270,0.023046966685320167,0.022863762509063086
271,0.023094753274689617,0.02285783070756303
272,0.023101109080761077,0.022752097245502773
273,0.02315881929035,0.023198279088338058
274,0.02314686786374457,0.02337094386061911
275,0.02303439492641164,0.022670835837274906
276,0.023073296100615884,0.02289781520391602
277,0.02309533195431641,0.02417394578245181
278,0.023189219935751744,0.022942480014456288
279,0.02305345206881027,0.023227621110975035
280,0.023045318266696972,0.02273384392873076
281,0.02311935809051557,0.02298522732075783
282,0.023063808747326775,0.023386655494441362
283,0.02310713869687036,0.023443093323446487
284,0.02322622162582491,0.023260991258845145
285,0.023069428814519986,0.026145967871726922
286,0.023111132917543062,0.022807844050799005
287,0.02305316159294711,0.022697378724707614
288,0.02309176504990156,0.023270879340694002
289,0.02314301448123013,0.024259328439349533
290,0.023182167122951992,0.022866848103508013
291,0.022997590405739943,0.02382253418252425
292,0.02319244438667687,0.022832217321223224
293,0.02306009325862145,0.022662700708858497
294,0.023099743754422065,0.02309929345452889
295,0.023155282876885338,0.022799041517661045
296,0.022998812122286844,0.022847188144169552
297,0.02309400753619121,0.022682312077709606
298,0.023105673668392415,0.02278934131599169
299,0.02307282329323314,0.0237598197230365
300,0.02314916335650795,0.02297366447834961
301,0.02307407426045572,0.022986880880681286
302,0.023147658573733056,0.022640040025244383
303,0.02309220764550755,0.023170578097240983
304,0.023035274231158715,0.02412733768466522
305,0.023180220033422554,0.023954468002306165
306,0.023058869670495856,0.02292030781578058
307,0.023034299378373403,0.02279524551888291
308,0.023191456272781227,0.024216024976902905
309,0.0230832787961673,0.02418226129048296
310,0.023024873090364474,0.02291916440304989
311,0.02311821154606857,0.023119816562453405
312,0.023155456605396398,0.023067534177166418
313,0.023037481849058735,0.02290637954340361
314,0.023082710696096947,0.02264308117494728
315,0.023072733372586855,0.024525195182298898
316,0.02312621939480662,0.022805163466269422
317,0.023078187665106248,0.024060377124888087
318,0.023103911982779262,0.023896358970438014
319,0.02308895814937534,0.02328369890993142
320,0.02311469288654536,0.023116351927806283
321,0.023100400302591893,0.023885919633832332
322,0.023042332418977643,0.022936488750913336
323,0.02310266233995545,0.023935373208023192
324,0.023184047534698538,0.023054852621554857
325,0.02309065416967459,0.023109503277087173
326,0.023045669663414585,0.0230130195932282
327,0.023142942324203313,0.022903842164972397
328,0.023043727198486134,0.022845213732960758
329,0.023061001843822707,0.022926033364980825
330,0.023121675077399952,0.022839809377584386
331,0.02302341689270058,0.023093067572673383
332,0.023186999732713334,0.023539106878316018
333,0.02303333151460194,0.023233978530566995
334,0.02307479972724053,0.025426035295604436
335,0.023060994343363124,0.023509653880545354
336,0.023048436750086852,0.022842535774069878
337,0.023112013274215634,0.022805365109735336
338,0.02297391415276616,0.023988276348106016
339,0.02308806538325753,0.02412762867776352
340,0.023096954263151167,0.023275484824178252
341,0.023033117529281753,0.02269743583896495
342,0.023122960623416254,0.0229172814378681
343,0.02306084999431976,0.02313269254469975
344,0.02304246090203643,0.0228427431142603
345,0.02301209916298886,0.023095157511985105
346,0.02309811291776949,0.02640888981238866
347,0.0230246497985187,0.02304529315176778
348,0.02307590176846436,0.022826379432615656
349,0.023098852599321082,0.02355193706771804
350,0.02307598648680676,0.022851152707188262
351,0.02306807021812188,0.02469754116293616
352,0.023162815512137877,0.0230578678338873
353,0.023021369135464362,0.023000476032130908
354,0.023002786769551767,0.02267251847916075
355,0.02309200230563025,0.02297164695579985
356,0.023076504639399757,0.022757639508656186
357,0.023059605658024573,0.023428046915624307
358,0.0230401670277345,0.023423234368332654
359,0.023083327998437708,0.02363892921614854
360,0.023046963417874298,0.023745056174125083
361,0.02308144314373902,0.02315456428709892
362,0.02305147249689348,0.022725886895358798
363,0.023016439764935382,0.022700835836738136
364,0.023055485227137067,0.0227078423256844
365,0.023119827153251993,0.0227745918978973
366,0.023075472865756945,0.022673867557612384
367,0.02303421548936221,0.022652556136215213
368,0.023008869763621563,0.02321335356226801
369,0.02306041516717985,0.023018141335204256
370,0.023087460338491662,0.02315064385127579
371,0.023052010322652226,0.0230192228013851
372,0.0230694793404447,0.02303076883441318
373,0.02300687027063301,0.02291024111405356
374,0.02307807943887181,0.025837896746048892
375,0.023009375507513776,0.022769491671163357
376,0.023077581994247427,0.023117355777402045
377,0.022995014286352148,0.02286247950967551
378,0.023165322684621115,0.02283272120863458
379,0.0230056467085636,0.0226322643888119
380,0.023070126361728047,0.022672842623520387
381,0.023094273113506397,0.022893910202908534
382,0.023042298879453558,0.022824937192504106
383,0.023016736643920413,0.022828660415810397
384,0.02309895731243703,0.023051192294497515
385,0.02305495238629915,0.02332101883726884
386,0.022991661005448714,0.02285258539738435
387,0.02306656319079258,0.022936365251806465
388,0.023005854664482087,0.022810221093265016
389,0.023078071610104264,0.02446397633424827
390,0.023010184110658204,0.022708920013650536
391,0.023047507684722506,0.023072102375404985
392,0.0230100831198547,0.022996880728589707
393,0.023029009549529383,0.02276215394157637
394,0.023041932431193325,0.02301275677502673
395,0.02307205259365191,0.022997004765761397
396,0.02300855181932592,0.023352761778630604
397,0.023074815558979837,0.022867398088079038
398,0.022937988418695644,0.022933301297564063
399,0.023081668214105684,0.022769274681089146
400,0.023019618876605964,0.022811879007691178
401,0.023074234549929913,0.022769189040575708
402,0.023047193105397323,0.022923862348415765
403,0.022962113416535583,0.02291114497180049
404,0.023035053829316327,0.023664044672013176
405,0.023047829400465118,0.02351991919140554
406,0.023049614403387913,0.022779161172265507
407,0.022983940740337046,0.022660640746813735
408,0.023030706125942112,0.02288213972187503
409,0.02302539644600581,0.022949145017478443
410,0.023125083344302876,0.022811176175958733
411,0.022981935924441695,0.022939720746032722
412,0.022985382596675537,0.023229403262509545
413,0.023056320332401663,0.023134065656713266
414,0.02304042336552573,0.0230787075664951
415,0.02300640434282813,0.023469637406088747
416,0.02300577965020824,0.02287226312609291
417,0.023013200443372024,0.02284180873824135
418,0.02305751220493627,0.02267554534074351
419,0.023025446542375667,0.02265371696842686
420,0.023088994731517622,0.022728824274998154
421,0.022936538091862944,0.022705759983965516
422,0.023107832442852947,0.023603631246720325
423,0.02295631184268722,0.022882543773270536
424,0.02306531544709258,0.024345078288732596
425,0.023050445312861916,0.022949052930478046
426,0.023064730391889023,0.02303602640394301
427,0.023026388543520234,0.02321285819715652
428,0.023027591721462213,0.023061856533376456
429,0.02307278954674848,0.02303093352488109
430,0.022960617221135505,0.022709175194565858
431,0.0230901122344829,0.02280060118674385
432,0.022991710046915224,0.02399243466444343
433,0.02307002757900029,0.02274375935485726
434,0.022949039735805265,0.02295811917859217
435,0.02308357881455065,0.023431575915172708
436,0.02293924848995001,0.023532985495704786
437,0.023056235905888556,0.022817631376335353
438,0.02300926375103821,0.022626216024242713
439,0.023056238664866543,0.023211504424603888
440,0.02299458016496268,0.02319827944116745
441,0.02300420719951534,0.024861282236056714
442,0.023026559358205106,0.022646535074760242
443,0.023050073846924504,0.022897189624178287
444,0.023040936127465834,0.02311924828220844
445,0.023081200731118662,0.02328892610820147
446,0.02295082737040296,0.02259123971466719
447,0.023003238705928616,0.023237105786812144
448,0.02301882859170556,0.02383117348355577
449,0.02306611773645063,0.022662947701191753
450,0.022957255925348908,0.022709103780427408
451,0.022994158078553817,0.022939914906575348
452,0.02304487181328636,0.022903871836453888
453,0.022985528093680062,0.023262353021513315
454,0.023009080326647686,0.02380244963858997
455,0.022981943740553373,0.022935451181118848
456,0.023008630051166653,0.02421694831377235
457,0.022999757652928075,0.02430886934469465
458,0.023044152049084218,0.02294089535182164
459,0.02293848094986759,0.02312128333449834
460,0.023056553746703908,0.022683160006117895
461,0.02301737608434223,0.023951768225327946
462,0.02299025589056748,0.022654847420557993
463,0.02305631831639724,0.022806024636070656
464,0.0229270208796723,0.023881061387784196
465,0.023048098860152192,0.022866010624730124
466,0.023135150453711537,0.022805311766342092
467,0.023001473396272062,0.02281931400057972
468,0.022965461510024387,0.023135564831727212
469,0.02300206768281049,0.022866362397101044
470,0.02299727325801917,0.022680524291195735
471,0.023001899397809156,0.023322852057917155
472,0.02299411301996163,0.022682182828953817
473,0.022950793746010147,0.02314400004006881
474,0.022977532490605503,0.023207010685127368
475,0.02305526596506675,0.0227515327361219
476,0.023036111999365637,0.02272155557060063
477,0.023094949155426522,0.02642139666158803
478,0.02307274397671056,0.0229524618827671
479,0.023007286342529416,0.022744940757022283
480,0.023048388555074194,0.0233647810617181
481,0.022965976803881422,0.02277268433609673
482,0.022985358086736987,0.02312863365862439
483,0.02298543910286743,0.022665813285930946
484,0.022952714824020195,0.024596573886385843
485,0.02307943048418688,0.023386668430048833
486,0.022984049928417023,0.023678563854230044
487,0.022981755769730425,0.02273300478283401
488,0.02305410769310215,0.023961412419742173
489,0.02295865622504676,0.023025236822423637
490,0.02307411563321412,0.02276108113441678
491,0.02295140482613342,0.02311780460284701
492,0.023008875798978964,0.022805934657225857
493,0.02313207924294529,0.022925569964741852
494,0.023026669464951795,0.022821779334189954
495,0.022985409782956736,0.02299263708487494
496,0.023008711157377057,0.02278214061504852
497,0.023081158651120894,0.022750411135598066
498,0.02291243546214297,0.022971750714102408
499,0.023055221661359523,0.02328305599450971
500,0.022976345072934428,0.022949303433463717
501,0.02299722606133071,0.0235046292739702
502,0.022978074888108397,0.023097719691382117
503,0.023015107217279795,0.023485824428998586
504,0.023042022486587318,0.022750446049536226
505,0.02293124136780735,0.023173394329969395
506,0.023090848800458974,0.02287084304513711
507,0.02292471358196722,0.02276587484502943
508,0.02307296855349859,0.023466222254293307
509,0.022961375812034335,0.024255842867218422
510,0.02300446908429658,0.02280062232122425
511,0.022996599625924128,0.02314496483439146
512,0.023064795140769603,0.022815100776638775
513,0.022960881139043803,0.02345754387887708
514,0.02303365073565075,0.02296346784867023
515,0.022993680984556057,0.022895953702522058
516,0.023076489239448696,0.022587584531568314
517,0.023045217034687624,0.022997614791603567
518,0.022947687683232444,0.022600758639947108
519,0.023120665286989996,0.02312416113889537
520,0.022918180499276478,0.022707950660478156
521,0.023107723306885344,0.02310883292918047
522,0.02298385502515937,0.022736472335674204
523,0.022988322395667563,0.02326909118517939
524,0.023051135796609876,0.023461625788540188
525,0.022967943451184924,0.022638563207852718
526,0.02303194835466399,0.023189483289831062
527,0.02309356529643829,0.02286721616483572
528,0.022947851182084433,0.022797250132287405
529,0.02310083417756428,0.022856087506922945
530,0.022992247007608557,0.022867771779975746
531,0.023020667827976266,0.0227183765072402
532,0.023028282753134566,0.02267511620170833
533,0.02296207363171567,0.02307720934118026
534,0.023011814647292395,0.022702893453937584
535,0.0229625412256276,0.02360764584682688
536,0.02326850550209018,0.02291904848830476
537,0.022919003431090445,0.022881421259800656
538,0.023021748250753853,0.023129549128868585
539,0.02295907501274233,0.023073454449966186
540,0.023156719256957753,0.022736033220388047
541,0.022972843212951764,0.022964939801426693
542,0.02299751345214131,0.02275969005309651
543,0.022943371374585884,0.023053119608863377
544,0.02303982935964966,0.02295102147589825
545,0.022980136968802918,0.024126156550062484
546,0.023123427831696616,0.023517100487401285
547,0.02290664528378194,0.023321051885621606
548,0.02308550193834362,0.023939770667710074
549,0.023038682067762318,0.022853301158843778
550,0.022941398199835268,0.022633785640654738
551,0.023111332264497315,0.023112106378812815
552,0.02305667649740152,0.022746091552707938
553,0.022963622047437085,0.023202582429315315
554,0.022940492388501252,0.022902002903590922
555,0.022997028529376008,0.02327368889612623
556,0.023062697480723773,0.022913950438822172
557,0.023019235982424873,0.023004642647309573
558,0.022981035761344585,0.022750996779459333
559,0.02298530217164831,0.023028261425898314
560,0.023010487380109246,0.023278454570033556
561,0.022971389163806616,0.022730695767344315
562,0.023100766214094667,0.022738094333538694
563,0.02300248664917706,0.022782447467827854
564,0.023074031046641578,0.02273685215357118
565,0.022955307466752953,0.022734469359986124
566,0.02303731310025727,0.02281360199120728
567,0.022948705093960443,0.02285977891530921
568,0.023057708091628874,0.02318510915363691
569,0.022975184222151765,0.0236064483938649
570,0.023006757506155235,0.023015348531817394
571,0.022973631405912572,0.022818380922678898
572,0.022975081219810616,0.022728024716558846
573,0.02301397838582881,0.022792056602761797
574,0.02312275889045972,0.02262739085349024
575,0.022991695945306742,0.023624434542343104
576,0.023032162503765927,0.022799215559577885
577,0.022951602474224272,0.02394902324355439
578,0.023035363281528345,0.023085308369269687
579,0.0229583640860544,0.022802138864264868
580,0.02302371147427437,0.0233663368805502
581,0.02293820440066423,0.02333692393332555
582,0.02305866731814653,0.023431916213237872
583,0.022956529211589426,0.022773465760575567
584,0.023043446111039433,0.024393463549928204
585,0.022988541154481238,0.022993393748081285
586,0.022969335450126017,0.02274134076820082
587,0.02303415597851971,0.02293043899119794
588,0.022917945692829376,0.02321188399258004
589,0.023004380786578526,0.023068690601950947
590,0.02305780017493869,0.02289799348860626
591,0.02298879716396451,0.02692886784631574
592,0.023003276050400485,0.022847976831053315
593,0.023029100694071998,0.02263686403885025
594,0.022984139891497665,0.02470391211500531
595,0.022969691920355497,0.023216207547741043
596,0.023062432809419435,0.023960517275411028
597,0.022921905530501992,0.022643798203652265
598,0.023030588711551624,0.022598814624990173
599,0.023142604743220586,0.023034550717075507
600,0.02291248828622339,0.02280135330580169
601,0.02294348822020703,0.022629994450647152
602,0.022963127891847984,0.022931187770137564
603,0.02303536582163436,0.023829605215726732
604,0.02294326668157042,0.02318446840076533
605,0.023200581292454288,0.022632266374947335
606,0.02287757230385078,0.02278766007660267
607,0.023034810121331236,0.02319708041664457
608,0.023028413264109173,0.022833567368485557
609,0.022940801785623046,0.02288575681851149
610,0.02303557810585776,0.023016275551343585
611,0.0229388723599551,0.022832477312379213
612,0.02305174675761915,0.02291385225669408
613,0.02308998858819691,0.02288612220715658
614,0.022942900184175666,0.022865010581281396
615,0.022985048129034936,0.023047784008173935
616,0.023077145789851913,0.023509775714003485
