epoch,loss,val_loss
0,0.4540446345197498,0.4456047643072476
1,0.435630495476136,0.33482252448508526
2,0.3346825144765499,0.334827075087212
3,0.33450055939239187,0.3347120699176187
4,0.3346010257046654,0.3341520395883023
5,0.33474237526862516,0.360983278371047
6,0.3354447318987195,0.33481534164974536
7,0.3346399719142511,0.334042393784495
8,0.3342101563987438,0.3342387746662796
9,0.33449969792923395,0.3501596206807136
10,0.4493924082753263,0.4450600252599021
11,0.44516232615250734,0.4456733345408013
12,0.44515652577678916,0.44504662831614883
13,0.4451435565833321,0.44530435716971456
14,0.44556546758395227,0.44516207354445864
15,0.44587256248315627,0.44505332634432726
16,0.4451673960746389,0.44501981341509433
17,0.4451003335299722,0.4449774472959007
18,0.44522334541340974,0.4449921701330031
19,0.4450914753890827,0.4450198292509798
20,0.4500629630816129,0.4451006701115826
21,0.4469565734684018,0.44513333869847455
22,0.44507870575485714,0.4450469949481335
23,0.44518243843514904,0.4452349195901375
24,0.44619679009003255,0.44499491560273613
25,0.44501036955161194,0.4450736582487448
26,0.4450589927634259,0.4457078868786797
27,0.44506578187650114,0.4450903034421287
