epoch,loss,val_loss
0,0.0637507429294369,0.038353000273988684
1,0.0380926412132718,0.03973816781398989
2,0.034671948494360776,0.033957980741930564
3,0.03332584045179437,0.03341984408316734
4,0.032327983489169695,0.031444851140455726
5,0.032288419574492626,0.03217461662923384
6,0.03150303081860253,0.03080646512559317
7,0.03140883098029387,0.03044140840631658
8,0.03078309156437068,0.03013642278539982
9,0.030484371489332685,0.030818922474905815
10,0.030319134711109887,0.030177479131096682
11,0.02987362851597668,0.030630329648813397
12,0.029919503232583144,0.030195439897261103
13,0.02971006405131242,0.029825018847511178
14,0.029612033881619603,0.030581625566692253
15,0.029810675474460768,0.02956317388463682
16,0.029505345958621823,0.029212957940852526
17,0.02922850679673124,0.029342690664060308
18,0.02913831043268561,0.028370741167757528
19,0.029002266005186912,0.029120445231202625
20,0.0288864682601724,0.029596458222023104
21,0.028922113329520688,0.029407603403073284
22,0.028944026189385876,0.02907054678504266
23,0.02868634695823491,0.028536366501121138
24,0.0287247578060972,0.02809197491525004
25,0.02860799078996794,0.028859531798257853
26,0.028675490950964253,0.02838669007616548
27,0.02846946393268759,0.028624325118957766
28,0.028477195081144487,0.028966162413801202
29,0.02847133204032809,0.029438064300229015
30,0.02849377632450028,0.0281331300598223
31,0.02834995352984247,0.028449391513294987
32,0.028307443855869283,0.02837253731659325
33,0.028286862970854823,0.0280058807529993
34,0.028304454056632355,0.028616424401334935
35,0.02813960243447192,0.02839688022575275
36,0.028158404290190706,0.02760796909978797
37,0.02813302770012369,0.028099754550881012
38,0.02804034240909403,0.029434590312766615
39,0.028155187244991765,0.028234149970064536
40,0.027999435718228407,0.02784585019262093
41,0.02803473883750649,0.02831514384340195
42,0.028026072926336628,0.027817621852416347
43,0.027895365382018485,0.02809376383816437
44,0.02785868222300004,0.028169077866776835
45,0.027944798130372372,0.02784813326343182
46,0.027846786531298653,0.028973601194983326
47,0.02786798080127114,0.028570735237857112
48,0.027934471880497403,0.02754709986685566
49,0.027779287454104053,0.028117597203542594
50,0.02774227930649062,0.028004156958033155
51,0.02780556504224866,0.02818782384391553
52,0.027703803655987475,0.02832390127396804
53,0.027685233614996908,0.02826744982150716
54,0.027646424089525865,0.02768747608609378
55,0.027682553657198454,0.027459790448147767
56,0.02771804541374505,0.028687325437867218
57,0.027658325904549776,0.028926891849191536
58,0.027641627121108202,0.027849030023837384
59,0.027622733955757723,0.02771091759849706
60,0.027570402249336445,0.02776116197752786
61,0.027593726176557462,0.027400955024497915
62,0.027576533813054596,0.027326790905207496
63,0.027557569866017567,0.027672705551432215
64,0.02749919056536152,0.027487643257112414
65,0.027477684744160458,0.028027915375090383
66,0.027500460814207577,0.02871547231773985
67,0.027571754427293767,0.027479012198160523
68,0.027474697342906456,0.027490937775298208
69,0.027502999526458537,0.028078397587758125
70,0.02749378702822167,0.02723253385070815
71,0.027423716073778196,0.027422175638120914
72,0.02739807116915177,0.02841377230140734
73,0.027484736765468944,0.02771545540111319
74,0.027426774519069386,0.027394926171629735
75,0.02733940825531748,0.02788060833370925
76,0.027332222133911278,0.02758619045563325
77,0.027348670457796515,0.027424538648118335
78,0.027341796839789257,0.027335047789452824
79,0.02732469946550716,0.02757433366577091
80,0.027309810026787062,0.02706008155489888
81,0.027301271610545255,0.027360685062765535
82,0.027264504165573574,0.02769470675787046
83,0.027276309635820367,0.02850657065169895
84,0.027300765174957674,0.027357745895093304
85,0.027251551633982563,0.02777580019975179
86,0.027258852079602484,0.027520541051408307
87,0.027276062950583307,0.027114050830963615
88,0.027242537672147335,0.027346937374529978
89,0.027221306747196153,0.027081948304358068
90,0.027224473608684525,0.028032290437184092
91,0.02727947858227282,0.02732391513121498
92,0.027236663457912723,0.02794372307203801
93,0.027184932190284894,0.027612330525999925
94,0.027227578095698972,0.028276416369561064
95,0.027159402389652323,0.02743286165582276
96,0.027154965114643142,0.027850057105806653
97,0.027155160787791885,0.027752437457242325
98,0.027136254495345354,0.02705295010706049
99,0.027172471008281764,0.026981321855348947
100,0.027116710471195335,0.027237340205520443
101,0.027119158812106983,0.027176364526721727
102,0.027100165228359025,0.027055849013851573
103,0.027088864700460534,0.0271392024737588
104,0.02707858197880337,0.027445345866182257
105,0.02707668955741152,0.027261628893129934
106,0.027074768346556106,0.027882475015772835
107,0.027114035185064785,0.027110344792287445
108,0.027062237131020534,0.02792991403897324
109,0.02704774090416411,0.02746863921384561
110,0.026990334993340463,0.026876372944966507
111,0.027008567978038134,0.027805928271473854
112,0.026997898225570277,0.0287313546033803
113,0.027013662712875305,0.026845922288070014
114,0.026981250445355317,0.02728828719281854
115,0.026981803061569273,0.02690566136261097
116,0.026958966927042752,0.027540920873607256
117,0.026963503467886344,0.027624053143441667
118,0.026963315632484438,0.02739898895506719
119,0.026987921818075262,0.027299863391472876
120,0.02693051666644895,0.026899099250439283
121,0.026975318312959396,0.027190611851400887
122,0.026949686279179274,0.027302318760953348
123,0.026974317658158997,0.027787366283417686
124,0.026920236112999135,0.02702046728152968
125,0.02697720727647717,0.026877067564299358
126,0.026943554898759,0.02702204417452105
127,0.026934107606710365,0.027167874274809996
128,0.026886202016953572,0.026906429636884496
129,0.026885420299022147,0.026987884266277438
130,0.026915445744845768,0.027475736692739477
131,0.026906269049397892,0.02769960760960806
132,0.02693333304818065,0.02682465881171947
133,0.026863911187049797,0.027326977385211858
134,0.02689408222596511,0.02675750611309416
135,0.02681898767258012,0.027129980885302885
136,0.0269171899839278,0.02794415340207935
137,0.026905657223168206,0.027720114026601416
138,0.026865698673548426,0.02714944802661235
139,0.026829310998563036,0.02757934184648228
140,0.0268938325109763,0.02703825418898155
141,0.02684166945016519,0.027514148580893336
142,0.026826120994213703,0.027013957734138828
143,0.02686971304439711,0.027715638379007458
144,0.026853013724915234,0.027504170586943523
145,0.026875352509954226,0.027020539983110766
146,0.026806520477637454,0.027429983492071607
147,0.026870065648373093,0.027250135364920512
148,0.026834209171407112,0.02741403939438771
149,0.02679486374931857,0.02709001214999977
150,0.026829654775560444,0.02687630137052681
151,0.026819837717754196,0.027099625049231402
152,0.026789659331591355,0.02758290250876607
153,0.02680203736704118,0.02673780470666468
154,0.026777667255598797,0.02689428105834994
155,0.026806764575702344,0.026996848080706574
156,0.026752505518378062,0.02711773406473421
157,0.026800990766751374,0.027223214464212137
158,0.026782165746122143,0.026921911100634074
159,0.026775700548920454,0.02707201545551947
160,0.026778401330230645,0.02703013306456117
161,0.026806391535122032,0.027180300250664834
162,0.026748969537777216,0.02708110697531967
163,0.026786723060326922,0.027236808234124985
164,0.026747865444071362,0.02682138556694088
165,0.026754896955490878,0.027082354294889567
166,0.026733775044057242,0.026885780441351866
167,0.026767490230312323,0.026894174656557558
168,0.026762115829178965,0.027060866306645493
169,0.0267088397232006,0.02692302311886719
170,0.026746069247262916,0.026956463316939114
171,0.026762403438970763,0.026930486831748382
172,0.026736311571720885,0.027009678522545807
173,0.026733903186320643,0.02708984798698084
