epoch,loss,val_loss
0,0.5406673223591499,0.3701187734766308
1,0.3207197262524509,0.29216045030035437
2,0.2885168729196366,0.28938204679707635
3,0.2735074913327555,0.2579477214030106
4,0.2753353476751032,0.29993405420898134
5,0.2735061113289397,0.2559483692303771
6,0.27325072178872134,0.2627787842246834
7,0.270370045621649,0.2523195299184719
8,0.2692612369266675,0.25027204204021386
9,0.270807710991467,0.2736941054282107
10,0.2718373547383458,0.24945663836605647
11,0.2730373943372189,0.28666965004784833
12,0.2715947667212845,0.2702353425801332
13,0.27409820753732045,0.24632508655147445
14,0.27449892035382,0.2659327539480129
15,0.2745103698023994,0.26570838874708996
16,0.2737261981511708,0.25712980688923465
17,0.272787029089166,0.25976478474611975
18,0.27565934232848466,0.27302548114062325
19,0.2720363923580385,0.262165582588506
20,0.27126695414344437,0.2521718554470661
21,0.2735929312266475,0.25384931475383327
22,0.2725603894126997,0.24852928393561957
23,0.27352980346537475,0.24801226436415053
24,0.276813906100724,0.2757933613665203
25,0.27442754940498915,0.2753881565434896
26,0.27302376996335076,0.2441878835311868
27,0.26899233060755473,0.27704315370935206
28,0.26760921867682136,0.26804000122317045
29,0.2681418377533257,0.26162260437243756
30,0.26521247062829134,0.24563548811209077
31,0.2684556472363522,0.23703515279467088
32,0.265789127891497,0.24617774654043853
33,0.2636533515502492,0.27903439270125496
34,0.26649872041206724,0.23954886769677988
35,0.26602912534943957,0.26500582326406014
36,0.2631244242632742,0.25513246816198515
37,0.26233165658670393,0.24647928182177686
38,0.26260633298380076,0.25060151419500365
39,0.2632779706839183,0.2618056783710953
40,0.26480336635827634,0.24413517704845344
41,0.26607325216166205,0.26643585194346386
42,0.2596784649406365,0.24453356463253642
43,0.2642051434283069,0.2473204941016721
44,0.2607701398891578,0.24432845423353075
45,0.26223534053330233,0.26784970435492894
46,0.2592822675517886,0.25518733351238354
47,0.26133485191506894,0.23128730308835524
48,0.258716077757798,0.2245067234747021
49,0.25978768366971333,0.27245303815637095
50,0.25606318942015416,0.27138085850640614
51,0.26031505366603885,0.23895959072691197
52,0.25972602497323977,0.2427654809832863
53,0.2593996753040746,0.2589137985130103
54,0.2599460410835554,0.24037893037919775
55,0.2576143759503376,0.2592926888521957
56,0.2605172860994637,0.237804174181512
57,0.25861356876271546,0.2596968162475518
58,0.26031566145207236,0.24179317779832996
59,0.25827325955092956,0.24668112264255732
60,0.2609814105568837,0.24339696557079016
61,0.2591976826433376,0.2588864433891098
62,0.26081414054259,0.23547455869065198
63,0.2590319881434914,0.2531896810752052
64,0.2593538699816283,0.2371336417839185
65,0.25899025610535503,0.252953146483873
66,0.26290619053584846,0.2438567249589303
67,0.2607601024180627,0.2376279528679542
68,0.2588164053851361,0.2467492704263859
69,0.26121281571775745,0.2511469438273251
70,0.2584200217615995,0.23284652620094728
71,0.26077369300483033,0.2553442515257598
72,0.2595323658972573,0.2471280618595671
73,0.2602891530498588,0.2355991520247417
74,0.26263863793771874,0.26240925181472774
75,0.26371943204998494,0.24491539644643917
76,0.26273257095661995,0.23642192903032944
77,0.2619030178547669,0.2317985514388854
78,0.26104792527812687,0.25558000236193723
79,0.25930691057080935,0.24936042463789118
80,0.26108369565873835,0.25921515466619677
81,0.2599431904639789,0.2360900700188998
82,0.2613627139845784,0.23872498947966903
83,0.25699878599736287,0.26727373583811814
84,0.2587657606630348,0.24440212564698488
85,0.26316047056590774,0.23230078427267578
86,0.26104303089092024,0.23656232607915745
87,0.2600677483756128,0.22975494496868765
88,0.25985342932281924,0.25157862647896556
89,0.2588823012727275,0.22955157004133628
90,0.26172583317570536,0.2777021455624581
91,0.259436110116607,0.23982628990215493
92,0.2614341998596588,0.24424479292692058
93,0.25873351511690884,0.23427282100949748
94,0.2591726455011303,0.23061149564344324
95,0.26020883013597956,0.2424364260005835
96,0.25747709659288365,0.24269294567158428
97,0.25745422948447105,0.23135872781034997
98,0.262458109129086,0.230347410617857
99,0.25999982584062054,0.23913191367674919
100,0.2572796505579861,0.23980447003392794
101,0.2577038932863095,0.23651258815427378
102,0.2568684864499933,0.2621205099597755
103,0.2587796312222202,0.2429851601013592
104,0.2577487512337293,0.2405606541852108
105,0.25777505450338434,0.23055476172610403
106,0.25893230576387305,0.2556533998864894
107,0.2582494263485778,0.2532087895001035
108,0.2563298225784607,0.25251643903499105
109,0.25817027819261634,0.23724039031883032
110,0.2549569657246908,0.2497530717097543
111,0.2561677804856514,0.26112016196765264
112,0.2593938624374479,0.24189411975074762
113,0.26091945222657237,0.2278597082003093
114,0.25850683215072007,0.2358987857704712
115,0.25827356568091003,0.2486925012366325
116,0.25794541930632175,0.2475340842040496
117,0.25811095421222613,0.25922033223357516
118,0.25790103624542776,0.24761324515452932
119,0.2580580176581279,0.2469721718450339
120,0.2585822399839866,0.23827678999664914
121,0.25705912963355226,0.2709876454200381
122,0.25878872031016387,0.2350961899162789
123,0.2591892938264567,0.24985187190727595
124,0.2578173140116078,0.23729855959384497
125,0.25955663761012165,0.24229183538068336
126,0.25852948392601943,0.23989509449726376
127,0.26021602110351155,0.23704615538669424
128,0.2598376788729854,0.244215324279359
129,0.2626474541757372,0.2514336052360519
130,0.2585808194165615,0.26678483199029074
131,0.2596431778336736,0.24039420206326348
132,0.2584126545332545,0.23338700091316752
133,0.2596368336314865,0.24234381757996862
134,0.2581935184206172,0.23374581229416028
135,0.26006860656438585,0.24921828812926355
136,0.25751220859032425,0.2471169371940407
137,0.25858860603087036,0.2414611664880898
138,0.2577984514918396,0.2573149820966442
139,0.2596622106669138,0.2251397748957392
140,0.2596307721278303,0.234176285147957
141,0.25785579599792047,0.25936541919628975
142,0.25855646958892303,0.24862000069430662
143,0.2615961868694728,0.24116408041793935
144,0.2594069998809774,0.24299911019865905
145,0.2599054862132924,0.23108994601851832
146,0.2571104836222933,0.24385586393043845
147,0.2562728639635398,0.23021697442123587
148,0.2574768207424445,0.250866927635544
149,0.25659045223907245,0.25177109763570077
150,0.2605588707723934,0.23429568145735324
151,0.25883490479498317,0.23423264845782726
152,0.25828211687153296,0.2331744224582372
153,0.259616850506219,0.25505735479228786
154,0.26016036920947394,0.25406231465904283
155,0.2589289126418131,0.2336293820530442
156,0.2572136961156316,0.23777450975227046
157,0.2587694628678674,0.27629876058225405
158,0.25930831463242454,0.2369658837981661
159,0.257959319351672,0.25144515517080884
160,0.2579933997926662,0.24789635584495556
161,0.2603720167190958,0.2517269553566791
162,0.2603360998501675,0.23132870539068112
163,0.2591654305354512,0.24079048139287124
164,0.25907759208551306,0.23451458682689064
165,0.25811156893582987,0.24858063779656517
166,0.2582872455970968,0.23059538220692144
167,0.2597970551877522,0.23837945678566688
168,0.26040902730223653,0.23362547245000498
169,0.26199686480126827,0.24028955545013547
170,0.2578744758561767,0.2536916042355532
171,0.25605484079703794,0.2304648754805544
172,0.25616235295541767,0.2349708826195778
173,0.259389617026234,0.23477416100631568
174,0.2599483256558593,0.23282848211535573
175,0.2612279469819905,0.23482330972502508
176,0.2611884581054851,0.23637765874392794
177,0.258907804592215,0.2309179717413507
178,0.25687400397178745,0.23114968413322415
179,0.26106655712815835,0.2363949773858837
180,0.2610783559845103,0.2372619636471641
181,0.25716573980042606,0.24359260064406987
182,0.2578613308189009,0.23855918027091974
183,0.2576249655637386,0.25571821371375886
184,0.26005619083097975,0.24054293235384733
185,0.259365404983632,0.24766170228049703
186,0.25989056233051205,0.2313673461199
187,0.2606466309524613,0.23530779619431555
188,0.2597018326338145,0.23083628867567793
189,0.2608996828536304,0.2591766386329886
190,0.2574322968005561,0.245969956820802
191,0.2600378900814095,0.23919715498485705
192,0.25910828297165894,0.24285770092229
193,0.261624565665678,0.25228744385112906
194,0.25919369994114644,0.23180247072224103
195,0.2606519099005801,0.24091279727844137
196,0.2608471256826189,0.2350660832017201
197,0.26219798972885355,0.23869450045908164
198,0.25972634201363815,0.23166733230890924
199,0.26196692707397345,0.2440548495775495
200,0.25793693659065053,0.23126373728261376
201,0.25846756161977236,0.23644040620433346
202,0.26093161731862946,0.26156365164440043
203,0.25868249438207946,0.245768925931912
204,0.2607111432690254,0.2345616744962632
205,0.26120521835654714,0.24118291808402548
206,0.25762651378722834,0.23284662018823896
207,0.26006798729527175,0.24332538563743028
208,0.2567714197133139,0.22842455589471555
209,0.2592382199161524,0.2512047478849097
210,0.260627615054528,0.25403151375340527
211,0.2596471930464045,0.25104278698261445
212,0.2594870867862331,0.23564776106279067
213,0.2622249597986285,0.23551209824460362
214,0.2588603690362053,0.24737052324576195
215,0.26014216650453353,0.2439997495066704
216,0.26141804746024794,0.24830390082706982
217,0.26089329279666906,0.24619914245673147
218,0.2590021584525979,0.26277599200328383
219,0.2608589539893443,0.24599537728331675
220,0.2607009069646617,0.2366794988525078
221,0.25973392905498904,0.2452355951602538
222,0.26037836362950034,0.25785884476249427
223,0.2575621000044436,0.23291838252486394
224,0.26063775040322634,0.2523137277229376
225,0.2584758708544308,0.2383943155637526
226,0.25733712419354504,0.242431930454398
227,0.2584441287325228,0.2359078412774319
228,0.25795567688868465,0.24081227796066126
229,0.26019556375385955,0.26597210389032466
230,0.25989632041837046,0.23027582252692713
231,0.2587020304426849,0.2540112078697432
232,0.25902538662485547,0.24529031241752225
233,0.2601506926590581,0.23571086314182793
234,0.26092304604901995,0.2482327949995929
235,0.25799655910130975,0.2560899578645185
236,0.2587324162069753,0.25598418570009557
237,0.25730377664749293,0.24078462593746883
238,0.25888373474295945,0.2397433774121293
239,0.2578777363829559,0.2470775143411811
240,0.25999648103697764,0.24101645205191066
241,0.26035159801224694,0.23523390416391285
242,0.25713704820510574,0.232649127364352
243,0.25791788851026537,0.23108211674539422
244,0.25786233864563574,0.2609425498548795
245,0.2565138210908616,0.22828664534573428
246,0.25811414023319945,0.24191461149406743
247,0.25920624114734064,0.23455802444897333
248,0.25606200051866024,0.23524312784975365
249,0.259402818983798,0.24090702269779216
250,0.25889335374077194,0.2613443614550944
251,0.25945079229992807,0.24617598616100383
252,0.25996700670716283,0.2469987851134762
253,0.25786603695516874,0.238368715429248
254,0.2584356433444256,0.23285016289399293
255,0.25893998736019036,0.2697544584333268
256,0.2577297483996642,0.2391248550824972
257,0.25639330242589725,0.24796159291112704
258,0.258667782068348,0.2520011627181023
259,0.2594871059823647,0.2576770832624652
260,0.26006224860636307,0.23209544202948815
261,0.25776477906706813,0.2465271078177032
262,0.25824882177780684,0.24128283186840604
263,0.2573650060199183,0.25088489187363194
264,0.25832571811061367,0.2564825342736975
265,0.2593369172622052,0.26119832909648627
266,0.25910862515552985,0.2426103125209259
267,0.2586508551306778,0.25352152439992987
268,0.2587442714348137,0.2508696868157638
269,0.25687237931572027,0.24485837346107517
270,0.2593963480680537,0.23364684411112313
271,0.257146664625936,0.2251039341225048
272,0.25796313808740284,0.24473133339982447
273,0.25737056971860944,0.2517589559810295
274,0.2572810652914097,0.246177646534673
275,0.2589859365283536,0.24515571478461215
276,0.25779305641249334,0.23607674318411828
277,0.2563275023996591,0.2490920992711648
278,0.257597391030567,0.23811022411587754
279,0.2568661907465578,0.24512263796528663
280,0.25756508658369415,0.24552644514882846
281,0.25930760438748607,0.24495324081554706
282,0.25717404896946694,0.24908280149041784
283,0.25897532201008955,0.2366959546652637
284,0.2576033108002,0.23941428160532063
285,0.2574097044449792,0.23458434814180867
286,0.25623511796216186,0.23188721622428754
287,0.25903452623835366,0.24442593735209928
288,0.2583911973860762,0.24922643188577498
289,0.2595391749524421,0.2467555085624608
290,0.2576583279572648,0.2654424959314807
291,0.2578410359921219,0.23381221033360836
292,0.25729588382214524,0.24548736404376792
293,0.2576811722784733,0.2491450467345585
294,0.2586685509933196,0.24092344643619132
295,0.2566273958862925,0.24832019184482648
296,0.2574024078450363,0.23959733629168675
297,0.259786015682167,0.2502575866207299
298,0.25847856709368233,0.2391434140376511
299,0.25899954092464417,0.2584915595598948
300,0.2591517806542311,0.2739517512910267
301,0.25722928354747776,0.2433036466560418
302,0.2585119387870125,0.25004154552508445
303,0.2577663699718262,0.2345964207894804
304,0.2581122231015785,0.25749350611697536
305,0.2585250222332197,0.24670494574409912
306,0.255342598637645,0.24145066626944003
307,0.25821064454947024,0.2500643917485552
308,0.2574467176647545,0.24010234690495652
309,0.25787326111924275,0.26451302800155324
310,0.2578457373860266,0.2343926523288671
311,0.25680760531018887,0.24987800605444047
312,0.2577354857404295,0.2302783247134788
313,0.2616989537894583,0.23650559531607865
314,0.26033687373225073,0.23561369631944007
315,0.26015362936296493,0.22848120861099874
316,0.25912512237544627,0.23924691796254455
317,0.2579582715817124,0.23327011792087401
318,0.2595708690482297,0.2445657908650597
319,0.2569843752740668,0.27087222788987464
320,0.257534870053168,0.24445257008994195
321,0.25766515185395844,0.2649040342054034
322,0.2575203009766994,0.24271165166844805
323,0.2583478699215323,0.2506695862161562
324,0.25905892340611036,0.2493091897203588
325,0.26104517993901233,0.24781312760258725
326,0.2600819533936876,0.22526949010819608
327,0.2614347994673529,0.22985024543574256
328,0.25910894097901993,0.23469645111230167
329,0.2602942153107557,0.24969936959258154
330,0.26098053821260403,0.25951395685945405
331,0.2578375537553914,0.2755891064488588
332,0.25841937881646104,0.2565833324595186
333,0.2579141714340978,0.22557309590165245
334,0.25938306668932865,0.24783936180385843
335,0.25848302848822025,0.24101182800284848
336,0.2577487730068431,0.23595162988047433
337,0.2575787165111976,0.23422695797870338
338,0.2605881763039063,0.22596223310349148
339,0.2558154176959426,0.2463344371570191
340,0.2591855389008625,0.24775376731026783
341,0.25910190046072196,0.2516477911552567
342,0.25648513086754576,0.2310808780032836
343,0.2582788749861183,0.2388655685329476
344,0.25852380443015416,0.24357548701695475
345,0.257706292355366,0.22779268206422734
346,0.2578035674696927,0.24363690314985154
347,0.256288270648715,0.2457068129008317
348,0.2577480409887908,0.23953382808651658
349,0.25803968618162354,0.2427616134491377
350,0.2601184490277731,0.25883524942862146
351,0.25684480923858044,0.23494151154863863
352,0.25535773831286174,0.24097854413835382
353,0.25767775611866944,0.2633816139033821
354,0.2580782706924588,0.23982673609102054
355,0.2607654630004453,0.23575865490013084
356,0.25582463365850494,0.25076873030057306
357,0.25903815946715464,0.24031350597896328
358,0.2564821596547448,0.2641763549361496
359,0.25775313452542353,0.26605199096121634
360,0.2577214237925909,0.229228859436483
361,0.2578658216936384,0.2514107349024299
362,0.2574243655531191,0.23379206275514539
363,0.25733496334024963,0.23547783220868138
364,0.2568818835960664,0.2571237154927374
365,0.25520208083671797,0.24534460539655384
366,0.2555345254864475,0.22612214477586243
367,0.2581112346797585,0.24164713923996867
368,0.2570331944488257,0.24852799444738097
369,0.259237007887436,0.23720250069031557
370,0.25854953507288064,0.24566416006115327
371,0.25609757243584785,0.2570265773729106
372,0.25722844402393025,0.22766278481106397
373,0.2579236115284974,0.24897534787558195
374,0.255679610809438,0.2302848706739469
375,0.2596927859825645,0.24834641155583628
376,0.25761701121293995,0.23537051068605297
377,0.2571832031023512,0.2415557075639324
378,0.2566515326118164,0.24801803716826226
379,0.2600075830164864,0.24394069392073958
380,0.258407466733952,0.24990606963006057
381,0.2577541182764632,0.23458050460904378
382,0.258752542277209,0.24029997908430958
383,0.2562492613712724,0.2355178125196613
384,0.25936899165376076,0.2456433736664052
385,0.2587594595656479,0.23861992626246262
386,0.2568727547438551,0.2575714953624419
387,0.25923421731989704,0.23776255916601646
388,0.2563486136824155,0.24964461545101144
389,0.2562058420182229,0.2478113241390977
390,0.2581528581505875,0.2328908995265218
391,0.2566328825618478,0.22968060197573026
392,0.2576450618793718,0.27279691968569403
393,0.2584226092008995,0.2283042557990754
394,0.25629320866566263,0.24064050122962574
395,0.25888713025707927,0.2426075328198856
396,0.2559580786870994,0.22968095509578615
397,0.2587182617263855,0.23205294496918344
398,0.25867093320461726,0.23249410270484405
399,0.2586422311880285,0.22727077372752838
400,0.25732755601358376,0.2353145069014417
401,0.25984634771000586,0.24210208210873585
402,0.2589964414413592,0.22909124118229865
403,0.2573888772566191,0.25185450733868164
404,0.25427110241450146,0.23289246538114663
405,0.257637823655235,0.2415771461412951
406,0.2572154536771717,0.22764632571110954
407,0.25707723206286437,0.23770067876466192
408,0.2577042100344113,0.23951204347107727
409,0.2587751589649863,0.23548656518345235
410,0.2581736325704641,0.2563526673787798
411,0.2590077630549168,0.23580888740337677
412,0.25868227109134057,0.2466089292478484
413,0.2566881361510679,0.2498366628733478
414,0.25844321908761825,0.22819729910714784
415,0.2586130598803059,0.25566570668663324
416,0.25731106516454005,0.2411092784790517
417,0.25910309415230093,0.24718406698564543
418,0.25947739993385355,0.23936292631831096
419,0.2580021487547456,0.2513982209725198
420,0.25579443545318586,0.2418809144577164
421,0.25916244387268733,0.23253028418654267
422,0.25633613041656506,0.23491072810624347
423,0.2572383369752366,0.23428290474492172
424,0.2577542710819657,0.2661089214216087
425,0.2555863420971877,0.24798166059374518
426,0.2578406004463319,0.2536470847988361
427,0.2573527432351803,0.26385708837275185
428,0.25844577032389693,0.25480175959754553
429,0.25719009215135974,0.2291452604416223
430,0.25714832478709176,0.23129816405287817
431,0.257185163786165,0.23990153611334764
432,0.2592526291541045,0.22737572357263974
433,0.2554345002846779,0.2391823794139853
434,0.2568021846519078,0.2320454536249071
435,0.2582807505937268,0.23983384222879897
436,0.2577637323469902,0.2556410233421434
437,0.2585907333833967,0.2432929770862389
438,0.2541072339153557,0.2324924796868028
439,0.2545515068227334,0.23243886061973526
440,0.2561160787892303,0.24031941412622523
441,0.2560273317442692,0.22808683038192945
442,0.25679594794925065,0.23893792678308215
443,0.2567731519762853,0.2527800745845131
444,0.25729476063369844,0.24048729621580917
445,0.2575496590142254,0.23493016900952424
446,0.25638920973667245,0.23828140471586828
447,0.2572659321183009,0.2369107815640203
448,0.25646481434520096,0.2631913592007135
449,0.25765889713032136,0.23481383798862993
450,0.2549074920262691,0.2327578039741671
451,0.25814759173543095,0.22743852791850006
452,0.2579206389496573,0.23407824996130697
453,0.25776785418832654,0.2449055369535502
454,0.25651739766781,0.24077828865368386
455,0.2583416025575587,0.24537114790562972
456,0.2574418411971188,0.24217624255340464
457,0.257262472000668,0.22537467097568975
458,0.25675222282413485,0.24124891967765702
459,0.2576600328278694,0.22823498808361126
460,0.2558736762492727,0.23865983309488614
461,0.2550495022160707,0.2453152059251858
462,0.2551118358015251,0.24125312727974957
463,0.25743079601262836,0.2358233420735728
464,0.2567065160473983,0.23833905365877003
465,0.257849719390285,0.23093634284277417
466,0.257086164450006,0.2341242280682218
467,0.2576906766304023,0.22983068017483918
468,0.25751318207519164,0.2373744216834445
469,0.2557361884545192,0.24079087537328886
470,0.2568721302611242,0.2759571726353112
471,0.25537037403226565,0.24942397141930348
472,0.25676677257323666,0.2410360934622193
473,0.2586773795614823,0.23685507453367755
474,0.25576055404231296,0.2592069855305787
475,0.25536402045272655,0.24724750112008004
476,0.25741943425302793,0.2577397278891476
477,0.25504896769507396,0.24442747979751953
478,0.25735640407706184,0.23265861127063306
479,0.2557555949979061,0.22680843680106036
480,0.25500774155076356,0.24046006297204714
481,0.2578028734621284,0.23379738086234816
482,0.25717946251718593,0.2296998616601042
483,0.2571935822144807,0.26127186160162996
484,0.2574843685444686,0.24286996999216195
485,0.25789486264900935,0.23506962736979406
486,0.2561279433705599,0.2418894293292789
487,0.25849299326694136,0.22405573577051324
488,0.25593319947453286,0.23949629581999413
489,0.25816114503350424,0.23848043419632212
490,0.2559098109984703,0.22947960175930343
491,0.2581091588788075,0.23485305133092144
492,0.25548471265835604,0.2344894837119767
493,0.2586265273624845,0.23860756611785364
494,0.2550195490209172,0.24254712623159574
495,0.2602309034324532,0.25588749613785106
496,0.2592520079820799,0.2628107385744627
497,0.25530774836496317,0.22696994994340247
498,0.25801054951999547,0.2325543521964637
499,0.25599530533707743,0.24497728931981186
500,0.2565806617407058,0.23470931162412634
501,0.2571236434891474,0.24918085157822906
502,0.25850556868973307,0.2475378154161396
503,0.25712907813590846,0.24111757169433076
504,0.2567036330127258,0.25858920709881855
505,0.25627823064835953,0.24147418190914735
506,0.25757187751052474,0.2406955354840216
507,0.2576787421305338,0.24205116638785346
508,0.25900273799323575,0.2367133055386849
509,0.25714478188390444,0.2331872808551363
510,0.25675385198992096,0.24058789374957892
511,0.25670351305778166,0.2387115723073531
512,0.256084025448995,0.246642936719015
513,0.2577094928778296,0.24880813655578693
514,0.25856059922085844,0.2429517970298812
515,0.2575212668320291,0.23944763532278504
516,0.2554483545766629,0.24012154930506116
517,0.2582986651538753,0.24826832914487773
518,0.2573521916834329,0.2539518228267521
519,0.2611032051501797,0.2435662606602651
520,0.25730726756364275,0.23739851707863016
521,0.25869803189086,0.24548095361981465
522,0.25999613923488185,0.24742689722694233
523,0.25581237821100805,0.24126938305680382
524,0.258333600138883,0.23865064826324908
525,0.25881399660467436,0.2503162207322109
526,0.25706128753405555,0.25461651087532366
527,0.25689209076024894,0.24343943012166777
528,0.2589049657122243,0.2600421504165134
529,0.2579836301964889,0.22620337276998229
530,0.2552532847460696,0.24597733130033483
531,0.2566522262256751,0.22710890391205543
532,0.25851733108655844,0.23856443658604046
533,0.2586488379978294,0.2533149509800225
534,0.25904299302087774,0.23194642709409524
535,0.25980754623158253,0.24555425423243524
536,0.2573622854902231,0.23525832870194124
537,0.25690356147489707,0.23054045380757093
538,0.2579761063508552,0.22611663607156868
539,0.2567496268247203,0.22929736592377092
540,0.2584087034408525,0.24161886053412113
541,0.2570542946004505,0.24160663157532297
542,0.25743560251400316,0.24159859935394265
543,0.25726884210987794,0.22795720954349344
544,0.2562415338545632,0.23330623486712998
545,0.2601585142356191,0.22955950515742043
546,0.25692160005231585,0.23283550393407362
547,0.2591434977859187,0.23947098590161678
548,0.25739571715207743,0.22724749738862624
549,0.256532048772248,0.2291582823403947
550,0.2572856391664502,0.24381232187937452
551,0.2576181033582951,0.2323883080859544
552,0.25797282375270025,0.247742653001834
553,0.25794606490002525,0.2533176402226755
554,0.25944199210243096,0.23652161824587198
555,0.26073620037091455,0.2433721959977641
556,0.25796573057329303,0.23412241244693163
557,0.25795681918378444,0.2388856756377781
558,0.25747406081236107,0.24036263594130433
559,0.25699496393302995,0.23792563191488905
560,0.25766153391405905,0.2505907626990274
561,0.25627039307303384,0.24823461354552298
562,0.25755619526124174,0.2511361143691503
563,0.25507286597219253,0.23869341868070307
564,0.2580002616640565,0.23030084073060136
565,0.2559188744955487,0.23228055718509724
566,0.2592613568560804,0.2407787420937228
567,0.2586697937787963,0.25710131513182943
568,0.25811081512080275,0.24887181040192655
569,0.2575822400691225,0.24331910684644353
570,0.2581378394623009,0.24374837905096022
571,0.2554435615984796,0.24520083262440837
572,0.2594435991192933,0.23429417484481452
573,0.25838341589590563,0.23154464811207506
574,0.257137150771385,0.23147474384027483
575,0.25665768946381545,0.23599617879321105
576,0.25779223160518466,0.26547530949695847
577,0.2577832350798184,0.24158245331131145
578,0.2561595000690513,0.22906855221260686
579,0.25775163373749577,0.23999654630384887
580,0.26062346091143507,0.23258145594635535
581,0.2594076344568888,0.2409727494719545
582,0.25799882058218254,0.2300822924692652
583,0.25916387908476846,0.25598426430281446
584,0.2573331549191017,0.23549888625632237
585,0.26006120227999074,0.2686078548552249
586,0.25815644884128586,0.23649348416467653
587,0.25811111592382696,0.24066998760630615
