epoch,loss,val_loss
0,0.06274239519372993,0.03764384673878477
1,0.03767654326826444,0.033743604045371335
2,0.03697839893289103,0.034432644977407195
3,0.03533883827573869,0.033652212863590714
4,0.03300933304072279,0.032719758491266834
5,0.03251498851395676,0.03295026321277053
6,0.03276796832604188,0.03153849899122805
7,0.051883342159809435,0.03964426568760339
8,0.03575260855602464,0.03369742717723468
9,0.03328909623138629,0.03285308920080101
10,0.03192714353349047,0.032081909228056524
11,0.032349089333284564,0.02969490262794082
12,0.03066222131473597,0.029981724432482783
13,0.030143273413312247,0.029405407008266986
14,0.02987083875610512,0.029485700808332963
15,0.02971145795842724,0.030285970342347163
16,0.02951218931343676,0.029041526100379533
17,0.029357021068837082,0.03054776032627864
18,0.029289011872275308,0.028554011008508323
19,0.029065845559816852,0.0289240490051502
20,0.02900065878396911,0.028894490744443533
21,0.028927486058356693,0.02873406450005184
22,0.028921920260984033,0.029314497429702997
23,0.028700105690336986,0.030617991821893353
24,0.028617589326160205,0.028728846847485678
25,0.028914864179834573,0.0289076696940823
26,0.02882764146579494,0.029335552984776147
27,0.02853583430838669,0.029648538759045984
28,0.02834312338818928,0.02863257505459309
29,0.02844340194873556,0.02845271470399959
30,0.028377903169922156,0.02883271954253219
31,0.028311765760392762,0.029306133664767003
32,0.0282986913055894,0.02800811363651234
33,0.028252934939365638,0.027743293581199452
34,0.028185970067522964,0.027710212346823637
35,0.028192556599502993,0.027906207390258536
36,0.028295882527293346,0.029061493264002158
37,0.0301057244737264,0.028186539640155873
38,0.02847808680114732,0.02863543752399852
39,0.028185355503429103,0.027998141137469245
40,0.028045318454844283,0.027717747358755828
41,0.0282139544448433,0.028115217703944335
42,0.02802290107371552,0.028913691067677397
43,0.02827154178064703,0.028403593844599395
44,0.027871729614349684,0.028321866418740967
45,0.028071176160371674,0.02753729979012606
46,0.02802612926223495,0.027845641008874187
47,0.027913589126750404,0.027896110422770827
48,0.028061423148054897,0.028536222810486213
49,0.02803209863301497,0.027969879979125437
50,0.02793072861082397,0.027778517751844607
51,0.02788314964319729,0.027818291996911403
52,0.027838538502097467,0.02834553289413097
53,0.027894881259065366,0.028157853000800735
54,0.027918297483042236,0.027812057184355685
55,0.02785592500271728,0.027500535855600715
56,0.027748355317282772,0.02762245979826801
57,0.02785337451734901,0.02762150484684021
58,0.027821673810805136,0.027411562258551306
59,0.027873833988187276,0.02874108396230358
60,0.027686984408789916,0.02768373045859137
61,0.027498782583968005,0.027612988915893696
62,0.02748062563953049,0.027876082960115702
63,0.02740018429755837,0.02727605725984801
64,0.027375100586333044,0.027385411619440806
65,0.027435758658418477,0.027146774701323324
66,0.02722246858980365,0.027160214365820706
67,0.02782563943567059,0.049210131835983405
68,0.02748376292550172,0.027399962030236393
69,0.02723342659615717,0.027827844314031066
70,0.027341811457148094,0.02737891263029292
71,0.027205791911344396,0.028945192103510067
72,0.027375162915931523,0.0283905434988206
73,0.02728843978396041,0.028004402607414332
74,0.027188441180802936,0.027041292091636634
75,0.027209763820189168,0.02751667514929691
76,0.02727686283484812,0.02707461639499265
77,0.02718713285130473,0.02702395569583987
78,0.027149030424630474,0.027145502402726545
79,0.02711129857687016,0.02719424329405245
80,0.027097017794239717,0.027418028174581388
81,0.027156371419360007,0.02721239030520907
82,0.0271104720716511,0.027402809995146844
83,0.02706171985831557,0.027431243135655505
84,0.027096784016010608,0.02752153774655673
85,0.027055334450316073,0.027537309620999734
86,0.02707852616363766,0.0276536282876053
87,0.02702838937194876,0.026980787461804875
88,0.027001396348244628,0.026906836728822887
89,0.027046414412251876,0.027302123406097088
90,0.02695701791180198,0.026947189889592663
91,0.026966560862517835,0.027245683830846096
92,0.027041797522822174,0.027352888380692452
93,0.026923695375068647,0.02678103303045451
94,0.026957050678196023,0.027333192214043213
95,0.026966541901737518,0.02704825349612351
96,0.026918999389966315,0.02704547989710619
97,0.026933561881175443,0.027506569607932595
98,0.026830396027810403,0.026855431052067696
99,0.02700399692797931,0.02686774659246959
100,0.026811815463189646,0.026936445360518466
101,0.026872905268028727,0.028075596085594717
102,0.026814088516420323,0.026924120535583313
103,0.026862489961883063,0.02710207744963125
104,0.026911077662851127,0.02674371276224736
105,0.026891796263051954,0.026737162253967453
106,0.026791446044410732,0.02679229715070839
107,0.02672890810136589,0.02732499710457068
108,0.026823238010879442,0.027261910129623063
109,0.02676635873384461,0.027195935796905466
110,0.026849697967152576,0.027053436817095804
111,0.02679221595833832,0.027235584994353565
112,0.02684522615559124,0.028883264128521633
113,0.02673177260268571,0.02682813727387847
114,0.026804952522986404,0.02714155818403302
115,0.0267524001677122,0.02690795851950941
116,0.026772343859380585,0.027039538118831502
117,0.026654210793408573,0.026824415764628382
118,0.026803685386999797,0.0268811487754115
119,0.026793177385075362,0.027291837559380815
120,0.0266653328634799,0.02750180699481403
121,0.02669190116715188,0.026626151996033617
122,0.026669789190918336,0.026690065278912017
123,0.026678046167790976,0.026910894925160193
124,0.026722419390751144,0.026828664004014697
125,0.02662216898025808,0.026934760631110454
126,0.026638940154394514,0.027408680344219054
127,0.026672763896168943,0.027017362651542216
128,0.026667501882814183,0.027060348401814864
129,0.02660795362594875,0.02676176552702027
130,0.02668803081113753,0.027048242153422084
131,0.02658391768444926,0.027303657702875645
132,0.026605242312886173,0.026707988290794456
133,0.026557267162976777,0.027361723051724574
134,0.02654535146443261,0.02820289055498106
135,0.026602808291579072,0.026941070107724507
136,0.026525295696278966,0.026701481330607957
137,0.026589783166706647,0.0276621301474021
138,0.026534553460476912,0.026897456681384525
139,0.026654231040909932,0.026863501843361413
140,0.026495828430151882,0.026842774589922725
141,0.026629697534296472,0.0272109608587581
