epoch,loss,val_loss
0,0.06313046947667077,0.03886000698274666
1,0.03629477020246763,0.04971733146694817
2,0.03455915431335176,0.03258981708983249
3,0.034107853147717186,0.03227735178496902
4,0.03450545530396473,0.03190130899174144
5,0.032473803977226864,0.031242861913548768
6,0.031620119392580096,0.031225907219059462
7,0.031134871900018235,0.03289028010095195
8,0.030811235425932164,0.03086903611781087
9,0.030577770267753324,0.03233745343002896
10,0.030405053131594053,0.02969772499427377
11,0.03088927340009862,0.02922757887496671
12,0.030421326705046475,0.029892194907143843
13,0.02992819281610968,0.029213192916777098
14,0.02985550594971465,0.02920022685443416
15,0.030142935652730032,0.030560435827958154
16,0.0297395017099882,0.030108052316082268
17,0.029503064048561345,0.03171440576390556
18,0.02957516917137577,0.03025186514253841
19,0.029237478799805948,0.028487407952891383
20,0.02934451064126786,0.029391444949156634
21,0.02924626204846272,0.0291692530530747
22,0.029198528365174524,0.02920054293159092
23,0.029094334449773242,0.029808760287436262
24,0.030088116952074657,0.02949676979084691
25,0.02912314811215588,0.030334720098615705
26,0.02905585291884931,0.02861684782151591
27,0.029069323496725932,0.0292703622203141
28,0.03352204748949431,0.0286024901371083
29,0.029003346293770847,0.02943110632449412
30,0.02908310540979797,0.029384827317469733
31,0.028857913666726225,0.0291390694911215
32,0.028878502325249453,0.028780593419362056
33,0.028793492879246322,0.028334099485552062
34,0.0288167112156852,0.028343627181265617
35,0.02863012824311543,0.028291410844632846
36,0.029772751010677362,0.03651904483894157
37,0.03007963764981809,0.02834140874382729
38,0.02860373730449628,0.028800568103521697
39,0.02852776284933538,0.028178283888820013
40,0.028568211280637867,0.02825400781191676
41,0.02893703736871055,0.028057868856441525
42,0.029542767482110516,0.02809065728592829
43,0.02895317682838447,0.029160176486348385
44,0.02854088041260293,0.028600525196445865
45,0.028288947754448054,0.029142014982824534
46,0.02824881139595719,0.028239535577642562
47,0.028210501630860915,0.028138314087457962
48,0.02810036831994685,0.0285861921247183
49,0.028107347940318377,0.028191308509123617
50,0.028117718986928122,0.02793957961672035
51,0.028062343811165142,0.02852048084707166
52,0.028082587899784663,0.027817177081624678
53,0.02792785211113455,0.028301955755058738
54,0.02795917551889807,0.027638022421226344
55,0.028162694720624423,0.02800739407409216
56,0.027878973818813806,0.02847186297906525
57,0.027950984479733966,0.02793970266444325
58,0.027861102897911792,0.028573996034681994
59,0.02783199855006253,0.02774908708307016
60,0.027814932303918866,0.028412616741588397
61,0.027856408650589706,0.02779035192359832
62,0.027800158467641584,0.02781539848534284
63,0.027922426457537772,0.028047945489581897
64,0.028106115003387562,0.028442234593185192
65,0.027911147188261633,0.028461681082412867
66,0.027965470056443748,0.028124336343023755
67,0.02791230256932307,0.028931603690070095
68,0.028100327698575577,0.027976423204542675
69,0.029250841183015523,0.02774423048579354
70,0.028479216003914204,0.02745885496102161
71,0.027777212643557172,0.027775446017051956
72,0.02779373501277285,0.028025978129035862
73,0.02764480372989763,0.027494674510792388
74,0.02761838546938116,0.027590877820195016
75,0.0277271935527834,0.027942404605457712
76,0.027544303388567466,0.027551973881801906
77,0.027760674644019066,0.02828629139535116
78,0.03365941780934172,0.02895346218851709
79,0.028139928515496144,0.027797717753693055
80,0.027712533975877838,0.027630768204011745
81,0.027513745240762374,0.027434732535419455
82,0.027505855634628595,0.027492126716457323
83,0.027475182761035586,0.02749196731579934
84,0.02747399707869748,0.02783698111027716
85,0.02745206340727583,0.027901783617346774
86,0.02751680806013356,0.027859705083376266
87,0.027437140557821326,0.027971660385252332
88,0.027409986270141396,0.028038060630255934
89,0.027457115918006855,0.027500491277683732
90,0.02735653081876099,0.02723263849782195
91,0.02734849421146221,0.027879989683794914
92,0.027548516292921404,0.02721675553258372
93,0.02748009364286132,0.02725094908468895
94,0.027427564301294064,0.027249875223172106
95,0.02733332350882594,0.02737432438421717
96,0.02736497387382488,0.027475886172453043
97,0.027295776818373602,0.02761075094212672
98,0.027356401633812186,0.027472117294867832
99,0.02730517852964286,0.027434733279797174
100,0.027248452015614683,0.02739105556868354
101,0.027231575903331216,0.027555739794151875
102,0.02729015142147722,0.028001426855788138
103,0.027254884354539214,0.02769759253533526
104,0.02724699230722327,0.02775381859545743
105,0.027471953851785247,0.027574827284779183
106,0.027362402875621958,0.027866660782939263
107,0.027350675942625233,0.027365947719198976
108,0.02729018412792847,0.027797579347060297
109,0.027161065449219222,0.027366801258368833
110,0.02717559546077618,0.02743256341074977
111,0.02724089780624518,0.02766099835827187
112,0.02719893461978971,0.027441144145153164
