epoch,loss,val_loss
0,0.0689330838691507,0.038488188334021164
1,0.041403986766622915,0.03456891651005168
2,0.035837396834882594,0.032716529911813785
3,0.03376369750363972,0.031958932755108256
4,0.03973714777866042,0.03366091457261099
5,0.035786297857924865,0.03140052714945187
6,0.03197228880320657,0.03175878402911161
7,0.031479344974340004,0.030377377760376943
8,0.03125484117812348,0.03052796419486297
9,0.03053006297161968,0.03008770364504831
10,0.03047689840694903,0.03082439965957902
11,0.030193385818667682,0.03068161662845469
12,0.030068944679688653,0.028729503561235457
13,0.030055057380442337,0.029685275517055038
14,0.029708974692601677,0.029494729489224127
15,0.029550283366607356,0.03018229481081878
16,0.029365335619589747,0.03052020992634693
17,0.0293976198958896,0.02968891569686415
18,0.029297703426328002,0.029006516152561865
19,0.028980598748297698,0.028700657774869822
20,0.029108607103453314,0.029179004605487405
21,0.029133928408429613,0.029173238614089853
22,0.028798960156165544,0.030657817646287226
23,0.028936767892985205,0.02848720587423222
24,0.028746304538924048,0.028794132888007112
25,0.028602328258039017,0.028268954351163392
26,0.02876491756067914,0.028895096353623334
27,0.029131618664342072,0.029046649697204326
28,0.028446665033439258,0.028694833695979624
29,0.028580620182442437,0.02843191859037115
30,0.02850919270279324,0.028082562282614024
31,0.028492225500966185,0.02852036913007034
32,0.028280222170796437,0.02899013704308086
33,0.028329108865091667,0.02858292794780034
34,0.028239423481366013,0.028360065928520865
35,0.028277161492394277,0.028038578117714433
36,0.029068341660992633,0.02792125741590441
37,0.028230854724715558,0.030782782966210405
38,0.028240064628730337,0.02792218012570488
39,0.028018150037242052,0.02782203117555591
40,0.028020833143531616,0.028115704153972486
41,0.028024226572525953,0.02842942419496958
42,0.02791367713287905,0.028315642144461795
43,0.02787684178888564,0.028972500121898028
44,0.027770493797068474,0.027518719015887035
45,0.027759860822521507,0.027549805397092966
46,0.027764509818734177,0.028173225783036448
47,0.02776591809109314,0.027639218902740997
48,0.02762946897503049,0.02742354635904119
49,0.0276422659749196,0.027831462187651406
50,0.027649281343122795,0.02781597702316283
51,0.027654254259411787,0.027447606053996678
52,0.027660847310199972,0.02778609370987591
53,0.027566460323104634,0.028009517099847343
54,0.02751696377789415,0.02865138723890195
55,0.027529057919993098,0.027624101713755282
56,0.02749220679598974,0.028739747749864864
57,0.02751225601003633,0.027422278741904386
58,0.027501065652174788,0.02768932731119019
59,0.027388480350031948,0.027280504902688987
60,0.027425692060441674,0.027360483661041962
61,0.027450453379919332,0.027431659979785087
62,0.02742047566763917,0.027206524714356625
63,0.0273875722866666,0.027481967656508892
64,0.02735646841701177,0.027823988280063994
65,0.027312031081951495,0.02753210760080944
66,0.027981824683338548,0.027329478831717716
67,0.027500352592363827,0.027732946442010357
68,0.0293566392492349,0.027612020768141187
69,0.027359083117092203,0.027038577805902252
70,0.027261522603106398,0.027321642272562445
71,0.027405503831814004,0.027215467444246102
72,0.02726707535356967,0.027271457217611244
73,0.027299994215263426,0.02773153016407901
74,0.02723888792836824,0.027321873876824207
75,0.027288596504559573,0.027454623677267174
76,0.027317360885978626,0.02721366340275845
77,0.02721085164132749,0.027947554707779182
78,0.02721758042107733,0.027080209498785167
79,0.02715113718686212,0.027286977689829784
80,0.02715951855589141,0.0272796192971526
81,0.027156130726935703,0.027405941978538295
82,0.027231052969024085,0.027636310864048844
83,0.027160258221170217,0.028310192549240026
84,0.0276193964019027,0.027812934093111058
85,0.027314155905420977,0.027600745578651886
86,0.02712852361924702,0.02745582217805245
87,0.02708278086847406,0.027357892881074944
88,0.027082174561399983,0.027645501368929796
89,0.027107543218731142,0.027222902067384258
