epoch,loss,val_loss
0,0.06341890444417186,0.03626388023795709
1,0.040651631953372624,0.03421121740564929
2,0.04137115287515586,0.03577267263769129
3,0.03507039693380048,0.03331825656546299
4,0.03547109875902249,0.032036368749776646
5,0.032393146503353586,0.053969293584012125
6,0.03224027896193729,0.03178141367389074
7,0.03127513613363011,0.03188812133171491
8,0.053828914854410916,0.05115385714055234
9,0.03369404113106359,0.03201071630701321
10,0.030762922989806395,0.030706555643517507
11,0.030222447345287638,0.029416946376123247
12,0.030052629714870892,0.029682991393348263
13,0.029732977905939373,0.029449878753442005
14,0.029728856419628105,0.02905404797154858
15,0.029580917473758767,0.029284125013812036
16,0.029776110807407163,0.029818673111138665
17,0.029152828057967234,0.029431970288649578
18,0.029479115160021805,0.029010997626061418
19,0.029073934123769775,0.028747854781838018
20,0.028899579026369533,0.030138803888523465
21,0.028932739148363452,0.028369949936389933
22,0.028795061269303784,0.02880267520509548
23,0.02871844212265391,0.029200020682806766
24,0.028569521814899464,0.029073055442384175
25,0.02852069421840671,0.028531943072962897
26,0.028503208739150382,0.02822406765674601
27,0.028387954458162945,0.028677899109598084
28,0.028396433441928354,0.02946752013896848
29,0.0283484023914531,0.02856362284848439
30,0.02828040482422481,0.029065892030969345
31,0.02823379867395743,0.028897334604110106
32,0.02820069875586368,0.0281274569528028
33,0.028122555380794532,0.02869143243598071
34,0.028185880652100828,0.028476233447551236
35,0.028109182670243232,0.028173989637336153
36,0.0282500257019009,0.02813995282429115
37,0.028045021192876024,0.029035081660822543
38,0.027952349262267598,0.028358365390884585
39,0.028008935337569547,0.027763665037764167
40,0.027925918111344997,0.027777956534080633
41,0.027936372769864288,0.027759130707382444
42,0.027933423035905503,0.028095030180999868
43,0.027851068585147448,0.02920391914807881
44,0.027860324422338927,0.027865101005311133
45,0.02783802521979424,0.028170570821825364
46,0.027776922063038195,0.028327457274906178
47,0.027797164757104968,0.0276536218372684
48,0.027846140579390256,0.02857587655184784
49,0.027738913279210513,0.028553300948329335
50,0.02770050584725556,0.027597467468574357
51,0.027741628063260998,0.027466816613200697
52,0.027709571347199157,0.02815289498165271
53,0.027662724967645214,0.027542855379677336
54,0.027664671966276533,0.02755764282042448
55,0.027689199303779975,0.02743680196671812
56,0.027626883311382616,0.02895823595029306
57,0.027779166224495215,0.027771813832241164
58,0.027661371165827914,0.027568942273107525
59,0.027581593592165266,0.027778821622419493
60,0.027580162437287,0.02787737463841566
61,0.027522479689575517,0.027799998248244147
62,0.02754146964671971,0.027424614071048535
63,0.027571770006159187,0.027845159603694856
64,0.027528285425376307,0.02731175400622571
65,0.027498838534265366,0.027861985957880937
66,0.027451601099407946,0.027565525180033242
67,0.02743398655137857,0.02798548916347972
68,0.027433613836117487,0.027871711466834717
69,0.027423453804831983,0.028073809242885567
70,0.027410487417045312,0.027592777432061878
71,0.027438925561947533,0.027710155489114575
72,0.02743166442818886,0.027374851771914167
73,0.027449918558586944,0.027664187489698924
74,0.027418754050389686,0.02780464013980171
75,0.02738381899446181,0.027692415568417353
76,0.027304373199500923,0.027384117901164313
77,0.02730482904017788,0.02812822851561967
78,0.027348036028400545,0.02759056017486083
79,0.027287125304308088,0.02736667013533824
80,0.027285393278519567,0.027827591223682755
81,0.02724882110474035,0.027522564161499664
82,0.02733034508192092,0.026902540055486215
83,0.02728444256139745,0.027337881470830012
84,0.027207520536237467,0.026917743706318175
85,0.027250259738287964,0.02763837451780502
86,0.027166612251498676,0.027564991250893314
87,0.02717359228451228,0.027191651010540045
88,0.027179433685604,0.027192407095535928
89,0.02718775176094614,0.027000503842901556
90,0.027129380619412145,0.02729091440381153
91,0.02710221587894631,0.027253350143879772
92,0.02712079172314134,0.027293507389106627
93,0.02717515036246176,0.027140227988142238
94,0.027143356421720083,0.027166106061510327
95,0.027164539764269673,0.02721100215537881
96,0.02710744470844586,0.027070722167038656
97,0.027085002673320903,0.027173231370783767
98,0.02711036615750325,0.027492840079673796
99,0.02707715481279854,0.02766090870520009
100,0.027069941454697963,0.02790662096152211
101,0.027080105730971075,0.028864714436082777
102,0.027125642775242556,0.027199972523277254
