epoch,loss,val_loss
0,0.06089833439152422,0.04317084709364298
1,0.04639268946552731,0.03360981252594625
2,0.03490944980014269,0.03453569041190283
3,0.03386647672407076,0.03346759746863087
4,0.03336961834998056,0.03503171302131482
5,0.03384210520477692,0.034839808065322955
6,0.03226548289145326,0.033295543800624744
7,0.032610908770597385,0.03269723131119784
8,0.03171854854100685,0.032767703001219846
9,0.03115886836233184,0.03138921303520467
10,0.03091468854942344,0.029472851654852177
11,0.031107841391873062,0.0297484005553944
12,0.030462763018089853,0.029829075851779248
13,0.030074841489195366,0.029529481777784954
14,0.030182975117585442,0.029304725999757707
15,0.029803768004470627,0.029458217842988604
16,0.029838624859720414,0.029131820740416935
17,0.029534977225103717,0.029235668266385826
18,0.029542830034952307,0.02973335045816521
19,0.029327725120818535,0.02876482703731148
20,0.029283601191891863,0.02941093395458354
21,0.029205920742692366,0.029215172725767062
22,0.029131745639659097,0.0290580358403861
23,0.02900017015714108,0.028840285231611768
24,0.02901210293485219,0.028740958504855623
25,0.028876016609651178,0.02948088845057948
26,0.02892466769971447,0.028595541565705193
27,0.02889826579950744,0.02922979841676992
28,0.028704625433776196,0.03023019258130495
29,0.028825719403390723,0.029115216143497904
30,0.02920823722738934,0.02876263180987521
31,0.028575128607202804,0.02862643890987389
32,0.028548182361593306,0.02912988548375736
33,0.028628114670982623,0.02869384531455275
34,0.02850762968018872,0.029134640722611422
35,0.028497144808442787,0.028924498664756815
36,0.02844102831919909,0.028207490470763832
37,0.028463313694980296,0.02856590227401856
38,0.028395038327046648,0.0283655949043131
39,0.02847048544451149,0.027833889786355766
40,0.028518468436727982,0.028094717146577637
41,0.02829372997327777,0.028369385679884715
42,0.028291136251757987,0.028231660111033625
43,0.028206312499657757,0.028146769617912987
44,0.02823048992555154,0.02883841635057978
45,0.02821316521581537,0.02833070435672312
46,0.028196344763821258,0.029748018776735552
47,0.02816933166167824,0.02789618402254502
48,0.028277854036609776,0.02831383417136417
49,0.02820991868233586,0.027902794891531475
50,0.028011833726701123,0.028124740938124334
51,0.028042463493247325,0.02809966190033192
52,0.028022094348269005,0.02828357939658533
53,0.028085500272614358,0.0279354944577293
54,0.028002507531656305,0.028307108152039528
55,0.027990915426846254,0.028001319148931378
56,0.02794015165074641,0.028034592455979782
57,0.027906417593770026,0.028351003450396393
58,0.02790328745630518,0.027909992036434968
59,0.027969349491360332,0.02886319394630559
