epoch,loss,val_loss
0,0.5057003080532908,0.5568791255556025
1,0.5579341165972601,0.5563639884943884
2,0.5563727243722633,0.5563219503048622
3,0.5563149410706653,0.5562681948142865
4,0.5564356508218689,0.5562455578751084
5,0.5562349886941144,0.556299151627624
6,0.5561936329637958,0.5560384928867782
7,0.5562072302166408,0.5561939423682861
8,0.5561551258955036,0.5561161012768424
9,0.5933172340255878,0.5570430664367215
10,0.5564667725561157,0.5562517824760974
11,0.5562637971933438,0.5569890015358506
12,0.5568333923423463,0.5561307898651745
13,0.5569421111986406,0.5561846128830706
14,0.556164868804708,0.5563010482091799
15,0.5561450623106521,0.5560496125558984
16,0.5561309544772742,0.5560430357650062
17,0.5561074428773787,0.5560574654370845
18,0.5561588353713067,0.5565588924077194
19,0.5565345715086414,0.5559940451390216
20,0.5560428182729973,0.5560472113983544
21,0.5560591238749688,0.5562748780596232
22,0.5560364971993738,0.5560101953048033
23,0.5560673013989832,0.5559706621195033
24,0.5560544426585212,0.5565319059622823
25,0.5564189013455942,0.556020694733499
26,0.5560340383660882,0.5561309587355359
27,0.5879980816479665,0.6670906745490146
28,0.667064523876273,0.6669859579579877
29,0.6671279114934838,0.6670369377576568
30,0.6670174496989654,0.6672153061763699
31,0.6670259598233421,0.6671305324362254
32,0.667135417964651,0.666981530119469
33,0.6670041815335528,0.6669770904347994
34,0.6670157403380731,0.667051896867022
35,0.6670076126280922,0.6669956718065521
36,0.6670086182619838,0.66705844912791
37,0.667007659844995,0.6669885527288723
38,0.6670112626723925,0.6669619548163642
39,0.6670008678202541,0.6671001287193474
40,0.6670316699748943,0.6671022666490739
41,0.6669954268616048,0.6669541654774968
42,0.6670060432030525,0.6669597984808522
43,0.6669985933209398,0.6670122919848216
