epoch,loss,val_loss
0,0.06401916182628352,0.035006273063708716
1,0.03899762972821969,0.03774819680431475
2,0.03732378102504097,0.034029800905104345
3,0.034123935666370675,0.03638564476103528
4,0.03278259909468821,0.031704022480171644
5,0.031639822472084786,0.0319841715066617
6,0.03145715084742809,0.03091243567790884
7,0.031445932238941064,0.030941833287320128
8,0.031214784600207286,0.03177125006352121
9,0.030514933835869538,0.029920719052081178
10,0.030403790808224414,0.02993560380694155
11,0.029966547244275756,0.0306453156936189
12,0.03032822572587923,0.0301575488555092
13,0.029534524490877186,0.03049949339946073
14,0.0295882414934309,0.0291621522831232
15,0.029350978129619096,0.028207500251351707
16,0.029536129804266273,0.029385076851133073
17,0.029149952060165456,0.029338333288073653
18,0.02918768874611718,0.028765554110655213
19,0.029530831610976537,0.030182414408048478
20,0.02929057304369696,0.03109601516470642
21,0.02869560755362834,0.028346556247999852
22,0.0287021429862958,0.02825335966109903
23,0.02902501997444222,0.02900287785344163
24,0.028558329746656216,0.028864608254660515
25,0.028495537652399754,0.027940743957179274
26,0.028467146688842575,0.028351069228954074
27,0.028420770460412637,0.0295951185817198
28,0.028421793083264247,0.028953361215076693
29,0.028275301059908785,0.029709644115158577
30,0.028337104258086523,0.028383835184386235
31,0.028173851808466457,0.028332884333363995
32,0.028215636700117955,0.028103038939436324
33,0.02818923107269792,0.02809859268995567
34,0.02812754163137569,0.02826900856975541
35,0.02800272044471506,0.027630745465513
36,0.027984420764793884,0.028738205346423934
37,0.027921294237134638,0.029230061893354187
38,0.027959957529955736,0.02806763209882347
39,0.027898235662952655,0.029088760324163257
40,0.027851656996151445,0.02779694672745524
41,0.027756661599504073,0.027981851042134576
42,0.0277249906044471,0.02786500197586056
43,0.027825054313490524,0.02784548816711127
44,0.027694462979584385,0.027768540354373105
45,0.027772920357084525,0.028466126796201863
46,0.027650476740026676,0.027945979932411543
47,0.027599432767432406,0.027794196633055594
48,0.027774595849934434,0.026996028185694135
49,0.027588056003120868,0.0276602754947369
50,0.02758845701346382,0.027259836213274838
51,0.027611316285699437,0.027606375685397387
52,0.02746660205175373,0.027872297554771608
53,0.027596590166265197,0.027683093297734978
54,0.027512900016130264,0.028178431460927012
55,0.027385192122089907,0.027152184501842872
56,0.02748586281522143,0.02707155113168651
57,0.027408760988288112,0.027043060473393728
58,0.027640164719845144,0.027789701118725706
59,0.027470942094546497,0.028105097284047437
60,0.027360390238527724,0.02700793579113101
61,0.02740384270982845,0.028282383161323192
62,0.0273211876881391,0.028179272731249344
63,0.027441639666753167,0.027728456842917307
64,0.027348532624668378,0.027604190047315062
65,0.02730795626612501,0.026878767422485753
66,0.027281646792259213,0.028631383985013588
67,0.02736992298364852,0.027891278540076947
68,0.027235595570985767,0.02732763610255492
69,0.027302962629546422,0.026876474771934385
70,0.027168550876071708,0.02790192269218906
71,0.02723689509484003,0.02697719654063322
72,0.027157034733331812,0.027319448723192866
73,0.027244821337008927,0.027756503474352445
74,0.02718110417209976,0.027179046751413957
75,0.027276027478548882,0.027307043577638603
76,0.02717324988800476,0.027376606052941663
77,0.02719546409715168,0.027269077550442954
78,0.027121562777134407,0.027467494314024423
79,0.0272257175934045,0.026974409207233138
80,0.02710743107037862,0.02764022555610448
81,0.02711883731129892,0.027354945038215013
82,0.027118686118464397,0.02804811895739631
83,0.027083594971906735,0.02731190302774691
84,0.027068936254154522,0.027143058314717146
85,0.0270432672203934,0.02673607627224199
86,0.027033167677802585,0.026953754650642755
87,0.027041126405058995,0.027319544241363583
88,0.02702330710946495,0.027403886837132567
89,0.027054433095256254,0.02855921451967255
90,0.027016843818933427,0.0277097633672585
91,0.027019895916660455,0.027206282550816606
92,0.02697451392415412,0.027252621855690298
93,0.027041112025148067,0.02734233952312715
94,0.026955338448085505,0.026889188619197712
95,0.02700308542234338,0.027161908785154256
96,0.02696316498669031,0.0274444728525057
97,0.02699698712509513,0.02719763875802145
98,0.026913249617736945,0.026907147683779435
99,0.02693670382448056,0.02662387329772084
100,0.0269918030804367,0.02701733300791589
101,0.026903840830284596,0.02748588086764775
102,0.026920495059923943,0.02749523378574973
103,0.026945164148097837,0.02749518874934458
104,0.02694658630847569,0.02674531134291217
105,0.02703359865775559,0.026964552535020125
106,0.026878405205950646,0.02711545261904202
107,0.026917373674655538,0.027388145375540705
108,0.02690828037298879,0.027459570094002406
109,0.02684471963939795,0.027219335703726172
110,0.0268544072952239,0.02695539113067887
111,0.02685726757334677,0.027402347889213415
112,0.026822468174488637,0.027046005148839928
113,0.026861949374382934,0.027115971717716673
114,0.026856411128954323,0.02769657005362919
115,0.02684267701052093,0.02779085745383335
116,0.02680485796410646,0.027295706093510088
117,0.02684378192036577,0.027070692168305852
118,0.026821790413952124,0.0272576197539911
119,0.02686147795682489,0.027159478017557172
