epoch,loss,val_loss
0,0.7757064207255511,0.6698964580630847
1,0.6686843885315088,0.6674033011853628
2,0.6677094377162247,0.667337249309577
3,0.667260396835679,0.6671470881918792
4,0.6672506128910193,0.6671756069698428
5,0.6673044489273048,0.6670823617172332
6,0.6671515346398512,0.6671192687533102
7,0.667143330875153,0.6670888408377225
8,0.6671446305298867,0.6670795368811281
9,0.6675310414143346,0.6670113674029104
10,0.6671144020481127,0.6671604737556603
11,0.6671351343110343,0.6676800489160624
12,0.6671047754024165,0.6673888395575468
13,0.6116612951144849,0.5560329611791359
14,0.5560724837891047,0.5565510610843512
15,0.5561968680702079,0.5560403044249911
16,0.5561071966780561,0.558204347417717
17,0.5564666809138806,0.5560563640148086
18,0.5560763092369536,0.5563154289490347
19,0.5560872788292072,0.5559899369478036
20,0.5560665355617079,0.5560534775862906
21,0.5560815628708887,0.5559705099463936
22,0.5560668520902282,0.556046513289483
23,0.5560629567198091,0.5562878380186013
24,0.5561574644364744,0.5559924286671133
25,0.5560526958950014,0.5560202563454542
26,0.5560582897219132,0.556050534165623
27,0.5560488996773961,0.5559900910329569
28,0.5560597698281343,0.5559778349379121
29,0.5560413176074391,0.5559626453137121
30,0.5560376715659149,0.5560564617893328
31,0.5560903483597557,0.5564410718959798
32,0.5560248116063593,0.5560517782859808
33,0.5560206067758752,0.5559740715629243
34,0.5560497875924397,0.555983758363645
35,0.5560380334229458,0.5560715189713873
36,0.5560243604691611,0.5559421728173002
37,0.5560077271226929,0.555937438692122
38,0.5564640843494443,0.5560249496598613
39,0.5560309107832574,0.556141178291223
40,0.5560463742041402,0.5561695834019836
41,0.5560214230523096,0.555947728032666
42,0.5560229918352645,0.5559385992504973
43,0.5560146585942289,0.5559507296807391
44,0.5560137750874058,0.5560758873993051
45,0.5560013278965328,0.5559304105879599
46,0.5559911856913851,0.555936228278631
47,0.5560169316192723,0.5560293876927903
48,0.5560781701192288,0.556013652771754
49,0.5559853614135839,0.556047594602172
50,0.5559932565705179,0.5560133178990967
51,0.5559879177479319,0.5560515937169848
52,0.5559786338856383,0.5560327389040731
53,0.555995825582887,0.5560498770615667
54,0.5559877863260143,0.555914086492474
55,0.5559726397953176,0.5561446509645991
56,0.5560058375228953,0.5559482246102541
57,0.5559967975637217,0.5561806279618683
58,0.5559768289057654,0.556088660607475
59,0.5559785174856673,0.5559384463059442
60,0.5559812464418533,0.5560649734121174
61,0.556017429502064,0.5559600956320327
62,0.5559904236123573,0.5562276846267921
63,0.5559663257684573,0.5560547610360591
64,0.5559771230946224,0.5559521784323519
65,0.5559785190723426,0.5560851683829803
66,0.5559882158658119,0.5559296942105535
67,0.5559644889608154,0.5559771247983112
68,0.5559784506161556,0.5560768776722176
69,0.5559691043911709,0.5559393508965882
70,0.5559670221986445,0.5560215278165538
71,0.5559707754277204,0.5563482469900536
72,0.5559654093630664,0.556000373085018
73,0.5559621280450797,0.5559205712213088
74,0.5559671086276866,0.5560048630034259
