epoch,loss,val_loss
0,0.5618552386149784,0.5563495282390789
1,0.5572469565755531,0.5564547037016272
2,0.5593045491961378,0.5626808954303711
3,0.5566285084315682,0.5562287172438967
4,0.5585979493830171,0.5570779528734474
5,0.5565371618655999,0.5562332400882625
6,0.556281954481736,0.5562597383899274
7,0.5562231332254762,0.5563733305356721
8,0.556215586369221,0.556045737454148
9,0.55635106629157,0.5561305616362731
10,0.5562085512869561,0.5561860726999256
11,0.5561190933119076,0.5560383015688363
12,0.5561646095570215,0.5560173988200302
13,0.556126369821637,0.556098514503764
14,0.5561757358692581,0.5562780901034786
15,0.5560957711396726,0.5560365838674737
16,0.5561019576973025,0.5559776745344961
17,0.5560681405558047,0.5560695665477475
18,0.5560977082770209,0.5562128051038733
19,0.5560779002069385,0.556148360030924
20,0.5560725125515887,0.5560321495355794
21,0.5560666973008384,0.5564341051949193
22,0.5560289599069491,0.5563975964034382
23,0.5560532541996368,0.556053667706839
24,0.56211497958349,0.556081053083125
25,0.5561556072820777,0.5560929254537464
26,0.556088418291257,0.5560734157327889
27,0.5560922008700802,0.5563060930130386
28,0.556056045831274,0.5571532840054433
29,0.5560688022743627,0.556245823630231
30,0.5560582410271897,0.5559755638277264
31,0.5560347708583337,0.5559951146292236
32,0.5560450971639672,0.5560708500969045
33,0.5560321810570863,0.5560284172265666
34,0.5560312071393482,0.5559820940196561
35,0.5921410353662533,0.6670588702649678
36,0.667082538624977,0.6670036446448071
37,0.6673383616601751,0.6670333279235525
38,0.6671626755137682,0.6670357909338123
39,0.6688473875267499,0.6687997773760592
40,0.6672654182269607,0.667036036688202
41,0.6670330570967337,0.6671688175634939
42,0.6962904511398891,0.6669808049059603
43,0.6670233899570948,0.6669799743407451
44,0.6670140359131096,0.6669894132620572
45,0.6670162387339804,0.6669580410288614
46,0.6670006482307748,0.6670367556828364
47,0.6670017900268899,0.6671072445929344
48,0.6670053519730428,0.6673966223699092
49,0.6669951140258614,0.6669950581967538
50,0.666993878329171,0.6669741952790331
