epoch,loss,val_loss
0,0.06369937962431586,0.04218122859958578
1,0.03973364698888607,0.03487097953557282
2,0.034649653050457925,0.03643887096355458
3,0.03565740092255606,0.033121201801173686
4,0.03289889887103863,0.0340560181291201
5,0.032754682549415375,0.03143710504959377
6,0.03241425233092826,0.03220110842554327
7,0.03208907488818203,0.033380768704069114
8,0.03167434612298401,0.033604551032889556
9,0.03159031657624209,0.032992818470164595
10,0.03125137889966255,0.03051418076525638
11,0.030923153859773417,0.03116100846260445
12,0.031492235478320474,0.030407739380202692
13,0.03188392973307458,0.03172735455899257
14,0.030503660542779688,0.03089916071108675
15,0.03035958575556571,0.029289445462383
16,0.03012421452467837,0.030626673984675723
17,0.030125434101483748,0.041622954226553446
18,0.029993934234024605,0.029884819905067295
19,0.02975301265270288,0.029601059579529305
20,0.029715154167380728,0.02918131710029399
21,0.029536819474986778,0.029704671179467824
22,0.02939956000597412,0.0325170649768427
23,0.029416470437618015,0.029057243555826822
24,0.02920387399337219,0.029465642418284654
25,0.02920552934798215,0.030280042949212636
26,0.029125078841325574,0.029222924678917867
27,0.029052801196838562,0.02929135026995608
28,0.028935545236967716,0.028820365678583496
29,0.03072440188190977,0.02938796695835305
30,0.04247635439390477,0.03638491180011189
31,0.030149738063455056,0.03253783352113403
32,0.029126635702954595,0.02851603934412672
33,0.02892383722905802,0.02849107950068602
34,0.028602812032834622,0.028202232167897374
35,0.028319602482993003,0.02873418189254506
36,0.02819470039745823,0.02820511915118605
37,0.02846888963322927,0.028914392763109545
38,0.028417763577202004,0.028586524267004598
39,0.02879945141436331,0.027775377518919956
40,0.028620191332406446,0.028311922927800437
41,0.02811374749704817,0.02785699655107677
42,0.028329809640148577,0.02816198533925936
43,0.0286030805636737,0.028667854207582808
44,0.02843785604716946,0.0274978332024506
45,0.02777118615293283,0.027730157907962873
46,0.027785175529267136,0.027352012061464117
47,0.027582640083452487,0.027477752814583783
48,0.02771882399198543,0.027348226145423364
49,0.027552927512590555,0.028453300065602483
50,0.02752403880371511,0.027510450979878417
51,0.027516237060665652,0.02722128868775674
52,0.027513106742010504,0.027980827685011905
53,0.02731931896327331,0.027126311993929522
54,0.027418641726947753,0.028261915189302052
55,0.027311257302622644,0.02928899316913162
56,0.027265660222391883,0.027050197263210847
57,0.02729361793986633,0.027144607954136632
58,0.027136832014065124,0.02711060798682754
59,0.027258320471529256,0.02699001546702452
60,0.02719489687922552,0.02727231189457125
61,0.027128225699898513,0.02809493346321705
62,0.027062684856649758,0.027282204665036565
63,0.027060022033480895,0.02798851546978589
64,0.027362651532038398,0.027478880568130755
65,0.02735842545438186,0.026946860617294385
66,0.02743815873593353,0.02796057056844452
67,0.026996188315265002,0.027043408745293703
68,0.026952571352456926,0.027489053868130026
69,0.02686796223296698,0.02676391680540784
70,0.02689979161600278,0.027100674949712994
71,0.026860954771493827,0.027748527818909473
72,0.026900990800647895,0.027164995380287865
73,0.026808099678510684,0.026944559912141237
74,0.026781496784956133,0.02713792706557696
75,0.026797008054843283,0.027235462765253893
76,0.026857003274664944,0.0275989183962312
77,0.02681616577526091,0.026538555013695907
78,0.02684270773240165,0.02662073517887033
79,0.02673046991800298,0.026608662326016067
80,0.02669146996410347,0.02656175745676269
81,0.026757945684749616,0.026800295183775545
82,0.02670600087576986,0.027340480141969964
83,0.02666429308828763,0.027752648744118653
84,0.02665078558869396,0.026854687805923656
85,0.026628111267802703,0.027280770722147782
86,0.026643960959990724,0.027155178011011534
87,0.026616928089716146,0.026777158478889906
88,0.026594168330887864,0.027527697208948754
89,0.02654912347818884,0.026521343165469943
90,0.026570503714065368,0.026246169260476
91,0.02659612065433984,0.027581461752447342
92,0.026536311195543213,0.02703272157930085
93,0.02651877123594682,0.02663291716152157
94,0.026500720630125103,0.02696421356199965
95,0.026576661394206412,0.026797054883738076
96,0.02654444706765343,0.026684195240872264
97,0.0265580682929326,0.027354174338243293
98,0.02651109074615794,0.026654356468083774
99,0.02687545905229048,0.026601848523068166
100,0.026717027015912328,0.02641097757473117
101,0.02649144668813912,0.02674986944901119
102,0.02642954213529283,0.026915374766737672
103,0.02647778938039133,0.026195902130375006
104,0.02643124744237111,0.026946041265368575
105,0.026395318447392686,0.026383761345230343
106,0.02641457098966947,0.026050335443221485
107,0.026410903493690397,0.027021883852449753
108,0.02637594406385269,0.02679628534433301
109,0.026516592067885175,0.02632001144594099
110,0.026414346542216954,0.026640546140011784
111,0.026387390991861336,0.026592198127786924
112,0.026377048015635795,0.026997176510126123
113,0.02638419066383081,0.026266546321688795
114,0.026368903452997437,0.026747914495995798
115,0.026310434518248535,0.02620960404108148
116,0.02640328716886985,0.027026236246149037
117,0.02640629147687592,0.0265736810523441
118,0.026287620530757342,0.026334893722746777
119,0.026349752623616267,0.026387855893615333
120,0.02633288743001725,0.026621112776708703
121,0.026317203120793838,0.026281133810126565
122,0.026319585443656226,0.026110478705252252
123,0.0262566940257856,0.026481497369405506
124,0.026259189588394447,0.026716581338710996
125,0.026301864606360484,0.027033310103732593
126,0.026289011495973243,0.02740639375769133
