epoch,loss,val_loss
0,0.05883034778138084,0.0345695670899693
1,0.03895196319516271,0.03566801270988559
2,0.03541528139771996,0.10265202434816038
3,0.03497423699320667,0.03252520066092454
4,0.03330539432826351,0.033215393646380174
5,0.03262832298501357,0.032182251648675386
6,0.032473748500728386,0.03293971906935097
7,0.031703692852193724,0.03061550012817028
8,0.03114545024894998,0.03135134202687134
9,0.03090610478255991,0.03156142731028425
10,0.03256464957811011,0.030656926318670626
11,0.030620524989262585,0.031629566155132675
12,0.0315350150270296,0.03079140321415924
13,0.030467069756537894,0.029929854441508096
14,0.030002093343935506,0.030349235566105467
15,0.03004524178261011,0.030355214180354705
16,0.029740135518929723,0.029440937487165076
17,0.029793965776365033,0.030066434914127586
18,0.029802030635817597,0.02963211436601992
19,nan,NA
