epoch,loss,val_loss
0,0.4540031749416674,0.4459315487883934
1,0.4478242862317027,0.44563606005396866
2,0.3766395139227006,0.3348439389469132
3,0.33567971508628236,0.33474447191405227
4,0.3343908437987101,0.33417949577172595
5,0.3350843158383957,0.3341750678290862
6,0.3342814807173184,0.33430462758541485
7,0.33478839334626,0.3342797267606415
8,0.3345243282370082,0.33414126844591274
9,0.33508241179227993,0.33437694948978874
10,0.33472686631296006,0.3340057404349489
11,0.33418488778385963,0.3340546871998849
12,0.3359203065902621,0.33745320057781875
13,0.33486271545028573,0.33411067584374227
14,0.33434741939297447,0.3343303112476728
15,0.3354628464131365,0.3340433969755333
16,0.33406586719982106,0.3538184475620455
17,0.33411460291472667,0.3340011981530513
18,0.3346045485207144,0.33408378110540393
19,0.334063683702826,0.3339302737135082
20,0.33413391595886127,0.33431618999673846
21,0.3340996770184749,0.33457132157814473
22,0.3341008006569581,0.33410447070394905
23,0.3347907645570459,0.33406803704773375
24,0.3341695021459596,0.33406885968554073
25,0.3342130777662341,0.3344746649416738
26,0.3340491102358429,0.33405333165329604
27,0.3340388517360293,0.333985481573908
28,0.3340523373863974,0.3339342103698092
29,0.3340145137235928,0.334187171973462
30,0.33411968792999414,0.3342646467026896
31,0.3341078831892167,0.33398811754838464
32,0.3340406346166264,0.3338827953648904
33,0.33458147268249,0.33402177574559966
34,0.33403931421383476,0.33392316647961306
35,0.33402870456182304,0.33407388580674613
36,0.33401676062765295,0.3339388553909182
37,0.3340065027360058,0.3340331027720568
38,0.33401232892645477,0.3338984558392805
39,0.33399283831252385,0.33388367545629316
40,0.33399665272404594,0.33389515041528817
41,0.33398293328280326,0.33493530653016007
42,0.33415124733678503,0.3341489649938746
43,0.33411921038764686,0.33399175512605156
44,0.33397961097925294,0.33390837756342145
45,0.33400464808132285,0.3339435889268652
46,0.33399423954031343,0.3340737583908142
47,0.3339802905420913,0.33393299353393424
48,0.3339799503077025,0.33389509769683984
49,0.3340244888772253,0.33388216799216475
50,0.33395091551831735,0.333862225146015
51,0.33399711915729935,0.33396798670433886
52,0.3339719990539266,0.3339138549624009
53,0.3339673944928693,0.33398601302026054
54,0.3339440916827669,0.3338724664961589
55,0.3339661008422996,0.3339252379421622
56,0.33395646666591017,0.3340343624277684
57,0.3339526447023971,0.3338899923867416
58,0.3339398946334207,0.33427426181124265
59,0.3339704634931455,0.33387000722952903
60,0.3339527918175317,0.3339066739562808
61,0.33394847093316343,0.33406386955950174
62,0.3339475956148945,0.3338653642529814
63,0.3339280683147656,0.33404000655552574
64,0.33394828439271573,0.333848302390285
65,0.3339307755842193,0.33468645184934
66,0.33394928730524015,0.3339550461994574
67,0.3339386722519064,0.3338652306773349
68,0.3339472517283522,0.3341627654072139
69,0.33394728790182887,0.3339723018813705
70,0.3339453869880461,0.33401461545486233
71,0.3339385339524236,0.33396150437502403
72,0.333930867877216,0.3339152973673543
73,0.33393924526592544,0.33420295326392085
74,0.33393275970104097,0.33406883016008604
75,0.3339406166685174,0.33392946880706553
76,0.3339345905102375,0.33385777654241944
77,0.33393431992647943,0.33410506427988507
78,0.33393702184864393,0.3341127668290133
79,0.33392884945263174,0.3339292451358322
80,0.3339323911226277,0.334208854980387
81,0.3339277172739858,0.33387318780985603
82,0.3339511705723376,0.33403455526729947
83,0.33392285962440577,0.33395665382343154
84,0.33393660723554497,0.333877294358799
