epoch,loss,lr,val_loss
0,0.32960062703902393,0.003,0.31159028426200835
1,0.3054633883001517,0.003,0.3011597480563169
2,0.2911827357457601,0.003,0.2811304514649917
3,0.2775120957673406,0.003,0.27337625739183025
4,0.26918904621788353,0.003,0.26545717892396514
5,0.26445670263896837,0.003,0.271945499013095
6,0.2612752869552512,0.003,0.2627627543322948
7,0.25866444452072407,0.003,0.26028795720863834
8,0.2563940899120532,0.003,0.25567838590189335
9,0.25540839745808275,0.003,0.25412924280176974
10,0.25434722550076355,0.003,0.2589988491976459
11,0.25328322017876553,0.003,0.2532553358831176
12,0.25156176650374057,0.003,0.2519676691684181
13,0.2508399430707061,0.003,0.251263659944333
14,0.2506413044010421,0.003,0.24969248545386233
15,0.24996143592883358,0.003,0.25066978474395335
16,0.2500265099608498,0.003,0.2523863824421059
17,0.24910543645195346,0.003,0.2508078682123909
18,0.2491286441171579,0.003,0.25104874376010594
19,0.2483298002714686,0.003,0.24728204728043163
20,0.2482843162725679,0.003,0.2491563835902391
21,0.24762780618348376,0.003,0.24665938862309084
22,0.24782427971204407,0.003,0.2488429444858947
23,0.24713707100644672,0.003,0.24644238298910287
24,0.24642286912428676,0.003,0.2497795387255741
