epoch,loss,val_loss
0,0.20176857979380064,0.11713315105475867
1,0.09876110108135987,0.09500898832444987
2,0.09532137799987214,0.09480879621046588
3,0.09524418246879471,0.09574309704147556
4,0.0951381701556184,0.09582799515483317
5,0.095034242739423,0.09480046144530072
6,0.09498150665149224,0.09468541906495309
7,0.0950775732525247,0.0951899721359962
8,0.09495409690052103,0.09464035741837833
9,0.0950181665424582,0.094541052628335
10,0.09496420080498826,0.09443854234212952
11,0.09490704984306622,0.09501986464319402
12,0.09487194551242818,0.09463084830175542
13,0.09488692581296253,0.09478199952991345
14,0.09488771367165968,0.09439868939233372
15,0.09491320462416497,0.09453824655268261
16,0.09482355805026065,0.09443525341357786
17,0.0947981106964566,0.09475850516190751
18,0.09480116237624944,0.09518888632707362
19,0.09481304652577967,0.09448070681838418
20,0.09477089167379742,0.09468308011188974
21,0.0948105509684002,0.09469486340798067
22,0.09474526409158032,0.09462243226234049
23,0.09477324664688035,0.09441952244470508
24,0.09470490491885743,0.09438766911331838
25,0.09478349509916241,0.09429922665233394
26,0.0946733874948524,0.09516121018986676
27,0.0947354638027392,0.09434374311869786
28,0.09478089201162092,0.094585284084999
29,0.09463814840161448,0.09443119134762763
30,0.09469003870273285,0.0945964180868069
31,0.09471306548439723,0.09454266348267129
32,0.09466309148928435,0.09451200880680671
33,0.09466033498589084,0.09433543095225505
34,0.09465067304795881,0.09460231992868147
35,0.09466755583727483,0.09423369791391052
36,0.09464086239917768,0.09448031316663491
37,0.0946241381535713,0.09445899418586808
38,0.0946379329809706,0.09436461549390464
39,0.09465689286827851,0.09457103254739563
40,0.09461701773613286,0.09453367494228983
41,0.09461615319184358,0.09446927110040479
42,0.09463103215614382,0.09437488780989832
43,0.09462975216009539,0.09433882183085865
44,0.09460556391272232,0.09427710681353955
45,0.09458537473023938,0.09446329903372085
46,0.09457516817035054,0.09447386372178769
47,0.09459348456512728,0.09430864760277304
48,0.09457465676928786,0.09460038335401427
49,0.09458112092815238,0.09444208337316008
50,0.09456658672740896,0.09447904201643431
51,0.09457906078008249,0.09425959379163049
52,0.0945658653283672,0.09418023397062553
53,0.09456472726558134,0.09432136052785751
54,0.09455616224846013,0.09433902029150945
55,0.09456862051555102,0.09452537287264803
56,0.09455363708231851,0.09424060130316908
57,0.09453891071496155,0.09435580248026369
58,0.09453568469098718,0.09435080671602097
59,0.09451137345841082,0.09435425303588256
60,0.0945336274105868,0.0943248985480773
61,0.09454930138340195,0.0942721377467206
62,0.09448590248132305,0.09491366418497527
63,0.09450400008750762,0.09427375209406783
64,0.0945367280134766,0.09443005520171223
65,0.09452085479569855,0.09431303979942153
66,0.09452369569731559,0.09422046997552795
67,0.09450340762936907,0.0942663874333076
68,0.09449341608811435,0.09424379786686721
69,0.09449658272184915,0.09424289220675014
70,0.09450374977539579,0.09425036866150226
71,0.09451060635235002,0.09434401168066776
72,0.09448812440109196,0.09433949111880707
73,0.09453167498028345,0.09421018579858631
74,0.09447404062695546,0.09468705450561729
75,0.0945170298576069,0.09430015585793222
76,0.09447260556830396,0.09432448785466854
77,0.09448058887732495,0.09444852255067208
78,0.09447395535324403,0.09450357192693588
79,0.09448231042300959,0.09428431881678415
80,0.09449033804243798,0.09442167678567115
81,0.09449742643905581,0.09427404620088549
82,0.09448202234282672,0.0942839579546461
83,0.09446926599295495,0.09417743429882657
84,0.09448442655168086,0.09421328285263576
85,0.09445375439038665,0.09429502160815433
86,0.09451849473942575,0.09431317697360747
87,0.09444295503586221,0.09431862001966658
88,0.09448906956173533,0.09429468670837882
89,0.09447547732342443,0.09430625554888665
90,0.0944553848347075,0.09442643466645935
91,0.09447289587889644,0.09452768829787163
92,0.09448702655714765,0.09433324059916935
93,0.09449871943937503,0.09422089514670264
94,0.0944552152372188,0.09421917146928874
95,0.094474319008281,0.09420830083697823
96,0.09444996155947327,0.09425922058634431
97,0.0944679480918544,0.0942293446461046
98,0.09444144741296291,0.09414982401134465
99,0.09448190076019077,0.09423737772450075
100,0.0944573186296258,0.0942353141959389
101,0.09444080942647634,0.09437108396801688
102,0.09445958999957112,0.09438620115488462
103,0.09447372289632054,0.0942267908081824
104,0.09447486624181223,0.09452292201386349
105,0.09445898474858914,0.09436176864293587
106,0.09445274060519097,0.09434208941323229
107,0.09446183852940726,0.09433773551033346
108,0.0944503751798547,0.09427144970589016
109,0.09444016404896617,0.09443484854185402
110,0.09444745198833189,0.09443227890893617
111,0.09445628739422936,0.09443520138888446
112,0.09447121950719568,0.09440706682045251
113,0.0944786522534492,0.0942734336596638
114,0.09443670526730548,0.09424799348462164
115,0.09447802537434298,0.09422597344361992
116,0.09444904845240686,0.0942708035929521
117,0.09441115101762146,0.0946503425253689
118,0.09446210997532026,0.09432124085400927
119,0.09446961245686411,0.09421938699512097
120,0.09445288854477693,0.09422687618701403
121,0.09447078419019946,0.09421193588527997
122,0.09444227652977125,0.09419017426240321
123,0.09443607530016884,0.09430098940560266
124,0.09444923532440318,0.09446194877917125
125,0.09445854083751794,0.0942882931575873
126,0.09446191971155284,0.09428352093428444
127,0.09446100690822712,0.09413878567334509
128,0.0944041033371461,0.09475557147374564
129,0.09445339526168162,0.09451351573524648
130,0.09445593674941886,0.09441384172688908
131,0.09444684933701293,0.0942145523621797
132,0.09443760295804265,0.09479909262604476
133,0.09447848034217107,0.094208660411289
134,0.09439360085639546,0.09425936700466024
135,0.0944641522146005,0.09416802121648284
136,0.09442105556396749,0.09421375120424716
137,0.0944617274556038,0.09472374860917665
138,0.09440526505001634,0.0941316151804781
139,0.09445913878383397,0.0942747819501298
140,0.09443699451778337,0.09443703806579067
141,0.09444198070717849,0.09421352375866206
142,0.09443520281693156,0.09417531324731335
143,0.09442160628456102,0.09428531905281892
144,0.09445702245266889,0.09421967963769667
145,0.09441002968737452,0.09418004104351564
146,0.09443701992479922,0.09423083736728098
147,0.09445350152923525,0.09432228424695879
148,0.09441913814126826,0.09430602540415671
149,0.09442322366207624,0.09424401862633539
150,0.09447505362897658,0.09420343652520484
151,0.09442846788514814,0.09456846313793639
152,0.09443768491145137,0.0943204873515662
153,0.0944115999314806,0.09430872913576434
154,0.09446447328936092,0.09441079796771883
155,0.09443005219661742,0.09421794882136814
156,0.09439769495043347,0.09411707058278425
157,0.0944239928704991,0.0943038760557265
158,0.09443381378988473,0.09424517244900317
159,0.09444094890301272,0.09443426530899358
160,0.09443736598967649,0.09460817973093433
161,0.09441587604659733,0.0941930056241618
162,0.094445185055383,0.09436338471326662
163,0.0944423488111233,0.09431850713190358
164,0.09444698331048258,0.09416674440337056
165,0.09441361090631413,0.09433352693197948
166,0.0944261760811964,0.09431745781142033
167,0.09442657687895589,0.09430831304994641
168,0.0944294822361353,0.09460866341298269
169,0.09445662824191349,0.09440765918571364
170,0.09440761866817753,0.09416558890476318
171,0.09442838818597184,0.09449728956444582
172,0.09443475030285182,0.09423022202106565
173,0.09443760124875678,0.09428329175395483
174,0.09440400088421828,0.09412465997822377
175,0.09443729828230196,0.09433132785224689
176,0.09441151658146026,0.09460992615996333
177,0.09445009472892343,0.09426284166848274
178,0.09443191237015118,0.09419259683603175
179,0.09442645112732999,0.09465366938896036
180,0.09441278849860175,0.09447314876595538
181,0.0944195335461415,0.0941904979833676
182,0.0944234325195388,0.09430322844914404
183,0.0944367000709573,0.09426330009382733
184,0.09441678559513306,0.09412135548401557
185,0.09442495466243449,0.09422565738493378
186,0.09440874180300154,0.09429052891981536
187,0.09442160186840952,0.09420466714118914
188,0.09442854038388324,0.09429737749114786
189,0.09442685291075782,0.09421713436176764
190,0.09438729732275772,0.09424774305808234
191,0.0944058495334727,0.09424792112519445
192,0.09444754567446945,0.09419123238009924
193,0.09441320205644833,0.09414521353679467
194,0.09441940511147276,0.09418962764735286
195,0.09441823339302667,0.0942235815249848
196,0.09442058531083554,0.09422917772840117
197,0.09440101115263815,0.09421402304164989
198,0.09444514676321039,0.09419966199756516
199,0.09439882220362397,0.09417860528076363
200,0.09442903014193241,0.09418199389537865
201,0.09443670133356567,0.09422851091025848
202,0.0943998245062302,0.09423940440003291
203,0.09441763882061466,0.09438886144731397
204,0.0944248342768942,0.09428679252715212
205,0.09438187785619359,0.0941560815581677
206,0.09443397284578457,0.09448913897034118
207,0.09438583044875726,0.09418384680831723
208,0.09442298038364601,0.09411919616227463
209,0.09442390263568964,0.0942510972306685
210,0.0943949139452905,0.09419069502682034
211,0.09439854054070777,0.094264245535458
212,0.09441489339482298,0.0941721815983423
213,0.09440580820984883,0.09416064661769483
214,0.09441725635747734,0.09416254638637626
215,0.09441336155009213,0.09423484251597028
216,0.09442887091927296,0.09427861131921751
217,0.0944056360007857,0.09427603010173473
218,0.0943974755662713,0.09418153942172322
219,0.09444050202302509,0.09416694944428947
220,0.0944266814044673,0.0942400459261889
221,0.09441799267852526,0.09438057086226878
222,0.09440647745780427,0.09419219663929733
223,0.09445795543092808,0.09443871935663396
224,0.09439521857934127,0.09425643803853168
225,0.09442946085517259,0.09423068524488992
226,0.09440755124369876,0.09429720860348034
227,0.0944207327680098,0.09428850580786002
228,0.09442874236251239,0.09418997823039471
229,0.09442456190784772,0.09412596123065173
230,0.09440321335308462,0.0942181383554354
231,0.09439173046585848,0.09429993782701131
232,0.09443675783231295,0.0942261994661265
233,0.09444202624743792,0.09419772893355037
234,0.09441445770261767,0.09425589775088837
235,0.09439632141416213,0.0941403727234586
236,0.09443306874671428,0.09441691838151936
237,0.09443513856088515,0.09437194344276693
238,0.09438115026024606,0.0942953749491459
239,0.0944277689301615,0.09471855290828018
240,0.09441459717915403,0.09438926959447062
241,0.0943915414438545,0.09416797082068512
242,0.09440822713821531,0.09468247398040194
243,0.09441546395980864,0.09424951661381085
244,0.09440623147250841,0.09423019669379601
245,0.09440476378853277,0.09424696068243427
246,0.09442310676359826,0.0942121324288911
247,0.0944186942093521,0.09427204741651653
248,0.09440155207908316,0.09422469133218632
249,0.09444187272140543,0.09420668636026021
250,0.09439876482641096,0.09424946151362128
251,0.0944062293076115,0.09456824533047409
252,0.09439736976921796,0.09441058536449001
253,0.09442019883653434,0.09464938204732577
254,0.09439123650308517,0.09421376845172379
255,0.09441918980696504,0.09425931086950445
256,0.0944422403756949,0.09421231757023246
257,0.09439404375499769,0.09426749461781066
258,0.09442844446138036,0.09413093212630302
259,0.09440470710813666,0.09422707650589962
260,0.09441733736095193,0.0942249249640467
261,0.09442615973577796,0.09422030065858468
262,0.09439472866644391,0.09416716444087762
263,0.094396413486305,0.09423777366376054
264,0.09440863340926303,0.09453881693079233
265,0.09438760659034304,0.0942659595041832
266,0.0944149607984568,0.09419365111964842
267,0.09440696532194086,0.09421226990298201
268,0.09440967032341935,0.09414535904951517
269,0.094399409968671,0.09428181224623908
270,0.0944720349914069,0.09417731722415482
271,0.09436846910704144,0.09420304559024188
272,0.0944358320276943,0.09413690208189113
273,0.09438046493785654,0.09408331457775412
274,0.09440255673419086,0.09442015637914873
275,0.09439261127516425,0.09415266692238523
276,0.09440766120974203,0.0941475950646043
277,0.09441144402912385,0.09442571307743453
278,0.09442501791196761,0.09417100591201338
279,0.09438111674752261,0.0942845637921094
280,0.09442089758307147,0.0943454814973363
281,0.0944137064774307,0.09417692343715428
282,0.09438197857005705,0.09435756627437912
283,0.09442094611607009,0.09429698306317394
284,0.09438688920544301,0.09415734631039538
285,0.09439711836125735,0.0942535269902556
286,0.09442647870519845,0.0942548037974874
287,0.09440948669132378,0.09414580462010902
288,0.0943897124662769,0.09414953214499361
289,0.0944036088204927,0.09414502743105298
290,0.09443500292577522,0.094129344793926
291,0.09437702538119518,0.09415128291970458
292,0.09439645052778063,0.09419828766829025
293,0.09444555175676049,0.09416856921344831
294,0.09437841663865162,0.09418141757797423
295,0.09441283624842585,0.09414430667117721
296,0.09438985240735787,0.09412745341670353
297,0.0944020512947838,0.09440516242970608
298,0.09443924872935723,0.09412518114251421
299,0.09438858478725386,0.09432348778328749
300,0.09438726747278972,0.0942956342140614
301,0.09441436753034306,0.09431394911720326
302,0.09440373712115818,0.09421423676805225
303,0.09439380263550867,0.09419205609559073
304,0.09443229571770993,0.0943105530696491
305,0.09439967448810498,0.09426925491303464
306,0.09439105034577285,0.09440281198028513
307,0.09440944051082663,0.09415892015880925
308,0.09442405119764624,0.0940911980858918
309,0.09438907437258773,0.09411280519301814
310,0.09440377597614444,0.09426002036236174
311,0.09439324176044678,0.0942826607068317
312,0.0943762574115579,0.09428486349715336
313,0.09439076347757491,0.09428961559742007
314,0.09441666331865804,0.09423277337154067
315,0.09440176139215677,0.09438217490699786
316,0.09438400315664273,0.09418549934944584
317,0.09439543208522762,0.094222180856996
318,0.09441603121640299,0.09417309507363032
319,0.09439851337378259,0.09426559846563046
320,0.09440807754592263,0.09422975226989767
321,0.09440067337809516,0.09415758945688829
322,0.0943903710297067,0.09407329665174989
323,0.09439422587732331,0.0941773010116444
324,0.09441526478929199,0.09427244883639284
325,0.09439214348769207,0.09422754097050724
326,0.09442819695738103,0.09449108059634914
327,0.09442997138074738,0.0942683878171698
328,0.09437851141766011,0.09417394040580236
329,0.09439901395929422,0.09422290051133969
330,0.0943867276541049,0.09442173307960017
331,0.09441175423175406,0.09426888077275059
332,0.09438980364804264,0.09468829251337729
333,0.09441308548553384,0.09431986461945566
334,0.09439448788345194,0.09424244872961067
335,0.0944170858815229,0.09421130419130296
336,0.09438961789869577,0.09429574373230373
337,0.09441412686348724,0.09421488156964107
338,0.0944300279837194,0.09417802418252098
339,0.09436699945768483,0.09434070354643635
340,0.09442711923179105,0.094355099297172
341,0.0943636077252938,0.0941455439850394
342,0.09439898154837527,0.0941423720605936
343,0.09439060511849195,0.09419658109722122
344,0.0943981984691273,0.0941750280847207
345,0.09439605366376093,0.09423163874279164
346,0.0944252818417873,0.09495661157788304
347,0.09436925284439425,0.09416073074986263
348,0.09441727410844095,0.09424307938862148
349,0.09436440029197174,0.09432749467848225
350,0.09441508597535767,0.09426693444823127
351,0.09440193833600131,0.09415725248129987
352,0.09440998888785224,0.09429466587380339
353,0.09439368377462756,0.09430046752977296
354,0.0943937028150002,0.09414008687872913
355,0.09440337595262592,0.09418724798365852
356,0.09437578743238816,0.09436534550967138
357,0.09439738211836174,0.09419846928721821
358,0.09439319248000781,0.09442263342375443
359,0.09439672338221666,0.09412917211334255
360,0.09440553155567626,0.09432692423568717
361,0.09442569001270332,0.09417252748287279
362,0.09439697669302341,0.09415675555638846
363,0.09441058610161718,0.09469272417987343
364,0.09438310743128653,0.09415258654785043
365,0.09439259229732647,0.09425426885520932
366,0.09440571089371216,0.09414501112445471
367,0.09440551295900326,0.09413961274071575
368,0.09438729259988768,0.09421931362424954
369,0.09439079551626262,0.09427607708684835
370,0.09439175583118443,0.09426604650603003
371,0.0943925888549319,0.0941511130911587
372,0.09438716218197088,0.0942803953480984
373,0.09441010155778327,0.09425440624697339
374,0.09441133162719931,0.09417249517546174
375,0.09440503307550455,0.09416004307362257
376,0.09442128088894032,0.09412769759816265
377,0.0943585698940247,0.09428527399062546
378,0.09438445802322394,0.09422346299195158
379,0.0944038687867941,0.09415496020756468
380,0.09438834058569014,0.09423674858265631
381,0.09438893041438717,0.09442042043666343
382,0.09437460803108917,0.09449336391997883
383,0.09439016729414607,0.09430867963968155
384,0.09438643212334144,0.09432682151529106
385,0.09439769380098338,0.0943601235876708
386,0.09438386069630071,0.09425835871235441
387,0.09442999372355562,0.09433253098870227
388,0.09439188980763193,0.09437400017348255
389,0.0944011220835048,0.09422925400423458
390,0.09442207990861912,0.0943095993365278
391,0.09439366650011995,0.09429584251865215
392,0.09442341231482683,0.09456195060131393
393,0.0943873455788163,0.09417960990952429
394,0.09441279169979046,0.0941314215712314
395,0.09438829315151814,0.09419176769872867
396,0.09439800576947861,0.09432835663479901
397,0.09441901254151269,0.09411689808449598
398,0.09438112512123671,0.09412634976637486
399,0.09439518676399232,0.0941956951073426
400,0.09438218087327185,0.09416903581855424
401,0.09439976218280842,0.09429747702431848
402,0.09441188034667766,0.09424562713435623
403,0.09435910203283449,0.09419877116216292
404,0.09440804153478308,0.09417157279123164
405,0.09440485565818185,0.09417151863192044
406,0.09443881139337873,0.0942524639447091
407,0.09439307872613938,0.09415341380339677
408,0.09439536713534218,0.09429165301072663
409,0.09438773409890042,0.09425830792844436
410,0.09441176089320442,0.09425069442887708
411,0.094388906561809,0.0942415810692188
412,0.09445352495598087,0.09417297148337586
413,0.09436776959221903,0.09428315843148972
414,0.09441353565306781,0.09409867509340995
415,0.09438343164172294,0.09436586137564049
416,0.09441719475469525,0.0941965507950572
417,0.09439356615253204,0.09418696412065411
418,0.09439828433543086,0.09410075365838425
419,0.09438654174395412,0.0943085059241319
420,0.094397732569612,0.09418164209507542
421,0.09438316451369239,0.09436139561406438
422,0.09438514003424431,0.09424205333723641
423,0.09441006560322288,0.0942124274354237
424,0.09439701807620428,0.09427226637655482
425,0.09439058297817751,0.09413762537037752
426,0.09439882828141574,0.09418994358254872
427,0.09441128977649599,0.09497606099216413
428,0.094376615387835,0.09427493417248918
429,0.09440335730830733,0.09431183171159373
430,0.09442945734130964,0.0943078820159234
431,0.09436712019163356,0.09413224274635126
432,0.09439230999119466,0.094339211101643
433,0.0943754805709056,0.09443301269409689
434,0.09439092293846235,0.09415891818296467
435,0.09438154206787654,0.09456156375329139
436,0.09439739892832476,0.09414442461616145
437,0.094360138923168,0.09418877427655124
438,0.09438794397478767,0.09414082936701477
439,0.09439460045511393,0.09412100103749191
440,0.09439202606511249,0.09452311284751899
441,0.09436405521276281,0.09438026976354873
442,0.09440664712378352,0.09415937473243301
443,0.09436377139090539,0.09421199895353324
444,0.09443760587931346,0.09417616268406727
445,0.09436616233939366,0.09419218656013778
446,0.09441421775640153,0.0941676521510615
447,0.09438911757523494,0.0941214973978763
448,0.09437644137121695,0.09460821378485086
449,0.0944062001663718,0.09408757430460854
450,0.09439002931249037,0.09438357806831434
451,0.09440873872390468,0.0941217934393751
452,0.09438251532751213,0.09416262770766994
453,0.09438942165540562,0.09420090142252319
454,0.0944135259303877,0.09418159052906021
455,0.09437914860310505,0.09423094702077457
456,0.09441228907445161,0.09418219163272921
457,0.09435604331936005,0.09421275943611773
458,0.0943828241930877,0.09441788167631711
459,0.09440341056119815,0.09413168179466673
460,0.09437246252592806,0.09412780377040628
461,0.0943637632137294,0.09414313174343147
462,0.09440211969301951,0.09429003376493138
463,0.09440952461722085,0.09417860782701572
464,0.0943762456043828,0.09421254483940288
465,0.09441339616462005,0.09420493768488411
466,0.0943846128773775,0.09415234954058889
467,0.09439960514886869,0.09411389605916196
468,0.09441656413838732,0.09415091678864766
469,0.09437712716112892,0.09413948441666699
470,0.09438657732628328,0.09479579150723771
471,0.09439216854034377,0.09595953326763464
472,0.09439877012698389,0.09419659072946354
473,0.09439630542310784,0.094149891942763
474,0.09438404802688592,0.09408908835432148
475,0.09441315600399872,0.09416678719569495
476,0.09438271153506805,0.09449031918464727
477,0.09439729776778381,0.09425705918290997
478,0.09437192042621015,0.09420283665055822
479,0.09441265768760876,0.09412482224445975
480,0.09436679873868621,0.0942156585352385
481,0.09440100137635672,0.09406799408471199
482,0.09441366378995154,0.0941453904395698
483,0.09436048733459103,0.09410041298984823
484,0.09440617321087397,0.09421528127829484
485,0.09439553984468409,0.09426556117744453
486,0.09437453410000823,0.09415419323879994
487,0.09438683062517862,0.09421234996585086
488,0.09440336940433386,0.09411829396576607
489,0.09442377771190602,0.09412538039703114
490,0.09438090199391715,0.09417618735272205
491,0.09442399237915385,0.09425423113186715
492,0.09437095100204532,0.0942020196035422
493,0.09438063567883963,0.09425903475698563
494,0.09438689093557384,0.09413737777235381
495,0.09439786147478102,0.09418762992735255
496,0.0944003880166893,0.09435361378547613
497,0.09439294527081563,0.09424442740270446
498,0.09438988430906448,0.0941966467058461
499,0.0943737637421353,0.094219281022814
500,0.09440443054627744,0.09417155639642603
501,0.09439409006056454,0.09412660468560838
502,0.09440426289928046,0.09416710308384689
503,0.09437291177628424,0.09409723676088388
504,0.09439847229732026,0.09427877454985382
505,0.09439082936846095,0.09409906591664362
506,0.09440545067429353,0.09416267245231695
507,0.09437860087227287,0.09449503012736575
508,0.0943703161542126,0.09426341089989693
509,0.09436985025767514,0.09433574398248894
510,0.09440154117419661,0.09415079913768791
511,0.0943900448658007,0.09412942048759092
512,0.09440823820390576,0.09424423542823393
513,0.09439695942744934,0.09413346431814222
514,0.09438418605916506,0.09412451084900203
515,0.09436715541066502,0.09442592790348849
516,0.09441719102344924,0.0944395372622015
517,0.09439068886456635,0.09414240003408365
518,0.09438046895199828,0.09419311475429182
519,0.09438241657009609,0.0941592157122274
520,0.0943891817687465,0.09418088695785617
521,0.09439098614034988,0.09435314995008091
522,0.09436353261200645,0.09429055006017625
523,0.0944009455118915,0.09418568983615244
524,0.09441007317589532,0.0942103974256538
525,0.0943853033186911,0.09413605704374359
526,0.09437884317694617,0.0942064305119093
527,0.09438553060606705,0.09437790707682849
528,0.0944005689091629,0.09414814075641775
529,0.09439738283304573,0.09416484207667604
530,0.09438829649564365,0.094213382609265
531,0.09438853553063768,0.09444183479897507
532,0.09441353490860532,0.09436757430939949
533,0.09440074509365572,0.09421657368058564
534,0.09441050720348251,0.09414980519377725
535,0.09438071951127167,0.09416125977048746
536,0.09441764454702012,0.09428687119046439
537,0.09436989187908401,0.09420287988979983
538,0.09438004619259534,0.09409730168149145
539,0.09438266678393888,0.0942254067760993
540,0.09440166296825993,0.09426918272414166
541,0.09437165246735946,0.09409382006104951
542,0.09440390331198653,0.09413199169648004
543,0.09438455050928797,0.0945517577719011
544,0.09437551943184756,0.09427524869048699
545,0.0943958994141109,0.09412557572926135
546,0.09441821067203149,0.09444132775962118
547,0.09437412268025794,0.09433478504513415
548,0.09440309353035797,0.09420783549617762
549,0.09437766128914248,0.094431224343056
550,0.09438810157154104,0.09416132654344932
551,0.09439041933341087,0.09428587539419943
552,0.09440692380773459,0.09431361138891214
553,0.09438498850634916,0.09411841660926167
554,0.09440424957042404,0.09429189986192812
555,0.09439185745031428,0.09424269375197983
556,0.09440016037197135,0.0944538769013033
557,0.09438992903041515,0.09420924200937328
558,0.09437779918146266,0.09411559202182736
559,0.09440406924671978,0.09427747837816906
560,0.0943923476818416,0.09413401207400761
561,0.09439532814635267,0.09413386209211486
562,0.09437720684243811,0.09444051528174574
563,0.09441254528866207,0.0941585605139326
564,0.09437339787455581,0.09426624431394647
565,0.09439100650586575,0.0941143453932693
566,0.09437632409157418,0.09441589741675799
567,0.09440854296302624,0.09420589832758094
568,0.09441419758742375,0.0941036002270895
569,0.09439805178619404,0.09412533337075407
570,0.0943872475867077,0.094221131971669
571,0.09437931668784598,0.09432379694415907
572,0.09438771526697728,0.09409902910477737
573,0.09439769765729908,0.09422345825227679
574,0.0943758383685117,0.09426137253395102
575,0.09439297009119503,0.09425808775702517
576,0.09436062925892005,0.09420847978616381
577,0.0943854845446839,0.09413050676695267
578,0.0943844440839083,0.09417583985105686
579,0.09441865954122287,0.0941261376512267
580,0.09437671588729325,0.0942125074688901
581,0.09436453549231556,0.09423387967397025
