epoch,loss,val_loss
0,0.5846958198398243,0.5816946024930211
1,0.5779613150499069,0.5784621846587131
2,0.5771695283480918,0.5766715917338804
3,0.5765039619758505,0.5772981039643583
4,0.5761740933070609,0.5771221397236618
5,0.5758682544794543,0.5753092291928994
6,0.5756010483825199,0.5775151411002091
7,0.5753017470385146,0.5750727054203119
8,0.5751722369484193,0.5747605044256073
9,0.5750204979583765,0.5749169855792232
10,0.5749782729728811,0.5747870044436112
11,0.57490128278259,0.574904152122384
12,0.5748173793732786,0.5747145496290316
13,0.5747689270635271,0.574683113251963
14,0.5477515334011684,0.4331704794916858
15,0.4329319342871653,0.4328093777519302
16,0.43295250643696037,0.4334108002132577
17,0.43284356141732183,0.4326767259732665
18,0.43282685083538414,0.4327180416649092
19,0.4327845242294951,0.4327724013523783
20,0.4327928564726799,0.4325377072353221
21,0.43277729662458836,0.4326738011600362
22,0.4326960581848468,0.43277207380784655
23,0.4326901774014796,0.4324883471647504
24,0.43266524249514915,0.4327434151551268
25,0.43262426507491764,0.43255275189137044
26,0.43265838894387987,0.4324793326351838
27,0.4325795284053353,0.4325364878248636
28,0.43257720472818617,0.432382104266666
29,0.4325556560568502,0.43250979648038707
30,0.4325489408443478,0.43240157506306176
31,0.43254215541588426,0.4327675441506483
32,0.4325517040435334,0.4326350245523098
33,0.4325356288011519,0.4326577938667894
34,0.43251574632026946,0.4323016527568732
35,0.4324644591920459,0.4323247285841712
36,0.4324952510260022,0.4323763469756389
37,0.43248040783342356,0.4326876778904321
38,0.4324730363955617,0.43250906205650597
39,0.4324664598555006,0.4324320915319192
40,0.4324519595038122,0.43226105082715416
41,0.4324426563819688,0.43225049713705077
42,0.4324442816432843,0.43232554598126754
43,0.43239567535033135,0.43257132517196994
44,0.4324379270889339,0.4322850995264929
45,0.4324227841862224,0.43230161206893825
46,0.43241427610692956,0.43220939522345664
47,0.432380988367816,0.4322644293751965
48,0.4324070708471581,0.43241365374465734
49,0.43238213217456767,0.4329224210371155
50,0.4323816709455579,0.4332961143098457
51,0.4323632443807554,0.4323256746415169
52,0.43235655497673847,0.432592106338766
53,0.43235951241815396,0.4321517902479574
54,0.4323488547407052,0.43230828669467575
55,0.4323466907566902,0.4327063005852049
56,0.43233669534465813,0.43215064066219566
57,0.432340722174382,0.4322573287907073
58,0.43231675104094613,0.43223189670158085
59,0.4323449169018417,0.43239565158896054
60,0.4323090370820638,0.43243766626708263
61,0.43228299945627985,0.43225172406094836
62,0.43233623671207627,0.43330951631808695
63,0.43231663090991085,0.43270989859074577
64,0.43229757914041644,0.43223812775339737
65,0.43231109659131056,0.4322995280361649
66,0.43232252457799725,0.4322617662751645
67,0.43228607428281973,0.4323352077019126
68,0.43228936318549055,0.43229200885846064
69,0.4323143310388068,0.43245177873902524
70,0.43228249660435764,0.43221250836074204
71,0.4322953609903324,0.4322362381086752
72,0.43225413906729016,0.43223494902142223
73,0.4322744566993122,0.4322846270968245
74,0.43224971339303175,0.4323562697500508
75,0.43226697940820485,0.4322680401595
76,0.4322829443905523,0.4322514195004409
