epoch,loss,val_loss
0,0.30748297555625753,0.2947679226954581
1,0.2949514945154052,0.2946586525765601
2,0.29417636065212305,0.2929816962767476
3,0.2936253870614707,0.2946535629462959
4,0.293183703007607,0.2953749058116458
5,0.2928976683775761,0.2928599153351843
6,0.29271121461804384,0.29244510599460555
7,0.2923674807158558,0.2927054494101711
8,0.29212660423299935,0.2937163939399104
9,0.29192174035494306,0.2916392328129809
10,0.29181254403318946,0.29150277220877463
11,0.29151861160471765,0.29111690740135704
12,0.2914095671347518,0.29119370073893525
13,0.29133390436556045,0.2909689027381594
14,0.29122905365003476,0.2911326708775892
15,0.2911244412493572,0.290836363838565
16,0.2911287139315768,0.29100086183169344
17,0.2910397280826947,0.2907619829065451
18,0.290959511055127,0.2914235821284964
19,0.29095831780383735,0.29073054442926316
20,0.290890332190356,0.2907840385626327
21,0.290850943669617,0.2910627158788534
22,0.2908248890619404,0.2909972103298746
23,0.2908220294734752,0.2903913362298355
24,0.29071161133578094,0.29067146165790986
25,0.29071711134272266,0.29051349498793744
26,0.2907236397926637,0.2912375565646008
27,0.2906543649393377,0.2905348430496292
28,0.29066170614378256,0.2905347205421173
29,0.2906382112176256,0.2913431091137027
30,0.2905966037978102,0.290359495206743
31,0.2906061069471493,0.290834948132115
32,0.2905619731572387,0.2906967230381504
33,0.29054154250665054,0.2906881356653445
34,0.2905435725985231,0.29044596654901433
35,0.2905220863917284,0.290520018649752
36,0.29053823630576703,0.29079070240628924
37,0.290474009278232,0.29029936086451147
38,0.2904786348450965,0.29158715518473394
39,0.2904940974287036,0.2916692970260497
40,0.2904736702647359,0.29043139699966675
41,0.2904342303120063,0.29037180153962694
42,0.2904398316549691,0.29025268817953676
43,0.2904180683198253,0.2914635617443113
44,0.29042246779631165,0.29026314145873855
45,0.29039992159417993,0.291477254306708
46,0.2904251912937758,0.29030388284557807
47,0.2904046968932509,0.29033586851716336
48,0.2903912510805752,0.2901728912707298
49,0.2903479704379032,0.29063724916862793
50,0.2903618590801718,0.290113598951335
51,0.29032533487928935,0.2900886576169774
52,0.2903570652882078,0.29018806396583763
53,0.29036951445870274,0.2902588031132227
54,0.29034536935276534,0.29029709001628695
55,0.2903050594957205,0.29058405938870263
56,0.29028318948497783,0.2906682014021625
57,0.2903157215708862,0.29052377949577407
58,0.290274551986987,0.2903185637210202
59,0.2902892438487989,0.29060550454828343
60,0.2903121701970824,0.29089386893561103
61,0.2902462967285902,0.29009101997238235
62,0.29025976474086246,0.2901147707372386
63,0.2902426312030686,0.2902245214500143
64,0.2902467493574009,0.29018575868594737
65,0.290231159098406,0.2907299530121588
66,0.2902486386679001,0.2901968936470543
67,0.29022499412312797,0.290129134924181
68,0.2902316555525374,0.2901441167956842
69,0.2902552396750444,0.290603122418335
70,0.2902161216387493,0.2900888158133249
71,0.29022726141641775,0.290135073144146
