epoch,loss,val_loss
0,0.16933826555329173,0.166056305473259
1,0.15363872430172343,0.14241148773257253
2,0.12190819905948536,0.11134485099510874
3,0.10578734109201135,0.10114773718210367
4,0.10075224243476488,0.10017893519576075
5,0.09735991015440268,0.09378595444981573
6,0.09474664877315914,0.09718514581398101
7,0.09304496148305043,0.09213792618465778
8,0.09181812142048613,0.09062092722053859
9,0.09070583844572663,0.09047666868707974
10,0.08988478764351475,0.08891518135224619
11,0.08910524756794258,0.08864297279279226
12,0.08852606591960975,0.08783493814042426
13,0.08813123017980609,0.08649961316482009
14,0.08753785730823027,0.08705654998053391
15,0.08723221401840532,0.08646970224883362
16,0.08676728546066052,0.0860213457059032
17,0.08658542006646225,0.08773726976243201
18,0.08618720415045603,0.0856559543100835
19,0.08592843937902002,0.0866113751387182
20,0.08555615007632024,0.08429727514757412
21,0.08521511645667933,0.08409574980253617
22,0.08480875601275681,0.08510478740146675
23,0.08462018846954354,0.0845625081259027
24,0.08433085164474219,0.08592159844583672
25,0.08400813409336914,0.08353537339578491
26,0.08386311001084805,0.08424412493152594
27,0.08356368407804088,0.08213514837230701
28,0.08345448373572877,0.08317980558863348
29,0.08348392502862356,0.08219072963330645
30,0.08314185361590447,0.08301446620864844
31,0.08289423401614385,0.08364831490197193
32,0.08285030818638212,0.0842737863177697
33,0.08264273064212564,0.08262645295698649
34,0.08263440156411384,0.08162191801937875
35,0.08227569260064739,0.0814792683417389
36,0.08219069037401816,0.08197704870854655
37,0.08188259654562828,0.08121832183217884
38,0.08189777610055021,0.08154490423705382
39,0.08178331214460847,0.08076167723011438
40,0.08160816621671774,0.08150967404653062
41,0.08148834690268417,0.08121145418648684
42,0.08134528214552164,0.08116728596148952
43,0.08128006583576979,0.08072691925849868
44,0.08107698361269203,0.08200084754166473
45,0.08117252989667305,0.07983576198739391
46,0.08105082421180701,0.08055555026229498
47,0.08059508760793038,0.08132114726911407
48,0.08075583454830512,0.08055066450801736
49,0.08052107056886346,0.08178259444148014
50,0.08072217825062972,0.08016546591191966
51,0.08053883818744094,0.07963116953967522
52,0.0803522283580596,0.08421662535989846
53,0.08032487623385746,0.0813329859015072
54,0.08024346292096984,0.08057205330940985
55,0.08022187944249262,0.07983677284075663
56,0.08011382906215828,0.08076150567079005
57,0.08006158728196441,0.08217042148409055
58,0.07996651173340785,0.0797859288844518
59,0.0799735006141632,0.07948974509799747
60,0.07981054383943226,0.08056148831217223
61,0.07981030849294443,0.07943406892251732
62,0.07983383676286783,0.07936004758176969
63,0.07983509270676871,0.07956399282731726
64,0.07969411642910955,0.07954028481733119
65,0.07954445280208335,0.07935361294607371
66,0.07964173787370481,0.07945842074401326
67,0.07956542175019271,0.0791864787008863
68,0.07941968930032695,0.08008401307737266
69,0.07930147121137382,0.08004917756795292
70,0.07930724458099618,0.07890277358867394
71,0.07934199606501338,0.0804135257345867
72,0.0794208880161251,0.07833901369394203
73,0.0792439217707169,0.08087708895688613
74,0.07931239053533429,0.07915463478630293
75,0.0792450998919866,0.07924698012194621
76,0.07913548657269177,0.08039481721947862
77,0.07905962929760466,0.07941080050048402
78,0.07910358665061602,0.08034980637264015
79,0.07912224315409483,0.07942166443794005
80,0.07899948040852973,0.0795474680089773
81,0.07906562483456554,0.08096170668344639
82,0.0788530448041916,0.08163609661476193
83,0.07894326853754266,0.07907073936672424
84,0.07883160928502955,0.07985966134603799
85,0.07890175064568093,0.08025904486773919
86,0.07899197775649838,0.07884765343172083
87,0.0789291493878526,0.0790127284029873
88,0.0787558633043274,0.08032889773435983
89,0.07888675590175943,0.08240373829014544
90,0.0789088244283072,0.08139681064387409
91,0.07873948257976013,0.07823800544067293
92,0.07878871648101368,0.07888518813304214
93,0.07860680191575423,0.07911532790799887
94,0.07872852586495034,0.07859390652726957
95,0.07866513023902802,0.07817664939549661
96,0.07872386872760513,0.07942939910936
97,0.07854011231519327,0.07923506777502468
98,0.07859721997189834,0.0793876851610747
99,0.07867652856824091,0.07887462668176325
100,0.07866976284869825,0.07864832051708444
101,0.07850726357601052,0.07848688568503921
102,0.07860145559432992,0.08169268533476529
103,0.0784891384420217,0.08000450992850452
104,0.07859074892059478,0.07930538208401824
105,0.0784385940177481,0.07805526741865847
106,0.07844071445450447,0.07786561215929595
107,0.07838941318579659,0.07880618295657724
108,0.07837375582685964,0.08008265191360975
109,0.07834720078773073,0.07943673688483889
110,0.07840031586839163,0.07987332580698926
111,0.07828018611813423,0.07862160215084961
112,0.07826932323403994,0.07906789198406873
113,0.07835852036817888,0.07982024011703638
114,0.07828715014488624,0.0787817479215248
115,0.07819006415475831,0.07848773617158752
116,0.07820458826757785,0.07916366057493551
117,0.07829999597762258,0.07820831259929809
118,0.07806440130582336,0.07891505305509709
119,0.0780616130377774,0.07825605887781006
120,0.07810265216172539,0.07793933718878933
121,0.07813275253819986,0.07742795665048192
122,0.07817860083113362,0.08004167216735206
123,0.07792467926573116,0.07828404288507869
124,0.0780455045172501,0.07794309978745416
125,0.07786117380904521,0.07862438344334255
126,0.07800555045242144,0.07943158376749337
127,0.07797398091657608,0.07820854822991799
128,0.07801179299277831,0.07831962607412717
129,0.0779269012042611,0.07844472248708048
130,0.07785704652831618,0.07755721032471574
131,0.07778927184709102,0.0789591497360329
132,0.07788368500367329,0.07775984908969467
133,0.0777678857720726,0.08029378657379459
134,0.07774380837692611,0.07944202572107315
135,0.07769560312327421,0.07844676324917424
136,0.07775061491546667,0.07776256324561595
137,0.07759599580346581,0.07819473534156904
138,0.07761523960755594,0.07997600566734452
139,0.07770826420397502,0.07900644500113599
140,0.07768287894332127,0.07782365484879566
141,0.07767052500282443,0.0775136281479677
