epoch,loss,val_loss
0,0.1605358872660215,0.12601354367679757
1,0.1159632393999555,0.11190151584799177
2,0.10499752332165764,0.10113361632779573
3,0.09960951357156982,0.09637295494304401
4,0.0962540984427471,0.09454835352323783
5,0.09382769475543473,0.09139083490404243
6,0.09082595615077521,0.0914941603211552
7,0.08918128230225025,0.08799169159334883
8,0.08800883202065868,0.08712200717653885
9,0.0871913753840091,0.08726309877323453
10,0.08651028082625266,0.08708965368661337
11,0.08572561353958974,0.08509544206612163
12,0.08513879977270482,0.0876854932115924
13,0.08443173287938677,0.08522492556211078
14,0.0838750343424134,0.08444353454831811
15,0.08359082168979161,0.08544072064735161
16,0.08321156292344031,0.08235532430834865
17,0.08264486973821779,0.08433278968405192
18,0.08237093338010894,0.08098034590260858
19,0.08179602094926519,0.08161230329100606
20,0.08165083827481413,0.08178591840616231
21,0.08126182489357334,0.08171079421124743
22,0.08123893918014567,0.08134866644149974
23,0.08077159382221367,0.08119663111403326
24,0.08075515443180574,0.08251658762728901
25,0.08051682535876788,0.08136922892728456
26,0.08031180518634222,0.08033229593677498
27,0.08030018769690239,0.07920653998999679
28,0.07977944291341525,0.08065119147596525
29,0.07977955259942891,0.07930038020421494
30,0.07965319148330507,0.07863554790172328
31,0.07956044154975267,0.07845047883153257
32,0.07930441032367674,0.0784509551214521
33,0.07921680085757095,0.07911867071913727
34,0.07911742878288594,0.07856290966790012
35,0.07891784817630357,0.07948612196199947
36,0.07878371792577485,0.07889181203936821
37,0.07882629892830254,0.07974064301690156
38,0.07875329505445763,0.07942519687097659
39,0.07876452110675516,0.07800524261394151
40,0.07848390013473905,0.07859087459576633
41,0.07817040497249256,0.07901208287211268
42,0.0783933964245311,0.07803635108411756
43,0.07837711487410268,0.0785950894169417
44,0.07812217393633727,0.07837717787503605
45,0.07807644984962367,0.07941260614222095
46,0.07801750168815452,0.08016996419903066
47,0.07795175057267859,0.07821263903497762
48,0.07795017793660422,0.0785340873131681
49,0.07782885500274846,0.07925254387905817
50,0.07763476857450581,0.07900619072003046
51,0.077646754579615,0.07771019366183884
52,0.07759077543946018,0.07764584911668271
53,0.07760593877752947,0.07729792074293416
54,0.07752033983900199,0.07846489728569393
55,0.07732382822419483,0.07867919397043531
56,0.07723707711667162,0.07812519566001135
57,0.07729616863262224,0.07748809192819571
58,0.0772191742142122,0.0779335448375115
59,0.07725950466706737,0.07803134631282342
60,0.07711291498289635,0.07684714194045174
61,0.07689003134493294,0.07733329679105182
62,0.07695957403894522,0.07834233703373679
63,0.07700565545929458,0.07743332991676946
64,0.0767769892422386,0.07689662492896428
65,0.07676702303479441,0.07674200308160214
66,0.07671676554834252,0.07886984711027618
67,0.07670661561695241,0.07724850814854241
68,0.07652305952587472,0.0762925699538096
69,0.07646007781416157,0.07665429908421732
70,0.07651483821500277,0.07714349347219869
71,0.07647581387325172,0.07672906631127777
72,0.0762571498756176,0.07662203060116425
73,0.07641550537367246,0.07698034810886785
74,0.07625039591962283,0.07662631878559997
75,0.07614646413921008,0.07781889001577723
76,0.07611766849772901,0.07681264520874687
77,0.07612579554255092,0.0774376584341745
78,0.07612781450415669,0.07728574740938454
79,0.07599074980995522,0.07707019748522094
80,0.07584827666326528,0.07605258594301735
81,0.07585789442090579,0.0757095878310594
82,0.07599329667395399,0.0761374453420083
83,0.0759129227268214,0.07602907965703874
84,0.075815676702687,0.07656948808996612
85,0.0757689170210142,0.07642578157982223
86,0.07559711585286431,0.07741545074556956
87,0.07566431981908331,0.07869859045699572
88,0.07563745677785706,0.07779922837359142
89,0.07556097093821235,0.07654895177180358
90,0.0754181228939867,0.0759668839184877
91,0.0754705461102783,0.07619956518447132
92,0.07527877413290272,0.07623876766590564
93,0.07535191418205468,0.07549449790352332
94,0.07540109562012204,0.07641204208061654
95,0.07534983724695288,0.07573992783393221
96,0.07532454994031804,0.0755947211059388
97,0.07516269959164557,0.07634678565649773
98,0.07512002477738357,0.07776398344829716
99,0.07519717554597254,0.07661509199932255
100,0.07501534588302773,0.07703731480995124
101,0.07512908403526848,0.07750293703440106
102,0.07511935726073782,0.07658751893502015
103,0.07504971427895851,0.07515700458371018
104,0.07500429522992601,0.07549753339207793
105,0.07488877303714242,0.0753190803024964
106,0.07484171293243326,0.07555600893556629
107,0.0749445461986354,0.07551822678253017
108,0.07472619122443389,0.07665529945130384
109,0.07489782392984978,0.0764588476299648
110,0.07482114759416937,0.07544202499147089
111,0.07478468211094373,0.0755321285675832
112,0.07475871665361858,0.07519346855340465
113,0.07478561758260657,0.07534988146487892
114,0.07476266716441496,0.07599844256642439
115,0.07468397424307921,0.07624688548574377
116,0.07470867337902527,0.07552639739611013
117,0.07454730424353524,0.07499338346290825
118,0.07469768197066548,0.07538989881427945
119,0.07452746038254568,0.07596769513696358
120,0.0744008391556599,0.07543665135542749
121,0.07459861711072871,0.07461326643269943
122,0.07440050749897245,0.0753598490290843
123,0.0744144250071258,0.0757934487228358
124,0.07440111353765444,0.0760521534987478
125,0.0743403732305317,0.08017824533263744
126,0.07442431206000245,0.0760238732541761
127,0.07433374140939292,0.0753085877811051
128,0.07436801904314976,0.0748060355503713
129,0.07430514012678975,0.07567527845095168
130,0.0742876128016387,0.07484669750071045
131,0.07409550371859724,0.07566022554195252
132,0.07418433483425027,0.07515658904467859
133,0.07415441435753208,0.07490963921431572
134,0.07415297603281312,0.07551532333749104
135,0.07413140439775263,0.07530604984712956
136,0.07416660796663425,0.0761075515161377
137,0.07414828155697709,0.07549350584854855
138,0.07400533770745114,0.07524501352245104
139,0.07402654290362962,0.07548807043739347
140,0.0740610908576555,0.07657356353536729
141,0.07412161628423988,0.07454879110119775
142,0.07389148729377139,0.0747113296212097
143,0.07396340725929863,0.07568700319853965
144,0.07382343664140803,0.07501369567574105
145,0.07384933620648702,0.0753457816008007
146,0.07379706813790443,0.07487795230176846
147,0.07386724587418328,0.07515898522904729
148,0.07379458426518694,0.07452905041630156
149,0.07385386752855054,0.07450532341195691
150,0.07375674937508821,0.0747464866222578
151,0.0737224398355494,0.07478104419913836
152,0.07375865003514843,0.0749290788070144
153,0.07359563883561283,0.07522523314426317
154,0.07374354702061751,0.07568173940586985
155,0.07366441809704594,0.07723326977739854
156,0.0737856478559489,0.07506270180860761
157,0.0735589672438645,0.0752590644892037
158,0.07355145999641609,0.07538021979275768
159,0.07371194033062059,0.07494939851849605
160,0.07371904422173317,0.07459269345694085
161,0.07357484410680958,0.07588320320134719
162,0.07369663828823647,0.07431975632314351
163,0.07354044929543942,0.07473878143886774
164,0.07370899629460018,0.07779039654409324
165,0.07360701947219887,0.07425017777654729
166,0.07352280890483626,0.07497729669248791
167,0.07360083848331467,0.0740133612830349
168,0.07359800039258617,0.07510546569345015
169,0.07354984759438012,0.07476304788743296
170,0.07353294110445391,0.07501459483695089
171,0.07345628403358419,0.07430828801233774
172,0.07348436879328152,0.07591295449003096
173,0.07354477105642727,0.07600641269837656
174,0.07343168257665181,0.07471281621725329
175,0.07350237707642908,0.07509039794984586
176,0.07365446028357152,0.07437257498650633
177,0.07353932113997527,0.07522180095943565
178,0.07343485329546033,0.07472660068801555
179,0.07348829212692631,0.07476258214664815
180,0.07349318775438748,0.07427612703580122
181,0.07350419427708928,0.07434134716283594
182,0.07331062205590089,0.07415352271449181
183,0.07335183771268937,0.07437714619317067
184,0.07351693213409001,0.07539952167912985
185,0.07348673540812242,0.07707029902942424
186,0.07335259592948745,0.07463306933641434
187,0.07340585070288949,0.07628009374953677
