epoch,loss,val_loss
0,0.722651768711384,0.7196090089476138
1,0.7182528982351983,0.718145987206594
2,0.71783824162988,0.7177350063181989
3,0.7176720947794342,0.7174254295252097
4,0.7175282111185073,0.7174309301021378
5,0.7174512686270775,0.7174310876477149
6,0.7173745887254994,0.7174642928185001
7,0.7172659419680997,0.7170687698253035
8,0.7171858711214341,0.7169290212188701
9,0.7171080151898683,0.7169392554103293
10,0.7170312791071597,0.717298682718064
11,0.7169658190351096,0.7168260154298163
12,0.716934037471868,0.716783607508941
13,0.7168959324396275,0.7168136039087849
14,0.7168524851112541,0.7168412065387659
15,0.7168058013637086,0.7167169349956749
16,0.7167689630404083,0.7167079274766794
17,0.7167421488558953,0.7168617851680916
18,0.7166891788105114,0.7167246286389846
19,0.7166635396999262,0.7165420902574032
20,0.7165901773950377,0.7164192391684274
21,0.716502304099141,0.7164908023980948
22,0.7164461282797702,0.7164087966121456
23,0.7164171228457911,0.7162646876375374
24,0.7163981343012682,0.7163120106787008
25,0.7163752809397049,0.7164950366351504
26,0.7163628351647208,0.7162485694175322
27,0.7163359137003665,0.7163326263427734
28,0.7163258423857111,0.7162735224657556
29,0.7163208942054824,0.7162779752728957
30,0.7163080005102028,0.7165238865551818
31,0.7162918987738442,0.716328160963934
32,0.71628801238472,0.7164902121789993
33,0.7162666901149548,0.7162368336918928
34,0.7162690403274946,0.7162796433451158
35,0.7162571963100741,0.7163825719587265
36,0.7162456136330015,0.7162423109889918
37,0.7162652765285773,0.7163599155972672
38,0.7162359102972179,0.7162565005032655
39,0.7162433157536886,0.7161977046180895
40,0.7162335382294052,0.7165094106723889
41,0.7162136099546814,0.7161541524359369
42,0.7162183517451208,0.7169445960752425
43,0.7162206482755376,0.7163820485323298
44,0.7162090535278165,0.7161479479325912
45,0.7162086196762714,0.7161230925886566
46,0.7162045059792126,0.7164712633151866
47,0.7162171416472225,0.7161700234223832
48,0.716202182349393,0.7161178727007977
49,0.7161987782150988,0.7161465207045487
50,0.7161991206738019,0.7161721484832669
51,0.7161825366163517,0.7162237695665572
52,0.7161745776225941,0.7161788420996654
53,0.7161932480090542,0.7160840143636793
54,0.7161613280869306,0.7163605978707818
55,0.7161776677409624,0.7163520586401889
56,0.7161808532609973,0.7163975614176199
57,0.7161674096649288,0.7162375569343566
58,0.7161749696851785,0.7161877841866637
59,0.7161752786297283,0.7161497589376369
60,0.7161608306321706,0.7161694832534411
61,0.7161554559017903,0.7164948303409605
62,0.7161739705798817,0.7161513359907543
63,0.7161644724498561,0.7161748982540727
64,0.716162528594256,0.7161118732492622
65,0.7161499760766227,0.7167796506775225
66,0.7161413870970856,0.7160977933306256
67,0.716144152690759,0.7161570940656639
68,0.7161441638629323,0.7164656482914246
69,0.7161364079025001,0.716114331741191
70,0.7161502841613497,0.7160871145447194
71,0.7161406326452657,0.7162159040903039
72,0.7161324732323593,0.7162575671158121
73,0.7161470917745656,0.7161203508933188
