epoch,loss,val_loss
0,0.13799530464370316,0.11145145643141961
1,0.10675492671756484,0.10856397672563274
2,0.09980310099160343,0.09932766473174982
3,0.096327794783133,0.10428076258885949
4,0.09390925111570315,0.09210301790728463
5,0.09192210580370769,0.09032978834422588
6,0.09016604462534446,0.0879247397184372
7,0.0891626315901506,0.08746361918470108
8,0.08759353981394251,0.08804333544250753
9,0.08644394504342172,0.08686165312309715
10,0.08581035615646151,0.08553142715476583
11,0.08481148120215877,0.08441175733029695
12,0.08448561415037012,0.0851525741941284
13,0.08392438623574537,0.08321206281631816
14,0.0837547464112055,0.08195667455790948
15,0.08333374150112653,0.08226921138337469
16,0.08292105236714868,0.08249574708509681
17,0.08274272129583904,0.0826866121394167
18,0.08232512955854607,0.08257437533243714
19,0.08245227752509215,0.08125697354746811
20,0.0818612792023416,0.0818763990925796
21,0.08165329463088815,0.08192529035339284
22,0.08146359670889855,0.08205401896690909
23,0.08127106905775898,0.08083929245362506
24,0.08085091860851476,0.08067199336387976
25,0.08056701434283983,0.0804336771313517
26,0.08033121917774189,0.07988185622260233
27,0.0800202499738716,0.07985909180369034
28,0.07994744720185702,0.07840525003210191
29,0.07961901754027065,0.07961465872398973
30,0.07966829437418718,0.07920083894253369
31,0.07949975612934276,0.07874477166248019
32,0.07944031424860949,0.07985874986826043
33,0.07940757342111934,0.08020459966313455
34,0.07919657870659157,0.07880124630170779
35,0.07913134850764643,0.07968240743757182
36,0.07907373836409874,0.07859323721739554
37,0.07896607522088973,0.07903250482478745
38,0.0790729952709114,0.0782777109268877
39,0.07883525233604795,0.08007894641264497
40,0.07879785966079844,0.07962725848772981
41,0.07874897614631611,0.07883536110149128
42,0.07855640455128518,0.0792533197082006
43,0.07858614192511172,0.07997246491849866
44,0.07846180542269533,0.07913293089745359
45,0.07846327822886813,0.07933972357372492
46,0.07837424755955864,0.07829404001126514
47,0.07827171648898834,0.0786591659593523
48,0.07820560937304556,0.07937509187545728
49,0.0780797146653279,0.07784485886099912
50,0.07801477236420835,0.07765184100301331
51,0.07801685151202245,0.07833227193533043
52,0.07790816667295718,0.07744179085895382
53,0.07788328764622773,0.07974931849883153
54,0.0778458342248005,0.07787295229011966
55,0.07781039739001465,0.07783685132824161
56,0.07768348628973246,0.07828488099220077
57,0.07761669090711772,0.07772158035273588
58,0.07760040995565638,0.07852580063322341
59,0.0774603186939429,0.07846002505893447
60,0.07765148989791658,0.07724109120463615
61,0.07738228897909583,0.0777884160873316
62,0.07746550648309238,0.07722151034671083
63,0.07742414209028879,0.07817059428461136
64,0.07725652059353126,0.07849979537074678
65,0.07744699951599344,0.07721982735853929
66,0.07711576509773253,0.07691103037326566
67,0.07729906185070548,0.07747594475302448
68,0.07724992032265947,0.07689317619756197
69,0.0771853287144258,0.07728465623580492
70,0.07714899591219565,0.07710331621817856
71,0.07705415755425926,0.07761761333895084
72,0.07702137603970273,0.07739089537347221
73,0.0769299573242744,0.07744487199017192
74,0.07700694202787121,0.07752969269790957
75,0.0769588676450021,0.07638241247119146
76,0.07693594124909311,0.07765032276326314
77,0.07705196586265498,0.07719928225127994
78,0.07691266845714387,0.07713142084350658
79,0.07687940659874283,0.07814286294261516
80,0.07686084407472293,0.07691314514384376
81,0.0769098386415186,0.07638287625227022
82,0.07683456721550037,0.0771363020239042
83,0.07684080760580748,0.076851503972528
84,0.07675993767956599,0.07671781628214691
85,0.07680773847395238,0.07699941755006685
86,0.07669655918561091,0.07700794986992261
87,0.07666206925605909,0.07707173748140596
88,0.07682062539487422,0.0771596776529518
89,0.07667460946319084,0.07684175366207624
90,0.07666557422305278,0.07666211624816985
91,0.07660688896085313,0.0780839673601664
92,0.07663682890673779,0.07650579940666336
93,0.07660591243398765,0.07790820409472173
94,0.07661867621898126,0.0768115437485592
95,0.07663046612589575,0.07719943319301747
