epoch,loss,val_loss
0,0.14171366806202143,0.1138329079554927
1,0.10785984081115323,0.10313925737926445
2,0.0990885417227129,0.09605705175299206
3,0.09442244166746025,0.09273350489494522
4,0.0923975686859959,0.09284795680575572
5,0.09166047840055673,0.09315502637669111
6,0.09069051927531943,0.08873312489936133
7,0.09034913175403689,0.0887933691995907
8,0.08967171826270286,0.08833496885619152
9,0.0894473906983545,0.08878300664368693
10,0.08901168331751363,0.08933366193590922
11,0.08864950132379698,0.0883809404877516
12,0.08838709751253378,0.08888038147250121
13,0.087930186760567,0.08698940149533838
14,0.08749167529710528,0.08748464741866582
15,0.08715056166001742,0.08850569195915985
16,0.08683301959902605,0.08591709262679884
17,0.08670578278079853,0.08687118004554555
18,0.08633339861554672,0.08575690234861066
19,0.08608635026551917,0.08625134483312555
20,0.08593655852609437,0.08511861899206716
21,0.08572924533462188,0.08587106870436491
22,0.08549965920820086,0.08574201521225662
23,0.08560680089610942,0.08477694558594422
24,0.08510651810325472,0.08416282664753368
25,0.08499746683359011,0.08559415452089854
26,0.084847773972395,0.08382720104592017
27,0.08453393364236299,0.08375267833471298
28,0.08436863353505436,0.08522471296358346
29,0.08428999053618791,0.0858548431627212
30,0.08402856808060179,0.08342434167122427
31,0.08370399398334816,0.08306730274970715
32,0.08366831604954511,0.08372723646184647
33,0.08363003048421788,0.08400793755172796
34,0.0834016586074457,0.08284408705812826
35,0.08331780131223984,0.08270750715034475
36,0.0832231862208247,0.0830258888804883
37,0.08305155463731964,0.08282859672979445
38,0.08283937906290798,0.0822998858895846
39,0.08284596173423464,0.08241836874567841
40,0.0828151128386676,0.08263696513090181
41,0.08260067170407094,0.0824330793125162
42,0.08253000633990835,0.08263832673837174
43,0.08250495698821886,0.0825234906678608
44,0.08249278104940984,0.082044202865797
45,0.08228863954025019,0.08240989842278786
46,0.08218490218951267,0.0823973460839345
47,0.08216699850921938,0.08229342399918411
48,0.08202136309108449,0.08323834227495099
49,0.0820790391226877,0.08215742144853838
50,0.08191660416868184,0.08390423222525836
51,0.08176413120011462,0.08207159581832199
52,0.0817474934121272,0.08156852740286005
53,0.08170600454292981,0.08299369594965028
54,0.08164091892731253,0.08277963148268222
55,0.0816085412332679,0.0815168417786842
56,0.08151807385293536,0.08175946506244078
57,0.08144168675224288,0.08121127658535174
58,0.08131720110204309,0.0820100765887916
59,0.08129519302260858,0.08084452842216634
60,0.08116276569333072,0.0814775425136533
61,0.08132362752199154,0.0821506862013275
62,0.08093426398303548,0.08099906463776865
63,0.080854810401112,0.08101844433001786
64,0.08082740564244933,0.08312519995805348
65,0.08074233223324857,0.08255755475008163
66,0.08064266869937604,0.08016094198963482
67,0.08040542203573443,0.08142950078356946
68,0.08038603092183053,0.0824074544955424
69,0.08022257285814181,0.08063313953633935
70,0.08014613304272553,0.0812566629229645
71,0.08006440543013094,0.08112430451599599
72,0.08001793952014473,0.07950736727593259
73,0.079873254240404,0.08134274674260587
74,0.07988304985241867,0.08029779120355326
75,0.07991072237889967,0.07995082682770475
76,0.07975511767422847,0.07925695821310096
77,0.07959602909272263,0.08065203711501422
78,0.0796651867744994,0.0797961270210169
79,0.07948652146023058,0.08006660896850283
80,0.07948727615619276,0.08102289277773637
81,0.07940292312587242,0.08044738716286406
82,0.07930866097313691,0.0790099341283661
83,0.07932508115114194,0.07996580207688045
84,0.07927461479931154,0.07930843742106748
85,0.07906153969446669,0.0791667998169847
86,0.07909053668226554,0.07919753770674429
87,0.078890133058525,0.07932355561046388
88,0.07899265348050674,0.08003151076603172
89,0.07881876403523723,0.0785963385668641
90,0.07891718539814858,0.07937479002895781
91,0.07882132263813299,0.07872569830926417
92,0.07870246806281544,0.07894182618217492
93,0.078664288273823,0.08030394014368578
94,0.07863377073937936,0.0796437270957838
95,0.07860010095298889,0.08052531572858394
96,0.07842353009931577,0.07892521534013393
97,0.078495471178026,0.08503027357179532
98,0.07845485086932583,0.07856169863241186
99,0.07841098635823386,0.07888375433443794
100,0.0784205413155881,0.07826491654954536
101,0.07832053298428487,0.07888223792867684
102,0.07828055999734207,0.07852660111029154
103,0.07814102661171693,0.0795095624166446
104,0.07825796142816259,0.07829178868984762
105,0.07813578754134164,0.07837293965940736
106,0.07807939664333803,0.07797125026250891
107,0.07801081637855012,0.07880760609511998
108,0.07801175854573711,0.07840665353660844
109,0.07807230513603877,0.08023290092832693
110,0.07784607839743733,0.07946332448136718
111,0.07792098464462792,0.07772797422654576
112,0.07789362820834594,0.07944509113027204
113,0.07775324150001718,0.0794588940573981
114,0.07778354257907634,0.0786788721164462
115,0.07780414524296331,0.07835172977548083
116,0.07774776208804764,0.07781781136028228
117,0.07784828282255232,0.0787243450397889
118,0.07772810035786692,0.0788113889009426
119,0.07755027002087025,0.0781025339592775
120,0.07757297001629301,0.07925165609893373
121,0.0776566560224922,0.07767645004517387
122,0.07765291796609455,0.07736059412840873
123,0.07757229901800626,0.07852704224752137
124,0.07759943210198193,0.07731250349626352
125,0.07750671598682399,0.07834470850732131
126,0.07744907728148478,0.0772768456387165
127,0.07744847603877943,0.07910686737994106
128,0.07749354484583997,0.0783673212043109
129,0.07749948731266065,0.07793396982380534
130,0.07747033710578836,0.07773106726760012
131,0.07743696542544873,0.07804225057770242
132,0.07733885995350795,0.07724308737232431
133,0.0774049672672494,0.0800742447487178
134,0.07737405753385267,0.07735494432910796
135,0.0772204116582192,0.07853954866824316
136,0.07738447608011462,0.07761713007913335
137,0.07719219615045118,0.07758051782994353
138,0.07726713529862908,0.07948512872010839
139,0.07720640906646864,0.07742932149516442
140,0.07733212636328146,0.07817669630272513
141,0.0771491699875899,0.07776552535242241
142,0.07722436731247101,0.07680226278586068
143,0.07722000274054623,0.08008972205979653
144,0.0772666915979234,0.0775377311921741
145,0.07723015698288224,0.07765749556107202
146,0.07710361209996926,0.07764287836128665
147,0.07707548854944984,0.07694603159986714
148,0.07718879426934591,0.07742615084050607
149,0.07705353884551792,0.07869794612782764
150,0.07712521490039789,0.07702787821331332
151,0.07712619694363732,0.07827241043225115
152,0.07711272805468114,0.07841823264845547
153,0.07699653162576701,0.07851963692134427
154,0.07701842400895818,0.07788492859371247
155,0.07704948702320348,0.07777345278866533
156,0.0769730756996688,0.07777345408281085
157,0.0770049316442787,0.07809810900399762
158,0.07697943194930947,0.07715993130177481
159,0.0770010401277713,0.07811205433334961
160,0.07690856166691658,0.07709014019547562
161,0.07699510131174594,0.07811610933125167
162,0.07691446231677315,0.07685179535493661
