epoch,loss,val_loss
0,0.14519570001246976,0.11891464666456501
1,0.11123342443096797,0.10704224016471181
2,0.10419031769511332,0.10153499829857876
3,0.10000547116281876,0.09744248597261036
4,0.09713331341693773,0.10077863121151037
5,0.09514082205221255,0.09744422402482471
6,0.09409071319773997,0.09189091016799582
7,0.0936034011150359,0.09697896864810593
8,0.09310212880282286,0.09380647580765612
9,0.09271722537274238,0.09312491923496682
10,0.09260053333117933,0.09117239494033842
11,0.09189881317480084,0.09220713549305133
12,0.09161504199193075,0.09140700532248239
13,0.09097149354892543,0.08946037826777688
14,0.09031142784239599,0.08920760109613907
15,0.08963058820456707,0.08969132008756657
16,0.0890796518589787,0.08932569525008166
17,0.08845878423853323,0.09180824634972637
18,0.08772945024695411,0.08650765391644413
19,0.08711215268420046,0.08795659010744568
20,0.08623363261723445,0.08560419592534933
21,0.08572430388359045,0.08520826957657675
22,0.08530069337223381,0.08426779300787904
23,0.08470945530572214,0.08406146548817826
24,0.08451905287099669,0.08417906719017265
25,0.08415414720425232,0.08363079585079519
26,0.08388034455108724,0.08416970730123685
27,0.08370069637916323,0.08369426752808076
28,0.08331304272587395,0.08418501017629065
29,0.08300076699055273,0.08211147630074184
30,0.0829740080264268,0.08461129449067577
31,0.08283075996048847,0.08325544731788541
32,0.08258684088359687,0.08273831962725661
33,0.08252052542748722,0.08315190577847194
34,0.08234072852748571,0.0813219742243994
35,0.08227290106981094,0.08313659069038207
36,0.0819874840131511,0.08248061947432109
37,0.08196877020051746,0.08301968167792478
38,0.08177917451356652,0.08114434903298064
39,0.08159592285203272,0.08467853910500003
40,0.08165449436309138,0.08124842917357131
41,0.0814726011603339,0.08037419486652236
42,0.08149913711746305,0.0811246886257794
43,0.08121291065171969,0.08108083773265701
44,0.08123929685751329,0.08049606349753682
45,0.0811023101034784,0.08124559816370532
46,0.08098486094282098,0.08123935547567183
47,0.0808204768603424,0.08154652712141018
48,0.08069915042246265,0.08108218234245002
49,0.08060604632587068,0.0809293796458552
50,0.08040600030781302,0.0802693441103469
51,0.08040393864945321,0.07997455270059647
52,0.08030216707343471,0.08026680938585225
53,0.0802098810199463,0.07976462427646883
54,0.08010319325457596,0.08002263700621891
55,0.07996474192583947,0.07992499762078373
56,0.07986554856678107,0.07943837328562074
57,0.07997840103454427,0.08158986020842497
58,0.07979208540015444,0.08026090539418734
59,0.07984608425159578,0.08050622451615984
60,0.07966532941242908,0.08146522065102314
61,0.07960568970054424,0.07909091298766527
62,0.07960938285442709,0.08097267789817034
63,0.07952645272126961,0.08089904610631483
64,0.07948115440174643,0.07908868605349555
65,0.07938580618630496,0.0824797730587848
66,0.0794106151263424,0.08041891349530397
67,0.0794037311585494,0.07928398274088616
68,0.07923825747670309,0.07924847840227502
69,0.07920370773351634,0.08264214167228112
70,0.07925568339404973,0.08031848719338922
71,0.07902320295869472,0.07902016553926113
72,0.07906856072351938,0.0789183513864542
73,0.07897326100232452,0.08017085767339537
74,0.07894682179911083,0.08073963646039774
75,0.07900042275882345,0.0802044070314237
76,0.07887244034785865,0.07913211316018187
77,0.07894910757336261,0.07942586341877433
78,0.0788401778697103,0.07884734306234875
79,0.07884176948119402,0.08012486342017171
80,0.07872681232735428,0.07948430870514057
81,0.07868797153368977,0.07978260866909406
82,0.07878724006097257,0.08094910581783385
83,0.07870240160581762,0.08021715694932133
84,0.07858899722151359,0.07851993395362243
85,0.0785921846086063,0.07862561189802941
86,0.07852733872831952,0.07876494473248498
87,0.07860728336252841,0.07849551871160124
88,0.07846961399737439,0.0786803867621694
89,0.07854556302579803,0.07894679643675943
90,0.07838503203866935,0.07961659316463447
91,0.0783301606215051,0.07855732320223198
92,0.0784039054838945,0.07851443417166953
93,0.07819739959089719,0.07918581046700182
94,0.07833722581867356,0.07869063026777864
95,0.07836392596668706,0.0779983951310366
96,0.07818255356583378,0.0785840487066037
97,0.07829586331545853,0.08120280534176909
98,0.07823219278518952,0.07861764607743058
99,0.07806662626053638,0.07898289556095085
100,0.07806659397320807,0.07816462129095648
101,0.07810628590467007,0.07872853080554872
102,0.0780197516292954,0.07804283101120894
103,0.07797689312919774,0.07810460179674418
104,0.07792132875005911,0.07869278992671824
105,0.07799084681685615,0.0783482333344798
106,0.07790941439214122,0.07904258846645024
107,0.07783288376855245,0.07853739807017092
108,0.07785271216367845,0.07975175121507928
109,0.07793967760069424,0.0787065417387941
110,0.07783761745156395,0.0793014283696416
111,0.07776925707095003,0.08003635146186014
112,0.07774098175709024,0.07782639127511244
113,0.07764810152421174,0.07826464505630451
114,0.07765568812422356,0.07839017318880588
115,0.07760102655142287,0.07798778199898102
116,0.07758053028926351,0.07856656605974024
117,0.07766448823085739,0.0800528161689898
118,0.07767022700829418,0.07875564824188909
119,0.07759582763708472,0.07875230770474924
120,0.07766767985647173,0.08000465415917318
121,0.07758208386148117,0.07876480021340676
122,0.07753718943390815,0.07886233111986747
123,0.07759483952484793,0.07874676704628591
124,0.07755603394713488,0.07806662897540086
125,0.07746524963955807,0.07885136411851157
126,0.07748451370755906,0.07839383404914557
127,0.07740555129792147,0.07733829751351927
128,0.07731279027738924,0.07750993659789154
129,0.0775396872126801,0.07830383202278289
130,0.07737941317143618,0.07767894750937043
131,0.07736870745173939,0.07814263847122713
132,0.07737646885503666,0.07889777057372015
133,0.07727277062248492,0.07787073529683626
134,0.0773515987825915,0.07777683392499872
135,0.07732999111706516,0.0787123697900003
136,0.07734873934991986,0.07844373524262946
137,0.07719900167519964,0.07755913714838975
138,0.07727051316607952,0.07908645982186197
139,0.07721322231833128,0.07780932460913884
140,0.07711054619784127,0.07741765667206005
141,0.07723506936559589,0.07898446645023804
142,0.07710736350733284,0.07816132027147425
143,0.07703635138476204,0.07754490727896134
144,0.07705471017177253,0.07846583194161763
145,0.07712313188042355,0.07891605857658031
146,0.07714214218398235,0.07871697905933295
147,0.0770276155049116,0.07948361579374995
