epoch,loss,val_loss
0,0.13734784347210813,0.11865347849006393
1,0.10829673300410426,0.10322596451484832
2,0.1042070013338363,0.10591522158671254
3,0.09998925726254004,0.09930980763867239
4,0.09786269506557028,0.09668695627164012
5,0.096089054675799,0.09445883555166774
6,0.09433327474001675,0.09521653475817617
7,0.09345414135382993,0.09554239518884985
8,0.09238439133412403,0.09131788796289979
9,0.09130583105635469,0.08976539656261061
10,0.09053717495656421,0.08918364983116722
11,0.08956941461602473,0.08994581417987128
12,0.0886562948140844,0.08843800210701325
13,0.08805460903192437,0.08714189422929257
14,0.08769950541319434,0.08934058744099832
15,0.08725556895428502,0.08676326119204608
16,0.08679709440447181,0.08831093720259797
17,0.08645834179406756,0.08473662937027644
18,0.08577400088973647,0.08430876629819942
19,0.08545325609874742,0.08377546639581472
20,0.08502301951759812,0.0861574587543904
21,0.08466721693085469,0.08519391047747496
22,0.08440565861509836,0.08473250966140118
23,0.08406841751994666,0.0832395976959328
24,0.08413325763325864,0.08330886504120626
25,0.08384881992337706,0.08460209477997892
26,0.0834312589189279,0.08516710168744435
27,0.0831408641877544,0.08307932034393693
28,0.08289898176785632,0.08301737909355471
29,0.08276149699756381,0.08287945009268839
30,0.08225616976200491,0.08194955422845727
31,0.08212859343119958,0.08249711954120371
32,0.08188710341347644,0.08178091354982434
33,0.08167688689853896,0.08114881709624756
34,0.08152086704750901,0.08164763986398801
35,0.08152796945739951,0.08157577901413068
36,0.08135246952300232,0.08233279498021301
37,0.08128241401801371,0.07996528808295579
38,0.08097893629745263,0.08098956751024752
39,0.08111635835659646,0.08063775586800895
40,0.08086294346114306,0.08007035881428802
41,0.08064736065017314,0.07970658474169653
42,0.0804850998630163,0.07946454433368394
43,0.08064212285592462,0.07993902491206863
44,0.0804519303659411,0.07960208695816343
45,0.08021811825883651,0.08076680957087808
46,0.08014253327352515,0.08208184378688448
47,0.08014590568248192,0.08035897769717958
48,0.08006839554798935,0.08024900117819718
49,0.07983467866693866,0.08111866015395515
50,0.07981454175663191,0.07990993441038628
51,0.07955137427219693,0.07989139010385603
52,0.07948984010162446,0.0791188027219796
53,0.07940959647718698,0.07937704514037291
54,0.07942938177725004,0.07963138780286236
55,0.07935868737232935,0.07859463487236434
56,0.07920658592432447,0.07938765803578474
57,0.07919820506940696,0.07875096983005923
58,0.07903790999504612,0.07875685132023123
59,0.07899347021602902,0.07903792159654958
60,0.07895687904373419,0.0784881691224226
61,0.07885593958602806,0.07859969195671768
62,0.0787867228452291,0.07787194070094276
63,0.07874342196699477,0.07796572933052077
64,0.07856298016496627,0.07817342834126564
65,0.0785288625654131,0.07800248564768666
66,0.07851261192196231,0.07897273997589022
67,0.07854336387464023,0.07825993851529753
68,0.07839037162586764,0.07807631199768104
69,0.07825856134322086,0.07821414538707686
70,0.07825019334758285,0.07823401580081685
71,0.07819164431038643,0.07742969085353775
72,0.07825694270959031,0.07822258819273624
73,0.07807200249383159,0.07798949676766881
74,0.07813090453700454,0.07782233421212391
75,0.07805390857042063,0.07794722074240668
76,0.07801128141030325,0.07893806166077962
77,0.07797142124861438,0.07889851690374
78,0.07790368931556499,0.07742520043483148
79,0.07792311020013955,0.07898045717264819
80,0.07781115587116877,0.07876062227537851
81,0.07768999339097604,0.07833224348261694
82,0.07777499415146953,0.07905359749980363
83,0.07782530498686306,0.07776085498832887
84,0.0776976518907028,0.07859428938727817
85,0.0776392302155815,0.07759005060008087
86,0.07763692163896985,0.07858203506610234
87,0.0775039802872728,0.07735424783478304
88,0.07758534047435856,0.07798653317444378
89,0.07763159997227115,0.07694400724014337
90,0.07755676449341868,0.07903201117483026
91,0.07744718395727997,0.07702859133186174
92,0.07744360571041788,0.0769953863052813
93,0.07742511660756522,0.0776774687595462
94,0.0774880077048618,0.07809694347251438
95,0.07726179118577572,0.0773584299066818
96,0.07740648019627924,0.07839467600172861
97,0.0774166201521977,0.07776399048659997
98,0.07731913325484817,0.07706647522322298
99,0.07713542614912662,0.07810237631016866
100,0.07737732322850867,0.07874741339062342
101,0.07729841283099549,0.07823093656644632
102,0.07705748263002586,0.07734634213278963
103,0.07722625377125783,0.07722631276541253
104,0.07712718840785147,0.07933983935168008
105,0.07723424376394086,0.07815705360867842
106,0.07701702540617437,0.07803726462143526
107,0.0770468844637458,0.0775856538978463
108,0.07692003144394445,0.07905507370570754
109,0.07695690277304762,0.07753172846645043
