epoch,loss,val_loss
0,0.14313572213399134,0.060640665760591635
1,0.053769419758880645,0.049623434394362786
2,0.048230744593089625,0.04849409483132065
3,0.048195215095456934,0.048273962593821905
4,0.048027826248289204,0.04806076384780909
5,0.04800711247882397,0.04805523846607182
6,0.04805918146136234,0.048190957039665215
7,0.04803273757006958,0.047791060880591006
8,0.04794423139060763,0.047746828259590014
9,0.04792213448279386,0.04845144942802713
10,0.04788201612730821,0.048498527720958674
11,0.04786281129546303,0.04804358093013609
12,0.04787895829676629,0.047448357448111204
13,0.04781395126637414,0.048015334688262294
14,0.047842946037542904,0.04851738287352066
15,0.04789895497911649,0.047776024629844864
16,0.04778707250625157,0.04741277312529115
17,0.0477665154029616,0.04744217222249216
18,0.04778357333750081,0.04827358364623743
19,0.04782834122006556,0.04755382997519686
20,0.04775913651410243,0.047264177058165525
21,0.047705606031093854,0.04760888106562344
22,0.04775665980502427,0.047970929951204874
23,0.04770837688623525,0.04809768745806524
24,0.04771544948535905,0.047794295967377914
25,0.04766622410385871,0.047822824040546885
26,0.04766879131724175,0.047437563779651415
27,0.04765630948195736,0.047458144370834
28,0.04767048902672639,0.047608993153639825
29,0.047640996504959156,0.04821839430255502
30,0.047645446879388716,0.04741238100540948
31,0.04759485769174177,0.04790415060019154
32,0.0476699569236508,0.04823305692167948
33,0.04759012757808709,0.04758288691903816
34,0.0476753922442881,0.047534566207979266
35,0.047583963418249886,0.04771809216703405
36,0.047563261144774424,0.0474676130443882
37,0.047574679134227485,0.04744431068613573
38,0.047603008600114155,0.047716256422185487
39,0.04757302916861124,0.04809861079493469
40,0.04757732268032744,0.04766144145400673
41,0.04757585574676998,0.04747400653931506
42,0.0475645785932418,0.047563941500957496
43,0.04758018969322185,0.04779294389281672
44,0.04748890228825603,0.048773237478337894
45,0.047533058745266914,0.04788056344393679
46,0.047543128090296434,0.047518547121567715
47,0.047515021632615326,0.047614999371268375
48,0.04753493334350588,0.04747128162030263
49,0.04746237008882274,0.047331138207461765
50,0.04747725396061973,0.04830671297334834
51,0.04754187384520551,0.04752524338821398
52,0.04751597084760142,0.04757149070030888
53,0.04749806699373549,0.04848302301569256
54,0.047458587108637026,0.04734616229147448
55,0.047474812664133274,0.04747887921020471
56,0.0474858701059358,0.04759069592431011
57,0.04753707485388128,0.04782539716353544
58,0.047445166890295765,0.04829703076744794
59,0.04747149089632703,0.04779353153898477
60,0.04741289346909923,0.047252007837288945
61,0.047466564469402735,0.04751101938600416
62,0.047396920603528014,0.04904909954121852
63,0.04745688957037876,0.047410862060188776
64,0.04750561826586199,0.0475677346432877
65,0.04745684898377275,0.04726484422031687
66,0.047438208592964784,0.04751650174019745
67,0.04741415460940174,0.04741476839312721
68,0.04745019286227741,0.04749588577198813
69,0.04742130754645065,0.04745270878417622
70,0.04740587653492471,0.047236030843423496
71,0.04746624321894918,0.047341843403952276
72,0.04744142822498421,0.04725466895886736
73,0.04737324869002608,0.047439974668746686
74,0.04740353048794704,0.04754795894708893
75,0.04746517957710057,0.04708661800860512
76,0.047457037230046815,0.04744954924110173
77,0.04735398926227975,0.04775331397235817
78,0.04743412631950218,0.04734838178826771
79,0.04744192164281099,0.04801315845423264
80,0.04741923610786263,0.04802191464470048
81,0.04735626127395175,0.047194092089770434
82,0.04744032059582494,0.04756550170075451
83,0.047378036084113645,0.04729833084304876
84,0.04745286916919368,0.04708603805999824
85,0.047391824845632584,0.04749473647435726
86,0.04750161655813003,0.04730087266419004
87,0.04730774640447373,0.047302457244497824
88,0.04736834027313833,0.04752124879794414
89,0.04743177467565552,0.04725323377828383
90,0.047369898815783,0.047940055694910326
91,0.047429518068401365,0.04780784637124028
92,0.047407856118752895,0.04731041672856392
93,0.04740023550292333,0.04714604594760178
94,0.04743587607287055,0.04731736543581725
95,0.04741905742048693,0.04742143530730855
96,0.04739227288102599,0.047384650417807164
97,0.047388490619991036,0.04756218513684096
98,0.047315598253330454,0.04735995149614779
99,0.04739568570999505,0.04737490957754281
100,0.04737752170966779,0.04743902495199993
101,0.04744873140647495,0.04723081071497233
102,0.04733098316773903,0.047444959057181865
103,0.04739773479535235,0.04734511914550552
104,0.04737992962743405,0.047256557531096186
105,0.047369751632570935,0.048431079208427465
106,0.04737625446179502,0.04737365297273378
107,0.04734389856606603,0.04731836383419895
108,0.04737964115119714,0.04732168148012263
109,0.04741480377027028,0.04760162628475568
110,0.04739646128952789,0.04718769081201531
111,0.04737535869177106,0.0479404420666132
112,0.04735826934389264,0.04759713027982046
113,0.04738708955796359,0.04749077956626616
114,0.04733302635099772,0.0472165326710611
115,0.047388995964106895,0.048077141314791995
116,0.047425890336934326,0.04770178349002102
117,0.04737389943957757,0.04720165149177165
118,0.04738502442199501,0.047461120813097085
119,0.047367146101703554,0.0479958219352254
120,0.04732710213588773,0.04722879919346243
121,0.04739944745364378,0.04708187127722561
122,0.04730382339238263,0.04759462781385728
123,0.04741123026545099,0.04728053263208484
124,0.04735819175898981,0.04720697599303657
125,0.0473550013828573,0.04719649585171205
126,0.04735129585803794,0.047194107711291636
127,0.04737260697824921,0.04723471512499059
128,0.047310435676948724,0.047469188509936776
129,0.0473300997855709,0.04763105258510258
130,0.04735224253291802,0.04732338065059522
131,0.04735848543455275,0.047803916607490185
132,0.047336196372036836,0.047785953037152634
133,0.0473564216773287,0.0474830956448931
134,0.047331915455137034,0.047374606323623246
135,0.04742042321732624,0.047364007949170485
136,0.04727430321234498,0.048805748848296
137,0.04741039945722388,0.04750697503208926
138,0.04728236941577529,0.04720148261586511
139,0.04733294320198224,0.04766622300376644
140,0.04735477302941106,0.047569890583747
141,0.04734000167418584,0.04751931216741229
142,0.047339856063278556,0.04717328402066005
143,0.047303752990053904,0.04737463385019607
144,0.04737072091826575,0.04726760614525171
145,0.04731515769382937,0.04745240950252752
146,0.04735508725958334,0.04721814104383069
147,0.04729656427562665,0.04714309942527088
148,0.04734805897384477,0.04768893082685704
149,0.04729741206355423,0.04741323019518284
150,0.047323518902432624,0.04925544916019255
151,0.047409092361251896,0.047241687974594854
152,0.04730144890396001,0.04721105493893281
153,0.04727408998935438,0.04727013520867032
154,0.047358058169662806,0.04712709600154396
155,0.047311819568693306,0.047146993162200126
156,0.047295577445928806,0.047163685402982145
157,0.04728355535941063,0.047765798869689055
158,0.04734858573316861,0.048464009766161865
159,0.04729979579671205,0.04735583873155461
160,0.04731831075601298,0.0473665441750257
161,0.04733160588083317,0.04740987939505758
162,0.047367501368137194,0.04731027841356295
163,0.047309540560562836,0.047333646868520964
164,0.04726445494140748,0.04759387529345601
165,0.04735792903668827,0.04744239686308362
166,0.047342285501966466,0.04736327971519216
167,0.047323432933393236,0.04732789031002779
168,0.04733454793703547,0.04723002161204391
169,0.04735904194855337,0.04765131654719151
170,0.0473220366523039,0.04742598204616966
171,0.04727607645648275,0.04753751619979916
172,0.04735112964040894,0.04739979011518991
173,0.04733817297950399,0.04734222145182181
174,0.04729376173318385,0.04752941583683854
175,0.047306568836041396,0.047209708703698
176,0.047370664592233776,0.047393240713776805
177,0.047281260973662975,0.047947364029398844
178,0.047299788713895924,0.04735703110965388
179,0.04729078514583343,0.047267405694055104
180,0.047345495691223684,0.047344105116781894
181,0.04732640116191882,0.04721349439544761
182,0.04728714353014096,0.047699751351513824
183,0.04732015257705745,0.04782583335768829
184,0.04732629225152336,0.0474397000645735
185,0.04732154984530404,0.04744300897502956
186,0.04729689976466979,0.047165767093436776
187,0.047310224079864203,0.04734370023329708
188,0.04729602659057132,0.04720891018904563
189,0.047266810591951265,0.04731744420497833
190,0.04731888179745462,0.04733417520700897
191,0.04729848460172959,0.04747697684528702
192,0.047330305602648656,0.04733170325490745
193,0.04726941670945508,0.047391904416569784
194,0.04731423104945704,0.04723569819881583
195,0.04733578818623158,0.047081231535798275
196,0.0472714321957313,0.04738757158640622
197,0.04732610882192159,0.04710352960929874
198,0.047272868246006836,0.04729253738154176
199,0.04732165793827969,0.048503794093581756
200,0.04729234907540867,0.04794496804440501
201,0.04727791266279112,0.04710137556823766
202,0.0473484235981719,0.047418045901767646
203,0.04731047261122177,0.047200764699206164
204,0.047247165715773046,0.04785134161998177
205,0.04733985154141339,0.04783091720872821
206,0.04728957917317927,0.047544193984065924
207,0.04731107441236456,0.04729076945050175
208,0.04731752330528127,0.04729297777436432
209,0.04729065940165215,0.04742705108099503
210,0.04729792791203582,0.04725475189729572
211,0.047265738632967715,0.047311736516295784
212,0.04732429967086902,0.047176296863155096
213,0.047308552475701225,0.04790062432625017
214,0.04737486740906271,0.04739579832697347
215,0.047216422368975566,0.047308694547734675
216,0.04727074487520446,0.04772870295226057
217,0.04733758043649671,0.04722852515087602
218,0.04727415229342014,0.047207705720659306
219,0.04733310840267548,0.04727415496155608
220,0.04733999684560213,0.04722271825244978
221,0.04726206625012947,0.047605766520057026
222,0.047260996935476696,0.04836065090469422
223,0.047317169002182094,0.04736142082179543
224,0.047327085669866376,0.04748128258109375
225,0.047247074382136954,0.04814695658040216
226,0.04728361299718551,0.04724002933245808
227,0.04726863153528967,0.04746545680990441
228,0.04735901838929343,0.04719067378750258
229,0.047291908343192295,0.04728822691782121
230,0.04724350198061108,0.047318442759193016
231,0.04730191603034949,0.04764478643084476
232,0.04726024433154521,0.047275498283008185
233,0.04732780364735854,0.04727980855855306
234,0.04732052720844936,0.0472414680942599
235,0.04727757041998428,0.047376912451792444
236,0.04732026928197518,0.047163916547395345
237,0.0472372785675154,0.047645250895452386
238,0.04729260200653955,0.047157279758963326
239,0.04729363772508909,0.047049594497647736
240,0.047330064749677214,0.04720539461759572
241,0.047297456844461905,0.047241403588226864
242,0.04734625228845196,0.04745816932469254
243,0.04727452382933703,0.04727710015489628
244,0.04731936169584259,0.04722107807211078
245,0.04724963897054525,0.0479052464382895
246,0.04726671641000169,0.04719639967042062
247,0.04739410427661775,0.047511645740496426
248,0.04726759316049796,0.04720425289991623
249,0.047247260791077605,0.0474761679956738
250,0.04729273765058302,0.04746956990674526
251,0.047244198425270195,0.04755559276080828
252,0.04728758540585173,0.04712167202297307
253,0.047285027059016944,0.04737767050867487
254,0.0472611063908187,0.04786457180471146
255,0.0472922081501483,0.04728891296222536
256,0.047327603293146545,0.048319353941819194
257,0.04723890240398719,0.047174588445612266
258,0.04730523221022029,0.04716350614801108
259,0.04725624247343182,0.047166072320260675
260,0.04727833510356413,0.04750741534258497
261,0.04738503791463318,0.047144028895491207
262,0.04723317032422331,0.04729339207839382
263,0.047314836747116513,0.04752069383259824
264,0.04730516563889554,0.04749349529701326
265,0.047267040093358664,0.0472798613653516
266,0.04727877627948015,0.04732400105991228
267,0.04731754293675712,0.04862766434756808
268,0.047360340371537364,0.04721839483401017
269,0.04724863490356292,0.047551790547822534
270,0.0472636021164467,0.04719831905641608
271,0.04728612634721849,0.04733466868595335
272,0.04727072826326846,0.04776754595145242
273,0.047315723022265874,0.04724364809768352
274,0.04730113589023943,0.04779823252897424
275,0.047285581104379956,0.047235983752461054
276,0.047334440296693,0.04726952920949356
277,0.047257291814156,0.04748420546973608
278,0.04727306520546988,0.04715983054785156
279,0.04733991500981849,0.047515172373147674
280,0.04722752823955197,0.04710980205140249
281,0.04726849646150447,0.04728212077596946
282,0.04729589399733513,0.04748153873228989
283,0.04727689532650937,0.04793131406159502
284,0.04725618467336412,0.04707779974074654
285,0.04732661291236262,0.04715751853625231
286,0.04725163715700213,0.047094119693598786
287,0.047286436086793025,0.04716089893288281
288,0.047344776686373276,0.04756562126875394
289,0.04727196428987334,0.04734219930589716
290,0.047245720586032984,0.04851808319575408
291,0.04728766206315429,0.0472927717631646
292,0.047232998756886864,0.04712030698781232
293,0.04730348811327792,0.047230297483462656
294,0.047317734212993526,0.04739370881252714
295,0.047282034357031474,0.047198758226096774
296,0.047271457567012946,0.04713954117028565
297,0.04725407800234431,0.04739459756035549
298,0.04728691859973325,0.047227306240006706
299,0.047308529695149044,0.04711503662821714
300,0.0472895388635133,0.04776426838400708
301,0.04725857380387499,0.04811347833148776
302,0.04731287199893682,0.0471068441503238
303,0.04725988056334994,0.04725616456442398
304,0.047258562130703154,0.04731530905499078
305,0.047277756526673154,0.04714289030623229
306,0.047278329945928,0.04804244685415311
307,0.047273318096399786,0.047420020314446566
308,0.04729084717295915,0.04708308110861865
309,0.047232229316191705,0.04781415330535705
310,0.04731270360747735,0.04731057490785948
311,0.04727964140445018,0.04723493554927085
312,0.04729747057830592,0.04764718433287827
313,0.047222849733525994,0.04733526126291212
314,0.04734032696409286,0.04724818695668828
315,0.04719271406168036,0.047496625320028865
316,0.047303900965374054,0.04751130852674817
317,0.04732134939728976,0.04741645320344366
318,0.0472850123156818,0.047379762107754846
319,0.047236566719927375,0.047161205982658556
320,0.047228555511430105,0.04717403230122816
321,0.04727074820741856,0.047173293514710855
322,0.04729962439762412,0.047104300594438035
323,0.04730841241103949,0.047201007457586756
324,0.04729625564827908,0.047090766638305685
325,0.047229539930558416,0.04741825085741945
326,0.0472718799750296,0.047126065578014714
327,0.047313804216355344,0.04742234815044392
328,0.04722287613812158,0.04824989497214673
329,0.04725793763089904,0.04781109561824667
330,0.047265608262696525,0.04825096357181586
331,0.04731091586121028,0.04799427209685144
332,0.04728486509673553,0.04718142354180235
333,0.04724092619548694,0.0473519117757384
334,0.047334918167165146,0.04709712975462215
335,0.04721975906027688,0.04823877294007586
336,0.04724821743877719,0.047437650872645835
337,0.047322169120470395,0.04763440855711863
338,0.04726912096726427,0.04717885600233887
339,0.04723571382052035,0.04733978700842458
340,0.0473143336825448,0.047154332492750466
341,0.04727518604807764,0.04744597568508199
342,0.047348475567609384,0.047438953448184
343,0.047200087850971476,0.04731294215489958
344,0.04731403749814327,0.04723942959306272
345,0.04723099718163673,0.04723835441018524
346,0.04731149690078317,0.04725600021943485
347,0.04721985857853358,0.0472561882863199
348,0.04729419289012369,0.04865336361993178
349,0.0472406688258707,0.047557218269325185
350,0.04730423135633806,0.04788993790910389
351,0.04729226279965074,0.0472997201999154
352,0.04728054609015691,0.04762904029618875
353,0.0472295280444703,0.047054633845140734
354,0.04733360616965212,0.04732472203736618
355,0.04724876958129408,0.04751157002330955
356,0.047315905735694726,0.047116683665207264
357,0.047219215443344426,0.04755002316072783
358,0.04727503865343823,0.04748212436439018
359,0.047258286316284266,0.04756774793319469
360,0.04727909766393695,0.04731221225380239
361,0.04723941825097985,0.04722995903775178
362,0.04729376166916008,0.04722776065191699
363,0.04724512608955614,0.04877494456100953
364,0.04728650313904055,0.047600428858255904
365,0.047275501444078175,0.047247508477534284
366,0.04736475722579885,0.04714928128430951
367,0.04720835001181832,0.04703179641899483
368,0.047264566959189375,0.04746907637487647
369,0.04727712145401276,0.04781804076192317
370,0.04724765795734908,0.04760550656712422
371,0.04728912758818871,0.04721709474297894
372,0.04721569838218218,0.047344743452772155
373,0.047271135548274106,0.047234864236570855
374,0.047296668020941374,0.047111668033729695
375,0.04723560954068157,0.04713890539230845
376,0.04731012144230967,0.047245573346527334
377,0.047254738691958974,0.047231831832626435
378,0.0472386899090809,0.04761739203084522
379,0.04728366014995068,0.04724405945264738
380,0.047269110662414494,0.04725864784234889
381,0.04727501039364212,0.04709753445581178
382,0.04731707817626943,0.04748325468568042
383,0.04725795817508591,0.047287773161585535
384,0.047253057095620464,0.04777675098206645
385,0.04726170178213947,0.04744537244973544
386,0.04728957338275002,0.04756387199650812
387,0.047251839595709104,0.04726563723671126
388,0.04728456926520923,0.047243040401985445
389,0.04731211174044201,0.04706308446183577
390,0.04723267233688578,0.04725693218886335
391,0.047266439154303425,0.047234709894294895
392,0.047290143670795634,0.048593445259845436
393,0.04730238133131696,0.04717545179854535
394,0.0472245806713494,0.04900176976619975
395,0.047287693982727995,0.04714445033843534
396,0.04727123066973534,0.04736415169186355
397,0.047275634193651495,0.04777664963770496
398,0.047215006380475204,0.04725218293181346
399,0.04725458461651318,0.04758514005811363
400,0.04728129757590574,0.04721065026420539
401,0.04730835145147298,0.04753408382257892
402,0.0472017067725019,0.04747801819476633
403,0.04735944467595965,0.04753201336974033
404,0.047202272566971924,0.047250085352275345
405,0.04725916967314067,0.047200876446154144
406,0.04729395603342689,0.04771393146762814
407,0.04723132135931679,0.04721051393680998
408,0.04730713843769259,0.047247208872458646
409,0.04728347507657574,0.04783316806911387
410,0.047218028402371374,0.04708413977320023
411,0.04734231306047891,0.04715158276689175
412,0.04721865528594438,0.04710272652550579
413,0.04727761400379628,0.04719536428081773
414,0.04731496620914347,0.0471410475606606
415,0.0472165969156509,0.047472512536191905
416,0.04725800438238372,0.04763617061060907
417,0.047279646834559576,0.048255844434227826
418,0.047245175544199325,0.04726077241333526
419,0.04726146915845639,0.04718131054525029
420,0.047256626544608105,0.04718470037418646
421,0.04724848536189369,0.04811090555250786
422,0.047317418955463014,0.04745130759870432
423,0.04721296802580023,0.04744982752058105
424,0.04734725376619376,0.047244567088870995
425,0.047250251206074304,0.04721342294161585
426,0.0473091055115731,0.047163136476899285
427,0.04725828440301567,0.04720250226339677
428,0.04724960415799031,0.04729567564900409
429,0.04727234023003031,0.04728696464421999
430,0.04728162071133832,0.047037415938553324
431,0.04729973253526752,0.04721946395998314
432,0.047202085135139814,0.04720210449824488
433,0.04738310552377114,0.04725351858510685
434,0.04718903933378528,0.04755937377462824
435,0.04730228265430287,0.04772180097137931
436,0.04722937554281821,0.04725918675395759
437,0.04730128145052327,0.04727065848993709
438,0.0472659713698091,0.04713760885603332
439,0.04727779088063921,0.04715570677204121
440,0.04721145570683155,0.04733601044319517
441,0.0472634687653477,0.04733103172943266
442,0.04727518365388628,0.04741316565680711
443,0.04727764494216842,0.047671615268855744
444,0.04728255453828475,0.04723136462477031
445,0.04723652459972864,0.04748669224949267
446,0.047265942179434875,0.04722993343997961
447,0.047263173608304405,0.0471565079858384
448,0.04733006199218815,0.04723724445303124
449,0.04726258924247311,0.04722683321928639
450,0.047227837027703445,0.04762841431804783
451,0.04727727884976126,0.047468257243226814
452,0.04724225692218728,0.047142969169481214
453,0.04728071557597624,0.04709681721834941
454,0.04727346882772007,0.047631546934359455
455,0.04723304953667329,0.047693988886068635
456,0.04727158945896547,0.04776629706772652
457,0.0472549990468698,0.04742363441938383
458,0.047258661153147835,0.04780666904425471
459,0.04730483168791191,0.04738559977878429
460,0.047222914189088354,0.047410473756745
461,0.047321893283717636,0.047505162538697424
462,0.04718693878522499,0.04895766875056084
463,0.047308938571815486,0.04731602212024563
464,0.04723202644867434,0.04727606022555525
465,0.04726271913479939,0.047437543274383424
466,0.04723349881680797,0.04735086041472517
467,0.04727608423016007,0.047695684348892396
468,0.047207035316373235,0.047417598408253624
469,0.04730011189548518,0.04715643890772453
470,0.04733077640966069,0.047318760379149206
471,0.04723059733976706,0.04720211504490336
472,0.04726636927458737,0.04732018283729301
473,0.04723864430777556,0.04707024278502908
474,0.047246360613835706,0.04815623401454705
475,0.04728714339613772,0.04739192752101427
476,0.0472301210177769,0.047220532844856014
477,0.04723641795994376,0.047117879474572334
478,0.04727006557104971,0.04708747434611384
479,0.04731254273657795,0.0482476204780725
480,0.047250136660097794,0.0476138128060333
481,0.04725110424097351,0.047324680077131094
482,0.04727498932237581,0.04724701718907236
483,0.04724974327867361,0.0470779859817395
484,0.04727538032896465,0.04730919757659452
485,0.04720917295703261,0.04823161845978264
486,0.04726890690005321,0.047232784448454676
487,0.04727315000719209,0.04767779761597502
488,0.047334556208013724,0.04752967330232415
489,0.04726814231027564,0.04727754200314008
490,0.047183876956919495,0.04725963702306281
491,0.04728855227799915,0.047149700613217556
492,0.04731797885379012,0.04761909829024828
493,0.04722543851547628,0.04740257128108743
494,0.04724618481348554,0.04725943389624334
495,0.04731568811441973,0.04811083128780197
496,0.047240613972385534,0.04715649596317697
497,0.047293837812783526,0.04717666722816469
498,0.04720445581489235,0.047190825657032566
499,0.047283799595219625,0.04724631656693396
500,0.047240769981944875,0.04720146720016106
