epoch,loss,val_loss
0,0.10865424301475286,0.04922749637812376
1,0.04876349774748087,0.04845228535681963
2,0.04873425009474158,0.048955854780972
3,0.048629693038761614,0.04848189385980368
4,0.04858719822391867,0.04828437416255474
5,0.048561826787889006,0.04826771441102028
6,0.048540548730641606,0.04841441857814789
7,0.04857631289958954,0.04844876980036497
8,0.04851225548237562,0.048153594866395
9,0.04851274027302861,0.04843989733606577
10,0.0484224110506475,0.04798953350633383
11,0.04846079973131418,0.04840077866613865
12,0.04842622532695532,0.048045881167054175
13,0.04840062025934458,0.048282347418367864
14,0.04837321608513594,0.048463657833635806
15,0.048420623313635586,0.048025904282927516
16,0.04835788631811738,0.048635819979012014
17,0.048350734297186136,0.04861578607559204
18,0.0483339101113379,0.0481964063346386
19,0.04828915373235941,0.04808667673170566
20,0.048353740956634285,0.04800381328165531
21,0.04826488861069083,0.04955038265883922
22,0.04830327796190977,0.04847026843577623
23,0.0482836356125772,0.048293655432760714
24,0.04830454015731812,0.04812719199806452
25,0.0482481149956584,0.048209402956068514
26,0.048247000657022,0.04823333996534347
27,0.048253719601780175,0.048367976196110246
28,0.04820481182262301,0.04798484995961189
29,0.048261527355760336,0.048028363652527335
30,0.04821415584906936,0.04808575857430696
31,0.04821893310174346,0.04833010306209326
32,0.04822045842558145,0.048332746647298336
33,0.04823898614570499,0.048272856429219246
34,0.04820696480572224,0.04787685649842024
35,0.04820491935312748,0.048104886084795
36,0.04819840280711651,0.04799386502802372
37,0.04820579094439745,0.04805670979619026
38,0.04817966136708856,0.0489826542660594
39,0.04816326102986932,0.047996267542243
40,0.048154662627726795,0.048254240050911903
41,0.048162951271981,0.04813460671156645
42,0.04817415252327919,0.04792447777837515
43,0.048145847108215095,0.04797691695392132
44,0.04816768263280392,0.048308829218149184
45,0.04814405778422952,0.04795453878492117
46,0.04814578801766038,0.04783385059982538
47,0.04813100231066346,0.048168870769441124
48,0.04816513672098517,0.047826029628515246
49,0.0481454470269382,0.04793191912025213
50,0.04815331851691008,0.04796925547719002
51,0.048124440237879755,0.04803007539361715
52,0.04815262999758124,0.04801663997769356
53,0.04810360896959901,0.04792234112322331
54,0.04812767931073904,0.04798049680143595
55,0.048108419448137284,0.04791648953408003
56,0.0481086077131331,0.04838916867226362
57,0.04811290124431253,0.0481135600283742
58,0.04811071566492319,0.048180779062211514
59,0.048140218026936056,0.04788000945746899
60,0.04810344657301903,0.04786478807777166
61,0.04810437079146505,0.048073170967400075
62,0.04807885852083564,0.04788744650781154
63,0.048110811427235604,0.04781462198495865
64,0.04807787612080574,0.04796462396532297
65,0.04806611246615648,0.047902879111468795
66,0.04809085136279464,0.04969938480108976
67,0.048091767005622385,0.04875157952308655
68,0.04805327384546399,0.04773810710012913
69,0.04809534500166774,0.049849453903734686
70,0.04806644918769598,0.0479300804361701
71,0.04808511344715953,0.049154658317565915
72,0.048060495123267176,0.0478594119772315
73,0.048064009331166745,0.047791218228638174
74,0.04804540195688605,0.047973708279430864
75,0.04810319957137108,0.0477613755762577
76,0.04804186500608921,0.04795670478790998
77,0.048087027847766875,0.04777740180492401
78,0.048064054001122715,0.04784099236130714
79,0.04805776150897145,0.04832990529388189
80,0.04807278566807509,0.04783084961026907
81,0.0480634942650795,0.047907345362007615
82,0.04804120015725494,0.047905773110687735
83,0.04808250812441111,0.04793979657441377
84,0.04806010338291526,0.047981725297868254
85,0.048047731645405295,0.04792184767127037
86,0.04806519564986229,0.048297425709664825
87,0.048040804240852594,0.04901745104044676
88,0.04805630690604448,0.04811587791889906
89,0.048028154477477075,0.04796535741537809
90,0.048087943702936176,0.048273046255111696
91,0.04802751858904958,0.048069860354065894
92,0.04801221413910389,0.0482748990803957
93,0.04802837310731411,0.04798499858379364
94,0.04810897753760219,0.04814920981228352
95,0.04803776747360826,0.04782896719127894
96,0.04801457035914063,0.04796698922663927
97,0.04807741978392005,0.04832752400636673
98,0.048020050305873155,0.047878246009349826
99,0.04802720115333796,0.047763694912195204
100,0.04805331395193935,0.04771753805875778
101,0.04802607897296548,0.047911713249981405
102,0.0480379998832941,0.04792644669860601
103,0.0480496068187058,0.04778872013837099
104,0.048020113367587325,0.047860837034881115
105,0.04804084768518806,0.047979373216629026
106,0.048056136082857845,0.04787949685007334
107,0.04804614470899105,0.04855977389216423
108,0.04801327747106552,0.047894129753112795
109,0.04802741973474622,0.047784271769225596
110,0.04804145358502865,0.04798701083660126
111,0.048052358862012624,0.04780888044089079
112,0.048016840130090714,0.047961964845657346
113,0.04799363281577826,0.04776748011261225
114,0.048025546714663504,0.04791225952655077
115,0.04805286260694265,0.048047931618988515
116,0.048010982118546965,0.04778067616373301
117,0.04802080153301358,0.04786032374203205
118,0.0480406748354435,0.04791261288523674
119,0.04799968118965626,0.04777687755227089
120,0.04802271519228816,0.04800746939331293
121,0.048024791900068524,0.04785472608357668
122,0.048057904619723556,0.047954520665109156
123,0.04800076838582754,0.047778904043138025
124,0.047988123800605534,0.04882891423255205
125,0.04802633062750101,0.04793291263282299
126,0.048010642636567354,0.04796511758863926
127,0.04805067278444767,0.0478322139531374
128,0.04800010241568089,0.04812621150165796
129,0.048030846659094094,0.04790317285805941
130,0.048030114602297544,0.047729447722434995
131,0.04802070052549243,0.04778670463711023
132,0.04802963270246983,0.04801017029583454
133,0.04800887577235699,0.04820819699019194
134,0.048008082024753096,0.047948422722518445
135,0.047997981712222096,0.04817285768687725
136,0.04802903612330556,0.04774816549569368
137,0.04800955036282539,0.04772346826642752
138,0.04802544966712594,0.04795147643983364
139,0.04801767756789923,0.047773806735873225
140,0.04800155558809638,0.047833550490438935
141,0.04799612626805901,0.04827974397689104
142,0.048001122534275055,0.04794113962352276
143,0.048021105621010064,0.048077875003218654
144,0.048000687178224324,0.04842372705042362
145,0.048031347766518594,0.04804359333217144
146,0.0480186134763062,0.048013057701289656
147,0.048013779632747174,0.04817781095206738
148,0.04799698993191123,0.048131007805466655
149,0.04800928185880184,0.04777698486298323
150,0.048011605907231567,0.04773516529798508
151,0.04800831589102745,0.04776382454484701
152,0.04801020373031497,0.049160011634230616
153,0.047998987495899204,0.047676955342292784
154,0.04802532764524221,0.04794466457515955
155,0.04798418994247913,0.0482804506123066
156,0.04800842865929007,0.047725614868104456
157,0.048020035084337,0.04794908034801483
158,0.0479872673638165,0.04800748432427645
159,0.04800050353258848,0.049682478435337546
160,0.04799758531153202,0.04808582296967506
161,0.04800738983601332,0.04789318732172251
162,0.04800246112793684,0.04812614144384861
163,0.04799293850362301,0.04801471120119095
164,0.04802247150242329,0.04819809460639954
165,0.048009170215576887,0.04782519585639238
166,0.04796146566420793,0.0478733234629035
167,0.048012425366789103,0.04786341685801745
168,0.048019487872719764,0.04772328958660364
169,0.04800120278447866,0.048389419101178645
170,0.04801564219221473,0.0483447333201766
171,0.04797970533370972,0.04798964624106884
172,0.04800036583468318,0.04783669824898243
173,0.04802226385474205,0.04826930372416973
174,0.048008728127926587,0.047838292561471464
175,0.04797460917383432,0.048954317815601826
176,0.04800689265877008,0.048096083611249923
177,0.04800131306797266,0.04789433906972408
178,0.048014292787760496,0.047849290661513805
179,0.04798879607394338,0.04772463821619749
180,0.048013647694140675,0.047709061242640016
181,0.047989514011889695,0.047768523894250396
182,0.048029358748346566,0.047836399659514424
183,0.047990578401833774,0.048161126531660554
184,0.04798199486359954,0.04767099480330944
185,0.048008584070950745,0.04802357433736324
186,0.04800386492535472,0.04776738660782576
187,0.047991480242460964,0.047762875229120254
188,0.04800783515721559,0.048130148477852346
189,0.04798026995360851,0.04817162561416626
190,0.04800207519158721,0.047871469706296924
191,0.04799411302432418,0.047882992208003995
192,0.04799035578593612,0.04794819732010364
193,0.04801274872943759,0.0478970103263855
194,0.048001535344868895,0.04791103870421648
195,0.04797723761200905,0.04816557905822992
196,0.04803192245215177,0.047818202152848245
197,0.04798757257685065,0.04769891256839037
198,0.04799697768688202,0.04790992791205645
199,0.0480172238945961,0.047781402990221974
200,0.04796824103593826,0.04787208045274019
201,0.0480204143896699,0.04802845896035433
202,0.048001812919974324,0.047748708873987196
203,0.048019742157310245,0.04773307792842388
204,0.047953940398991104,0.04773391991108656
205,0.048007512003183365,0.04770531129091978
206,0.047982750870287416,0.047748738966882226
207,0.04800544330105185,0.04791178322583437
208,0.04798374085873365,0.047943942077457904
209,0.047971877980977295,0.047860789082944395
210,0.04798999816551804,0.04774841060489416
211,0.04799592145159841,0.04788965218514204
212,0.04800316231325269,0.04782713063806295
213,0.04797322461381555,0.04784568304568529
214,0.047987221367657186,0.04837967711687088
215,0.04799044634401798,0.04773260237276554
216,0.048009041897952555,0.047954140037298205
217,0.04798699738830328,0.047802748031914234
218,0.047981955111026764,0.04778070666640997
219,0.048000394493341446,0.04799099196493626
220,0.04796535040065646,0.04775111673772335
221,0.048023471262305974,0.047701798766851426
222,0.04799337038397789,0.04778135327994824
223,0.047982243798673156,0.04788156502693892
224,0.04797614683583379,0.04779854644834995
225,0.04800585912168026,0.04797681982070207
226,0.04796130982041359,0.047851238258183
227,0.04798425605893135,0.04784606214612722
228,0.047988000269979236,0.047688808657228944
229,0.047996135108172897,0.048167045846581456
230,0.04798253801837563,0.04796783713251352
231,0.047979116179049014,0.04775522537529468
232,0.04798010477423668,0.04801861803233624
233,0.04797165424749255,0.04793317286670208
234,0.04800720490887761,0.04770543735474348
235,0.047980028707534074,0.04774122566729784
236,0.04800367072224617,0.04790640479326248
237,0.047994973700493576,0.04771039643883705
238,0.04798053716868162,0.04803359311074019
239,0.04801045571267605,0.04785358778387308
240,0.04798059513419867,0.047807397700846195
241,0.04797876261919737,0.047838403932750226
242,0.04796316922083497,0.04771358485519886
243,0.04799361350387335,0.04790637061744928
244,0.04797688077762723,0.04779217804223299
245,0.047999847017228606,0.048235900595784184
246,0.048004335936158896,0.04862977176904679
247,0.04799458773434162,0.04805436342954636
248,0.04800646913051605,0.047849700286984445
249,0.047975689951330426,0.04800418826937675
250,0.0479841085895896,0.04816907278448343
251,0.0479799816198647,0.047837169632315636
252,0.04799006775766611,0.04789264465123415
253,0.047963529366999866,0.04772271533310413
254,0.04797039440646768,0.0479534952417016
255,0.048021337427198885,0.047722727447748185
256,0.0479872922077775,0.04791113837063313
257,0.04798365918174386,0.047665005952119824
258,0.047996332552284,0.04792542994767428
259,0.047973167799413206,0.048163054831326005
260,0.04797436502575874,0.04822627217322588
261,0.04801258797571063,0.04778617238998413
262,0.04799605980888009,0.047810090243816376
263,0.047975174963474275,0.04775380656123161
264,0.04799527707323432,0.04793713469803333
265,0.0480013732612133,0.048317939810454846
266,0.04795168314501643,0.04771195709705353
267,0.04796957346051931,0.04794174281507731
268,0.04801641803979874,0.048137918949127195
269,0.04794893737137318,0.04776673981547356
270,0.04797825459390879,0.0477074911147356
271,0.047988561913371086,0.04829919226467609
272,0.047999398857355116,0.047786586835980416
273,0.04799706015363336,0.04807208430767059
274,0.04799338050559163,0.04777449177205562
275,0.04799455336108804,0.048134218201041225
276,0.04797846902161837,0.04805773816257715
277,0.04800664343312383,0.04783623668551445
278,0.04799170295894146,0.04803767368942499
279,0.04798537921905518,0.047738229200243947
280,0.047968695908784866,0.04777779085934162
281,0.048009692903608084,0.047863988444209096
282,0.047950982458889485,0.048318696327507495
283,0.04798089050129056,0.04780817713588476
284,0.04800264156982303,0.04813616466522217
285,0.047968194134533404,0.04796756675094366
286,0.04798554000258446,0.04792261677235365
287,0.04797376725077629,0.04770468095690012
288,0.04800178821384907,0.047879821963608266
289,0.04797225027903915,0.04776224564015865
290,0.04797350536286831,0.04782636525481939
291,0.047964318696409464,0.04791770006716251
292,0.04799754071235657,0.04801564849168062
293,0.04796891660243273,0.04812112186104059
294,0.047979341708123686,0.04773100586235523
295,0.0479725986495614,0.047793324939906595
296,0.04797754516080022,0.050382514514029024
297,0.048004237912595275,0.04778226478397846
298,0.047977979939430954,0.048036437429487704
299,0.0479736989736557,0.047686314329504965
300,0.04797295943647623,0.0480428619235754
301,0.04797813390567899,0.04780545983463526
302,0.04799948151782155,0.04906594099849462
303,0.047969883650541306,0.04788561639934778
304,0.04798489774018526,0.04784611076116562
305,0.047980596229434014,0.04794737783819437
306,0.04797581620514393,0.04827658101916313
307,0.048003070551902054,0.04903324891626835
308,0.04798248956352472,0.04774699751287699
309,0.04798048711568117,0.0478022952079773
310,0.047979581002146006,0.047705318696796895
311,0.04797430445253849,0.04775893222540617
312,0.04796773458272219,0.04801402898132801
313,0.0479826215878129,0.04780258606374264
314,0.048001730676740406,0.04789203553646803
315,0.04794780426472425,0.04774815850704908
316,0.047996811043471095,0.047904802285134794
317,0.04797337856516242,0.048166761659085754
318,0.047999021638184786,0.04772116420418024
319,0.047974322237074374,0.047876474395394324
320,0.04794995716959238,0.0476802913248539
321,0.047959668055176735,0.04777620362490415
322,0.04797311666235328,0.04806446708738804
323,0.04797130914404988,0.048223654322326184
324,0.047962163399904965,0.047703573651611805
325,0.04801770455390215,0.047731102012097834
326,0.04796065198257565,0.04789261699467898
327,0.048027230981737376,0.04770357047766447
328,0.04795493506640196,0.04855152078717947
329,0.0479553312882781,0.04774127697199583
330,0.0479783720113337,0.048010138474404815
331,0.047992900393903255,0.0477032498344779
332,0.0479589259326458,0.04776429062336683
333,0.0480048664920032,0.047805158950388435
334,0.0479317486397922,0.04770666144043207
335,0.047972869887948036,0.04781067595630884
336,0.04799450017511844,0.047815976105630396
337,0.04797462607175112,0.04787938043475151
338,0.047978224232792854,0.04813947366923094
339,0.04796814692392945,0.04780934797972441
340,0.04799628823623061,0.04772061673551798
341,0.04799435168132186,0.048116667799651625
342,0.047974503472447395,0.04772510802000761
343,0.047982219003140925,0.048091762363910676
344,0.04796241144835949,0.049553247272968295
345,0.04798434910550713,0.04789934416860342
346,0.04796713582798839,0.04773657613992691
347,0.047970206808298825,0.04774331361055374
348,0.04799995549023151,0.04801411452144384
349,0.04796163356676698,0.04822135372459888
350,0.047964763473719356,0.04846637451648712
351,0.047964125871658325,0.04781830923259258
352,0.04797213829681277,0.04811004768311977
353,0.04798284182697535,0.04771862943470478
354,0.04797420232370496,0.04789206067472696
355,0.047983932886272666,0.04808995385468006
356,0.04794775580614805,0.047836499370634555
357,0.04796761736646295,0.04790757940709591
358,0.047974653493613004,0.0477962958291173
359,0.04797466035187244,0.047766526006162165
360,0.04796117755770683,0.048222384609282014
361,0.047973532859236,0.04773445286601782
362,0.04798217672854662,0.04782282357662916
363,0.047985147532075646,0.047955782659351825
364,0.04795824284479022,0.047802380859851834
365,0.047996702685952186,0.04808847411721945
366,0.04796616350486874,0.04792178615182638
367,0.04797106302529573,0.04780250369757414
368,0.04796420165896416,0.04811875531822443
369,0.047951357748359444,0.04813278868794441
370,0.0480083292722702,0.04774995118379593
371,0.047963497910648585,0.04775337160378695
372,0.048002080366015436,0.04795102868229151
373,0.047937811195850374,0.04773918978124857
374,0.04797881828248501,0.047740165464580056
375,0.04798631630465388,0.047735392071306705
376,0.04797519952058792,0.04791089953482151
377,0.04796959191933274,0.047865332812070845
378,0.047977978136390445,0.04795105177164078
379,0.047978849094361065,0.047732128724455834
380,0.04794157189875841,0.04773380704969168
381,0.04796789991110563,0.04781915351748466
382,0.04801497244462371,0.04775694022327662
383,0.04796811035275459,0.04773714129626751
384,0.048021668680012224,0.047656343184411525
385,0.04794286758452654,0.04780164109915495
386,0.047967099618166684,0.048307913094758986
387,0.04799378192797303,0.04794214982539415
388,0.047956578005105256,0.04794580329209566
389,0.04795883285626769,0.04776749075949192
390,0.047955932557582855,0.04777887514978647
391,0.04798607078194618,0.0483734188079834
392,0.04797307385876775,0.0478293269276619
393,0.047978904835879806,0.0480711622685194
394,0.04798614736646414,0.04831663451343775
395,0.047965537130832674,0.04777248425036669
396,0.04797844038531184,0.047789559222757814
397,0.04799347174167633,0.047803191483020785
398,0.04795290806144476,0.048166595220565794
399,0.04797225046157837,0.04778275518864393
400,0.047982765309512614,0.04793562565743923
401,0.04796080566197634,0.04891525407880545
402,0.047991808243095874,0.047864544741809366
403,0.047949047900736334,0.047809896551072595
404,0.04797021643817425,0.047999862253665926
405,0.04795305906608701,0.0477298486456275
406,0.04797990652546286,0.047746388599276546
407,0.04798155281320214,0.04779790214449167
408,0.047976050790399315,0.04791716642677784
409,0.047954267293214795,0.04778741542994976
410,0.047980586465448144,0.04790199752151966
411,0.04798755231872201,0.04783242587000132
412,0.047968305632472036,0.048144327610731126
413,0.04797658690810203,0.048242449074983595
414,0.04795773893967271,0.04806971384584904
415,0.0479675720743835,0.04772047164291143
416,0.04797924889996648,0.04806737204641104
417,0.04797938179969788,0.0477354409173131
418,0.04798509484529495,0.04769431890547276
419,0.04796111243590712,0.04853731908649206
420,0.04799020359665156,0.04773775254189968
421,0.047943647500127556,0.04814990323036909
422,0.0479667435772717,0.0477933494374156
423,0.04795277872681618,0.04773834529519081
424,0.04796923268213868,0.047971726059913636
425,0.0479889323450625,0.04799538580328226
426,0.04796792721375823,0.04822977051883936
427,0.04794986023008824,0.04954270488768816
428,0.04797321765124798,0.0477314602509141
429,0.047975755851715804,0.04795487694442272
430,0.04796265706047416,0.0477817830145359
431,0.0479766725115478,0.04769765566289425
432,0.047988297697156665,0.04779655514657497
433,0.04795403319969773,0.04776610777527094
434,0.04796934166178107,0.04803121078014374
435,0.04798725478723645,0.047772789277136324
436,0.047949972789734605,0.04770674531161785
437,0.04797860575839877,0.047851480647921565
438,0.04796025099232793,0.04797651097178459
439,0.047989051420241596,0.047677280090749265
440,0.04793887104839087,0.04835274603962898
441,0.04796382787451148,0.04773376219719648
442,0.04794220284372568,0.047787201300263406
443,0.047973402824252845,0.047947142265737056
444,0.04797754231467843,0.04792551567405462
445,0.04795253523811698,0.047875610455870625
446,0.047956590015441176,0.048365954771637916
447,0.047986152194440364,0.04777269402891397
448,0.04794999606534839,0.0476889293640852
449,0.04796369815990329,0.04784951526671648
450,0.04797591004148126,0.04790897529572249
451,0.047961734775453804,0.047831045031547545
452,0.047975696049630645,0.0477128339484334
453,0.0479723294377327,0.04824856286495924
454,0.048022193662822246,0.047730015501379966
455,0.04791348606348038,0.047805043280124665
456,0.047987532015889886,0.04779140219837427
457,0.04795968852192163,0.04788139120489359
458,0.047943080190569164,0.04773687595129013
459,0.04795065387710929,0.04829221393913031
460,0.047973007295280694,0.047745709985494614
461,0.0479703585319221,0.04785502050817013
462,0.04798229034990072,0.04773174276202917
463,0.047965221647173165,0.047749266117811204
464,0.047962043058127166,0.047886241771280764
465,0.04797864666581154,0.04767792171984911
466,0.04797160159423947,0.04773921804875136
467,0.04798262691125274,0.04776782424747944
468,0.04795443009212613,0.04828785137087107
469,0.048016068622469904,0.0480062513500452
470,0.047937776774168016,0.047807513274252415
471,0.047976278990507125,0.04775088192522526
472,0.04797917640209198,0.04792202617973089
473,0.04797397200763225,0.04770250990986824
474,0.04795654365047813,0.04779362856596708
475,0.047956922244280574,0.0477584470435977
476,0.047971279229968786,0.047670282140374186
477,0.04795750233530998,0.04789637921005487
478,0.047996283389627935,0.04780654238164425
479,0.047943470913916826,0.04777341824769974
480,0.04800419144704938,0.04815121448785067
481,0.0479903759509325,0.04788889080286026
482,0.047960608430206775,0.04782971992343664
483,0.04794785528257489,0.04829381850361824
484,0.04800840394198894,0.047936886310577395
485,0.047953997883945707,0.048179300636053086
486,0.04798811047524214,0.04794374337792397
487,0.04795006623864174,0.04823152741789818
488,0.047959577601403,0.04792842376977205
489,0.04796351628750563,0.047743726156651976
490,0.04797418612241745,0.04788214421272278
491,0.047953882746398446,0.047951769426465035
492,0.0479696904271841,0.04783280514925718
493,0.04794883367419243,0.04772589290142059
494,0.047974796950817106,0.04790618721395731
495,0.047979815773665904,0.04767782440036535
496,0.04796028746664524,0.04773283544927835
497,0.04798288188129664,0.0478811299353838
498,0.04799780346825719,0.047791818782687186
499,0.047934382166713474,0.047719466850161554
500,0.047974728867411616,0.04767045377194881
