epoch,loss,val_loss
0,0.4331182039482035,0.4269950424204121
1,0.4183981367569271,0.4150169456014505
2,0.4160164721744905,0.41088971542672276
3,0.39847797235782195,0.38951051175217977
4,0.38249790320674676,0.37570416271074986
5,0.37375704480780303,0.3663543940719508
6,0.35665906248666307,0.34814514693728377
7,0.3443939938581438,0.3438544856485835
8,0.34183373529133465,0.3364175358976825
9,0.33787541527994913,0.3378543267592541
10,0.33517384119361615,0.32984698936049167
11,0.33099029100627353,0.3234649457231505
12,0.3290071708502339,0.3267674487269386
13,0.32813584677082935,0.3247752464843154
14,0.3276341308494933,0.32427503607855507
15,0.3294863751519927,0.33824927951984735
16,0.33041653127597864,0.3231090208913928
17,0.34173276585092743,0.36352767725346496
18,0.34393818404891796,0.33378843693819776
19,0.3351893468881301,0.32654527972886765
20,0.33372881787000513,0.3313464890009979
21,0.33364708121898745,0.32979007307572356
22,0.333766415012445,0.3328755920504432
23,0.3359982125717197,0.3383402487567399
24,0.3379938449386022,0.33255591926230343
25,0.3391708593121726,0.3273388512179714
26,0.3348882423161412,0.3334543482233618
27,0.33311201093032017,0.33801129814340264
28,0.3337217949920421,0.3378614293324637
29,0.3326420841766871,0.33042456215540067
30,0.3326197267293358,0.33270496280530165
31,0.3327480794774066,0.32527230856403555
32,0.33309257328272057,0.33647926023557795
33,0.3315861656023063,0.33209647349983856
34,0.3314053862810516,0.3264752079651124
35,0.33394008559836663,0.326196904693331
36,0.3331808518263981,0.33426279596390457
37,0.3382248219540365,0.34744904728366716
38,0.3414887778526492,0.3416796893634096
39,0.3422230460363136,0.33667895590685065
40,0.3410511926757537,0.33573008789118575
41,0.3396254413717275,0.33834289581218663
42,0.3408660311981452,0.3445355729174219
43,0.3395365050477947,0.332946380093141
44,0.3325039206875219,0.3322620660113649
45,0.33658141990621787,0.3258896664243659
46,0.3315998058405807,0.32227745406394315
47,0.329494937825546,0.323000315591493
48,0.3298580648480274,0.322574076543385
49,0.327221536980592,0.31726324051359833
50,0.3273447064562238,0.4118698978974486
51,0.33523150869934776,0.3235799444055783
52,0.3268050283139987,0.3207189477186271
53,0.3264276293887318,0.32582276058695686
54,0.3270042911469698,0.32408839101361403
55,0.32573940770493615,0.3175977733112642
56,0.35211283683800676,0.40107509105715494
57,0.37543116586147357,0.3601908642966256
58,0.36028496840660523,0.3584700834003131
59,0.3570453222635553,0.34537340241948167
60,0.3548815917911575,0.35085475420095646
61,0.3518107186952274,0.3444298166714038
62,0.35006898424798827,0.34330798382117417
63,0.34958145464305207,0.34523628126380007
64,0.34834764564899706,0.3461946283938288
65,0.3485466357734468,0.34515253984278926
66,0.3476708198694302,0.347301072519693
67,0.3479072720372229,0.3401746804096046
68,0.34798714246967144,0.3418756738928424
69,0.34827375741337513,0.34817414326797624
70,0.34835598261641276,0.3440325923128775
71,0.3482619771520964,0.34883164084606877
72,0.3503058797044815,0.34903213041874964
73,0.34936553442316187,0.34940840849607313
74,0.34606406148627317,0.345042923031685
75,0.34440591364360446,0.34806862905115804
76,0.34453160030474006,0.33719964201937724
77,0.3417218531802785,0.3386757769331559
78,0.3396179910531814,0.3358905557087301
79,0.33783503758202166,0.3444054734664539
80,0.337036992083017,0.33227268622301653
81,0.33585691667027134,0.33173630168424784
82,0.3351439531448838,0.33021519919409
83,0.33526643451979216,0.3353783165552339
84,0.3353808829598099,0.3266723059888138
85,0.33752358518391967,0.3357383749126541
86,0.33794708805475876,0.33923773754508646
87,0.3395319498307127,0.3356466126917099
88,0.3396711713499684,0.3349995068329568
89,0.3422051849994633,0.34143993385494836
90,0.34307312266789464,0.33874070244505355
91,0.3433643524214137,0.34512527612785515
92,0.3430584220291613,0.33833522358416757
93,0.34740863005510814,0.33951536076174255
94,0.34039231722089025,0.3337117304882856
95,0.3315352521014871,0.328717382632096
96,0.3305620641516839,0.32848626679807735
97,0.3317801826458564,0.3298502934430656
98,0.3344077786191,0.33038877567016145
99,0.33510911199066945,0.3249066949431691
100,0.3354737376935667,0.33101094681725507
101,0.3350122960375177,0.3278040835000251
102,0.3356989536234896,0.33294474442313765
103,0.3360836471525504,0.3353158167101025
104,0.3373359539430681,0.34205647412725765
105,0.33677615664250177,0.334223511081186
106,0.3381302509900573,0.33176135929814454
107,0.33507885661223336,0.32332732833057476
108,0.3327791747226894,0.3299639363080004
109,0.3336305905291312,0.32778564238981084
110,0.3362012952030134,0.33187797045792383
111,0.33781156859261624,0.33232624773538855
112,0.33688464632137216,0.3270877327331898
113,0.33626662598525303,0.33856524204822064
114,0.3385569876808819,0.3349593592235773
115,0.3418819823865887,0.33657612002968507
116,0.3399391930868967,0.32979179951696763
117,0.3414639200654914,0.33552049724907035
118,0.34205602669268015,0.34674025923836954
119,0.3428541234643053,0.34462876493242095
120,0.34258101025907445,0.33351688660922346
121,0.341538204015683,0.33040545343317756
122,0.33815552942234456,0.33650121358594465
123,0.3402288480342435,0.33567117646207184
124,0.34021865489552444,0.33260944402161413
125,0.34115857479097744,0.3394598487967474
126,0.3411750283470447,0.3360101575209761
127,0.3414764845733353,0.34185541766359756
128,0.34120089682838994,0.33643589938543117
129,0.3428190478699194,0.3428890000508353
130,0.3458894927510255,0.342841827337819
131,0.34500645795505014,0.34393185281857036
132,0.34548197643791173,0.3392873628339903
133,0.34249742363068125,0.3482380165720701
134,0.343120349349259,0.33711821882858367
135,0.3446734764878984,0.34138222009343433
136,0.3474989194723723,0.3489169164633506
137,0.3466327112081716,0.3447916629094257
138,0.34651803236594686,0.34354288879584965
139,0.34576632563087295,0.3498260357079773
140,0.3454985246538735,0.3452150710426924
141,0.34626867423216695,0.33714675919785686
142,0.34002077466935565,0.3383263218515768
143,0.33876286476231116,0.3389947986922682
144,0.3425124898362312,0.3361254115225108
145,0.3376632535057388,0.3276584982495658
146,0.33766788861257946,0.34431861478603065
147,0.33821031230268817,0.33316574316845227
148,0.3348897085945717,0.3308000452728279
149,0.3332105649949359,0.3329384898753644
150,0.3338338949209113,0.3289392465973992
151,0.3382778344787568,0.33633147998644597
152,0.3398740452220686,0.33545327873425684
153,0.34015050741861,0.33396317931546315
154,0.34116333232318563,0.3308792244922296
155,0.3424396279404203,0.3372460892446039
156,0.3418177013321937,0.3330831945577567
157,0.339986953232214,0.3398325264500932
158,0.3395659286472247,0.337283354002656
159,0.3417443855405807,0.33326739912533626
160,0.34184010845603796,0.3399390189804801
161,0.3421105551872132,0.33674579055505
162,0.34052877211504035,0.3372171953873269
163,0.3418266466713781,0.33957782604135484
164,0.3420735416259411,0.33762409891448064
165,0.34026601030338677,0.3363736715482367
166,0.3409875520496822,0.3463070010847244
167,0.33948193072415084,0.33442994986308683
168,0.33899604233739666,0.3386401313326918
169,0.34040146552735,0.3389464841057394
170,0.34076180474625695,0.33502476822934757
171,0.3406641404096076,0.33671754763271267
172,0.34235316258278203,0.3444396106507144
173,0.33989057541608236,0.33654852724254086
174,0.3406263554660822,0.34265300647988506
175,0.3410154027904538,0.3341526927539657
176,0.3417146701297219,0.337745219163285
177,0.34241869160644917,0.33945502197309657
178,0.3426985179872917,0.3411975789347689
179,0.34210723628409856,0.341448419342948
180,0.34228465286828724,0.33993624703519065
181,0.3422604268439096,0.3379287484859799
182,0.34092863101205473,0.3339575525276192
183,0.3419149462327206,0.33705095838587773
184,0.3419465209833152,0.34364221066871586
185,0.3416091882341581,0.33958872572916554
186,0.34128521104081927,0.3318564379036474
187,0.3425552514638546,0.3351806786790455
188,0.34248871395556474,0.3401415472131314
189,0.34258252189313765,0.3377213864671779
190,0.3425689589598482,0.33637174073644954
191,0.3425374613474789,0.33881085602994404
192,0.3419732489257598,0.33260874770105403
193,0.34264838681828014,0.33424133615128715
194,0.34137652791161044,0.3326970717642565
195,0.34165450274277265,0.34169492849987515
196,0.34285368047934545,0.33808513531415785
197,0.3442606505253713,0.340689849893503
198,0.33991981850122566,0.3340231137969123
199,0.33566132003812194,0.32918970025752414
200,0.3337689807398809,0.32727505762979753
