epoch,loss,val_loss
0,0.5667539471780174,0.5619009471382624
1,0.5615596643158499,0.5601541682408123
2,0.5604348896997652,0.559730501407401
3,0.5600126510035539,0.5593539389879415
4,0.5597009015095776,0.5592181592190552
5,0.5594577758330384,0.5589613357015464
6,0.5591165691936968,0.5586947940712375
7,0.5589228726326589,0.5589002254928542
8,0.5588264532861376,0.5610475720669402
9,0.5587405996206457,0.5586704555221526
10,0.5586249787080331,0.5585155976477437
11,0.5585971410328602,0.5593434350867678
12,0.5584894237639029,0.5583147217219493
13,0.558529468542659,0.5582970179497903
14,0.5584394035852108,0.558228327586421
15,0.5583600920539378,0.5581674983676737
16,0.5583435526127777,0.5581707426748977
17,0.5583074047875665,0.558025189282422
18,0.5582827722640472,0.5581480198546744
19,0.5582440513937164,0.5580253406225623
20,0.558236117461245,0.558104630527145
21,0.5582073852147224,0.5580889998314134
22,0.5581988300327885,0.5583490379768761
23,0.5581502334217464,0.5586473106325136
24,0.5580907675816815,0.5586040801702463
25,0.5581006705987737,0.5579682111370955
26,0.558076254659398,0.5578731381601618
27,0.5580595723227999,0.5580417870888355
28,0.5580413708346729,0.5579756061406443
29,0.558020273324449,0.5578730669886002
30,0.5580429856229305,0.5579050113345699
31,0.5579782912742483,0.5579321893819158
32,0.55796423677375,0.5586832513340848
33,0.5579407597446825,0.5579557132631972
34,0.5579278389826862,0.5578502144239167
35,0.5579371645517056,0.5578370541641783
36,0.5578913500443607,0.5579855888726997
37,0.5578950217089369,0.557866364556569
38,0.5579026185018844,0.5578381436835097
39,0.5578935179185394,0.5578645788404096
40,0.5578651395546531,0.5578380962894401
41,0.5578735212943947,0.5579519142219712
42,0.5578455799875898,0.557779540613528
43,0.5578560080960175,0.5576971288009052
44,0.557814147358447,0.5584793933491982
45,0.5578407170252306,0.5578846224143389
46,0.5578261259973443,0.5578282138639468
47,0.5578155374363222,0.5578489044374448
48,0.5578350720468714,0.5577712014769494
49,0.5577966227618801,0.5577546015076549
50,0.5578153024778234,0.5578570046111745
51,0.5578066467662216,0.5577717088784077
52,0.5578009183475913,0.5577442253489749
53,0.557787929240629,0.5577544756819374
54,0.5577728563300121,0.5579096971617173
55,0.5577835648114288,0.5576635144221436
56,0.5577810583565851,0.5576524670557198
57,0.5577595493401564,0.5578455058746874
58,0.5577824029663316,0.5577913847247135
59,0.557757846917567,0.557743832835777
60,0.5577650907117307,0.5578820391914401
61,0.557756079560003,0.5579079887129418
62,0.5577505836041017,0.5576724636284003
63,0.5577643169742085,0.5598065017593726
64,0.5577761611629771,0.5584462408330756
65,0.5577502721404795,0.557777352866548
66,0.5577388097516299,0.557679972947543
67,0.5577215475003751,0.5579568926533082
68,0.5577340645002308,0.5577011134996667
69,0.5577676923509253,0.5576653854561473
70,0.5577246143557013,0.5577313720526839
71,0.5576926735080935,0.5576860595453689
72,0.557742821645862,0.5576865858637531
73,0.5577419848235001,0.5576380266638924
74,0.5577492814058757,0.5576197416778215
75,0.5576993175661878,0.5578889616788598
76,0.5577372806339812,0.5579601033388556
77,0.5577032831881076,0.5576026585341749
78,0.5577131984769879,0.5578795206135978
79,0.5577084956848318,0.5577264298791826
80,0.5576886988015404,0.5580124398801409
81,0.5576885125282993,0.5584249419457613
82,0.5577199118581628,0.5577423210624515
83,0.5577187427880332,0.557624871657541
84,0.5576877972800556,0.5577495753556864
85,0.5576982064852364,0.5580067173609643
86,0.5576865441575444,0.5578810243127988
87,0.5576867681134376,0.5576527174151056
88,0.5576755205942704,0.557596245663155
89,0.5576928025663656,0.5581362150303045
90,0.5577053077550935,0.5576059017007987
91,0.5576866674323198,0.557719453064169
92,0.5577095136015547,0.5575968488419039
93,0.5576756270829434,0.5579143307957551
94,0.5576732110646507,0.5576258539557173
95,0.5576939803172619,0.5579842325333699
96,0.5576649305278195,0.5576026675075278
97,0.5576838376439602,0.557611681751662
98,0.5576706749824014,0.5580048683107287
99,0.5576648630560573,0.5578258588699494
100,0.557677355272541,0.5576528944163848
101,0.5576708921620905,0.5579364219506203
102,0.5576601114626897,0.5575986821272457
103,0.5576715938129643,0.5576440214410328
104,0.5576536373910457,0.5575882137597923
105,0.5576589784246438,0.5576285122215928
106,0.557653284714882,0.557627297435012
107,0.5576575944359262,0.5586365217942557
108,0.5576666490486758,0.5575739755665705
109,0.5576456499363822,0.5577362450755209
110,0.5576440558072451,0.5581441441707921
111,0.5576438714819507,0.5578705316141179
112,0.5576461707019273,0.5575798432117457
113,0.5576476249125656,0.5576571056781089
114,0.5576549434575571,0.557616209863613
115,0.5576221700648666,0.5575502499031684
116,0.5576619528063377,0.5576697624740627
117,0.5576297891639532,0.5576957272635162
118,0.5576429639146926,0.5575926747940373
119,0.5576373910813534,0.5576030316193066
120,0.5576497393943101,0.5575695606722081
121,0.5576569908280219,0.5576303733167562
122,0.5576236626258779,0.5580218124005346
123,0.5576313223683854,0.5578364085891767
124,0.5576336332941847,0.5575955278138537
125,0.557648576002372,0.5576266496024739
126,0.5576357332544776,0.5576188200586312
127,0.5576449636706984,0.5575857055704045
128,0.5576613032199499,0.5575856162675585
129,0.5576258637145394,0.5575460137328174
130,0.5576459111450306,0.5577937743863322
131,0.5576406258761887,0.5575965474584055
132,0.5576205637625415,0.5580345666917786
133,0.5576366919546463,0.5576558515479191
134,0.5575998597604258,0.5577374673730251
135,0.5576219578360936,0.5576773399073907
136,0.5576319814969118,0.5576128872430607
137,0.5576239426644147,0.5578615951153784
138,0.5576253633706852,0.5580923575692013
139,0.557630763962389,0.5575848054143764
140,0.5576467392842592,0.5577830965838508
141,0.5576217602392045,0.5575603332304853
142,0.5576286262902582,0.5580925283232094
143,0.5576436758203875,0.5575350909047947
144,0.5576291950725514,0.5575382602920944
145,0.5576061203266206,0.5575740118102079
146,0.5576460585863348,0.5575590914197246
147,0.5576224641933802,0.5580444613657093
148,0.5576360479462722,0.5575387662074595
149,0.5576265245188758,0.5575561692303128
150,0.5576309684246168,0.5575827863673776
151,0.5576336914111488,0.5575575273775649
152,0.5576300025589701,0.5575428306346509
153,0.5576102347730091,0.5589436266476037
154,0.557623181272828,0.5577417268191933
155,0.5576314644904029,0.5579356191999594
156,0.5576237976605088,0.5575483586554567
157,0.5576225328948848,0.5585024465080745
158,0.5576059232546794,0.5576082780396387
159,0.5576338831559153,0.5575692569933108
160,0.5576112881968681,0.5575936821144272
161,0.5576077416153961,0.5576133954490918
162,0.5576292226644533,0.5575675209902838
163,0.5576005723346305,0.5576206094616271
