epoch,loss,val_loss
0,0.14143726418033598,0.11987610680727197
1,0.11338338883916607,0.10597254012098895
2,0.103429968974239,0.10099636907802416
3,0.09959513065811454,0.09787919289851466
4,0.09730266977857557,0.0952945366573983
5,0.09583087927256978,0.09422442462896949
6,0.09440676344867795,0.09420513061101671
7,0.09182404821414736,0.08929341795490586
8,0.08899121944269475,0.0858378138955773
9,0.08695078157551818,0.08540898970094146
10,0.0860744402731705,0.0881021944499828
11,0.08534906554540941,0.08385776256888333
12,0.08490548375511442,0.08407595070019513
13,0.08444443638035902,0.08409065998616211
14,0.08403810748353373,0.08362077014059022
15,0.08362272547578865,0.083015890048374
16,0.08318102908999815,0.0866198298172741
17,0.08300136238442263,0.0826902434576527
18,0.0825706725411352,0.0813612641702479
19,0.08204217593733446,0.0810990777491993
20,0.08189313568971184,0.08328266446051975
21,0.08144972460426876,0.08350727200089267
22,0.08136573564903456,0.08099278903715532
23,0.08078271011631645,0.081240151159741
24,0.0806716573032732,0.08042767456539977
25,0.08042287031065715,0.08038086038066865
26,0.07988856016652472,0.07847590006950622
27,0.07960082695894923,0.08011793397332688
28,0.0793443133493839,0.08020675742319269
29,0.07901544244330697,0.07959297387592278
30,0.07876843009700789,0.07873412585354796
31,0.07848699592737732,0.07845375952895803
32,0.07818712144332852,0.07803697671166805
33,0.07787759853076531,0.07739879387006819
34,0.07767763772919392,0.07754511820802863
35,0.07750056532424214,0.07981446972218878
36,0.07732968544433122,0.07699248568702544
37,0.07713537625768051,0.07628993229425549
38,0.0769978284513787,0.0759087963781367
39,0.07679080931020661,0.07629007865255204
40,0.07671723792889935,0.07554065000324404
41,0.0764697454631381,0.07575401609678609
42,0.07625759860529324,0.07547359184354747
43,0.07594911066409307,0.07571498930338301
44,0.07598122827807766,0.07610409805775682
45,0.07569711140280734,0.0769189629770019
46,0.07535552492633274,0.07599038259880976
47,0.07536505384152371,0.07699152791027523
48,0.07514707410229032,0.07454823333742232
49,0.07497838512430312,0.07445558296108039
50,0.07493667880945272,0.07434684125570781
51,0.07473656815143773,0.0743662724681098
52,0.07449137537964924,0.07502318735842158
53,0.07441250990421007,0.07452128705199898
54,0.07420685152508448,0.07561119654264235
55,0.0743004448993721,0.07510133364177354
56,0.07411165593712875,0.07419709848292966
57,0.07407457602834612,0.0732949000909127
58,0.07381350387904875,0.07432779078045705
59,0.07372994520742787,0.07413239688171042
60,0.07379838516799576,0.07300022734828708
61,0.07360929042197338,0.07343250889599096
62,0.07348817176356909,0.07324573687962953
63,0.07350440136170083,0.07641269220638242
64,0.07335488622486672,0.0730633746719614
65,0.07324013044950414,0.0737170400395244
66,0.073065807335464,0.07511653041336032
67,0.07306928236770807,0.07248091891766474
68,0.07292521471266981,0.07274537671008942
69,0.07267403844772191,0.0721574259869552
70,0.07267577518606047,0.0722524728818282
71,0.07249433508947246,0.07258789833266527
72,0.07258861236712964,0.07386638663326991
73,0.07246552796147683,0.0730185159590768
74,0.07236724394016927,0.07228797519505877
75,0.07238473140806956,0.0713870748978097
76,0.07220407323819902,0.07201704355150494
77,0.07211330859113492,0.07204002720268782
78,0.07210903543794374,0.07234135498593719
79,0.07207311622950928,0.07255862061983208
80,0.07190033787659102,0.07320205490235746
81,0.07212830861456768,0.07188265090868912
82,0.07184841799312791,0.073890743697586
83,0.07180375757099056,0.0723323104877959
84,0.07193967726572417,0.07203850107394988
85,0.07181321500577657,0.07203136841200525
86,0.07173781460637114,0.07312392530797474
87,0.07170861012249088,0.07361342757792393
88,0.07163365278600707,0.07228862685671264
89,0.07156519492064298,0.07190025724383059
90,0.07142931841070246,0.072549557266291
91,0.07156746638590418,0.07147285006514414
92,0.07131807575082438,0.0724396151741199
93,0.07130556029344647,0.0709221785799632
94,0.07117183062122087,0.07117018834932543
95,0.07129256158380502,0.07151867364773878
96,0.07121530649372756,0.07337573205921145
97,0.07116042771448063,0.07305005084405546
98,0.07110761753206625,0.07239335705359787
99,0.07103663276527078,0.07256864461404748
100,0.0709720269992082,0.07205045417842125
101,0.07094962158840958,0.07152346251729141
102,0.07085864346488484,0.07272860986145552
103,0.07082840230011027,0.07062892361851851
104,0.07092542564873976,0.07103489410609588
105,0.07075903409176752,0.07099235768428308
106,0.07074490829137671,0.07070896443856914
107,0.07060686226149608,0.07037583203790763
108,0.07059104043116504,0.07081799053764351
109,0.07079072267468249,0.071335642119819
110,0.07044687833916605,0.07129443756856198
111,0.07067759300560536,0.07152742976421862
112,0.07053710019506357,0.07086726531033784
113,0.07040425682330227,0.07052251470921692
114,0.07042202584751778,0.07090428734027537
115,0.0704346672035472,0.07102125623657275
116,0.0704711429997647,0.07088806783540563
117,0.07037138496799972,0.07058832558912853
118,0.07029559864797319,0.07125622498595338
119,0.07025269876657247,0.07139500311363002
120,0.07026747630949227,0.07063589520706286
121,0.07021462936752132,0.07024697529479484
122,0.07015624670433765,0.07061246519960665
123,0.07009496576613988,0.0701479586605938
124,0.070029989672101,0.07268250721959495
125,0.06995445260159612,0.07070040765115056
126,0.07016038552855526,0.07027808886139103
127,0.07003236938676471,0.07121744536411219
128,0.06994210429677397,0.06984304449269133
129,0.06999713559787599,0.07048008034243287
130,0.06985905592297441,0.07015361618892492
131,0.06987826075384349,0.07059739374910458
132,0.06986008335030847,0.07012871651954171
133,0.06973698521333722,0.07011894710931074
134,0.0698328083694544,0.06992367722983822
135,0.0697833782921815,0.07156700057897357
136,0.06968790038893503,0.0705171288999041
137,0.06957166985449256,0.07038073893237137
138,0.0696465880304542,0.07015845908672304
139,0.06969542992600568,0.06941354371623869
140,0.06961639545793274,0.06992548002305486
141,0.06957468827821017,0.0704168605110736
142,0.0695622865037499,0.07010768275197411
143,0.0695470543298797,0.06958670090403002
144,0.06958956941876952,0.06968263111480867
145,0.06955679503073409,0.06968575364905481
146,0.06948851834046005,0.06949102981597284
147,0.06948854576244896,0.06983049695446734
148,0.06940732138843815,0.07040298369911165
149,0.06954145433091229,0.06929823460626199
150,0.06944247399441004,0.07001772021340277
151,0.06941027674149007,0.06931088929701575
152,0.06944880592798931,0.06953172093561685
153,0.06943544207896364,0.07022674021449982
154,0.06935327441817361,0.07042301483617967
155,0.06929019010267756,0.07065099278399542
156,0.06930429095256888,0.06996374859505511
157,0.06932980188789083,0.07063454886632475
158,0.06922469580551703,0.07013236824112486
159,0.06922223993600733,0.07001527311149923
160,0.0691648475135634,0.06955438913599696
161,0.06921634103018519,0.0732253178500369
162,0.06922642816102481,0.06943619702847274
163,0.06919690732612938,0.06916415922098809
164,0.06922396661601031,0.06973509563404368
165,0.06910758108181433,0.06931548570536404
166,0.069120030090038,0.07122481106997142
167,0.06915964566616005,0.07013744167387201
168,0.06897544175412755,0.06983673958705638
169,0.06909807311183246,0.07046870918042587
170,0.06914118248634199,0.06891709625631055
171,0.06908249252510117,0.06991883013642969
172,0.0690447746332337,0.07080812250542484
173,0.06907612580818563,0.07019304644304011
174,0.06902407032084763,0.0703174670501817
175,0.06910685495327867,0.06870622773593676
176,0.06905238737696683,0.07031974426062643
177,0.0690049512430913,0.06967728805197446
178,0.06897755004670915,0.06971435858433978
179,0.06894234286076163,0.06901472156143565
180,0.06900069228431932,0.06973066039789247
181,0.06896276187936504,0.06969745752971211
182,0.06896120932347372,0.0688643361302322
183,0.0689936031320394,0.06935472457853219
184,0.06898312009838714,0.06948997404580744
185,0.06899307356913272,0.0696012987155507
186,0.068968187604447,0.0696154919538599
187,0.06894388283410148,0.07030110956788328
188,0.06882592206696547,0.06934745474816864
189,0.06884979379934876,0.06893054566649155
190,0.06876340270065295,0.07000157554237989
191,0.06876873081963865,0.06916578406429875
192,0.06882645115375616,0.06972790972062126
193,0.06873325171947046,0.07147062044370045
194,0.0688349276166704,0.07079509577015969
195,0.06876690360986919,0.06986750771151197
