epoch,loss,val_loss
0,0.12079405010077257,0.10793595196854051
1,0.10420406406583155,0.10094167892234712
2,0.09914753150211128,0.09747778519050969
3,0.09345072340277277,0.09021426858586017
4,0.0888472938721566,0.08770945934971892
5,0.08714036394968357,0.08710629600905531
6,0.0862464941759267,0.0855309317065635
7,0.08551981271033439,0.08527333546374855
8,0.08505886746419794,0.08417882673544118
9,0.08455171470924122,0.08308031230162766
10,0.08415482257790101,0.0828812480237875
11,0.08320508978681793,0.08228823545464158
12,0.08260662705561056,0.0818777908804006
13,0.08224661992309489,0.08292866160518379
14,0.08212394322088146,0.08135968000104934
15,0.08185051913053233,0.08164082973490296
16,0.08157743456741089,0.08120033128208654
17,0.08125188724355706,0.08072744552398062
18,0.08098751409309793,0.08290746857568784
19,0.08069236155203746,0.07942651285514371
20,0.080478416943592,0.07974634587567146
21,0.08017194217173025,0.07914472174899803
22,0.07979594268074795,0.07879536930363397
23,0.07956749795089609,0.07846689083679566
24,0.07929959290414226,0.08070454320859839
25,0.07902302835164876,0.07808507731894576
26,0.07886484313222529,0.07859381240104396
27,0.07867668765598296,0.07939239626412252
28,0.0784324998486889,0.07784651503486303
29,0.07835733289017643,0.07911644003544656
30,0.07821761031936213,0.07835930201796022
31,0.07804180215651635,0.07808232408508538
32,0.07782606205344417,0.07720585136437853
33,0.07767435814785362,0.07780390411079384
34,0.07752251546111809,0.07758215254792973
35,0.07726161934044566,0.0776678154652334
36,0.0771073094267818,0.07782173675835624
37,0.07686050502864876,0.07668187814441223
38,0.07662056439463504,0.0772452932741503
39,0.07617461192343197,0.07636109127711735
40,0.07615009705960067,0.07603970337738986
41,0.0757715914990551,0.07556947044630656
42,0.07558907749065764,0.07470413858278917
43,0.07532120396857553,0.07482137435499081
44,0.07506614312959166,0.07388751518217339
45,0.07476582624063006,0.07475256475718917
46,0.07462552755802307,0.07507744145428631
47,0.07448737893563391,0.0737025906811475
48,0.07422048283746585,0.07374291342684763
49,0.07380063046790368,0.0734766758658904
50,0.07374430522550915,0.07343861591162588
51,0.07350841468558733,0.07349183395704911
52,0.0732231861763906,0.07304654905313118
53,0.07316181535897974,0.07329013527956522
54,0.07296587706344389,0.07323229750797297
55,0.07287366106445883,0.07413058664471654
56,0.07270771437242653,0.07223094876649144
57,0.0725672041853394,0.07212656654910907
58,0.07243931106928465,0.07210134224436984
59,0.07230579920465928,0.07162325871714632
60,0.07194652674971602,0.07254804752066635
61,0.07177963225370623,0.07222118064683071
62,0.07165686026679172,0.07187633974188062
63,0.07144312485631983,0.07145778837541143
64,0.07119552506060346,0.07146799553032478
65,0.07120146811350793,0.07090929125083502
66,0.0710040577442702,0.07359376860102462
67,0.07104810841797495,0.07042561295314054
68,0.07080401077632772,0.07092520791480555
69,0.07080113470204913,0.0703601089452744
70,0.07056180455488534,0.07043983300916208
71,0.07046878790679327,0.07023665635839604
72,0.07041027240399293,0.07073322766426018
73,0.07023650519976046,0.07058424354652593
74,0.070115281096638,0.07104778366939253
75,0.0701056743105868,0.07160015792756141
76,0.07004804131781034,0.07025205580127492
77,0.07003836317605887,0.07104168809584745
78,0.06989889720571123,0.07131190453247076
79,0.06988425636061155,0.07033110844178135
80,0.06970525057749553,0.06938498304961303
81,0.06969111525818651,0.06951531422707094
82,0.06954942591063838,0.06990531798554485
83,0.06957855420092275,0.06964031473093228
84,0.06956668256386356,0.06978686307112489
85,0.06938326053442492,0.0703890951397955
86,0.06940727417957132,0.07097978623634495
87,0.06937903487352702,0.07001582349311725
88,0.06927850097836882,0.0699011371292769
89,0.06923214112803334,0.06972069157903035
90,0.06919352635843284,0.06941209158246217
91,0.06922250070531757,0.07057374595207876
92,0.0692011672170189,0.06977450752970112
93,0.06905089096507307,0.07007014767082084
94,0.06896860806148467,0.06918308595353664
95,0.06897204788234411,0.07062169146257127
96,0.06899878020028587,0.06892491449117281
97,0.06887678828485101,0.06951179058874185
98,0.06883245373999278,0.06923222259557851
99,0.06874598748223963,0.0691219811381443
100,0.06877583685814946,0.06873038854572448
101,0.06873700701727846,0.07007186491399109
102,0.06866182322203243,0.0685419622809878
103,0.06863337218056156,0.0693861041315656
104,0.06854974843930266,0.0691529144041213
105,0.06851503692311332,0.06878103413088882
106,0.06852079453365649,0.06866758382185993
107,0.06848513979800724,0.06867051187104624
108,0.06838956921507851,0.07017905568464117
109,0.06838217904454257,0.06963659485079418
110,0.06843931169203521,0.06949223507516948
111,0.06834980583080999,0.06878638463040107
112,0.0683766741946023,0.06886311727789672
113,0.06828803170787633,0.06818919313537028
114,0.06813463152086559,0.06904229289756392
115,0.06835018557735406,0.069123599122472
116,0.06822080902727011,0.06880524411811721
117,0.06808865475530917,0.06854513959954121
118,0.06816366025067332,0.06797247729297477
119,0.0680432116626633,0.06780979400318739
120,0.06816140523812234,0.0693793769246087
121,0.06810505108051192,0.06895679175085835
122,0.06796569947468087,0.0680418412319574
123,0.06809711393746824,0.06797610443545103
124,0.06809625435382846,0.06875409170061146
125,0.0679024370965105,0.06803972530138053
126,0.06806879685679758,0.06822212451525543
127,0.06806133868380823,0.06877261601099754
128,0.0679526171652084,0.06888812806144326
129,0.06786601575886704,0.0678740589751816
130,0.06778783390504721,0.0688981650725814
131,0.06787809130029847,0.06764632834239016
132,0.06776862242400977,0.06796297705789227
133,0.06774581278153614,0.06843746547114382
134,0.06775672726901424,0.06807776425629547
135,0.06778037230537845,0.06895150634631271
136,0.06769730609254905,0.067675065009016
137,0.0676948159627035,0.0688431355661488
138,0.06767182144336568,0.06873721340030778
139,0.06777101478745969,0.0688714912714079
140,0.06766954185645054,0.06856706054407641
141,0.06759086992954641,0.0677519963862845
142,0.06745701132308782,0.06834726187517212
143,0.06754565974256665,0.0688031733518785
144,0.06755035514150279,0.06781364333701546
145,0.06758199348233583,0.06824896187246868
146,0.06758176044871123,0.06756960463038518
147,0.06750615393646033,0.06807336993947358
148,0.06748643284030975,0.0681866963922135
149,0.0673528086185951,0.06786722268117067
150,0.06738433659088425,0.06780245509551776
151,0.0672533150233551,0.06814298334216312
152,0.06740242107489186,0.06718881977540132
153,0.06726769909489537,0.06738096272831108
154,0.06730648019164422,0.06722356142274762
155,0.06715805465806181,0.06728047039818297
156,0.06704495148952952,0.06816159593015648
157,0.0672666171299345,0.06769770202214366
158,0.06709355419110946,0.06815329582541495
159,0.06706511627811505,0.06776532970519128
160,0.06724645419666071,0.06889179125321712
161,0.06702168152987792,0.06760976646507857
162,0.06714962295929496,0.06956218793835596
163,0.06704693018570344,0.06766116852524953
164,0.06693845703533614,0.06767029872281562
165,0.06701388553354731,0.06862454046535932
166,0.06696226207876936,0.06709162248702291
167,0.0671003630640461,0.06717554617235968
168,0.06690008585952184,0.0671565484208816
169,0.0668727751810113,0.06743064218307084
170,0.06695025109435322,0.0694232603396918
171,0.0668869577838522,0.06810910626476827
172,0.06695299770353504,0.06719380057549522
173,0.06688039227624497,0.0669951425039718
174,0.06679884848078228,0.06679554819695123
175,0.06681427797541155,0.06790941778841957
176,0.06671850176578592,0.06837251735976883
177,0.06669439350319102,0.06742018004247825
178,0.06678129920935288,0.06703086767824269
179,0.06681522156901012,0.06864808414415961
180,0.06672408064847277,0.06718498317068373
181,0.0666894849813748,0.06712762169227565
182,0.06671916807142513,0.067231418030703
183,0.06672934773641306,0.06722139752928001
184,0.0665882297729971,0.06717435556969861
185,0.06678108534085762,0.06703197704242092
186,0.06673849240440188,0.06669525647669325
187,0.06660870017037085,0.06716543374613
188,0.06662346575842842,0.06684943422531966
189,0.06658301536968897,0.06747504667320837
190,0.06657571844159628,0.06816307570337445
191,0.06663132196076679,0.06689048073748066
192,0.06654894834116955,0.06810806000956339
193,0.06656737099470396,0.06809454379233222
194,0.06658745723694355,0.06721869921046997
195,0.06662588332319223,0.06745091838709216
196,0.06661107438604888,0.06694703073235936
197,0.06650005842569016,0.06736938384483877
198,0.06660628129538215,0.06741617369094746
199,0.06655214836104963,0.06684158725123596
200,0.06652314285500435,0.06686544624151777
201,0.06643447361176727,0.06702784154512673
202,0.0665959746880097,0.0670556332247516
203,0.06646755407684357,0.06817478978613294
204,0.0664810318081566,0.06700215146492185
205,0.06648440501724531,0.0667666307629357
206,0.06641905065924049,0.06718462550022004
