epoch,loss,val_loss
0,0.12908920086453143,0.11316830587314673
1,0.10914522444461898,0.10325597511414822
2,0.10134682959922502,0.09971343540158066
3,0.09838545740453727,0.09810153497698024
4,0.09545774298039787,0.09238387646006557
5,0.09303155954850864,0.09209223425204231
6,0.09169722078129147,0.09254729039659429
7,0.09056812133850439,0.0884675150081972
8,0.08948562239265262,0.08792888980293172
9,0.0887520504168322,0.08782771752657106
10,0.0878357751870685,0.08617490733257405
11,0.08715764063424136,0.08718183653466717
12,0.08663786782571771,0.08616573364666592
13,0.08623101662473953,0.08932152834237427
14,0.08562787631343748,0.08580500057964868
15,0.08447372066845335,0.08334974791219836
16,0.08324337198588265,0.08367370192552533
17,0.08229191063564821,0.08440007608308761
18,0.08160575439429593,0.08128748649732166
19,0.08113953317032134,0.0809334112922573
20,0.08060155312128228,0.08154459901826096
21,0.08018864101351852,0.08025970800939639
22,0.07973565406846353,0.08175618446267738
23,0.07937756834221664,0.07963393421804307
24,0.07901988506495211,0.07753494027951738
25,0.07858117680474544,0.07870375948334112
26,0.0784065950611932,0.07729325110436773
27,0.07798264562351345,0.07742738767237309
28,0.07795669741105907,0.0778400087325331
29,0.07768014978078555,0.07687385032970706
30,0.07753935622693456,0.07751342778966572
31,0.07729948606109553,0.07772589531502772
32,0.07719168359121159,0.07668062742833241
33,0.07692171526173541,0.07684878663337238
34,0.07679182877431269,0.0764111509466476
35,0.07662379478139791,0.0769489101701139
36,0.07650041439058856,0.07626802896010283
37,0.07632443984054688,0.0758017237374063
38,0.0762362796101972,0.07725143837713667
39,0.07602622587185788,0.07555695506289296
40,0.0759287999336914,0.07469075054672146
41,0.07576502407598995,0.07477101519329975
42,0.07550496871809076,0.07476852496215393
43,0.07539326825743652,0.07445702107192241
44,0.07531828031705952,0.07621593392376144
45,0.07527861368419557,0.07608260885230063
46,0.07515477780737438,0.07676735846096511
47,0.07498133324322666,0.07591249330635721
48,0.07499821360197674,0.07480559949578984
49,0.07493049360336113,0.07593058102538051
50,0.07480507672393186,0.07486776272431005
51,0.07482817393354035,0.07429220263824182
52,0.07459280277067487,0.07496559166828516
53,0.07456630233123104,0.07471949496623427
54,0.07441410716208133,0.07401738666312711
55,0.07431228734146184,0.07391096168278001
56,0.07432823587273002,0.07451349180632495
57,0.07416905865925702,0.07505477329768442
58,0.07415247270712265,0.0734283366445106
59,0.07395132982553661,0.0754562014010178
60,0.07393595958288365,0.07478245250272555
61,0.07393673139464436,0.07510680700931091
62,0.07378635002922791,0.07354102572238368
63,0.07362057534958555,0.0751025507956322
64,0.07364251827616972,0.0738447074125698
65,0.07352636924006631,0.07330753563993343
66,0.07351435385857166,0.07355598341013982
67,0.07339064207017519,0.07350902660837556
68,0.07330245277434284,0.07280893222725693
69,0.07322136978136862,0.07421940232720123
70,0.07328198329313804,0.0733177344397134
71,0.07308894207432734,0.07384644341323042
72,0.07307277238428267,0.07334399646349525
73,0.07288322179750936,0.07338091766094051
74,0.07294848775796718,0.07368156833407641
75,0.07281334577824101,0.07324506516754864
76,0.07270904664449541,0.07276138645011564
77,0.07254664813103745,0.0751339829996718
78,0.07258064011494979,0.07199275137272991
79,0.07241306312920233,0.0733187718653236
80,0.07225629702079583,0.07218654039074064
81,0.07225480365175534,0.0742553252471223
82,0.07217209373936398,0.07244075695429887
83,0.07209436816639729,0.0720145037273211
84,0.07213481517494735,0.07228344263784305
85,0.07186640890679713,0.0720319826601374
86,0.07180900012743315,0.07205745188008514
87,0.07186197221854575,0.07226332412979111
88,0.0717776387226798,0.07123083494129173
89,0.07165591689901238,0.07192856909573192
90,0.07141031870191882,0.07204565907964133
91,0.07145335361987319,0.07168944231894862
92,0.07136844026205233,0.07134676693258483
93,0.0710428032101396,0.07147211815563766
94,0.07124624286358117,0.07156242869885475
95,0.0710428241873445,0.07097460692063653
96,0.07091221231305726,0.0716621491159402
97,0.07093542471002612,0.07136527744425192
98,0.07082674206516962,0.07233665035752118
99,0.07065837301314715,0.07062619746326501
100,0.0707537023153778,0.07065863105781554
101,0.0705478798053753,0.0717323822621123
102,0.07061720130009566,0.0738734467342858
103,0.07038726730139643,0.07171700565756428
104,0.0703913182182582,0.06998927747969479
105,0.07039515807505586,0.070670712488096
106,0.07040367399626506,0.06978452785749019
107,0.07025710845025912,0.0715727079520675
108,0.07028000541124785,0.07071387984109423
109,0.07018183450065599,0.06993196891732863
110,0.07027847079133505,0.07080087569560421
111,0.07012589396688816,0.07067711281606284
112,0.06996434036789055,0.0695462082059365
113,0.0699087638758149,0.0700144822623037
114,0.07005469206834794,0.07025304299610483
115,0.06990716900557355,0.06998667680348256
116,0.06996278373056479,0.07044196296060286
117,0.0697085537961771,0.0712036704323619
118,0.06979622058678599,0.07035758299198447
119,0.06975590224028291,0.07008110656559335
120,0.06973312626935371,0.06981087281793588
121,0.06969249277606505,0.07030573237716338
122,0.0697877700329383,0.07202484973256543
123,0.06962421385104081,0.07015256403726643
124,0.06955093198308962,0.06925903223525944
125,0.06946427517348513,0.07039945401731694
126,0.06953846344545794,0.07129941725319854
127,0.06954905595401531,0.07136269865330673
128,0.0695474132536762,0.06964389006394998
129,0.0695473678923317,0.07037650827363982
130,0.06939991851934753,0.07124751523298008
131,0.06940895582045543,0.06947702777048265
132,0.06928425977923894,0.06984799086387354
133,0.06929146816003547,0.06970463055429268
134,0.0691722234877328,0.0697355908166445
135,0.06916937146299383,0.06990244750827385
136,0.06926358594559767,0.0699722012317103
137,0.06927943207559255,0.06985617213351103
138,0.06922066620423159,0.06953277131928581
139,0.06904503139971857,0.0690617471349458
140,0.06912595877545519,0.06977849166762816
141,0.0689247154306332,0.06933844551812027
142,0.06892238495664253,0.07020562950196921
143,0.06906879609814472,0.07126301773808268
144,0.06907447116092161,0.06971558771183874
145,0.0690271111626157,0.06876547768302659
146,0.06892051247966717,0.06931584828845448
147,0.06883963765209997,0.07021465026905882
148,0.0687689986253098,0.07043365017141645
149,0.06891294949591001,0.0693112452246328
150,0.06882223575867343,0.06964759721882299
151,0.06876629730251163,0.06949339624969367
152,0.06890393609619484,0.06881322902851357
153,0.06888471471660357,0.07138791920642958
154,0.06876017323491508,0.06935449556369326
155,0.06876144596573915,0.07115786600244486
156,0.06879192183814886,0.06981399671936415
157,0.06876346766397524,0.06855533933286224
158,0.06880895106134999,0.0686036963693174
159,0.06863051631226129,0.06899716840323065
160,0.0687401299694467,0.07133881470085857
161,0.068666524655822,0.06948125854161773
162,0.06870878231361192,0.07100422351420096
163,0.06876780397672025,0.06942670111678576
164,0.06856411744233244,0.06923822866572603
165,0.06876336934877057,0.07009242779735167
166,0.06856865263152673,0.06908665195063682
167,0.06855547732394245,0.06871474319523206
168,0.06850441574394268,0.06943631555742502
169,0.06858497051088183,0.06971774541275812
170,0.06842732285193057,0.0686891334365337
171,0.06841163260275646,0.07036292158589015
172,0.06858672898530217,0.06947238773387945
173,0.06849178919924963,0.06901357832444752
174,0.06846509754826943,0.07065463149309281
175,0.06838042504617955,0.06919318640198484
176,0.06847664911917896,0.07013111194243399
177,0.06848783632422331,0.06958278701536397
