epoch,loss,val_loss
0,0.7827198474784259,0.7807393084069141
1,0.7804200841772563,0.7813782610930354
2,0.780109380403698,0.7803085837238115
3,0.7798760294688648,0.7816325115536591
4,0.7796990087936017,0.7794269379479782
5,0.7796095242378955,0.7795067798746793
6,0.7794981518593455,0.779396484082552
7,0.7794325402060379,0.7792791207101357
8,0.7793573469981155,0.7792325846132673
9,0.779311234237611,0.7791848548569527
10,0.7792917099927097,0.7792051297124273
11,0.779259115828469,0.7791528820291065
12,0.7792358164119902,0.7792372317735934
13,0.7792116251774754,0.7791452214502808
14,0.7791706771631678,0.7792227275176182
15,0.7791343042217355,0.7792282903101665
16,0.7791375004721524,0.7790775107063338
17,0.7791232035889502,0.7790863758016053
18,0.7790732146211837,0.7789775529598004
19,0.7790837482622566,0.7790457344876787
20,0.7790578945303689,0.7790646896024195
21,0.779059961287222,0.7790039247068996
22,0.7790476348252657,0.779226444672266
23,0.7790452467076908,0.779181070316968
24,0.7790431901086362,0.7792737022200823
25,0.7790285610545744,0.7790024081676635
26,0.7790286443256476,0.7789751031871294
27,0.7790110814607429,0.77899181822453
28,0.7790047059652985,0.7789316301414356
29,0.778999206611238,0.7790149885623326
30,0.7789838059959587,0.7788994124063674
31,0.7789955827752806,0.7789411458568534
32,0.7789815826090462,0.7789156529114741
33,0.7789680109303473,0.7789282494591251
34,0.7789889940780759,0.778932519913742
35,0.7789567240136721,0.778918752816815
36,0.7789738384769442,0.7791016791308705
37,0.778969981665142,0.778909563530773
38,0.7789767796145751,0.7789633745084741
39,0.7789590766087293,0.7790029823723267
40,0.7789537946362912,0.7788894084099268
41,0.7789638932538144,0.7794213587563436
42,0.7789463954023703,0.7789191883367944
43,0.7789359496460739,0.7789945765177333
44,0.7789483782941824,0.778877597508666
45,0.7789361836221198,0.7793004796895713
46,0.7789275557213123,0.7788773037402122
47,0.7789333623946291,0.7789132254444002
48,0.7789463113637928,0.7788544165173731
49,0.778928168910401,0.7791658122472883
50,0.778919055309061,0.7789843033822317
51,0.7789248718447699,0.7789342154656892
52,0.7789298225455827,0.7789902622422965
53,0.7789128106376222,0.7788768328000993
54,0.778917291476259,0.7788997046555983
55,0.7789166939630338,0.7788390956531541
56,0.7789067552033481,0.7788562428928546
57,0.7789169444309588,0.778850837611993
58,0.778913082121995,0.7790537156130334
59,0.7789119707085634,0.7788714358110702
60,0.7789126264227602,0.7790817708008929
61,0.7789202666219076,0.7788521496477592
62,0.7789070373215615,0.7788874691576168
63,0.7788901898405746,0.7788678390820367
64,0.7789108953122285,0.7789464479583548
65,0.7789174052617456,0.7788868137194994
66,0.7788862901104464,0.7789892471033523
67,0.7788929224631126,0.7789463028512873
68,0.778893964431988,0.7788541859126156
69,0.7788964134754511,0.778874460185958
70,0.7789027513801388,0.7788412328729634
71,0.7788994741083123,0.7788415681005793
72,0.7788928078876407,0.7788464983332738
73,0.7788925894241763,0.779022756286589
74,0.7788874733379955,0.77883148456502
75,0.7789001467533565,0.7790588627064893
76,0.7788892671026807,0.7788302172776989
77,0.7788808058844263,0.7789314975667723
78,0.7788747761923132,0.7788730689944285
79,0.7788818144250534,0.7788956744700779
80,0.7788864099535384,0.7790106805862274
81,0.7788856809225563,0.7791046957392644
82,0.7788773657521872,0.7789211253363006
83,0.7788778540593162,0.7788300939508899
84,0.7788775347025462,0.7788594084134722
85,0.7788809523839009,0.7789204635515239
86,0.7788775612595397,0.7790758212738724
87,0.7788834054258017,0.7793616530998219
88,0.7788837175898802,0.7790315639400966
89,0.7788768387207928,0.7790459784814738
90,0.7788747669400594,0.778840936633998
91,0.7788752355334472,0.778868141591937
92,0.7788669897796319,0.7788053921561251
93,0.778876206019502,0.7794267514953352
94,0.7788692321790406,0.7788853166414591
95,0.7788852322136852,0.7788474713504665
96,0.7788719864305312,0.7792310178923535
97,0.7788735415762816,0.7788251302243037
98,0.7788647531960606,0.7788622434723845
99,0.7788706061937506,0.7800551711784122
100,0.7788786800281561,0.7788230777212755
101,0.7788693250809925,0.7790592588591958
102,0.7788795882240894,0.7789227363939075
103,0.7788645838706264,0.7788428490893016
104,0.7788729422578828,0.7789001159910666
105,0.778860629086847,0.7789271007563664
106,0.7788580743293144,0.778817910858993
107,0.778870581871039,0.7788872192431124
108,0.7788641940190102,0.7790094036818952
109,0.7788560737083872,0.7788484500138669
110,0.778861918797942,0.778836850795705
111,0.778855432814598,0.77989703011225
112,0.7788565163470318,0.7788374639890185
