epoch,loss,val_loss
0,0.891685917365845,0.8904249600726536
1,0.8903154300473736,0.8908158075635313
2,0.890119245159741,0.8899304551824191
3,0.8899920186733505,0.8898734668095528
4,0.889906639694348,0.8898635438667207
5,0.8898434899474988,0.8899336059935532
6,0.8897981088711121,0.8897256476833306
7,0.8897523437396213,0.8896523314003568
8,0.8897279828499529,0.889663896911652
9,0.8896997290706479,0.8897875951730544
10,0.8896831857714568,0.8896467621759591
11,0.889658862395637,0.8897495392827698
12,0.8896504957527781,0.8895791159161541
13,0.8896328946459605,0.8895733256235527
14,0.8896190550498518,0.8897154186005553
15,0.889614638207121,0.8896406991852452
16,0.8896063951439094,0.8895462054060587
17,0.88959205835245,0.8895738321115843
18,0.8895861298060592,0.8895884382075424
19,0.8895776703314517,0.8895928665146063
20,0.8895746348306132,0.8896922561097035
21,0.8895597465359641,0.8895255344925332
22,0.8895513136392535,0.8896774872534045
23,0.8895574767939151,0.8896026788996726
24,0.8895451388718479,0.8896112692286064
25,0.8895404897363748,0.8895641034257512
26,0.8895395502585235,0.889570745467496
27,0.8895307938445062,0.8896361888969476
28,0.8895202935606895,0.8895077948316953
29,0.8895254829644446,0.889655314585851
30,0.8895202878974852,0.8894967428460772
31,0.8895147939991741,0.8894953980641989
32,0.8895149209158486,0.8894726123547808
33,0.8895087338427364,0.889558650708225
34,0.8895053645634596,0.8896661078634576
35,0.8895014438062349,0.8894558229464585
36,0.8894942277116443,0.8895215295942621
37,0.8894960235402302,0.8895300119637269
38,0.8894892381524699,0.8894896568410715
39,0.8894954795728611,0.8895042733207513
40,0.8894815886876589,0.8894660091407719
41,0.8894890642283196,0.8894697514927461
42,0.8894824816072572,0.8894890337751766
43,0.8894862728672415,0.889466350350623
44,0.8894765451188128,0.8894601277184709
45,0.8894726917607804,0.8894662272746513
46,0.8894773999633298,0.889430786700254
47,0.8894760709363679,0.8895786486818087
48,0.8894761890914236,0.889449456868445
49,0.8894753508291036,0.8894546903730177
50,0.8894631892985596,0.8894729484579611
51,0.8894678654524756,0.8894948537849104
52,0.8894763886966026,0.8894599268166474
53,0.8894678194029998,0.8894559676370414
54,0.8894645788692351,0.8894753448069995
55,0.8894611868365683,0.8895066275717021
56,0.8894624872651169,0.8895423757058771
57,0.8894649348173498,0.8894201350037931
58,0.889464161996021,0.8894739186970113
59,0.8894575867348763,0.8894519678359754
60,0.8894534035574032,0.8894483521332225
61,0.8894589006385305,0.8896812704729432
62,0.8894590479615144,0.8894666499403975
63,0.8894592873515033,0.8895175759946049
64,0.8894560989674151,0.8894768488469608
65,0.8894561350188246,0.8894328104327061
66,0.889452791382714,0.8894291391907674
67,0.889453788142188,0.8898921026082877
68,0.889445744550848,0.8894341705251312
69,0.8894538940877709,0.8894600239995739
70,0.889455244912489,0.8894594742018627
71,0.8894437454262782,0.8894258642577171
72,0.8894468599370812,0.8894329901695327
73,0.8894430303866727,0.8894581448299196
74,0.8894508089420967,0.889534692759928
75,0.8894464149801472,0.8894583204350283
76,0.8894476165552324,0.8894409921853831
77,0.8894451570171522,0.8894165064468069
78,0.8894420437940685,0.8894133756127417
79,0.8894424607820534,0.8894365690796455
80,0.889437499654855,0.8894389596688893
81,0.8894399514524205,0.889493292416772
82,0.8894354625498602,0.8894728646262101
83,0.8894435447104658,0.8894649566507196
84,0.8894377288243355,0.8894976163470822
85,0.8894364973848098,0.8894273592344026
86,0.8894359285725421,0.8894607027087758
87,0.8894359456725877,0.8894338980541923
88,0.8894367775120868,0.8894272384017692
89,0.8894292774010306,0.8894089347354113
90,0.8894318760096476,0.889474812743019
91,0.8894329884264354,0.8894336479929718
92,0.8894333031020596,0.8894679813237726
93,0.8894342994671326,0.8894175425661695
94,0.8894263591374765,0.8894225504969309
95,0.889433769533341,0.88967700378562
96,0.8894318922140084,0.8895516842911314
97,0.8894298497565972,0.8896308756923418
98,0.8894269885336866,0.8894209735437444
99,0.889426207008716,0.8894242835183058
100,0.8894254106164039,0.889427431882592
101,0.8894313487775031,0.8894185271597447
102,0.8894276251923975,0.8894107545370599
103,0.8894310924085498,0.8894380140970941
104,0.8894248343980736,0.889415457492142
105,0.8894291390364718,0.8895808152685246
106,0.8894267123322775,0.8894849465833082
107,0.8894280930908507,0.889413731432688
108,0.8894254912658934,0.8894245520847003
109,0.8894250755585288,0.8894772856731878
