epoch,loss,val_loss
0,0.45836678218801163,0.4529514545620633
1,0.4514557423305641,0.45007848811562295
2,0.45017973663558014,0.4493832198924558
3,0.44946158439895345,0.44898906201999755
4,0.44915984439043066,0.44854760129517635
5,0.4489347064027406,0.4483719703596282
6,0.4488959781486308,0.4482751542923279
7,0.4485483044341224,0.44879609222390904
8,0.44849030275622254,0.4481247633208126
9,0.448538623035703,0.44823784214912266
10,0.44833325145554237,0.4480344049392361
11,0.4481972898119699,0.4480172964042191
12,0.4482341624328877,0.4480474418674326
13,0.44812763545579365,0.44859647092997923
14,0.4480677102016305,0.44928501613588395
15,0.4480411644310138,0.44768155761724504
16,0.4479472098180175,0.44778806215830413
17,0.4479065195079078,0.4477092405458433
18,0.44788355945734676,0.44852257816587454
19,0.44789032270422185,0.4478135640959674
20,0.447825328389299,0.4485842875588483
21,0.44780824313063455,0.4477638239773073
22,0.44778104056792317,0.4477193153754518
23,0.4477160803300383,0.44770754780990085
24,0.4477176179831169,0.4479838450815974
25,0.4477060245286911,0.44760223949582156
26,0.4476792136699004,0.4482087864892074
27,0.44760366293251236,0.4476130038821661
28,0.44764388277602657,0.4477682733831092
29,0.44761330980979824,0.44765310681858234
30,0.4475925601368318,0.4476532609699945
31,0.44756548602797297,0.44767594132297317
32,0.4475757207457987,0.44746723263977783
33,0.44754979197319866,0.44739028740699693
34,0.447531720261548,0.4483851193790116
35,0.4475252855988496,0.4477768280032099
36,0.44752678778028815,0.4473655353690284
37,0.4474684292818585,0.447427042359887
38,0.4474869688669179,0.44737394712066697
39,0.44747477868471663,0.4474066866069857
40,0.4474745728061947,0.4475400628708687
41,0.44746643184848034,0.4474761351595157
42,0.44747116543842697,0.44735811952231175
43,0.44743011536161176,0.4477819916188045
44,0.44744880314068974,0.44746782149713116
45,0.44744255355284485,0.4477495436978299
46,0.4474300668688217,0.4474670566323827
47,0.4474255465417675,0.44749947380447874
48,0.44737308469333403,0.4473401569782485
49,0.44738750718024967,0.44729056205421247
50,0.4474154766127782,0.44733529550103096
51,0.4473992365910216,0.44740333975459423
52,0.4473713116903136,0.4481540204528515
53,0.44735344844248365,0.44739490421599803
54,0.4473800798109423,0.4475118683996287
55,0.44736735674778777,0.44755504421247305
56,0.44737495642439845,0.4475154402933936
57,0.4473402779585719,0.44730846425531706
58,0.4473493462156252,0.44751696533743723
59,0.4473616671261898,0.4471973242510003
60,0.4473389663611777,0.44740240022892686
61,0.44732202445644237,0.4479552675319585
62,0.4473569352781153,0.4472927245399735
63,0.44731719398464304,0.44753523683744856
64,0.4473087351917578,0.44718787664030213
65,0.4473372901863714,0.4476208944339231
66,0.44728766902418954,0.4472834344669923
67,0.44728404391983845,0.44849948733169465
68,0.4473187621748131,0.4473353596467792
69,0.4473401961517126,0.44773314322235663
70,0.4472839578875637,0.44741042987475305
71,0.4472676156526384,0.44721266572174806
72,0.44728845505874165,0.4471343657090888
73,0.4472710982819831,0.4471867587455818
74,0.44726860124090034,0.44721388379287885
75,0.4472927604338809,0.4473811253202478
76,0.44727577427084214,0.44720146436009384
77,0.4472706251955787,0.44778313180019086
78,0.447248129417545,0.4474908599583558
79,0.4472762713409705,0.4471848344819894
80,0.4472484307819372,0.4471799766206166
81,0.4472723490323693,0.4471311213782009
82,0.4472550036390105,0.44795060102875617
83,0.44724688645993155,0.44723634658227823
84,0.44724723910947317,0.4471678347015487
85,0.4472752255239242,0.44831668672503716
86,0.44724607929849935,0.4473054808899772
87,0.44724091506719305,0.44748896216520795
88,0.4472250965457634,0.4471575096001109
89,0.4472436133125539,0.44728752470677174
90,0.4472607353575942,0.44844538830037306
91,0.4472480535280816,0.4472260884804557
92,0.44722302337437186,0.4471929805281996
93,0.4472754370518465,0.44724708663029616
94,0.44720584680279724,0.4471745245112528
95,0.4472305720888476,0.4474079234435934
96,0.4472242681267072,0.44719991015501964
97,0.4472527107722428,0.44715535054798256
98,0.4471895908732694,0.44717832586917494
99,0.4472196375006716,0.447191006000106
100,0.44721178207490886,0.4473265275910523
101,0.4472135433648103,0.4477702441557411
