epoch,loss,val_loss
0,0.13051273826997614,0.11707356219854793
1,0.10847395175943379,0.1027192181937322
2,0.100216413131839,0.09773260875897444
3,0.09455078953956625,0.09164266844796382
4,0.09145936736713545,0.09036893022674236
5,0.08972513056687137,0.08922708815720055
6,0.08842652990332524,0.0873958089388759
7,0.08713470173092137,0.08680022281974824
8,0.0864147523877016,0.08531075370348179
9,0.08613312062507668,0.08521012985291737
10,0.08551259522350824,0.08401954411568198
11,0.08522831339910213,0.08493765043258923
12,0.08473734999116217,0.08563849705317124
13,0.08422337399893673,0.08455941032831851
14,0.08333596851008267,0.0830112087371871
15,0.08289481830264878,0.08219305259406766
16,0.08220965253298271,0.08323132702824908
17,0.08165843155670446,0.08085005087205602
18,0.08105353101668628,0.08137174146136007
19,0.08068612855375991,0.0810220801529287
20,0.08033853805399922,0.0803867672422594
21,0.0799307696961976,0.08058899874777212
22,0.07938082548238473,0.07973451399990816
23,0.07932604710519228,0.07904489861518187
24,0.07880867108791104,0.08013580637033428
25,0.07873158190474763,0.07896225140763546
26,0.07841452912943712,0.07791112331155559
27,0.07816497648713279,0.07964617980660968
28,0.07804179118142024,0.0770111705717992
29,0.07755033130602135,0.07818386211964097
30,0.07728833644419505,0.07710876534368304
31,0.07694763438521562,0.07690677580544783
32,0.07665391367583793,0.07684243065895913
33,0.076552431833017,0.07566485808603494
34,0.0762944670498493,0.07646347850895986
35,0.07615715145933226,0.07599544059115448
36,0.07601963236611578,0.07553192644681896
37,0.0758754583972227,0.07520389609211577
38,0.07581717680053601,0.07611610768317031
39,0.0758446166451134,0.07544945916274824
40,0.07555812330736097,0.07551414825019855
41,0.07533377597016945,0.07544725972136203
42,0.075270316277723,0.07725996526284447
43,0.07519705915658781,0.07542181863868513
44,0.07510108500164445,0.07521741138645462
45,0.07495695300759606,0.07537380961486229
46,0.07497755617921452,0.0753910447742535
47,0.07485925365717519,0.07503841785935583
48,0.07463379828807258,0.07394048932342846
49,0.07454780940667316,0.07561813643930146
50,0.07464430820158487,0.07449950439311483
51,0.07451528332645294,0.07478096013557718
52,0.07443321066932862,0.07529512640400568
53,0.07428392240695539,0.07545114171699965
54,0.07429162741827101,0.07429426990843432
55,0.07406771553021244,0.07444856347738324
56,0.07397850602663089,0.07402747049537257
57,0.07383802484187296,0.07428745213468312
58,0.07376992707576834,0.07547252932384466
59,0.07366184740442211,0.07299761961461089
60,0.07362125041107556,0.07453969924398475
61,0.07353426768904098,0.07339539921021526
62,0.0733957917363993,0.07296356933399366
63,0.07337672974084665,0.07472217153702793
64,0.07323466572355847,0.07308738974315108
65,0.0732111088985347,0.07360099306738584
66,0.0730836272939106,0.07214178467677883
67,0.07295908625340897,0.07360454841830606
68,0.0729626204278133,0.07318964289175635
69,0.07301783865390407,0.07209435306171189
70,0.072771354250682,0.07268935010341192
71,0.07286942616774872,0.07216651583756267
72,0.07287136512077153,0.07182684303192566
73,0.07264272922582402,0.07222997914861881
74,0.07263095662404719,0.07301793693644254
75,0.07263442287278307,0.07298432320104349
76,0.07241859471267986,0.07225441907771962
77,0.07251873675789046,0.07278125693973367
78,0.07238912048905975,0.07252104799263918
79,0.07236020275257647,0.07190442514026499
80,0.07217904026462052,0.07492214469932763
81,0.07219813690039117,0.07269123548010863
82,0.07209789739131518,0.0724079884507078
83,0.07213744607120477,0.07156659425699949
84,0.07201790703005029,0.07286168304365911
85,0.07208396246704732,0.07132308149190579
86,0.07198848752779857,0.0731563241727862
87,0.071927225582229,0.07284538407776163
88,0.07183393169370289,0.07194164646199314
89,0.07182127971586208,0.07333359920903532
90,0.07183238929346558,0.07236688650052416
91,0.07177129438336396,0.07169187471284759
92,0.07175745000506879,0.07151835390726158
93,0.07177828489454072,0.0719871965176471
94,0.07176487671735336,0.07195694080518601
95,0.07170413932012784,0.07158819532765223
96,0.07158557354932689,0.07238742410314307
97,0.07156101122285634,0.07208597839082141
98,0.07150496248950378,0.07213153490139716
99,0.07143534019263452,0.0715665391337068
100,0.07143105033044642,0.07110328568751724
101,0.07129014157829042,0.07152085414143598
102,0.07129692723729995,0.07103596787295711
103,0.07135800180054812,0.07184393538467672
104,0.0713471672435171,0.07377225189705358
105,0.07124282291939985,0.07150167627983317
106,0.07119798133368402,0.07148982143351695
107,0.07119798486500295,0.07183358563609836
108,0.07113526033001638,0.07096136565491314
109,0.07106715851858968,0.07140033482636783
110,0.07111596719043911,0.07098338386342368
111,0.07110957417570087,0.07135359113463594
112,0.07104665724240057,0.07096341164060599
113,0.07099233587824214,0.07106127006951136
114,0.07098459109148382,0.07074349190509138
115,0.07088298740058395,0.07149869816433073
116,0.07103060687212703,0.071798521814738
117,0.0709548765575647,0.070943285394457
118,0.07096463392814846,0.072940578827969
119,0.0710332250798377,0.07253672001531092
120,0.07088644597674076,0.07077199690977468
121,0.07083284127854983,0.0718851987954613
122,0.07079205722429409,0.07104059854752774
123,0.07085961234025513,0.07058834047727458
124,0.07096549395711632,0.07140792882620427
125,0.07091186058567456,0.0708761485676567
126,0.0707239544101767,0.07257995938289746
127,0.07079386521004517,0.07021326667482614
128,0.07080882534518725,0.0713112779631347
129,0.07086939977970243,0.07158417070847391
130,0.07059731595314564,0.0708579171054942
131,0.07077660525538756,0.07153114263777016
132,0.07071665848275338,0.07070037323288762
133,0.07066919298892552,0.07162996258735137
134,0.07070531455314122,0.07238160391326781
135,0.07065251108173155,0.0716111239070114
136,0.07066674516443272,0.07047199760012746
137,0.07061938864358537,0.07076878661201959
138,0.07057839419836687,0.07083517133098699
139,0.07062071616834764,0.07060422751936
140,0.07067920688188456,0.07172621318995621
141,0.07055734909314484,0.07014254079053463
142,0.07064665384442775,0.0713799733257997
143,0.07063564591777424,0.07080234587370014
144,0.07060272411695469,0.07162555764868976
145,0.07062105351715052,0.07074507541436278
146,0.07054003461717875,0.07068694056551125
147,0.0705929233012485,0.07078363414311316
148,0.0705082011548654,0.0722120692570408
149,0.07062435501690914,0.07085212993948625
150,0.07054189059510178,0.07077519133052827
151,0.07057855426740614,0.0713508149124747
152,0.07049724281211245,0.07136319124944271
153,0.07059491717219933,0.07061060557071795
154,0.07047308637382589,0.07077299641989253
155,0.07053141775708598,0.07091232711011188
156,0.07050857430685169,0.07007218273384658
157,0.07037831699440877,0.07016722229054254
158,0.07045292626217105,0.07182861238952305
159,0.07036559541577973,0.07002726857258637
160,0.07034342470366828,0.07167649480570577
161,0.07038981688315496,0.07095691794699642
162,0.07047743637371641,0.07011249304268546
163,0.0703366850784077,0.07027905973167585
164,0.07045508771885323,0.0713477313441025
165,0.07034274924065335,0.07012665139389063
166,0.07031575134607183,0.07032227695369239
167,0.07032086774937565,0.07004701122682976
168,0.07038695510344876,0.07057861508456974
169,0.07026985603749168,0.07097983235759225
170,0.07030133441572443,0.07064453505745137
171,0.07032007899683347,0.07030340484601554
172,0.07030885364048989,0.07024851547161019
173,0.07024018151849062,0.07054956683589388
174,0.07029359666231973,0.07057039139353653
175,0.07027244479618933,0.07068927855995064
176,0.07021458783391278,0.07153860606638869
177,0.07027181182355055,0.07087727147409636
178,0.07011700222527391,0.07165697139103781
179,0.07028768768078371,0.06984850217845442
180,0.07022443056209901,0.0705320626983562
181,0.07011978390853951,0.06993728121028252
182,0.07017673254781158,0.07099574142278699
183,0.07010141609775042,0.0697932310091213
184,0.07015375570432017,0.07013830617194433
185,0.07014193639878097,0.0700914477191455
186,0.07012154599138418,0.07074014902941922
187,0.07003483727401896,0.0707454819241691
188,0.07010433293524909,0.06970780636101834
189,0.07005414538873228,0.07119115218354517
190,0.0700832199304384,0.07167002587548575
191,0.0701725133697574,0.07031533741494986
192,0.06997081964503653,0.07047033372261334
193,0.07002265921156421,0.07048933134423574
194,0.07003351990136113,0.06954193557335286
195,0.07008197737624794,0.07082868173152886
196,0.07008251913142162,0.07001721987354959
197,0.07010479423004863,0.07190894437884317
198,0.07005851638431523,0.07055510394955526
199,0.06985435673744328,0.07098114684345998
200,0.0700775691352556,0.06976485938042028
201,0.06992467776329084,0.07171144202849696
202,0.06999885101839505,0.07010866314461445
203,0.06998079805425236,0.06939985716207568
204,0.06996507083059775,0.07060642013814651
205,0.07000610655984289,0.07042182255367713
206,0.06998260290397296,0.07012649947073094
207,0.0699536514016341,0.06977441131817796
208,0.06983597538065493,0.0701018338767128
209,0.0699417415438118,0.07049022089942582
210,0.06989084129673406,0.06987564016340014
211,0.06981494932980953,0.07032972658329613
212,0.06992305791048026,0.0706007642121576
213,0.06983833702635302,0.07020593376950611
214,0.06984997593552235,0.07088988578505785
215,0.06990756912199424,0.07103993141825793
216,0.06983016850446822,0.07078034135387146
217,0.06990429713314494,0.07045657915069561
218,0.06981187453669416,0.07009016131582584
219,0.0697327431695381,0.07184280542757647
220,0.06987174825186156,0.07054867315874727
221,0.06978180172126063,0.0711730939308168
222,0.06971537263656452,0.07056770679180502
223,0.06978884129373192,0.0706335167559235
