epoch,loss,val_loss
0,0.13186173285767555,0.11261248962510875
1,0.10818242864535974,0.09976190493535443
2,0.09692501633048174,0.0950718299696204
3,0.09267626294240253,0.08985129469313166
4,0.08955993246271406,0.08986583308429023
5,0.08821606069470561,0.08788465304433003
6,0.08725142178680435,0.0853142311374441
7,0.08620393920927177,0.08583566182045563
8,0.08526224477378096,0.08482218716676337
9,0.08452588581315627,0.0839013617996902
10,0.08411501946320082,0.08415251195534877
11,0.08352751653765378,0.08258257691974874
12,0.08305050733250134,0.08484373740202304
13,0.08277352364835484,0.08202913458766266
14,0.08258795782718512,0.08206292819092723
15,0.08246390355803954,0.08241412592958615
16,0.0822580593661854,0.08181009204738458
17,0.0817966876306475,0.08038839449988001
18,0.08139633010043167,0.08108739864405931
19,0.08080949032768199,0.08057997086080498
20,0.0804364501274022,0.08077841669963536
21,0.08036454407433054,0.08009296908710795
22,0.07995507564683751,0.07992381422058853
23,0.07991096720171328,0.0798071247044988
24,0.07978212129093037,0.07969376110445607
25,0.07960305383458548,0.07983601376223805
26,0.07964499838967178,0.07954274440870193
27,0.07940890620428499,0.07855994376278934
28,0.07927848475593656,0.07896972862580323
29,0.07908685849426188,0.0791158267409698
30,0.07897721318949955,0.07929515958776526
31,0.07887793668323642,0.07786338642293998
32,0.07866984183577949,0.07847978173532817
33,0.07865800446728928,0.07849567916882602
34,0.07859312027894531,0.07825362978673783
35,0.07838590629814177,0.07912542844954058
36,0.07821778725367973,0.07818240519155722
37,0.07821650387814436,0.07767015595858118
38,0.07822469381090263,0.07934200101231363
39,0.07808424398218532,0.07741622541620985
40,0.07795751426082938,0.07858491859849727
41,0.07788937614190361,0.07705211499639356
42,0.07784866399496727,0.07801136508736654
43,0.07769433843127327,0.07744760456577367
44,0.07757084746135914,0.07851107165865791
45,0.07745249447521477,0.07636150922664711
46,0.07735813155692309,0.07682151958400794
47,0.07731915446065865,0.07740806360303532
48,0.07714103084966344,0.07639577667181106
49,0.07708451657243182,0.07716137082968957
50,0.0769010047285851,0.07724277569669967
51,0.07686258068836571,0.07689501610903281
52,0.0766725144328918,0.07663758939976008
53,0.07658176955498222,0.07790328554332265
54,0.07648752534358713,0.07692059322928974
55,0.07640578488475797,0.07575370706067647
56,0.07626109939448833,0.07693419705177747
57,0.07617723736699651,0.07616429502605607
58,0.07610519574298243,0.07623566842815584
59,0.07587882731917221,0.07678335219354256
60,0.07584116116005002,0.07596844344046241
61,0.0756773150524995,0.07576527122697443
62,0.07564930716646194,0.07621300521671857
63,0.07551206841034386,0.07545725878772375
64,0.07542910392478107,0.07550641575380651
65,0.07526511090114525,0.07701447072583985
66,0.07507662869815793,0.07520455363779971
67,0.07505964322507448,0.0754895489310885
68,0.07488514543801505,0.0746900807564455
69,0.07487773892433844,0.07531443855235534
70,0.07469178267691023,0.07405369457733599
71,0.07446886871580197,0.07439809637367537
72,0.07436495256231916,0.07471265342120274
73,0.074361279089365,0.0755999239177288
74,0.07417128720836151,0.07415732054037766
75,0.07401587860819299,0.07504274392888312
76,0.07389950058171645,0.07402828211201143
77,0.07370722961599357,0.07368717462206589
78,0.073542868918799,0.07392005317684572
79,0.0735213693823907,0.07320889328470803
80,0.0734411623032803,0.07326871228778677
81,0.07320607765827038,0.07377373250324101
82,0.07323275568126521,0.07323798087314753
83,0.07298022516366266,0.07291030958300784
84,0.07297432453847386,0.07361426028383522
85,0.07283326181028153,0.07345483348197136
86,0.07278623648003471,0.07342191478682687
87,0.07268725489542575,0.07327929089827605
88,0.07246111374232621,0.07274982557132573
89,0.07238749003425642,0.07287903208648219
90,0.07240585185843225,0.07263846643776653
91,0.07217842639390833,0.07249718724028381
92,0.07217518761813689,0.07329857441063806
93,0.07201900501309143,0.07255718854713131
94,0.07200749808487841,0.07187270024950795
95,0.0718515943456676,0.07346153844544882
96,0.07188687431837489,0.07261878224756768
97,0.0718456535023949,0.07220702882094744
98,0.07184066496595164,0.07224708301681781
99,0.07169630785619982,0.07169299260076453
100,0.07166876445039103,0.0715992473789377
101,0.07159958530225026,0.07314430621619904
102,0.07150029627459248,0.0716482861151208
103,0.07162707630458552,0.07202576499799708
104,0.07142295516491041,0.07159680623294333
105,0.07141595947413887,0.07172519406393982
106,0.07139130001951215,0.07152532111709603
107,0.07124555972579331,0.07205963123821069
108,0.07130044809241169,0.07115331779007678
109,0.07116770710306641,0.07180434396102663
110,0.07121811699498917,0.07324824662669388
111,0.07122671006293829,0.07315358205977812
112,0.07107249624888202,0.07328347408336809
113,0.07104140298087484,0.07115041694521185
114,0.07089256442791873,0.07106371106109875
115,0.07084043034540301,0.07280053250634785
116,0.07084066311423662,0.07084782366333679
117,0.07075311202568146,0.07166817051556558
118,0.07058973290329926,0.07145073652422454
119,0.07070355748771857,0.07108889152194577
120,0.07058447000448953,0.07064516025753471
121,0.07049700255453994,0.07077810531655143
122,0.07048756567317489,0.07235582505880944
123,0.07049201072992597,0.07065334255951009
124,0.07037167200631675,0.0721021525852284
125,0.07036151397903219,0.07307075922020527
126,0.07027818564624157,0.07005977600621234
127,0.07025689668887602,0.07056038533626557
128,0.07013518052444438,0.07057088674710907
129,0.07014609666145548,0.07041815862388522
130,0.0700800185250768,0.07052417506406293
131,0.06995853320181906,0.07032670770405455
132,0.06993010481521184,0.07011527024364497
133,0.06996689908520948,0.07099654038544825
134,0.06985257968476233,0.07028027243494551
135,0.06995019747487387,0.07045613012720436
136,0.06988462288680838,0.07016410978594687
137,0.06986343165945498,0.07009377722622942
138,0.06971306932595894,0.07104527034464149
139,0.06974431326058339,0.06950500583708315
140,0.06966266339569595,0.07059549326300432
141,0.06970772994428483,0.07193592225972131
142,0.06957566069466083,0.07042887877085455
143,0.06963600168813512,0.06989620857257843
144,0.0695759929546551,0.06976289673841045
145,0.06950733501516904,0.06942912714184041
146,0.06948370673547498,0.06960341964808554
147,0.0694896857986234,0.07047199424458568
148,0.06940653666849862,0.069398228973872
149,0.06930114552636987,0.06960716763413982
150,0.06945232119103671,0.06963720190302851
151,0.06940106234445872,0.07109931140649417
152,0.06945816104846744,0.0699859775818159
153,0.06937306023575539,0.06970109915124464
154,0.06924390714977126,0.069858794427884
155,0.0692541696482197,0.06965707389796671
156,0.06917953987747047,0.06967972491598516
157,0.06919968174410891,0.07094687182673372
158,0.06917887631858795,0.07092256066773181
159,0.06906896591685145,0.06926214482534096
160,0.06922872093116421,0.06943407781452901
161,0.06917562856417842,0.06878268654383239
162,0.06906776675177849,0.06963781470736663
163,0.06907999529805835,0.06910605570373884
164,0.06910849780509244,0.0711293041144659
165,0.06909154210731491,0.07041923637071952
166,0.06903549942976835,0.0695528660631566
167,0.06903118574728621,0.0695027706064065
168,0.06888750252415304,0.06948145891011603
169,0.0689352903577539,0.06940624751807281
170,0.0689245826549588,0.0685685985580108
171,0.0689698684108525,0.06949244865167656
172,0.06888587151358935,0.06953126491589197
173,0.0688836587978622,0.0688808672331251
174,0.06881023219380346,0.0692699835936697
175,0.06893422552362652,0.06905502074942223
176,0.06874455807903192,0.06933409870126397
177,0.06886013804946499,0.06986609595752773
178,0.06873755788575353,0.0690348990641952
179,0.06870465894118864,0.06972479541224441
180,0.06879325163749582,0.06885014860468552
181,0.06872145637160011,0.06941088059571303
182,0.06884875170884988,0.06885080429127392
183,0.06878310565423278,0.06940531426541093
184,0.06856010943477465,0.0689199445977729
185,0.06863178877999522,0.07091675634420928
186,0.06872081432192018,0.06909907886979408
187,0.06865429346552691,0.06903701353115951
188,0.06865805069557951,0.07191655894143015
189,0.06862177521466019,0.06986461593081018
190,0.06863006243111655,0.0689497905416121
