epoch,loss,val_loss
0,0.5666899615762722,0.5614308338657871
1,0.5610313896077394,0.5597493292245294
2,0.5600476501195888,0.5594097927002106
3,0.559617552744595,0.5590955934459034
4,0.5591594619383615,0.5588961148027278
5,0.5589107398906296,0.5586042166021261
6,0.5587448122780183,0.5589655699125259
7,0.5586279047539084,0.5593161026655691
8,0.5585430595075682,0.5582049146604591
9,0.5584326793189618,0.5585300157813017
10,0.5583770479352598,0.5582750185966795
11,0.5583278608076668,0.5583340250131951
12,0.558263111712966,0.5585375020423351
13,0.558214494602536,0.5580558778417286
14,0.558163595031018,0.5582164020808666
15,0.5581152863982,0.5580698905321309
16,0.5581197118440006,0.5579889198466106
17,0.5580396388055813,0.5579662040640329
18,0.5580423602492164,0.558066211036222
19,0.5580581227002289,0.5580297070532465
20,0.5579898358499624,0.5578882390352512
21,0.55797061611421,0.5582335715551726
22,0.5579564418593599,0.5579528782705437
23,0.5579469297780925,0.5577220435660851
24,0.557908543221402,0.5578133976467076
25,0.5578730011011255,0.558137544676749
26,0.5578821299476429,0.5579139110170055
27,0.5578419613316955,0.5579158318304005
28,0.5578351511116575,0.5577574248245373
29,0.5578490164227136,0.5578517316825355
30,0.5578107352649662,0.5577191636782706
31,0.5577953272112834,0.5577325104805748
32,0.5578281221674559,0.5576703247757815
33,0.5578114335184694,0.5577176025799008
34,0.5578017341542941,0.5580162637448034
35,0.5577800329146905,0.5580876441736041
36,0.5577608111035998,0.5577963413379298
37,0.5577719051305622,0.5582379412420102
38,0.5577551911172508,0.5577423556022877
39,0.5577594865609776,0.5577260696908795
40,0.5577512392599271,0.5577115969457607
41,0.5577503411196424,0.5576539925257138
42,0.5577410648180167,0.5576230877256401
43,0.5577188759650353,0.5577259856508859
44,0.5577430055112848,0.5579574058334923
45,0.5577102078862004,0.5583974866852299
46,0.5577152594471891,0.5576152069257785
47,0.5576846636877363,0.5578133771111705
48,0.5577028879730318,0.5577179310633036
49,0.5577226749233334,0.5576132672901133
50,0.5576898496479759,0.5577083908699421
51,0.5576749377945701,0.557607196310465
52,0.5576930866084673,0.5576156294826706
53,0.5576951437912354,0.5580514700702017
54,0.5576678397209388,0.5577909891730701
55,0.5576656816586691,0.5578695967810029
56,0.557661632902139,0.5583416907554849
57,0.5576590466256536,0.5579235191163098
58,0.5576885288099627,0.5580790415110428
59,0.557674760187503,0.5577070217805001
60,0.5576615376085392,0.5576665326917438
61,0.5576787334537034,0.5576095195380358
62,0.5576588787370222,0.5576885521355103
63,0.5576471323683864,0.5579126999125285
64,0.5576552364233764,0.557616186346424
65,0.5576513250540794,0.5576195475770043
66,0.5576566457176532,0.5575710417155862
67,0.5576503866493934,0.5592777858050035
68,0.5576598132860437,0.5577249732711532
69,0.5576450837232173,0.557742037881229
70,0.5576442179151405,0.5579311427368481
71,0.5576379455251971,0.5576397604567107
72,0.5576405066302199,0.5578230156753865
73,0.5576489073607656,0.5593171055276791
74,0.5576271123144539,0.5575802720537711
75,0.5576368458672827,0.5576591668563248
76,0.5576301179011575,0.5579042384714215
77,0.557619878103052,0.5576237912062181
78,0.5576221655162394,0.5576970179497069
79,0.5576128359334007,0.5578491443515827
80,0.5575885818633078,0.5579428439511749
81,0.5576374600561779,0.557546195092988
82,0.5576509429197083,0.5578159776939103
83,0.5576030915041748,0.5577103199231089
84,0.5576169418019611,0.5575241737797731
85,0.5575963645063041,0.5576422519535796
86,0.5576184181834589,0.5577742488294892
87,0.5576140142088504,0.5576381075707848
88,0.5576085862958041,0.5576073892801475
89,0.5576021071549236,0.5576122342659895
90,0.5576135209243804,0.5581509355459778
91,0.557610750203097,0.5576263547265493
92,0.5575879234833545,0.5577836498932855
93,0.5576294310655642,0.5580321029053428
94,0.5575859678403153,0.5579170693106664
95,0.5576088182682927,0.5576919280471775
96,0.557596819047972,0.5576876728037189
97,0.5575859618710558,0.5579100265585469
98,0.5575926111411598,0.5576155910335572
99,0.5575976634187751,0.5575546429273495
100,0.5575898133190039,0.5577514240935585
101,0.5575851218832313,0.5576281316633999
102,0.5575993566577364,0.5575761509136641
103,0.5575794682461919,0.5575789761520556
104,0.5575892277009139,0.5575461600751409
