epoch,loss,val_loss
0,0.6744984544747226,0.6721078632217523
1,0.6706796171518837,0.6700345132584532
2,0.6701941833830735,0.6701622122722106
3,0.6699305080209216,0.6694600875507901
4,0.6696308643211297,0.6693498188254378
5,0.6694313531585255,0.6698447053529392
6,0.6693313943143692,0.669318922350326
7,0.669149806873894,0.6690594484328239
8,0.6691269740227931,0.6704873667267631
9,0.6690382488866686,0.6688791411735528
10,0.6689213352627523,0.6690458600788395
11,0.6688555809900877,0.6701765433225969
12,0.6688297373635432,0.6686606264188212
13,0.6687802555919544,0.6688397581215338
14,0.6687665993205447,0.6694887681898662
15,0.6687239748782252,0.6686605335379927
16,0.6687085688060134,0.6700607461978163
17,0.6686921333305429,0.6686318276069345
18,0.6686820421202654,0.6693201412828229
19,0.6686551305961329,0.6686052235607421
20,0.6686200714459505,0.6686637108385023
21,0.6686233980257941,0.6686865864092345
22,0.6686086590568974,0.6685490924175796
23,0.668585373423946,0.668485186474653
24,0.6685594883876596,0.6684852065085153
25,0.6685447248574387,0.6684864317687406
26,0.6685495658741413,0.6692750399947942
27,0.6685275772636912,0.6685629202692173
28,0.6685202655031862,0.6685174066755002
29,0.6685131807248138,0.6684115320912652
30,0.6685045289465735,0.6687133884986507
31,0.6685207823164386,0.6684793047873164
32,0.6684726162004336,0.6684979954957773
33,0.6685031770195046,0.66837971730991
34,0.6684645286041929,0.6685764816558151
35,0.66845704608855,0.6684273772908332
36,0.6684591892842672,0.6684402237577213
37,0.6684477676204794,0.6684233812617938
38,0.6684521208419855,0.6684299294714211
39,0.6684368092083119,0.6685295866390287
40,0.6684235599745433,0.6685071825148171
41,0.6684221244017202,0.6683718637945313
42,0.6684194754750252,0.6684158196880152
43,0.6684452106408915,0.6683271077108209
44,0.6684195758769071,0.6684218126335693
45,0.6684126124352234,0.6687441585753785
46,0.6684219402570616,0.6685193417203679
47,0.6684018775167111,0.6683675824355867
48,0.6684172536712383,0.6684259537128829
49,0.6684098983700427,0.668431122482476
50,0.6683818921712528,0.6682973974978184
51,0.6683891682558178,0.6683032213505704
52,0.6683867465348806,0.6683423039656472
53,0.6683877337360455,0.6684824571366043
54,0.6683735492255855,0.6683450839160566
55,0.6683831671285939,0.6683189360153037
56,0.6683684315827039,0.6683297832608128
57,0.6683679005773248,0.669539984174242
58,0.668362456137692,0.6683505763226849
59,0.6683703074727272,0.6682881688918313
60,0.6683633724200297,0.6685526951051844
61,0.6683601248509393,0.6683543474594336
62,0.6683609014115843,0.6684744240358479
63,0.6683566842824927,0.6684200680594757
64,0.6683533359849564,0.6683727682195278
65,0.6683428660144086,0.6697437141374006
66,0.6683724319560874,0.6685681053763707
67,0.6683606705193601,0.6684189841200932
68,0.6683365590855836,0.6682829825115597
69,0.6683424562151715,0.6683402099845257
70,0.6683332886747576,0.6685169077267888
71,0.6683426397485086,0.6682900616587657
72,0.6683353891323901,0.6682605021327795
73,0.6683310443159645,0.6684441554114726
74,0.6683498770330834,0.6683316540960397
75,0.6683226868299144,0.6683441792449555
76,0.6683287735184982,0.6683137426399818
77,0.6683251556470676,0.6686134540894608
78,0.6683286168943547,0.6683824614757619
79,0.668315707904046,0.6683364054769377
80,0.6683415119283884,0.6683823951836975
81,0.6683023681276324,0.6682969656741409
82,0.6683105741605311,0.6683213144696969
83,0.6682960761848635,0.6682574830633393
84,0.6683296883884858,0.6687443798376261
85,0.668309149339869,0.6683139115387398
86,0.66832338587853,0.6682628928450757
87,0.6683060351745613,0.66825510134806
88,0.6683276339708634,0.6682492076205283
89,0.6682929783978475,0.6686817433117722
90,0.6682956434579111,0.6683255777494177
91,0.6682862501532753,0.6683307217381692
92,0.6683052098123102,0.6686618964842848
93,0.6683179243826302,0.6683247287831496
94,0.6682864968388944,0.6682957714420283
95,0.6683026487577708,0.6686603881422255
96,0.6683004579026329,0.6686279828707075
97,0.6683085760740248,0.6683726347030411
98,0.6682925212223696,0.6682770342292607
99,0.6682882158062126,0.6682220383572242
100,0.6682930561642654,0.6684741235563106
101,0.6682851602299671,0.6682879277613687
102,0.6682860524727732,0.6682047095727747
103,0.6682792121579644,0.6683601678525226
104,0.6682866435616,0.6682492219466566
105,0.6682838620033594,0.6683476259826914
106,0.6682768485094239,0.6683734230376509
107,0.6682961773211201,0.6682562000821162
108,0.6682796038975782,0.6684228931227544
109,0.6682908154177913,0.6685886303640575
110,0.6682901892170183,0.6682050023662754
111,0.6682817999205529,0.6682400646684131
112,0.6682544458311342,0.6684618990289156
113,0.6682853280381406,0.6686195297356312
114,0.6682733455632989,0.6683114418457932
115,0.668288999452272,0.6684744826797381
116,0.6682791497132378,0.6683883055138251
117,0.668275834577729,0.6682777355043628
118,0.6682718803516327,0.6683061342779295
119,0.668266125666288,0.6682064083240818
120,0.6682706084568155,0.6682987256250401
121,0.6682661503380446,0.6682214320122448
122,0.6682600693903621,0.6682873414123893
