epoch,loss,val_loss
0,0.4328530961923081,0.4268553067754363
1,0.41547515322502665,0.41043224103966375
2,0.4080605406364758,0.4058734872558499
3,0.3995258533101764,0.4005321022696446
4,0.3867779699542063,0.38162365449914426
5,0.3814341210954481,0.37693393552689075
6,0.37940485464583196,0.37251172536409266
7,0.3777598448806434,0.37327373232442557
8,0.377098329710684,0.3765619658845188
9,0.37561998279879893,0.3784612721948052
10,0.37886737821270805,0.3734650796877651
11,0.37551641819193116,0.3768040673203043
12,0.3765782569940809,0.37137282855555875
13,0.3747010615518053,0.3746099938251131
14,0.37448108991940054,0.3718748595668466
15,0.37405209884130886,0.3695751215377565
16,0.37369185497315766,0.3721210969392954
17,0.37259871104686,0.3744543415289181
18,0.3725291041495036,0.38266914316115647
19,0.36833821792158483,0.36922576042640465
20,0.3654848881643548,0.36374268619065786
21,0.36611281838014925,0.36197510675689604
22,0.36588741851439005,0.3695451006022794
23,0.36643704153793893,0.3632796774041305
24,0.3663235067022885,0.36613209083405834
25,0.36836281328869286,0.3654232751151757
26,0.36806918791443893,0.3629176175161526
27,0.3687016941207967,0.36546073784579797
28,0.3702166468905602,0.3758171360936801
29,0.3717190343782389,0.36581641093378664
30,0.36852775498045437,0.37741713655117276
31,0.3716009804706493,0.3727188400024491
32,0.3803631793514049,0.38272722141895127
33,0.3816095515549612,0.3836485617092113
34,0.38110657020224087,0.37967522537604786
35,0.3808054379958043,0.3822135798156779
36,0.3810071926429975,0.37907363270904104
37,0.38133305870443224,0.3808602548624082
38,0.37970532844368693,0.37599833982378456
39,0.37780161096538,0.37577369762106777
40,0.34916576602273613,0.34208017321863604
41,0.3187668971318326,0.3030106258161819
42,0.3050811905756319,0.29515364897255836
43,0.30164236703412617,0.3057066609152396
44,0.2995888130585972,0.299818332106369
45,0.29795245330432335,0.28475229572078425
46,0.29849816968651127,0.2900429249468429
47,0.2974385393055366,0.29533583598524543
48,0.29583251945001426,0.2941337957884161
49,0.29578624853043917,0.29636149561795644
50,0.29543896011418574,0.2814389705810852
51,0.2948187982453574,0.28378781699814376
52,0.2952017350841483,0.28590432288097223
53,0.2960988277678105,0.29338013610693064
54,0.2971909870948199,0.30507289966378703
55,0.2994571043540248,0.29895606492340987
56,0.3001902646196784,0.3015909481796582
57,0.30229906640428716,0.29443018616492483
58,0.3024803551284672,0.29540235373972906
59,0.3037713353963588,0.30329209131548135
60,0.30460444184468327,0.3161556827758557
61,0.30247753225773166,0.30282643923114017
62,0.3052503262444747,0.29605804900649785
63,0.3049232539245122,0.2982714702246597
64,0.3053495776619938,0.2964992926712571
65,0.30501851652987855,0.29431229011224025
66,0.3049003360070866,0.30285023926700677
67,0.30568637784948643,0.3073615541397914
68,0.3057257650043372,0.3030674086902776
69,0.30568761742717737,0.2991611889218757
70,0.3052033477043696,0.29351657025674804
71,0.29621662708113994,0.2936261119387144
72,0.3011214688664479,0.2900960884147398
73,0.2920495114720268,0.287982049491477
74,0.28905289932537515,0.2801802202988631
75,0.2911624775903164,0.2903567187388111
76,0.2900963296546496,0.2814275604902804
77,0.2916758479349476,0.28149440063085723
78,0.29230290561390343,0.28983377164263563
79,0.29351062480684853,0.28307075700307327
80,0.2927457450522031,0.2956426315944592
81,0.29370904856508107,0.30033803623002064
82,0.2944952978385533,0.2864446314294318
83,0.29364885990139394,0.28804873785073115
84,0.29466022775887396,0.2864489061456547
85,0.2944556072259025,0.2883828053311184
86,0.2937102856264888,0.28150286710723327
87,0.29299138314265616,0.28493823919624633
88,0.2913379254315397,0.2865972397959223
89,0.3009319133419308,0.29000864369646245
90,0.2921727002530599,0.2929481443638113
91,0.2895458656237375,0.27989197905221697
92,0.2891773963235408,0.28483946289170325
93,0.28902965317443785,0.2905433990690496
94,0.29081518426358843,0.2841948430041394
95,0.2914792085133439,0.2856425601568576
96,0.2920402791068184,0.2821500556750757
97,0.29887396610862343,0.28071080965020095
98,0.2907731927198758,0.2789632068460347
99,0.28915726982777734,0.28396332518571743
100,0.29147035458224185,0.28954227021715256
101,0.29299229193779586,0.30442589580801027
102,0.29253868271799965,0.2830026532628448
103,0.29341148361146785,0.2826857346315128
104,0.29425870329379844,0.29119897544407525
105,0.29417624993385266,0.2896206117137361
106,0.293687378569282,0.29559611205096875
107,0.29244063451564567,0.2847345519954987
108,0.2897228346728116,0.2844610856441691
109,0.300026583243355,0.2860767271049209
110,0.2912178826834753,0.29702082829110343
111,0.29029455412325145,0.2815512537885672
112,0.2909749234817344,0.2816892417754916
113,0.2914663881962772,0.30400701352904513
114,0.29222849886015734,0.2872635121879939
115,0.29456990722009985,0.29282254755097104
116,0.294295515201027,0.28296205673099223
117,0.29197009916988304,0.28265337247898376
118,0.28599414011414387,0.2763927664957652
119,0.28555483377570634,0.2784507761238218
120,0.2876327227351429,0.286891743746581
121,0.28930454295304275,0.2887953402975834
122,0.2946539536940394,0.28968724016256003
123,0.29841668557503714,0.2823921156357665
124,0.2900719975235222,0.285625396189063
125,0.29056109852201456,0.2860002152874607
126,0.29211323296459174,0.28251603362756916
127,0.29321524879331595,0.28673056313134404
128,0.29492846329649575,0.2944517413767285
129,0.29575350816301305,0.28720284470348917
130,0.2958285913145323,0.2923928957488373
131,0.29385960178909826,0.2906931744213639
132,0.29659039305625773,0.2906013336429562
133,0.29126239745177146,0.28359882598235653
134,0.28785662832770414,0.28326255673485284
135,0.29115568485846527,0.2897024017647673
136,0.2950618634823796,0.2890139941564205
137,0.2957121553145152,0.29536955267332066
138,0.29551744240103106,0.2870484950298762
139,0.294186890515373,0.29478976282202174
140,0.3001755380528055,0.28971291190541065
141,0.29000700896473336,0.2947272429008981
142,0.2870694708874186,0.28700963703543536
143,0.2863893590623336,0.2758213565600323
144,0.28174426319668716,0.27275959375860565
145,0.28363657692115274,0.2849032595024489
146,0.28979735672295237,0.2935946349175125
147,0.291981808611934,0.2888214066801056
148,0.2925937077571019,0.29029071038763826
149,0.29023831832609015,0.2935460687871514
150,0.291204256872884,0.2946000849885459
151,0.2895766094648581,0.27411722900506164
152,0.2880989723920012,0.29053230542504327
153,0.29034725775261766,0.28762300507751337
154,0.290636259865918,0.2833822603030946
155,0.290299475425296,0.2802457516070605
156,0.2915513655252689,0.2787330916890876
157,0.2887342029499064,0.290459143287475
158,0.2894959888613815,0.2905786823254922
159,0.2907425859670559,0.2890099287562325
160,0.28985737918389975,0.29984142093815574
161,0.29357950395043136,0.29009151661029087
162,0.2937757144067928,0.2845556758808732
163,0.2861045242148004,0.27901034337639713
164,0.2842405501553576,0.278913810696297
165,0.29443741244949595,0.28237643265169066
166,0.2894232975695726,0.2828848923967406
167,0.2911643149564973,0.28110121726848614
168,0.29247858259472537,0.28534672738603467
169,0.2949332492344147,0.29080614445829545
170,0.29565607301956365,0.289966346873904
171,0.2955817948791573,0.2972396185479017
172,0.3006335103975164,0.2897347495159768
173,0.3118075544236423,0.3113159151966871
174,0.30061803591086994,0.2874475766470231
175,0.29113158309678855,0.28373882537906153
176,0.29041275050905013,0.283127954739845
177,0.2908496212699621,0.2876232017210928
178,0.28955209868655596,0.28982579037135475
179,0.28854727107498473,0.28446005537647284
180,0.28986883460641577,0.28404889321035537
181,0.28988000799973995,0.2885288080140278
182,0.29046021933130606,0.2783914559889047
183,0.2868871163639376,0.28212571374619205
184,0.2896789518668116,0.2829879433704627
185,0.28884652502340474,0.283636127458187
186,0.2891727277903343,0.283532049762704
187,0.28954149365163057,0.2845887040635593
188,0.28896287223584743,0.28214763400116205
189,0.28871088767413805,0.2822809935486401
190,0.29049497626299003,0.2915288463364272
191,0.28987243028579474,0.28487165166975104
192,0.2907557915226161,0.2838428418057211
193,0.29075337844870264,0.284213376008768
194,0.2904528755423643,0.28158737743169
195,0.2891016577174671,0.2864408253588447
196,0.28979028309944815,0.27818644843001766
197,0.2903029757420079,0.29173685589124576
198,0.28910567044473284,0.2971609031227318
199,0.28922596220061075,0.2790680482642521
200,0.28977639371637914,0.2866452390470652
201,0.28867865793055575,0.28932198840351486
202,0.28958610176956723,0.28724942443379287
203,0.2887366039962839,0.2846685413744568
204,0.2887943458470176,0.27940389690972167
205,0.28814772667168237,0.2781683658415065
206,0.2886410764277839,0.2824860741490911
207,0.28741151070613846,0.2868067206257709
208,0.28997102139188613,0.2931324492525471
209,0.29427330867408946,0.288920678515884
210,0.29257785473212444,0.28619104743756546
211,0.29130992458628524,0.29052866517838855
212,0.2911382696355323,0.2901362507429853
213,0.2910472093660721,0.28080509668296966
214,0.29231791235476756,0.28432868983252557
215,0.2909069633741173,0.28347715667221807
216,0.2903160097019421,0.28443884534354086
217,0.29112540268831305,0.2893822634829342
218,0.29075414928303156,0.2814530868439008
219,0.2902704528648314,0.28392035485301886
220,0.30128111887416487,0.28918121308205913
221,0.2932541570205578,0.28523579194565507
222,0.2926195835967144,0.2947017138716548
223,0.2920198871506204,0.2830582279609053
224,0.29338186397124155,0.28892393351988993
225,0.2926585650284418,0.2831203062925267
226,0.2900046264852504,0.29032476086407644
227,0.2913148901481137,0.2869867400840313
228,0.29291997232037387,0.28630230569331405
229,0.2919514077923281,0.28897555647586964
230,0.29049921220095515,0.28166371996748985
231,0.28995335078556284,0.28701258241989147
232,0.2915319791711349,0.2846762515963206
233,0.2913669000932877,0.27736349161582
234,0.29180829844576756,0.2877723887362815
235,0.29344526980575514,0.2852176177920369
236,0.29410527723965696,0.2865528051036498
237,0.29197795950859,0.28587614918964155
238,0.29185870170390765,0.27855751442928056
239,0.2929191403656745,0.2876760031154707
240,0.2921713057973926,0.28879117474089294
241,0.2926945978169628,0.2855013210176481
242,0.29072096225002303,0.29529898552534234
243,0.28926676527844913,0.28708678719182606
244,0.29186516485923675,0.2875591560951254
