epoch,loss,val_loss
0,0.14165628998191188,0.06125319082269352
1,0.05266505794273578,0.04218508512216849
2,0.02585101114819757,0.023725195137317856
3,0.024203566645237085,0.027996828609044004
4,0.024214480404290174,0.02407082830038989
5,0.024097468596782617,0.022961908647086363
6,0.023946614641931464,0.023347594624571942
7,0.023934251579681605,0.02349332294587837
8,0.023992199752238586,0.02454194937551125
9,0.02388979584353862,0.02460774176422545
10,0.023882014140171066,0.026705372098012995
11,0.02383329500507513,0.023280593607024877
12,0.0239224155998523,0.02389075310978724
13,0.023858073052111194,0.023005376273697063
14,0.02385551022137884,0.023081245024312927
15,0.02378610602031342,0.025759247123560005
16,0.023798875633528907,0.025744519910195163
17,0.023741336948842073,0.02399160623573937
18,0.02384278580969234,0.024182143876212925
19,0.023695853650480582,0.023448261206685885
20,0.02378791136790713,0.02360282233977233
21,0.023787222900163593,0.023930884534588647
22,0.02358202779848727,0.023753485475514664
23,0.02363254573884056,0.023147322900516836
24,0.023646053077160216,0.023649395927904437
25,0.023657877644379554,0.023212518810567278
26,0.02365159533536739,0.023530868401761214
27,0.02353799277894217,0.023246114179727217
28,0.023653075906733195,0.02496979651559547
29,0.023662125536178847,0.025834449497069912
30,0.023601412828967012,0.02379964762488593
31,0.023642917564935344,0.02303586079758881
32,0.023484324162407554,0.023220457266001786
33,0.023522029053136932,0.0239762521533394
34,0.023564520765462223,0.02358684310397014
35,0.02347671947063064,0.02448925735824392
36,0.023457510674522696,0.026122054914284525
37,0.023524178848635377,0.023168275550290083
38,0.023553830545416456,0.02326084933028319
39,0.02345062219958416,0.02297884488850244
40,0.02348637206258057,0.023980370141277657
41,0.02347464103186183,0.02327412588855556
42,0.02351425044822226,0.022955034398595083
43,0.02351682965638493,0.02350374957033519
44,0.023490208410304324,0.02310417135317399
45,0.023361036708827117,0.023191622581153568
46,0.023420058899550893,0.02347751318579268
47,0.023549261312339184,0.02542284227490143
48,0.023607924995239643,0.02310946029070662
49,0.02332615393097047,0.024773697413639374
50,0.023405074505217307,0.022980548207660594
51,0.023355248384177685,0.02344944463614977
52,0.023367362122217433,0.023198006699639413
53,0.023555560476726575,0.02299113278942449
54,0.023366206557118446,0.023343248342787927
55,0.023342682164070084,0.023454769404976972
56,0.023416510503962457,0.023013531303161132
57,0.023406586853964486,0.023130752806329032
58,0.023434242661699925,0.02298700124254684
59,0.023346151740436884,0.025019673161626146
60,0.023331174119967494,0.02284537194312889
61,0.023368789209909053,0.02388735018647037
62,0.023362019369535022,0.023258932377340384
63,0.023330901073460145,0.023096227580306564
64,0.02327815697436853,0.02334158403920958
65,0.023333249778913365,0.02369900666406612
66,0.023446340229269936,0.026234866273549005
67,0.023265082824626845,0.02286593438859003
68,0.02342327281930964,0.02312759195337544
69,0.023332419112878595,0.022898193122414784
70,0.02326937939087264,0.022821370935642352
71,0.023338919876963734,0.023838129832505616
72,0.023330341622554998,0.02281679541472384
73,0.023220169342321743,0.023491596606072706
74,0.02332596691380397,0.023274641362001976
75,0.023360842953530622,0.022823306776718445
76,0.023193688498888847,0.02398338266622625
77,0.023296551991828816,0.02325716462859556
78,0.023190869777042756,0.02339151655136363
79,0.023290752974464642,0.02480942226693493
80,0.023283767496063697,0.023059973130098176
81,0.023310175780460036,0.02348818878430782
82,0.023284580807933372,0.023811407319630988
83,0.023421377661250097,0.024143340886403655
84,0.023134953060971318,0.02355523551237235
85,0.02327385142990511,0.02290208245926752
86,0.023247944727855668,0.023492770270983253
87,0.023267343504090817,0.02319883767312544
88,0.02316848828206412,0.023603133041332252
89,0.023272938467264415,0.024452596776416757
90,0.023311935888557175,0.022653202672548528
91,0.02322235110950627,0.022893609158583014
92,0.02317980498292868,0.023025181635496838
93,0.023226385146266314,0.02304090453192721
94,0.023328352930972712,0.023096816731880007
95,0.02313332294346951,0.02448312288713248
96,0.023173371062641567,0.02281789024578791
97,0.023218429109884156,0.02390990491100861
98,0.023312762679664683,0.02281922564327999
99,0.023133198879540063,0.0234921205371336
100,0.0231758978956347,0.022727349143836943
101,0.023265781029939748,0.02304674149141739
102,0.023232186913674922,0.02323479298134676
103,0.023165136788615124,0.022993697500372366
104,0.02321228141309046,0.023437907303306374
105,0.023191811123060332,0.02285607807020691
106,0.02319966192073602,0.02314434105261349
107,0.02315276606733517,0.022977665274006322
108,0.023197833567762453,0.022857545781660098
109,0.02319815599372228,0.02277548102648736
110,0.023173929625402965,0.02265024848940952
111,0.023160692794229106,0.02285553159775843
112,0.023277231110937352,0.023048971218792774
113,0.02310716547518611,0.023631745867060693
114,0.023114731579238802,0.022953653472880725
115,0.02315272393894734,0.022653840817422874
116,0.023216637021167386,0.02349828013263778
117,0.02313276045813525,0.023724926112259386
118,0.023163227752285846,0.022895625309508526
119,0.02325443053271154,0.023278454071662045
120,0.023093113925852934,0.023127270399371562
121,0.023216650897203733,0.02461620910797377
122,0.023152921293719972,0.022749149328025665
123,0.02320718270116787,0.023299176698725527
124,0.02315281860777538,0.02298212269116737
125,0.023167139837156524,0.022730030266431344
126,0.02309433199378917,0.02312556084542408
127,0.023200366450257772,0.02372814389276476
128,0.023191421830224143,0.02332830904367738
129,0.02311889365461352,0.022971718272910217
130,0.0232425673316113,0.023029115495008093
131,0.023077307951649268,0.023686054663257797
132,0.023121709768607508,0.02311737980214319
133,0.023150351714435146,0.022769831072453825
134,0.023133996886749872,0.02273843854506983
135,0.02320777570201958,0.023116615544284246
136,0.023141980852386793,0.022835531331534074
137,0.023102112978005962,0.023136763159412047
138,0.023092407704167945,0.02509219928158722
139,0.023202243852886936,0.023416804971545347
140,0.02320353447613742,0.023362623220390472
141,0.023054591364426006,0.022911426387051004
142,0.023113565296857812,0.022922395502864703
143,0.023159442941466872,0.023396974269244836
144,0.02311669508193275,0.023274261558806228
145,0.023051458284360088,0.022829876524626314
146,0.023158569936361388,0.02278867325265528
147,0.023091687386085708,0.022749099437950067
148,0.023107281913586276,0.023034164052818266
149,0.02317201170316941,0.02355470426304188
150,0.023105519286972537,0.022873425096179335
151,0.023097085769472125,0.0239196076486392
152,0.023051506724300907,0.023621654382009343
153,0.02312573983440463,0.022978991668468493
154,0.023151836975170172,0.02301772515823875
155,0.02317750657633912,0.023019486666313756
156,0.023107918217587623,0.022875730068832284
157,0.023090703998782415,0.023343514923032757
158,0.023077806900832342,0.022932082176467236
159,0.02315054477291475,0.022889662323770977
160,0.023090009315521548,0.022856546704081823
161,0.023106766213997185,0.023998331140371035
162,0.023126263388817448,0.023564439155190783
163,0.02303718976962338,0.02416767631146554
164,0.023218658640325594,0.023428927344029685
165,0.02305918418058603,0.023410925321169226
166,0.023091791208824524,0.023307439338212985
167,0.023121521973477707,0.023070070216316074
168,0.023146984180052885,0.023196679989100914
169,0.02301847879632676,0.023436959966687865
170,0.023112325078184656,0.023176194385470323
171,0.02316178822388156,0.023509417279037607
172,0.02307956638432545,0.022826006637493644
173,0.02314351657800061,0.022797386127435135
174,0.02308349654846769,0.02317429608103085
175,0.023048875100023264,0.023153635331421455
176,0.023106358369900215,0.02277862139475468
177,0.023222988824264035,0.023116796464904048
178,0.02302003619547704,0.02295429908597714
179,0.023008309812437622,0.023192548664211755
180,0.023167960372545735,0.02272374575021188
181,0.02308957280738534,0.023917233031875238
182,0.02307278031318022,0.023934623060399562
183,0.023070511348593198,0.0227005076201393
184,0.023110236448468827,0.022731520717738648
185,0.023100280214092144,0.022823423385361377
186,0.02312354852842222,0.02310307053283104
187,0.0231553578770144,0.0242164284843531
188,0.02308347243309426,0.023896225608279597
189,0.02304749613662037,0.02341550723418017
190,0.023073112971032504,0.022922647847913813
191,0.023059207029628763,0.0230977283062997
192,0.023064501437661554,0.023658587868548134
193,0.02308663307688386,0.0228030755630773
194,0.02307815722924628,0.023479248762377718
195,0.023088889199492934,0.022727668244206443
196,0.023123718439329633,0.02315319297598541
197,0.02308989754341227,0.022762814230905242
198,0.022994741789258116,0.022906165497984677
199,0.023176962297579512,0.023280462129563445
200,0.02312805621082977,0.023016977217268926
201,0.02303001638591218,0.022825670242603596
202,0.023126969587424103,0.02320835961803688
203,0.023044522993153425,0.023098581109634045
204,0.023024220614404463,0.023410623844627707
205,0.023116611898672,0.022688584844710417
206,0.023020657371256133,0.02334515527243584
207,0.023150299295342323,0.022861144115123678
208,0.023057653623030815,0.023083624555696253
209,0.023069901665081556,0.0228630061442916
210,0.023126889839857744,0.02275386107343101
211,0.022994774937194935,0.023882235161483804
212,0.02312391582239184,0.022963042874491957
213,0.023087841367794217,0.022633795062669545
214,0.023033179636064955,0.02472434905611255
215,0.023107883612737714,0.02308067508282959
216,0.02299853472067393,0.022711118558258546
217,0.023103314911951122,0.022758872985498776
218,0.023111356599487178,0.024175045848621943
219,0.02302387346037858,0.023122279630604935
220,0.02308217841658375,0.023045165546608893
221,0.023066149950087024,0.023365484400642792
222,0.02311137990265203,0.022883501437499284
223,0.022966601959556986,0.02272674225964646
224,0.023171904359867487,0.023243497508771322
225,0.023007182993268746,0.023434352032669716
226,0.02305092873181299,0.022776462903632926
227,0.02306766327631345,0.023445849331138448
228,0.023135146930170575,0.022792231068073904
229,0.023024232347877763,0.022878640373226407
230,0.02301742908188241,0.023457332154781498
231,0.02311373086829337,0.022767443702377575
232,0.02304218590652628,0.02311384120122504
233,0.023014607510233907,0.022715324158144447
234,0.023054638814231712,0.02298446072834443
235,0.023215896624931804,0.02271006577416678
236,0.02296652193281719,0.027849051020833668
237,0.023171319231706605,0.022759342214773277
238,0.02302802687318777,0.023286135029268247
239,0.023111536276253532,0.022673112133719267
240,0.023068139832809295,0.02566509425122623
241,0.023124699760005057,0.022655816316522286
242,0.023107188835674575,0.022854763774852536
243,0.023058940331153067,0.02357949498355765
244,0.02313192593131801,0.025489550664574024
245,0.023031512416041584,0.02478956286637399
246,0.023026747996066448,0.023885990768647513
247,0.02311771079230842,0.022790641774553526
248,0.023128965409468117,0.023597803975337117
249,0.02298221035192696,0.022849848676228864
250,0.023061339516374322,0.023016323664041136
251,0.023099804592641184,0.022832658969530368
252,0.023002868574812447,0.022738090195143983
253,0.02308696001056406,0.023885546857821915
254,0.02298495708573922,0.022883456711963866
255,0.023187434910495075,0.022963129723446052
256,0.023079930934950792,0.02285583678782927
257,0.02305347096401272,0.022810293117504283
258,0.0229298660552485,0.02302982972165968
259,0.02310048589865557,0.022959877509732555
260,0.023226766955021093,0.02293140411482802
261,0.023043619552187974,0.02537316887918051
262,0.022989951458266027,0.022805463563836084
263,0.023024462181315434,0.02325630500536315
264,0.023044025373580357,0.02363156807927184
265,0.02308355330554344,0.02310775852105753
266,0.023009826633170975,0.02306288366530152
267,0.023018168211042835,0.02374720938309686
268,0.023174371891956536,0.02288748981650175
269,0.02300406282739364,0.02402743119114294
270,0.02307086675498578,0.023925984479728043
271,0.023085000871164763,0.02265308994796912
272,0.02304490769488944,0.02308082947655983
273,0.023117422873673917,0.022808525593688192
274,0.02300576070884911,0.022865369963006137
275,0.02304110529465522,0.023076246800555332
276,0.022975838983611618,0.023085966596016756
277,0.023097781955058294,0.022783006440727564
278,0.023127929326876413,0.0230321520491082
279,0.023019866462496163,0.022704702745402715
280,0.02307477940043671,0.023147876897052035
281,0.02303831885270268,0.023086537028520992
282,0.023001841232210374,0.022852138344907066
283,0.02315537915747467,0.022879974771035216
284,0.023053522890271377,0.02272971953840922
285,0.023087422694001408,0.02386548868200397
286,0.023023273258341206,0.022945921469682676
287,0.023032321969120147,0.02449518947435018
288,0.023070170971409357,0.023644317614815794
289,0.02299210091801189,0.023756348672774992
290,0.02308711881632451,0.022933848885835488
291,0.02302975772093121,0.023235934421173117
292,0.023038475068478132,0.022804913145578934
293,0.023012924567907215,0.02275616334840926
294,0.023082898513560626,0.023096710665485194
295,0.023099564829562828,0.023096123467704493
296,0.023102052706322797,0.02277320623250815
297,0.02305953352258717,0.02309460096772769
298,0.023078254643651985,0.023099145780728386
299,0.023031289972138585,0.02270007122310956
300,0.023000236052713043,0.02286696953856296
301,0.023016948925165964,0.0237475976512577
302,0.023120434080763495,0.02267935243159556
303,0.02306988554597973,0.02274755168420975
304,0.023016973489450275,0.0227543401878089
305,0.023053774126261164,0.02272021341495563
306,0.022983185683401654,0.023829248653696858
307,0.02313403495632821,0.022825633726231958
308,0.023003742592386918,0.022763775496934
309,0.022976592185346485,0.023015772540125212
310,0.02308712160284761,0.023557703177596794
311,0.023069350963844052,0.023569113960829228
312,0.02299945087259193,0.022921667411488253
313,0.023071089410316124,0.026122465594462175
314,0.02305768263473404,0.023017635269071423
315,0.02303513704682235,0.02293646976869221
316,0.02300341171826676,0.02274376285080846
317,0.023110309174264983,0.022781934969909285
318,0.02294774659106033,0.023225549734899542
319,0.023034373567782814,0.02401599584363442
320,0.02298216667133484,0.02292219194235911
321,0.023071233030530713,0.022805212059697016
322,0.02300329436938897,0.023391665298353525
323,0.02303741852731275,0.02305253216851247
324,0.023072531358967963,0.022642817520246133
325,0.02297863631928377,0.02278255340485189
326,0.023044702095194734,0.02281621818290325
327,0.02309875690760158,0.02275548922963846
328,0.023038054700288697,0.02262485129486743
329,0.02302058490006615,0.023054384800657666
330,0.023078177270920968,0.02287987356633536
331,0.022962303873118785,0.024326348395014054
332,0.023061406476308496,0.02351027903835794
333,0.022990419577768477,0.022742746587498693
334,0.023119140032985562,0.02307996978717191
335,0.023067105378357055,0.023177521101889312
336,0.022986135735131093,0.022904053839083817
337,0.023056560523545953,0.02344232305425683
338,0.023050736129688894,0.022961467406003137
339,0.023086499998258125,0.02267821908185307
340,0.022972863849451977,0.02281590662279182
341,0.023077529611633264,0.023644772297228615
342,0.022988763383234575,0.023239401857873637
343,0.023089044814487154,0.022740747882516343
344,0.02302325490882976,0.023108176082878386
345,0.023023644667699468,0.02328610015943376
346,0.022978126997504827,0.022832585529563177
347,0.02303033511114897,0.02321620106597114
348,0.023033008774478943,0.022713275045603398
349,0.023076227299577232,0.02272724142943486
350,0.023080041562076763,0.023406393814246862
351,0.023026411268982194,0.023527706862260436
352,0.023058862320417695,0.022672941643618275
353,0.023101682912448136,0.022943038531618037
354,0.022975350589417725,0.02338017483301396
355,0.023090059091028074,0.023082777646082825
356,0.02303661335837379,0.023234960804645623
357,0.023046536623484652,0.022894512128375982
358,0.023064779224161575,0.023014822389692328
359,0.023031831605078504,0.023073169166823494
360,0.023031998917811828,0.022675374039134926
361,0.022970853208137645,0.02323839109870234
362,0.023068250424945525,0.022745041076708425
363,0.02302221360085584,0.022723551967490725
364,0.0230356574886375,0.02330053670900773
365,0.023048598261223994,0.023596833056484325
366,0.023006955959010037,0.022748980059596434
367,0.02302485819292559,0.0229170708516473
368,0.02299729998422255,0.023722994184649262
369,0.023007739538536798,0.02292993396297156
370,0.023047110640542875,0.02290766552419952
371,0.022936621154520772,0.022826416629653984
372,0.023033525592995156,0.022802595743040634
373,0.023065631408140146,0.02432852015105071
374,0.022963967379018794,0.02285596863576156
375,0.02311322542441954,0.023062405200717763
376,0.023059297617313436,0.02276490222671508
377,0.02304093065715546,0.022704655854376924
378,0.023013256787271095,0.02306045436439264
379,0.023066150151836357,0.02424868337527776
380,0.023141510652856145,0.02296490984621157
381,0.022893353552221777,0.022632443801086064
382,0.023026331205019276,0.022684220459838506
383,0.023038376201626114,0.02269678570524199
384,0.023076572647537114,0.022925873205430318
385,0.022951707388345094,0.023767644607101075
386,0.023019313305276904,0.02314808965317358
387,0.023067725491043713,0.023491573101754912
388,0.02299338724645827,0.02271755286378473
389,0.023018515028571673,0.023619865954522083
390,0.023030465976487724,0.02354792552399607
391,0.02294008423024111,0.023121835888843416
392,0.023099390561316463,0.022623104621798108
393,0.02314100194823661,0.023171028256087012
394,0.022911019167668526,0.023039706496796743
395,0.02303383517846596,0.02275028450072
396,0.02308579841085213,0.024735582376453194
397,0.02301731011007639,0.022856220217817115
398,0.022977543394003125,0.024917705527020894
399,0.023019250122745402,0.022755920884053163
400,0.023016392944944942,0.02317797566816246
401,0.02306847550871251,0.02265490441426529
402,0.023002222416361125,0.023099895444681724
403,0.023118222534334917,0.023125866654416474
404,0.023064567444683742,0.02268512904843949
405,0.02298539645707817,0.022974868945265813
406,0.023027576814345318,0.022834327076315504
407,0.02300965946411891,0.022680203016515126
408,0.023153266160757087,0.02382088777327641
409,0.02286786292504659,0.02316581612951236
410,0.023013170915756293,0.023067221443897265
411,0.023008687385200836,0.024114382548085705
412,0.023075189884397673,0.02283482956711053
413,0.02300571700741204,0.022985803569066498
414,0.023015975428046846,0.02418096993050899
415,0.02300968477286571,0.022992356735463206
416,0.02294650424173553,0.022801310419389462
417,0.023064403169357376,0.022644867960307763
418,0.023016702042048354,0.023188932817179382
419,0.0230136169902355,0.023073307073130416
420,0.022984020457380443,0.022686451522085076
421,0.023028279334562814,0.022723491952681786
422,0.022992310430601442,0.02369700968500753
423,0.023047386316491735,0.023085783076220456
424,0.023099915689522986,0.022802787254422596
425,0.022968550036243682,0.022762186422461868
426,0.022991018554420588,0.022964405952919726
427,0.023086664514790335,0.022759655794832963
428,0.02295657590204339,0.022694222773142283
429,0.022945081844902057,0.02429275458859428
430,0.023007723964381513,0.02292123724924784
431,0.02305133390924532,0.02283239246867215
432,0.023134338634489156,0.02283297956354428
433,0.02300308711103184,0.02288135288440532
434,0.02299408393530108,0.022877117760050174
435,0.02296851668879092,0.022677632542687225
436,0.023053186340369194,0.022877222909088574
437,0.023072969595001613,0.023869975663327568
438,0.023018707709608795,0.022814354517489036
439,0.02302798307348165,0.023067879122288658
440,0.022996718800223942,0.022725689371176
441,0.022937085493642696,0.022855706229194375
442,0.023129512236522827,0.023005079902890826
443,0.022903632454508594,0.023495440820456962
444,0.02306886585124081,0.02294099098181715
445,0.023032005718476672,0.023073651317004246
446,0.022976396206340535,0.023013606935080904
447,0.023030588495657502,0.022830498480512197
448,0.022934424751203695,0.022657617739892045
449,0.02312925009787988,0.022819216975438
450,0.022909082318965098,0.022647572737172446
451,0.023075402543085703,0.023138704166498443
452,0.02301080723395117,0.022903259214375464
453,0.0229990446908797,0.023583443476667815
454,0.02303607824394743,0.022807248936408887
455,0.022982978620093693,0.023428191130226678
456,0.02297255589584295,0.022994004178207128
457,0.022978899867938673,0.023139834449565494
458,0.02303666806966662,0.02296839226051965
459,0.02299183238592508,0.02265293963529881
460,0.023011711962092264,0.02292904098560091
461,0.023118464728083304,0.022764041224507807
462,0.022925453933535053,0.022832524728238723
463,0.023095597633622962,0.02270469249276872
464,0.02290557625649168,0.023084651846394542
465,0.023016910764018742,0.023149845295459996
466,0.02311947979301,0.02273004757124275
467,0.022960443859644453,0.023013024006535807
468,0.022946115720162478,0.02294151813832671
469,0.022971086468336156,0.02337339814772922
470,0.023019157072378817,0.022655132411146313
471,0.023022059599111834,0.02382452144701366
472,0.022964547942135687,0.023174230742908503
473,0.02299132464017323,0.023041684620064735
474,0.02308179625569821,0.02295866161849476
475,0.022953311436259442,0.022710906103512105
476,0.02308572096814164,0.022802521842925118
477,0.02301267011807286,0.022813308779694192
478,0.023075020064314684,0.022748662720433632
479,0.022906803289989678,0.023729890010127798
480,0.02299314807522759,0.02360602339469455
481,0.0230427954873021,0.022690543482975407
482,0.022935951485944024,0.022631876242671222
483,0.022988060122276905,0.022970755592623657
484,0.02301108997857137,0.02269288166422447
485,0.0229921589064286,0.022839119474108802
486,0.023061042889017613,0.023518235677737087
487,0.022939110174775124,0.023300877720082287
488,0.023026252910643696,0.022735374889262285
489,0.023092447584279054,0.023068318677141427
490,0.02295210976808739,0.02267315617858799
491,0.022998951406751893,0.023076691947753917
492,0.023049284053369343,0.022748064928950526
493,0.022966622364529364,0.023160075435110596
494,0.023122798903829615,0.024728523493812795
495,0.022897955583338497,0.02288014530376976
496,0.022955797760070656,0.023486435078172677
497,0.022983150886480425,0.022921478172915604
498,0.02298380107991844,0.023082227981998493
499,0.022940875243225828,0.02319138092536482
500,0.0230881642649988,0.02282081085133007
