epoch,loss,val_loss
0,0.15137167185467543,0.06110779890509788
1,0.05575630429247729,0.04911579502174585
2,0.04822740329654335,0.04818974705537944
3,0.04829984197882916,0.04788755310880169
4,0.04797928372054077,0.04801838077904676
5,0.0480679321906073,0.04794399118625751
6,0.04790736145550589,0.04791313946105969
7,0.04808090827304968,0.048286149791355856
8,0.0479641275392543,0.0478991108440045
9,0.04791754826778274,0.04754139069282547
10,0.04800711132788496,0.04760186647042197
11,0.04785791346036511,0.04791003930505186
12,0.04789899380134641,0.04835272032617582
13,0.04789387790425171,0.04753884727219097
14,0.04783610200627054,0.04780600184093993
15,0.047840604536253196,0.0480944255121411
16,0.047835424591561586,0.049207320532393246
17,0.04783021250842429,0.048046708315752015
18,0.047824908201273775,0.04755399634307449
19,0.04774632173732554,0.048117191334502755
20,0.04780032117363456,0.048071188865422075
21,0.047794767184187466,0.048363279633594485
22,0.04774606181420297,0.047846488448796354
23,0.0477323438689339,0.04757320833257925
24,0.04774241696456544,0.04865299543952415
25,0.04785225029549391,0.04791641230059122
26,0.0477007487141114,0.047659111524555
27,0.04771560739925344,0.04768203028375555
28,0.04779423647474566,0.047738673493277865
29,0.04769400215977959,0.048127607490217585
30,0.04768901969418585,0.048468079018070646
31,0.04767225863044258,0.0474951295615795
32,0.04765356264764266,0.04776400646699067
33,0.04770200914717454,0.047826573826025676
34,0.04766985520774083,0.04738318217710989
35,0.04766518936353288,0.04739971402753218
36,0.047644233293861124,0.048014047919480746
37,0.047596141646841734,0.047763565491999616
38,0.04760687968892445,0.047271371487566306
39,0.047591510306981256,0.050621407484340214
40,0.04765519209140592,0.047551728455730566
41,0.04761720906874592,0.04767872343441117
42,0.04760584071856275,0.047517570063483554
43,0.047592433693585734,0.04739882737315821
44,0.04756783576105996,0.04973995506516478
45,0.04758069589793634,0.04853557683262848
46,0.0475667519755453,0.04770616673656402
47,0.047577597063889414,0.04749942987557462
48,0.047575944992933245,0.04807376595186077
49,0.04759367896939258,0.04746596828020739
50,0.04751889858927896,0.04783598622623258
51,0.047575912857465416,0.04760615894278392
52,0.04762715672393687,0.047670296530791315
53,0.04753875294826824,0.04747177084471263
54,0.04755481535629879,0.047236152116764976
55,0.04755627560160524,0.0473709610550302
56,0.04762009360033164,0.047480574767116306
57,0.047527907998394146,0.04767625520759995
58,0.04745710524116203,0.047268788161927915
59,0.04752977375688551,0.047465652506725
60,0.04754536068119067,0.04741558924187989
61,0.04752825333816495,0.0473315165170131
62,0.04746821820051026,0.04865828690125703
63,0.04746817374418823,0.047367966706675625
64,0.04760666151823614,0.04735996110486815
65,0.04741564610575458,0.0488048456668054
66,0.047584101706624124,0.04726532157789842
67,0.04746894926267514,0.04744186689569994
68,0.047457159670303575,0.048501353975511856
69,0.04754571475797325,0.047641659306910625
70,0.047522510654277365,0.047696927431515095
71,0.047435660306796086,0.04745005547482853
72,0.047463629781890164,0.0474433279210362
73,0.04749648195120404,0.04721142254011219
74,0.04745763668613277,0.047364222928117185
75,0.04744757134631145,0.04721268407865218
76,0.047470024576206665,0.047692598100242976
77,0.04747150816934572,0.04773412270863976
78,0.047432955896420825,0.048256552412858984
79,0.04745215291140987,0.04758646826670691
80,0.04744873031955972,0.04762966977322111
81,0.047467385974826574,0.047897497164092855
82,0.04752433968545626,0.04777895131434337
83,0.04735119679241443,0.047401883266719194
84,0.04747775028482806,0.04764351557466865
85,0.04745553978246084,0.04775729400547546
86,0.04742688763675263,0.047819817134406306
87,0.04744913209107616,0.04733595177060803
88,0.047394297414010376,0.047414017772124145
89,0.04745578875602911,0.04735868320680549
90,0.04740795217972579,0.04751319121260669
91,0.04746854042918753,0.04726967465458842
92,0.04742292763083149,0.047697553036244913
93,0.04741905715396936,0.047362198196086905
94,0.04747429817801804,0.047428662185252136
95,0.047430178734193223,0.04725828257278372
96,0.0474271860649641,0.04773054503333691
97,0.04740839888253134,0.04747272443670218
98,0.04743166047957637,0.0475488694527296
99,0.04735354038564374,0.04752241728361328
100,0.047442365643217695,0.04744556803188647
101,0.04736359854437989,0.04744537373168222
102,0.047377219106510673,0.0475489991145898
103,0.04741391173298125,0.04747341594408136
104,0.047381503791879595,0.04719679254888547
105,0.04744611228172251,0.047853596326207774
106,0.04735825146339256,0.047634714527824494
107,0.047379773483871464,0.04732670908427747
108,0.04737026184993825,0.04736258523816562
109,0.04738947844131292,0.04728629797308955
110,0.04737263404094963,0.04712423380837726
111,0.04731540566386222,0.04846349359734753
112,0.04740197856208499,0.04716597615367047
113,0.0473521115477208,0.04725724107041167
114,0.04732661753845253,0.04831587482940614
115,0.04737635030985164,0.04799087206820569
116,0.0473416325071161,0.04752379659660331
117,0.047348859171263226,0.04717785375223634
118,0.047340153301838966,0.047526335883253466
119,0.04737067348707161,0.04745244514417629
120,0.047394330563436116,0.047227856336307036
121,0.04735691248060321,0.04738695137408557
122,0.047327843401655495,0.04724621438460267
123,0.047356519079823,0.04758954756461737
124,0.04739783411558202,0.047206296131967466
125,0.04734041046449464,0.05295983065381329
126,0.0473713806594352,0.04730626780777911
127,0.04732165027627175,0.047277083536632056
128,0.04736002718212364,0.04708678925434905
129,0.047338204168015534,0.04752040461246762
130,0.047323751625873677,0.04722310190736636
131,0.04734051270301727,0.047324548136581095
132,0.04733332533904498,0.04718765123925909
133,0.047309544707218903,0.04749243721460016
134,0.04733715166332577,0.047145869500564604
135,0.04736334174948869,0.047453153131628185
136,0.04736504959408566,0.0472527733859154
137,0.04731966863772709,0.04864522860618492
138,0.047372164559080825,0.047225954138983305
139,0.047294139203955705,0.04718931268344927
140,0.047323894629673326,0.04728178680531134
141,0.04734697334206314,0.04720060869863208
142,0.047338741926028195,0.04739487937106894
143,0.047278641365009914,0.047472019333630544
144,0.047305395226660586,0.047331918207391944
145,0.04736529770407745,0.047250885592851476
146,0.04730412817979269,0.04774963052468499
147,0.04732511479624932,0.04732740255574025
148,0.047437198601549956,0.04719251623904978
149,0.047306355681541346,0.04762284474736984
150,0.047299423148568207,0.04746143432847138
151,0.047309402963049786,0.04737555514359531
152,0.04732776371885737,0.04726633271636131
153,0.04730068804542843,0.04741608312363783
154,0.04727827632080594,0.04725870807620608
155,0.04731246748630949,0.04733843515144151
156,0.047301673633362844,0.047445861838799154
157,0.04734671393559753,0.04718478928131199
158,0.04731157401816355,0.04744616588952509
159,0.047312627099067285,0.04731899973566643
160,0.04728781637980593,0.047356326556408035
161,0.04728455775879699,0.047606214322296767
162,0.047310899133138136,0.04813712137591773
163,0.04733445102886426,0.047163647541448465
164,0.047296187247065524,0.04726216306390966
165,0.0472710255807419,0.04760620429606163
166,0.04732381254821706,0.04738508527120833
167,0.04731665205487388,0.047203482976205344
168,0.04726087079524136,0.04851454366424842
169,0.04731990313745565,0.04724589432424321
170,0.04728573783011221,0.04718682719446019
171,0.04727156307372592,0.04730804290125571
172,0.04730654740892202,0.04741431964706885
173,0.04730855046565251,0.04752660772065619
174,0.0473158713474834,0.04814855974305777
175,0.0473472453165445,0.04747906421041432
176,0.04730988760217488,0.048268900926929814
177,0.047276288701249634,0.04748952892133356
178,0.047339315957231204,0.04747424500787832
179,0.04724052560915478,0.04731968014362108
180,0.04732571982984825,0.04710350267959563
181,0.04733645093800734,0.04743905645672411
182,0.04729283576329454,0.048217496143002726
183,0.04730607807445678,0.04708124225887146
184,0.04727274869277561,0.04723661889534535
185,0.04732300361527575,0.047379052844236665
186,0.04724024774746405,0.04860049752546467
187,0.047346638167183173,0.04739967263770461
188,0.04726649260075449,0.047301829264050126
189,0.0472936699245807,0.04716612510059702
190,0.04734588739314049,0.04784984485008816
191,0.047296466442833036,0.04724708480588451
192,0.04724184044604774,0.0486005623519844
193,0.04728330924457831,0.04719864816096889
194,0.04731246089037183,0.04751104815042009
195,0.047320794455593916,0.047402624711217894
196,0.047243431954980375,0.047444217806739325
197,0.047305865452991876,0.047215913796551885
198,0.04725613067303296,0.0471101255783107
199,0.04727386988604145,0.048669217617472234
200,0.047311384086426406,0.04751001403982374
201,0.047281729265880715,0.04766541335734685
202,0.04731082467497777,0.047755203279648224
203,0.04728563604273384,0.047142505728078814
204,0.04731129997258754,0.047214288226289834
205,0.047290499995854926,0.047427262966804086
206,0.0472672955735291,0.04717790051095111
207,0.04726907338866656,0.04765532056094627
208,0.04727213473604928,0.04727218804062119
209,0.04726117804086656,0.047247960331431506
210,0.047333983979898867,0.04737408167514259
211,0.04724816234408618,0.04740469609611413
212,0.0472675090347477,0.04744838754151784
213,0.0472965931339706,0.04726020734236762
214,0.04732388200507842,0.04721001993156176
215,0.047240873164445946,0.04710283218908705
216,0.0473523232028734,0.04709647449752244
217,0.04726776456405266,0.04728304090797195
218,0.04728496432465186,0.04759106014714809
219,0.04730008392007374,0.04743217845059984
220,0.04723120446679451,0.04757268338419362
221,0.04735207456729109,0.047628040739350556
222,0.047222815649055366,0.04735597730235688
223,0.047286211556906134,0.048084240836027387
224,0.04728753385033539,0.04773985038216696
225,0.047252939842778334,0.047279821616180696
226,0.047338618065337006,0.04716908494811784
227,0.04730666654674317,0.04710294554434899
228,0.047266199913837736,0.04719425860466031
229,0.047264293896303856,0.04778739460982859
230,0.047329082285507404,0.047241184786961786
231,0.04724458553236451,0.0475675097968791
232,0.0473169843189055,0.047156064635129454
233,0.04732922690776851,0.04726082300318915
234,0.04721462483004891,0.04713825651554019
235,0.0472878329783416,0.04727551665071813
236,0.04726817991754277,0.0471852307767264
237,0.04725453534202991,0.04719535433102896
238,0.04727240023072913,0.04736494653120978
239,0.04725400109936913,0.04710750347084197
240,0.04728547191406659,0.04762582987217613
241,0.047232704149256885,0.04715725632227116
242,0.04727450300672119,0.04754638782428208
243,0.047327336543302935,0.04765283686256634
244,0.04723326765971599,0.047151379316645335
245,0.04723599711380941,0.047384555092127
246,0.047299219622946,0.04718574773646662
247,0.04732062628002857,0.04745147648049135
248,0.04730951729908788,0.047264217439489095
249,0.04725833217815149,0.04717095547312343
250,0.04727809909555457,0.04741283504978916
251,0.04731930140480339,0.04725252005147388
252,0.047239739709882905,0.04711114733399795
253,0.04729602104730362,0.047532204526822774
254,0.04724700826046754,0.04716563490884645
255,0.04723543297949074,0.04735032535777754
256,0.04726271164699567,0.04718178218993599
257,0.047303658219978964,0.04727480313266556
258,0.047291247186055194,0.04720563317436634
259,0.0472459884808599,0.04739021913875438
260,0.04724764295791884,0.047148389037589715
261,0.04725196726209254,0.047270009513200505
262,0.04726841455127457,0.04748764459775862
263,0.04727225926228993,0.047297912008101864
264,0.04731932756819313,0.04736860096160596
265,0.0472850539147568,0.0474642343178168
266,0.047269764458306496,0.0474592443429163
267,0.04729222738854796,0.04715266173974491
268,0.04723505774359528,0.04722142674399344
269,0.047275192052912085,0.047130835481464343
270,0.04728692318413326,0.04707442657123801
271,0.04723294064265599,0.04737997626931346
272,0.04727258220267334,0.047303405711640496
273,0.04730066160956542,0.04714265986747787
274,0.047321278141807026,0.04728094959703598
275,0.047251324984524175,0.04750885032323184
276,0.04730465354697167,0.04742970350826925
277,0.0472535659848667,0.04725345387913716
278,0.04724751252064602,0.04846285165367676
279,0.047319358307049336,0.047216270160115224
280,0.04723198522629736,0.047209792912312164
281,0.04736279750422989,0.04728995335318483
282,0.047169668357268414,0.047432691596842415
283,0.04733145723103,0.04745190918751373
284,0.047203407215652804,0.04767658862549203
285,0.04723926554832289,0.047472005073442736
286,0.0473358842784719,0.0471822888441178
287,0.04727270941493465,0.047070425003767014
288,0.04722119897877951,0.04731623276527133
289,0.04726886951612483,0.04719748829903806
290,0.0472422226382007,0.04790450800754183
291,0.04728356778597851,0.04758061840248183
292,0.04721807710957422,0.047576698609102214
293,0.04728034441973523,0.047259192105203324
294,0.047241082863151124,0.04744296925820134
295,0.04724378497909299,0.04726280209967821
296,0.047287121863304665,0.04716882562439745
297,0.047235689886051306,0.04708857793175713
298,0.0472730926136009,0.04728767682740137
299,0.04725988076435481,0.0471534669081715
300,0.04726406123390872,0.0472092556531211
301,0.04727630505262376,0.04755483145789547
302,0.047229931855813964,0.04743366913124625
303,0.04729357110909659,0.04781467070319376
304,0.04723496525008663,0.04733849423272269
305,0.0473098446630674,0.04729539976582437
306,0.04724806721071355,0.047216749643493844
307,0.047266592800938825,0.04719876896975166
308,0.04725819074218984,0.04744309473609303
309,0.04729898327992831,0.04772542674320837
310,0.04726852192063269,0.047409537077044164
311,0.04728186001136101,0.0477372191981622
312,0.04727388221434028,0.04714493627859178
313,0.0472765479260664,0.04717324852896376
314,0.047283377182736196,0.04735998270390724
315,0.047306938140059734,0.04745360619984655
316,0.047212933563142656,0.04738724749203074
317,0.04726336163868435,0.0475561359357721
318,0.0472411586449658,0.04735775894669914
319,0.04727622213885843,0.04885178880255902
320,0.04726228238396841,0.04849722537475961
321,0.047256916832866716,0.04725112387029882
322,0.0472754527472978,0.04722581465964536
323,0.04724871716666803,0.04724973984997669
324,0.04730447754263878,0.0473918436916917
325,0.047275265008747146,0.04733672751306359
326,0.04722130433362213,0.0472455164028042
327,0.04728457097896188,0.04736487054352038
328,0.04721839130550123,0.048482717547768575
329,0.04729553785094683,0.04718790873120691
330,0.04724730112754422,0.04712773628397635
331,0.047269741077717545,0.047111177447986305
332,0.04722279811100803,0.04793785975241906
333,0.04732763991921211,0.047173916358550706
334,0.047257325146719514,0.04722907309197683
335,0.04721421956551446,0.047281980482183676
336,0.047253814001056216,0.04744162619843103
337,0.04728989899575377,0.047163543203917656
338,0.04727308105060951,0.04765582668000352
339,0.047291191823357684,0.04712815259031263
340,0.047231539379623676,0.04706802247084777
341,0.04728979465486906,0.04717553375199167
342,0.04723021134192185,0.047812783898052116
343,0.047319253765159754,0.04725311603617649
344,0.0472480053488585,0.047607766918620446
345,0.04720856725192851,0.047343262736615745
346,0.047285642257506706,0.0473002298061031
347,0.04729356785579551,0.04725079463637524
348,0.047184183288344755,0.04743549161265004
349,0.04731163169911725,0.04738874653473367
350,0.04722440265845671,0.048245105724825856
351,0.047228874078840855,0.04746301446018863
352,0.04725277584215863,0.04725520442450903
353,0.04727102097549694,0.04732572852436162
354,0.04729244396459761,0.047068849488234275
355,0.04722125027373397,0.04746638054664717
356,0.0472775252757789,0.04729414834466711
357,0.04725753738404178,0.04839708545519408
358,0.04724655380482963,0.04713930969068453
359,0.04724069459618424,0.04733173524477205
360,0.047253288254201366,0.047551108755012526
361,0.04723531708901496,0.04737759757295968
362,0.047208968267071064,0.047416598372155505
363,0.04732542648631558,0.04718224502564794
364,0.04728945793299604,0.04727889071994159
365,0.04722455849530076,0.04716827169107751
366,0.04721332740017788,0.04736470033274265
367,0.04723295502567129,0.04719398129546181
368,0.04729820065331354,0.0474994029840947
369,0.04721239766926407,0.0471183806451974
370,0.047267096745465205,0.047203047655305246
371,0.04732903953400447,0.04719188996688437
372,0.047249407293818456,0.04716112380281338
373,0.047227534780399406,0.0474520191467928
374,0.047222977550290854,0.04717990234435404
375,0.04725320833764202,0.04704153061430569
376,0.04726961185094073,0.04748604091173942
377,0.047246477388732916,0.04710472019090837
378,0.04726247160697727,0.047149598522033855
379,0.04724445617754015,0.04708101383124455
380,0.047298457841280936,0.04773210345428575
381,0.04719225079160657,0.04706306485922297
382,0.04723587590936038,0.04721503462216096
383,0.04724988743490119,0.047120821563013914
384,0.04723249627299589,0.04754194323540957
385,0.04727146447115808,0.048575458493915806
386,0.047232216087093264,0.048098604661583805
387,0.04727087076678932,0.047132496825686196
388,0.04728745382210667,0.04791370721353069
389,0.047255755137863585,0.04718096482243327
390,0.04724194199370919,0.04726819030134906
391,0.04719662846629616,0.0473488123547918
392,0.04726894101430234,0.04717610170439932
393,0.04725456789588566,0.04736172100609931
394,0.047272004784166,0.04776002547829379
395,0.04724096911374947,0.04711203350617176
396,0.04724811434263377,0.04718860826839494
397,0.047256206836012435,0.04711150235386937
398,0.04723648766694452,0.047118065077532155
399,0.047251208041378445,0.04736697662624677
400,0.04722482227622796,0.04708035573092802
401,0.04726156488442116,0.04717560841069037
402,0.047243278286011096,0.047108455589768825
403,0.04720124645645527,0.047543389650668885
404,0.047282993897712296,0.0476388394591511
405,0.04725190773933864,0.0477184743929916
406,0.047239252076529674,0.047572451804624175
407,0.047244875052337834,0.04733483550074821
408,0.04720208644092702,0.047820866010912594
409,0.0473192990210345,0.0472654859258278
410,0.04725047475773749,0.047382339838107176
411,0.047230966813522846,0.04725700417193918
412,0.04723589232178043,0.047208409253640164
413,0.04727800946971543,0.04730570357772151
414,0.0472348899536615,0.04709990187632633
415,0.04721172021584307,0.04718624432030962
416,0.04730126667145392,0.04710224323451002
417,0.047216603050021816,0.04755767631831843
418,0.0472497130936975,0.04710030090578353
419,0.04723032880768025,0.04720865649883448
420,0.04722162466540897,0.047983321066484175
421,0.047236004961932976,0.047278765350838955
422,0.04731515300818246,0.047623067814930274
423,0.04718410622158782,0.04717240666334047
424,0.04726661548471089,0.04752367229186934
425,0.04727338166307393,0.047065889305525535
426,0.047272323068680996,0.04718905737904366
427,0.0472222350219147,0.04742187547961275
428,0.04723564461975408,0.04723873372530034
429,0.047238117113685626,0.0472078869808774
430,0.04722799952004215,0.04725417111071904
431,0.047257856703359635,0.04799467367844122
432,0.047255049533338,0.0471797289698728
433,0.047212880076490625,0.04781377072951035
434,0.04724308956476996,0.047408672956707164
435,0.04724865086334977,0.04753707683606231
436,0.047267957857782414,0.047244712284045046
437,0.047234897463799094,0.0472537324938044
438,0.047261397902973644,0.04711343918433788
439,0.047215829458203816,0.047336663803836915
440,0.0472712351856448,0.04736700320312049
441,0.04723677537191829,0.04757752571469607
442,0.047249320855767704,0.04706617492679639
443,0.047218135398009314,0.04715887820840635
444,0.04726154257139142,0.04721149550522983
445,0.04726907783012977,0.047145577034403606
446,0.04726925758804253,0.04742146965818981
447,0.04723849877429237,0.047358434553233866
448,0.04725298665755754,0.04735616595729092
449,0.04726285845499864,0.04718335388315034
450,0.04722895846664191,0.04727743710402249
451,0.04720397062039823,0.04733287688306494
452,0.047268270383135594,0.04745836256346838
453,0.04725265185788667,0.04712260396593936
454,0.04724729926341015,0.047201711513931204
455,0.04720968079509781,0.04715970942152233
456,0.047219749356952785,0.047229517554098356
457,0.047301444102176946,0.04734507125773671
458,0.047212920941525606,0.04717765044018144
459,0.04725085580639607,0.047169270104160436
460,0.047232207804203605,0.047070405648134785
461,0.047250939212995564,0.04727263641326843
462,0.04725435242164049,0.04726242534551643
463,0.04724055025384104,0.04716412677784651
464,0.04728547558873344,0.047165010603704885
465,0.04719713772032901,0.04733540729899621
466,0.04721352348861982,0.047159152915488105
467,0.04731317598977201,0.048156231835825576
468,0.04721131073765093,0.04709911222357212
469,0.04727623877759508,0.047303787958179765
470,0.047182224991677,0.047381427147864544
471,0.04725154052428204,0.04723601678611259
472,0.047297783657539186,0.04712069951050754
473,0.04722668369301408,0.047566421203544595
474,0.04720959921838711,0.047323982653979156
475,0.0472143113964515,0.047470300378249966
476,0.0472392917459579,0.04732163278966695
477,0.047257012301247465,0.04759053328760327
478,0.047258000721117195,0.048937395588445586
479,0.047215086636509446,0.04737574187560917
480,0.04723564506940943,0.047178709728094945
481,0.04725693042526285,0.047337560663800966
482,0.04729833169657883,0.047997456487935644
483,0.04724352536120003,0.047140951138269084
484,0.04726459385661913,0.04709706749787647
485,0.047231379470569816,0.04743459994809874
486,0.04724671598747194,0.047187665584713996
487,0.04723519261339776,0.04723034262504273
488,0.04722648454632023,0.04711455406346186
489,0.04723430814282547,0.04704249576145773
490,0.047266092190115475,0.04740646603240116
491,0.0472503387846416,0.047429253186239625
492,0.0472762207065126,0.047126517073202055
493,0.04722609048147949,0.047048229294893024
494,0.04725362628483944,0.04712844894641765
495,0.04725144674880899,0.04711185865568757
496,0.04721195383263911,0.04750213827335091
497,0.04723599664777589,0.04816135849977161
498,0.047233948073119855,0.0480029630844482
499,0.04725859246159391,0.047058879967481954
500,0.047275640201463784,0.047176033346645455
