epoch,loss,val_loss
0,0.4306663763787535,0.3846322944198148
1,0.3733897745120916,0.4574090609210819
2,0.38472571268641975,0.3674439397400161
3,0.377098180800319,0.3650381149931413
4,0.3553213845018289,0.3565297705645437
5,0.3521289170788918,0.34119622215287554
6,0.35060138719306766,0.35137724354216315
7,0.34952002439758095,0.34602922322294705
8,0.39028157917953893,0.36261409693989305
9,0.3612477832394157,0.3531048880521011
10,0.3606172638545505,0.3533238728472635
11,0.35988256289995163,0.35633361377204226
12,0.35912569434784775,0.3522917694620194
13,0.3668210582314826,0.4440433600683709
14,0.38803635548344617,0.3738978105614104
15,0.37707709982026394,0.3751617229022468
16,0.3758057325685339,0.3733926917049202
17,0.37529024301315667,0.37598337951662414
18,0.3733822854934074,0.3681546425904076
19,0.3597606922701585,0.33522804755344104
20,0.33111412387242994,0.32214880691754505
21,0.3276715940244192,0.3179835807634981
22,0.3267656742758173,0.322937703487811
23,0.32628115313015965,0.3201975526895312
24,0.32636491468937084,0.3210185744227061
25,0.3249395751683927,0.32331761543145776
26,0.3248749983956297,0.3221492251967857
27,0.3365134013999852,0.32735102594886695
28,0.3341816787799295,0.3329652264867134
29,0.3352487497776151,0.3254417641457367
30,0.3474793285727025,0.36322289908741434
31,0.3566162940338075,0.3137072438657895
32,0.2876858294075675,0.28428187203059163
33,0.28697950800629163,0.2943894886003767
34,0.2893471182595721,0.2803793940002183
35,0.2892298927660183,0.2784839891655857
36,0.2879097264983671,0.28466549034700117
37,0.2845891101701225,0.2798841506971933
38,0.28275698738442145,0.27598922067537207
39,0.28502380735665966,0.2917663034495634
40,0.2911515753153417,0.30058362909490516
41,0.2967316800807353,0.2943552769455932
42,0.2899370714843416,0.28679715405088196
43,0.28917607644514787,0.2971797811592199
44,0.28845543719583944,0.2762286469587305
45,0.2889668133666666,0.27683091329465065
46,0.28827597665415106,0.275901894466606
47,0.2873245824953254,0.2793821410908883
48,0.2877675448443821,0.28583910387382794
49,0.2853935369335824,0.29397514072006486
50,0.28964806335280646,0.2688073955282228
51,0.28509413107908027,0.2833383007838017
52,0.28402051930542854,0.28021070230590517
53,0.2917770283738915,0.2851974247133722
54,0.28280202681712396,0.2715234980633998
55,0.2818292069533984,0.27771628094100537
56,0.2834752388804746,0.27332840910462197
57,0.27976082020597776,0.26606920112186094
58,0.27729069314998306,0.265816273451463
59,0.27603920631640727,0.27251576677541045
60,0.2761603944468127,0.2576423483505998
61,0.2771897831385275,0.2716086805748864
62,0.27587961094628133,0.2694742174991116
63,0.27508677097914414,0.26859108327455
64,0.27315586458126323,0.2575955760342546
65,0.27210347514918193,0.2638240424297227
66,0.26973691258689675,0.27424525789440196
67,0.2722755567930776,0.2615550636198451
68,0.2859598050514857,0.28981269754310623
69,0.28089240391394027,0.2715988463142206
70,0.2794757386763319,0.2810907009180456
71,0.2803962865738655,0.2767481930795013
72,0.27933939234565774,0.2863398021661868
73,0.2805326698507241,0.27940094851445474
74,0.27976326750134295,0.2807893203049545
75,0.2797561674196419,0.273483559030572
76,0.28036768754406705,0.26632549409073175
77,0.27899288710394354,0.2823237965343595
78,0.28165979678336855,0.28192808103307365
79,0.2831829320922268,0.27445459436998654
80,0.2829367269059832,0.2764161000500162
81,0.28560551419127567,0.2777796357211487
82,0.2844583508338955,0.27517125213367316
83,0.28053671527180457,0.26540466021649367
84,0.2823498207215163,0.2796168746786882
85,0.2815318993038887,0.2928422319025813
86,0.27742984520195485,0.2736569496302409
87,0.2751030793977822,0.27839965281542023
88,0.2717881640858597,0.2568074565824789
89,0.27822604476750423,0.27351225971375853
90,0.27626099981230606,0.27816395119902837
91,0.2785104754820859,0.27165643218684216
92,0.27670283187969885,0.2720097591475699
93,0.2781009224774264,0.2634169109865447
94,0.27463896067844307,0.28021778435032485
95,0.27098026034905376,0.25935408798205917
96,0.27517122873585287,0.2564866719524881
97,0.2745562810227454,0.2453726534779465
98,0.270405211045945,0.24870829518822676
99,0.27244270792741665,0.279927949555624
100,0.26744762647578374,0.24123891899928204
101,0.27341945689144753,0.28951416368101557
102,0.2733544985399686,0.2957811947109291
103,0.2779436352536928,0.27374111040662197
104,0.2676463282192878,0.25419810855939057
105,0.2676135968658135,0.2724926007327924
106,0.2733118643583678,0.2687526143199361
107,0.2752826878522559,0.27734958256970454
108,0.27901278781614525,0.27442219708741133
109,0.2862676468124683,0.2741838749895062
110,0.2886825030227359,0.28062261063561444
111,0.2824591453567588,0.28523144081246693
112,0.2776704456517212,0.2868862240130542
113,0.2842180547561291,0.2786114104474353
114,0.2765131299223879,0.274831300047127
115,0.28441455934068666,0.2670396558981574
116,0.26680609018956536,0.2595194825092544
117,0.27825557692147657,0.27107216691820285
118,0.26460467538030313,0.24284179298752578
119,0.2736519212178666,0.26295876038432026
120,0.2596690847540645,0.24650667419608596
121,0.2579658236041915,0.26326867351168803
122,0.25528058164018236,0.24404431085066242
123,0.25587517792562975,0.25382181206437293
124,0.2554531296987614,0.24292052573073822
125,0.2551281568880895,0.25708159604995573
126,0.2561148102972195,0.2592161979052902
127,0.25617738853362826,0.2489022861022411
128,0.2544570247904002,0.2574993644288984
129,0.2558133001212212,0.2529284947543701
130,0.2543555173507745,0.24674278410076625
131,0.25518934865542453,0.24864711549541757
132,0.2550578293748659,0.2448304930103512
133,0.2566443051990988,0.2538983248756359
134,0.2561554461390042,0.2498326072882458
135,0.2554284419795926,0.24954638198523796
136,0.255266174200556,0.26034768378537004
137,0.2532991747573602,0.2518870598785785
138,0.25315636899069155,0.2395997705921566
139,0.25341312460107007,0.2353206178101387
140,0.25349263344808737,0.24061348211040812
141,0.2531621568053842,0.2493595629518862
142,0.25482034565006895,0.24320351290086545
143,0.2564448889800542,0.25211824204452227
144,0.2560540160222305,0.24493546775691416
145,0.2556916982632318,0.2565330971788024
146,0.25706654209062924,0.24370107523385426
147,0.25886352406107455,0.2598300641953898
148,0.25765027768975446,0.24413794965939722
149,0.25915817784474526,0.26111215088390044
150,0.2603987785879609,0.24935180275761998
151,0.26198552096252153,0.25642016842878984
152,0.265264905852189,0.26326971652828624
153,0.2673948900960237,0.26377691935392095
154,0.27456305162023775,0.2664978279663807
155,0.2798791799953373,0.2711834971864297
156,0.2849995600883004,0.28731725232612454
157,0.28941191475597217,0.2763990863228559
158,0.29006691195731826,0.2909991381823687
159,0.2894075715498959,0.2987084954730055
160,0.29106030490794343,0.2928033259880289
161,0.2917469291271066,0.2924498678570953
162,0.29924638065800585,0.29794442366100055
163,0.29337586608114574,0.28964925269819003
164,0.29086699560105944,0.2859452632744668
165,0.2913822341355965,0.27741733106366273
166,0.29234555298737963,0.2862335325886908
167,0.29166025907503995,0.2860366404056549
168,0.29176342666006205,0.3017751062560853
169,0.292556595932737,0.2867526922319099
170,0.2915389503119327,0.2851546758810836
171,0.2919805439726578,0.28672262057132764
172,0.29147683912448935,0.28174039447458127
173,0.29170320556758883,0.2887521757734697
174,0.29188412722411583,0.28101698720229357
175,0.2917964973574062,0.29145502999436695
176,0.2919670507210574,0.2897465313772282
177,0.29094078106512367,0.2832110205219784
178,0.2914142194304535,0.2821201430641015
179,0.2919582963156567,0.28821588164723194
180,0.2915050480529654,0.2875749625812484
181,0.2917605113657973,0.2911758689296556
182,0.29200641930901367,0.2852137249077787
183,0.29220595677121936,0.2913400603203954
184,0.29163282433097404,0.2827750051536707
185,0.29354778718617225,0.2814756767631706
186,0.2922294181075504,0.28420312239273193
187,0.2924404171087759,0.2949472134484488
188,0.2928072875149721,0.2897970567339033
189,0.29367718236039964,0.2940895858425838
190,0.2935721475622065,0.2882407331970045
191,0.2937648091390789,0.29161809875255695
192,0.29395776304552595,0.28691784835816747
193,0.2940386531295346,0.2845437227444754
194,0.2947071123567464,0.2865084284106483
195,0.29472848035091403,0.28188792417368363
196,0.2948938247135027,0.2916971008692469
197,0.2944084078812008,0.2882348152249464
198,0.29530954187055475,0.28768053959581735
199,0.293479855481288,0.2848875983643927
200,0.2931642263389225,0.2873821303354254
201,0.29368403871103727,0.28415921150508977
202,0.29206227208320185,0.2900997195995597
203,0.2904220917474309,0.281422018011019
204,0.28836203273906885,0.28569281038305566
205,0.28555281607390975,0.28122678105649557
206,0.2842680318214053,0.2733300997454441
207,0.2811181308994953,0.2845858829044505
208,0.27958268090653765,0.2790846175733945
209,0.27905652096433986,0.26610713071633063
210,0.2803848466867928,0.2870379304594192
211,0.2836548959513267,0.2676229663399043
212,0.28662344182340455,0.27935251426583874
213,0.29168989614462204,0.2905518137735933
214,0.2936929887730917,0.295604035364142
215,0.29201607151235415,0.30168107906452013
216,0.29191571733148264,0.28607876702331614
217,0.2939507299118477,0.28533983477571395
218,0.29419526070963853,0.2890067497340355
219,0.29301959485244405,0.28399790506501227
220,0.29133870351693325,0.29666404922999257
221,0.2914612636261945,0.2886195243839777
222,0.2889703477350928,0.27780358303388275
223,0.2842371318843677,0.27946143459760964
224,0.28241204479925164,0.27603669483405735
225,0.2820804408348674,0.266162097177688
226,0.28193538406079144,0.2737997866220237
227,0.2881828387089961,0.2850041934351518
228,0.28325474873590145,0.2742069502726444
229,0.2846899505892246,0.2757123043465163
230,0.287292215889759,0.27987561980005127
231,0.290056804818906,0.2816384004600987
232,0.29185229892150866,0.28046100964180204
233,0.29562094098896524,0.2892901248400759
234,0.2979715246495774,0.29593416864394956
235,0.29774571013012285,0.29790155848322086
236,0.29678605568054006,0.29112596658735457
237,0.29449108063424234,0.29843740789153583
238,0.29345733936813523,0.29335830344773695
239,0.29311653844517865,0.27067348830866456
