epoch,loss,val_loss
0,0.6070078259209457,0.6020675406266679
1,0.5180153489030815,0.5013240221120584
2,0.501246268452543,0.5010190796911272
3,0.5011694368143461,0.5010782535555345
4,0.5010400657007853,0.5008508320777647
5,0.5009701748984826,0.500843670143383
6,0.5008936466238763,0.5010870608147557
7,0.5008611224530697,0.5007793071548046
8,0.5008072616574031,0.5023670148317039
9,0.5008035702658117,0.5008038734088169
10,0.5007764427721626,0.500936487235739
11,0.5007200443872923,0.5006898425944686
12,0.500726398554328,0.5006769383515672
13,0.5006812907324182,0.5005959858965341
14,0.5006676662193994,0.5009728229371253
15,0.5006421826893926,0.5006288205423662
16,0.5006677966647572,0.5007650465882446
17,0.5005910444339473,0.5005566330760644
18,0.5006192038718096,0.5005978444965542
19,0.5006001780661997,0.5006487886308145
20,0.5005984712124433,0.5005616015003573
21,0.5005918200429273,0.5005570003175854
22,0.5005613642710665,0.5007485025278097
23,0.5005741078917881,0.5005470887011393
24,0.5005704691663089,0.500808480211878
25,0.5005680952999679,0.5005402936828935
26,0.5005536173561268,0.5005019990149562
27,0.5005669003783346,0.5005036401689497
28,0.5005378817527821,0.5005860363875074
29,0.500534825314221,0.5005953776925137
30,0.5005291667989651,0.5004873245880562
31,0.5005324148628187,0.5004880535691311
32,0.5005206768197289,0.5005409540077002
33,0.500530038980233,0.5005087504611714
34,0.5005166212553616,0.500578331089493
35,0.500516221844054,0.5004859364358131
36,0.5005005350163211,0.500890624907709
37,0.5005089604370716,0.5005137713612161
38,0.5005290679106779,0.5005000149050066
39,0.5005050220831033,0.500444590246707
40,0.5005146150279074,0.500505237100142
41,0.5005041396084168,0.5004556847565227
42,0.5005189010799755,0.5005038519355263
43,0.5005118404502701,0.5004688085160836
44,0.5004769480090695,0.5004679735481887
45,0.5005021951714503,0.5005153496567132
46,0.5004897613622006,0.5006306151302518
47,0.500495768223973,0.5004415995134017
48,0.5004899074247785,0.500604482294608
49,0.5004878224004904,0.5005162627170459
50,0.5004840882623008,0.5004697381118983
51,0.5004664387101981,0.5004412247880221
52,0.5004776787534477,0.5004890165317147
53,0.5004758422581493,0.5004526515160838
54,0.5004811154079719,0.500619808053852
55,0.5004693304674702,0.5005606637107527
56,0.5004696174060808,0.5008398218722853
57,0.5004867049054965,0.5005849544226976
58,0.5004679305104656,0.5004821302577225
59,0.5004659870595343,0.5004130889109287
60,0.5004723550941691,0.5004717174002313
61,0.5004833964647354,0.5005798115919601
62,0.5004546571253714,0.5006211884560123
63,0.5004721026731013,0.5004443416228661
64,0.5004517604513334,0.5005703958329137
65,0.5004705905668192,0.500564158081121
66,0.5004631174375693,0.5004969015014971
67,0.5004625940327293,0.5006294639767251
68,0.5004545641509289,0.5004148062346295
69,0.5004713997727795,0.5004408556829315
70,0.5004512656951546,0.5004290608850958
71,0.5004712655970532,0.5004371955731962
72,0.5004488943341319,0.5004170471326294
73,0.5004595728532095,0.5004105824394794
74,0.5004556149694335,0.5004187693962684
75,0.5004488562242657,0.5004122813049676
76,0.5004677286477612,0.5004327914555079
77,0.5004415281818132,0.5005114413076831
78,0.5004543205245062,0.5006680441257676
79,0.5004581909296055,0.5004487859699921
80,0.5004628706140261,0.5006589460905373
81,0.500447317082476,0.5008667243621485
82,0.5004566119882797,0.5007730790758251
83,0.500455949654235,0.500474100550706
84,0.5004402611431428,0.5004540732421591
85,0.5004607465214456,0.5005060966494066
86,0.5004508569630535,0.5005386040760921
87,0.5004520952473597,0.5004873070468382
88,0.500466375636287,0.5004425491943548
89,0.5004492209634203,0.5005044235485068
90,0.5004451094411607,0.5004027548558068
91,0.5004465598965778,0.5004311738475676
92,0.5004409645790789,0.5004214514869614
93,0.5004508878267442,0.5008730708221644
94,0.5004515772814899,0.5005701919643222
95,0.5004471982139602,0.5004038939996629
96,0.5004458940025516,0.5005409080988125
97,0.5004478539754887,0.5008632796573875
98,0.5004434930525844,0.5004354962048401
99,0.5004488549337429,0.500466077558456
100,0.5004480059085258,0.5005404222987722
101,0.5004450590949922,0.5005482121377666
102,0.5004437750002793,0.5004410976215864
103,0.5004410235842143,0.5004652868133621
104,0.5004530045982105,0.5008010522603397
105,0.5004607568274856,0.5004505118720289
106,0.5004349878671077,0.5005471487790716
107,0.5004455484776734,0.5005351448473209
108,0.5004446786668343,0.5004101778969872
109,0.5004239228222306,0.5006676925027341
110,0.5004518629374659,0.5004568882378988
