epoch,loss,val_loss
0,0.4492126475401426,0.4049271112931869
1,0.40214507972497904,0.40210804664171657
2,0.40174019047476595,0.40210998158892686
3,0.4015279877883303,0.40130663762613206
4,0.40142708692630996,0.4012546837625669
5,0.4012758705372912,0.4010968826544788
6,0.4012419076926106,0.4016634187094923
7,0.40117265561393695,0.4010957353168327
8,0.4010963899425923,0.40120932853251473
9,0.401080636385913,0.401448092315688
10,0.4010553205177825,0.4009530236792032
11,0.40097803002849824,0.4009930158371369
12,0.40101640913001224,0.40098823683137635
13,0.40092236600123365,0.4008141830304716
14,0.4008940908312364,0.40134322734979483
15,0.39284849999438803,0.35102984781004953
16,0.3509482033548274,0.3509282979716734
17,0.35090809475151163,0.3509943313841193
18,0.35088903022784906,0.3510778880444709
19,0.3508861409841779,0.3507774102776577
20,0.35086358391514944,0.35074318647384645
21,0.35083806799980255,0.351401837957704
22,0.35083427525483585,0.35101066357444594
23,0.350783264453512,0.3507148583089152
24,0.35082449999725007,0.35075011194196
25,0.3507746059616484,0.3508057138907998
26,0.3507370399771047,0.351248441647655
27,0.35076906875238734,0.3507331784546523
28,0.3507686804012394,0.3511020358827511
29,0.350751086581424,0.3510768563072971
30,0.35073618484123026,0.3506566445229959
31,0.3507443675387665,0.3507981754857908
32,0.35070985424466683,0.3506639539751758
33,0.3507174303905362,0.35202501818500737
34,0.35070731259694216,0.3506917984846508
35,0.350722764008376,0.35067577863449495
36,0.35070636283797435,0.3507155019059666
37,0.3506951614547985,0.3507555091943102
38,0.3507098287808993,0.35067121738535595
39,0.35070629888649196,0.35064652062231494
40,0.35071424591924816,0.35070630063490005
41,0.35069038186134704,0.3513821890868857
42,0.35069318453546594,0.35063520320887603
43,0.35069509018575173,0.3506761838129673
44,0.350673480991575,0.3506731176050958
45,0.35068913062724333,0.3506557869260424
46,0.3507071270404991,0.3506087991647034
47,0.35067432766923945,0.351564919578822
48,0.3506799886452448,0.3506120899327044
49,0.35069525722169276,0.3510672179404323
50,0.35069148362986824,0.35102902497014693
51,0.3506737633573487,0.350617729596997
52,0.35067512788098104,0.3507436856294684
53,0.35068702366682725,0.3510654174068725
54,0.35066903954943046,0.3510804364314446
55,0.3506695593426207,0.35099291418385564
56,0.35066556521929004,0.35079965652070627
57,0.35067464641695123,0.35074063288071017
58,0.3506743733396292,0.35080467326469517
59,0.35066850737124367,0.35078030886780237
60,0.3506656032554008,0.3506788809305385
61,0.3506646560759011,0.3506634014859685
62,0.35067676807599685,0.350629153381802
63,0.3506415282640602,0.35063288801952863
64,0.35064632062114576,0.35071389052471513
65,0.3506663618536959,0.35078833645981533
66,0.35065322634984825,0.35067398872032357
