epoch,loss,val_loss
0,0.3593966072114571,0.3526348449012482
1,0.3524065579412897,0.35152173787725177
2,0.3517375082861028,0.35137291336177895
3,0.3516333848326734,0.351408742320153
4,0.3514021098360525,0.3511720045032927
5,0.3512524950261502,0.35114009040165184
6,0.35117880197389584,0.35172133454613885
7,0.3511298754009325,0.35107967426108366
8,0.35105454956588616,0.35092218549316634
9,0.35098746331945196,0.35105720387203226
10,0.35096060046424127,0.351055115683203
11,0.3509265029618604,0.3508161548793168
12,0.3508924720448591,0.35087785734136406
13,0.35087245256700644,0.3510831461650858
14,0.350851444565198,0.350896832457843
15,0.35079041259068644,0.35070715750713205
16,0.3507855445179297,0.3508920369757612
17,0.35079573119752067,0.3513908251047726
18,0.3507427505644853,0.3506617095866807
19,0.3507869427619939,0.35074350672679266
20,0.3507325270430694,0.350704436488542
21,0.3507091061973428,0.3517572949157459
22,0.35074091801845503,0.35076197677155585
23,0.3507074371114955,0.35063112774498706
24,0.35070977036146883,0.350724847322658
25,0.3506815611860189,0.3507206284970267
26,0.3506956751278654,0.3506579700385962
27,0.35066773881123214,0.3506281901382039
28,0.3507203981794051,0.3508772443009369
29,0.3506679185808318,0.3507044135045177
30,0.3506595418497107,0.350683885472584
31,0.35062986725398465,0.35057775901801536
32,0.35066605882614615,0.3511678015032122
33,0.3506276657663178,0.3507632067422417
34,0.35065424595205597,0.3505727988318829
35,0.350634493455067,0.3508703466680446
36,0.35062954928721274,0.3505561359614947
37,0.3506343097523701,0.3506057659390547
38,0.3506102983981639,0.3507029316265589
39,0.3506192670757983,0.3506619960439412
40,0.3506079354716862,0.35060915806453224
41,0.3506195567248224,0.3505758295431918
42,0.3506122760092988,0.3506704714694627
43,0.35060280348897394,0.3505780037520245
44,0.3506002496901403,0.35055930919150263
45,0.35061512295955355,0.3509847962974615
46,0.35059556516270923,0.3505857383642836
47,0.35059516083621334,0.35053277715264125
48,0.35059775695607237,0.35068659377157246
49,0.35057726697890135,0.3506583205375719
50,0.35059666077087687,0.3505542946956294
51,0.3505853026388681,0.3508416542492197
52,0.3506075571299789,0.3510255309399541
53,0.3506204883671683,0.3511058250964427
54,0.3505986291586385,0.3505095866418654
55,0.3505866096257687,0.3507046175949627
56,0.3505838424114478,0.3506227978701627
57,0.3505971887248888,0.350582602819793
58,0.3505750513735769,0.35121554621395934
59,0.35057543087683374,0.350692430456578
60,0.350587519713385,0.35059220185942447
61,0.3505743252718468,0.35118865904677893
62,0.3505709181715586,0.3510252062943082
63,0.35059029783562173,0.350587025277372
64,0.35058158677072765,0.35068629500883686
65,0.3505751796019333,0.35057347924182786
66,0.3505703605134334,0.3507442748132474
67,0.3505594239043744,0.35085072785098265
68,0.35058265446897163,0.3507071813194095
69,0.35055952560759496,0.3507141410121255
70,0.3505758067033625,0.35053411512161897
71,0.35057023806639864,0.35053823736701945
72,0.3505670910021309,0.35055627719344334
73,0.35057225234542183,0.35049582990464145
74,0.350558709677269,0.35088997413739376
75,0.3505513275819443,0.3506089039239339
76,0.3505677070717983,0.3505929357360669
77,0.3505673320506631,0.3507457489263331
78,0.3505540561436853,0.35051803896504063
79,0.3505616374275869,0.35058522157870214
80,0.35055319776730476,0.35055079784050175
81,0.35055941714727235,0.35119424085167444
82,0.3505305284409293,0.35087166946224185
83,0.35055606899414066,0.3506385526941077
84,0.35054761316524763,0.35071207193227916
85,0.3505668985647398,0.3512343280516546
86,0.3505504387686291,0.35068016731117857
87,0.3505540687041961,0.35064411822974534
88,0.3505453845801502,0.35055326638979
89,0.35054190745834696,0.3505342689992181
90,0.3505470109201882,0.35052275193240445
91,0.35055453827585253,0.350505620167214
92,0.3505451382563297,0.3505675281691492
93,0.3505673881316125,0.3506369944393783
