epoch,loss,val_loss
0,0.6055399696709021,0.6013587089389488
1,0.601341681744602,0.6010426283178495
2,0.6011185680308048,0.6010378614252909
3,0.6009998415995376,0.6008083687230907
4,0.6008977437645362,0.6009988631267406
5,0.6008218506606767,0.6006838391791502
6,0.6007682768580499,0.6006576049120788
7,0.6007147889201573,0.6006246411179195
8,0.6006798856530791,0.6005545928815458
9,0.6006152647908571,0.6011413169557935
10,0.6006182487652967,0.6010569517429059
11,0.6005846778029533,0.6005069063851615
12,0.6005686662454303,0.6005300662357813
13,0.6005429699100948,0.6005577064033774
14,0.6005343803381479,0.6006687450645579
15,0.6005098366038149,0.6004859534741631
16,0.5618214403019046,0.5506220641857933
17,0.5505462486939147,0.5506284053213247
18,0.550552894329801,0.5508847365899949
19,0.5505312993037669,0.5505424300435163
20,0.5505128295628494,0.5504913317358523
21,0.5505006720438189,0.5505855139372662
22,0.5504982572530729,0.5505046219447115
23,0.5505178516933519,0.5504944951895153
24,0.5504846848879063,0.5507064472652843
25,0.5504677829153524,0.5517221733890751
26,0.5504878397808991,0.5504652258775962
27,0.5504607034926048,0.5504222246316763
28,0.5504503402176587,0.5513031544519713
29,0.5504656646459014,0.5504080792810426
30,0.55044564372331,0.5503949919942
31,0.5504497643723113,0.5504360001081272
32,0.5504369241524818,0.5503918664035371
33,0.5504400292443863,0.5503993934496461
34,0.5504744256459847,0.5505391943247679
35,0.5504812535350961,0.5504289291632678
36,0.5504638716355442,0.5504195806110467
37,0.5504459240688947,0.5504313427520449
38,0.5504208471174883,0.550411660913794
39,0.5504207101777081,0.5504158779350167
40,0.5504331148492232,0.5503740030541905
41,0.5504262120435234,0.5503969470561291
42,0.5504254298580831,0.5507312994736892
43,0.5504109178132004,0.5503907352759879
44,0.5504224233941525,0.550438651139328
45,0.55040119642114,0.5505930367829486
46,0.5504084576403814,0.5503915384448788
47,0.5504084995650205,0.5504193753225928
48,0.5504235777006015,0.5503990540433462
49,0.5504036414200606,0.5503655061532486
50,0.5504040633011384,0.5503857489259308
51,0.5504081440165028,0.5506745730676958
52,0.550401934516608,0.5503760488985786
53,0.5504054406566384,0.5503701650475155
54,0.5503896702785931,0.5503922696740693
55,0.5503989950107785,0.5505206655331936
56,0.5504023003987746,0.5504100965211173
57,0.5503932941780469,0.55039346966495
58,0.5503916827235908,0.5504716581505522
59,0.5504178167244556,0.5504983438155787
60,0.5503967510115843,0.5505019033517199
61,0.5503914130540064,0.5503505398558624
62,0.5503958704647939,0.5505280594967731
63,0.55039659523301,0.550404472149927
64,0.5503941608824808,0.5504329998203306
65,0.5503875958955969,0.5503603661622363
66,0.5503962311225514,0.5505505602058051
67,0.5503875693578398,0.5506614967847876
68,0.550386554686597,0.5503741517256271
69,0.5503852313374282,0.550372988680752
70,0.5503942540809506,0.5503969299881984
71,0.5503871692555188,0.5504577809172884
72,0.5503915280020462,0.5504792723407225
73,0.5503815474633692,0.5504952712331161
74,0.5503884411652031,0.5503868830706878
75,0.5503856918979061,0.5503429378232648
76,0.5503999888829891,0.5503757073920654
77,0.5503684051420742,0.550388847539206
78,0.5503767862827447,0.5503568330118733
79,0.5503821532668325,0.5504514117394724
80,0.5503784675350831,0.5504971949397482
81,0.5503793169902116,0.5509059405800131
82,0.5503819567366065,0.5503928337440301
83,0.5503837667698753,0.5503672230036619
84,0.550371687385852,0.5503465949157923
85,0.5503685947030034,0.5504202437755783
86,0.5503786742333041,0.5503562563997936
87,0.5503785543227464,0.5503363082485814
88,0.5503727300494511,0.5503442658679952
89,0.550377037154554,0.5503532653411032
90,0.5503755765327196,0.5505190716192089
91,0.5503697759463564,0.5504066950630018
92,0.5503682511604504,0.5503646255131099
93,0.5503764724861129,0.5503844378012286
94,0.5503730691643116,0.5503722439037068
95,0.5503692566607771,0.5507912583741598
96,0.5503797988127638,0.5503378551000401
97,0.5503707172786673,0.5504128856931075
98,0.5503686945686487,0.550367246727198
99,0.5503624429114103,0.550747531489758
100,0.5503684295594611,0.5503454345923203
101,0.5503691391048713,0.5503557187451914
102,0.5503603285900444,0.5507013712568259
103,0.550374831453756,0.5504502618874865
104,0.5503649864570556,0.5504225034867564
105,0.5503655214994774,0.5503729606976284
106,0.5503680480569193,0.5503361647241465
107,0.5503599765115817,0.550331634800724
108,0.5503658450097392,0.5504671950198284
109,0.5503653611362338,0.5503519955107355
110,0.5503593858630852,0.550440911797081
111,0.5503555980451391,0.5503590607465645
112,0.5503672958903346,0.5504279580364748
113,0.5503581175804327,0.5503812748504335
114,0.5503542622151312,0.5504114906190347
115,0.5503639552298872,0.5503654397450961
116,0.5503673374032054,0.5503909035592753
117,0.5503605574164729,0.5503527336025948
118,0.5503595725755559,0.5503511941462533
119,0.5503615509692082,0.5503364323682288
120,0.5503639513433308,0.5503315034930227
121,0.5503515611286696,0.5504048659547092
122,0.5503633252527849,0.550422733741126
123,0.5503575745984555,0.5504110714342103
124,0.5503522630626768,0.5503403148935095
125,0.5503633075483256,0.550344585958249
126,0.5503615299153847,0.5504259077254359
127,0.5503596317534446,0.5503337786452054
128,0.5503568767355903,0.5503610899371486
129,0.5503570709466615,0.5504809426610582
130,0.5503668527897793,0.5505725178765896
131,0.5503616221688382,0.5503515510346103
132,0.5503661800187492,0.5504315680073154
133,0.5503517057429589,0.550338548821196
134,0.5503626244531125,0.550513283993411
135,0.5503532630790702,0.5503446739601439
136,0.5503639832238211,0.5503304065013346
137,0.5503554023337167,0.5507221382841578
138,0.5503510205944261,0.550379028095501
139,0.5503536791961806,0.5508067423889123
140,0.5503611972113306,0.550849576505183
141,0.5503532295838487,0.5503290113681008
142,0.550355821862509,0.5503798558161809
143,0.5503571628822174,0.550482471793816
144,0.5503478381587091,0.5505902974244679
145,0.5503572356271617,0.5504314406338164
146,0.5503489912203872,0.5505777632332322
147,0.550354920568749,0.5503727380158587
148,0.5503610157556108,0.5503579660325725
149,0.5503516629663854,0.5503340928489457
150,0.550353462855324,0.5503594005078299
151,0.5503537682162275,0.5503123815243061
152,0.5503547005511644,0.5503340439524308
153,0.5503521907129355,0.5505213731571699
154,0.5503529059931265,0.550378246875318
155,0.550356479600052,0.5503836614322426
156,0.5503487226819823,0.5505492254758887
157,0.5503508463414962,0.550773191747831
158,0.5503543826794464,0.5503562592395186
159,0.5503510831429775,0.5503908023644913
160,0.5503475280664144,0.5503488479713649
161,0.5503580709031038,0.5504870086094877
162,0.5503501914287469,0.5504218283717153
163,0.5503552083521945,0.5503950183503977
164,0.5503538587524022,0.5503330929403565
165,0.5503548444981052,0.5503364420706226
166,0.5503581101544044,0.5503285475463489
167,0.550348407712363,0.550953102525943
168,0.5503456543502591,0.5503751964190462
169,0.5503371329590966,0.55036430755265
170,0.5503593468515884,0.55127497958782
171,0.550350818895798,0.5503443281348822
