epoch,loss,val_loss
0,0.6546000276949604,0.6525003857115658
1,0.6511647669718189,0.651224985962766
2,0.6510068710698995,0.6509593929901313
3,0.6508269764338915,0.6511707360040461
4,0.6507505785162943,0.6506391664592563
5,0.6506848570991633,0.6506677303065733
6,0.6506348174186684,0.6506000302565601
7,0.6506210027704534,0.6508717121024877
8,0.6505698501543914,0.6506442226488005
9,0.6505536369787006,0.6504586447557208
10,0.650523044770332,0.6506572542060398
11,0.6505193050385619,0.6505208914983953
12,0.6504785493535884,0.650500594711777
13,0.6504770905744566,0.6507501724635992
14,0.6504644482700352,0.6503938479991468
15,0.6504553511415949,0.6504618810069176
16,0.6504228380270038,0.6512099574576536
17,0.6504333438826403,0.6503937990138904
18,0.6504166489490812,0.6508439661255545
19,0.6504117739965598,0.6507218283695855
20,0.6503941181022787,0.6505568015959955
21,0.6504186624148226,0.6503983010133502
22,0.6504032208984493,0.6503492906726619
23,0.6503871994576982,0.6504038446594409
24,0.650397691347132,0.6504828787323264
25,0.6503852517179082,0.6504241993350367
26,0.650390083912788,0.6506132548855197
27,0.6503987885353225,0.6505340134831279
28,0.6503928193408837,0.650345033451582
29,0.650369576321873,0.6503338617959035
30,0.6503686927515042,0.6503160558030859
31,0.6503658703827125,0.6503187368288821
32,0.6503644766961031,0.6504523910304749
33,0.6503637092428174,0.6506198852588758
34,0.650375826328094,0.6504473336281315
35,0.6503553909196887,0.6503521894402895
36,0.650351211729383,0.6503919584283758
37,0.6503664242954816,0.65031691153647
38,0.6503377675771905,0.650336775767892
39,0.6503517651877871,0.6503650808452672
40,0.6503432203392415,0.6503767782641995
41,0.6503521460048373,0.650962232655982
42,0.650340802608533,0.6503851254583884
43,0.6503457068360452,0.6503185530750095
44,0.6503400133622916,0.6504666293821028
45,0.6503362939909654,0.6503601607258799
46,0.650340419182828,0.6503037183811292
47,0.6503409446875286,0.6503187115375813
48,0.650326748954062,0.6504100508784538
49,0.6503426183584395,0.6504415622124305
50,0.6503357118468251,0.6503170523690822
51,0.6503310571035734,0.6503298682551231
52,0.6503302711499008,0.6509430987959168
53,0.6503376448662929,0.6504471376575253
54,0.6503285991126531,0.6503092556378386
55,0.6503335961655193,0.6504094708942006
56,0.6503375846337408,0.6506247403308121
57,0.6503407696331492,0.6505680553078947
58,0.6503283628712396,0.6503244535502961
59,0.6503273629708041,0.6502933212604476
60,0.6503304051907375,0.6503077618833215
61,0.6503301588649449,0.6503468715227567
62,0.6503269809287038,0.6503190496423404
63,0.6503198249833138,0.6506649594153128
64,0.6503378003671997,0.65031040835913
65,0.6503161682236452,0.6503198589935492
66,0.6503250715243848,0.6504380864481772
67,0.6503222602386289,0.6503014639352747
68,0.6503151030926424,0.6502866949691962
69,0.6503269104295533,0.6511206146505275
70,0.6503295997703636,0.6503191873098425
71,0.6503217033472446,0.6503147081760852
72,0.6503150110348183,0.6503358151421653
73,0.650312642535664,0.6503036457610781
74,0.6503170774119974,0.650290884805968
75,0.6503117559354062,0.6502954419434218
76,0.6503243917958903,0.6502992573801992
77,0.6503159425525292,0.65030334179218
78,0.6503133022137243,0.6503046096110758
79,0.6503259746939781,0.6503080768265737
80,0.650311072822839,0.6503271504903846
81,0.650319283665764,0.6503001396768442
82,0.6503202329431522,0.6504037054537544
83,0.6503139718515291,0.6503163975758233
84,0.6503191931824408,0.6503317130114837
85,0.6503233001713048,0.6505889096271903
86,0.6503224779780777,0.6503221048610678
87,0.6503115872626468,0.6505132101309802
88,0.650322236050791,0.6504438265381617
