epoch,loss,val_loss
0,0.4668840665645675,0.45221851990181516
1,0.44936594319973683,0.4018743504217777
2,0.4017875045902782,0.4015228710162728
3,0.4015503839533735,0.4015133342287381
4,0.4014401593191716,0.40116448841674746
5,0.4013252463494707,0.4013961307316205
6,0.40124477759027105,0.4025877960858215
7,0.4012097474157292,0.40100472075471805
8,0.3953197619893742,0.35149931845534826
9,0.3511277666033356,0.3510051800506582
10,0.3510466877881001,0.3533756395279622
11,0.3510268664051141,0.35090600117560355
12,0.35099708581415345,0.35115842303034683
13,0.3509489599439772,0.3512156566526399
14,0.3509060540104589,0.3508147506057181
15,0.3509217581506035,0.3510426873308849
16,0.35086934113252916,0.35118986634403543
17,0.35086197555447735,0.35081116465421824
18,0.35085525588194055,0.35117258130764545
19,0.35088373948913054,0.35083838767804226
20,0.3508001496871322,0.3508135670319976
21,0.35082154094504747,0.35071604707400794
22,0.35076363815877415,0.35082539084827336
23,0.35077793951988145,0.350739818707885
24,0.35077511792966326,0.3507612293322684
25,0.35073604982855733,0.3511319320639665
26,0.35074111023300214,0.3506365308690604
27,0.35071909368362386,0.350625106936353
28,0.35070938158514253,0.35083148662860575
29,0.350714393044772,0.3510541270004017
30,0.3506879702728489,0.35113011040995196
31,0.3507016715104501,0.35099004453819976
32,0.3507092974617464,0.35095119639010935
33,0.350703367969029,0.35059333016203886
34,0.35067801584122876,0.3506162778171653
35,0.3507107704535896,0.35166355000240335
36,0.3506884148362861,0.3506157546865733
37,0.3506444344379558,0.35064296011001833
38,0.3506812532590574,0.3506317921518984
39,0.3506670128964543,0.35058017034388655
40,0.350643518162377,0.3506422766237046
41,0.35067213785622947,0.3512225968961976
42,0.3506507636093935,0.3508517328622028
43,0.3506964748035982,0.35065937826118754
44,0.35064684267117335,0.3512634270096535
45,0.3506421484419447,0.3509238743900365
46,0.350652531889199,0.35062121225349957
47,0.3506493044737114,0.3506202219733529
48,0.35063588142937735,0.3506180676130148
49,0.35062394706865074,0.35117939280221244
50,0.35063882673348834,0.3506183363959452
51,0.35061985510814636,0.35062047904241767
52,0.3506362791825681,0.350633029990989
53,0.3506233934552419,0.35106017793674327
54,0.3506251119607791,0.35090677625783917
55,0.3506248387536948,0.3505759261825836
56,0.35061378607369914,0.3506880443681854
57,0.350618204180729,0.35058286021424284
58,0.3506102617117381,0.35119781667186367
59,0.3506058944833359,0.35055733111596876
60,0.35061007442933906,0.350655033940417
61,0.3506005865757724,0.3505661643172612
62,0.35060816852978355,0.35057857481776633
63,0.3505938156049514,0.35055411333777475
64,0.3506174216702914,0.35054058166354823
65,0.3506024697732478,0.3507205556255416
66,0.35059804875741407,0.3506984981946259
67,0.35059633314805944,0.3505645173802861
68,0.35060367230707284,0.3507330674539429
69,0.35059548507338034,0.3505524791204012
70,0.35058587516877066,0.3506729752638795
71,0.3505969089874906,0.35055383201272555
72,0.35058827192374964,0.35076537485749787
73,0.35059615473248334,0.35054564263033805
74,0.3505815637215631,0.35081087732433386
75,0.35058547400823664,0.3506156119164403
76,0.350587688597156,0.3507487680568884
77,0.35059843636390825,0.3505696839937205
78,0.3505867749625739,0.3517996359551811
79,0.35059973782743403,0.3508769800586085
80,0.3505883077061783,0.35059724257838343
81,0.3505756136601514,0.35079843801245203
82,0.3505934548809322,0.35053023647137965
83,0.35057805584413865,0.35056424411591464
84,0.3505874284747588,0.35054384724377996
85,0.35058295812797835,0.3505570199885972
86,0.3505945110469029,0.3505369390950309
87,0.3505818749868454,0.35096287708128654
88,0.35057840722961564,0.3505040084162066
89,0.35058835679771577,0.3505985892735995
90,0.3505842172901995,0.350523546315896
91,0.3505877702097121,0.3507433825775648
92,0.3505713969318799,0.3506481675444998
93,0.35057420381518584,0.3505490215037656
94,0.35057963399111447,0.35052377207403446
95,0.3505850492656847,0.35062743197599655
96,0.3505675794074541,0.3507350758198769
97,0.3505657166761254,0.3506001659125903
98,0.3505753248693723,0.350535197219541
99,0.3505775488922821,0.35053838790202557
100,0.35057907627816565,0.35072665627186117
101,0.3505674973574928,0.35053451283102294
102,0.35057619639867366,0.3505517239754017
103,0.3505746576639193,0.35080390254557875
104,0.3505577811362011,0.35059394232984215
105,0.35058772972271224,0.3505276902881509
106,0.35055838921780014,0.3505431118437433
107,0.35056963202470925,0.3505424533233453
108,0.35058986620462784,0.3509162768832507
