epoch,loss,val_loss
0,0.46183150223155595,0.4518596333990026
1,0.4517576247104633,0.4527488270261447
2,0.4514672373960494,0.45133805103396657
3,0.45134489024470026,0.45175229034411996
4,0.4512347670691822,0.45104390313252624
5,0.4511304759029972,0.4513385511953245
6,0.45102966578106357,0.450963191669573
7,0.4510141184339263,0.4509065715314141
8,0.45093218196882096,0.45221888732081905
9,0.45090013882069485,0.45074750068169966
10,0.45088713044123857,0.4520741644923208
11,0.4508390846536861,0.45083505287951336
12,0.45084229388313485,0.4511642935997795
13,0.450762771022378,0.4507254041749845
14,0.4507454632955494,0.45067985794384485
15,0.4507320329628375,0.45062253130576746
16,0.45069226708405985,0.4507020120141524
17,0.45069144672091405,0.4507583533416019
18,0.4506773248742205,0.4507044404227444
19,0.4506549703731088,0.45065571872827137
20,0.4506451134509043,0.45064919971059036
21,0.45063889107812266,0.4506669850562406
22,0.4506355814947439,0.4506058025892556
23,0.4506261925389305,0.45063025065450457
24,0.45061148124552003,0.45055746261594315
25,0.45060949122099075,0.45086399606676314
26,0.450608273032082,0.45062264144864334
27,0.4506027120439903,0.45069891440661314
28,0.45058530648550976,0.4506114706507983
29,0.4506057592757435,0.4506585119379957
30,0.45058008139031,0.45048264188151205
31,0.45057984554725483,0.45066284055153727
32,0.45056991551330094,0.45062856677152385
33,0.45058968060905896,0.4505813133775744
34,0.4505799728373001,0.4505259019269541
35,0.45057058569303055,0.45116363961998346
36,0.45056038184222813,0.45067003657740934
37,0.4505571462245053,0.45049949556071467
38,0.45056159296796955,0.4508256992394516
39,0.4505523660248394,0.45123029547944554
40,0.45055098395056925,0.4504801390040897
41,0.450538133010565,0.4505401109347568
42,0.4505510679477529,0.45054877287992473
43,0.4505439323142937,0.45072909636473835
44,0.4505494453010084,0.4505372340566763
45,0.45053216581146704,0.450821031397093
46,0.45054564030317384,0.45058179787607405
47,0.4505460191225167,0.450515239617369
48,0.4505210008603199,0.4505837665598091
49,0.45054360964097856,0.45075535871846506
50,0.450544059411076,0.45046912110768833
51,0.45052571341915415,0.4505216168558627
52,0.4505262285026458,0.4507723308230748
53,0.450526740009985,0.4506369429545722
54,0.45052450068104793,0.4505036520455079
55,0.45051388966594036,0.45049884406567803
56,0.4505226289487955,0.45049405050632674
57,0.4505122691407492,0.4504832020172706
58,0.450518228128146,0.4505261189144835
59,0.45052000272133763,0.4507591972280081
60,0.45051112217868494,0.45070594479664977
61,0.4505228451634395,0.4504909438323738
62,0.45051453249620876,0.4504689096517066
63,0.45050985785082254,0.45049176968948423
64,0.45051539693788906,0.4505872782791223
65,0.4505090807714668,0.4510182553426208
66,0.4505265773125988,0.4504699459294823
67,0.4504930439359453,0.45063443003458065
68,0.45050494417117676,0.45065195059066376
69,0.45050537937161805,0.4504821496477198
70,0.450511623201709,0.45049720805868615
71,0.45049568900574705,0.45047712503532616
72,0.4505111488824903,0.4505167151798977
73,0.4505016699225668,0.4506190715741283
74,0.45050192687269147,0.45069241584382636
75,0.45049648174531387,0.4504955853776955
76,0.45050393803742106,0.4505358234676475
77,0.4505129508685287,0.45052228308197284
78,0.4505001900194056,0.45100094291471665
79,0.45050387810896236,0.4505396260369209
80,0.4504886729578484,0.4504822107461783
81,0.45049492982687445,0.4506819005639618
82,0.45050514901407396,0.4511523802582147
