epoch,loss,val_loss
0,0.2079159916578818,0.058382112259411305
1,0.0480126592789968,0.024504607847664613
2,0.04514456536474941,0.033529305135229955
3,0.03679687633133716,0.03634989090798968
4,0.03550686278707273,0.03485784685237726
5,0.03264199253685361,0.026861103110444668
6,0.03192062559277028,0.03664147345482974
7,0.030328275886722367,0.03565235574154188
8,0.03157212474304501,0.036288939778058665
9,0.028173976034546893,0.02203289466897568
10,0.025826447732489016,0.023226304436962532
11,0.027119370692184,0.029743353071039647
12,0.027126616400798303,0.01525523528036233
13,0.025194057278137068,0.018002467340956594
14,0.023921001442357433,0.012993645575706095
15,0.023288537214192256,0.022712249576386827
16,0.02421223925989416,0.024963827323000922
17,0.02139394976634928,0.02067878169037737
18,0.022256238670419638,0.026806142335520925
19,0.021014461974813627,0.00998381802396174
20,0.02145637400175849,0.02387663242631337
21,0.021407440144882845,0.010928172998177365
22,0.02106562475536129,0.03252315387165067
23,0.021163822620173547,0.015820071445932376
24,0.019733133956047,0.013819227897765698
25,0.020058742977848515,0.027052855839469155
26,0.019922495536174145,0.018483624325355115
27,0.0185765216588977,0.03223313438693604
28,0.01890653906874716,0.015252804207955887
29,0.0182040841247943,0.01426786419751024
30,0.01804118359917038,0.013315061690181424
31,0.01733794943898541,0.015578720087204614
32,0.016853020593470377,0.011989922947805277
33,0.01609992649429273,0.027840303751068878
34,0.016667579043117598,0.024753391776519116
35,0.01638827026731593,0.006234129492763868
36,0.01610948871389377,0.015095013129100757
37,0.016041301048474666,0.013263071726951762
38,0.01570564395912605,0.026730237321394488
39,0.01479894618580429,0.015040305027798488
40,0.01485052260832279,0.015178316674873692
41,0.016112898772345674,0.014931052053625084
42,0.015663750283196748,0.01997186640761175
43,0.013794862357028526,0.018293849987160906
44,0.014924673761667714,0.012683619616439988
45,0.014349921126768058,0.02090936021669088
46,0.014671941638457404,0.015276532978901454
47,0.014105883188364055,0.008877046246760787
48,0.014666093552826073,0.018534557548393484
49,0.015082360975791236,0.008747138413758663
50,0.014174604895066837,0.012188505902504159
51,0.01360581172083011,0.019860078687261386
52,0.015051156185644803,0.02209811922436214
53,0.013166755924357188,0.008432874893776972
54,0.012860869374896715,0.01935904779880886
55,0.012777252681292803,0.022034023254051297
56,0.013106731206013394,0.016302931357701417
57,0.012577922061661915,0.019975649339941514
58,0.013387579014703489,0.011771841977312044
59,0.012825579704180044,0.007955462450930451
60,0.013053350224473077,0.009818289872191277
61,0.013492960023130182,0.006399396566222786
62,0.012341300283073278,0.007616898952376894
63,0.011963135441396681,0.01234822158702453
64,0.012718630273812275,0.008312408099702216
65,0.012937057463878052,0.013146570947641637
66,0.011856794944308477,0.008875876232164294
67,0.011928092202374178,0.007027239991526907
68,0.011832854123510641,0.007989449771643039
69,0.011205479922926993,0.009607755551122029
70,0.012919863280419597,0.012984927350415568
71,0.011563949449323594,0.011145347293433987
72,0.01125482861514685,0.006072057350064557
73,0.01187623886279479,0.02011562763744908
74,0.011790904616523865,0.01030912178832429
75,0.011765192920374845,0.010913483640465712
76,0.010951605568313115,0.014813073907097494
77,0.011970373692916338,0.013377555577641599
78,0.011663106035256533,0.012513795551485966
79,0.012100064424614755,0.01610015127102197
80,0.0116809446311226,0.007560720985156985
81,0.010636162152123018,0.014187727602023775
82,0.01116887901181565,0.006122379009145141
83,0.011803039531543595,0.011455491978319358
84,0.010465571660638528,0.01006616832175378
85,0.011347944285891068,0.01334420278456706
86,0.011114270668469376,0.010765959449912162
87,0.011895922001274073,0.011487485235226183
88,0.011215323036414482,0.015526581262315505
89,0.011474431194137963,0.0071463113343424
90,0.012009664806894672,0.017097230195034747
91,0.012153797463769262,0.007279975678633543
92,0.011356656376788352,0.010719580512608518
93,0.011198406965995906,0.013726918567809988
94,0.011939050800589135,0.009917470911001727
95,0.010517727587089914,0.009641382261087504
96,0.010319882470423536,0.006822029635127878
97,0.011099622688266626,0.007119576760583161
98,0.011034798301416907,0.010304653592225408
99,0.01190698652217041,0.00860686163140877
100,0.010397768642516623,0.007094373016514549
101,0.01073256826908927,0.010731520966259908
102,0.010494879107821068,0.009076463961246076
103,0.010732369298181629,0.00482915077967115
104,0.010138887503976486,0.014084812382349323
105,0.01104295016056095,0.005673207103729766
106,0.011063436110545662,0.013389494200990533
107,0.010236421463840592,0.012216549543127264
108,0.010177913711028103,0.011181477971092726
109,0.01142031122255865,0.005017124113480501
110,0.010371325529466341,0.008013207477171212
111,0.011160402081264325,0.010127187762394747
112,0.010643145769367741,0.01534162312025688
113,0.010824191490289488,0.015394926960591077
114,0.010497882914209037,0.01068839771730418
115,0.011040626158792642,0.010445344487488881
116,0.01088997765167279,0.009871624625525375
117,0.010563578570077715,0.009552899477584397
118,0.010784761629999428,0.010247192624882863
119,0.01010462133583131,0.01174364778585879
120,0.010457184977273343,0.013747826788277493
121,0.010117030800986502,0.009156052088592827
122,0.010009030841825474,0.01607569377801742
123,0.010031306122944837,0.008066337214578487
124,0.01095212046713974,0.01512807867200876
125,0.01082731635186175,0.012156636323324083
126,0.010713003034577619,0.008957242892339132
127,0.010794108048164034,0.010979909228562321
128,0.01085961190983653,0.007281872924952382
129,0.010581634040615953,0.01308983064167666
130,0.0099459917873232,0.010302904810265424
131,0.011201149086839408,0.012906927799169436
132,0.00983238922438393,0.012738453352201992
133,0.009377974060663341,0.00767233992993667
134,0.009846309654051356,0.008870453216523614
135,0.010027443002954089,0.008493757381117899
136,0.010166608546819571,0.009756741446943478
137,0.009626220979673458,0.003961452540052848
138,0.010785063718826019,0.01099316831148908
139,0.00981561906879945,0.007205019702057294
140,0.009160872822036321,0.007436477488763895
141,0.009297424046282502,0.008793974196760318
142,0.009397363652650871,0.012195616376151837
143,0.010476381195594462,0.008828720328160624
144,0.009385669260932733,0.01360045359179601
145,0.009769746853648384,0.009813753692484693
146,0.00943514182984972,0.012345828933328178
147,0.00990216201292254,0.006881272402278133
148,0.008882519723155157,0.008293695099160793
149,0.010844982785565836,0.019047145961821315
150,0.00899809126672949,0.008711806389678861
151,0.009183012924215151,0.00821351029137598
152,0.00865348423499879,0.010592634652924284
153,0.009800542926815578,0.011999822217286009
154,0.009375909927857968,0.00780638610141465
155,0.009014246402402146,0.007314188165138839
156,0.009293270957407554,0.007778225544893022
157,0.009017505298862211,0.016547909512933588
158,0.009084018868681558,0.007685705061984302
159,0.009716922721768216,0.007528644228970077
160,0.009302540660294577,0.009889870413065239
161,0.008815967119864666,0.015569167448341517
162,0.009000767383342542,0.012101958084619224
163,0.008930005702200523,0.012424297402182854
164,0.008889199197880454,0.011487024452540238
165,0.009377412341380988,0.010753274109470346
166,0.009332313512483214,0.004886449800896875
167,0.009039391759972122,0.0070116360860729
168,0.008677511682568622,0.008044327055739904
169,0.009094996900717578,0.008166579930618959
170,0.009283556329212237,0.006093504798952152
171,0.00920150520430385,0.007612641460843672
172,0.0086951389146461,0.01186466252617979
173,0.0087570564704668,0.011931615772832777
174,0.0099519004752721,0.012057873857778739
175,0.008452292321976439,0.009528197186404358
176,0.009362646827580695,0.009750439293664934
177,0.008144702558475677,0.006650837625640767
178,0.009085306844809543,0.00969095841996907
179,0.009367532820141555,0.009857970551567794
180,0.008985866373367637,0.0064368887184056926
181,0.008418124662689883,0.011658342101632514
182,0.00894303421006366,0.0038224161103082603
183,0.009197892994321376,0.006077223282083928
184,0.008582388184019935,0.006459776781816932
185,0.008515870787291158,0.009913610382668598
186,0.008409957319935806,0.006443065887386157
187,0.00920618825080655,0.00568862308563566
188,0.008546197796326063,0.01872283821277197
189,0.009211897939744352,0.008984217258506904
190,0.009036896293789303,0.006981983507050594
191,0.008698990600251352,0.009764052956161437
192,0.008850936471357299,0.013622042415744457
193,0.008924449113648768,0.006214807106618606
194,0.008572169882375642,0.010761974677120078
195,0.008932568864870092,0.006896860409460391
196,0.009039755257648333,0.005385072254623568
197,0.00862064068209377,0.011781251891541876
198,0.008788506325753443,0.013124461142433
199,0.009287026790744937,0.011942803756802121
200,0.008440870072057606,0.007386895286943984
201,0.008949773007933851,0.005269377730895589
202,0.00907072061972453,0.007183769797934212
203,0.008693410787261654,0.009259168914245072
204,0.008470280678011477,0.014338739719109546
205,0.010236858013480586,0.008358490395697088
206,0.008680066232830823,0.007854299626409444
207,0.008396373265314934,0.011967400972449882
208,0.009482420380893562,0.03570441815240607
209,0.009057886344079169,0.008873244227096145
210,0.009370322154237807,0.0064083413642132105
211,0.008395265021974104,0.0040320881213125465
212,0.00904826462042885,0.005840710098925029
213,0.009104773244388003,0.009026798712208737
214,0.007737061684131533,0.008762571386237289
215,0.009054455177975353,0.003697909065430371
216,0.008755640835865296,0.006123203800031188
217,0.008662347694755428,0.007738758032904804
218,0.00916694503480034,0.008567944414922476
219,0.008732218032261338,0.005013892655690872
220,0.00848558337928699,0.008427297344376887
221,0.00946064662423914,0.006717466344232152
222,0.00840830943620891,0.005454366373217238
223,0.008747195517052438,0.008894870530713963
224,0.008522536401706879,0.010748637499818438
225,0.008392930767003098,0.00789905841857042
226,0.008496981570783773,0.012878705867975597
227,0.009652745743229283,0.006680657016150154
228,0.00870779559671727,0.01621859739354467
229,0.00986521522937749,0.006469586217259928
230,0.008933097744143928,0.00566576412403346
231,0.008795696054696947,0.011397998579340415
232,0.008624776281264918,0.005765264477483757
233,0.008402945250730594,0.008716178330245128
234,0.009137249508069354,0.00672696357528255
235,0.009396205542513804,0.007818373714756712
236,0.008292895123484634,0.009758033708102513
237,0.008111901288062221,0.006598986991429033
238,0.008920437518617423,0.01814173137432445
239,0.009195855924588658,0.01082123824907577
240,0.008971046835599508,0.008613085691047496
241,0.008117133483505078,0.008203850157894106
242,0.008858954081580573,0.013182983191973502
243,0.008526265977224489,0.007896518718815852
244,0.009320830567002886,0.010474998698714641
245,0.008296403027944368,0.006221574872302887
246,0.008067461878167754,0.011795694188559582
247,0.008896797569636121,0.007393818203839103
248,0.008292060267428856,0.004679815448789718
249,0.008517035924037434,0.005647848064010785
250,0.009217790234722287,0.013009142866409616
251,0.008277232159501602,0.0046932313531701875
252,0.00880024522339343,0.012723869900641803
253,0.008451245323610421,0.006158038123709979
254,0.0087478495256746,0.007629097174726656
255,0.00871152989612855,0.00870779985503162
256,0.009095443856082023,0.005364855752130287
257,0.008363671392927484,0.013829925817150061
258,0.008862127131651448,0.012729327532520845
259,0.008634649749326376,0.016123722326495605
260,0.008707974014690608,0.017296228102087127
261,0.008767339788346762,0.006468086115701305
262,0.008722114578193928,0.015414095323476954
263,0.009632449337721637,0.00819493725972328
264,0.008553307224009231,0.00768689365598837
265,0.007971582083339743,0.005008177177932028
266,0.008753010174270711,0.008618249430746757
267,0.0086567737195614,0.005173484422119471
268,0.008160442511698486,0.011462714176128113
269,0.00853942660149559,0.012123229401075849
270,0.008610837810060872,0.00846997084501828
271,0.00854941417262491,0.007156315770503002
272,0.009071788083178272,0.008078710106219847
273,0.008795975628930579,0.003641330071591905
274,0.008857255475483924,0.01107955188582333
275,0.007805046659773685,0.0066202288190668835
276,0.007960106350816891,0.011704478016668591
277,0.008765921804035525,0.005673144504445551
278,0.008588141103522282,0.010890605294196363
279,0.008059679182710873,0.006033325104752957
280,0.008501322386204916,0.008525632724648116
281,0.007790338352332256,0.0035895055664178417
282,0.00793795432267468,0.004820712565296662
283,0.008213854179331225,0.004117603404388631
284,0.008601702527879335,0.0076102450502493904
285,0.009202087564925424,0.009810137629344318
286,0.008365390698245313,0.0037204963184493257
287,0.008138380715527463,0.00714853212080055
288,0.008165721400293986,0.006947224094564038
289,0.008256383913821897,0.006425148602383948
290,0.008432935070649213,0.009531966659763053
291,0.008766588931203448,0.006252748274627335
292,0.007960718895437466,0.00511089591427038
293,0.008907950581624646,0.00505539569775879
294,0.008789221908868128,0.00568654273887295
295,0.007658729330170528,0.0049078326132780655
296,0.008134126484723126,0.006789796626975947
297,0.008328352457390343,0.0045865933574741995
298,0.008409458593812306,0.007187304124471327
299,0.008218911158175564,0.011821789302419939
300,0.008116570808705119,0.005779982898413735
301,0.0079577675090729,0.005824255961380846
302,0.008211223615307755,0.004685452737167019
303,0.008675543107293385,0.008625248036161359
304,0.008324107471135088,0.00344353020904202
305,0.008258582953606352,0.011874350457472085
306,0.008077556834940306,0.0037184632072723585
307,0.008531863971663226,0.0062974188414320715
308,0.008285632462994151,0.007519367590528967
309,0.009198135858458235,0.0030585540504133786
310,0.008464479349928795,0.004659827179683412
311,0.007970668118652538,0.007705750706478448
312,0.008428741809740799,0.00655365478462042
313,0.008337582301383437,0.0107200543301352
314,0.008449241005481303,0.00751505810921775
315,0.007339098367193858,0.004886377718587772
316,0.00918861667818794,0.004936885724510136
317,0.008038242073110985,0.005031808312899994
318,0.008443712874008216,0.01210453097679856
319,0.008377915661172311,0.00843330990631889
320,0.009425634697960358,0.0068340878452203034
321,0.007255191712243428,0.0070706686470290055
322,0.007944327300424865,0.007403718588407715
323,0.008462737087900345,0.01048077787210152
324,0.00804155342290915,0.00923446510589866
325,0.007911004721967624,0.013286292058251792
326,0.00835876176945216,0.004940647634456336
327,0.00791314398588093,0.01568072998783042
328,0.00813032889204155,0.004657659497723607
329,0.007709155370817065,0.007602768096390703
330,0.007319620736840395,0.006972937543686089
331,0.008245511401759581,0.008423041250195057
332,0.008181372068455364,0.011089175597756466
333,0.008091396937291209,0.012890181238097804
334,0.008616892857846323,0.015380757738084143
335,0.00802779140471623,0.003398261853326891
336,0.007651986444270689,0.013239526822751398
337,0.00812091364664473,0.004943535155260196
338,0.008158542665665586,0.005363248270254909
339,0.007885020789612148,0.006344104668635643
340,0.007464541780701328,0.010031807831037957
341,0.007769509263766214,0.010762301286875072
342,0.008088504737462672,0.007360615498138608
343,0.00840085913138881,0.004587760962723756
344,0.007933072189919184,0.008751240859929864
345,0.007846258844410498,0.014108486746268049
346,0.008325074610637603,0.005865012901602129
347,0.008207416864760446,0.009274832864278
348,0.0075658878239301995,0.010677269898096265
349,0.007642975886449885,0.006406914691228329
350,0.007263371201321783,0.007733106980322263
351,0.007662753924447522,0.014256034044941392
352,0.008238177096525537,0.009239000893817611
353,0.0075272137725757035,0.007205842629930662
354,0.007418060878873896,0.008994981623383353
355,0.007948812399376675,0.0054086465561275845
356,0.007839554765758266,0.012694442028734002
357,0.007938418252621409,0.007991883800833264
358,0.007904267347556242,0.01083339154632099
359,0.00769085640092935,0.015217656563694023
360,0.008129356714016904,0.009397039356793629
361,0.007600768245470008,0.00789399975660862
362,0.007650672922098487,0.01006096286365458
363,0.007782481243848044,0.009506042284454383
364,0.00787205694394624,0.010553164682523793
365,0.008093969115075825,0.014162276563511746
366,0.007568183360198107,0.008050123586862598
367,0.007539538412372009,0.0054488124431720285
368,0.00796525831181492,0.007936549645678774
369,0.007836983863935828,0.0057756057106129
370,0.007370019121589489,0.007651237346784703
371,0.007417693442246653,0.006980657200795769
372,0.0070289987855297565,0.009558979646047693
373,0.00807262815294607,0.006034685598705449
374,0.007335302956345722,0.012482543410505474
375,0.0076683430588520545,0.010300211149731677
376,0.008014275208688814,0.00892083393814132
377,0.007583114843767919,0.007420999143528439
378,0.007555844064634055,0.009593963421640098
379,0.007589335892078497,0.014367541970116186
380,0.008330131343157916,0.007502040258316939
381,0.00840640420733998,0.006507099348090254
382,0.007787086312092549,0.0060086176269808994
383,0.007080284577616074,0.004296641665067592
384,0.007926367727915298,0.007534264936755046
385,0.00806697997568677,0.007220438704329772
386,0.006983163150520229,0.004140217507907852
387,0.008122942682650076,0.005294108078260072
388,0.007359158725654192,0.004979254279488546
389,0.007710369191176037,0.010391319030197521
390,0.007552088355923967,0.0037301483879420075
391,0.008220068853740081,0.00626380897392449
392,0.00735637126267135,0.006669708789306404
393,0.0076364414388802255,0.009752466856415995
394,0.007850717959760261,0.004333579961663287
395,0.007004190094509928,0.010725316527610515
396,0.0076311638784988655,0.005058778148150364
397,0.009103153134230152,0.007932038630793297
398,0.007006466505489945,0.007933140140623678
399,0.00747698543399355,0.0034489334904939384
400,0.007721184008232922,0.008024301493853542
401,0.007587142744016715,0.005339202528779749
402,0.007459883022752645,0.012466577994589412
403,0.007706696250968033,0.003848596131090948
404,0.007508676657140505,0.009738865104116552
405,0.007249648508196659,0.01252207955773317
406,0.0072191158598244225,0.008972958108849806
407,0.007994187097504383,0.010678570661708513
408,0.0070790322024753384,0.008960586059221082
409,0.007018053835126862,0.004400459203822061
410,0.00728064624620207,0.0037052745165651766
411,0.007042425587199343,0.009584104226962402
412,0.007444674141524876,0.007124360671727062
413,0.007351588869138326,0.011275996609893058
414,0.007427611316332398,0.012342788964133612
415,0.007673821525371296,0.008023986682933833
416,0.007280306279124003,0.017515925692001853
417,0.007133593357787531,0.004964726035436872
418,0.0072646310893918495,0.009227014568670349
419,0.007775025095788392,0.004542293411296599
420,0.00700655705734736,0.005918522384502846
421,0.007771649516000003,0.009588626237628774
422,0.00745914629448375,0.00579867835965922
423,0.006744410782960503,0.009381038505780998
424,0.007134442162930036,0.006188161224979487
425,0.007357863288057848,0.008938792334382894
426,0.007168202839834954,0.0064967683025421875
427,0.006946501160449208,0.004993544814295202
428,0.00703508477098942,0.008683007256434415
429,0.007364031794346232,0.009614690991990332
430,0.007187932788347491,0.005289335901266068
431,0.0069632957925644815,0.00293020481440726
432,0.007718745578113172,0.004666143504942414
433,0.0074830627587023114,0.007791319819374544
434,0.007595619036237985,0.009692586496054844
435,0.007203759274540021,0.00642588205015156
436,0.007200184227194455,0.008555945073678536
437,0.00723226146903157,0.002881913492750103
438,0.007125217839498535,0.00675216102208163
439,0.0067555313993380856,0.0094097181404893
440,0.007006557040224723,0.0060165880825708675
441,0.006622435724668705,0.00439532590649975
442,0.007430221275355723,0.004226463637369867
443,0.007232824440127601,0.007689586250315808
444,0.007659672849553285,0.011461121835043888
445,0.0072431071281922966,0.009357608299799433
446,0.006505070825162858,0.004995022125648013
447,0.007128318920054084,0.009952409507525937
448,0.006917217372005417,0.014155164286758877
449,0.008070458908923429,0.010472964215362129
450,0.00715802516248509,0.00337996798616723
451,0.0073233382674202105,0.008260723404092354
452,0.006830441089282609,0.007226267083082716
453,0.00662413382285582,0.005949850460248334
454,0.006889834077090776,0.006736085802351949
455,0.007000234721192746,0.011014184963778427
456,0.006662096250845085,0.003407023117554851
457,0.007547043563930584,0.00919441144542964
458,0.006110253135508431,0.004607403311281573
459,0.006741227073163884,0.009876780618414365
460,0.006948139970388106,0.009947173633328223
461,0.007395953695709667,0.004729735616876817
462,0.0074379151066516535,0.003752177856655258
463,0.007014714750797405,0.0077886593843433174
464,0.007016485969950672,0.005650135060006366
465,0.007118358211643952,0.004710168326339716
466,0.006856762311256808,0.005180543549167729
467,0.007328249872840798,0.005534328526913555
468,0.00722079629563897,0.01110359218821294
469,0.00820579356365025,0.010743257211816763
470,0.0067214009170193404,0.00880683246844146
471,0.006720856735923906,0.007427029679555096
472,0.00701101146848518,0.006082260251286327
473,0.006861129296814381,0.003955870081730122
474,0.0072282493656254014,0.010006131607989157
475,0.0075124090597544204,0.00713579670798795
476,0.006781774636958804,0.0037523052863182756
477,0.006808927745281381,0.0069482267537281425
478,0.006677867779188114,0.00806934112975493
479,0.006014327967878532,0.009570675906478983
480,0.006736539470736863,0.005787304628290524
481,0.006930631463978734,0.007532944586701344
482,0.008603746845978026,0.008968732416800325
483,0.006683464418705121,0.004424816385593674
484,0.00688096182709329,0.006480858629626746
485,0.00706470161892301,0.015515946838990054
486,0.007337201856725145,0.005764609349387291
487,0.006935179046970114,0.006927129212361132
488,0.006694377919988071,0.003112651962138589
489,0.007285320669688808,0.010034798043938068
490,0.007323772933570107,0.010040934917229597
491,0.007868979672836564,0.012261714627517897
492,0.006318251877430556,0.004457767040269551
493,0.007070921788116445,0.009764860894298732
494,0.006191112006996586,0.005443799814419569
495,0.0067005932228163265,0.003757675734422836
496,0.006631901301964701,0.005252064584262651
497,0.006991315296375387,0.010750261785193466
498,0.006566578972352137,0.0032690750268135798
499,0.0072757526388601045,0.0048978958913252265
500,0.007275032659368716,0.006916061719260586
501,0.006910904397466611,0.0055858251696045275
502,0.006558244712639609,0.0038135494515314497
503,0.0075596498037360125,0.006535271008079247
504,0.00692794694219806,0.0051888440777536635
505,0.006496709230323162,0.00675156705034419
506,0.006897457812776526,0.007221948226065549
507,0.007243006348630025,0.012542493862629924
508,0.007307264973766071,0.0057804007777810425
509,0.0071420470492908365,0.005692657652577854
510,0.007212192650313387,0.007083230071216704
511,0.006778866926812642,0.0031091178873599444
512,0.00696316028238467,0.013202589774840961
513,0.006847421081670055,0.00881523311126392
514,0.007786496694822856,0.007403566305405786
515,0.005941147800859922,0.003938916247542404
516,0.007075521698073416,0.005511946647244946
517,0.007028844072777543,0.005625491007727342
518,0.006828212113916981,0.005665950845756466
519,0.006194403178232024,0.004170255709054344
520,0.006958574510840543,0.00829727962339663
521,0.0072650772402249875,0.006032849920012392
522,0.007157233878050735,0.007464832594308006
523,0.006655288630255984,0.0053606516620601456
524,0.007291822554841399,0.004766303146568192
525,0.006799140112395648,0.00856772154546104
526,0.006570111059931387,0.009547133372851074
527,0.007187255226793311,0.005180098386532859
528,0.007382478293621068,0.006143265506715735
529,0.007516718444527595,0.006804843705541497
530,0.0068922685057711715,0.0072834456299785185
531,0.006233189421572643,0.0038226716640833895
532,0.007025749859050941,0.008276346774335183
533,0.007551996062070855,0.006197884256547962
534,0.006470841800810384,0.006464434964045729
535,0.00671725587052614,0.00752290476763352
536,0.006746458575232989,0.0057025590151454295
537,0.007181999310449087,0.00873060259290316
