epoch,loss,val_loss
0,0.044023353812765696,0.02650553897466908
1,0.02218835275913617,0.0198274843422488
2,0.01945974492088797,0.014560250665243742
3,0.015280105316365696,0.015101483500292225
4,0.013171999119284284,0.01269600932433203
5,0.011793327966354898,0.01153902859050346
6,0.011390417138426232,0.011781792921330733
7,0.011117667020243508,0.010813578131329037
8,0.010857844069198838,0.010421778237165204
9,0.010510001245117128,0.009744856503581808
10,0.010200388916450618,0.00915092178447075
11,0.01020303448874825,0.011691849213786812
12,0.00994803349612673,0.01274952479030373
13,0.009732040795647535,0.009596836214732592
14,0.009663768639245392,0.010061275745480883
15,0.009411716106435755,0.00904417006257302
16,0.009301017712460724,0.008709459322465413
17,0.009015534832829868,0.00868905178102533
18,0.00903347017691978,0.010273384066672981
19,0.00903085431054727,0.008972575535845224
20,0.008928278587120133,0.009528129582036814
21,0.008835320309006847,0.009337006651197858
22,0.00880858533289266,0.00799351828611888
23,0.008783563451435203,0.008122696687303317
24,0.008683365505272812,0.00841195822298231
25,0.008786425775125084,0.00856352861619395
26,0.008683735896190087,0.008053141199606968
27,0.008629948846398342,0.009548140926374396
28,0.008702917016641913,0.008018005906694358
29,0.008558730762316554,0.009237687023952789
30,0.008622761525251089,0.00835764681407373
31,0.008600438514467783,0.008749892895870262
32,0.008498250135243253,0.008596989078904795
33,0.008605507537889474,0.009445574683675694
34,0.008475252755473487,0.00856079028748327
35,0.008442723074443364,0.008199868821735418
36,0.008482534515812398,0.007794386170869208
37,0.008482242768160269,0.008558317012252938
38,0.008424060224022345,0.008104764525928804
39,0.008446368659264096,0.00800206685004289
40,0.008405329413072383,0.008140882430020396
41,0.008395267799308565,0.008917164912091444
42,0.008367857996287005,0.008027418414431234
43,0.0083676767509501,0.00821818802459512
44,0.008359870558550588,0.008132331404215645
45,0.008319055138202433,0.008226742784471873
46,0.00830460924207687,0.007828992278437608
47,0.008324475062070397,0.008108117473461936
48,0.008304990907998555,0.008434315014251556
49,0.00830153384899809,0.008548531553964536
50,0.00826051386285944,0.007969623863484442
51,0.008267033485924308,0.008140503427258718
52,0.008274098955756148,0.008062794648351208
53,0.008275285952174641,0.008290459952610673
54,0.008194984357716895,0.008476705817741436
55,0.008280527295539788,0.008033630891099906
56,0.008201233919692073,0.008172138871638932
