epoch,loss,val_loss
0,0.8899624419525348,0.8891232677783919
1,0.889056385481642,0.8890142062757507
2,0.8890627733269073,0.8889265369836509
3,0.8889583982499154,0.8889522800078759
4,0.8889379643828804,0.888921659785524
5,0.8889367492806562,0.8889099265446438
6,0.8889305600347133,0.888945319634809
7,0.8889340968159849,0.888905630721052
8,0.8889225873169233,0.8889001975284321
9,0.8889176708223442,0.8889004388458971
10,0.8889128537658657,0.8889095207597718
11,0.8889151601148266,0.8889073063658721
12,0.8889110253032044,0.8889248370236853
13,0.8889103963010937,0.888901207198576
14,0.8889093453421777,0.8889071671897661
15,0.888905057475016,0.8888981810870301
16,0.8889069633019993,0.8888945345843104
17,0.8889051322740689,0.8891213569688442
18,0.8889083924480123,0.8888940184642896
19,0.8889047307881431,0.888903256444718
20,0.8889032100568139,0.8888944133931295
21,0.8889035419625739,0.88889585058979
22,0.8889013725036969,0.888909827065527
23,0.888901978037381,0.8889151316126878
24,0.888900823391736,0.8889049360829014
25,0.8889010682842279,0.8888978897785726
26,0.8889007730274243,0.8888943032946244
27,0.8889020948573101,0.888906001246005
28,0.8888996572852067,0.8888971632230962
29,0.8889004583449385,0.8888950608208517
30,0.8888998598949314,0.8888964621364035
31,0.888900234948803,0.8888918631130057
32,0.8888989856997853,0.8888917847839242
33,0.8888993981496336,0.8888986301777084
34,0.8888979813495701,0.8888946509242945
35,0.8888989611064897,0.8888911693031084
36,0.888898513692622,0.8889047028409044
37,0.8888984078587027,0.8888971518346157
38,0.8888991451740196,0.8888954714569205
39,0.8888998917107376,0.8888937379527033
40,0.8888982567279039,0.8888933937839479
41,0.8888977714991917,0.8888961963263102
42,0.8888973560707283,0.8888925478121187
43,0.8888978374988664,0.8888951082383433
44,0.8888980408784873,0.8889003889436462
45,0.8888972987221321,0.8889101053289976
46,0.8888972324274356,0.8888947955727873
47,0.8888966054549797,0.8888921697145656
48,0.8888975668984648,0.8888921677918351
49,0.8888961854386918,0.8888914157971555
50,0.8888971841140771,0.8888911207023981
51,0.888896393687749,0.888898970826388
52,0.8888970862630989,0.8888933591156385
53,0.8888960967815057,0.8888930230223512
54,0.8888964262158671,0.8888930572469537
55,0.8888962284984546,0.8888928160478105
56,0.8888982492600677,0.8889061073215665
57,0.8888961318370293,0.8888977752725776
58,0.8888962558692142,0.8888915716862265
59,0.8888959604499121,0.8888928298618894
60,0.8888958676490117,0.8888912243819415
61,0.8888965118715619,0.8889058489953318
62,0.8888960438030176,0.8889014516219903
63,0.8888960000561853,0.8888921341292616
64,0.8888952362315092,0.8888982958888297
65,0.888895748073706,0.8888938307466341
66,0.8888952331558683,0.8888906098772811
67,0.8888955703799076,0.8888960495776042
68,0.8888951859855218,0.8889004788091106
69,0.8888947546030088,0.8888911505490911
70,0.8888953137756841,0.8888942630651867
71,0.8888959483059026,0.8888929070077523
72,0.8888950053817364,0.8888910306298703
73,0.8888951591267117,0.888893417063777
74,0.8888952387675918,0.8888928975420022
75,0.8888950161815827,0.8889030499434648
76,0.8888951066688501,0.8888938027635106
77,0.8888963841744814,0.8888937078397859
78,0.8888945169204063,0.888893947707808
79,0.8888950970372582,0.8888914902511956
80,0.8888948257466319,0.8888919719099703
81,0.8888946793519574,0.8888911596598755
82,0.8888957119217112,0.8889041374398224
83,0.8888950148042888,0.8888914701364768
84,0.8888947473363238,0.8888975722914002
85,0.8888945672365995,0.8888964632308809
86,0.8888949965089972,0.8889012634310474
