epoch,loss,val_loss
0,0.04425189219521384,0.03489421833833453
1,0.026074782198676125,0.025869371053339824
2,0.02036444600802919,0.018454599248305444
3,0.01630377314603548,0.015484564722730564
4,0.01450614828696718,0.014910485025578487
5,0.013004946962568473,0.012084183513785414
6,0.011653948531601547,0.010942142040332404
7,0.010474788555311285,0.01095841872660679
8,0.009977036661004727,0.010827395420234937
9,0.009769084197316405,0.009605742035845003
10,0.00969562556921259,0.009036357458172453
11,0.009507353232817014,0.008908428727341792
12,0.009390519914989593,0.009790141395669865
13,0.009209732313496788,0.009247308860419702
14,0.00899788451314803,0.008947208888884218
15,0.008793702591717672,0.008751893954966264
16,0.008604106770850823,0.008533871982006296
17,0.008354675138388406,0.007928580379635836
18,0.007973428141512615,0.008361555651412634
19,0.007957411729257553,0.00812922448321955
20,0.0077319713310454894,0.007817014991756409
21,0.007688075879549307,0.007145944243948676
22,0.007582353383733192,0.007501600269764366
23,0.007518621072035764,0.0071928368594784
24,0.007554565938306594,0.00743120938987834
25,0.007556978712253225,0.007545701686579448
26,0.007392041290366513,0.007487773393782286
27,0.007324869133871194,0.007232827494711275
28,0.007340594996993752,0.00785738948233444
29,0.007285002973113333,0.00735681202082384
30,0.007252467770070378,0.006718645512447612
31,0.007254096629582374,0.00801004102042236
32,0.007165039837710622,0.006600541346902883
33,0.007149570306024981,0.007027146925747616
34,0.007123742985021384,0.007431274815404756
35,0.007123063107530773,0.007295600595022032
36,0.007096337001493462,0.006857114376283017
37,0.007076847095070964,0.007176587596609634
38,0.007074314426090437,0.006369106936968734
39,0.007016291709175062,0.0066199832341677645
40,0.007069268227189766,0.007631640739868356
41,0.007091706165743704,0.007325794717883945
42,0.007060083347113494,0.00756691807936461
43,0.006973169241694513,0.006937565803574052
44,0.006818982563606754,0.006786251955529301
45,0.0067981407607125574,0.007057816635761826
46,0.00683330185365039,0.007465924162454626
47,0.00687955580831958,0.006819970277195829
48,0.006727009176593597,0.006828170432420286
49,0.006774372657798028,0.006910874679795565
50,0.006776901379950797,0.006569499560347562
51,0.0067455648251502605,0.007068778121746873
52,0.006743593493050567,0.006615553807615125
53,0.006710766072888717,0.006669974351583728
54,0.006766113589783176,0.0064364123204376355
55,0.006726147018737254,0.0067551250428552955
56,0.006718679348708186,0.007191149193433023
57,0.006778058260278175,0.006353636084138312
58,0.006677944833392725,0.006498865732835333
59,0.00669159052702697,0.006411603958838187
60,0.006687313272642273,0.007092303862661197
61,0.006694390165765892,0.007296499360593096
62,0.006659871999727916,0.007453665486479146
63,0.00668454540307632,0.00710969421430202
64,0.0066915361363946045,0.0070608932409370806
65,0.006676902668215975,0.006980076697296821
66,0.006686341498454149,0.006242364613343927
67,0.006678818179211221,0.006435018853416144
68,0.006673671722395741,0.006698527423983842
69,0.006629168946372197,0.00672702708699863
70,0.00662499059427646,0.006871932957589478
71,0.006639475069842818,0.00664728004554698
72,0.006626928804178004,0.006505566316820847
73,0.006606934368088276,0.006672102767539675
74,0.006612344402411407,0.006689967197497784
75,0.006637628047872895,0.006423902685844129
76,0.006564574231862631,0.00699487076956714
77,0.0066133050257184646,0.00652546966471536
78,0.006576546299616903,0.006222742518627318
79,0.006603840491927523,0.007036992978239918
80,0.00656316702826966,0.006532814428811112
81,0.006575491240871283,0.006380713680671255
82,0.0065599434627935035,0.0066656385451351885
83,0.006598847054303834,0.006669650672156151
84,0.006593508439816948,0.00652208290485753
85,0.0065701669533772935,0.006659722291672644
86,0.006527634916365594,0.006534362994319304
87,0.006499542190113937,0.006365799738866076
88,0.006438165820017965,0.006311777157122015
89,0.00639263987259809,0.006369716808125932
90,0.006369044450873338,0.006556040580816586
91,0.006311631449355692,0.006179500346259207
92,0.006335770628623705,0.006259076988033341
93,0.006279078128519831,0.006872134768027378
94,0.006281432992699109,0.006534702789787176
95,0.006258616300016254,0.006411578979287713
96,0.006255999866661176,0.0064040634006945875
97,0.006254571337209766,0.006585606043146132
98,0.006194472264112341,0.0064590106094279155
99,0.006225542081544489,0.0061226981167424996
100,0.006219621209184386,0.006276341383033444
101,0.00624206983508424,0.006281135528909953
102,0.006238894463009198,0.0060396974021222245
103,0.006196951064794163,0.005864099242375521
104,0.006202928401129015,0.0059025098895538535
105,0.006239423894311416,0.006051325232077104
106,0.006158374465858371,0.006495261737249477
107,0.006202045633411368,0.006120493501036546
108,0.006189531755644289,0.006052600676263163
109,0.006170650967439626,0.006740732800224727
110,0.006117249921452723,0.0059279192072655956
111,0.006142706250020595,0.006657882464619783
112,0.006125801939441729,0.006551626399760284
113,0.00612340705890337,0.00604328705279836
114,0.006140938647935632,0.005883840433606143
115,0.006142349192819817,0.006376634401364007
116,0.006102864128437381,0.006214567760777458
117,0.006077160822930074,0.006429079764524923
118,0.0060978667979836865,0.0062242131784244
119,0.00611507960349261,0.006480128743290605
120,0.006112067327614891,0.0064098714640544304
121,0.00609143079435236,0.005892403211638738
122,0.006076050687351703,0.006205032471447222
123,0.0060472617981903965,0.006294928018290263
