epoch,loss,val_loss
0,0.5603934154834422,0.5556854509538219
1,0.5558985891011297,0.5556683889393771
2,0.5558198642382682,0.5556141850966082
3,0.5557677241623795,0.5556529079714129
4,0.5557445976438224,0.5556179198970274
5,0.5557181016386704,0.5556182542154866
6,0.5557167752304261,0.5556041227085123
7,0.555683698181793,0.5556056521370748
8,0.5556669298998361,0.555672300305615
9,0.5556673654505171,0.5556053838126417
10,0.5556538736499483,0.5555798450119738
11,0.5556524973475339,0.5565940740386547
12,0.555648275879194,0.5555966831318498
13,0.5556418520049912,0.5556364342829134
14,0.5556284717573458,0.5557447872741642
15,0.5556282634412382,0.5555872442704572
16,0.5556283880461124,0.555606605988874
17,0.5556236296129764,0.5557506513063133
18,0.5556162450083892,0.5556838097406676
19,0.5556187500379218,0.5555903333588215
20,0.555610948748268,0.55561998810425
21,0.5556199623776698,0.5556060444924139
22,0.5556077788793725,0.5555939466426745
23,0.5556076769911718,0.5555799955173994
24,0.5556149862390045,0.5555729134207033
25,0.5556049146387932,0.5555956122597158
26,0.5556061975983825,0.555711550748082
27,0.5556044465592054,0.5556004837783927
28,0.55560495304447,0.5555867891749436
29,0.555601220382178,0.5555802723610076
30,0.5555982198770554,0.5555816006719623
31,0.5555988905923993,0.5555759963267495
32,0.5556075769504066,0.5556965482442018
33,0.5556085259595932,0.555571620340087
34,0.5555963528241317,0.5556200241036806
35,0.5555977972694669,0.555612859152091
36,0.5555986095005832,0.555635779400913
37,0.5555967667830082,0.5555859490008863
38,0.5555960385226498,0.5556122121680759
39,0.5555901508496575,0.5557080995060374
40,0.5555924725807675,0.5555815953474779
41,0.5555929880594621,0.5555986715605478
42,0.5555914399060995,0.5555808799438382
43,0.5555885933005625,0.5555872836716418
44,0.555591784061572,0.5555814530062616
45,0.5555916171313339,0.555581147617501
46,0.5555897680960341,0.5556247167196818
47,0.5555883341208151,0.555579237103758
48,0.5555882640957502,0.5555750599570073
49,0.5555885249833107,0.5556017665945863
50,0.5555849610387413,0.5556012027021081
51,0.5555887677033698,0.5555861915311505
52,0.5555865953810466,0.5556449049459793
53,0.5555851642519196,0.5555713477560663
54,0.5555857202464062,0.5555689229562916
55,0.5555840455823606,0.5555724889113944
56,0.555582471882798,0.5555647018825446
57,0.5555841540856743,0.5555669884527883
58,0.5555847700405673,0.5555695874815247
59,0.5555822468458999,0.5555703536748294
60,0.5555821404968758,0.5555800673979387
61,0.5555826650676038,0.5555749185327856
62,0.5555841059868771,0.555570654833583
63,0.5555812863845059,0.5556124141730978
64,0.5555813137970733,0.5556704340442534
65,0.5555842452174142,0.5555756311262807
66,0.5555874270126028,0.555633722138464
67,0.5555787806205743,0.5556153396814691
68,0.5555825521168768,0.5555785763944053
69,0.5555820378490335,0.5555686326831505
70,0.5555808394857429,0.5555724177407864
71,0.5555828648320252,0.5555733132303204
72,0.5555806838594124,0.5555662744690112
73,0.5555808065718878,0.5555908637662088
74,0.5555817491576468,0.555588008955158
75,0.5555820035973259,0.5555754119350064
76,0.5555808575230877,0.5555788333599384
