epoch,loss,val_loss
0,0.5588318462410384,0.5559088870846013
1,0.5559083042756464,0.5556768985303401
2,0.5558218950755833,0.5560573952961204
3,0.48556125034190867,0.44457389709375633
4,0.44464687196663893,0.444576436961555
5,0.4446578393131761,0.44455444163483365
6,0.4446417126620744,0.444502778325424
7,0.44461846502131946,0.4445047671238779
8,0.4445967417002731,0.44452993011947894
9,0.444580823321499,0.4446421165915932
10,0.44458699820248676,0.44452582874309926
11,0.4445801470571434,0.4444997822972149
12,0.44456940712700455,0.4446155804410466
13,0.44455692835888816,0.4446394799069199
14,0.44454759691101425,0.444556317850023
15,0.44454501988750184,0.44452413841157634
16,0.4445408103793745,0.4445292207206745
17,0.4445350375948654,0.4444872375161713
18,0.4445306752437877,0.4445205844661438
19,0.44452634297388316,0.4446488130625069
20,0.4445213396092083,0.4444733447235808
21,0.4445200825405371,0.44454543839021593
22,0.4445139563420794,0.4444712286107889
23,0.44451468697404967,0.4444820297415144
24,0.4445152516850875,0.4444801349497906
25,0.44451007800136877,0.44455506940633427
26,0.44451370437103804,0.4444703346446489
27,0.4445079868798334,0.44446840286254885
28,0.4445112961180998,0.44446419634239254
29,0.44450589652622224,0.44448810273009554
30,0.4445039534523508,0.4447060445254257
31,0.4445128557891424,0.44448784018864407
32,0.4444965640209242,0.4444607521404995
33,0.44449996405291764,0.4445211200796937
34,0.44449622556986257,0.44450284887484226
35,0.4444949826799831,0.44459219135658323
36,0.44449173461455194,0.4444665943422625
37,0.3906569212583985,0.33335283999111753
38,0.3333777595781298,0.33336643669800486
39,0.33339071093280387,0.3333733247616155
40,0.3333844200660729,0.3334144591693547
41,0.3333916935594803,0.3333803479931786
42,0.33338793644667053,0.33335504910490354
43,0.33338441134636637,0.3333914386723237
44,0.3333900889682236,0.333377874119406
45,0.33338982271426515,0.33339223521518946
46,0.33338516890853565,0.33336294163249564
47,0.33338601615849495,0.3335435208108822
48,0.3333806468580133,0.3333625963988434
49,0.3333803872960785,0.33340080460307026
50,0.33338539033693937,0.3334725169183007
51,0.3333793997100394,0.33341697467763726
52,0.33337786573822953,0.3333596988292249
53,0.33338119949919137,0.3333977589979953
54,0.33337766505087907,0.33335861650944937
55,0.3333770718162093,0.33338231118973666
56,0.33337860348700743,0.3334345727345488
57,0.3333754875069079,0.3333516989245308
58,0.33338322407676063,0.3334760887303364
59,0.3333724517040916,0.3335396425303987
60,0.3333790791070038,0.33335916472427896
61,0.33337462245073046,0.3333604885833731
62,0.33337510996743874,0.3333707500628147
63,0.3333743900868019,0.3336880668517082
64,0.3333819646305613,0.3333536602131486
65,0.3333741254949044,0.3333565913713895
66,0.3333770079897562,0.33336732788358076
67,0.333371280293876,0.3333499064664391
68,0.33337386936437213,0.3333674009029682
69,0.33337092185193673,0.33344189993501006
70,0.33337269894255833,0.3333815060389545
71,0.33337313217763426,0.3333511075961679
72,0.33336894097032027,0.33339130662511063
73,0.3333734765721217,0.33341535473284
74,0.3333704695512785,0.3333481394031799
75,0.33337140782924685,0.3333507208463276
76,0.33336906834713664,0.33335289390152206
77,0.33336673428309266,0.33335132641768633
78,0.3333729116800478,0.3334186128440033
79,0.3333712672028783,0.3333756656563903
80,0.3333716581480876,0.3334190038090604
81,0.3333700107778908,0.33335432209092986
82,0.333370890931056,0.33335507695491495
83,0.333368259126583,0.3333697035354065
84,0.3333698864262305,0.3333741193373801
85,0.3333696719754063,0.33335707447960716
86,0.3333690276676627,0.3334176844905683
87,0.3333713666137642,0.33336126845764463
88,0.3333706401503564,0.33335405554132486
89,0.3333685010341491,0.3334033882055922
90,0.33336999630802144,0.3333545385164303
91,0.3333677727682689,0.3333616046100929
92,0.33336897186122555,0.3333536478485126
93,0.33336770936620536,0.33353128905036017
94,0.33337181822380335,0.33335513996131366
