epoch,loss,val_loss
0,0.03937617136681122,0.02483865540409946
1,0.020971559752690678,0.021233403327743115
2,0.01989424866122716,0.019399739950710433
3,0.018465128223356286,0.01756195143401327
4,0.01653154381070637,0.01475561726422375
5,0.014779629240643992,0.017324606983670526
6,0.014652229721961297,0.016690082606806354
7,0.014378868508375274,0.014755433986411793
8,0.014253526896755403,0.013690137388485093
9,0.014124404647374635,0.014812607913469854
10,0.014038457606793427,0.013643093243999309
11,0.013941827317173075,0.013535570788194909
12,0.01381713970741558,0.013561294152038566
13,0.013840553408848755,0.01399578405428613
14,0.013402388066274164,0.01372354423844489
15,0.012288168913763877,0.012662891693246867
16,0.012058777634357481,0.011923116057759923
17,0.012021209121866027,0.011664681396823811
18,0.011938754066299257,0.01225304370168273
19,0.011931979627826599,0.011549623185773345
20,0.011841496058336717,0.01198206373603631
21,0.011854479254860668,0.01239796356337316
22,0.011778018809825402,0.012386516165496693
23,0.011759425240092722,0.011099676793861774
24,0.01180983297564922,0.01152208799140403
25,0.011747063050610254,0.01187062337948356
26,0.011673647159576993,0.011220409867651854
27,0.011704073125799885,0.011583547091698529
28,0.011672663545534194,0.011196686081569781
29,0.011660649305060453,0.01183429530338747
30,0.011605704055749483,0.011302987197714467
31,0.011565007535895467,0.011490708937586537
32,0.011593420084791336,0.011755572561239339
33,0.01157040124716999,0.011361857275790524
34,0.01155179942262175,0.012869104192992002
35,0.011550832697414557,0.011204942039886569
36,0.011533745849250349,0.011293702719099913
37,0.011483384028269008,0.012545280015239349
38,0.01149582097259296,0.011141387015470204
39,0.011494707425758015,0.011781544697288397
40,0.01147509410769951,0.011095305513267038
41,0.011470577453883357,0.011655064940766869
42,0.0114307164817968,0.011742601787241605
43,0.011222440013528743,0.010440935749588326
44,0.010007707366551205,0.0101558652015463
45,0.00989466895228177,0.009622059237886747
46,0.009828130877352754,0.009983163090334932
47,0.009828352462006083,0.009345937313202298
48,0.009746488879735912,0.009437174653223076
49,0.009760534237836115,0.0098298505041055
50,0.009787198917165013,0.00967832988049493
51,0.009754982351761489,0.00943287146964085
52,0.009775535228709683,0.009675771456036172
53,0.009747202797947278,0.00951698058569069
54,0.009720065897238866,0.009682956362425098
55,0.00970049647677121,0.009815298897161082
56,0.009708101212996308,0.010319352014540295
57,0.009716261056257875,0.01021562407934858
58,0.009760358296949536,0.010152131346315514
59,0.009700033300545285,0.009626865159563036
60,0.009710299914269386,0.010509427647492282
61,0.009691583289198356,0.010056221191644225
62,0.009714588219138277,0.009470448253107796
63,0.009649336440788081,0.010756536725695908
64,0.009687814140325228,0.009805145658201378
65,0.009663825851559232,0.00957080545666496
66,0.009686768340702834,0.009287064244263522
67,0.009660147817090311,0.009245038581619191
68,0.009644892565817353,0.009447630288231906
69,0.009651680881854226,0.010115691811474913
70,0.009650347512965502,0.009462815220641069
71,0.009631988735445607,0.009482409825627102
72,0.009604299944227674,0.009966007912665532
73,0.009635338564800172,0.00990910603440651
74,0.009640079925993842,0.01744066148478695
75,0.009653002617314742,0.009727208269413366
76,0.009580517167414577,0.009213896818163229
77,0.00961158694493695,0.009257610667746505
78,0.00961082688852997,0.010103786367895289
79,0.009568142224121405,0.009128977420275323
80,0.009565038204511753,0.009573637180853052
81,0.009544078963672457,0.009486061832393812
82,0.00961364026648004,0.009430175313434885
83,0.009560298612918485,0.009621728359543657
84,0.009542348259406877,0.009412035724106557
85,0.009563480415138619,0.0096926235180191
86,0.009574098316038162,0.009820477720858442
87,0.009576091625124641,0.009539635382851507
88,0.009552491971601795,0.009258083636796208
89,0.009545800421029323,0.010201781459855234
90,0.009587620225438348,0.009274254878867353
91,0.009522554326322145,0.009518946723656604
92,0.009563244050138057,0.009365566268738905
93,0.009527705755016765,0.009334946591083524
94,0.00955520507192868,0.009062224762426416
95,0.009544405305266556,0.00943533311050302
96,0.009521760423628225,0.009350442563278355
97,0.009526448163303152,0.00940056904577292
98,0.009530486030156604,0.009155664615397787
99,0.009528028380151743,0.00918521789958696
100,0.009531158543295396,0.009565716947223206
101,0.009524061936961585,0.009426188688475648
102,0.009516741420977389,0.00931969002772021
103,0.009511509262178882,0.009424435903339025
104,0.009519926964714263,0.00951741173049948
105,0.009500016059715483,0.00938595418376899
106,0.00950192448787196,0.009100632955119125
107,0.009512388890274164,0.009262357518150847
108,0.00950252929754735,0.009561649264384145
109,0.009482446933475473,0.009054448897892578
110,0.009477302564817556,0.009351071390663055
111,0.009499771883713808,0.00937972153922908
112,0.009465031716139143,0.009526254124847002
113,0.00946422817813108,0.009163879280997713
114,0.009445474439298957,0.009440265128633964
115,0.009488816692611897,0.009548217156167067
116,0.009452192427841706,0.009626011007809757
117,0.009454798547096006,0.009341158424839192
118,0.009498531668473347,0.009278630573422679
119,0.009490172705392316,0.009629688217829238
120,0.009461402683509274,0.009171969292421938
121,0.009444018671136572,0.009531760512488356
122,0.009474346377669645,0.009693305755482417
123,0.0094528034761495,0.009302562907818826
124,0.009473809332604166,0.009746070212173847
125,0.00948335827991361,0.00911742321934283
126,0.009458095846719307,0.00922984562527675
127,0.009471502215065779,0.00906688140950191
128,0.009461170753349945,0.009022437209360504
129,0.009404662776533753,0.01078830261393531
130,0.009438257891575272,0.009485497178680843
131,0.009457248129354673,0.009558778320885178
132,0.00943821884087744,0.009712100801319254
133,0.009424647153616173,0.009226318053143195
134,0.009428579539550997,0.010150759773925131
135,0.009438109120543598,0.009038163240185521
136,0.009425361068283974,0.00925354102612577
137,0.009428452875471711,0.009417096587826981
138,0.00943487876139582,0.009391997765204304
139,0.009426117654789937,0.009379222259276706
140,0.009424345174647082,0.009632099815471001
141,0.009400078801102493,0.00921491497928836
142,0.009419993378515432,0.00912122707837088
143,0.009410244777639507,0.009156916115349783
144,0.009405649398298221,0.009205089450326215
145,0.00941753095073246,0.00941759940310758
146,0.009392016521993837,0.009423317211603851
147,0.009401411597745685,0.009028912113780716
148,0.009399707708066526,0.009672724712113145
