epoch,loss,val_loss
0,0.06181756015009391,0.05211173227939653
1,0.0494869089942748,0.03384443031110923
2,0.028183233590917848,0.024975074967253888
3,0.025945580915578758,0.02419435597734327
4,0.025322129054237603,0.024316069872000672
5,0.02017139987759133,0.01950628188237659
6,0.01751346201497051,0.01683103600540025
7,0.015142018795325509,0.01540060404771315
8,0.014064672359787578,0.013642532013301222
9,0.01361871865859743,0.0136262871237199
10,0.013498804764683464,0.013686718481590523
11,0.013466337374627773,0.012702825204665697
12,0.013344581433420901,0.013991137386459128
13,0.013310141832473968,0.013183635146017406
14,0.01327309225023168,0.013269651817070047
15,0.01323874873109396,0.012841420704799314
16,0.013239815726196289,0.013646910646029057
17,0.013141979104456991,0.012508431890928567
18,0.013118924733072712,0.012553218064399865
19,0.013043892894800182,0.014022367570558494
20,0.013010459458656717,0.013072479944260185
21,0.013040825006755793,0.013336606944446676
22,0.01298744345121524,0.012571983752545736
23,0.013012872699959384,0.013689192424230185
24,0.01293710181878701,0.013515393352297784
25,0.01290137196161504,0.012319856012706869
26,0.012945787757679982,0.012667474085025988
27,0.012927286500649277,0.013030612093417283
28,0.012830460192382613,0.013549697046022557
29,0.012792448074424154,0.01269707347985089
30,0.012793957931942011,0.012499701061168173
31,0.012752902024368363,0.012782874806476734
32,0.012822310506245022,0.0129751813165825
33,0.012765653241566805,0.012586794195063505
34,0.012729151095173499,0.012405464352194044
35,0.012753357963015783,0.01241878609337079
36,0.012698919647689468,0.012168793904851595
37,0.012722937524050197,0.012293568783192422
38,0.01271449936992449,0.01224527260746169
39,0.012677793806946232,0.01255568959669351
40,0.01269388232169436,0.012850637996462971
41,0.012665831145924655,0.0127086503250945
42,0.012690083606592647,0.01258658378502867
43,0.012699529828693022,0.012472165319560184
44,0.012657267840057317,0.012634504997811602
45,0.012636598890594762,0.012096294081277647
46,0.012663397455274892,0.012614113008765223
47,0.012600182095322343,0.012288162033200708
48,0.012608036013976467,0.012298678956630064
49,0.012606756943655234,0.012757877075568618
50,0.012603915058120951,0.012375683191396463
51,0.012590867865028174,0.012290765880780392
52,0.01258886813883692,0.012556373373727793
53,0.012605068515186776,0.012247374856257556
54,0.012566174971017726,0.012109056192336988
55,0.012547680133877347,0.01219347206686182
56,0.012582951289605212,0.012643501210597253
57,0.012555006360595351,0.012007755121544336
58,0.01254764646365932,0.0135227151968454
59,0.012528105842722412,0.012252117850570466
60,0.012554535639591653,0.013244432149912524
61,0.012584922084229441,0.013160640768540408
62,0.012579379303647595,0.012915571489678718
63,0.012525548632120676,0.012257357592470297
64,0.012516354978944091,0.012210075070540751
65,0.012526538954641652,0.01284063854358776
66,0.01254169237229706,0.012331706726179451
67,0.012486617367766559,0.012197191721618768
68,0.012508218039739609,0.012681207509142886
69,0.012493650537883025,0.01255074523426315
70,0.012497586157871573,0.012239264035435675
71,0.012492591900476704,0.012064671130023583
72,0.01247736087173164,0.012295846340637052
73,0.012499264358776168,0.012279311501451076
74,0.012470504538203805,0.012439541932352572
75,0.012499340802634328,0.012232466207507526
76,0.012462148311093138,0.012210544613340209
77,0.012471625836471012,0.012222886208454077
