epoch,loss,val_loss
0,0.4500154361888646,0.44494158958382996
1,0.44485854749735665,0.44461610783122607
2,0.4449466411074373,0.4446270324012482
3,0.44473299202883854,0.4445377542422368
4,0.4446561030120699,0.4449621231325211
5,0.44464941197793956,0.44489690389290043
6,0.44461307886910173,0.4444987350450852
7,0.4445930934090692,0.44460146014507
8,0.4446049178351534,0.4445122529939741
9,0.44457389845109235,0.44465837869099883
10,0.4445574991573129,0.44458042309242796
11,0.4445667726204007,0.44460083055437055
12,0.44455846886811146,0.44450619720643564
13,0.4445556899956991,0.44454223430777895
14,0.44454574343145664,0.44449570377174735
15,0.4445410397934801,0.4445608437357115
16,0.4445411299711324,0.4445484134606629
17,0.44453807149542257,0.44462288505681985
18,0.444533800677204,0.4444866336456895
19,0.4445315752202046,0.44450887326271304
20,0.44452061275572496,0.44456141493456536
21,0.44453724752338797,0.44447896072349835
22,0.44451689797064553,0.44446709080606184
23,0.4445177013167958,0.4444908680898084
24,0.444518395562095,0.4444676747097271
25,0.44451205550522305,0.44466336159493136
26,0.44454401292468776,0.4444905773877506
27,0.444499478633309,0.4444673075865279
28,0.44451408406952986,0.4445257028929945
29,0.44451509626976854,0.4444794171353428
30,0.4445043002058288,0.4445042370122952
31,0.44450546570496047,0.44446805853110094
32,0.44450237092343453,0.4444676635874708
33,0.4445045719413542,0.4444920785521751
34,0.44450311844618784,0.44448873272013134
35,0.44449891242546974,0.4444886922096792
36,0.4445008312957267,0.4445318020455003
37,0.44449974442698625,0.444532397899675
38,0.4445029179043762,0.4444741337382172
39,0.4444981247296702,0.4444717622128669
40,0.4445050908873429,0.4444840216459175
41,0.44449905504402387,0.44448438845852173
42,0.4444912492426674,0.44447194936849344
