epoch,loss,val_loss
0,0.04032443905021045,0.02599984080098551
1,0.024477933830273975,0.025970527072143614
2,0.023289944207337508,0.021818903341852405
3,0.022793104139162888,0.022375230574356416
4,0.022578960009634805,0.022910916834847802
5,0.019852455770100516,0.01759922490466765
6,0.018147837095135844,0.017829772303569552
7,0.018047722055386448,0.017185884571308385
8,0.016440239623772213,0.015296887892943162
9,0.015606281200789138,0.014272562967192742
10,0.0153484228930682,0.01500908380776422
11,0.015292440501893682,0.015470070567989616
12,0.015172671319085396,0.014528774457149412
13,0.01511204349665235,0.015003113128318828
14,0.015114717466011974,0.014704292390966978
15,0.015151245810115751,0.014229548225183937
16,0.015047410353657815,0.01598468548329385
17,0.015057285618495935,0.014646728355761054
18,0.014918229419541488,0.014556590371092703
19,0.014872555993973134,0.015297531362891048
20,0.014891604950950025,0.014467106658789716
21,0.014867111981628761,0.014424207142413254
22,0.014841393223667978,0.015314030259958568
23,0.014864076303077525,0.014869730917288559
24,0.014756843288637763,0.014603354575727182
25,0.01474417639021833,0.01525681416963969
26,0.014791048955543,0.014201771857092161
27,0.014730660830354857,0.014621717559067398
28,0.014700931038029743,0.014434942564286901
29,0.014722372258422683,0.014835266714393353
30,0.014669992741054324,0.014426686565759165
31,0.014705521134397782,0.014604388324372821
32,0.014585825587737066,0.01466045024349509
33,0.014612624634033766,0.014625622939882297
34,0.014638417918815394,0.014562165734378931
35,0.014601297752315417,0.014281892341101731
36,0.01456090683412999,0.014486306245270053
37,0.014564517750704838,0.014401953911903331
38,0.014589766081007398,0.014728465700804005
39,0.014533225006625449,0.01494909223659015
40,0.01457181000678454,0.014689212330332761
41,0.014555907745865177,0.013843240128095185
42,0.014527140355426607,0.014104052858135985
43,0.014538888454842911,0.014306014356094762
44,0.014545176316779531,0.01463868550438591
45,0.014487325852307338,0.015192446533692238
46,0.014469753408317706,0.015461592623968574
47,0.014457473798778141,0.013968513869950848
48,0.01448231022145318,0.014262713917598091
49,0.014488808818722443,0.014654622901757952
50,0.014423174262295295,0.014163840798286736
51,0.014445194831357026,0.014733435402603511
52,0.014477927714571072,0.014272483012571969
53,0.014433338790999844,0.014022434874444682
54,0.014438755700934119,0.013974416514780031
55,0.01441720861091515,0.013971513346595592
56,0.014400017640021856,0.013986199706441563
57,0.014443438707159379,0.013897450952779123
58,0.01440030632071009,0.013987723498538173
59,0.014400842308690367,0.014061317256381435
60,0.014455405823889156,0.01444874501442791
61,0.014404685603984283,0.014404359119701622
.012570641880208348,0.012373568167073407
63,0.01252577675551855,0.013007555595569072
