epoch,loss,val_loss
0,0.5590994857911598,0.555769203022751
1,0.555892310852494,0.5556948434626199
2,0.5575894443851324,0.5557261358715464
3,0.5557021205393804,0.5569575633363747
4,0.5557185561874889,0.5557425369104144
5,0.5557089442942436,0.5556170927087959
6,0.5556818920508569,0.5556346941822515
7,0.5556757087826538,0.5556262417999154
8,0.555667078422769,0.5556472061881357
9,0.5556530070898701,0.5558433667601782
10,0.5556470937499869,0.5560576542731255
11,0.5556275098027001,0.5556217696471486
12,0.5556406448533661,0.5557104548508712
13,0.5556253845970831,0.5555858074583427
14,0.5556233929140426,0.555594276435322
15,0.555626873003023,0.5555813398609682
16,0.5556307566328265,0.5556626508312841
17,0.5556168623531974,0.5555825162762152
18,0.5556167532890268,0.5555823360719988
19,0.5556134545090443,0.5557235906201025
20,0.5556174193234645,0.5555791391332451
21,0.5556143742148424,0.5555953015760512
22,0.5556210641568401,0.5555713941382415
23,0.5556118648073135,0.5555781920849537
24,0.555613194400846,0.5556476309636686
25,0.5556050980421299,0.5556053597637205
26,0.5556052135644366,0.5555754327892369
27,0.5556018632865962,0.5555695387920729
28,0.5556040554487365,0.5555725231951578
29,0.5555996863330629,0.555585906079626
30,0.5556005979076203,0.5556006576228083
31,0.5555988735245244,0.55562625786211
32,0.5556005809138952,0.5555701527642849
33,0.5555959457982658,0.5555763214456828
34,0.5555957853269528,0.55557790479944
35,0.5555911812572333,0.5556472202388584
36,0.5555966860196256,0.5556030548535861
37,0.5556026578708376,0.5555738906114924
38,0.5555882897153113,0.5555922116594338
39,0.5555937649652756,0.5556051414006993
40,0.5555937329420075,0.5555906496331946
41,0.5555930381547833,0.5556414991986959
42,0.555595404847521,0.5556229885695294
43,0.5555931622697953,0.5556089587897876
44,0.5555920022940384,0.5555886401432027
45,0.5555923568115576,0.5555985909241896
46,0.5555897585717229,0.5555772361033607
47,0.5555888477023779,0.5555711146028107
