epoch,loss,val_loss
0,0.0318595083389415,0.018053802760045225
1,0.016260274767784858,0.01441691161570123
2,0.015359030702353484,0.01496350653330904
3,0.013937223580437755,0.01490657150921026
4,0.013399986915020281,0.012904450119410644
5,0.0127496419175492,0.01335001955913477
6,0.012126398244463854,0.011935194816079832
7,0.011899664812433378,0.011431906456428189
8,0.011711140995025137,0.011153268856608839
9,0.011586486707020829,0.011525438464346062
10,0.011335531557852326,0.011378755850749779
11,0.011050680021925451,0.01078333743101462
12,0.010630539755824201,0.010119223192556029
13,0.010546190504261914,0.010084002738166831
14,0.010454550490327678,0.019983289489712078
15,0.0104452948763752,0.010641417719386795
16,0.010308286368727484,0.009588182907523795
17,0.010311984282239228,0.011378324528689272
18,0.01030565366178579,0.01013076523129387
19,0.010211702878272957,0.010674211355134217
20,0.010175202990787698,0.009934938104162292
21,0.010158908330035223,0.009749685466825666
22,0.010138072173443594,0.009973639977296292
23,0.010142244598130451,0.009605190921436172
24,0.010156777608241453,0.009739043811340782
25,0.010069313887123895,0.009681694982365402
26,0.010012083694012323,0.009349360257368674
27,0.010039985286047813,0.00960999778922527
28,0.010023264805278072,0.00964499850232829
29,0.010018164365955174,0.009617991194073527
30,0.01000788815632136,0.009414009965272164
31,0.009998842940619227,0.009432637386911412
32,0.00998468154786225,0.009877035447001161
33,0.009954015431483837,0.009396143013116887
34,0.009956864139968822,0.00972419851979532
35,0.009876366171503842,0.010641134655098465
36,0.009833320557656114,0.009493317541945956
37,0.009836830808516646,0.009537625278371662
38,0.009787005675156859,0.009410826783285248
39,0.009775578013787825,0.009834405955472596
40,0.00969706507199094,0.009582055097089955
41,0.009672937522471989,0.009631029094474636
42,0.009722712882666686,0.00930073093253167
43,0.00972608745401098,0.009388602991812578
44,0.009697828417774381,0.010064778578405272
45,0.009663364022849015,0.010588776431145799
46,0.009697250447564315,0.009664492333127606
47,0.00967267370962855,0.009706806134035066
48,0.00965252217893412,0.009919155082173146
49,0.009628016133652127,0.009293214569825023
50,0.009619173194881623,0.009322760136747182
51,0.009602420344609869,0.009466577221919082
52,0.009630220463275769,0.009431714627189242
53,0.009656946298141074,0.00946355532189235
54,0.009624884637992825,0.009662855066654848
55,0.009586006974426062,0.009594832005316654
56,0.009639747240292387,0.009408916761317561
57,0.00958077043220806,0.009830904807479446
58,0.00962312104692035,0.009317581888020187
59,0.009587284051464806,0.009275132993111392
60,0.009599981830140313,0.009752437492217823
61,0.009558438783694749,0.009348647674041853
62,0.0095545053050049,0.009388941239852172
63,0.009543871982071066,0.00938145881033417
64,0.009558475041189033,0.009574912959205971
65,0.009572853906456619,0.009542714480874556
66,0.00955278117536938,0.009478697614286732
67,0.00952999523045028,0.009609120082637068
68,0.009551003015213878,0.009376012562559202
69,0.009557366225098321,0.009952105844287068
70,0.009513911335258588,0.009285771454830028
71,0.009526006033511778,0.009666222927366238
72,0.009509757526109048,0.009412244750330081
73,0.009543783091552165,0.009246544602786932
74,0.009528031023040385,0.009960063950854258
75,0.009521169399076249,0.009549645147524386
76,0.009520755880039184,0.0093643888618529
77,0.009522036275197316,0.00967999393485542
78,0.009506997432564609,0.009461811032127728
79,0.00949303521412403,0.009224861451232847
80,0.00948803775522076,0.009631096416848617
81,0.009509560293228175,0.00911794981916918
82,0.009499117360861245,0.009677743361269127
83,0.009480649039581759,0.009534444669192246
84,0.009479560286577341,0.009372107700326898
85,0.0095242781463611,0.009432644564334867
86,0.00949207340769182,0.009266542660872044
87,0.00944674173267456,0.009577310046472266
88,0.009509160320342729,0.009710582741825072
89,0.009487971307356098,0.01010905135164116
90,0.009447728342508002,0.009531932594555039
91,0.009441163724635453,0.009261289982601223
92,0.009437849206261492,0.009292168176684427
93,0.009477163152979357,0.009655670244616478
94,0.009465231003011458,0.00925401289237862
95,0.00942606594953817,0.009466366631628266
96,0.009206739111604207,0.00935534722594632
97,0.008925617195175678,0.008641992867103878
98,0.008851420468423982,0.008501488295968428
99,0.008837153845201319,0.008748129635087906
100,0.008811425033372934,0.008483045601815207
101,0.008800053199622343,0.010825062994718108
102,0.008779750153051557,0.008928789518237409
103,0.008777428080138526,0.008607194168728871
104,0.008796098221088141,0.01013998266993548
105,0.008787918324224705,0.008690968524692371
106,0.008769337029299154,0.008644439948597928
107,0.008776992435026155,0.008578862559059566
108,0.00875265971051951,0.008698812686369082
109,0.008764259084274084,0.008613915209919583
110,0.008760677700328671,0.0083979104310459
111,0.008777641063132252,0.008421067904135578
112,0.00873758500822691,0.008690303929667763
113,0.008737556239386506,0.008366423630370544
114,0.008773532745591905,0.008607129982577882
115,0.00873224710547256,0.008408315108612957
116,0.00874135568397555,0.008545276169057371
117,0.00876980887936246,0.009331789648821276
118,0.008734133756665655,0.008990054016484516
119,0.008727084506120704,0.008628851374052003
120,0.008774930601663592,0.008344811367485718
121,0.00873049284647759,0.008478079243070879
122,0.008721227497664552,0.008478853371336354
123,0.008733340646164744,0.008573749729388257
124,0.008731279344299807,0.008596245583988004
125,0.008738516060270441,0.00840175463159386
126,0.00870969388989432,0.008551827057382605
127,0.008735087651095933,0.008373764603082137
128,0.008719865964855696,0.008605852597866845
129,0.008708046592171116,0.008512385116044257
130,0.008688522362331572,0.008480615517766984
131,0.008693439348985322,0.008666759216811313
132,0.008733283244920394,0.008491436063679438
133,0.008706729037709393,0.008544306485467676
134,0.008721423966325003,0.00834506830829138
135,0.008722026952876766,0.0084405153174018
136,0.00869601774619884,0.008546354662784129
137,0.008701334888382569,0.0084481202484231
138,0.008700522733184845,0.008583833698747175
139,0.008695801896085903,0.00888850281324709
140,0.008678149068984335,0.008575602749330235
