epoch,loss,val_loss
0,0.15063037789560002,0.06132813438702589
1,0.053886357091849656,0.05009445801800692
2,0.048179129551021126,0.048089759111192724
3,0.048091960750776326,0.04884190036200028
4,0.048058163000942226,0.048773845850292305
5,0.04790185424361488,0.0485614800080363
6,0.04792574080947539,0.04821455330773894
7,0.04787273315502871,0.048290844077586936
8,0.047861886787698045,0.04859610202692114
9,0.0477927083612608,0.04827304099169696
10,0.047838492942847415,0.047984441931946786
11,0.04784950544591621,0.04828904744387614
12,0.047859433499409805,0.04838197965001439
13,0.04773749804777874,0.04792193832036164
14,0.04771733431251263,0.04936970813874664
15,0.0477819964810789,0.04782883894071865
16,0.04774688082121068,0.047785975844632386
17,0.047784066039154666,0.04772968357392155
18,0.047743373375525956,0.047502442085917015
19,0.047747725699778844,0.04770948595257848
20,0.04768367216056533,0.04756729544420457
21,0.04767387387432831,0.04813764968794354
22,0.04771187587780394,0.04811312692223709
23,0.04772208670792963,0.04745736786685502
24,0.04775368141905247,0.04898164747393122
25,0.047679138355713475,0.04749569631142699
26,0.047716973496855594,0.048088670476694795
27,0.047594802385623414,0.04754983526731723
28,0.04758103494551018,0.04789278989374026
29,0.04761688123724396,0.04745752918927239
30,0.04759965900281112,0.04723760521520097
31,0.04763024314481625,0.04792563620463731
32,0.047634396758630314,0.04762166447719911
33,0.04757985703313618,0.04723970455006529
34,0.04751593565388168,0.047722023153926034
35,0.0475913990068612,0.048213971462674095
36,0.04758244415344618,0.04736374731410086
37,0.04761594478681171,0.047707232101963745
38,0.04756229171763174,0.04777863336801999
39,0.047534552125109854,0.047354580456686474
40,0.0475414700249283,0.047461436254331794
41,0.047610887194530285,0.04792295116710682
42,0.047533089610681735,0.047278139155119914
43,0.04750337046559909,0.047503961004675514
44,0.047527570975758285,0.047341758580826926
45,0.047475190195951054,0.04798487054026776
46,0.04754080259941703,0.04802174962933551
47,0.04745677661010735,0.04793778624335611
48,0.0475442560745491,0.047262391394508475
49,0.04755859666591068,0.04771229314552392
50,0.04742072559267783,0.04859243343924573
51,0.04749234573101159,0.04733811295058375
52,0.04742914725907987,0.04747759134765206
53,0.04748494487455328,0.04817377727099451
54,0.047474335539612555,0.047762907179985443
55,0.04747528294853265,0.04729989589130963
56,0.04743144850728275,0.04760069309806579
57,0.047464066936219816,0.04731561315570088
58,0.047472493210844666,0.04750178544396195
59,0.04743660605556483,0.04769258781526629
60,0.04748380704403972,0.04756982554552963
61,0.047498359539204366,0.04740871334097097
62,0.04741041179892304,0.04759541113920445
63,0.04747749750556753,0.04757465238976215
64,0.04737626619154601,0.04738393004604372
65,0.047461073011826935,0.047349514511738036
66,0.04739945094070608,0.047453735923451895
67,0.047428207723595066,0.04726285939329049
68,0.047404115943671415,0.04771198727772663
69,0.04741236688844639,0.04780655036714948
70,0.047393045012208576,0.04778612285981803
71,0.047361356354386305,0.04794422966070126
72,0.047454109253119124,0.0471755716958522
73,0.047441727984294614,0.04767167776670151
74,0.04740778834437676,0.04748594536554089
75,0.04739524760424233,0.04752155732372283
76,0.047430452881016126,0.047649692732255666
77,0.04743697704951302,0.0474472590402392
78,0.047408247293590264,0.04722577730971429
79,0.047384027412517085,0.04729603249182735
80,0.047410184358187814,0.047432801838385
81,0.04737005166286568,0.04770198646394776
82,0.04740089630867413,0.04739023747118139
83,0.047326441096375696,0.047328102986762724
84,0.047405817716432326,0.04771452483845303
85,0.04738023735993772,0.0471220959269022
86,0.047348380861558216,0.04743456699383381
87,0.04734357550954647,0.047366561681243875
88,0.047411009191358974,0.04770580286067494
89,0.04736516095376272,0.047283654360669565
90,0.047382978942814014,0.047204142117368585
91,0.04737907985030271,0.04737419226069382
92,0.047370069665457606,0.047671899446466354
93,0.04737553022337331,0.04741776906300833
94,0.04738199540810715,0.047351905360124014
95,0.04735963220010511,0.04718785736218812
96,0.04733584867678672,0.047284851843033986
97,0.047345653591717746,0.04762166152225297
98,0.04733998834235158,0.047123848409895454
99,0.04738828292091211,0.047369251796577326
100,0.04741009874053472,0.04740665730709341
101,0.04729764371348037,0.04712661770896452
102,0.047390844705674666,0.04751964713187319
103,0.047305310145020485,0.047229484158796686
104,0.047313636119703024,0.04724817399608872
105,0.047354121359703925,0.047929157065587806
106,0.04733394233764504,0.04756876517266576
107,0.04731741057728216,0.04729378186960152
108,0.04736060995629413,0.04812585793864849
109,0.04733966956946918,0.047175552390204135
110,0.047382427836588914,0.04723972600209214
111,0.04732970683295711,0.04734584317199339
112,0.04728936682418763,0.04846746894371444
113,0.04735876749798977,0.0473243508226258
114,0.04727310455329031,0.047440518411177766
115,0.04741257136251381,0.04718455667853732
116,0.04727095060592456,0.04805347667426318
117,0.04738500962952535,0.04715124312744144
118,0.047357085507086144,0.04727430248834434
119,0.04731004129347803,0.04707207397837854
120,0.047313706733459096,0.04723135810918759
121,0.04734119432096144,0.04756993518432201
122,0.04730086876220888,0.04745167608489742
123,0.04734334759086632,0.04718929139019564
124,0.04733904605533341,0.04749773003766644
125,0.04736137881184177,0.04817047714304999
126,0.04730524504922039,0.048010712611505905
127,0.04732806236296297,0.047204149759065096
128,0.047276218309343386,0.047268674906634306
129,0.04735270858877044,0.04775651283826805
130,0.047295326079658084,0.04779286890775083
131,0.04731918378866357,0.047304916897554894
132,0.047341266337284846,0.04739883573227448
133,0.04728637894036339,0.049108477263772404
134,0.047373846043749966,0.04731307189908664
135,0.04725765323431658,0.047259675008086775
136,0.047320538482589304,0.04732355678890668
137,0.047307905924918174,0.04748562987432201
138,0.047293091775011196,0.048119505160233125
139,0.04730332902759957,0.04748418339731755
140,0.04735266740063874,0.04728858710664318
141,0.04725329734408836,0.047574505662720507
142,0.047363691413097625,0.04741666672696913
143,0.04727171323478794,0.04735015557921582
144,0.047304073631537144,0.04711827268822511
145,0.04729171200014418,0.04724293548228615
146,0.04730911598169356,0.04771845928307302
147,0.0472822474743084,0.047322322812222456
148,0.04731104806732598,0.04717012316035585
149,0.04734916553395591,0.04736217512398511
150,0.04723652049029569,0.047413848131753936
151,0.047320596090585684,0.04728053337302656
152,0.04733232397892826,0.04812788439072204
153,0.04726951981006528,0.047586907668666946
154,0.047273741935273346,0.04738180356389816
155,0.04728911324388546,0.04750365451060606
156,0.047326950194071425,0.047231263442122286
157,0.04729724710555576,0.0473391591926306
158,0.04728737921058703,0.04717841259870552
159,0.047283165094306426,0.047108484477675044
160,0.04726305972638843,0.047109721079997974
161,0.04733690157455268,0.04718406423455914
162,0.0472838810215489,0.04716431534751344
163,0.04721313957973636,0.04729520002616703
164,0.047280818993727464,0.0472669054437267
165,0.04725775071274605,0.04724715008520196
166,0.0473053867397882,0.04709276089175724
167,0.0472579553312392,0.04722987289739671
168,0.04734807533713029,0.047202168951353506
169,0.047198658468102,0.04744592503642321
170,0.047262318375751934,0.04751284723629515
171,0.04721930381104195,0.047071659662588056
172,0.04729845640595726,0.048239372200211295
173,0.04724360474770208,0.047538837860467024
174,0.04726597048985443,0.047723046826652966
175,0.04729631962738544,0.04710752999185105
176,0.04727309781888263,0.04729830388688345
177,0.04725277393186788,0.04732584796593052
178,0.047300582689096884,0.047212720822892795
179,0.047290008808437776,0.04722796481958316
180,0.04725111430163959,0.04733659486979505
181,0.04725793677178933,0.04759426591969327
182,0.047297526573796544,0.047203285368225566
183,0.04723612478614854,0.04798153162461242
184,0.04728462616001054,0.047236486557862285
185,0.0472888899617177,0.047286456508154745
186,0.04721420119069129,0.04723629520672367
187,0.04726327904950467,0.04727046425735847
188,0.04727755248886075,0.04756726964943599
189,0.047227019068898916,0.04730825768614624
190,0.04727456458419156,0.04710141577902702
191,0.04724078950026243,0.04749640695980052
192,0.04727828186854041,0.048062931261104024
193,0.047293769314789846,0.047062649137995426
194,0.04720642162616447,0.04732673224164636
195,0.04728154777783713,0.04710969261548702
196,0.04725139695617983,0.047214754619698124
197,0.04724598411979864,0.04734785294993806
198,0.04729819632649755,0.04737257813974544
199,0.04723288654405579,0.04749326955088971
200,0.047264290202280984,0.04729602421503793
201,0.047269518337518475,0.04720356801690882
202,0.04725679590386881,0.047695653514544044
203,0.04725917416820519,0.047226650139056706
204,0.04723645649034438,0.04713496968632339
205,0.047277247857787814,0.04731946380922149
206,0.04722086750090027,0.04714133094440508
207,0.04725887941317164,0.047198736691743064
208,0.04727640448452281,0.04726511902442671
209,0.04722490327076899,0.04715760161581243
210,0.04723056898914653,0.04723828937784837
211,0.04725059176937377,0.047200314456563155
212,0.04723143334583127,0.04722575611642899
213,0.04730054257150224,0.04719013503760734
214,0.04724041447728324,0.04750332283627921
215,0.047226395538384966,0.04716668008652464
216,0.04721643875459496,0.04718722717067625
217,0.04725240758336562,0.04713441365366859
218,0.047268382129933145,0.04756453216675707
219,0.047273355946361686,0.04734695529904814
220,0.04726373274430192,0.04746159653590247
221,0.04721959985548453,0.04723628556860086
222,0.04724465811001263,0.0472939282908577
223,0.04721738578979489,0.047175309370141756
224,0.047288084751088845,0.04709107485241841
225,0.04723074523319634,0.04720369559707563
226,0.0472344708451026,0.04756021407898148
227,0.04726772919761763,0.047358178407918214
228,0.04723280413354711,0.047095168126128094
229,0.0472528051427133,0.047815104318751814
230,0.04721372759938955,0.04709006060023616
231,0.047250956285009374,0.04727350236243776
232,0.04724142681524384,0.04708987874314836
233,0.04732551055697562,0.04749452485023
234,0.04718021734012402,0.04728644265078049
235,0.04724088989549594,0.048094987078336815
236,0.04724723019218035,0.04770984131057806
237,0.04720875398098803,0.047305801728977026
238,0.047213131974307564,0.04838235306111771
239,0.047270590326280525,0.047219035860324526
240,0.04724346930466348,0.04760591665778277
241,0.047238568825234806,0.04725958488958034
242,0.047194239164558914,0.047200715020828204
243,0.04724976358761033,0.04710075962515261
244,0.04721561666253469,0.04725536647904738
245,0.04725701619180844,0.047083238135338205
246,0.04724553678717783,0.04714846012977135
247,0.04722742282217451,0.04738906482800594
248,0.04723235622471233,0.04720292301832359
249,0.04723957230111392,0.04740402978957405
250,0.047239102427657845,0.04725873301242314
251,0.0472719562467006,0.04846458116159631
252,0.047220808275931364,0.047200720792528954
253,0.04724982503554423,0.04712826845066324
254,0.047201506559737774,0.04756717795495829
255,0.047230217608807086,0.047858496867678915
256,0.04727007679158835,0.04717134757242338
257,0.047199388872162046,0.04754044930579254
258,0.047262142795762664,0.04724059321262654
259,0.047205573713167207,0.04742811203014691
260,0.04725795602954501,0.047530641560255306
261,0.04718376637297235,0.04752387286949647
262,0.04723401259717276,0.047308704047665975
263,0.047211313757190794,0.047386082034813856
264,0.047221302844697145,0.04712731006901473
265,0.047247426168952916,0.04720629609962477
266,0.04726060785853463,0.047306110363544776
267,0.047231978426376976,0.04726073139985904
268,0.04728049961634153,0.04753492467087747
269,0.04718886426151942,0.047550779403479154
270,0.04725294806313315,0.047198358779124795
271,0.04723181546353798,0.047362648967974
272,0.04722642256832904,0.04718013685240742
273,0.04724536404359064,0.0472562403698182
274,0.04719722058793767,0.04714163760900874
275,0.047300117580200744,0.0472448758381083
276,0.04722989405647551,0.04713538599854016
277,0.047226934341622964,0.04723547609271548
278,0.04724334775180601,0.04733108660910387
279,0.04726653250692178,0.04713170256262796
280,0.047205238626133815,0.04719122892632292
281,0.04729205448266795,0.04707357668462661
282,0.04719420346311576,0.04776226538038668
283,0.04724159039896455,0.04735944033163029
284,0.04720523896114193,0.04745490398866602
285,0.04725469293133865,0.047174186799337096
286,0.04725486563770272,0.04729463804833703
287,0.04718282370032262,0.04710605503269416
288,0.04721902705115571,0.04707461636404683
289,0.04722456391647661,0.047349300729471015
290,0.04727951780878764,0.047308282469470574
291,0.04720982095951752,0.04713111151165631
292,0.04721250164834001,0.04768443453965831
293,0.04722724136242049,0.04709141861997257
294,0.047218433221717246,0.04719742748301238
295,0.04722214885187044,0.04722056915100014
296,0.04723559195349971,0.047646770822714894
297,0.04721613117693949,0.047160815568118936
298,0.04725554567440856,0.0473930692210523
299,0.04722571058524884,0.047157589622553446
300,0.04725362684616415,0.04739341713141153
301,0.04720895154793247,0.04740876973192806
302,0.04722913689345574,0.04751559370730275
303,0.047283655102495,0.047886610651519605
304,0.047217237637292665,0.04730209190436678
305,0.04722582442994169,0.048084320866553544
306,0.0472353020106717,0.04722061857945729
307,0.04722861910937168,0.04718757460177556
308,0.047211627716378726,0.047281233624694094
309,0.047222810984253405,0.04726002320953025
310,0.047281337633943384,0.047170774433423705
311,0.04725656977487649,0.047084577790304914
312,0.04721191596778796,0.04787368734897171
313,0.04723732094232032,0.0470532892652638
314,0.04722424770752303,0.04808165030384873
315,0.04721784926087355,0.04792771401102842
316,0.04725100835420483,0.047430530743233876
317,0.047256259191081486,0.04710867512021464
318,0.04726650554100148,0.047574407931920006
319,0.047192417795387964,0.04716592553147389
320,0.047286878742700475,0.04741741025022098
321,0.04717231877624607,0.04712972387777319
322,0.04721440919648877,0.04734965448797737
323,0.04732194464269588,0.047140509192997206
324,0.047186749889779625,0.04732578286008752
325,0.047168963915593234,0.047230600164034464
326,0.047272272951466195,0.04721817654728795
327,0.04724399021549,0.047252061996600155
328,0.047180757937516624,0.04709238500790795
329,0.04728441694669491,0.047300236698037165
330,0.04716444134319143,0.047154926960286704
331,0.047262695572561596,0.047331539209823296
332,0.047169098027532906,0.04712970717424187
333,0.047219039893133655,0.04732782886478971
334,0.04720676663539392,0.04868511888533007
335,0.04723825279644115,0.04713035818268769
336,0.04721273196121152,0.04717941203793392
337,0.04722183366580833,0.0474586488698163
338,0.04724158498672225,0.048146212868974636
339,0.047186147616647606,0.04725794541784037
340,0.04726444076535275,0.047330685342120295
341,0.04721591847507264,0.047429646358728976
342,0.047182546215329906,0.04819783256422278
343,0.04720248510356811,0.047227880972619124
344,0.04723572905966752,0.04709934877215546
345,0.047221204676895404,0.0479640576344545
346,0.047249938765589854,0.04725992518176502
347,0.047181236763878594,0.0471954184577704
348,0.04720258010442642,0.04805436445769119
349,0.0472088483296972,0.04715935792112407
350,0.04721680913659499,0.04723083546007348
351,0.04723583501603582,0.04712657417569842
352,0.04725764200037761,0.04734371073585189
353,0.047216452293389805,0.04730584739980118
354,0.04723714926927019,0.04719267195736035
355,0.047190902656395375,0.047061355268522426
356,0.047264853167793545,0.04741120946776613
357,0.04717038439618026,0.04726276837506911
358,0.04724560988297184,0.04712990886622183
359,0.047208106624696565,0.04723786380680038
360,0.04719864830172224,0.04727502739102519
361,0.04723584194995945,0.0471384947841668
362,0.047179950095957324,0.047090814573118416
363,0.047255961004075864,0.04758202782063947
364,0.047192101168046466,0.04754856538436219
365,0.04727778982201354,0.04705370251962587
366,0.0472037217391433,0.04805796596661927
367,0.047225161243399844,0.04714510920321555
368,0.047216842397690105,0.04719020919352417
369,0.04720955656813108,0.04715533582486312
370,0.047191406377583005,0.047415145206093884
371,0.047246941179930446,0.04713957518891923
372,0.04723226275000212,0.04715726969744525
373,0.04721103821226733,0.04734482437713276
374,0.04720085439868539,0.04718679495761502
375,0.04721192501598506,0.04854086986739239
376,0.047233722500985474,0.04841798807964046
377,0.04723699528464882,0.04722957198391209
378,0.04716851498684485,0.04724056396012995
379,0.047247929824627846,0.0471270163179667
380,0.047225172647076256,0.047855965763730336
381,0.04725046421019293,0.047116025035646644
382,0.047180392126516285,0.047153661108407435
383,0.04725294725464688,0.04710810451864632
384,0.04720810643262524,0.047442127413159764
385,0.047207573829270856,0.04841261397350371
386,0.047270380289589374,0.04844826803893298
387,0.0471654122116135,0.04712644673666337
388,0.04720694502498463,0.047436498534801724
389,0.04723463755407684,0.04717779082511482
390,0.047208824109354564,0.04743456025479248
391,0.047265328572605916,0.04706388032438723
392,0.047167089616628195,0.04707484537090198
393,0.047219379184891185,0.04709918996952798
394,0.0472370906949615,0.04722167983733488
395,0.04717515881577556,0.0474985071620371
396,0.04718059528139617,0.047144722155256356
397,0.04721807144868145,0.04715802211493795
398,0.04723728704396531,0.04770694973848425
399,0.047205507031662,0.04728352802128611
400,0.04719098176297953,0.04738692767277136
401,0.047247239189754,0.04711504786289293
402,0.04723889978496815,0.04711578775200208
403,0.04721880302154761,0.04703553972417384
404,0.0471566318378722,0.04721034882735717
405,0.047249739456603185,0.04735934159526603
406,0.047249650901301114,0.04719307401821005
407,0.047201295464420964,0.04744617587165656
408,0.04720739166823318,0.04707846797020678
409,0.04718988896946875,0.04712080296302463
410,0.04723458614894192,0.04723990244618907
411,0.047182533552022954,0.04710959345866774
412,0.047225393415938656,0.047193841677932356
413,0.04717587535347727,0.047405311609923416
414,0.04722638396348217,0.047167948622847504
415,0.04725378337238047,0.04715793625684639
416,0.047183115085918936,0.0477548222533106
417,0.04727093352646612,0.047226743459489844
418,0.04717401992068064,0.04724781710034105
419,0.04724651971887008,0.04769776600700433
420,0.04721540000757201,0.04723704686563318
421,0.047218122057241504,0.04835177436706205
422,0.04722768523924643,0.0471190640022177
423,0.047181293022908945,0.04714228096693731
424,0.04721168959014517,0.047103091051189
425,0.04722929210197344,0.047235034776656006
426,0.04718882581747645,0.0474047988076895
427,0.04719512468929009,0.05058057498313257
428,0.047222447671669186,0.04715449899587936
429,0.047190707203724404,0.047093154405314995
430,0.047195769228535495,0.04745781183501539
431,0.04721782014792343,0.047188578316120056
432,0.04721007037082974,0.04709538485452051
433,0.04721820818261801,0.047298202798323266
434,0.047196236389170254,0.047214029352426905
435,0.04722641588007803,0.047105067260357555
436,0.047229084524986364,0.04760076848006474
437,0.04714152352403489,0.04707946080564512
438,0.047263535412607624,0.04736705166129682
439,0.047200540680703305,0.04714955527985199
440,0.04722578570002513,0.047291338211476755
441,0.047208366427216215,0.04712912224191987
442,0.04719882928799811,0.047259710679138
443,0.04725342621947888,0.04719222501367213
444,0.04720569213332652,0.047363376328699594
445,0.047191450198134074,0.047247183721603705
446,0.04720732398914824,0.04754469907109721
447,0.04721419304031596,0.0471448621844201
448,0.04724372494414889,0.04733810213342274
449,0.047179097166771794,0.047397933538706166
450,0.04726305382280089,0.047246698816413475
451,0.04717007354140091,0.04715725279691752
452,0.047227156487740965,0.04728878145977184
453,0.04724422023802114,0.047292526243894045
454,0.04718380054975633,0.04746579112751143
455,0.04721123965190564,0.04710140397100347
456,0.04716374226164618,0.047339169968628185
457,0.04725134814475223,0.04723253107873022
458,0.04724812730521464,0.04716568656012875
459,0.0471703000500691,0.047185052315621465
460,0.047175470462662995,0.04782622407507313
461,0.04722265836795409,0.0472328435650188
462,0.04717531263214841,0.04715341894395632
463,0.04721761118176934,0.04707794266605152
464,0.04726387084358268,0.047454407622401135
465,0.04722498759305734,0.0474197041822543
466,0.047146372744243305,0.047252627776166824
467,0.047209560626940573,0.04720510058428419
468,0.04716619736344504,0.04705877815856177
469,0.04719268402708568,0.04757564977375936
470,0.04722907797073861,0.04725395186841723
471,0.04722379104083152,0.04713463146407113
472,0.04723571258471262,0.0471231156302985
473,0.04717027221312769,0.04714819085332194
474,0.04724890637627656,0.04719418109686429
475,0.047198475104012934,0.04716675720914857
476,0.04717411158485807,0.04712889400834913
477,0.047214333702036614,0.0471084070727876
478,0.04718014985757718,0.04717279920367717
479,0.047196181683088666,0.04727421567761343
480,0.04715948047296559,0.04858133935126246
481,0.04727607842484157,0.04716234835601267
482,0.047154021302727965,0.047109516424251145
483,0.04721647945287035,0.047768415058444785
484,0.0472530002871768,0.04730298327489359
485,0.04714461663167635,0.04782733208872525
486,0.047226540847040484,0.047409038073379595
487,0.047193645079025355,0.04705280961135098
488,0.047196146338987506,0.04737129426710513
489,0.04721388123411355,0.04710595581412974
490,0.04722292555703057,0.047914229289297054
491,0.04717246613664021,0.04729776858883574
492,0.04722377722360772,0.047128388080407806
493,0.0472368286903218,0.04709785462496031
494,0.04717463311805523,0.0471322529999967
495,0.047199395351963554,0.0474077215963635
496,0.04723485643498236,0.04722811407523543
497,0.04721318037776972,0.04707236809401693
498,0.047151152998935596,0.047096532834921656
499,0.04722523769225291,0.04718326485253453
500,0.047192159956760356,0.04744442176858835
501,0.047272009563615186,0.0470654942748014
502,0.04716688686524697,0.04733043786758688
503,0.04717660436092568,0.04771452228632045
